{
    "talkId": 1909603,
    "type": "NARRATOR",
    "dialogList": [
        {
            "id": 190969907,
            "talkRole": {
                "type": "TALK_ROLE_NPC",
                "id": "1533"
            },
            "talkContentTextMapHash": 1077154202,
            "talkAssetPath": "",
            "talkAssetPathAlter": "",
            "talkAudioName": "",
            "actionBefore": "",
            "actionWhile": "",
            "actionAfter": "",
            "optionIcon": ""
        }
    ]
}