{
    "talkId": 7400101,
    "type": "NARRATOR",
    "dialogList": [
        {
            "id": 740019901,
            "nextDialogs": [
                740019902
            ],
            "talkRole": {
                "type": "TALK_ROLE_NPC",
                "id": "1005"
            },
            "talkContentTextMapHash": 4229138418,
            "talkAssetPath": "",
            "talkAssetPathAlter": "",
            "talkAudioName": "",
            "actionBefore": "",
            "actionWhile": "",
            "actionAfter": "",
            "optionIcon": ""
        },
        {
            "id": 740019902,
            "nextDialogs": [
                740019903
            ],
            "talkRole": {
                "type": "TALK_ROLE_NPC",
                "id": "20995"
            },
            "talkContentTextMapHash": 2861625714,
            "talkAssetPath": "",
            "talkAssetPathAlter": "",
            "talkAudioName": "",
            "actionBefore": "",
            "actionWhile": "",
            "actionAfter": "",
            "optionIcon": ""
        },
        {
            "id": 740019903,
            "nextDialogs": [
                740019904
            ],
            "talkRole": {
                "type": "TALK_ROLE_NPC",
                "id": "20995"
            },
            "talkContentTextMapHash": 669115274,
            "talkAssetPath": "",
            "talkAssetPathAlter": "",
            "talkAudioName": "",
            "actionBefore": "",
            "actionWhile": "",
            "actionAfter": "",
            "optionIcon": ""
        },
        {
            "id": 740019904,
            "nextDialogs": [
                740019905
            ],
            "talkRole": {
                "type": "TALK_ROLE_NPC",
                "id": "1005"
            },
            "talkContentTextMapHash": 1256528586,
            "talkAssetPath": "",
            "talkAssetPathAlter": "",
            "talkAudioName": "",
            "actionBefore": "",
            "actionWhile": "",
            "actionAfter": "",
            "optionIcon": ""
        },
        {
            "id": 740019905,
            "talkRole": {
                "type": "TALK_ROLE_NPC",
                "id": "20995"
            },
            "talkContentTextMapHash": 2784832010,
            "talkAssetPath": "",
            "talkAssetPathAlter": "",
            "talkAudioName": "",
            "actionBefore": "",
            "actionWhile": "",
            "actionAfter": "",
            "optionIcon": ""
        }
    ]
}