{
    "luaDataPath": "",
    "entityBan": "",
    "group": [
        [
            {
                "$type": "DKLMLAFNEFF",
                "type": "CUTSCENE",
                "DOAJDIBEEBD": {
                    "$type": "LKIMJCPPNNB",
                    "type": "TIME_LINE_PREFAB",
                    "luaDataPath": "",
                    "resPath": "ART/Cutscene/Cs_Cwl_Sandworm_Convert",
                    "castListPath": "",
                    "entityBan": "",
                    "needYEuler": true,
                    "fadeInDuration": 0.5,
                    "fadeOutDuration": 0.5
                }
            }
        ]
    ]
}