{
    "luaDataPath": "",
    "entityBan": "",
    "group": [
        [
            {
                "$type": "DKLMLAFNEFF",
                "type": "CUTSCENE",
                "DOAJDIBEEBD": {
                    "$type": "LKIMJCPPNNB",
                    "type": "TIME_LINE_PREFAB",
                    "luaDataPath": "",
                    "resPath": "ART/Cutscene/Cs_Scene_Goddess_Chord_Rock",
                    "castListPath": "",
                    "entityBan": "",
                    "startPosType": "RELATIVE_TO_INTEE",
                    "needYEuler": true,
                    "fadeInDuration": 0.0,
                    "fadeOutDuration": 0.30000001192092896
                }
            },
            {
                "$type": "PBIGHFCHGCA",
                "type": "CAMERA_MOVE",
                "delayTime": 4.0,
                "duration": 1.0,
                "CGCNCKNJOFB": "EXIT",
                "JOBAHIHHJIB": "TO_INTEE",
                "COBIBPMPAPO": 5.0,
                "JBODIEHINII": "",
                "EJCHLMIMLBO": "",
                "BIMPIKMCIHB": "",
                "MCAOJPLIJGI": ""
            }
        ]
    ]
}