{
    "luaDataPath": "",
    "entityBan": "",
    "group": [
        [
            {
                "$type": "DKLMLAFNEFF",
                "type": "CUTSCENE",
                "DOAJDIBEEBD": {
                    "$type": "LKIMJCPPNNB",
                    "type": "TIME_LINE_PREFAB",
                    "luaDataPath": "",
                    "resPath": "ART/Cutscene/Cs_XM_WQ3313025_Chiwang2",
                    "castListPath": "",
                    "entityBan": "",
                    "needYEuler": true,
                    "fadeInDuration": 0.0
                }
            }
        ]
    ]
}