{
    "common": {
        "effectAttachShape": {
            "$type": "CMIPFEGOJCH",
            "EJAEFCDBDFB": "EffectMesh"
        },
        "mass": 30.0,
        "height": 0.6000000238418579,
        "affectedByWorld": true,
        "checkInSurface": true,
        "DLFJJCMGIBH": true,
        "NICGCIINMFJ": true
    },
    "model": {
        "bornEffect": "",
        "attachEffect": ""
    },
    "dither": {
        "showDitherDuration": 2.0
    },
    "combat": {
        "property": {
            "endureType": "Monster_Slime",
            "weight": 75.0
        },
        "beHit": {
            "hitBloodEffect": "",
            "muteAllHit": true
        },
        "combatLock": {
            "lockShape": "CircleLockEnemy",
            "lockType": "Avatar&Monster_Lv4"
        },
        "die": {
            "hasAnimatorDie": true,
            "dieEndTime": 0.5,
            "dieForceDisappearTime": 4.0,
            "dieDisappearEffect": "Eff_Death_Common",
            "dieShaderData": "MonsterDie",
            "dieShaderEnableDurationTime": 0.10000000149011612,
            "dieModelFadeDelay": 0.5,
            "LDOHFFOEPPI": true,
            "BMOKGIFNILM": true,
            "PHCLLDNDFNG": true,
            "CHBAHMJGJBE": true,
            "OPPHENIKFJA": true
        }
    },
    "abilities": [
        {
            "abilityID": "",
            "abilityName": "FauneAbyssale_HermitCrab_Larva_Born",
            "abilityOverride": ""
        },
        {
            "abilityID": "",
            "abilityName": "FauneAbyssale_HermitCrab_Larva_Defend",
            "abilityOverride": ""
        },
        {
            "abilityID": "",
            "abilityName": "Monster_FauneAbyssale_HermitCrab_NormalCollisionInWater",
            "abilityOverride": ""
        }
    ],
    "stateLayers": {
        "defaultLayer": {
            "$type": "KFHJINNNDPN",
            "BOPIBFKFKCA": "",
            "stateIDs": {
                "Born": {
                    "$type": "MEECNDLIOBI",
                    "HKPCLGHBKFD": {
                        "Born": []
                    }
                },
                "NormalIdle": {
                    "$type": "MEECNDLIOBI",
                    "HKPCLGHBKFD": {
                        "Standby": []
                    },
                    "KNOHBHKACHA": true,
                    "BAABNFCMKIO": true,
                    "ADPGACLPFHN": [
                        "DoSkill"
                    ],
                    "NPMGEMAFACP": true
                },
                "NormalMove": {
                    "$type": "MEECNDLIOBI",
                    "HKPCLGHBKFD": {
                        "WalkForward": [],
                        "WalkBack": [],
                        "WalkLeft": [],
                        "WalkRight": [],
                        "WalkForwardInWater": [],
                        "WalkBackInWater": [],
                        "WalkLeftInWater": [],
                        "WalkRightInWater": []
                    },
                    "KNOHBHKACHA": true,
                    "BAABNFCMKIO": true,
                    "ADPGACLPFHN": [
                        "DoSkill"
                    ],
                    "NPMGEMAFACP": true
                },
                "FlyInWater": {
                    "$type": "MEECNDLIOBI",
                    "HKPCLGHBKFD": {
                        "FlyInWater": []
                    },
                    "KNOHBHKACHA": true,
                    "BAABNFCMKIO": true,
                    "ADPGACLPFHN": [
                        "DoSkill"
                    ],
                    "NPMGEMAFACP": true,
                    "EPHHDGDBFGO": "BlendMove",
                    "GKEDOGCHJAI": true
                },
                "BeHit": {
                    "$type": "MEECNDLIOBI",
                    "HKPCLGHBKFD": {
                        "Hit_H": [
                            "Audio_Monster_FauneAbyssale_HermitCrab_Larva_Hit_L"
                        ],
                        "Hit_InWater": [
                            "Audio_Monster_FauneAbyssale_HermitCrab_Larva_Hit_L_InWater"
                        ]
                    },
                    "PJFELLIJONH": [
                        "BeHit"
                    ],
                    "ADPGACLPFHN": [
                        "DoSkill"
                    ],
                    "MGFHGCKKPDB": true
                },
                "BeHitThrow": {
                    "$type": "MEECNDLIOBI",
                    "HKPCLGHBKFD": {
                        "HitThrow": [],
                        "HitThrowToGround": [
                            "Monster_FauneAbyssale_HermitCrab_Larva_HitThrowToGround",
                            "Audio_Monster_FauneAbyssale_HermitCrab_Larva_HitThrowToGround"
                        ],
                        "Hit_Throw_From_Struggle": []
                    },
                    "PJFELLIJONH": [
                        "BeHit",
                        "HitAir2HitDrop"
                    ],
                    "ADPGACLPFHN": [
                        "DoSkill",
                        "BeHit"
                    ],
                    "GCDDJKIMHDO": true
                },
                "Struggle": {
                    "$type": "MEECNDLIOBI",
                    "HKPCLGHBKFD": {
                        "Struggle": []
                    },
                    "PJFELLIJONH": [
                        "BeHit",
                        "HitAir2HitDrop"
                    ],
                    "ADPGACLPFHN": [
                        "DoSkill"
                    ]
                },
                "DefendBreak": {
                    "$type": "MEECNDLIOBI",
                    "HKPCLGHBKFD": {
                        "DefendBreak": [
                            "Audio_Monster_FauneAbyssale_HermitCrab_Larva_DefendBreak"
                        ]
                    },
                    "PJFELLIJONH": [
                        "BeHit",
                        "HitAir2HitDrop"
                    ],
                    "ADPGACLPFHN": [
                        "DoSkill",
                        "BeHit",
                        "HitAir2HitDrop"
                    ],
                    "MGFHGCKKPDB": true
                },
                "Die": {
                    "$type": "MEECNDLIOBI",
                    "HKPCLGHBKFD": {
                        "Die": [
                            "Monster_FauneAbyssale_HermitCrab_Die",
                            "Audio_Monster_FauneAbyssale_HermitCrab_Larva_Die"
                        ]
                    },
                    "PJFELLIJONH": [
                        "BeHit",
                        "DoSkill",
                        "BeHit",
                        "WeakTrigger"
                    ]
                },
                "DieInWater": {
                    "$type": "MEECNDLIOBI",
                    "HKPCLGHBKFD": {
                        "DieInWater": [
                            "Monster_FauneAbyssale_HermitCrab_DieInWater",
                            "Audio_Monster_FauneAbyssale_HermitCrab_Larva_DieInWater"
                        ]
                    },
                    "PJFELLIJONH": [
                        "BeHit",
                        "DoSkill",
                        "BeHit",
                        "WeakTrigger"
                    ]
                },
                "Defend": {
                    "$type": "MEECNDLIOBI",
                    "HKPCLGHBKFD": {
                        "Defend": [
                            "Audio_Monster_FauneAbyssale_HermitCrab_Larva_Defebd"
                        ]
                    },
                    "ADPGACLPFHN": [
                        "BeHit",
                        "DoSkill"
                    ],
                    "NPMGEMAFACP": true
                },
                "Land": {
                    "$type": "MEECNDLIOBI",
                    "HKPCLGHBKFD": {
                        "Land": [
                            "Audio_Monster_FauneAbyssale_HermitCrab_Larva_Land"
                        ]
                    },
                    "BAABNFCMKIO": true,
                    "ADPGACLPFHN": [
                        "BeHit",
                        "DoSkill"
                    ],
                    "NPMGEMAFACP": true,
                    "LMGAMOBLNPP": true,
                    "MGFHGCKKPDB": true
                },
                "Launch": {
                    "$type": "MEECNDLIOBI",
                    "HKPCLGHBKFD": {
                        "Launch": [
                            "Audio_Monster_FauneAbyssale_HermitCrab_Larva_Launch"
                        ]
                    },
                    "BAABNFCMKIO": true,
                    "ADPGACLPFHN": [
                        "BeHit",
                        "DoSkill"
                    ],
                    "NPMGEMAFACP": true,
                    "LMGAMOBLNPP": true,
                    "MGFHGCKKPDB": true
                },
                "Alert": {
                    "$type": "MEECNDLIOBI",
                    "HKPCLGHBKFD": {
                        "Alert": [
                            "Monster_FauneAbyssale_HermitCrab_Larva_Alert",
                            "Audio_Monster_FauneAbyssale_HermitCrab_Larva_Alert"
                        ]
                    },
                    "ADPGACLPFHN": [
                        "BeHit",
                        "DoSkill"
                    ],
                    "NPMGEMAFACP": true
                },
                "Personality1InWater": {
                    "$type": "MEECNDLIOBI",
                    "HKPCLGHBKFD": {
                        "Personality1InWater": [
                            "Monster_FauneAbyssale_HermitCrab_Larva_Personality01_Water",
                            "Audio_Monster_FauneAbyssale_HermitCrab_Larva_Personality1InWater"
                        ]
                    },
                    "KNOHBHKACHA": true,
                    "ADPGACLPFHN": [
                        "BeHit",
                        "DoSkill"
                    ],
                    "NPMGEMAFACP": true
                },
                "Personality1": {
                    "$type": "MEECNDLIOBI",
                    "HKPCLGHBKFD": {
                        "Personality1": [
                            "Monster_FauneAbyssale_HermitCrab_Larva_Personality01",
                            "Audio_Monster_FauneAbyssale_HermitCrab_Larva_Personality1"
                        ]
                    },
                    "KNOHBHKACHA": true,
                    "ADPGACLPFHN": [
                        "BeHit",
                        "DoSkill"
                    ],
                    "NPMGEMAFACP": true
                },
                "Personality2": {
                    "$type": "MEECNDLIOBI",
                    "HKPCLGHBKFD": {
                        "Personality2": [
                            "Monster_FauneAbyssale_HermitCrab_Larva_Personality02",
                            "Audio_Monster_FauneAbyssale_HermitCrab_Larva_Personality2"
                        ]
                    },
                    "KNOHBHKACHA": true,
                    "ADPGACLPFHN": [
                        "BeHit",
                        "DoSkill"
                    ],
                    "NPMGEMAFACP": true
                },
                "Personality3": {
                    "$type": "MEECNDLIOBI",
                    "HKPCLGHBKFD": {
                        "Personality3": [
                            "Audio_Monster_FauneAbyssale_HermitCrab_Larva_Personality3"
                        ]
                    },
                    "KNOHBHKACHA": true,
                    "ADPGACLPFHN": [
                        "BeHit",
                        "DoSkill"
                    ],
                    "NPMGEMAFACP": true
                },
                "Personality4_BS": {
                    "$type": "MEECNDLIOBI",
                    "HKPCLGHBKFD": {
                        "Personality4_BS": [
                            "Monster_FauneAbyssale_HermitCrab_Larva_Personality01_Water",
                            "Audio_Monster_FauneAbyssale_HermitCrab_Larva_Personality4_BS"
                        ]
                    },
                    "KNOHBHKACHA": true,
                    "ADPGACLPFHN": [
                        "BeHit",
                        "DoSkill"
                    ],
                    "NPMGEMAFACP": true
                },
                "Personality4_Loop": {
                    "$type": "MEECNDLIOBI",
                    "HKPCLGHBKFD": {
                        "Personality4_Loop": []
                    },
                    "KNOHBHKACHA": true,
                    "ADPGACLPFHN": [
                        "BeHit",
                        "DoSkill"
                    ]
                },
                "Personality4_AS": {
                    "$type": "MEECNDLIOBI",
                    "HKPCLGHBKFD": {
                        "Personality4_AS": [
                            "Audio_Monster_FauneAbyssale_HermitCrab_Larva_Personality4_AS"
                        ]
                    },
                    "KNOHBHKACHA": true,
                    "ADPGACLPFHN": [
                        "BeHit",
                        "DoSkill"
                    ],
                    "NPMGEMAFACP": true
                },
                "Personality5_BS": {
                    "$type": "MEECNDLIOBI",
                    "HKPCLGHBKFD": {
                        "Personality5_BS": [
                            "Monster_FauneAbyssale_HermitCrab_Larva_Personality01",
                            "Audio_Monster_FauneAbyssale_HermitCrab_Larva_Personality4_BS"
                        ]
                    },
                    "KNOHBHKACHA": true,
                    "ADPGACLPFHN": [
                        "BeHit",
                        "DoSkill"
                    ],
                    "NPMGEMAFACP": true
                },
                "Personality5_Loop": {
                    "$type": "MEECNDLIOBI",
                    "HKPCLGHBKFD": {
                        "Personality5_Loop": []
                    },
                    "KNOHBHKACHA": true,
                    "ADPGACLPFHN": [
                        "BeHit",
                        "DoSkill"
                    ]
                },
                "Personality5_AS": {
                    "$type": "MEECNDLIOBI",
                    "HKPCLGHBKFD": {
                        "Personality5_AS": [
                            "Audio_Monster_FauneAbyssale_HermitCrab_Larva_Personality4_AS"
                        ]
                    },
                    "KNOHBHKACHA": true,
                    "ADPGACLPFHN": [
                        "BeHit",
                        "DoSkill"
                    ],
                    "NPMGEMAFACP": true
                }
            }
        }
    },
    "billboard": {
        "$type": "HFEGKLAIGGI",
        "IIKEHINGEME": "BillboardAttach",
        "offset": {
            "y": 0.5
        },
        "HECLHMINJII": 1.0,
        "ABJJCOBEPLC": true,
        "DMHOOGGGDKG": true,
        "KAJOCAAOIFN": 15.0
    },
    "initialPoses": {
        "Default": {
            "initialPoseID": 11,
            "initialPoseParams": {
                "intParams": {
                    "SpacialState": "1",
                    "FreeState": "1"
                }
            }
        },
        "LandInWater": {
            "initialPoseID": 1,
            "initialPoseParams": {
                "intParams": {
                    "SpacialState": "0",
                    "FreeState": "1"
                }
            }
        },
        "Land": {
            "initialPoseID": 21,
            "initialPoseParams": {
                "intParams": {
                    "SpacialState": "0",
                    "FreeState": "1"
                }
            }
        },
        "MuteOnFloorInWater": {
            "initialPoseID": 2,
            "initialPoseParams": {
                "intParams": {
                    "SpacialState": "0",
                    "FreeState": "2"
                }
            }
        },
        "MuteInWater": {
            "initialPoseID": 12,
            "initialPoseParams": {
                "intParams": {
                    "SpacialState": "1",
                    "FreeState": "2"
                }
            }
        },
        "MuteOnFloor": {
            "initialPoseID": 22,
            "initialPoseParams": {
                "intParams": {
                    "SpacialState": "0",
                    "FreeState": "2"
                }
            }
        },
        "MuteShellOnFloorLandInWater": {
            "initialPoseID": 3,
            "initialPoseParams": {
                "intParams": {
                    "SpacialState": "0",
                    "FreeState": "3"
                }
            }
        },
        "MuteShellOnFloorInWater": {
            "initialPoseID": 13,
            "initialPoseParams": {
                "intParams": {
                    "SpacialState": "1",
                    "FreeState": "3"
                }
            }
        },
        "LandMuteShell": {
            "initialPoseID": 23,
            "initialPoseParams": {
                "intParams": {
                    "SpacialState": "0",
                    "FreeState": "3"
                }
            }
        },
        "LandInWaterInShell": {
            "initialPoseID": 31,
            "initialPoseParams": {
                "intParams": {
                    "SpacialState": "0",
                    "FreeState": "4"
                }
            }
        },
        "InWaterInShell": {
            "initialPoseID": 51,
            "initialPoseParams": {
                "intParams": {
                    "SpacialState": "1",
                    "FreeState": "4"
                }
            }
        },
        "LandInShell": {
            "initialPoseID": 41,
            "initialPoseParams": {
                "intParams": {
                    "SpacialState": "0",
                    "FreeState": "4"
                }
            }
        }
    },
    "aibeta": {
        "enable": true,
        "friendliness": 1,
        "moveSetting": {
            "moveCategory": "DiveSeafloorLandAmphibious",
            "BPLMFAOBAHA": true,
            "navMeshAgentName": "Undead01",
            "almostReachedDistanceWalk": 2.0,
            "almostReachedDistanceRun": 2.0
        },
        "sensing": {
            "settings": {
                "DefaultSetting": {
                    "CDBFLIAGAHB": true,
                    "viewRange": 25.0,
                    "horizontalFov": 150.0,
                    "verticalFov": 100.0,
                    "hearAttractionRange": 5.0,
                    "feelRange": 0.0,
                    "sourcelessHitAttractionRange": 10.0
                },
                "NeverCombat": {
                    "enableVision": false,
                    "hearAttractionRange": 0.0,
                    "feelRange": 0.0
                },
                "NormalAlert": {
                    "CDBFLIAGAHB": true,
                    "viewPanoramic": true,
                    "hearAttractionRange": 5.0,
                    "feelRange": 17.5,
                    "sourcelessHitAttractionRange": 10.0
                }
            },
            "templates": {
                "DefaultTemplate": {
                    "DefaultPoses": "DefaultSetting",
                    "201": "NormalAlert",
                    "301": "NormalAlert",
                    "401": "NormalAlert"
                },
                "NeverCombatTemplate": {
                    "DefaultPoses": "NeverCombat",
                    "201": "NormalAlert",
                    "301": "NormalAlert",
                    "401": "NormalAlert"
                },
                "NormalAlertTemplate": {
                    "DefaultPoses": "NormalAlert"
                }
            }
        },
        "neurons": {
            "DefaultSetting": [
                "HIT"
            ]
        },
        "threat": {
            "clearThreatTargetDistance": 25.0,
            "FDJGBLDHKIN": false,
            "viewThreatGrow": 25.0,
            "feelThreatGrow": 150.0,
            "threatDecreaseSpeed": 45.0,
            "threatBroadcastRange": 8.0,
            "viewAttenuation": [
                {
                    "x": 4.5,
                    "y": 1.0
                },
                {
                    "x": 8.0,
                    "y": 0.5
                },
                {
                    "x": 15.0,
                    "y": 0.20000000298023224
                },
                {
                    "x": 22.5,
                    "y": 0.10000000149011612
                }
            ]
        },
        "defendArea": {
            "defendRange": 120.0
        },
        "fly": {
            "enable": true,
            "CMKAGLKCJKN": [
                11,
                12,
                13,
                51,
                301,
                303,
                901,
                902,
                903
            ]
        },
        "skills": {
            "201": {
                "name": "Defend",
                "priority": 2,
                "castCondition": {
                    "pose": [
                        201,
                        301,
                        401
                    ],
                    "AHGLPKFFCIK": [
                        0,
                        1,
                        2
                    ],
                    "pickRangeMax": 12.0
                },
                "cd": 4.0,
                "cdUpperRange": 2.0,
                "publicCDGroup": "",
                "CLEPNIDJOLN": "",
                "stateIDs": [
                    "Defend"
                ],
                "flagTargetReachable": "11",
                "flagSelfOnTemplateCollider": "11",
                "flagSelfInZone": "11",
                "flagTargetInZone": "11"
            },
            "301": {
                "name": "Launch",
                "priority": 3,
                "needLineOfSight": true,
                "castCondition": {
                    "pose": [
                        201
                    ],
                    "AHGLPKFFCIK": [
                        1,
                        2
                    ],
                    "pickRangeMax": 12.0,
                    "pickRangeYMax": 8.0,
                    "pickRangeYMin": 2.0,
                    "SkillAnchorRangeMin": 3.0
                },
                "cd": 5.0,
                "cdUpperRange": 2.0,
                "initialCD": 5.0,
                "publicCDGroup": "",
                "CLEPNIDJOLN": "",
                "stateIDs": [
                    "Launch"
                ],
                "flagTargetReachable": "11",
                "flagSelfOnTemplateCollider": "11",
                "flagSelfInZone": "11",
                "flagTargetInZone": "11"
            },
            "302": {
                "name": "Launch2",
                "skillType": "Free",
                "priority": 3,
                "needLineOfSight": true,
                "castCondition": {
                    "pose": [
                        1,
                        3
                    ],
                    "ELMBIHAGCOP": -1.0,
                    "OMBNCOLOMCG": -1.0,
                    "SkillAnchorRangeMin": 3.0
                },
                "cd": 15.0,
                "cdUpperRange": 2.0,
                "initialCD": 10.0,
                "publicCDGroup": "",
                "CLEPNIDJOLN": "",
                "stateIDs": [
                    "Launch"
                ],
                "flagTargetReachable": "10",
                "flagSelfOnTemplateCollider": "01",
                "flagSelfInZone": "10",
                "flagTargetInZone": "11"
            },
            "311": {
                "name": "Land",
                "priority": 2,
                "needLineOfSight": true,
                "castCondition": {
                    "pose": [
                        301
                    ],
                    "EDDMDKHIIOH": [
                        {
                            "max": 1.2699999809265137,
                            "AGIFMABFMHE": "DownToGroundOnlyInWater"
                        }
                    ],
                    "ELMBIHAGCOP": -1.0,
                    "OMBNCOLOMCG": -1.0
                },
                "cd": 5.0,
                "cdUpperRange": 2.0,
                "initialCD": 5.0,
                "publicCDGroup": "",
                "CLEPNIDJOLN": "",
                "stateIDs": [
                    "Land"
                ],
                "flagTargetReachable": "11",
                "flagSelfOnTemplateCollider": "11",
                "flagSelfInZone": "11",
                "flagTargetInZone": "11"
            },
            "312": {
                "name": "Land2",
                "skillType": "Free",
                "priority": 2,
                "needLineOfSight": true,
                "castCondition": {
                    "pose": [
                        11,
                        13
                    ],
                    "EDDMDKHIIOH": [
                        {
                            "max": 1.2699999809265137,
                            "AGIFMABFMHE": "DownToGroundOnlyInWater"
                        }
                    ],
                    "ELMBIHAGCOP": -1.0,
                    "OMBNCOLOMCG": -1.0
                },
                "cd": 10.0,
                "cdUpperRange": 2.0,
                "initialCD": 10.0,
                "publicCDGroup": "",
                "CLEPNIDJOLN": "",
                "stateIDs": [
                    "Land"
                ],
                "flagTargetReachable": "11",
                "flagSelfOnTemplateCollider": "11",
                "flagSelfInZone": "11",
                "flagTargetInZone": "11"
            },
            "1": {
                "name": "OnAlert",
                "skillType": "OnAlert",
                "faceTarget": true,
                "publicCDGroup": "",
                "ignoreGCD": true,
                "triggerGCD": false,
                "CLEPNIDJOLN": "",
                "stateIDs": [
                    "Alert"
                ],
                "skillQueryingTime": 3.0,
                "flagTargetReachable": "10",
                "flagSelfOnTemplateCollider": "01",
                "flagSelfInZone": "10",
                "flagTargetInZone": "11",
                "nerveTrigger": [
                    "HIT"
                ]
            },
            "101": {
                "name": "Personality1InWater",
                "skillType": "Free",
                "priority": 2,
                "castCondition": {
                    "pose": [
                        1
                    ]
                },
                "cd": 15.0,
                "cdUpperRange": 2.0,
                "initialCD": 5.0,
                "publicCDGroup": "",
                "CLEPNIDJOLN": "",
                "stateIDs": [
                    "Personality1InWater"
                ],
                "flagTargetReachable": "10",
                "flagSelfOnTemplateCollider": "01",
                "flagSelfInZone": "10",
                "flagTargetInZone": "11"
            },
            "102": {
                "name": "Personality1",
                "skillType": "Free",
                "priority": 2,
                "castCondition": {
                    "pose": [
                        21
                    ]
                },
                "cd": 15.0,
                "cdUpperRange": 2.0,
                "initialCD": 5.0,
                "publicCDGroup": "",
                "CLEPNIDJOLN": "",
                "stateIDs": [
                    "Personality1"
                ],
                "flagTargetReachable": "10",
                "flagSelfOnTemplateCollider": "01",
                "flagSelfInZone": "10",
                "flagTargetInZone": "11"
            },
            "111": {
                "name": "Personality2",
                "skillType": "Free",
                "priority": 2,
                "needLineOfSight": true,
                "castCondition": {
                    "pose": [
                        11,
                        13
                    ],
                    "EDDMDKHIIOH": [
                        {
                            "min": 0.25,
                            "max": -1.0,
                            "AGIFMABFMHE": "DownToGroundOnlyInWater"
                        }
                    ],
                    "ELMBIHAGCOP": -1.0,
                    "OMBNCOLOMCG": -1.0,
                    "SkillAnchorRangeMin": 2.0
                },
                "cd": 10.0,
                "cdUpperRange": 2.0,
                "initialCD": 5.0,
                "publicCDGroup": "",
                "CLEPNIDJOLN": "",
                "stateIDs": [
                    "Personality2"
                ],
                "flagTargetReachable": "11",
                "flagSelfOnTemplateCollider": "11",
                "flagSelfInZone": "11",
                "flagTargetInZone": "11"
            },
            "121": {
                "name": "Personality3",
                "skillType": "Free",
                "priority": 2,
                "castCondition": {
                    "pose": [
                        1,
                        3,
                        21,
                        23
                    ]
                },
                "cd": 15.0,
                "cdUpperRange": 2.0,
                "initialCD": 5.0,
                "publicCDGroup": "",
                "CLEPNIDJOLN": "",
                "stateIDs": [
                    "Personality3"
                ],
                "flagTargetReachable": "10",
                "flagSelfOnTemplateCollider": "01",
                "flagSelfInZone": "10",
                "flagTargetInZone": "11"
            },
            "131": {
                "name": "Personality4",
                "skillType": "Free",
                "priority": 2,
                "castCondition": {
                    "pose": [
                        31
                    ]
                },
                "cd": 10.0,
                "cdUpperRange": 2.0,
                "publicCDGroup": "",
                "CLEPNIDJOLN": "",
                "stateIDs": [
                    "Personality4_BS",
                    "Personality4_Loop",
                    "Personality4_AS"
                ],
                "flagTargetReachable": "10",
                "flagSelfOnTemplateCollider": "01",
                "flagSelfInZone": "10",
                "flagTargetInZone": "11"
            },
            "132": {
                "name": "Personality5",
                "skillType": "Free",
                "priority": 2,
                "castCondition": {
                    "pose": [
                        41
                    ]
                },
                "cd": 10.0,
                "cdUpperRange": 2.0,
                "publicCDGroup": "",
                "CLEPNIDJOLN": "",
                "stateIDs": [
                    "Personality5_BS",
                    "Personality5_Loop",
                    "Personality5_AS"
                ],
                "flagTargetReachable": "10",
                "flagSelfOnTemplateCollider": "01",
                "flagSelfInZone": "10",
                "flagTargetInZone": "11"
            }
        },
        "skillGCD": 3.5,
        "combatFollowMoveTactic": {
            "Temp1": {
                "CJLEEDNPOPP": 1.5,
                "DFFPDGGEBHM": 5.0,
                "FBPKFCBDJAJ": 5.0,
                "DILKKAOLEOK": 5.0
            },
            "Temp2": {
                "CJLEEDNPOPP": 3.0,
                "DFFPDGGEBHM": 5.0,
                "FBPKFCBDJAJ": 5.0,
                "DILKKAOLEOK": 5.0
            }
        },
        "combatFixedMoveTactic": [
            {
                "$type": "KIMPOLMEFNK",
                "enable": true,
                "EGJMGEHLDOL": {
                    "pose": [
                        201,
                        401
                    ]
                },
                "NGIEOIGFFDH": {
                    "rangeMin": 3.0,
                    "rangeMax": 40.0,
                    "FIEBJKLPGNF": 2.0,
                    "OHCPDFPNLEP": 3.0,
                    "ODLFCBFIAEG": {
                        "ACLMEMJMCHO": 0.4000000059604645,
                        "MKGIHLDDOPO": 0.0,
                        "AIMKHLAPJGH": 0.0,
                        "LJGPLFGCHJM": 0.30000001192092896,
                        "ODFJMMCNEHI": 0.30000001192092896
                    },
                    "EOBOHLNDGNC": "1111",
                    "JFAHEKLBENF": "1111",
                    "JNOHNAPKHCF": true,
                    "FCFLCFFJKLO": ""
                },
                "LKIMAMPDDDI": {
                    "401": {
                        "rangeMin": 3.0,
                        "rangeMax": 40.0,
                        "FIEBJKLPGNF": 2.0,
                        "OHCPDFPNLEP": 3.0,
                        "ODLFCBFIAEG": {
                            "ACLMEMJMCHO": 0.4000000059604645,
                            "MKGIHLDDOPO": 0.0,
                            "AIMKHLAPJGH": 0.0,
                            "LJGPLFGCHJM": 0.30000001192092896,
                            "ODFJMMCNEHI": 0.30000001192092896
                        },
                        "EOBOHLNDGNC": "1111",
                        "JFAHEKLBENF": "1111",
                        "JNOHNAPKHCF": true,
                        "FCFLCFFJKLO": "",
                        "PALGNLHFNIC": true
                    }
                }
            },
            {
                "$type": "AFDJLHBOOMF",
                "NGIEOIGFFDH": {
                    "ODJCANIELOC": 2.0,
                    "OKABCEDCDJM": 2.0,
                    "CJBBENAKMKA": "Auto",
                    "FCFLCFFJKLO": "Temp1",
                    "BKCOJDIDEGN": ""
                }
            },
            {
                "$type": "FFPDAEHGBGJ",
                "NGIEOIGFFDH": {
                    "NHPKGHAHIFA": 1,
                    "FCFLCFFJKLO": "Temp1",
                    "BKCOJDIDEGN": "",
                    "CJBBENAKMKA": "Auto"
                }
            },
            {
                "$type": "PFPAILLHEOL",
                "enable": true,
                "EGJMGEHLDOL": {
                    "pose": [
                        2,
                        12,
                        22
                    ]
                },
                "NGIEOIGFFDH": {
                    "NHPKGHAHIFA": 1,
                    "CJBBENAKMKA": "Auto",
                    "FCFLCFFJKLO": "Temp1",
                    "BKCOJDIDEGN": ""
                }
            },
            {
                "$type": "GJGILIGEJMO",
                "enable": true,
                "NGIEOIGFFDH": {
                    "MONCHHKIDKL": 5.0,
                    "CJBBENAKMKA": "Auto",
                    "FCFLCFFJKLO": "Temp2",
                    "BKCOJDIDEGN": ""
                }
            },
            {
                "$type": "BIIGCKAIPPG",
                "NGIEOIGFFDH": {
                    "NHPKGHAHIFA": 1,
                    "OKLCDKFIAPP": true,
                    "FCFLCFFJKLO": "Temp1",
                    "BKCOJDIDEGN": ""
                }
            },
            {
                "$type": "DCLDANBAMMK",
                "enable": true,
                "EGJMGEHLDOL": {
                    "pose": [
                        301
                    ]
                },
                "NGIEOIGFFDH": {
                    "NHPKGHAHIFA": 2,
                    "DJLKEFHINHG": 0.5,
                    "EDFNFFEIKGL": 2.0,
                    "FCFLCFFJKLO": "Default"
                }
            },
            {
                "$type": "IJEBEDOFNJP",
                "enable": true,
                "EGJMGEHLDOL": {
                    "pose": [
                        301
                    ]
                },
                "NGIEOIGFFDH": {
                    "NHPKGHAHIFA": 2,
                    "CCNPABODAPO": 3.0,
                    "FIEBJKLPGNF": 2.5,
                    "OHCPDFPNLEP": 4.0,
                    "DDDDMJLFJNG": 1.0,
                    "EBEKKNCJBLL": 1.5,
                    "EKNKGKBCADJ": 3.0,
                    "AHNAPEOFNPD": {
                        "ACLMEMJMCHO": 0.0,
                        "MKGIHLDDOPO": 0.0,
                        "LBMNDFCKDOA": 0.5,
                        "HGPFHLEEDFC": 1.5,
                        "AKKAHCLDFOJ": 2.0,
                        "LDJKEDKOGKK": 4.0,
                        "AFBJIELDPCB": 2.0,
                        "EPNMHGNOKLJ": 4.0,
                        "IGIPKNOENJL": 2.0,
                        "JDLKEKHPCJN": 4.0,
                        "CGDEFBJFOJL": 1.0,
                        "MLNEMAIEKOA": 0.5,
                        "NFMCGDBACDH": 2.0
                    },
                    "JDKIBAHAEFI": false,
                    "FCFLCFFJKLO": "Temp1",
                    "BKCOJDIDEGN": "",
                    "PALGNLHFNIC": true
                }
            },
            {
                "$type": "AKEPIEKGLNK",
                "enable": true,
                "EGJMGEHLDOL": {
                    "pose": [
                        301
                    ]
                },
                "NGIEOIGFFDH": {
                    "MONCHHKIDKL": 2.0,
                    "cd": 2.0,
                    "DMFHKPCCMAN": 4.0,
                    "MEKPCHABFJG": 60.0,
                    "GDFGBALKAEK": 2,
                    "FGJNCNBPGPD": 3,
                    "HAGANIFJPCF": 2.5,
                    "IAIJKIPIPND": 3.0,
                    "GIODGANMDLB": 30.0,
                    "NHFCNLEAPMI": -30.0,
                    "PPFGBJODOHA": 30.0,
                    "OLHHMJJEGGA": -30.0,
                    "FILALLAIDFN": 0.5,
                    "DBDMOIGONFA": 0.5,
                    "BCIOOLPGLEM": true,
                    "FCFLCFFJKLO": "Temp2",
                    "BKCOJDIDEGN": ""
                }
            },
            {
                "$type": "EPJPKHELFCE",
                "enable": true,
                "EGJMGEHLDOL": {
                    "pose": [
                        11,
                        13,
                        51
                    ]
                },
                "NGIEOIGFFDH": {
                    "NHPKGHAHIFA": 1,
                    "ABMMNMAMDKF": {
                        "IEKCLNLKGOI": 0.10000000149011612,
                        "LBMNDFCKDOA": 3.5,
                        "HGPFHLEEDFC": 7.5,
                        "AKKAHCLDFOJ": 2.0,
                        "LDJKEDKOGKK": 5.0,
                        "AFBJIELDPCB": 3.0,
                        "EPNMHGNOKLJ": 7.0,
                        "IGIPKNOENJL": 3.0,
                        "JDLKEKHPCJN": 7.0,
                        "MHKNNENCDFP": 0.0,
                        "DMDLBIOHHLP": 1.0
                    },
                    "MONCHHKIDKL": 2.0,
                    "DIHFJALHEDD": 10.0,
                    "HOKGJAONGHG": 0.20000000298023224,
                    "GJOBDMEBGLM": 0.10000000149011612,
                    "FCFLCFFJKLO": "Temp1",
                    "BKCOJDIDEGN": "",
                    "LJHHPEJFCAP": 1.5,
                    "NPKEFCGNJHC": 3.0,
                    "JFFDJOKBJFD": 1.0,
                    "GLALONNMICP": 1.5,
                    "EEJLIBNKODF": 0.5,
                    "FHDMGIOGCPI": 0.33000001311302185,
                    "MGDCIEKHPOC": -0.5,
                    "MKNAIFGPIBB": 0.5,
                    "LPJFOKMCAJO": 0.6600000262260437
                }
            },
            {
                "$type": "IKIHDEMELGB",
                "enable": true,
                "EGJMGEHLDOL": {
                    "pose": [
                        1,
                        21,
                        3,
                        23
                    ]
                },
                "NGIEOIGFFDH": {
                    "MONCHHKIDKL": 2.0,
                    "HOKGJAONGHG": 3.0,
                    "GJOBDMEBGLM": 1.5,
                    "KDLAOJIPGHP": 10.0,
                    "OEFFOIEOJNC": 2.75,
                    "HAHMEDHEBKE": 4.5,
                    "FCFLCFFJKLO": ""
                }
            }
        ]
    },
    "inputKeys": [
        {
            "keyID": 101,
            "inputKeyCode": 257,
            "abilityName": ""
        },
        {
            "keyID": 111,
            "inputKeyCode": 258,
            "abilityName": ""
        },
        {
            "keyID": 121,
            "inputKeyCode": 259,
            "abilityName": ""
        },
        {
            "keyID": 201,
            "inputKeyCode": 260,
            "abilityName": ""
        },
        {
            "keyID": 301,
            "inputKeyCode": 261,
            "abilityName": ""
        },
        {
            "keyID": 311,
            "inputKeyCode": 262,
            "abilityName": ""
        },
        {
            "keyID": 1,
            "inputKeyCode": 263,
            "abilityName": ""
        }
    ],
    "move": {
        "$type": "JKDLANFKJIL",
        "KJLPKFNPFON": [
            {
                "CDGDFGCJGMP": 5.0,
                "AGIFMABFMHE": "DownToGroundOnlyInWater",
                "NNGJPPABGNH": ""
            }
        ],
        "NKMOKNEJFJM": true,
        "ADKJOFPNHNO": "FourDirection",
        "NGDJGNMGHIM": "AirBlend",
        "LDHGAEIKIEE": "SlimeType",
        "NKJKJFLNPPN": 2.0,
        "OPALOODMBJP": true,
        "LPAKBBIADNC": "RootNode",
        "ODAGPPGIBJA": 30.0,
        "HEFHKKCJLEI": true
    },
    "audio": {
        "LKJIHNLBIJL": "",
        "animAudio": {
            "onTransitionIn": [
                {
                    "currentStateName": "WalkForward",
                    "audioEvent": {
                        "text": "Play_Sfx_Monster_FauneAbyssale_HermitCrab_Larva_Walk_LP"
                    },
                    "otherStateNames": [
                        "WalkForward"
                    ],
                    "usage": "Except"
                },
                {
                    "currentStateName": "WalkBack",
                    "audioEvent": {
                        "text": "Play_Sfx_Monster_FauneAbyssale_HermitCrab_Larva_Walk_LP"
                    },
                    "otherStateNames": [
                        "WalkBack"
                    ],
                    "usage": "Except"
                },
                {
                    "currentStateName": "WalkLeft",
                    "audioEvent": {
                        "text": "Play_Sfx_Monster_FauneAbyssale_HermitCrab_Larva_Walk_LP"
                    },
                    "otherStateNames": [
                        "WalkLeft"
                    ],
                    "usage": "Except"
                },
                {
                    "currentStateName": "WalkRight",
                    "audioEvent": {
                        "text": "Play_Sfx_Monster_FauneAbyssale_HermitCrab_Larva_Walk_LP"
                    },
                    "otherStateNames": [
                        "WalkRight"
                    ],
                    "usage": "Except"
                },
                {
                    "currentStateName": "WalkForwardInWater",
                    "audioEvent": {
                        "text": "Play_Sfx_Monster_FauneAbyssale_HermitCrab_Larva_WalkForwardSeaBed_LP"
                    },
                    "otherStateNames": [
                        "WalkForwardInWater"
                    ],
                    "usage": "Except"
                },
                {
                    "currentStateName": "WalkBackInWater",
                    "audioEvent": {
                        "text": "Play_Sfx_Monster_FauneAbyssale_HermitCrab_Larva_WalkForwardSeaBed_LP"
                    },
                    "otherStateNames": [
                        "WalkBackInWater"
                    ],
                    "usage": "Except"
                },
                {
                    "currentStateName": "WalkLeftInWater",
                    "audioEvent": {
                        "text": "Play_Sfx_Monster_FauneAbyssale_HermitCrab_Larva_WalkForwardSeaBed_LP"
                    },
                    "otherStateNames": [
                        "WalkLeftInWater"
                    ],
                    "usage": "Except"
                },
                {
                    "currentStateName": "WalkRightInWater",
                    "audioEvent": {
                        "text": "Play_Sfx_Monster_FauneAbyssale_HermitCrab_Larva_WalkForwardSeaBed_LP"
                    },
                    "otherStateNames": [
                        "WalkRightInWater"
                    ],
                    "usage": "Except"
                },
                {
                    "currentStateName": "FlyInWater",
                    "audioEvent": {
                        "text": "Play_Sfx_Monster_FauneAbyssale_HermitCrab_Larva_FlyInWater_LP"
                    },
                    "otherStateNames": [
                        "FlyInWater"
                    ],
                    "usage": "Except"
                },
                {
                    "currentStateName": "Personality4_Loop",
                    "audioEvent": {
                        "text": "Play_Sfx_Monster_FauneAbyssale_HermitCrab_Larva_Personality4_Loop_LP"
                    },
                    "otherStateNames": [
                        "Personality4_Loop"
                    ],
                    "usage": "Except"
                },
                {
                    "currentStateName": "Personality5_Loop",
                    "audioEvent": {
                        "text": "Play_Sfx_Monster_FauneAbyssale_HermitCrab_Larva_Personality4_Loop_LP"
                    },
                    "otherStateNames": [
                        "Personality5_Loop"
                    ],
                    "usage": "Except"
                }
            ],
            "onTransitionOut": [
                {
                    "currentStateName": "WalkForward",
                    "audioEvent": {
                        "text": "Stop_Sfx_Monster_FauneAbyssale_HermitCrab_Larva_Walk_LP"
                    },
                    "otherStateNames": [
                        "WalkForward"
                    ],
                    "usage": "Except"
                },
                {
                    "currentStateName": "WalkBack",
                    "audioEvent": {
                        "text": "Stop_Sfx_Monster_FauneAbyssale_HermitCrab_Larva_Walk_LP"
                    },
                    "otherStateNames": [
                        "WalkBack"
                    ],
                    "usage": "Except"
                },
                {
                    "currentStateName": "WalkLeft",
                    "audioEvent": {
                        "text": "Stop_Sfx_Monster_FauneAbyssale_HermitCrab_Larva_Walk_LP"
                    },
                    "otherStateNames": [
                        "WalkLeft"
                    ],
                    "usage": "Except"
                },
                {
                    "currentStateName": "WalkRight",
                    "audioEvent": {
                        "text": "Stop_Sfx_Monster_FauneAbyssale_HermitCrab_Larva_Walk_LP"
                    },
                    "otherStateNames": [
                        "WalkRight"
                    ],
                    "usage": "Except"
                },
                {
                    "currentStateName": "WalkForwardInWater",
                    "audioEvent": {
                        "text": "Stop_Sfx_Monster_FauneAbyssale_HermitCrab_Larva_WalkForwardSeaBed_LP"
                    },
                    "otherStateNames": [
                        "WalkForwardInWater"
                    ],
                    "usage": "Except"
                },
                {
                    "currentStateName": "WalkBackInWater",
                    "audioEvent": {
                        "text": "Stop_Sfx_Monster_FauneAbyssale_HermitCrab_Larva_WalkForwardSeaBed_LP"
                    },
                    "otherStateNames": [
                        "WalkBackInWater"
                    ],
                    "usage": "Except"
                },
                {
                    "currentStateName": "WalkLeftInWater",
                    "audioEvent": {
                        "text": "Stop_Sfx_Monster_FauneAbyssale_HermitCrab_Larva_WalkForwardSeaBed_LP"
                    },
                    "otherStateNames": [
                        "WalkLeftInWater"
                    ],
                    "usage": "Except"
                },
                {
                    "currentStateName": "WalkRightInWater",
                    "audioEvent": {
                        "text": "Stop_Sfx_Monster_FauneAbyssale_HermitCrab_Larva_WalkForwardSeaBed_LP"
                    },
                    "otherStateNames": [
                        "WalkRightInWater"
                    ],
                    "usage": "Except"
                },
                {
                    "currentStateName": "FlyInWater",
                    "audioEvent": {
                        "text": "Stop_Sfx_Monster_FauneAbyssale_HermitCrab_Larva_FlyInWater_LP"
                    },
                    "otherStateNames": [
                        "FlyInWater"
                    ],
                    "usage": "Except"
                },
                {
                    "currentStateName": "Personality4_Loop",
                    "audioEvent": {
                        "text": "Stop_Sfx_Monster_FauneAbyssale_HermitCrab_Larva_Personality4_Loop_LP"
                    },
                    "otherStateNames": [
                        "Personality4_Loop"
                    ],
                    "usage": "Except"
                },
                {
                    "currentStateName": "Personality5_Loop",
                    "audioEvent": {
                        "text": "Stop_Sfx_Monster_FauneAbyssale_HermitCrab_Larva_Personality4_Loop_LP"
                    },
                    "otherStateNames": [
                        "Personality5_Loop"
                    ],
                    "usage": "Except"
                }
            ]
        }
    }
}