{
    "common": {
        "effectAttachShape": {
            "$type": "CMIPFEGOJCH",
            "EJAEFCDBDFB": "EffectMesh"
        },
        "mass": 90.0,
        "modelHeight": 1.7000000476837158,
        "viewSize": 1.5,
        "affectedByWorld": true,
        "checkInSurface": true,
        "clearAnimatorOnSetLightDeactive": true,
        "clearAIOnSetLightDeactive": true
    },
    "specialPoint": {
        "elementAbsorb": "RootNode",
        "elementPendant": "",
        "elementDrop": "Chest",
        "bulletAim": "Chest"
    },
    "model": {
        "bornEffect": "Eff_Monster_Mimik_Electric_DigOutAttack_Warning",
        "attachEffect": ""
    },
    "combat": {
        "property": {
            "endureType": "Monster_Minion",
            "weight": 60.0
        },
        "beHit": {
            "hitBloodEffect": "",
            "ignoreMinHitVY": true
        },
        "combatLock": {
            "lockShape": "CircleLockEnemy",
            "lockType": "Avatar&Monster_Lv4"
        },
        "die": {
            "hasAnimatorDie": true,
            "dieEndTime": 1.0,
            "dieForceDisappearTime": 1.0,
            "dieDisappearEffect": "Eff_Death_Common",
            "dieShaderData": "MonsterDie",
            "LDOHFFOEPPI": true,
            "BMOKGIFNILM": true,
            "PHCLLDNDFNG": true,
            "CHBAHMJGJBE": true,
            "OPPHENIKFJA": true,
            "CCNGAIMLPIJ": true
        },
        "animEvents": {
            "DigOutAtk": {
                "attackPattern": {
                    "$type": "HBFCINNBDFD",
                    "triggerType": "TriggerNoRepeat",
                    "PNHFGBKPADG": 0.25,
                    "born": {
                        "$type": "KDEPFKAAHCG",
                        "offset": {
                            "HMHIOILIGBF": 0.0,
                            "DPPJGBOHAAL": 0.0,
                            "DDOAGBLBCEF": 0.0
                        }
                    },
                    "height": 3.0,
                    "DFMMIGEMOHH": 2.0
                },
                "attackInfo": {
                    "attackTag": "",
                    "attenuationTag": "",
                    "attenuationGroup": "default",
                    "attackProperty": {
                        "PCFAAPMOCGJ": 3.0,
                        "LCCBNOKMNFG": 0.0,
                        "elementType": "Electric",
                        "bonusCritical": 50.0,
                        "strikeType": "Blunt",
                        "enBreak": 200.0,
                        "FKGFPFNOJMN": 0.0
                    },
                    "hitPattern": {
                        "onHitEffectName": "default",
                        "hitImpulseType": "LV5",
                        "hitHaltTimeScale": 0.009999999776482582
                    },
                    "forceCameraShake": true,
                    "cameraShake": {
                        "shakeType": "CustomVector",
                        "shakeRange": 0.11999999731779099,
                        "shakeTime": 0.15000000596046448,
                        "shakeDistance": 25.0,
                        "shakeDir": {
                            "y": -1.0
                        }
                    }
                }
            },
            "Atk01": {
                "attackPattern": {
                    "$type": "GGBJACPDDCM",
                    "triggerType": "TriggerNoRepeat",
                    "PNHFGBKPADG": 0.25,
                    "born": {
                        "$type": "EOGLEDIIGHF",
                        "offset": {
                            "HMHIOILIGBF": 0.0,
                            "DPPJGBOHAAL": 0.0,
                            "DDOAGBLBCEF": 2.0
                        }
                    },
                    "size": {
                        "HMHIOILIGBF": 1.600000023841858,
                        "DPPJGBOHAAL": 2.0,
                        "DDOAGBLBCEF": 4.5
                    }
                },
                "attackInfo": {
                    "attackTag": "",
                    "attenuationTag": "",
                    "attenuationGroup": "default",
                    "attackProperty": {
                        "PCFAAPMOCGJ": 1.0,
                        "LCCBNOKMNFG": 0.0,
                        "elementType": "Electric",
                        "bonusCritical": 50.0,
                        "strikeType": "Default",
                        "enBreak": 75.0,
                        "FKGFPFNOJMN": 0.0
                    },
                    "hitPattern": {
                        "onHitEffectName": "default",
                        "hitImpulseType": "LV3",
                        "hitHaltTimeScale": 0.05000000074505806
                    },
                    "forceCameraShake": true,
                    "cameraShake": {
                        "shakeType": "CustomVector",
                        "shakeRange": 0.03999999910593033,
                        "shakeTime": 0.09000000357627869,
                        "shakeDistance": 7.5,
                        "shakeDir": {
                            "y": 1.0
                        }
                    }
                }
            },
            "Atk02": {
                "attackPattern": {
                    "$type": "HBFCINNBDFD",
                    "triggerType": "TriggerNoRepeat",
                    "PNHFGBKPADG": 0.25,
                    "born": {
                        "$type": "KDEPFKAAHCG",
                        "offset": {
                            "HMHIOILIGBF": 0.0,
                            "DPPJGBOHAAL": 0.0,
                            "DDOAGBLBCEF": 0.0
                        }
                    },
                    "height": 2.0,
                    "DFMMIGEMOHH": 5.0
                },
                "attackInfo": {
                    "attackTag": "",
                    "attenuationTag": "",
                    "attenuationGroup": "default",
                    "attackProperty": {
                        "PCFAAPMOCGJ": 0.5,
                        "LCCBNOKMNFG": 0.0,
                        "elementType": "Electric",
                        "bonusCritical": 50.0,
                        "strikeType": "Blunt",
                        "enBreak": 200.0,
                        "FKGFPFNOJMN": 0.0
                    },
                    "hitPattern": {
                        "onHitEffectName": "default",
                        "hitImpulseType": "LV4",
                        "hitHaltTimeScale": 0.009999999776482582
                    },
                    "forceCameraShake": true,
                    "cameraShake": {
                        "shakeType": "CustomVector",
                        "shakeRange": 0.11999999731779099,
                        "shakeTime": 0.15000000596046448,
                        "shakeDistance": 25.0,
                        "shakeDir": {
                            "y": -1.0
                        }
                    }
                }
            }
        }
    },
    "equipController": {
        "sheathPoint": "",
        "attachPoints": {
            "fruit01": "fruit01",
            "fruit02": "fruit02",
            "fruit03": "fruit03"
        }
    },
    "abilities": [
        {
            "abilityID": "SteerAttack_Common",
            "abilityName": "Monster_Mimik_SteerAttack",
            "abilityOverride": ""
        },
        {
            "abilityID": "FruitPartControl_Common",
            "abilityName": "Monster_Mimik_FruitPartControl",
            "abilityOverride": ""
        },
        {
            "abilityID": "ReduceFruit_Common",
            "abilityName": "Monster_Mimik_ReduceFruit",
            "abilityOverride": ""
        },
        {
            "abilityID": "Add3Fruit_Common",
            "abilityName": "Monster_Mimik_Add3Fruit",
            "abilityOverride": ""
        },
        {
            "abilityID": "FruitManager",
            "abilityName": "Monster_Mimik_Electric_FruitManager",
            "abilityOverride": ""
        },
        {
            "abilityID": "ClearFruit",
            "abilityName": "Monster_Mimik_ClearFruit",
            "abilityOverride": ""
        },
        {
            "abilityID": "Electric_FruitReborn_Effect",
            "abilityName": "Monster_Mimik_Electric_FruitReborn_Effect",
            "abilityOverride": ""
        },
        {
            "abilityID": "FruitReborn_TriggerShaderEffect01_Common",
            "abilityName": "Monster_Mimik_FruitReborn_TriggerShaderEffect01",
            "abilityOverride": ""
        },
        {
            "abilityID": "Electric_AbsorbFruit_DoFruitMoveEffect",
            "abilityName": "Mimik_Electric_AbsorbFruit_DoFruitMoveEffect",
            "abilityOverride": ""
        },
        {
            "abilityID": "AbsorbFruitState",
            "abilityName": "Monster_Mimik_Ice_AbsorbFruitState",
            "abilityOverride": ""
        },
        {
            "abilityID": "Electric_AbsorbFruit",
            "abilityName": "Monster_Mimik_Electric_AbsorbFruit",
            "abilityOverride": ""
        },
        {
            "abilityID": "Electric_Fruit_Effect",
            "abilityName": "Monster_Mimik_Electric_Fruit_Effect",
            "abilityOverride": ""
        },
        {
            "abilityID": "Electric_DownManager",
            "abilityName": "Monster_Mimik_Electric_DownManager",
            "abilityOverride": ""
        },
        {
            "abilityID": "Electric_ElementState_On",
            "abilityName": "Monster_Mimik_Electric_ElementState_On",
            "abilityOverride": ""
        },
        {
            "abilityID": "Electric_ElementState_Off",
            "abilityName": "Monster_Mimik_Electric_ElementState_Off",
            "abilityOverride": ""
        },
        {
            "abilityID": "Electric_SetAimTarget",
            "abilityName": "Monster_Mimik_Electric_SetAimTarget",
            "abilityOverride": ""
        },
        {
            "abilityID": "Electric_ForwardShoot02",
            "abilityName": "Monster_Mimik_Electric_ForwardShoot02",
            "abilityOverride": ""
        },
        {
            "abilityID": "Electric_ForwardShoot02_InitTarget",
            "abilityName": "Monster_Mimik_Electric_ForwardShoot02_InitTarget",
            "abilityOverride": ""
        },
        {
            "abilityID": "Electric_RangedAttack01_01",
            "abilityName": "Monster_Mimik_Electric_RangedAttack01_01",
            "abilityOverride": ""
        },
        {
            "abilityID": "Electric_RangedAttack01_02",
            "abilityName": "Monster_Mimik_Electric_RangedAttack01_02",
            "abilityOverride": ""
        },
        {
            "abilityID": "Electric_RangedAttack01_03",
            "abilityName": "Monster_Mimik_Electric_RangedAttack01_03",
            "abilityOverride": ""
        },
        {
            "abilityID": "Electric_RangedAttack01_TriggerShaderEffect01",
            "abilityName": "Monster_Mimik_RangedAttack01_TriggerShaderEffect01",
            "abilityOverride": ""
        },
        {
            "abilityID": "Electric_RangedAttack01_TriggerShaderEffect02",
            "abilityName": "Monster_Mimik_RangedAttack01_TriggerShaderEffect02",
            "abilityOverride": ""
        },
        {
            "abilityID": "Underground_Common",
            "abilityName": "Monster_Mimik_Underground",
            "abilityOverride": ""
        },
        {
            "abilityID": "RemoveUnderground_Common",
            "abilityName": "Monster_Mimik_RemoveUnderground",
            "abilityOverride": ""
        },
        {
            "abilityID": "DigInFarTrigger_Common",
            "abilityName": "Monster_Mimik_DigInFarTrigger",
            "abilityOverride": ""
        },
        {
            "abilityID": "GetDigOutPosClose_Common",
            "abilityName": "Monster_Mimik_GetDigOutPosClose",
            "abilityOverride": ""
        },
        {
            "abilityID": "GetDigOutPosFar_Common",
            "abilityName": "Monster_Mimik_GetDigOutPosFar",
            "abilityOverride": ""
        },
        {
            "abilityID": "GetDigOutPosBack_Common",
            "abilityName": "Monster_Mimik_GetDigOutPosBack",
            "abilityOverride": ""
        },
        {
            "abilityID": "GetDigOutPosChase_Common",
            "abilityName": "Monster_Mimik_GetDigOutPosChase",
            "abilityOverride": ""
        },
        {
            "abilityID": "GetDigOutPosRandom_Common",
            "abilityName": "Monster_Mimik_GetDigOutPosRandom",
            "abilityOverride": ""
        },
        {
            "abilityID": "BlinkToDigOutPos_Common",
            "abilityName": "Monster_Mimik_BlinkToDigOutPos",
            "abilityOverride": ""
        },
        {
            "abilityID": "Retreat",
            "abilityName": "Monster_Mimik_Retreat",
            "abilityOverride": ""
        },
        {
            "abilityID": "ResetRetreatCD",
            "abilityName": "Monster_Mimik_ResetRetreatCD",
            "abilityOverride": ""
        },
        {
            "abilityID": "RevengeAttackCDManager_Common",
            "abilityName": "Monster_Mimik_RevengeAttackCDManager",
            "abilityOverride": ""
        },
        {
            "abilityID": "RevengeAttack_Common",
            "abilityName": "Monster_Mimik_RevengeAttack",
            "abilityOverride": ""
        },
        {
            "abilityID": "ShaderEffect_InterruptTrigger_Common",
            "abilityName": "Monster_Mimik_ShaderEffect_InterruptTrigger",
            "abilityOverride": ""
        },
        {
            "abilityID": "ReturnToBornManager",
            "abilityName": "Monster_Mimik_ReturnToBornManager",
            "abilityOverride": ""
        },
        {
            "abilityID": "DamageManager",
            "abilityName": "Monster_Mimik_DamageManager",
            "abilityOverride": ""
        }
    ],
    "stateLayers": {
        "defaultLayer": {
            "$type": "KFHJINNNDPN",
            "BOPIBFKFKCA": "",
            "stateIDs": {
                "Born": {
                    "$type": "MEECNDLIOBI",
                    "HKPCLGHBKFD": {
                        "Born": []
                    },
                    "KNOHBHKACHA": true,
                    "BAABNFCMKIO": true,
                    "BGJDNIJICNM": true,
                    "ADPGACLPFHN": [
                        "DoSkill"
                    ]
                },
                "NormalIdle": {
                    "$type": "MEECNDLIOBI",
                    "HKPCLGHBKFD": {
                        "Standby": []
                    },
                    "KNOHBHKACHA": true,
                    "BAABNFCMKIO": true,
                    "ADPGACLPFHN": [
                        "DoSkill"
                    ],
                    "NPMGEMAFACP": true
                },
                "DigMove": {
                    "$type": "MEECNDLIOBI",
                    "HKPCLGHBKFD": {
                        "DigInClose": [
                            "Monster_Mimik_DigInClose",
                            "Monster_Mimik_Electric_DigInEffect",
                            "Monster_Mimik_UnderGround_DigIn",
                            "Audio_Monster_Mimik_Electric_DigInChase"
                        ],
                        "DigInFar": [
                            "Monster_Mimik_DigInFar",
                            "Monster_Mimik_Electric_DigInEffect",
                            "Monster_Mimik_UnderGround_DigIn",
                            "Audio_Monster_Mimik_Electric_DigInChase"
                        ],
                        "DigInBack": [
                            "Monster_Mimik_DigInBack",
                            "Monster_Mimik_Electric_DigInEffect",
                            "Monster_Mimik_UnderGround_DigIn",
                            "Audio_Monster_Mimik_Electric_DigInChase"
                        ],
                        "DigInChase": [
                            "Monster_Mimik_DigInChase",
                            "Monster_Mimik_Electric_DigInEffect",
                            "Monster_Mimik_UnderGround_DigIn",
                            "Audio_Monster_Mimik_Electric_DigInChase"
                        ]
                    },
                    "BAABNFCMKIO": true,
                    "BGJDNIJICNM": true,
                    "PAKNCLFMOAC": 0.05000000074505806,
                    "ADPGACLPFHN": [
                        "DoSkill",
                        "DigInFarTrigger"
                    ],
                    "NPMGEMAFACP": true
                },
                "DigMoveRandom": {
                    "$type": "MEECNDLIOBI",
                    "HKPCLGHBKFD": {
                        "DigInRandom_01": [
                            "Monster_Mimik_DigInRandom",
                            "Monster_Mimik_Electric_DigInEffect",
                            "Monster_Mimik_UnderGround_DigIn",
                            "Audio_Monster_Mimik_Electric_DigInChase"
                        ],
                        "DigInRandom_02": [
                            "Monster_Mimik_DigInRandom",
                            "Monster_Mimik_Electric_DigInEffect",
                            "Monster_Mimik_UnderGround_DigIn",
                            "Audio_Monster_Mimik_Electric_DigInChase"
                        ]
                    },
                    "BAABNFCMKIO": true,
                    "BGJDNIJICNM": true,
                    "PAKNCLFMOAC": 0.05000000074505806,
                    "NPMGEMAFACP": true
                },
                "DigOut_BS": {
                    "$type": "MEECNDLIOBI",
                    "HKPCLGHBKFD": {
                        "DigOut_BS": []
                    },
                    "BAABNFCMKIO": true,
                    "BGJDNIJICNM": true,
                    "PAKNCLFMOAC": 0.05000000074505806,
                    "ADPGACLPFHN": [
                        "DoSkill"
                    ],
                    "NPMGEMAFACP": true
                },
                "DigOut": {
                    "$type": "MEECNDLIOBI",
                    "HKPCLGHBKFD": {
                        "DigOut_Wait": [
                            "Monster_Mimik_Electric_DigOut_Wait"
                        ],
                        "DigOut": [
                            "Monster_Mimik_Electric_DigOutEffect",
                            "Monster_Mimik_UnderGround_DigOut",
                            "Audio_Monster_Mimik_Electric_DigOut"
                        ],
                        "DigOutAttack": [
                            "Monster_Mimik_Electric_DigOutAttack",
                            "Monster_Mimik_UnderGround_DigOut",
                            "Audio_Monster_Mimik_Electric_DigOut"
                        ],
                        "Born_AS": [
                            "Monster_Mimik_Electric_DigOutAttack",
                            "Monster_Mimik_UnderGround_DigOut",
                            "Audio_Monster_Mimik_Electric_DigOut"
                        ]
                    },
                    "BAABNFCMKIO": true,
                    "BGJDNIJICNM": true,
                    "PAKNCLFMOAC": 0.05000000074505806,
                    "ADPGACLPFHN": [
                        "DoSkill"
                    ],
                    "NPMGEMAFACP": true
                },
                "DigOut_EndDelay": {
                    "$type": "MEECNDLIOBI",
                    "HKPCLGHBKFD": {
                        "DigOut_EndDelay": []
                    },
                    "BAABNFCMKIO": true,
                    "BGJDNIJICNM": true,
                    "ADPGACLPFHN": [
                        "DoSkill"
                    ],
                    "NPMGEMAFACP": true
                },
                "FruitReborn": {
                    "$type": "MEECNDLIOBI",
                    "HKPCLGHBKFD": {
                        "FruitReborn_BS": [
                            "Monster_Mimik_Electric_DigInEffect",
                            "Monster_Mimik_UnderGround_DigIn",
                            "Audio_Monster_Mimik_Electric_FruitReborn_BS"
                        ],
                        "FruitReborn_Act": [],
                        "FruitReborn_AS": [
                            "Monster_Mimik_Electric_FruitReborn_AS",
                            "Monster_Mimik_UnderGround_DigOut",
                            "Audio_Monster_Mimik_Electric_FruitReborn_AS"
                        ]
                    },
                    "BAABNFCMKIO": true,
                    "BGJDNIJICNM": true,
                    "PAKNCLFMOAC": 0.05000000074505806,
                    "ADPGACLPFHN": [
                        "DoSkill"
                    ],
                    "NPMGEMAFACP": true
                },
                "BeHit": {
                    "$type": "MEECNDLIOBI",
                    "HKPCLGHBKFD": {
                        "Hit_H": []
                    },
                    "KNOHBHKACHA": true,
                    "PJFELLIJONH": [
                        "BeHit",
                        "DigInFarTrigger"
                    ],
                    "ADPGACLPFHN": [
                        "DoSkill",
                        "InterruptTrigger"
                    ]
                },
                "BeHitThrow": {
                    "$type": "MEECNDLIOBI",
                    "HKPCLGHBKFD": {
                        "HitThrow": [
                            "Monster_Mimik_Electric_HitThrow"
                        ],
                        "HitThrowDrop": [],
                        "HitThrowToGround": [
                            "Monster_Mimik_Electric_HitThrowToGround",
                            "Audio_Monster_Mimik_Electric_HitGround"
                        ]
                    },
                    "PAKNCLFMOAC": 0.05000000074505806,
                    "PJFELLIJONH": [
                        "BeHit",
                        "HitAir2HitDrop"
                    ],
                    "ADPGACLPFHN": [
                        "DoSkill",
                        "InterruptTrigger"
                    ]
                },
                "Struggle": {
                    "$type": "MEECNDLIOBI",
                    "HKPCLGHBKFD": {
                        "Struggle": []
                    },
                    "PJFELLIJONH": [
                        "BeHit",
                        "HitAir2HitDrop"
                    ],
                    "ADPGACLPFHN": [
                        "DoSkill",
                        "InterruptTrigger"
                    ]
                },
                "Die": {
                    "$type": "MEECNDLIOBI",
                    "HKPCLGHBKFD": {
                        "Die1": [
                            "Audio_Monster_Mimik_Electric_Die"
                        ],
                        "Die2": [
                            "Audio_Monster_Mimik_Electric_Die"
                        ],
                        "FallingDie": [],
                        "SwimDie": [
                            "Audio_Monster_Mimik_Electric_Die"
                        ],
                        "AirDie": [
                            "Audio_Monster_Mimik_Electric_Die"
                        ]
                    }
                },
                "Life_Warning": {
                    "$type": "MEECNDLIOBI",
                    "HKPCLGHBKFD": {
                        "Alert": [],
                        "Warning": []
                    },
                    "BGJDNIJICNM": true,
                    "PAKNCLFMOAC": 0.0,
                    "ADPGACLPFHN": [
                        "BeHit",
                        "DoSkill"
                    ],
                    "NPMGEMAFACP": true
                },
                "RangedAttack01_BS": {
                    "$type": "MEECNDLIOBI",
                    "HKPCLGHBKFD": {
                        "RangedAttack01_BS": [
                            "Monster_Mimik_Electric_RangedAttack01_BS",
                            "Audio_Monster_Mimik_Electric_RangedAtk_01_BS"
                        ]
                    },
                    "PAKNCLFMOAC": 0.75,
                    "ADPGACLPFHN": [
                        "BeHit",
                        "DoSkill"
                    ],
                    "NPMGEMAFACP": true
                },
                "RangedAttack01_Shoot": {
                    "$type": "MEECNDLIOBI",
                    "HKPCLGHBKFD": {
                        "RangedAttack01_Shoot": [
                            "Monster_Mimik_Electric_RangedAttack01_Electric",
                            "Audio_Monster_Mimik_Electric_RangedAtk_01_Shoot"
                        ]
                    },
                    "PAKNCLFMOAC": 0.75,
                    "ADPGACLPFHN": [
                        "BeHit",
                        "DoSkill"
                    ],
                    "NPMGEMAFACP": true
                },
                "RangedAttack01_AS": {
                    "$type": "MEECNDLIOBI",
                    "HKPCLGHBKFD": {
                        "RangedAttack01_AS": [
                            "Audio_Monster_Mimik_Electric_RangedAtk_01_AS"
                        ]
                    },
                    "PAKNCLFMOAC": 0.75,
                    "ADPGACLPFHN": [
                        "BeHit",
                        "DoSkill"
                    ],
                    "NPMGEMAFACP": true
                },
                "RevengeAttack_BS": {
                    "$type": "MEECNDLIOBI",
                    "HKPCLGHBKFD": {
                        "RevengeAttack_BS": [
                            "Monster_Mimik_Electric_Attack02_BS",
                            "Audio_Monster_Mimik_Electric_RevengeAtk_BS"
                        ]
                    },
                    "PAKNCLFMOAC": 0.75,
                    "ADPGACLPFHN": [
                        "BeHit",
                        "DoSkill"
                    ]
                },
                "RevengeAttack": {
                    "$type": "MEECNDLIOBI",
                    "HKPCLGHBKFD": {
                        "RevengeAttack": [
                            "Monster_Mimik_Electric_Attack02",
                            "Audio_Monster_Mimik_Electric_RevengeAtk"
                        ]
                    },
                    "PAKNCLFMOAC": 0.75,
                    "ADPGACLPFHN": [
                        "BeHit",
                        "DoSkill"
                    ],
                    "NPMGEMAFACP": true
                },
                "AbsorbFruit": {
                    "$type": "MEECNDLIOBI",
                    "HKPCLGHBKFD": {
                        "AbsorbFruit_BS": [
                            "Monster_Mimik_Electric_AbsorbFruit_BS",
                            "Audio_Monster_Mimik_Electric_AbsorbFruit_BS"
                        ],
                        "AbsorbFruit_AS": [
                            "Monster_Mimik_Electric_AbsorbFruit_AS",
                            "Audio_Monster_Mimik_Electric_AbsorbFruit_AS"
                        ]
                    },
                    "PAKNCLFMOAC": 0.05000000074505806,
                    "ADPGACLPFHN": [
                        "BeHit",
                        "DoSkill"
                    ]
                },
                "AbsorbFruit_Loop": {
                    "$type": "MEECNDLIOBI",
                    "HKPCLGHBKFD": {
                        "AbsorbFruit_Loop": []
                    },
                    "PAKNCLFMOAC": 0.05000000074505806,
                    "ADPGACLPFHN": [
                        "BeHit",
                        "DoSkill"
                    ]
                },
                "ForwardShoot02": {
                    "$type": "MEECNDLIOBI",
                    "HKPCLGHBKFD": {
                        "ForwardShoot02_BS": [
                            "Audio_Monster_Mimik_Electric_ForwardShoot_01_BS"
                        ],
                        "ForwardShoot02_Aim01": [
                            "Monster_Mimik_Electric_ForwardShoot02_Aim01"
                        ],
                        "ForwardShoot02_Aim02": [],
                        "ForwardShoot02_Shoot": [
                            "Monster_Mimik_Electric_ForwardShoot02_Shoot",
                            "Audio_Monster_Mimik_Electric_ForwardShoot"
                        ],
                        "ForwardShoot01_AS": [
                            "Monster_Mimik_Electric_ForwardShoot02_AS",
                            "Audio_Monster_Mimik_Electric_ForwardShoot_01_AS"
                        ]
                    },
                    "PAKNCLFMOAC": 0.05000000074505806,
                    "ADPGACLPFHN": [
                        "BeHit",
                        "DoSkill"
                    ],
                    "NPMGEMAFACP": true
                },
                "Down": {
                    "$type": "MEECNDLIOBI",
                    "HKPCLGHBKFD": {
                        "Down_BS": [
                            "Monster_Mimik_Electric_AbsorbFruit_Break",
                            "Audio_Monster_Mimik_Electric_Down_BS"
                        ],
                        "Down_Loop": [],
                        "Down_AS": [
                            "Audio_Monster_Mimik_Electric_Down_AS"
                        ]
                    },
                    "KNOHBHKACHA": true,
                    "BAABNFCMKIO": true,
                    "PAKNCLFMOAC": 10.0,
                    "ADPGACLPFHN": [
                        "DoSkill"
                    ]
                },
                "ReturnToBorn": {
                    "$type": "MEECNDLIOBI",
                    "HKPCLGHBKFD": {
                        "ReturnToBorn": [
                            "Monster_Mimik_Electric_ReturnToBorn",
                            "Monster_Mimik_UnderGround_DigIn"
                        ],
                        "ReturnToBorn_AS_Wait": [
                            "Monster_Mimik_Electric_DigOut_Wait"
                        ],
                        "ReturnToBorn_AS": [
                            "Monster_Mimik_Electric_DigOutEffect",
                            "Monster_Mimik_UnderGround_DigOut",
                            "Audio_Monster_Mimik_Electric_DigOut"
                        ]
                    },
                    "BGJDNIJICNM": true,
                    "ADPGACLPFHN": [
                        "BeHit",
                        "DoSkill"
                    ]
                }
            }
        }
    },
    "partControl": {
        "parts": [
            {
                "$type": "PMGKKACOLIC",
                "angularSpeed": 3600.0,
                "BGKPNLALNPD": "Fruit01",
                "AJBEMCBABJF": "",
                "GPAPEPNEEMC": 360.0,
                "OGNBJMIOCPO": 0.0
            },
            {
                "$type": "PMGKKACOLIC",
                "angularSpeed": 3600.0,
                "BGKPNLALNPD": "Fruit02",
                "AJBEMCBABJF": "",
                "GPAPEPNEEMC": 360.0,
                "OGNBJMIOCPO": 0.0
            },
            {
                "$type": "PMGKKACOLIC",
                "angularSpeed": 3600.0,
                "BGKPNLALNPD": "Fruit03",
                "AJBEMCBABJF": "",
                "GPAPEPNEEMC": 360.0,
                "OGNBJMIOCPO": 0.0
            }
        ]
    },
    "billboard": {
        "$type": "HFEGKLAIGGI",
        "IIKEHINGEME": "BillboardAttach",
        "offset": {
            "y": 1.5
        },
        "HECLHMINJII": 0.20000000298023224,
        "DMHOOGGGDKG": true
    },
    "initialPoses": {
        "Default": {}
    },
    "aibeta": {
        "enable": true,
        "sensing": {
            "settings": {
                "DefaultSetting": {
                    "viewRange": 45.0,
                    "feelRange": 25.0
                },
                "Sacrifice": {
                    "viewRange": 10.0
                }
            }
        },
        "neurons": {
            "DefaultSetting": [
                "HIT"
            ]
        },
        "threat": {
            "clearThreatTargetDistance": 30.0,
            "clearThreatEdgeDistance": 7.5,
            "clearThreatTimerByDistance": 1.5,
            "viewThreatGrow": 35.0,
            "feelThreatGrow": 100.0,
            "threatDecreaseSpeed": 10.0
        },
        "defendArea": {},
        "skillGroupCDConfigs": [
            {
                "skillGroupCDID": 1,
                "skillGroupCDTime": 0.0
            },
            {
                "skillGroupCDID": 2,
                "skillGroupCDTime": 10.0
            }
        ],
        "skillSetting": {},
        "skills": {
            "102": {
                "name": "OnAlert",
                "skillType": "OnAlert",
                "publicCDGroup": "",
                "ignoreGCD": true,
                "triggerGCD": false,
                "CLEPNIDJOLN": "",
                "stateIDs": [
                    "Life_Warning"
                ],
                "skillQueryingTime": 3.0,
                "flagTargetReachable": "10",
                "flagSelfOnTemplateCollider": "01",
                "flagSelfInZone": "10",
                "flagTargetInZone": "11"
            },
            "201": {
                "name": "RangedAttack01_Far",
                "combatSkillType": "RangedAttack",
                "castCondition": {
                    "pose": [
                        2101,
                        2201,
                        2301
                    ],
                    "pickRangeMax": 10.0,
                    "castRangeMax": 10.0
                },
                "cd": 4.0,
                "cdUpperRange": 2.0,
                "publicCDGroup": "",
                "ignoreGCD": true,
                "triggerGCD": false,
                "skillGroupCDID": 1,
                "CLEPNIDJOLN": "",
                "stateIDs": [
                    "RangedAttack01_BS",
                    "RangedAttack01_Electric",
                    "RangedAttack01_AS"
                ],
                "flagTargetReachable": "11",
                "flagSelfOnTemplateCollider": "11",
                "flagSelfInZone": "10",
                "flagTargetInZone": "11"
            },
            "203": {
                "name": "Attack02",
                "priority": 1,
                "castCondition": {
                    "pose": [
                        1101,
                        1201,
                        1301
                    ],
                    "pickRangeMax": 6.0,
                    "castRangeMax": 7.0
                },
                "cd": 3.0,
                "initialCD": 3.0,
                "publicCDGroup": "",
                "skillGroupCDID": 1,
                "CLEPNIDJOLN": "",
                "stateIDs": [
                    "RevengeAttack_BS",
                    "RevengeAttack",
                    "DigMove",
                    "DigOut",
                    "DigOut_BS",
                    "DigOut_EndDelay"
                ],
                "flagTargetReachable": "11",
                "flagSelfOnTemplateCollider": "01",
                "flagSelfInZone": "10",
                "flagTargetInZone": "11"
            },
            "301": {
                "name": "FruitSkill_UpperShoot02",
                "combatSkillType": "RangedAttack",
                "priority": 1,
                "castCondition": {
                    "pose": [
                        1101,
                        1201,
                        1301,
                        2101,
                        2201,
                        2301,
                        3101,
                        3201,
                        3301
                    ],
                    "pickRangeMin": 10.0,
                    "pickRangeMax": 30.0,
                    "castRangeMin": 10.0,
                    "castRangeMax": 30.0
                },
                "cd": 5.0,
                "initialCD": 5.0,
                "publicCDGroup": "Mimik_FruitSkill",
                "skillGroupCDID": 2,
                "CLEPNIDJOLN": "",
                "stateIDs": [
                    "RevengeAttack_BS",
                    "RevengeAttack",
                    "DigMove",
                    "DigOut",
                    "AbsorbFruit",
                    "AbsorbFruit_Loop",
                    "UpperShoot02",
                    "Down"
                ],
                "flagTargetReachable": "11",
                "flagSelfOnTemplateCollider": "11",
                "flagSelfInZone": "10",
                "flagTargetInZone": "11"
            },
            "312": {
                "name": "FruitSkill_UpperShoot02",
                "combatSkillType": "RangedAttack",
                "priority": 1,
                "castCondition": {
                    "pose": [
                        1101,
                        1201,
                        1301,
                        2101,
                        2201,
                        2301
                    ],
                    "pickRangeMax": 10.0,
                    "castRangeMax": 30.0
                },
                "cd": 10.0,
                "initialCD": 10.0,
                "publicCDGroup": "Mimik_FruitSkill",
                "skillGroupCDID": 2,
                "CLEPNIDJOLN": "",
                "stateIDs": [
                    "RevengeAttack_BS",
                    "RevengeAttack",
                    "DigMove",
                    "DigOut",
                    "DigOut_BS",
                    "AbsorbFruit",
                    "AbsorbFruit_Loop",
                    "UpperShoot02",
                    "Down"
                ],
                "flagTargetReachable": "11",
                "flagSelfOnTemplateCollider": "11",
                "flagSelfInZone": "10",
                "flagTargetInZone": "11"
            },
            "501": {
                "name": "DigMoveClose",
                "castCondition": {
                    "pose": [
                        3101,
                        3201,
                        3301
                    ],
                    "pickRangeMax": 50.0,
                    "castRangeMax": 50.0
                },
                "publicCDGroup": "",
                "ignoreGCD": true,
                "triggerGCD": false,
                "CLEPNIDJOLN": "",
                "stateIDs": [
                    "DigMove",
                    "DigMoveRandom",
                    "DigOut",
                    "DigOut_EndDelay"
                ],
                "flagTargetReachable": "11",
                "flagSelfOnTemplateCollider": "01",
                "flagSelfInZone": "10",
                "flagTargetInZone": "11"
            },
            "502": {
                "name": "DigMoveFar",
                "castCondition": {
                    "pose": [
                        1101,
                        1201,
                        1301
                    ],
                    "pickRangeMax": 50.0,
                    "castRangeMax": 50.0
                },
                "cd": 15.0,
                "initialCD": 3.0,
                "publicCDGroup": "",
                "ignoreGCD": true,
                "triggerGCD": false,
                "CLEPNIDJOLN": "",
                "stateIDs": [
                    "DigMove",
                    "DigOut",
                    "DigOut_EndDelay",
                    "DigOut_BS"
                ],
                "flagTargetReachable": "10",
                "flagSelfOnTemplateCollider": "01",
                "flagSelfInZone": "10",
                "flagTargetInZone": "11"
            },
            "601": {
                "name": "FruitReborn",
                "castCondition": {
                    "pose": [
                        2001
                    ]
                },
                "publicCDGroup": "",
                "ignoreGCD": true,
                "triggerGCD": false,
                "CLEPNIDJOLN": "",
                "stateIDs": [
                    "FruitReborn"
                ],
                "flagTargetReachable": "11",
                "flagSelfOnTemplateCollider": "01",
                "flagSelfInZone": "11",
                "flagTargetInZone": "11"
            }
        },
        "skillGCD": 0.5,
        "combatFixedMoveTactic": [
            {
                "$type": "AFDJLHBOOMF",
                "NGIEOIGFFDH": {
                    "ODJCANIELOC": 0.5,
                    "OKABCEDCDJM": 0.5,
                    "FCFLCFFJKLO": "",
                    "BKCOJDIDEGN": ""
                }
            },
            {
                "$type": "GJGILIGEJMO",
                "enable": true,
                "NGIEOIGFFDH": {
                    "NHPKGHAHIFA": 0,
                    "JIFACJMKJID": 1.0,
                    "HEMHHCFMJGB": 4.5,
                    "FCFLCFFJKLO": "",
                    "BKCOJDIDEGN": ""
                }
            },
            {
                "$type": "IKIHDEMELGB",
                "EGJMGEHLDOL": {
                    "pose": [
                        100,
                        300
                    ]
                },
                "NGIEOIGFFDH": {
                    "MONCHHKIDKL": 0.20000000298023224,
                    "KDLAOJIPGHP": 25.0,
                    "OEFFOIEOJNC": 7.5,
                    "FCFLCFFJKLO": ""
                }
            }
        ]
    },
    "inputKeys": [
        {
            "keyID": 102,
            "inputKeyCode": 257,
            "abilityName": ""
        },
        {
            "keyID": 201,
            "inputKeyCode": 258,
            "abilityName": ""
        },
        {
            "keyID": 203,
            "inputKeyCode": 259,
            "abilityName": ""
        },
        {
            "keyID": 301,
            "inputKeyCode": 260,
            "abilityName": ""
        }
    ],
    "move": {
        "$type": "JKDLANFKJIL",
        "LDHGAEIKIEE": "StrongHumanoidType",
        "LPAKBBIADNC": "RootNode"
    },
    "audio": {
        "LKJIHNLBIJL": "",
        "animAudio": {
            "onTransitionIn": [
                {
                    "currentStateName": "AbsorbFruit_Loop",
                    "audioEvent": {
                        "text": "Play_sfx_monster_mimik_electric_absorbFruit_lp"
                    }
                },
                {
                    "currentStateName": "Down_Loop",
                    "audioEvent": {
                        "text": "Play_sfx_monster_mimik_electric_down_lp"
                    }
                }
            ],
            "onTransitionOut": [
                {
                    "currentStateName": "AbsorbFruit_Loop",
                    "audioEvent": {
                        "text": "Stop_sfx_monster_mimik_electric_absorbFruit_lp"
                    }
                },
                {
                    "currentStateName": "Down_Loop",
                    "audioEvent": {
                        "text": "Stop_sfx_monster_mimik_electric_down_lp"
                    }
                }
            ]
        },
        "disableEvent": {
            "text": ""
        },
        "destroyEvent": {
            "text": ""
        }
    }
}