{
    "common": {
        "effectAttachShape": {
            "$type": "CMIPFEGOJCH",
            "EJAEFCDBDFB": "EffectMesh1"
        },
        "mass": 10000.0,
        "height": 2.0,
        "modelHeight": 2.700000047683716,
        "viewSize": 2.0,
        "affectedByWorld": true,
        "checkInSurface": true,
        "shouldPauseAnimatorBeforeReady": true,
        "useGrassDisplacement": true,
        "DLFJJCMGIBH": true,
        "NICGCIINMFJ": true
    },
    "specialPoint": {
        "elementAbsorb": "RootNode",
        "elementPendant": "",
        "elementDrop": "RootNode",
        "bulletAim": "BulletAim1"
    },
    "model": {
        "bornEffect": "",
        "attachEffect": "",
        "canBakeMesh": false
    },
    "dither": {
        "showDitherDuration": 2.0
    },
    "combat": {
        "property": {
            "endureType": "Monster_Demiboss_Other",
            "weight": 101.0
        },
        "beHit": {
            "hitBloodEffect": ""
        },
        "combatLock": {
            "lockShape": "CircleLockEnemy",
            "lockType": "Avatar&Monster_Lv4"
        },
        "die": {
            "dieEndTime": 0.05000000074505806,
            "dieForceDisappearTime": 0.05000000074505806,
            "dieDisappearEffect": "",
            "LDOHFFOEPPI": true,
            "BMOKGIFNILM": true,
            "PHCLLDNDFNG": true,
            "CHBAHMJGJBE": true,
            "OPPHENIKFJA": true,
            "CCNGAIMLPIJ": true
        },
        "animEvents": {
            "PushAttack": {
                "attackPattern": {
                    "$type": "HBFCINNBDFD",
                    "triggerType": "TriggerNoRepeat",
                    "born": {
                        "$type": "KDEPFKAAHCG",
                        "FIOMHONCCNM": true
                    },
                    "height": 3.0,
                    "DFMMIGEMOHH": 3.0
                },
                "attackInfo": {
                    "attackTag": "",
                    "attenuationTag": "",
                    "attenuationGroup": "default",
                    "attackProperty": {
                        "PCFAAPMOCGJ": 1.0,
                        "LCCBNOKMNFG": 0.0,
                        "elementType": "Water",
                        "bonusCritical": 50.0,
                        "strikeType": "Blunt",
                        "enBreak": 101.0,
                        "attackType": "Melee",
                        "FKGFPFNOJMN": 0.0
                    },
                    "hitPattern": {
                        "onHitEffectName": "default",
                        "hitImpulseType": "LV4"
                    }
                }
            }
        }
    },
    "abilities": [
        {
            "abilityID": "",
            "abilityName": "Monster_Necalevia_SmallTransformToBig",
            "abilityOverride": ""
        },
        {
            "abilityID": "",
            "abilityName": "Monster_Necalevia_SmallBreakToBig",
            "abilityOverride": ""
        },
        {
            "abilityID": "",
            "abilityName": "Monster_Necalevia_AngrySystem",
            "abilityOverride": ""
        },
        {
            "abilityID": "",
            "abilityName": "Monster_Necalevia_ElementInitial",
            "abilityOverride": ""
        },
        {
            "abilityID": "",
            "abilityName": "Monster_Necalevia_Steer",
            "abilityOverride": ""
        },
        {
            "abilityID": "",
            "abilityName": "Monster_Necalevia_ReleaseRangeBullet",
            "abilityOverride": ""
        },
        {
            "abilityID": "",
            "abilityName": "Necalevia_ReleaseAOERangeAtk",
            "abilityOverride": ""
        },
        {
            "abilityID": "",
            "abilityName": "Monster_Necalevia_Big_PushSkin",
            "abilityOverride": ""
        },
        {
            "abilityID": "",
            "abilityName": "Monster_Necalevia_Small_ReleaseRangeBullet",
            "abilityOverride": ""
        },
        {
            "abilityID": "",
            "abilityName": "Monster_Necalevia_OutOfBattle",
            "abilityOverride": ""
        },
        {
            "abilityID": "",
            "abilityName": "Monster_Necalevia_BeforeBattleShow",
            "abilityOverride": ""
        },
        {
            "abilityID": "",
            "abilityName": "Monster_Common_WaterMuteHurt",
            "abilityOverride": ""
        },
        {
            "abilityID": "",
            "abilityName": "Monster_Necalevia_BigGeneral_Steer",
            "abilityOverride": ""
        }
    ],
    "stateLayers": {
        "defaultLayer": {
            "$type": "KFHJINNNDPN",
            "BOPIBFKFKCA": "",
            "stateIDs": {
                "Born": {
                    "$type": "MEECNDLIOBI",
                    "HKPCLGHBKFD": {
                        "Born": []
                    },
                    "BAABNFCMKIO": true,
                    "PJFELLIJONH": [
                        "ShakeTrigger"
                    ],
                    "ADPGACLPFHN": [
                        "DoSkill"
                    ]
                },
                "NormalIdle": {
                    "$type": "MEECNDLIOBI",
                    "HKPCLGHBKFD": {
                        "Standby": [],
                        "Standby_Big": []
                    },
                    "KNOHBHKACHA": true,
                    "BAABNFCMKIO": true,
                    "ADPGACLPFHN": [
                        "DoSkill"
                    ],
                    "NPMGEMAFACP": true,
                    "EOALJPNBEOI": true
                },
                "StandbyFree": {
                    "$type": "MEECNDLIOBI",
                    "HKPCLGHBKFD": {
                        "StandbyFree": []
                    },
                    "KNOHBHKACHA": true,
                    "BAABNFCMKIO": true,
                    "ADPGACLPFHN": [
                        "DoSkill"
                    ]
                },
                "WalkFree": {
                    "$type": "MEECNDLIOBI",
                    "HKPCLGHBKFD": {
                        "WalkFree": []
                    },
                    "KNOHBHKACHA": true,
                    "BAABNFCMKIO": true,
                    "ADPGACLPFHN": [
                        "DoSkill"
                    ],
                    "NPMGEMAFACP": true
                },
                "NormalMove": {
                    "$type": "MEECNDLIOBI",
                    "HKPCLGHBKFD": {
                        "WalkF": [],
                        "WalkF_Big": []
                    },
                    "KNOHBHKACHA": true,
                    "BAABNFCMKIO": true,
                    "ADPGACLPFHN": [
                        "DoSkill"
                    ],
                    "NPMGEMAFACP": true
                },
                "Die": {
                    "$type": "MEECNDLIOBI",
                    "HKPCLGHBKFD": {
                        "Die": [
                            "Audio_Monster_Necalevia_Big_01_Die_Stop"
                        ]
                    },
                    "PJFELLIJONH": [
                        "DoSkill"
                    ]
                },
                "Alert": {
                    "$type": "MEECNDLIOBI",
                    "HKPCLGHBKFD": {
                        "Alert": [
                            "Audio_Monster_Necalevia_Normal_01_Alert"
                        ]
                    },
                    "ADPGACLPFHN": [
                        "BeHit",
                        "DoSkill"
                    ],
                    "NPMGEMAFACP": true
                },
                "Personality1_BS": {
                    "$type": "MEECNDLIOBI",
                    "HKPCLGHBKFD": {
                        "Personality1_BS": [
                            "Audio_Monster_Necalevia_Big_01_Personality1_BS"
                        ]
                    },
                    "KNOHBHKACHA": true,
                    "ADPGACLPFHN": [
                        "DoSkill"
                    ]
                },
                "Personality1_Loop": {
                    "$type": "MEECNDLIOBI",
                    "HKPCLGHBKFD": {
                        "Personality1_Loop": [
                            "Audio_Monster_Necalevia_Big_01_Personality1_Loop"
                        ]
                    },
                    "KNOHBHKACHA": true,
                    "ADPGACLPFHN": [
                        "DoSkill"
                    ]
                },
                "Personality1_AS": {
                    "$type": "MEECNDLIOBI",
                    "HKPCLGHBKFD": {
                        "Personality1_AS": [
                            "Audio_Monster_Necalevia_Big_01_Personality1_AS"
                        ]
                    },
                    "KNOHBHKACHA": true,
                    "ADPGACLPFHN": [
                        "DoSkill"
                    ]
                },
                "Personality2": {
                    "$type": "MEECNDLIOBI",
                    "HKPCLGHBKFD": {
                        "Personality2": []
                    },
                    "KNOHBHKACHA": true,
                    "ADPGACLPFHN": [
                        "DoSkill"
                    ]
                },
                "Personality3": {
                    "$type": "MEECNDLIOBI",
                    "HKPCLGHBKFD": {
                        "Personality3": [
                            "Audio_Monster_Necalevia_Normal_01_Personality3"
                        ]
                    },
                    "KNOHBHKACHA": true,
                    "ADPGACLPFHN": [
                        "DoSkill"
                    ]
                },
                "TransformToBig_BS": {
                    "$type": "MEECNDLIOBI",
                    "HKPCLGHBKFD": {
                        "TransformToBig_BS": [
                            "Monster_Necalevia_Big_TransformEff",
                            "Audio_Monster_Necalevia_Big_01_TransformToBig_BS"
                        ]
                    },
                    "BGJDNIJICNM": true,
                    "ADPGACLPFHN": [
                        "DoSkill"
                    ]
                },
                "TransformToBig_AS": {
                    "$type": "MEECNDLIOBI",
                    "HKPCLGHBKFD": {
                        "TransformToBig_AS": [
                            "Audio_Monster_Necalevia_Big_01_TransformToBig_AS"
                        ]
                    },
                    "BGJDNIJICNM": true,
                    "ADPGACLPFHN": [
                        "DoSkill"
                    ]
                },
                "BreakToBig_BS": {
                    "$type": "MEECNDLIOBI",
                    "HKPCLGHBKFD": {
                        "BreakToBig_BS": [
                            "Monster_Necalevia_Big_BreakFreeze"
                        ]
                    },
                    "BGJDNIJICNM": true,
                    "ADPGACLPFHN": [
                        "DoSkill"
                    ]
                },
                "BreakToBig_AS": {
                    "$type": "MEECNDLIOBI",
                    "HKPCLGHBKFD": {
                        "BreakToBig_AS": [
                            "Audio_Monster_Necalevia_Big_01_BreakToBig_AS",
                            "Audio_Monster_Necalevia_Big_01_BreakToBig_AS"
                        ]
                    },
                    "BGJDNIJICNM": true,
                    "ADPGACLPFHN": [
                        "DoSkill"
                    ]
                },
                "BigChangeToSmall_BS": {
                    "$type": "MEECNDLIOBI",
                    "HKPCLGHBKFD": {
                        "BigChangeToSmall_BS": [
                            "Audio_Monster_Necalevia_Big_01_BigChangeToSmall_BS"
                        ]
                    },
                    "BGJDNIJICNM": true,
                    "ADPGACLPFHN": [
                        "DoSkill"
                    ]
                },
                "BigChangeToSmall_AS": {
                    "$type": "MEECNDLIOBI",
                    "HKPCLGHBKFD": {
                        "BigChangeToSmall_AS": [
                            "Audio_Monster_Necalevia_Big_01_BigChangeToSmall_AS"
                        ]
                    },
                    "BGJDNIJICNM": true,
                    "ADPGACLPFHN": [
                        "DoSkill"
                    ]
                },
                "SmallAttack": {
                    "$type": "MEECNDLIOBI",
                    "HKPCLGHBKFD": {
                        "SmallAttack": [
                            "Monster_Necalevia_SmallAttack",
                            "Audio_Monster_Necalevia_Normal_01_SmallAttack"
                        ]
                    },
                    "ADPGACLPFHN": [
                        "DoSkill"
                    ]
                },
                "NormalRangeAttack": {
                    "$type": "MEECNDLIOBI",
                    "HKPCLGHBKFD": {
                        "NormalRangeAttack": [
                            "Monster_Necalevia_Big_RangeAtk",
                            "Audio_Monster_Necalevia_Big_01_NormalRangeAttack"
                        ]
                    },
                    "ADPGACLPFHN": [
                        "DoSkill",
                        "ShakeTrigger"
                    ]
                },
                "PushAttack": {
                    "$type": "MEECNDLIOBI",
                    "HKPCLGHBKFD": {
                        "PushAttack": [
                            "Monster_Necalevia_Big_PushAttack",
                            "Audio_Monster_Necalevia_Big_01_PushAttack"
                        ]
                    },
                    "ADPGACLPFHN": [
                        "DoSkill",
                        "GoIceFake"
                    ]
                },
                "RangeAOEAttack_BS": {
                    "$type": "MEECNDLIOBI",
                    "HKPCLGHBKFD": {
                        "RangeAOEAttack_BS": [
                            "Monster_Necalevia_Big_RangeAOE",
                            "Audio_Monster_Necalevia_Big_01_RangeAOEAttack_BS"
                        ]
                    },
                    "BGJDNIJICNM": true,
                    "ADPGACLPFHN": [
                        "DoSkill"
                    ]
                },
                "RangeAOEAttack_Loop": {
                    "$type": "MEECNDLIOBI",
                    "HKPCLGHBKFD": {
                        "RangeAOEAttack_Loop": []
                    },
                    "BGJDNIJICNM": true,
                    "ADPGACLPFHN": [
                        "DoSkill"
                    ]
                },
                "RangeAOEAttack_AS": {
                    "$type": "MEECNDLIOBI",
                    "HKPCLGHBKFD": {
                        "RangeAOEAttack_AS": [
                            "Audio_Monster_Necalevia_Big_01_RangeAOEAttack_AS"
                        ]
                    },
                    "BGJDNIJICNM": true,
                    "ADPGACLPFHN": [
                        "DoSkill"
                    ]
                },
                "OutOfBattle": {
                    "$type": "MEECNDLIOBI",
                    "HKPCLGHBKFD": {
                        "OutOfBattle": [
                            "Audio_Monster_Necalevia_Normal_01_OutOfBattle"
                        ]
                    },
                    "ADPGACLPFHN": [
                        "DoSkill"
                    ]
                }
            }
        }
    },
    "billboard": {
        "$type": "HFEGKLAIGGI",
        "IIKEHINGEME": "BillboardAttach",
        "GEKOGJAPMMH": "Character",
        "DMHOOGGGDKG": true,
        "KAJOCAAOIFN": 50.0,
        "size": "Big"
    },
    "initialPoses": {
        "Default": {
            "initialPoseID": 1
        },
        "Happy": {
            "initialPoseID": 2,
            "initialPoseParams": {
                "boolParams": {
                    "Happy": "true"
                }
            }
        },
        "Communicate": {
            "initialPoseID": 3,
            "initialPoseParams": {
                "boolParams": {
                    "Communicate": "true"
                }
            }
        },
        "Warning": {
            "initialPoseID": 4,
            "initialPoseParams": {
                "boolParams": {
                    "Warning": "true"
                }
            }
        }
    },
    "aibeta": {
        "enable": true,
        "sensing": {
            "settings": {
                "DefaultSetting": {
                    "viewRange": 25.0,
                    "feelRange": 10.0
                },
                "NeverCombat": {
                    "enableVision": false,
                    "hearAttractionRange": 0.0,
                    "feelRange": 0.0,
                    "sourcelessHitAttractionRange": 50.0
                },
                "LowAlert": {
                    "viewRange": 15.0,
                    "feelRange": 10.0
                }
            },
            "templates": {
                "DefaultTemplate": {
                    "DefaultPoses": "NeverCombat",
                    "2": "NeverCombat",
                    "3": "NeverCombat",
                    "4": "LowAlert"
                },
                "NeverCombatTemplate": {
                    "DefaultPoses": "NeverCombat"
                }
            }
        },
        "neurons": {
            "DefaultSetting": [
                "HIT"
            ],
            "NeverCombat": []
        },
        "threat": {
            "clearThreatByLostPath": true,
            "clearThreatByTargetOutOfZone": true,
            "clearThreatTimerByLostPath": 11.0,
            "clearThreatTimerByTargetOutOfZone": 4.0,
            "viewAttenuation": [
                {
                    "x": 10.0,
                    "y": 2.0
                },
                {
                    "x": 15.0,
                    "y": 0.800000011920929
                },
                {
                    "x": 20.0,
                    "y": 0.5
                },
                {
                    "x": 25.0,
                    "y": 0.30000001192092896
                },
                {
                    "x": 30.0,
                    "y": 0.20000000298023224
                }
            ],
            "resistTauntLevel": "Monster_TauntLevel_2"
        },
        "defendArea": {
            "defendRange": 50.0
        },
        "network": {
            "syncSkill": true
        },
        "skills": {
            "1": {
                "name": "OnAlert",
                "skillType": "OnAlert",
                "faceTarget": true,
                "publicCDGroup": "",
                "ignoreGCD": true,
                "triggerGCD": false,
                "CLEPNIDJOLN": "",
                "stateIDs": [
                    "Alert"
                ],
                "skillQueryingTime": 3.0,
                "flagTargetReachable": "10",
                "flagSelfOnTemplateCollider": "01",
                "flagSelfInZone": "10",
                "flagTargetInZone": "11"
            },
            "2": {
                "name": "Personality1",
                "skillType": "Free",
                "faceTarget": true,
                "castCondition": {
                    "pose": [
                        2
                    ]
                },
                "cd": 2.0,
                "cdUpperRange": 2.0,
                "initialCD": 2.0,
                "publicCDGroup": "",
                "ignoreGCD": true,
                "triggerGCD": false,
                "CLEPNIDJOLN": "",
                "stateIDs": [
                    "Personality1_BS",
                    "Personality1_Loop",
                    "Personality1_AS"
                ],
                "skillQueryingTime": 3.0,
                "flagTargetReachable": "10",
                "flagSelfOnTemplateCollider": "01",
                "flagSelfInZone": "10",
                "flagTargetInZone": "11"
            },
            "3": {
                "name": "Personality2",
                "skillType": "Free",
                "faceTarget": true,
                "castCondition": {
                    "pose": [
                        3
                    ]
                },
                "cd": 3.0,
                "cdUpperRange": 2.0,
                "initialCD": 2.0,
                "publicCDGroup": "",
                "ignoreGCD": true,
                "triggerGCD": false,
                "CLEPNIDJOLN": "",
                "stateIDs": [
                    "Personality2"
                ],
                "skillQueryingTime": 3.0,
                "flagTargetReachable": "10",
                "flagSelfOnTemplateCollider": "01",
                "flagSelfInZone": "10",
                "flagTargetInZone": "11"
            },
            "4": {
                "name": "Personality3",
                "skillType": "Free",
                "faceTarget": true,
                "castCondition": {
                    "pose": [
                        4
                    ]
                },
                "cd": 3.0,
                "cdUpperRange": 2.0,
                "initialCD": 2.0,
                "publicCDGroup": "",
                "ignoreGCD": true,
                "triggerGCD": false,
                "CLEPNIDJOLN": "",
                "stateIDs": [
                    "Personality3"
                ],
                "skillQueryingTime": 3.0,
                "flagTargetReachable": "10",
                "flagSelfOnTemplateCollider": "01",
                "flagSelfInZone": "10",
                "flagTargetInZone": "11"
            },
            "100": {
                "name": "SmallAttack",
                "castCondition": {
                    "pose": [
                        101
                    ],
                    "pickRangeMax": 20.0
                },
                "cd": 1.0,
                "cdUpperRange": 2.0,
                "initialCD": 2.0,
                "initialCDUpperRange": 2.0,
                "publicCDGroup": "",
                "CLEPNIDJOLN": "",
                "stateIDs": [
                    "SmallAttack"
                ],
                "skillQueryingTime": 3.0,
                "flagTargetReachable": "11",
                "flagSelfOnTemplateCollider": "01",
                "flagSelfInZone": "11",
                "flagTargetInZone": "11"
            },
            "101": {
                "name": "NormalRangeAttack",
                "castCondition": {
                    "pose": [
                        102
                    ],
                    "pickRangeMin": 3.0,
                    "pickRangeMax": 20.0
                },
                "cd": 1.0,
                "initialCD": 2.0,
                "publicCDGroup": "",
                "CLEPNIDJOLN": "",
                "stateIDs": [
                    "NormalRangeAttack"
                ],
                "skillQueryingTime": 3.0,
                "flagTargetReachable": "11",
                "flagSelfOnTemplateCollider": "01",
                "flagSelfInZone": "11",
                "flagTargetInZone": "11"
            },
            "102": {
                "name": "PushAttack",
                "priority": 2,
                "castCondition": {
                    "pose": [
                        102
                    ],
                    "pickRangeMax": 3.0
                },
                "cd": 1.0,
                "cdUpperRange": 2.0,
                "initialCD": 1.0,
                "publicCDGroup": "",
                "CLEPNIDJOLN": "",
                "stateIDs": [
                    "PushAttack"
                ],
                "skillQueryingTime": 3.0,
                "flagTargetReachable": "10",
                "flagSelfOnTemplateCollider": "01",
                "flagSelfInZone": "10",
                "flagTargetInZone": "11"
            },
            "103": {
                "name": "RangeAOEAttack",
                "priority": 3,
                "castCondition": {
                    "pose": [
                        102
                    ],
                    "pickRangeMin": 5.0,
                    "pickRangeMax": 20.0
                },
                "cd": 3.0,
                "cdUpperRange": 3.0,
                "initialCD": 1.0,
                "publicCDGroup": "",
                "CLEPNIDJOLN": "",
                "stateIDs": [
                    "RangeAOEAttack_BS",
                    "RangeAOEAttack_Loop",
                    "RangeAOEAttack_AS"
                ],
                "skillQueryingTime": 3.0,
                "flagTargetReachable": "10",
                "flagSelfOnTemplateCollider": "01",
                "flagSelfInZone": "10",
                "flagTargetInZone": "11"
            },
            "9000": {
                "name": "TransformToBig",
                "priority": 1,
                "castCondition": {
                    "pose": [
                        101
                    ],
                    "needReInitCD": true
                },
                "cd": 10.0,
                "cdUpperRange": 5.0,
                "initialCD": 15.0,
                "publicCDGroup": "",
                "ignoreGCD": true,
                "triggerGCD": false,
                "CLEPNIDJOLN": "",
                "stateIDs": [
                    "TransformToBig_BS",
                    "TransformToBig_AS"
                ],
                "skillQueryingTime": 3.0,
                "flagTargetReachable": "11",
                "flagSelfOnTemplateCollider": "01",
                "flagSelfInZone": "11",
                "flagTargetInZone": "11"
            },
            "9001": {
                "name": "BreakToBig",
                "faceTarget": true,
                "castCondition": {
                    "pose": [
                        999
                    ]
                },
                "cd": 10.0,
                "cdUpperRange": 5.0,
                "initialCD": 5.0,
                "publicCDGroup": "",
                "ignoreGCD": true,
                "triggerGCD": false,
                "CLEPNIDJOLN": "",
                "stateIDs": [
                    "BreakToBig_BS",
                    "BreakToBig_AS"
                ],
                "skillQueryingTime": 3.0,
                "flagTargetReachable": "10",
                "flagSelfOnTemplateCollider": "01",
                "flagSelfInZone": "10",
                "flagTargetInZone": "11"
            },
            "9002": {
                "name": "TransformToSmall",
                "faceTarget": true,
                "castCondition": {
                    "pose": [
                        102
                    ],
                    "needReInitCD": true
                },
                "cd": 5.0,
                "initialCD": 15.0,
                "publicCDGroup": "",
                "ignoreGCD": true,
                "triggerGCD": false,
                "CLEPNIDJOLN": "",
                "stateIDs": [
                    "BigChangeToSmall_BS",
                    "BigChangeToSmall_AS"
                ],
                "skillQueryingTime": 3.0,
                "flagTargetReachable": "11",
                "flagSelfOnTemplateCollider": "01",
                "flagSelfInZone": "11",
                "flagTargetInZone": "11"
            }
        },
        "skillGCD": 3.0,
        "combatFixedMoveTactic": [
            {
                "$type": "HLPBLIEBJLM",
                "enable": true,
                "EGJMGEHLDOL": {
                    "pose": [
                        101,
                        102
                    ]
                },
                "NGIEOIGFFDH": {
                    "NHPKGHAHIFA": 1,
                    "NDCHJGOOLCF": 99.0,
                    "FDNLEPNLLBP": 10.0,
                    "DANCMNIMNAM": 0.0,
                    "FCFLCFFJKLO": ""
                }
            },
            {
                "$type": "GJGILIGEJMO",
                "enable": true,
                "NGIEOIGFFDH": {
                    "NHPKGHAHIFA": 1,
                    "HPJGMGLNNEB": 4.0,
                    "FCFLCFFJKLO": "",
                    "BKCOJDIDEGN": ""
                }
            },
            {
                "$type": "IKIHDEMELGB",
                "enable": true,
                "EGJMGEHLDOL": {
                    "pose": [
                        4
                    ]
                },
                "NGIEOIGFFDH": {
                    "MONCHHKIDKL": 1.0,
                    "HOKGJAONGHG": 5.0,
                    "GJOBDMEBGLM": 2.5,
                    "KDLAOJIPGHP": 15.0,
                    "OEFFOIEOJNC": 5.0,
                    "HAHMEDHEBKE": 7.5,
                    "FCFLCFFJKLO": ""
                }
            }
        ]
    },
    "inputKeys": [
        {
            "keyID": 101,
            "inputKeyCode": 257,
            "abilityName": ""
        },
        {
            "keyID": 102,
            "inputKeyCode": 258,
            "abilityName": ""
        },
        {
            "keyID": 103,
            "inputKeyCode": 259,
            "abilityName": ""
        },
        {
            "keyID": 9000,
            "inputKeyCode": 260,
            "abilityName": ""
        },
        {
            "keyID": 9001,
            "inputKeyCode": 261,
            "abilityName": ""
        },
        {
            "keyID": 9002,
            "inputKeyCode": 262,
            "abilityName": ""
        },
        {
            "keyID": 2,
            "inputKeyCode": 263,
            "abilityName": ""
        },
        {
            "keyID": 3,
            "inputKeyCode": 264,
            "abilityName": ""
        },
        {
            "keyID": 4,
            "inputKeyCode": 265,
            "abilityName": ""
        },
        {
            "keyID": 100,
            "inputKeyCode": 266,
            "abilityName": ""
        },
        {
            "keyID": 10002,
            "inputKeyCode": 267,
            "abilityName": ""
        },
        {
            "keyID": 302,
            "inputKeyCode": 268,
            "abilityName": ""
        },
        {
            "keyID": 402,
            "inputKeyCode": 269,
            "abilityName": ""
        },
        {
            "keyID": 502,
            "inputKeyCode": 270,
            "abilityName": ""
        },
        {
            "keyID": 1004,
            "inputKeyCode": 271,
            "abilityName": ""
        }
    ],
    "move": {
        "$type": "JKDLANFKJIL",
        "BGKIHCPJBMO": {
            "excludeForces": [
                "RetreatAirType"
            ]
        },
        "COJFNGPJCCL": true,
        "ADKJOFPNHNO": "FourDirection",
        "NKJKJFLNPPN": 1.0,
        "LPAKBBIADNC": "RootNode"
    },
    "audio": {
        "LKJIHNLBIJL": "",
        "animAudio": {
            "onTransitionIn": [
                {
                    "currentStateName": "RangeAOEAttack_Loop",
                    "audioEvent": {
                        "text": "Play_Sfx_Monster_Necalevia_Big_01_RangeAOEAttack_Loop_LP"
                    },
                    "otherStateNames": [
                        "RangeAOEAttack_Loop"
                    ],
                    "usage": "Except"
                }
            ],
            "onTransitionOut": [
                {
                    "currentStateName": "RangeAOEAttack_Loop",
                    "audioEvent": {
                        "text": "Stop_Sfx_Monster_Necalevia_Big_01_RangeAOEAttack_Loop_LP"
                    },
                    "otherStateNames": [
                        "RangeAOEAttack_Loop"
                    ],
                    "usage": "Except"
                }
            ]
        },
        "disableEvent": {
            "text": ""
        },
        "destroyEvent": {
            "text": ""
        }
    }
}