{
    "common": {
        "effectAttachShape": {
            "$type": "CMIPFEGOJCH",
            "EJAEFCDBDFB": "EffectMesh"
        },
        "mass": 10000.0,
        "height": 1.600000023841858,
        "modelHeight": 1.2999999523162842,
        "affectedByWorld": true,
        "checkInSurface": true,
        "scale": 1.2000000476837158,
        "useGrassDisplacement": true,
        "hasAfterImage": true
    },
    "headControl": {
        "$type": "HLGPLMCNIFB",
        "useHeadControl": true,
        "BADCMJGBCHM": 45.0,
        "AIOGIMNHIGK": 30.0,
        "GDIAFJFLHCE": [
            "NormalIdle/Standby",
            "NormalMove/WalkForward",
            "NormalMove/WalkBack",
            "NormalMove/WalkRight",
            "NormalMove/WalkLeft",
            "NormalMove/Run"
        ]
    },
    "model": {
        "bornEffect": "Eff_Monster_Common_Born",
        "attachEffect": ""
    },
    "dither": {
        "showDitherDuration": 1.0
    },
    "combat": {
        "property": {
            "endureType": "Monster_Demiboss_Humanoid",
            "weight": 80.0
        },
        "beHit": {
            "hitBloodEffect": ""
        },
        "combatLock": {
            "lockShape": "CircleLockEnemy",
            "lockType": "Avatar&Monster_Lv4"
        },
        "die": {
            "hasAnimatorDie": true,
            "dieEndTime": 2.0,
            "dieForceDisappearTime": 2.0,
            "dieDisappearEffect": "Eff_Death_Avatar_Common",
            "dieShaderData": "AvatarDie",
            "useRagDoll": true,
            "ragDollDieEndTimeDelay": 0.5,
            "LDOHFFOEPPI": true,
            "BMOKGIFNILM": true,
            "PHCLLDNDFNG": true,
            "CHBAHMJGJBE": true,
            "OPPHENIKFJA": true,
            "CCNGAIMLPIJ": true
        },
        "animEvents": {
            "NormalAtk": {
                "attackPattern": {
                    "$type": "HBFCINNBDFD",
                    "triggerType": "TriggerNoRepeat",
                    "born": {
                        "$type": "KDEPFKAAHCG",
                        "offset": {
                            "HMHIOILIGBF": 0.0,
                            "DPPJGBOHAAL": 0.0,
                            "DDOAGBLBCEF": 2.0
                        }
                    },
                    "DFMMIGEMOHH": 3.5
                },
                "attackInfo": {
                    "attackTag": "",
                    "attenuationTag": "",
                    "attenuationGroup": "default",
                    "attackProperty": {
                        "PCFAAPMOCGJ": 0.6000000238418579,
                        "LCCBNOKMNFG": 0.0,
                        "bonusCritical": 100.0,
                        "strikeType": "Slash",
                        "enBreak": 100.0,
                        "attackType": "Melee",
                        "FKGFPFNOJMN": 0.0
                    },
                    "hitPattern": {
                        "onHitEffectName": "default",
                        "hitImpulseType": "LV4"
                    },
                    "forceCameraShake": true,
                    "cameraShake": {
                        "shakeType": "CustomVector",
                        "shakeRange": 0.03999999910593033,
                        "shakeTime": 0.09000000357627869,
                        "shakeDir": {
                            "x": 1.0,
                            "z": 1.0
                        }
                    }
                }
            },
            "DashingStrike": {
                "attackPattern": {
                    "$type": "GGBJACPDDCM",
                    "triggerType": "TriggerNoRepeat",
                    "GJKNLOPNAMC": true,
                    "born": {
                        "$type": "KDEPFKAAHCG",
                        "offset": {
                            "HMHIOILIGBF": 0.0,
                            "DPPJGBOHAAL": 0.800000011920929,
                            "DDOAGBLBCEF": -0.5
                        }
                    },
                    "size": {
                        "HMHIOILIGBF": 2.5,
                        "DPPJGBOHAAL": 1.600000023841858,
                        "DDOAGBLBCEF": 3.5999999046325684
                    }
                },
                "attackInfo": {
                    "attackTag": "",
                    "attenuationTag": "",
                    "attenuationGroup": "default",
                    "attackProperty": {
                        "PCFAAPMOCGJ": 0.75,
                        "LCCBNOKMNFG": 0.0,
                        "bonusCritical": 100.0,
                        "strikeType": "Slash",
                        "enBreak": 100.0,
                        "attackType": "Melee",
                        "FKGFPFNOJMN": 0.0
                    },
                    "hitPattern": {
                        "onHitEffectName": "default",
                        "hitImpulseType": "LV5",
                        "hitHaltTime": 0.11999999731779099,
                        "hitHaltTimeScale": 0.05000000074505806
                    },
                    "forceCameraShake": true,
                    "cameraShake": {
                        "shakeType": "CustomVector",
                        "shakeRange": 0.05000000074505806,
                        "shakeTime": 0.09000000357627869,
                        "shakeDir": {
                            "x": 1.0
                        }
                    }
                }
            },
            "DashingStrikeLast": {
                "attackPattern": {
                    "$type": "HBFCINNBDFD",
                    "triggerType": "TriggerNoRepeat",
                    "born": {
                        "$type": "KDEPFKAAHCG",
                        "offset": {
                            "HMHIOILIGBF": 0.0,
                            "DPPJGBOHAAL": 0.0,
                            "DDOAGBLBCEF": 0.0
                        }
                    },
                    "DFMMIGEMOHH": 2.200000047683716
                },
                "attackInfo": {
                    "attackTag": "",
                    "attenuationTag": "",
                    "attenuationGroup": "default",
                    "attackProperty": {
                        "PCFAAPMOCGJ": 0.75,
                        "LCCBNOKMNFG": 0.0,
                        "bonusCritical": 100.0,
                        "strikeType": "Slash",
                        "enBreak": 100.0,
                        "attackType": "Melee",
                        "FKGFPFNOJMN": 0.0
                    },
                    "hitPattern": {
                        "onHitEffectName": "default",
                        "hitImpulseType": "LV6",
                        "hitHaltTime": 0.11999999731779099,
                        "hitHaltTimeScale": 0.05000000074505806
                    },
                    "forceCameraShake": true,
                    "cameraShake": {
                        "shakeType": "CustomVector",
                        "shakeRange": 0.03999999910593033,
                        "shakeTime": 0.09000000357627869,
                        "shakeDir": {
                            "x": 1.0
                        }
                    }
                }
            },
            "BackStab": {
                "attackPattern": {
                    "$type": "GGBJACPDDCM",
                    "triggerType": "TriggerNoRepeat",
                    "GJKNLOPNAMC": true,
                    "born": {
                        "$type": "KDEPFKAAHCG",
                        "offset": {
                            "HMHIOILIGBF": 0.0,
                            "DPPJGBOHAAL": 1.25,
                            "DDOAGBLBCEF": 0.0
                        }
                    },
                    "size": {
                        "HMHIOILIGBF": 3.0,
                        "DPPJGBOHAAL": 2.5,
                        "DDOAGBLBCEF": 12.0
                    }
                },
                "attackInfo": {
                    "attackTag": "",
                    "attenuationTag": "",
                    "attenuationGroup": "default",
                    "attackProperty": {
                        "PCFAAPMOCGJ": 1.0,
                        "LCCBNOKMNFG": 0.0,
                        "bonusCritical": 100.0,
                        "strikeType": "Slash",
                        "enBreak": 100.0,
                        "attackType": "Melee",
                        "FKGFPFNOJMN": 0.0
                    },
                    "hitPattern": {
                        "onHitEffectName": "default",
                        "hitImpulseType": "LV5",
                        "hitHaltTime": 0.11999999731779099,
                        "hitHaltTimeScale": 0.05000000074505806
                    },
                    "forceCameraShake": true,
                    "cameraShake": {
                        "shakeType": "CustomVector",
                        "shakeRange": 0.05000000074505806,
                        "shakeTime": 0.09000000357627869,
                        "shakeDir": {
                            "x": 1.0
                        }
                    }
                }
            },
            "FlashStrike_Hit": {
                "attackPattern": {
                    "$type": "GGBJACPDDCM",
                    "triggerType": "TriggerNoRepeat",
                    "GJKNLOPNAMC": true,
                    "born": {
                        "$type": "KDEPFKAAHCG",
                        "offset": {
                            "HMHIOILIGBF": 0.0,
                            "DPPJGBOHAAL": 0.800000011920929,
                            "DDOAGBLBCEF": -0.5
                        }
                    },
                    "size": {
                        "HMHIOILIGBF": 2.5,
                        "DPPJGBOHAAL": 1.600000023841858,
                        "DDOAGBLBCEF": 3.5999999046325684
                    }
                },
                "attackInfo": {
                    "attackTag": "",
                    "attenuationTag": "",
                    "attenuationGroup": "default",
                    "attackProperty": {
                        "PCFAAPMOCGJ": 0.875,
                        "LCCBNOKMNFG": 0.0,
                        "bonusCritical": 100.0,
                        "strikeType": "Slash",
                        "enBreak": 100.0,
                        "attackType": "Melee",
                        "FKGFPFNOJMN": 0.0
                    },
                    "hitPattern": {
                        "onHitEffectName": "default",
                        "hitImpulseType": "LV4"
                    },
                    "forceCameraShake": true,
                    "cameraShake": {
                        "shakeType": "CustomVector",
                        "shakeRange": 0.05000000074505806,
                        "shakeTime": 0.09000000357627869,
                        "shakeDir": {
                            "x": 1.0
                        }
                    }
                }
            },
            "FlashStrike_LastHit": {
                "attackPattern": {
                    "$type": "HBFCINNBDFD",
                    "triggerType": "TriggerNoRepeat",
                    "born": {
                        "$type": "KDEPFKAAHCG",
                        "offset": {
                            "HMHIOILIGBF": 0.0,
                            "DPPJGBOHAAL": 0.0,
                            "DDOAGBLBCEF": 0.5
                        }
                    },
                    "DFMMIGEMOHH": 4.800000190734863
                },
                "attackInfo": {
                    "attackTag": "",
                    "attenuationTag": "",
                    "attenuationGroup": "default",
                    "attackProperty": {
                        "PCFAAPMOCGJ": 0.8500000238418579,
                        "LCCBNOKMNFG": 0.0,
                        "elementType": "Fire",
                        "bonusCritical": 50.0,
                        "strikeType": "Slash",
                        "enBreak": 100.0,
                        "attackType": "Melee",
                        "FKGFPFNOJMN": 0.0
                    },
                    "hitPattern": {
                        "onHitEffectName": "default",
                        "hitImpulseType": "LV5"
                    },
                    "forceCameraShake": true,
                    "cameraShake": {
                        "shakeType": "CustomVector",
                        "shakeRange": 0.11999999731779099,
                        "shakeTime": 0.15000000596046448,
                        "shakeDistance": 25.0,
                        "shakeDir": {
                            "y": -1.0
                        }
                    }
                }
            }
        }
    },
    "equipController": {
        "sheathPoint": "",
        "attachPoints": {
            "equip01": "WeaponR",
            "equip02": "WeaponL"
        }
    },
    "abilities": [
        {
            "abilityID": "Monster_Fatuus_Fire_01_CreateFollowBullet",
            "abilityName": "Monster_Fatuus_Fire_01_CreateFollowBullet",
            "abilityOverride": ""
        },
        {
            "abilityID": "Monster_Fatuus_Fire_01_RemoveFollowBullet",
            "abilityName": "Monster_Fatuus_Fire_01_RemoveFollowBullet",
            "abilityOverride": ""
        },
        {
            "abilityID": "Monster_Fatuus_Fire_01_Stab",
            "abilityName": "Monster_Fatuus_Fire_01_Stab",
            "abilityOverride": ""
        },
        {
            "abilityID": "Monster_Fatuus_Fire_01_DashingStrike",
            "abilityName": "Monster_Fatuus_Fire_01_DashingStrike",
            "abilityOverride": ""
        },
        {
            "abilityID": "Monster_Fatuus_Fire_01_Mirror_Underfoot",
            "abilityName": "Monster_Fatuus_Fire_01_Mirror_Underfoot",
            "abilityOverride": ""
        },
        {
            "abilityID": "Monster_Fatuus_Fire_01_FlashStrike_FindNext",
            "abilityName": "Monster_Fatuus_Fire_01_FlashStrike_FindNext",
            "abilityOverride": ""
        },
        {
            "abilityID": "Monster_Fatuus_Fire_01_FlashStrike_Manager",
            "abilityName": "Monster_Fatuus_Fire_01_FlashStrike_Manager",
            "abilityOverride": ""
        },
        {
            "abilityID": "Monster_Fatuus_Fire_01_FlashStrike_LastBlink",
            "abilityName": "Monster_Fatuus_Fire_01_FlashStrike_LastBlink",
            "abilityOverride": ""
        },
        {
            "abilityID": "Monster_Fatuus_Fire_01_FlashStrike_LastAS",
            "abilityName": "Monster_Fatuus_Fire_01_FlashStrike_LastAS",
            "abilityOverride": ""
        },
        {
            "abilityID": "Monster_Fatuus_Fire_01_FlashStrike_FadeOut",
            "abilityName": "Monster_Fatuus_Fire_01_FlashStrike_FadeOut",
            "abilityOverride": ""
        },
        {
            "abilityID": "Monster_Fatuus_Fire_01_FlashStrike_FadeIn",
            "abilityName": "Monster_Fatuus_Fire_01_FlashStrike_FadeIn",
            "abilityOverride": ""
        },
        {
            "abilityID": "Monster_Fatuus_Fire_01_IntoShadowBS",
            "abilityName": "Monster_Fatuus_Fire_01_IntoShadowBS",
            "abilityOverride": ""
        },
        {
            "abilityID": "Monster_Fatuus_Fire_01_SurroundingHitEvent",
            "abilityName": "Monster_Fatuus_Fire_01_SurroundingHitEvent",
            "abilityOverride": ""
        },
        {
            "abilityID": "Monster_Fatuus_Fire_01_IntoShadow",
            "abilityName": "Monster_Fatuus_Fire_01_IntoShadow",
            "abilityOverride": ""
        },
        {
            "abilityID": "Monster_Fatuus_Fire_01_ShadowState",
            "abilityName": "Monster_Fatuus_Fire_01_ShadowState",
            "abilityOverride": ""
        },
        {
            "abilityID": "Monster_Fatuus_Fire_01_BreakStealth",
            "abilityName": "Monster_Fatuus_Fire_01_BreakStealth",
            "abilityOverride": ""
        },
        {
            "abilityID": "Monster_Fatuus_Fire_01_StealthState_CastSkill",
            "abilityName": "Monster_Fatuus_Fire_01_StealthState_CastSkill",
            "abilityOverride": ""
        },
        {
            "abilityID": "Monster_Fatuus_Fire_01_CastSkill_StateCheck",
            "abilityName": "Monster_Fatuus_Fire_01_CastSkill_StateCheck",
            "abilityOverride": ""
        },
        {
            "abilityID": "Monster_Fatuus_Fire_01_FootPrintRight",
            "abilityName": "Monster_Fatuus_Fire_01_FootPrintRight",
            "abilityOverride": ""
        },
        {
            "abilityID": "Monster_Fatuus_Fire_01_FootPrintLeft",
            "abilityName": "Monster_Fatuus_Fire_01_FootPrintLeft",
            "abilityOverride": ""
        },
        {
            "abilityID": "Monster_Fatuus_Fire_01_AnimationSteer",
            "abilityName": "Monster_Fatuus_Fire_01_AnimationSteer",
            "abilityOverride": ""
        }
    ],
    "stateLayers": {
        "defaultLayer": {
            "$type": "KFHJINNNDPN",
            "BOPIBFKFKCA": "",
            "stateIDs": {
                "Born": {
                    "$type": "MEECNDLIOBI",
                    "HKPCLGHBKFD": {
                        "Born": [
                            "Audio_Fatuus_Fire_SetState_OutOfShadow"
                        ]
                    },
                    "BAABNFCMKIO": true,
                    "ADPGACLPFHN": [
                        "DoSkill"
                    ]
                },
                "NormalIdle": {
                    "$type": "MEECNDLIOBI",
                    "HKPCLGHBKFD": {
                        "Standby": []
                    },
                    "KNOHBHKACHA": true,
                    "BAABNFCMKIO": true,
                    "ADPGACLPFHN": [
                        "DoSkill"
                    ]
                },
                "NormalMove": {
                    "$type": "MEECNDLIOBI",
                    "HKPCLGHBKFD": {
                        "WalkForward": [
                            "Monster_Fatuus_Fire_01_WalkForward",
                            "Audio_Fatuus_Fire_Walk"
                        ],
                        "WalkBack": [
                            "Monster_Fatuus_Fire_01_WalkBack",
                            "Audio_Fatuus_Fire_Walk"
                        ],
                        "WalkRight": [
                            "Monster_Fatuus_Fire_01_WalkRight",
                            "Audio_Fatuus_Fire_Turn"
                        ],
                        "WalkLeft": [
                            "Monster_Fatuus_Fire_01_WalkLeft",
                            "Audio_Fatuus_Fire_Turn"
                        ],
                        "Run": [
                            "Monster_Fatuus_Fire_01_Run",
                            "Audio_Fatuus_Fire_Run"
                        ]
                    },
                    "KNOHBHKACHA": true,
                    "BAABNFCMKIO": true,
                    "ADPGACLPFHN": [
                        "DoSkill"
                    ],
                    "NPMGEMAFACP": true
                },
                "Turn": {
                    "$type": "MEECNDLIOBI",
                    "HKPCLGHBKFD": {
                        "TurnLeft": [
                            "Monster_Fatuus_Fire_01_WalkLeft",
                            "Audio_Fatuus_Fire_Turn"
                        ],
                        "TurnRight": [
                            "Monster_Fatuus_Fire_01_WalkRight",
                            "Audio_Fatuus_Fire_Turn"
                        ]
                    },
                    "KNOHBHKACHA": true,
                    "BAABNFCMKIO": true,
                    "ADPGACLPFHN": [
                        "DoSkill"
                    ],
                    "NPMGEMAFACP": true,
                    "EOALJPNBEOI": true
                },
                "BeHit": {
                    "$type": "MEECNDLIOBI",
                    "HKPCLGHBKFD": {
                        "Hit_L": [
                            "Audio_Fatuus_Fire_Behit_L"
                        ],
                        "Hit_H": [
                            "Monster_Fatuus_Fire_01_BreakStealth",
                            "Audio_Fatuus_Fire_Behit_H"
                        ]
                    },
                    "PJFELLIJONH": [
                        "BeHit"
                    ],
                    "ADPGACLPFHN": [
                        "DoSkill"
                    ]
                },
                "BeHitThrow": {
                    "$type": "MEECNDLIOBI",
                    "HKPCLGHBKFD": {
                        "HitThrow": [
                            "Monster_Fatuus_Fire_01_BreakStealth"
                        ],
                        "HitThrowDrop": [],
                        "HitThrowToGround": [
                            "Audio_Fatuus_Fire_HitThrowToGround"
                        ]
                    },
                    "PJFELLIJONH": [
                        "BeHit",
                        "HitAir2HitDrop"
                    ],
                    "ADPGACLPFHN": [
                        "DoSkill"
                    ]
                },
                "Struggle": {
                    "$type": "MEECNDLIOBI",
                    "HKPCLGHBKFD": {
                        "Struggle": []
                    },
                    "PJFELLIJONH": [
                        "BeHit",
                        "HitAir2HitDrop"
                    ],
                    "ADPGACLPFHN": [
                        "DoSkill"
                    ]
                },
                "Die": {
                    "$type": "MEECNDLIOBI",
                    "HKPCLGHBKFD": {
                        "SwimDie": [
                            "Monster_Fatuus_Fire_01_Die",
                            "Audio_Fatuus_Fire_Die"
                        ],
                        "SwimDie_AS": [],
                        "Die_01": [
                            "Monster_Fatuus_Fire_01_Die",
                            "Audio_Fatuus_Fire_Die"
                        ],
                        "Die_02": [
                            "Monster_Fatuus_Fire_01_Die",
                            "Audio_Fatuus_Fire_Die"
                        ]
                    }
                },
                "Die_RagDoll": {
                    "$type": "MEECNDLIOBI",
                    "HKPCLGHBKFD": {
                        "AirDie": [
                            "Monster_Fatuus_Fire_01_Die"
                        ]
                    },
                    "CKHCPGMBKGA": true
                },
                "Alert": {
                    "$type": "MEECNDLIOBI",
                    "HKPCLGHBKFD": {
                        "Alert": [
                            "Audio_Fatuus_Fire_Alert"
                        ]
                    },
                    "ADPGACLPFHN": [
                        "BeHit",
                        "DoSkill"
                    ]
                },
                "NormalAttack": {
                    "$type": "MEECNDLIOBI",
                    "HKPCLGHBKFD": {
                        "NormalAtk": [
                            "Monster_Fatuus_Fire_01_NormalAtk",
                            "Audio_Fatuus_Fire_NormalAtk"
                        ]
                    },
                    "PAKNCLFMOAC": 0.800000011920929,
                    "IMJBMEIKPJN": 20.0,
                    "ADPGACLPFHN": [
                        "BeHit",
                        "DoSkill"
                    ]
                },
                "StabAttack": {
                    "$type": "MEECNDLIOBI",
                    "HKPCLGHBKFD": {
                        "StabAttack": [
                            "Monster_Fatuus_Fire_01_Stab",
                            "Audio_Fatuus_Fire_StabAttack"
                        ]
                    },
                    "BGJDNIJICNM": true,
                    "PAKNCLFMOAC": 0.6000000238418579,
                    "IMJBMEIKPJN": 20.0,
                    "ADPGACLPFHN": [
                        "BeHit",
                        "DoSkill"
                    ],
                    "NJGOGOLJGOE": true
                },
                "DashingStrike": {
                    "$type": "MEECNDLIOBI",
                    "HKPCLGHBKFD": {
                        "DashingStrike": [
                            "Monster_Fatuus_Fire_01_DashingStrike",
                            "Audio_Fatuus_Fire_DashingStrike"
                        ]
                    },
                    "BGJDNIJICNM": true,
                    "PAKNCLFMOAC": 0.6000000238418579,
                    "IMJBMEIKPJN": 20.0,
                    "ADPGACLPFHN": [
                        "BeHit",
                        "DoSkill"
                    ],
                    "NJGOGOLJGOE": true
                },
                "IntoShadow": {
                    "$type": "MEECNDLIOBI",
                    "HKPCLGHBKFD": {
                        "IntoShadowNearBS": [],
                        "IntoShadowForward": [
                            "Audio_Fatuus_Fire_IntoShadowForward"
                        ]
                    },
                    "PAKNCLFMOAC": 0.0,
                    "IMJBMEIKPJN": 20.0,
                    "PJFELLIJONH": [
                        "BeHit"
                    ],
                    "ADPGACLPFHN": [
                        "BeHit",
                        "DoSkill"
                    ],
                    "NPMGEMAFACP": true,
                    "DGECHOEBEBO": true
                },
                "IntoShadowSteer1": {
                    "$type": "MEECNDLIOBI",
                    "HKPCLGHBKFD": {
                        "IntoShadow1": [
                            "Monster_Fatuus_Fire_01_IntoShadow1",
                            "Audio_Fatuus_Fire_IntoShadow1"
                        ]
                    },
                    "PAKNCLFMOAC": 0.0,
                    "IMJBMEIKPJN": 20.0,
                    "PJFELLIJONH": [
                        "BeHit"
                    ],
                    "ADPGACLPFHN": [
                        "BeHit",
                        "DoSkill"
                    ]
                },
                "IntoShadowSteer2": {
                    "$type": "MEECNDLIOBI",
                    "HKPCLGHBKFD": {
                        "IntoShadow2": [
                            "Monster_Fatuus_Fire_01_IntoShadow2",
                            "Audio_Fatuus_Fire_IntoShadow2"
                        ]
                    },
                    "PAKNCLFMOAC": 0.0,
                    "IMJBMEIKPJN": 20.0,
                    "PJFELLIJONH": [
                        "BeHit"
                    ],
                    "ADPGACLPFHN": [
                        "BeHit",
                        "DoSkill"
                    ]
                },
                "BackStab": {
                    "$type": "MEECNDLIOBI",
                    "HKPCLGHBKFD": {
                        "BackStab": [
                            "Monster_Fatuus_Fire_01_BackStab",
                            "Audio_Fatuus_Fire_BackStab"
                        ]
                    },
                    "BGJDNIJICNM": true,
                    "PAKNCLFMOAC": 0.800000011920929,
                    "IMJBMEIKPJN": 20.0,
                    "ADPGACLPFHN": [
                        "BeHit",
                        "DoSkill"
                    ],
                    "NJGOGOLJGOE": true
                },
                "FlashStrike": {
                    "$type": "MEECNDLIOBI",
                    "HKPCLGHBKFD": {
                        "FlashStrike_BS": [
                            "Monster_Fatuus_Fire_01_FlashStrike_BS",
                            "Audio_Fatuus_Fire_FlashStrike_BS"
                        ],
                        "FlashStrike": [
                            "Monster_Fatuus_Fire_01_FlashStrike",
                            "Audio_Fatuus_Fire_FlashStrike"
                        ]
                    },
                    "BGJDNIJICNM": true,
                    "PAKNCLFMOAC": 0.0,
                    "IMJBMEIKPJN": 20.0,
                    "ADPGACLPFHN": [
                        "BeHit",
                        "DoSkill"
                    ],
                    "NJGOGOLJGOE": true
                },
                "FlashStrike_Last": {
                    "$type": "MEECNDLIOBI",
                    "HKPCLGHBKFD": {
                        "FlashStrike_Last": [
                            "Monster_Fatuus_Fire_01_FlashStrike_Last",
                            "Audio_Fatuus_Fire_FlashStrike_Last"
                        ],
                        "Test_FlashStrike": [
                            "Monster_Fatuus_Fire_01_FlashStrike_Test"
                        ]
                    },
                    "BGJDNIJICNM": true,
                    "PAKNCLFMOAC": 0.0,
                    "IMJBMEIKPJN": 20.0,
                    "ADPGACLPFHN": [
                        "BeHit",
                        "DoSkill"
                    ]
                }
            }
        }
    },
    "billboard": {
        "$type": "HFEGKLAIGGI",
        "IIKEHINGEME": "BillboardAttach",
        "offset": {
            "x": -0.07999999821186066,
            "y": 0.30000001192092896
        },
        "HECLHMINJII": 0.20000000298023224,
        "DMHOOGGGDKG": true,
        "size": "Big"
    },
    "initialPoses": {
        "Default": {}
    },
    "aibeta": {
        "enable": true,
        "moveSetting": {
            "navMeshAgentName": "Undead01",
            "almostReachedDistanceRun": 1.5
        },
        "sensing": {
            "settings": {
                "DefaultSetting": {
                    "viewRange": 40.0,
                    "feelRange": 20.0
                },
                "NeverCombat": {
                    "enableVision": false,
                    "hearAttractionRange": 0.0,
                    "feelRange": 0.0
                }
            },
            "templates": {
                "DefaultTemplate": {
                    "DefaultPoses": "DefaultSetting"
                },
                "NeverCombatTemplate": {
                    "DefaultPoses": "NeverCombat"
                }
            }
        },
        "neurons": {
            "DefaultSetting": [
                "HIT"
            ],
            "NeverCombat": []
        },
        "threat": {
            "clearThreatByLostPath": true,
            "viewAttenuation": [
                {
                    "x": 10.0,
                    "y": 2.0
                },
                {
                    "x": 15.0,
                    "y": 0.800000011920929
                },
                {
                    "x": 20.0,
                    "y": 0.5
                },
                {
                    "x": 25.0,
                    "y": 0.30000001192092896
                },
                {
                    "x": 30.0,
                    "y": 0.20000000298023224
                }
            ],
            "resistTauntLevel": "Monster_TauntLevel_3"
        },
        "defendArea": {
            "defendRange": 60.0
        },
        "profiling": {},
        "skills": {
            "100": {
                "name": "OnAlert",
                "skillType": "OnAlert",
                "faceTarget": true,
                "publicCDGroup": "",
                "triggerGCD": false,
                "CLEPNIDJOLN": "",
                "stateIDs": [
                    "Alert"
                ],
                "skillQueryingTime": 3.0,
                "flagTargetReachable": "10",
                "flagSelfOnTemplateCollider": "01",
                "flagSelfInZone": "10",
                "flagTargetInZone": "11"
            },
            "210": {
                "name": "NormalAttack",
                "priority": 3,
                "castCondition": {
                    "pose": [
                        202
                    ],
                    "maxTargetAngleXZ": 90.0,
                    "pickRangeMax": 4.0
                },
                "cd": 5.0,
                "initialCD": 5.0,
                "publicCDGroup": "",
                "CLEPNIDJOLN": "",
                "stateIDs": [
                    "NormalAttack"
                ],
                "flagTargetReachable": "10",
                "flagSelfOnTemplateCollider": "01",
                "flagSelfInZone": "10",
                "flagTargetInZone": "11"
            },
            "220": {
                "name": "StabAttack",
                "priority": 4,
                "castCondition": {
                    "pose": [
                        212
                    ],
                    "pickRangeMax": 5.0
                },
                "cd": 6.0,
                "initialCD": 3.0,
                "publicCDGroup": "",
                "CLEPNIDJOLN": "",
                "stateIDs": [
                    "StabAttack"
                ],
                "flagTargetReachable": "10",
                "flagSelfOnTemplateCollider": "01",
                "flagSelfInZone": "10",
                "flagTargetInZone": "11"
            },
            "231": {
                "name": "DashingStrike",
                "priority": 4,
                "castCondition": {
                    "pose": [
                        212
                    ],
                    "pickRangeMax": 5.0
                },
                "cd": 6.0,
                "initialCD": 6.0,
                "publicCDGroup": "",
                "CLEPNIDJOLN": "",
                "stateIDs": [
                    "DashingStrike"
                ],
                "flagTargetReachable": "10",
                "flagSelfOnTemplateCollider": "01",
                "flagSelfInZone": "10",
                "flagTargetInZone": "11"
            },
            "232": {
                "name": "DashingStrike",
                "priority": 4,
                "castCondition": {
                    "pose": [
                        212
                    ],
                    "pickRangeMax": 5.0
                },
                "cd": 3.0,
                "initialCD": 3.0,
                "publicCDGroup": "",
                "ignoreGCD": true,
                "CLEPNIDJOLN": "",
                "stateIDs": [
                    "DashingStrike"
                ],
                "flagTargetReachable": "01",
                "flagSelfOnTemplateCollider": "01",
                "flagSelfInZone": "10",
                "flagTargetInZone": "11"
            },
            "240": {
                "name": "FlashStrike",
                "priority": 1,
                "castCondition": {
                    "pose": [
                        214
                    ],
                    "pickRangeMax": 25.0
                },
                "cd": 15.0,
                "initialCD": 15.0,
                "publicCDGroup": "",
                "CLEPNIDJOLN": "",
                "stateIDs": [
                    "FlashStrike",
                    "FlashStrike_Last"
                ],
                "flagTargetReachable": "10",
                "flagSelfOnTemplateCollider": "01",
                "flagSelfInZone": "10",
                "flagTargetInZone": "11"
            },
            "242": {
                "name": "FlashStrike",
                "priority": 1,
                "castCondition": {
                    "pose": [
                        214
                    ],
                    "pickRangeMax": 25.0
                },
                "cd": 999999.0,
                "initialCD": 99999.0,
                "publicCDGroup": "",
                "CLEPNIDJOLN": "",
                "stateIDs": [
                    "FlashStrike",
                    "FlashStrike_Last"
                ],
                "flagTargetReachable": "10",
                "flagSelfOnTemplateCollider": "01",
                "flagSelfInZone": "10",
                "flagTargetInZone": "11"
            },
            "243": {
                "name": "FlashStrike",
                "priority": 1,
                "castCondition": {
                    "pose": [
                        214
                    ],
                    "pickRangeMax": 15.0
                },
                "cd": 999999.0,
                "initialCD": 99999.0,
                "publicCDGroup": "",
                "CLEPNIDJOLN": "",
                "stateIDs": [
                    "FlashStrike",
                    "FlashStrike_Last"
                ],
                "flagTargetReachable": "10",
                "flagSelfOnTemplateCollider": "01",
                "flagSelfInZone": "10",
                "flagTargetInZone": "11"
            },
            "250": {
                "name": "IntoShadow",
                "priority": 2,
                "castCondition": {
                    "pose": [
                        202
                    ],
                    "pickRangeMax": 50.0
                },
                "cd": 30.0,
                "initialCD": 30.0,
                "publicCDGroup": "",
                "CLEPNIDJOLN": "",
                "stateIDs": [
                    "IntoShadow",
                    "IntoShadowSteer1",
                    "IntoShadowSteer2"
                ],
                "flagTargetReachable": "10",
                "flagSelfOnTemplateCollider": "01",
                "flagSelfInZone": "10",
                "flagTargetInZone": "11"
            },
            "252": {
                "name": "IntoShadow",
                "priority": 2,
                "castCondition": {
                    "pose": [
                        201
                    ],
                    "pickRangeMax": 50.0
                },
                "cd": 9999.0,
                "publicCDGroup": "",
                "KFIGEPOKGBN": false,
                "CLEPNIDJOLN": "",
                "stateIDs": [
                    "IntoShadow",
                    "IntoShadowSteer1",
                    "IntoShadowSteer2"
                ],
                "flagTargetReachable": "10",
                "flagSelfOnTemplateCollider": "01",
                "flagSelfInZone": "10",
                "flagTargetInZone": "11"
            },
            "261": {
                "name": "BackStab",
                "priority": 3,
                "castCondition": {
                    "pose": [
                        202
                    ],
                    "pickRangeMax": 8.0
                },
                "cd": 10.0,
                "initialCD": 10.0,
                "publicCDGroup": "",
                "CLEPNIDJOLN": "",
                "stateIDs": [
                    "BackStab"
                ],
                "flagTargetReachable": "10",
                "flagSelfOnTemplateCollider": "01",
                "flagSelfInZone": "10",
                "flagTargetInZone": "11"
            },
            "262": {
                "name": "BackStab",
                "priority": 3,
                "castCondition": {
                    "pose": [
                        201,
                        202
                    ],
                    "pickRangeMax": 8.0
                },
                "cd": 3.0,
                "initialCD": 3.0,
                "publicCDGroup": "",
                "ignoreGCD": true,
                "CLEPNIDJOLN": "",
                "stateIDs": [
                    "BackStab"
                ],
                "flagTargetReachable": "01",
                "flagSelfOnTemplateCollider": "01",
                "flagSelfInZone": "10",
                "flagTargetInZone": "11"
            }
        },
        "skillGCD": 1.5,
        "combatFixedMoveTactic": [
            {
                "$type": "KIMPOLMEFNK",
                "enable": true,
                "EGJMGEHLDOL": {
                    "pose": [
                        201,
                        202
                    ]
                },
                "NGIEOIGFFDH": {
                    "rangeMin": 2.5,
                    "rangeMax": 4.5,
                    "ODLFCBFIAEG": {
                        "ACLMEMJMCHO": 0.0,
                        "MKGIHLDDOPO": 0.0,
                        "AIMKHLAPJGH": 0.0,
                        "LJGPLFGCHJM": 2.0,
                        "ODFJMMCNEHI": 2.0
                    },
                    "EOBOHLNDGNC": "1111",
                    "JFAHEKLBENF": "1111",
                    "FCFLCFFJKLO": ""
                }
            },
            {
                "$type": "HJAAEJGAIKI",
                "enable": true,
                "EGJMGEHLDOL": {
                    "pose": [
                        211,
                        212
                    ]
                },
                "NGIEOIGFFDH": {
                    "MONCHHKIDKL": 5.0,
                    "MHAAHHOKBPA": 3.5,
                    "MGPKJELEDFK": 3.5,
                    "MHGOOAOGENO": 3.0
                }
            },
            {
                "$type": "HLPBLIEBJLM",
                "enable": true,
                "EGJMGEHLDOL": {
                    "pose": [
                        201,
                        202,
                        213,
                        214
                    ]
                },
                "NGIEOIGFFDH": {
                    "GPKNKJPPCOM": 12.0,
                    "NDCHJGOOLCF": 99.0,
                    "FDNLEPNLLBP": 4.0,
                    "DANCMNIMNAM": 0.0,
                    "FCFLCFFJKLO": ""
                }
            },
            {
                "$type": "GJGILIGEJMO",
                "enable": true,
                "NGIEOIGFFDH": {
                    "FCFLCFFJKLO": "",
                    "BKCOJDIDEGN": ""
                }
            },
            {
                "$type": "IKIHDEMELGB",
                "enable": true,
                "EGJMGEHLDOL": {
                    "pose": [
                        101
                    ]
                },
                "NGIEOIGFFDH": {
                    "MONCHHKIDKL": 2.0,
                    "HOKGJAONGHG": 3.0,
                    "GJOBDMEBGLM": 1.5,
                    "KDLAOJIPGHP": 15.0,
                    "OEFFOIEOJNC": 3.75,
                    "HAHMEDHEBKE": 7.5,
                    "FCFLCFFJKLO": ""
                }
            }
        ]
    },
    "inputKeys": [
        {
            "keyID": 210,
            "inputKeyCode": 257,
            "abilityName": ""
        },
        {
            "keyID": 220,
            "inputKeyCode": 258,
            "abilityName": ""
        },
        {
            "keyID": 231,
            "inputKeyCode": 259,
            "abilityName": ""
        },
        {
            "keyID": 240,
            "inputKeyCode": 260,
            "abilityName": ""
        },
        {
            "keyID": 243,
            "inputKeyCode": 261,
            "abilityName": ""
        },
        {
            "keyID": 250,
            "inputKeyCode": 262,
            "abilityName": ""
        },
        {
            "keyID": 261,
            "inputKeyCode": 263,
            "abilityName": ""
        }
    ],
    "move": {
        "$type": "JKDLANFKJIL",
        "ADKJOFPNHNO": "ForwardBackward",
        "LDHGAEIKIEE": "StrongHumanoidType",
        "LPAKBBIADNC": "RootNode"
    },
    "audio": {
        "LKJIHNLBIJL": "",
        "animAudio": {
            "onTransitionIn": [
                {
                    "currentStateName": "Run",
                    "audioEvent": {
                        "text": "Play_sfx_monster_fatuus_fire_run_intoShadow"
                    }
                },
                {
                    "currentStateName": "Die",
                    "audioEvent": {
                        "text": "Stop_sfx_monster_fatuus_fire_run_intoShadow"
                    }
                }
            ],
            "onTransitionOut": [
                {
                    "currentStateName": "Alert",
                    "audioEvent": {
                        "text": "Stop_sfx_monster_fatuus_fire_alert"
                    }
                },
                {
                    "currentStateName": "IntoShadow1",
                    "audioEvent": {
                        "text": "Stop_sfx_monster_fatuus_fire_intoShadow"
                    },
                    "otherStateNames": [
                        "IntoShadow2"
                    ],
                    "usage": "Except"
                },
                {
                    "currentStateName": "IntoShadowForward",
                    "audioEvent": {
                        "text": "Stop_sfx_monster_fatuus_fire_intoShadow_BS_body"
                    },
                    "otherStateNames": [
                        "IntoShadow2"
                    ],
                    "usage": "Except"
                },
                {
                    "currentStateName": "IntoShadow2",
                    "audioEvent": {
                        "text": "Stop_sfx_monster_fatuus_fire_intoShadow"
                    },
                    "otherStateNames": [
                        "IntoShadow2"
                    ],
                    "usage": "Except"
                },
                {
                    "currentStateName": "DashingStrike",
                    "audioEvent": {
                        "text": "Stop_sfx_monster_fatuus_fire_dashingStrike_outOfShadow"
                    }
                },
                {
                    "currentStateName": "DashingStrike",
                    "audioEvent": {
                        "text": ""
                    }
                },
                {
                    "currentStateName": "StabAttack",
                    "audioEvent": {
                        "text": "Stop_sfx_monster_fatuus_fire_stab_outOfShadow"
                    }
                },
                {
                    "currentStateName": "StabAttack",
                    "audioEvent": {
                        "text": "Play_sfx_monster_fatuus_fire_dashingStrike_intoShadow"
                    }
                },
                {
                    "currentStateName": "NormalAtk",
                    "audioEvent": {
                        "text": "Stop_sfx_monster_fatuus_fire_normalAtk"
                    }
                },
                {
                    "currentStateName": "BackStab",
                    "audioEvent": {
                        "text": "Stop_sfx_monster_fatuus_fire_backStab"
                    }
                },
                {
                    "currentStateName": "FlashStrike_BS",
                    "audioEvent": {
                        "text": "Stop_sfx_monster_fatuus_fire_flashStrike_BS"
                    }
                },
                {
                    "currentStateName": "FlashStrike",
                    "audioEvent": {
                        "text": "Stop_sfx_monster_fatuus_fire_flashStrike"
                    }
                },
                {
                    "currentStateName": "FlashStrike_Last",
                    "audioEvent": {
                        "text": "Stop_sfx_monster_fatuus_fire_flashStrike_last"
                    }
                },
                {
                    "currentStateName": "Run",
                    "audioEvent": {
                        "text": "Pause_sfx_monster_fatuus_fire_run_intoShadow"
                    }
                }
            ]
        }
    }
}