{
    "common": {
        "effectAttachShape": {
            "$type": "CMIPFEGOJCH",
            "EJAEFCDBDFB": "EffectMesh"
        },
        "mass": 20.0,
        "height": 0.800000011920929,
        "modelHeight": 0.4000000059604645,
        "affectedByWorld": true,
        "checkInSurface": true,
        "scale": 2.0,
        "useGrassDisplacement": true
    },
    "model": {
        "bornEffect": "",
        "attachEffect": "",
        "canBakeMesh": false
    },
    "combat": {
        "property": {
            "endureType": "Monster_Slime",
            "weight": 60.0
        },
        "beHit": {
            "hitBloodEffect": ""
        },
        "combatLock": {
            "lockShape": "CircleLockEnemy",
            "lockType": "Avatar&Monster_Lv4"
        },
        "die": {
            "dieEndTime": 2.0,
            "dieForceDisappearTime": 8.0,
            "dieDisappearEffect": "",
            "LDOHFFOEPPI": true,
            "BMOKGIFNILM": true,
            "PHCLLDNDFNG": true,
            "CHBAHMJGJBE": true,
            "OPPHENIKFJA": true,
            "CCNGAIMLPIJ": true
        },
        "animEvents": {
            "NormalAtk": {
                "attackPattern": {
                    "$type": "HBFCINNBDFD",
                    "triggerType": "TriggerNoRepeat",
                    "born": {
                        "$type": "KDEPFKAAHCG",
                        "offset": {
                            "HMHIOILIGBF": 0.0,
                            "DPPJGBOHAAL": 0.5,
                            "DDOAGBLBCEF": 0.5
                        }
                    },
                    "NPLOANBGDOK": 150.0,
                    "DFMMIGEMOHH": 0.75
                },
                "attackInfo": {
                    "attackTag": "",
                    "attenuationTag": "",
                    "attenuationGroup": "default",
                    "attackProperty": {
                        "PCFAAPMOCGJ": 1.0,
                        "LCCBNOKMNFG": 0.0,
                        "elementType": "Electric",
                        "bonusCritical": 50.0,
                        "strikeType": "Blunt",
                        "enBreak": 60.0,
                        "attackType": "Melee",
                        "FKGFPFNOJMN": 0.0
                    },
                    "hitPattern": {
                        "onHitEffectName": "default",
                        "hitImpulseType": "LV2"
                    }
                }
            }
        }
    },
    "equipController": {
        "sheathPoint": "",
        "attachPoints": {
            "equip01": "WeaponR",
            "equip02": "WeaponL"
        }
    },
    "abilities": [
        {
            "abilityID": "ResistShock",
            "abilityName": "Slime_Electric_ResistShock",
            "abilityOverride": ""
        },
        {
            "abilityID": "ElementState",
            "abilityName": "Slime_Electric_02_ElementState",
            "abilityOverride": ""
        },
        {
            "abilityID": "AnimationSteer",
            "abilityName": "Slime_Electric_AnimationSteer",
            "abilityOverride": ""
        },
        {
            "abilityID": "TestTool_Discharge",
            "abilityName": "Slime_Electric_TestTool_Discharge",
            "abilityOverride": "",
            "AIMADLAKBAH": true
        },
        {
            "abilityID": "Monster_Slime_SpecialsState",
            "abilityName": "Monster_Slime_SpecialsState",
            "abilityOverride": "",
            "AIMADLAKBAH": true
        },
        {
            "abilityID": "Monster_Slime_Alert",
            "abilityName": "Monster_Slime_Alert",
            "abilityOverride": "",
            "AIMADLAKBAH": true
        },
        {
            "abilityID": "ElecMuteHurt",
            "abilityName": "Monster_Common_ElecMuteHurt",
            "abilityOverride": ""
        }
    ],
    "stateLayers": {
        "defaultLayer": {
            "$type": "KFHJINNNDPN",
            "BOPIBFKFKCA": "",
            "stateIDs": {
                "Born": {
                    "$type": "MEECNDLIOBI",
                    "HKPCLGHBKFD": {
                        "Born": [
                            "Monster_Slime_Born_02",
                            "Audio_Slime_02_Born_H"
                        ]
                    },
                    "BAABNFCMKIO": true,
                    "ADPGACLPFHN": [
                        "DoSkill"
                    ]
                },
                "NormalIdle": {
                    "$type": "MEECNDLIOBI",
                    "HKPCLGHBKFD": {
                        "Standby": []
                    },
                    "KNOHBHKACHA": true,
                    "BAABNFCMKIO": true,
                    "ADPGACLPFHN": [
                        "DoSkill"
                    ]
                },
                "Turn": {
                    "$type": "MEECNDLIOBI",
                    "HKPCLGHBKFD": {
                        "Turn": [
                            "Audio_Slime_02_Run_H"
                        ]
                    },
                    "KNOHBHKACHA": true,
                    "BAABNFCMKIO": true,
                    "ADPGACLPFHN": [
                        "DoSkill"
                    ],
                    "NPMGEMAFACP": true,
                    "EOALJPNBEOI": true
                },
                "NormalMove": {
                    "$type": "MEECNDLIOBI",
                    "HKPCLGHBKFD": {
                        "Walk": [
                            "Audio_Slime_02_Walk_H"
                        ],
                        "Run": [
                            "Audio_Slime_02_Run_H"
                        ]
                    },
                    "KNOHBHKACHA": true,
                    "BAABNFCMKIO": true,
                    "ADPGACLPFHN": [
                        "DoSkill"
                    ],
                    "NPMGEMAFACP": true
                },
                "BeHit": {
                    "$type": "MEECNDLIOBI",
                    "HKPCLGHBKFD": {
                        "Hit_L": [
                            "Monster_Slime_BeHit",
                            "Audio_Slime_02_Hit_L"
                        ],
                        "Hit_H": [
                            "Monster_Slime_BeHit",
                            "Audio_Slime_02_Hit_H"
                        ]
                    },
                    "PJFELLIJONH": [
                        "BeHit"
                    ],
                    "ADPGACLPFHN": [
                        "DoSkill"
                    ]
                },
                "BeHitThrow": {
                    "$type": "MEECNDLIOBI",
                    "HKPCLGHBKFD": {
                        "HitThrow": [
                            "Monster_Slime_BeHit",
                            "Audio_Slime_02_HitThrow_H"
                        ],
                        "HitThrowDrop": [],
                        "HitThrowToGround": [
                            "Monster_Slime_ThrowToGround_02",
                            "Audio_Slime_02_HitThrowToGround_H"
                        ]
                    },
                    "PJFELLIJONH": [
                        "BeHit",
                        "HitAir2HitDrop"
                    ],
                    "ADPGACLPFHN": [
                        "DoSkill"
                    ]
                },
                "Struggle": {
                    "$type": "MEECNDLIOBI",
                    "HKPCLGHBKFD": {
                        "Struggle": []
                    },
                    "PJFELLIJONH": [
                        "BeHit",
                        "HitAir2HitDrop"
                    ],
                    "ADPGACLPFHN": [
                        "DoSkill"
                    ]
                },
                "Die": {
                    "$type": "MEECNDLIOBI",
                    "HKPCLGHBKFD": {
                        "Die": [
                            "Monster_Slime_Die",
                            "Monster_Slime_Electric_02_Die",
                            "Audio_Slime_Fire_02_Die"
                        ],
                        "SwimDie": [
                            "Monster_Slime_Die",
                            "Monster_Slime_Electric_02_Die"
                        ]
                    }
                },
                "Warning": {
                    "$type": "MEECNDLIOBI",
                    "HKPCLGHBKFD": {
                        "Warning": [
                            "Monster_Slime_Warning"
                        ]
                    },
                    "ADPGACLPFHN": [
                        "BeHit",
                        "DoSkill"
                    ]
                },
                "Charge": {
                    "$type": "MEECNDLIOBI",
                    "HKPCLGHBKFD": {
                        "Charge": [
                            "Monster_Slime_Electric_02_Charge"
                        ]
                    },
                    "ADPGACLPFHN": [
                        "BeHit",
                        "DoSkill"
                    ]
                },
                "TestTool_Discharge": {
                    "$type": "MEECNDLIOBI",
                    "HKPCLGHBKFD": {
                        "TestTool_Discharge": [
                            "Monster_Slime_Electric_TestTool_Discharge"
                        ]
                    },
                    "ADPGACLPFHN": [
                        "BeHit",
                        "DoSkill"
                    ]
                },
                "NormalAttack": {
                    "$type": "MEECNDLIOBI",
                    "HKPCLGHBKFD": {
                        "NormalAttack": [
                            "Monster_Slime_NormalAttack_02",
                            "Monster_Slime_Electric_02_NormalAttack",
                            "Audio_Slime_02_NormalAtk_H"
                        ]
                    },
                    "ADPGACLPFHN": [
                        "BeHit",
                        "DoSkill"
                    ],
                    "NJGOGOLJGOE": true
                }
            }
        }
    },
    "face": {
        "characterName": "Slime_02",
        "baseFaceAnimation": "Default",
        "intervalFaceAnimation": "Blink",
        "minInterval": 1.5,
        "maxInterval": 5.5
    },
    "partControl": {
        "parts": [
            {
                "$type": "PMGKKACOLIC",
                "angularSpeed": 180.0,
                "BGKPNLALNPD": "AntennaControl",
                "NOGNNDABDHA": "RotateToForward",
                "AJBEMCBABJF": "",
                "GPAPEPNEEMC": 360.0,
                "OGNBJMIOCPO": 0.0
            }
        ]
    },
    "billboard": {
        "$type": "HFEGKLAIGGI",
        "IIKEHINGEME": "BillboardAttach",
        "GEKOGJAPMMH": "Character",
        "HECLHMINJII": 0.5,
        "DMHOOGGGDKG": true
    },
    "initialPoses": {
        "Default": {},
        "RunAround": {
            "initialPoseID": 901,
            "initialPoseParams": {
                "boolParams": {
                    "RunAround": "true"
                }
            }
        }
    },
    "aibeta": {
        "enable": true,
        "sensing": {
            "settings": {
                "DefaultSetting": {
                    "viewRange": 15.0
                },
                "NeverCombat": {
                    "enableVision": false,
                    "hearAttractionRange": 0.0,
                    "feelRange": 0.0
                }
            },
            "templates": {
                "DefaultTemplate": {
                    "DefaultPoses": "DefaultSetting"
                },
                "NeverCombatTemplate": {
                    "DefaultPoses": "NeverCombat"
                }
            }
        },
        "neurons": {
            "DefaultSetting": [
                "HIT"
            ],
            "NeverCombat": []
        },
        "threat": {
            "clearThreatTargetDistance": 30.0,
            "clearThreatEdgeDistance": 3.0,
            "clearThreatTimerByDistance": 2.0,
            "viewAttenuation": [
                {
                    "x": 10.0,
                    "y": 1.0
                },
                {
                    "x": 15.0,
                    "y": 0.5
                }
            ]
        },
        "defendArea": {
            "defendRange": 30.0
        },
        "profiling": {
            "moveCullingLevel": 2
        },
        "skills": {
            "100": {
                "name": "OnAlert",
                "skillType": "OnAlert",
                "faceTarget": true,
                "publicCDGroup": "",
                "triggerGCD": false,
                "CLEPNIDJOLN": "",
                "stateIDs": [
                    "Warning"
                ],
                "skillQueryingTime": 3.0,
                "flagTargetReachable": "10",
                "flagSelfOnTemplateCollider": "01",
                "flagSelfInZone": "10",
                "flagTargetInZone": "11"
            },
            "209": {
                "name": "Reborn_Free",
                "skillType": "Free",
                "castCondition": {
                    "pose": [
                        1
                    ]
                },
                "cd": 20.0,
                "publicCDGroup": "",
                "CLEPNIDJOLN": "",
                "stateIDs": [
                    "Charge"
                ],
                "flagTargetReachable": "10",
                "flagSelfOnTemplateCollider": "01",
                "flagSelfInZone": "10",
                "flagTargetInZone": "11"
            },
            "201": {
                "name": "Reborn",
                "castCondition": {
                    "pose": [
                        2
                    ]
                },
                "cd": 20.0,
                "publicCDGroup": "",
                "CLEPNIDJOLN": "",
                "stateIDs": [
                    "Charge"
                ],
                "flagTargetReachable": "10",
                "flagSelfOnTemplateCollider": "01",
                "flagSelfInZone": "10",
                "flagTargetInZone": "11"
            },
            "202": {
                "name": "Reborn",
                "castCondition": {
                    "pose": [
                        2
                    ]
                },
                "cd": 20.0,
                "publicCDGroup": "",
                "CLEPNIDJOLN": "",
                "stateIDs": [
                    "Charge"
                ],
                "flagTargetReachable": "10",
                "flagSelfOnTemplateCollider": "01",
                "flagSelfInZone": "01",
                "flagTargetInZone": "11"
            },
            "203": {
                "name": "Reborn",
                "castCondition": {
                    "pose": [
                        2
                    ]
                },
                "cd": 20.0,
                "publicCDGroup": "",
                "CLEPNIDJOLN": "",
                "stateIDs": [
                    "Charge"
                ],
                "flagTargetReachable": "01",
                "flagSelfOnTemplateCollider": "01",
                "flagSelfInZone": "10",
                "flagTargetInZone": "11"
            },
            "204": {
                "name": "Reborn",
                "castCondition": {
                    "pose": [
                        2
                    ]
                },
                "cd": 20.0,
                "publicCDGroup": "",
                "CLEPNIDJOLN": "",
                "stateIDs": [
                    "Charge"
                ],
                "flagTargetReachable": "01",
                "flagSelfOnTemplateCollider": "01",
                "flagSelfInZone": "01",
                "flagTargetInZone": "11"
            },
            "301": {
                "name": "NormalAttack",
                "combatSkillType": "MeleeAttack",
                "enableSkillPrepare": true,
                "castCondition": {
                    "pose": [
                        102,
                        103
                    ],
                    "pickRangeMin": 1.5,
                    "pickRangeMax": 4.5,
                    "castRangeMin": 1.5,
                    "castRangeMax": 2.5
                },
                "cd": 2.5,
                "publicCDGroup": "",
                "CLEPNIDJOLN": "",
                "stateIDs": [
                    "NormalAttack"
                ],
                "flagTargetReachable": "10",
                "flagSelfOnTemplateCollider": "01",
                "flagSelfInZone": "10",
                "flagTargetInZone": "11"
            },
            "302": {
                "name": "NormalAttack",
                "combatSkillType": "MeleeAttack",
                "castCondition": {
                    "pose": [
                        102,
                        103
                    ],
                    "pickRangeMax": 2.5
                },
                "cd": 2.5,
                "publicCDGroup": "",
                "CLEPNIDJOLN": "",
                "stateIDs": [
                    "NormalAttack"
                ],
                "flagTargetReachable": "10",
                "flagSelfOnTemplateCollider": "01",
                "flagSelfInZone": "01",
                "flagTargetInZone": "11"
            }
        },
        "skillGCD": 2.5,
        "combatFixedMoveTactic": [
            {
                "$type": "EAOLOHCNMHK",
                "enable": true,
                "EGJMGEHLDOL": {
                    "pose": [
                        2,
                        3,
                        102,
                        103
                    ]
                },
                "NGIEOIGFFDH": {
                    "cd": 0.0,
                    "DMFHKPCCMAN": 4.0,
                    "MEKPCHABFJG": 15.0,
                    "HAGANIFJPCF": 1.75,
                    "IAIJKIPIPND": 2.75,
                    "BCIOOLPGLEM": true,
                    "FCFLCFFJKLO": ""
                }
            },
            {
                "$type": "HLPBLIEBJLM",
                "enable": true,
                "EGJMGEHLDOL": {
                    "pose": [
                        2,
                        3,
                        102,
                        103
                    ]
                },
                "NGIEOIGFFDH": {
                    "GPKNKJPPCOM": 4.0,
                    "NDCHJGOOLCF": 99.0,
                    "FDNLEPNLLBP": 4.0,
                    "DANCMNIMNAM": 4.5,
                    "FCFLCFFJKLO": ""
                }
            },
            {
                "$type": "GJGILIGEJMO",
                "enable": true
            },
            {
                "$type": "IKIHDEMELGB",
                "enable": true,
                "NGIEOIGFFDH": {
                    "HOKGJAONGHG": 5.0,
                    "GJOBDMEBGLM": 2.0,
                    "KDLAOJIPGHP": 15.0,
                    "OEFFOIEOJNC": 2.5,
                    "HAHMEDHEBKE": 7.5,
                    "FCFLCFFJKLO": ""
                },
                "LKIMAMPDDDI": {
                    "9": {
                        "NHPKGHAHIFA": 2,
                        "KDLAOJIPGHP": 5.0,
                        "OEFFOIEOJNC": 1.5,
                        "HAHMEDHEBKE": 3.0,
                        "FCFLCFFJKLO": ""
                    },
                    "901": {
                        "NHPKGHAHIFA": 2,
                        "KDLAOJIPGHP": 5.0,
                        "OEFFOIEOJNC": 1.5,
                        "HAHMEDHEBKE": 3.0,
                        "FCFLCFFJKLO": ""
                    }
                }
            }
        ]
    },
    "inputKeys": [
        {
            "keyID": 1,
            "inputKeyCode": 257,
            "abilityName": ""
        },
        {
            "keyID": 201,
            "inputKeyCode": 258,
            "abilityName": ""
        },
        {
            "keyID": 301,
            "inputKeyCode": 259,
            "abilityName": ""
        }
    ],
    "move": {
        "$type": "JKDLANFKJIL",
        "LDHGAEIKIEE": "SlimeType",
        "LPAKBBIADNC": "RootNode"
    },
    "field": {
        "concernType": "CombatExcludeGWGO",
        "shape": "CircleR15",
        "LMLLHOMBAHC": true,
        "AGKCOGKCAGC": "",
        "triggerInfinite": true,
        "lifeInfinite": true,
        "checkInterval": 0.5,
        "overwriteCampType": true,
        "campType": "SelfCamp",
        "PKBIFJFAJEK": "",
        "CJIOPEJJHDM": ""
    }
}