{
    "common": {
        "effectAttachShape": {
            "$type": "CMIPFEGOJCH",
            "EJAEFCDBDFB": "EffectMesh"
        },
        "mass": 9999999.0,
        "height": 1.0,
        "affectedByWorld": true,
        "checkInSurface": true,
        "disableTickDistance": 1000.0,
        "useGrassDisplacement": true,
        "clearAnimatorOnSetLightDeactive": true,
        "clearAIOnSetLightDeactive": true
    },
    "model": {
        "bornEffect": "",
        "attachEffect": "",
        "canBakeMesh": false
    },
    "dither": {
        "showDitherDuration": 1.0
    },
    "combat": {
        "property": {
            "endureType": "Monster_Demiboss_Other",
            "weight": 110.0
        },
        "beHit": {
            "hitBloodEffect": ""
        },
        "combatLock": {
            "lockShape": "CircleLockEnemy",
            "lockType": "Avatar&Monster_Lv4"
        },
        "die": {
            "dieEndTime": 2.4000000953674316,
            "dieForceDisappearTime": 5.0,
            "dieDisappearEffect": ""
        },
        "animEvents": {
            "MeleeAttack1": {
                "attackPattern": {
                    "$type": "HBFCINNBDFD",
                    "triggerType": "TriggerNoRepeat",
                    "born": {
                        "$type": "KDEPFKAAHCG",
                        "offset": {
                            "HMHIOILIGBF": 0.0,
                            "DPPJGBOHAAL": -1.0,
                            "DDOAGBLBCEF": 1.0
                        }
                    },
                    "height": 5.0,
                    "NPLOANBGDOK": 180.0,
                    "DFMMIGEMOHH": 4.0
                },
                "attackInfo": {
                    "attackTag": "",
                    "attenuationTag": "",
                    "attenuationGroup": "default",
                    "attackProperty": {
                        "PCFAAPMOCGJ": 0.5,
                        "LCCBNOKMNFG": 0.0,
                        "bonusCritical": 50.0,
                        "strikeType": "Blunt",
                        "enBreak": 101.0,
                        "attackType": "Melee",
                        "FKGFPFNOJMN": 0.0
                    },
                    "hitPattern": {
                        "onHitEffectName": "default",
                        "hitImpulseType": "LV2",
                        "retreatType": "ByHitDirection",
                        "canBeDefenceHalt": true
                    }
                }
            },
            "MeleeAttack2": {
                "attackPattern": {
                    "$type": "GGBJACPDDCM",
                    "triggerType": "TriggerNoRepeat",
                    "born": {
                        "$type": "KDEPFKAAHCG",
                        "offset": {
                            "HMHIOILIGBF": 0.0,
                            "DPPJGBOHAAL": 2.299999952316284,
                            "DDOAGBLBCEF": 0.0
                        }
                    },
                    "size": {
                        "HMHIOILIGBF": 2.0,
                        "DPPJGBOHAAL": 5.0,
                        "DDOAGBLBCEF": 4.0
                    }
                },
                "attackInfo": {
                    "attackTag": "",
                    "attenuationTag": "",
                    "attenuationGroup": "default",
                    "attackProperty": {
                        "PCFAAPMOCGJ": 0.5,
                        "LCCBNOKMNFG": 0.0,
                        "bonusCritical": 50.0,
                        "strikeType": "Blunt",
                        "enBreak": 101.0,
                        "attackType": "Melee",
                        "FKGFPFNOJMN": 0.0
                    },
                    "hitPattern": {
                        "onHitEffectName": "default",
                        "hitImpulseType": "LV2",
                        "retreatType": "ByHitDirection",
                        "canBeDefenceHalt": true
                    }
                }
            },
            "MeleeAttack3": {
                "attackPattern": {
                    "$type": "HBFCINNBDFD",
                    "triggerType": "TriggerNoRepeat",
                    "born": {
                        "$type": "KDEPFKAAHCG",
                        "offset": {
                            "HMHIOILIGBF": 0.0,
                            "DPPJGBOHAAL": -1.0,
                            "DDOAGBLBCEF": 1.5
                        }
                    },
                    "height": 5.0,
                    "DFMMIGEMOHH": 6.0
                },
                "attackInfo": {
                    "attackTag": "",
                    "attenuationTag": "",
                    "attenuationGroup": "default",
                    "attackProperty": {
                        "PCFAAPMOCGJ": 0.3499999940395355,
                        "LCCBNOKMNFG": 0.0,
                        "bonusCritical": 50.0,
                        "strikeType": "Blunt",
                        "enBreak": 101.0,
                        "attackType": "Melee",
                        "FKGFPFNOJMN": 0.0
                    },
                    "hitPattern": {
                        "onHitEffectName": "default",
                        "hitImpulseType": "LV3",
                        "retreatType": "ByHitDirection",
                        "canBeDefenceHalt": true
                    }
                }
            },
            "DodgeCameraShake": {
                "attackPattern": {
                    "$type": "GGBJACPDDCM",
                    "triggerType": "TriggerNoRepeat",
                    "GJKNLOPNAMC": true,
                    "born": {
                        "$type": "KDEPFKAAHCG"
                    },
                    "size": {
                        "HMHIOILIGBF": 0.10000000149011612,
                        "DPPJGBOHAAL": 0.10000000149011612,
                        "DDOAGBLBCEF": 0.10000000149011612
                    }
                },
                "attackInfo": {
                    "attackTag": "",
                    "attenuationTag": "",
                    "attenuationGroup": "default",
                    "attackProperty": {
                        "PCFAAPMOCGJ": 0.0,
                        "LCCBNOKMNFG": 0.0,
                        "bonusCritical": 0.0,
                        "FKGFPFNOJMN": 0.0
                    },
                    "hitPattern": {
                        "onHitEffectName": "none",
                        "hitImpulseType": "LV0",
                        "hitHaltTimeScale": 0.05000000074505806
                    },
                    "forceCameraShake": true,
                    "cameraShake": {
                        "shakeType": "CustomVector",
                        "shakeRange": 0.125,
                        "shakeTime": 1.0,
                        "shakeDistance": 35.0,
                        "shakeDir": {
                            "y": 1.0
                        },
                        "extension": {
                            "baseOnCamera": true,
                            "rangeAttenuation": 0.0
                        }
                    }
                }
            },
            "RushAtk": {
                "attackPattern": {
                    "$type": "HBFCINNBDFD",
                    "triggerType": "TriggerNoRepeat",
                    "born": {
                        "$type": "KDEPFKAAHCG",
                        "offset": {
                            "HMHIOILIGBF": 0.0,
                            "DPPJGBOHAAL": -1.0,
                            "DDOAGBLBCEF": 1.0
                        }
                    },
                    "height": 5.0,
                    "DFMMIGEMOHH": 3.0
                },
                "attackInfo": {
                    "attackTag": "Monster_BladeMaster_BeBlockAttack",
                    "attenuationTag": "",
                    "attenuationGroup": "default",
                    "attackProperty": {
                        "PCFAAPMOCGJ": 0.30000001192092896,
                        "LCCBNOKMNFG": 0.0,
                        "bonusCritical": 50.0,
                        "strikeType": "Blunt",
                        "enBreak": 101.0,
                        "attackType": "Melee",
                        "FKGFPFNOJMN": 0.0
                    },
                    "hitPattern": {
                        "onHitEffectName": "default",
                        "hitImpulseType": "LV3",
                        "retreatType": "ByHitDirection",
                        "canBeDefenceHalt": true
                    }
                }
            },
            "RushAtkFinal": {
                "attackPattern": {
                    "$type": "HBFCINNBDFD",
                    "triggerType": "TriggerNoRepeat",
                    "born": {
                        "$type": "KDEPFKAAHCG",
                        "offset": {
                            "HMHIOILIGBF": 0.0,
                            "DPPJGBOHAAL": -1.0,
                            "DDOAGBLBCEF": -1.0
                        }
                    },
                    "height": 5.0,
                    "DFMMIGEMOHH": 4.0
                },
                "attackInfo": {
                    "attackTag": "Monster_BladeMaster_BeBlockAttack",
                    "attenuationTag": "",
                    "attenuationGroup": "default",
                    "attackProperty": {
                        "PCFAAPMOCGJ": 1.0,
                        "LCCBNOKMNFG": 0.0,
                        "bonusCritical": 50.0,
                        "strikeType": "Blunt",
                        "enBreak": 101.0,
                        "attackType": "Melee",
                        "FKGFPFNOJMN": 0.0
                    },
                    "hitPattern": {
                        "onHitEffectName": "default",
                        "hitImpulseType": "LV3",
                        "retreatType": "ByHitDirection",
                        "canBeDefenceHalt": true
                    }
                }
            }
        }
    },
    "abilities": [
        {
            "abilityID": "",
            "abilityName": "Animal_Inu_Shihandai_Steer",
            "abilityOverride": ""
        },
        {
            "abilityID": "",
            "abilityName": "Animal_Inu_Shihandai_JumpAttack",
            "abilityOverride": ""
        },
        {
            "abilityID": "",
            "abilityName": "Animal_Inu_Shihandai_BossBuff",
            "abilityOverride": ""
        },
        {
            "abilityID": "",
            "abilityName": "Animal_Inu_Shihandai_TrickDog",
            "abilityOverride": ""
        },
        {
            "abilityID": "",
            "abilityName": "Animal_Inu_Shihandai_BossBlinkAttack",
            "abilityOverride": ""
        },
        {
            "abilityID": "",
            "abilityName": "Animal_Inu_Shihandai_AlertToBeBig",
            "abilityOverride": ""
        },
        {
            "abilityID": "",
            "abilityName": "Animal_Inu_Shihandai_Blink_FireRangeBlade",
            "abilityOverride": ""
        },
        {
            "abilityID": "",
            "abilityName": "Animal_Inu_Shihandai_RushAtk",
            "abilityOverride": ""
        },
        {
            "abilityID": "",
            "abilityName": "Animal_Inu_Shihandai_RangeBlade_ChargeBig",
            "abilityOverride": ""
        },
        {
            "abilityID": "",
            "abilityName": "Animal_Inu_Shihandai_RushAtkAS_Charge",
            "abilityOverride": ""
        },
        {
            "abilityID": "",
            "abilityName": "Animal_Inu_Shihandai_JumpAttack_BladeEffectBig",
            "abilityOverride": ""
        },
        {
            "abilityID": "",
            "abilityName": "Animal_Inu_Shihandai_MeleeAttackCharge",
            "abilityOverride": ""
        },
        {
            "abilityID": "",
            "abilityName": "Animal_Inu_Shihandai_BossWeak",
            "abilityOverride": ""
        },
        {
            "abilityID": "",
            "abilityName": "Animal_Inu_Shihandai_BladeHintEffect",
            "abilityOverride": ""
        },
        {
            "abilityID": "",
            "abilityName": "Animal_Inu_Shihandai_ResistFrozen",
            "abilityOverride": ""
        },
        {
            "abilityID": "",
            "abilityName": "Animal_Inu_Shihandai_BladeMaster_Angry",
            "abilityOverride": ""
        },
        {
            "abilityID": "",
            "abilityName": "Animal_Inu_Shihandai_BladeMaster_Block",
            "abilityOverride": ""
        },
        {
            "abilityID": "",
            "abilityName": "Animal_Inu_Shihandai_BladeMaster_ShakeCamera",
            "abilityOverride": ""
        }
    ],
    "stateLayers": {
        "defaultLayer": {
            "$type": "KFHJINNNDPN",
            "BOPIBFKFKCA": "",
            "stateIDs": {
                "Born": {
                    "$type": "MEECNDLIOBI",
                    "HKPCLGHBKFD": {
                        "Born": []
                    },
                    "ADPGACLPFHN": [
                        "DoSkill"
                    ]
                },
                "NormalIdle": {
                    "$type": "MEECNDLIOBI",
                    "HKPCLGHBKFD": {
                        "Standby": [],
                        "Sit": []
                    },
                    "KNOHBHKACHA": true,
                    "BAABNFCMKIO": true,
                    "ADPGACLPFHN": [
                        "DoSkill"
                    ]
                },
                "NormalMove": {
                    "$type": "MEECNDLIOBI",
                    "HKPCLGHBKFD": {
                        "Walk": [
                            "Audio_Monster_Inu_Walk"
                        ],
                        "Run": [
                            "Audio_Monster_Inu_Walk"
                        ]
                    },
                    "KNOHBHKACHA": true,
                    "BAABNFCMKIO": true,
                    "ADPGACLPFHN": [
                        "DoSkill"
                    ],
                    "NPMGEMAFACP": true
                },
                "Alert": {
                    "$type": "MEECNDLIOBI",
                    "HKPCLGHBKFD": {
                        "Alert": [
                            "Audio_Monster_Inu_Alert"
                        ]
                    },
                    "ADPGACLPFHN": [
                        "BeHit",
                        "DoSkill",
                        "AlertHitTrigger"
                    ]
                },
                "Alert_ToBeBig": {
                    "$type": "MEECNDLIOBI",
                    "HKPCLGHBKFD": {
                        "Alert_ToBeBig": [
                            "Animal_Inu_Shihandai_ToBig",
                            "Audio_Monster_Inu_Alert_ToBeBig"
                        ]
                    },
                    "ADPGACLPFHN": [
                        "BeHit",
                        "DoSkill",
                        "AlertHitTrigger"
                    ]
                },
                "Die": {
                    "$type": "MEECNDLIOBI",
                    "HKPCLGHBKFD": {
                        "Die": [
                            "Animal_Inu_Shihandai_Die",
                            "Audio_Monster_Inu_Die"
                        ]
                    },
                    "BAABNFCMKIO": true,
                    "ADPGACLPFHN": [
                        "DoSkill"
                    ],
                    "NPMGEMAFACP": true
                },
                "Blink_BS": {
                    "$type": "MEECNDLIOBI",
                    "HKPCLGHBKFD": {
                        "Blink_BS": [
                            "Animal_Inu_Shihandai_BossBlinkBS",
                            "Audio_Tanuki_Blink_BS"
                        ]
                    },
                    "ADPGACLPFHN": [
                        "BeHit",
                        "DoSkill"
                    ],
                    "NPMGEMAFACP": true
                },
                "Blink_During": {
                    "$type": "MEECNDLIOBI",
                    "HKPCLGHBKFD": {
                        "Blink_During": [
                            "Audio_Tanuki_Blink_BS"
                        ]
                    },
                    "ADPGACLPFHN": [
                        "BeHit",
                        "DoSkill"
                    ],
                    "NPMGEMAFACP": true
                },
                "Blink_AS": {
                    "$type": "MEECNDLIOBI",
                    "HKPCLGHBKFD": {
                        "Blink_AS": [
                            "Audio_Monster_Inu_HappyBink_AS"
                        ]
                    },
                    "ADPGACLPFHN": [
                        "BeHit",
                        "DoSkill"
                    ],
                    "NPMGEMAFACP": true
                },
                "OutOfBattle": {
                    "$type": "MEECNDLIOBI",
                    "HKPCLGHBKFD": {
                        "OutOfBattle": [
                            "Audio_Monster_Inu_OutBattle"
                        ]
                    },
                    "ADPGACLPFHN": [
                        "BeHit",
                        "DoSkill"
                    ],
                    "NPMGEMAFACP": true
                },
                "JumpAttack_BS": {
                    "$type": "MEECNDLIOBI",
                    "HKPCLGHBKFD": {
                        "JumpAttack_BS": [
                            "Animal_Inu_Shihandai_JumpAttack_BS",
                            "Audio_Monster_Inu_Jump_BS"
                        ]
                    },
                    "PAKNCLFMOAC": 0.0,
                    "ADPGACLPFHN": [
                        "BeHit",
                        "DoSkill"
                    ],
                    "NPMGEMAFACP": true
                },
                "JumpAttack_During": {
                    "$type": "MEECNDLIOBI",
                    "HKPCLGHBKFD": {
                        "JumpAttack_During": [
                            "Audio_Tanuki_Blink_BS"
                        ]
                    },
                    "PAKNCLFMOAC": 0.0,
                    "ADPGACLPFHN": [
                        "BeHit",
                        "DoSkill"
                    ],
                    "NPMGEMAFACP": true
                },
                "JumpAttack_AS": {
                    "$type": "MEECNDLIOBI",
                    "HKPCLGHBKFD": {
                        "JumpAttack_AS": [
                            "Animal_Inu_Shihandai_JumpAttack",
                            "Animal_Inu_Shihandai_JumpAttackBig",
                            "Audio_Monster_Inu_Jump_AS"
                        ]
                    },
                    "PAKNCLFMOAC": 0.0,
                    "ADPGACLPFHN": [
                        "BeHit",
                        "DoSkill"
                    ],
                    "NPMGEMAFACP": true
                },
                "ProtectBuff_BS": {
                    "$type": "MEECNDLIOBI",
                    "HKPCLGHBKFD": {
                        "ProtectBuff_BS": [
                            "Animal_Inu_Shihandai_BossBuff",
                            "Audio_Monster_Inu_ProtectBuff_BS"
                        ]
                    },
                    "ADPGACLPFHN": [
                        "BeHit",
                        "DoSkill"
                    ],
                    "NPMGEMAFACP": true
                },
                "ProtectBuff_AS": {
                    "$type": "MEECNDLIOBI",
                    "HKPCLGHBKFD": {
                        "ProtectBuff_AS": [
                            "Audio_Tanuki_Blink_BS"
                        ]
                    },
                    "ADPGACLPFHN": [
                        "BeHit",
                        "DoSkill"
                    ],
                    "NPMGEMAFACP": true
                },
                "TrickAttack_BS": {
                    "$type": "MEECNDLIOBI",
                    "HKPCLGHBKFD": {
                        "TrickAttack_BS": [
                            "Audio_Tanuki_Blink_BS"
                        ]
                    },
                    "PJFELLIJONH": [
                        "TriggerDefend"
                    ],
                    "ADPGACLPFHN": [
                        "BeHit",
                        "DoSkill"
                    ],
                    "NPMGEMAFACP": true
                },
                "TrickAttack_AS": {
                    "$type": "MEECNDLIOBI",
                    "HKPCLGHBKFD": {
                        "TrickAttack_AS": [
                            "Audio_Tanuki_Blink_BS"
                        ]
                    },
                    "ADPGACLPFHN": [
                        "BeHit",
                        "DoSkill"
                    ],
                    "NPMGEMAFACP": true
                },
                "RangeAttack": {
                    "$type": "MEECNDLIOBI",
                    "HKPCLGHBKFD": {
                        "RangeAttack": [
                            "Animal_Inu_Shihandai_RangeCounterBig",
                            "Audio_Tanuki_Blink_BS"
                        ]
                    },
                    "ADPGACLPFHN": [
                        "BeHit",
                        "DoSkill"
                    ],
                    "NPMGEMAFACP": true
                },
                "CounterAttack": {
                    "$type": "MEECNDLIOBI",
                    "HKPCLGHBKFD": {
                        "CounterAttack": [
                            "Animal_Inu_Shihandai_RangeCounterBig",
                            "Audio_Monster_Inu_Bink_Attack"
                        ]
                    },
                    "ADPGACLPFHN": [
                        "BeHit",
                        "DoSkill"
                    ],
                    "NPMGEMAFACP": true
                },
                "Blink_Attack": {
                    "$type": "MEECNDLIOBI",
                    "HKPCLGHBKFD": {
                        "Blink_Attack": [
                            "Animal_Inu_Shihandai_RangeCounterBig",
                            "Audio_Monster_Inu_Bink_Attack"
                        ]
                    },
                    "ADPGACLPFHN": [
                        "BeHit",
                        "DoSkill"
                    ],
                    "NPMGEMAFACP": true
                },
                "RangeBlade": {
                    "$type": "MEECNDLIOBI",
                    "HKPCLGHBKFD": {
                        "RangeBlade": [
                            "Animal_Inu_Shihandai_RangeBlade",
                            "Animal_Inu_Shihandai_RangeBlade_ChargeBig",
                            "Audio_Monster_Inu_RangeBlade"
                        ]
                    },
                    "ADPGACLPFHN": [
                        "BeHit",
                        "DoSkill"
                    ],
                    "NPMGEMAFACP": true
                },
                "BeCaptured_BS": {
                    "$type": "MEECNDLIOBI",
                    "HKPCLGHBKFD": {
                        "BeCaptured_BS": [
                            "Audio_Monster_Inu_BeCaptured_BS"
                        ]
                    },
                    "ADPGACLPFHN": [
                        "BeHit",
                        "DoSkill"
                    ],
                    "NPMGEMAFACP": true
                },
                "BeCaptured_Loop": {
                    "$type": "MEECNDLIOBI",
                    "HKPCLGHBKFD": {
                        "BeCaptured_Loop": [
                            "Audio_Tanuki_Blink_BS"
                        ]
                    },
                    "ADPGACLPFHN": [
                        "BeHit",
                        "DoSkill"
                    ],
                    "NPMGEMAFACP": true
                },
                "BeCaptured_AS": {
                    "$type": "MEECNDLIOBI",
                    "HKPCLGHBKFD": {
                        "BeCaptured_AS": [
                            "Audio_Monster_Inu_BeCaptured_AS"
                        ]
                    },
                    "ADPGACLPFHN": [
                        "BeHit",
                        "DoSkill"
                    ],
                    "NPMGEMAFACP": true
                },
                "MeleeAttack_1": {
                    "$type": "MEECNDLIOBI",
                    "HKPCLGHBKFD": {
                        "MeleeAttack1": [
                            "Animal_Inu_Shihandai_MeleeAttack1",
                            "Animal_Inu_Shihandai_MeleeAttackCharge",
                            "Audio_Monster_Inu_MeleeAttack"
                        ]
                    },
                    "ADPGACLPFHN": [
                        "BeHit",
                        "DoSkill"
                    ],
                    "NPMGEMAFACP": true
                },
                "MeleeAttack_2": {
                    "$type": "MEECNDLIOBI",
                    "HKPCLGHBKFD": {
                        "MeleeAttack2": [
                            "Animal_Inu_Shihandai_MeleeAttack2",
                            "Audio_Monster_Inu_MeleeAttack2"
                        ]
                    },
                    "ADPGACLPFHN": [
                        "BeHit",
                        "DoSkill"
                    ],
                    "NPMGEMAFACP": true
                },
                "MeleeAttack_3": {
                    "$type": "MEECNDLIOBI",
                    "HKPCLGHBKFD": {
                        "MeleeAttack3": [
                            "Animal_Inu_Shihandai_MeleeAttack3",
                            "Audio_Monster_Inu_MeleeAttack3"
                        ]
                    },
                    "ADPGACLPFHN": [
                        "BeHit",
                        "DoSkill"
                    ],
                    "NPMGEMAFACP": true
                },
                "MeleeAttack_4": {
                    "$type": "MEECNDLIOBI",
                    "HKPCLGHBKFD": {
                        "MeleeAttack4": [
                            "Animal_Inu_Shihandai_MeleeAttack1",
                            "Animal_Inu_Shihandai_MeleeAttackCharge",
                            "Audio_Monster_Inu_MeleeAttack"
                        ]
                    },
                    "ADPGACLPFHN": [
                        "BeHit",
                        "DoSkill"
                    ],
                    "NPMGEMAFACP": true
                },
                "RushAtk_Prepare": {
                    "$type": "MEECNDLIOBI",
                    "HKPCLGHBKFD": {
                        "RushAtk_Prepare": [
                            "Animal_Inu_Shihandai_BladeMaster_Rush_Prepare",
                            "Audio_Monster_Inu_Alert"
                        ]
                    },
                    "ADPGACLPFHN": [
                        "BeHit",
                        "DoSkill"
                    ],
                    "NPMGEMAFACP": true
                },
                "RushAttack_BS": {
                    "$type": "MEECNDLIOBI",
                    "HKPCLGHBKFD": {
                        "RushAttack_BS": [
                            "Animal_Inu_Shihandai_RushBS",
                            "Audio_Tanuki_Blink_BS"
                        ]
                    },
                    "ADPGACLPFHN": [
                        "BeHit",
                        "DoSkill"
                    ],
                    "NPMGEMAFACP": true
                },
                "RushAttack_Loop": {
                    "$type": "MEECNDLIOBI",
                    "HKPCLGHBKFD": {
                        "RushAttack_Loop": [
                            "Animal_Inu_Shihandai_BladeMaster_RushAtk",
                            "Audio_Monster_Inu_RushAttack_Loop"
                        ]
                    },
                    "ADPGACLPFHN": [
                        "BeHit",
                        "DoSkill"
                    ],
                    "NPMGEMAFACP": true
                },
                "RushAttack_AS": {
                    "$type": "MEECNDLIOBI",
                    "HKPCLGHBKFD": {
                        "RushAttack_AS": [
                            "Animal_Inu_Shihandai_BladeMaster_RushHint",
                            "Animal_Inu_Shihandai_RushAS_Effect",
                            "Audio_Monster_Inu_RushAttack_AS"
                        ]
                    },
                    "ADPGACLPFHN": [
                        "BeHit",
                        "DoSkill"
                    ],
                    "NPMGEMAFACP": true
                },
                "RushBreak_BS": {
                    "$type": "MEECNDLIOBI",
                    "HKPCLGHBKFD": {
                        "RushBreak_BS": [
                            "Audio_Monster_Inu_BeCaptured_BS"
                        ]
                    },
                    "ADPGACLPFHN": [
                        "BeHit",
                        "DoSkill"
                    ]
                },
                "RushBreak_Loop": {
                    "$type": "MEECNDLIOBI",
                    "HKPCLGHBKFD": {
                        "RushBreak_Loop": [
                            "Audio_Tanuki_Blink_BS"
                        ]
                    },
                    "PJFELLIJONH": [
                        "RushHit"
                    ],
                    "ADPGACLPFHN": [
                        "BeHit",
                        "DoSkill"
                    ]
                },
                "RushBreak_AS": {
                    "$type": "MEECNDLIOBI",
                    "HKPCLGHBKFD": {
                        "RushBreak_AS": [
                            "Audio_Monster_Inu_BeCaptured_AS"
                        ]
                    },
                    "ADPGACLPFHN": [
                        "BeHit",
                        "DoSkill"
                    ]
                },
                "Block": {
                    "$type": "MEECNDLIOBI",
                    "HKPCLGHBKFD": {
                        "Block1": [
                            "Animal_Inu_Shihandai_BladeMaster_Block",
                            "Audio_Monster_Homeworld_Inu_Dodge01"
                        ],
                        "Block2": [
                            "Animal_Inu_Shihandai_BladeMaster_Block",
                            "Audio_Monster_Homeworld_Inu_Dodge02"
                        ],
                        "Block3": [
                            "Animal_Inu_Shihandai_BladeMaster_Block",
                            "Audio_Monster_Homeworld_Inu_Dodge03"
                        ]
                    },
                    "ADPGACLPFHN": [
                        "BeHit",
                        "DoSkill"
                    ]
                }
            }
        }
    },
    "billboard": {
        "$type": "HFEGKLAIGGI",
        "IIKEHINGEME": "BillboardAttach",
        "offset": {
            "y": 0.800000011920929
        },
        "HECLHMINJII": 0.20000000298023224,
        "DMHOOGGGDKG": true
    },
    "initialPoses": {
        "Default": {}
    },
    "aibeta": {
        "enable": true,
        "sensing": {
            "settings": {
                "DefaultSetting": {
                    "viewRange": 15.0,
                    "horizontalFov": 90.0,
                    "verticalFov": 120.0,
                    "CPNIFEOJBJH": true,
                    "feelRange": 15.0
                },
                "LowAlert": {
                    "viewRange": 0.0,
                    "horizontalFov": 30.0,
                    "verticalFov": 45.0,
                    "CPNIFEOJBJH": true,
                    "feelRange": 0.0
                }
            },
            "templates": {
                "DefaultTemplate": {
                    "DefaultPoses": "DefaultSetting",
                    "1001": "DefaultSetting",
                    "9001": "LowAlert"
                }
            }
        },
        "neurons": {
            "DefaultSetting": [
                "HIT"
            ]
        },
        "threat": {
            "clearThreatTargetDistance": 100.0,
            "clearThreatEdgeDistance": 50.0,
            "clearThreatTimerByDistance": 10.0,
            "viewThreatGrow": 500.0,
            "threatDecreaseSpeed": 500.0
        },
        "defendArea": {
            "defendRange": 50.0
        },
        "ui": {},
        "skillGroupCDConfigs": [
            {
                "skillGroupCDID": 100,
                "skillGroupCDTime": 0.0
            }
        ],
        "skillSetting": {
            "skillEliteSet": {
                "1": [],
                "2": [
                    301,
                    2
                ],
                "3": [
                    301,
                    2
                ]
            }
        },
        "skills": {
            "1": {
                "name": "OnAlert",
                "skillType": "OnAlert",
                "priority": 1,
                "publicCDGroup": "",
                "ignoreGCD": true,
                "triggerGCD": false,
                "CLEPNIDJOLN": "",
                "stateIDs": [
                    "Alert"
                ],
                "skillQueryingTime": 3.0,
                "flagTargetReachable": "11",
                "flagSelfOnTemplateCollider": "01",
                "flagSelfInZone": "10",
                "flagTargetInZone": "11"
            },
            "2": {
                "name": "Blink",
                "priority": 2,
                "castCondition": {
                    "pose": [
                        101
                    ],
                    "pickRangeMin": 5.0,
                    "pickRangeMax": 20.0,
                    "SkillAnchorRangeMax": 20.0
                },
                "cd": 5.0,
                "cdUpperRange": 10.0,
                "publicCDGroup": "",
                "CLEPNIDJOLN": "",
                "stateIDs": [
                    "Blink_AS",
                    "Blink_BS",
                    "Blink_During",
                    "Blink_Attack"
                ],
                "flagTargetReachable": "11",
                "flagSelfOnTemplateCollider": "01",
                "flagSelfInZone": "11",
                "flagTargetInZone": "11"
            },
            "101": {
                "name": "JumpAttack",
                "priority": 3,
                "castCondition": {
                    "pose": [
                        101
                    ],
                    "needReInitCD": true,
                    "pickRangeMax": 50.0
                },
                "cd": 10.0,
                "cdUpperRange": 5.0,
                "initialCD": 5.0,
                "publicCDGroup": "",
                "CLEPNIDJOLN": "",
                "stateIDs": [
                    "JumpAttack_BS",
                    "JumpAttack_During",
                    "JumpAttack_AS"
                ],
                "flagTargetReachable": "11",
                "flagSelfOnTemplateCollider": "01",
                "flagSelfInZone": "10",
                "flagTargetInZone": "11"
            },
            "102": {
                "name": "JumpAttack",
                "priority": 1,
                "castCondition": {
                    "pose": [
                        101
                    ],
                    "needReInitCD": true
                },
                "publicCDGroup": "",
                "CLEPNIDJOLN": "",
                "stateIDs": [
                    "JumpAttack_BS",
                    "JumpAttack_During",
                    "JumpAttack_AS"
                ],
                "flagTargetReachable": "11",
                "flagSelfOnTemplateCollider": "01",
                "flagSelfInZone": "01",
                "flagTargetInZone": "11"
            },
            "301": {
                "name": "RangeAttack",
                "priority": 3,
                "castCondition": {
                    "pose": [
                        101
                    ],
                    "pickRangeMax": 30.0
                },
                "cd": 10.0,
                "cdUpperRange": 5.0,
                "initialCD": 5.0,
                "publicCDGroup": "",
                "CLEPNIDJOLN": "",
                "stateIDs": [
                    "RangeBlade"
                ],
                "flagTargetReachable": "11",
                "flagSelfOnTemplateCollider": "01",
                "flagSelfInZone": "10",
                "flagTargetInZone": "11"
            },
            "401": {
                "name": "RushAttack",
                "priority": 2,
                "castCondition": {
                    "pose": [
                        101
                    ],
                    "pickRangeMin": 5.0,
                    "pickRangeMax": 50.0
                },
                "cd": 15.0,
                "cdUpperRange": 10.0,
                "initialCD": 5.0,
                "publicCDGroup": "",
                "CLEPNIDJOLN": "",
                "stateIDs": [
                    "RushAttack_BS",
                    "RushAttack_Loop",
                    "RushAttack_AS"
                ],
                "flagTargetReachable": "11",
                "flagSelfOnTemplateCollider": "01",
                "flagSelfInZone": "10",
                "flagTargetInZone": "11"
            },
            "501": {
                "name": "MeleeAttack",
                "priority": 2,
                "castCondition": {
                    "pose": [
                        101
                    ],
                    "pickRangeMax": 5.0
                },
                "cd": 5.0,
                "cdUpperRange": 1.0,
                "initialCD": 5.0,
                "publicCDGroup": "",
                "CLEPNIDJOLN": "",
                "stateIDs": [
                    "MeleeAttack1",
                    "MeleeAttack2",
                    "MeleeAttack3"
                ],
                "flagTargetReachable": "10",
                "flagSelfOnTemplateCollider": "01",
                "flagSelfInZone": "10",
                "flagTargetInZone": "11"
            }
        },
        "skillGCD": 2.0,
        "combatFixedMoveTactic": [
            {
                "$type": "HLPBLIEBJLM",
                "enable": true,
                "EGJMGEHLDOL": {
                    "pose": [
                        101
                    ]
                },
                "NGIEOIGFFDH": {
                    "NHPKGHAHIFA": 1,
                    "MONCHHKIDKL": 10.0,
                    "GPKNKJPPCOM": 7.0,
                    "NDCHJGOOLCF": 50.0,
                    "FDNLEPNLLBP": 7.0,
                    "FCFLCFFJKLO": ""
                }
            },
            {
                "$type": "GJGILIGEJMO",
                "enable": true,
                "NGIEOIGFFDH": {
                    "NHPKGHAHIFA": 0,
                    "JIFACJMKJID": 1.0,
                    "HEMHHCFMJGB": 5.0,
                    "FCFLCFFJKLO": "",
                    "BKCOJDIDEGN": ""
                }
            },
            {
                "$type": "IKIHDEMELGB",
                "EGJMGEHLDOL": {
                    "pose": [
                        2
                    ]
                },
                "NGIEOIGFFDH": {
                    "MONCHHKIDKL": 0.75,
                    "HOKGJAONGHG": 7.5,
                    "GJOBDMEBGLM": 7.5,
                    "OEFFOIEOJNC": 4.0,
                    "HAHMEDHEBKE": 5.0,
                    "FCFLCFFJKLO": ""
                }
            }
        ]
    },
    "inputKeys": [
        {
            "keyID": 101,
            "inputKeyCode": 257,
            "abilityName": ""
        },
        {
            "keyID": 2,
            "inputKeyCode": 258,
            "abilityName": ""
        },
        {
            "keyID": 301,
            "inputKeyCode": 259,
            "abilityName": ""
        },
        {
            "keyID": 401,
            "inputKeyCode": 260,
            "abilityName": ""
        },
        {
            "keyID": 501,
            "inputKeyCode": 261,
            "abilityName": ""
        },
        {
            "keyID": 99999,
            "inputKeyCode": 262,
            "abilityName": ""
        }
    ]
}