{
    "common": {
        "effectAttachShape": {
            "$type": "CMIPFEGOJCH",
            "EJAEFCDBDFB": "EffectMesh"
        },
        "mass": 20.0,
        "height": 0.699999988079071,
        "viewSize": 0.5,
        "affectedByWorld": true,
        "checkInSurface": true,
        "scale": 1.2000000476837158,
        "canTriggerElementReactionText": false,
        "useGrassDisplacement": true
    },
    "model": {
        "bornEffect": "",
        "attachEffect": "",
        "canBakeMesh": false
    },
    "combat": {
        "property": {
            "endureType": "Monster_Minion",
            "weight": 30.0
        },
        "beHit": {
            "hitBloodEffect": "",
            "muteAllHitText": true
        },
        "combatLock": {
            "lockShape": "CircleLockEnemy",
            "denyLockOn": true,
            "lockType": "Default"
        },
        "die": {
            "dieEndTime": 0.009999999776482582,
            "dieForceDisappearTime": 10.0,
            "dieDisappearEffect": "Eff_Animal_Common_Die"
        }
    },
    "stateLayers": {
        "defaultLayer": {
            "$type": "KFHJINNNDPN",
            "BOPIBFKFKCA": "",
            "stateIDs": {
                "Born": {
                    "$type": "MEECNDLIOBI",
                    "HKPCLGHBKFD": {
                        "Born": []
                    },
                    "ADPGACLPFHN": [
                        "DoSkill"
                    ]
                },
                "NormalIdle": {
                    "$type": "MEECNDLIOBI",
                    "HKPCLGHBKFD": {
                        "Standby": []
                    },
                    "KNOHBHKACHA": true,
                    "BAABNFCMKIO": true,
                    "ADPGACLPFHN": [
                        "DoSkill"
                    ]
                },
                "NormalMove": {
                    "$type": "MEECNDLIOBI",
                    "HKPCLGHBKFD": {
                        "Walk": [
                            "Audio_Crab_Run"
                        ],
                        "Rush": [
                            "Audio_Crab_Run"
                        ],
                        "Run": [
                            "Audio_Crab_Run"
                        ],
                        "Run_AS": [
                            "Audio_Crab_Run"
                        ]
                    },
                    "KNOHBHKACHA": true,
                    "BAABNFCMKIO": true,
                    "ADPGACLPFHN": [
                        "DoSkill"
                    ],
                    "NPMGEMAFACP": true
                },
                "BeHit": {
                    "$type": "MEECNDLIOBI",
                    "HKPCLGHBKFD": {
                        "Hit_L": []
                    },
                    "PJFELLIJONH": [
                        "BeHit"
                    ],
                    "ADPGACLPFHN": [
                        "DoSkill"
                    ]
                },
                "Disappear": {
                    "$type": "MEECNDLIOBI",
                    "HKPCLGHBKFD": {
                        "Disappear": [
                            "Animal_Lizard_Disappear"
                        ]
                    }
                },
                "Die": {
                    "$type": "MEECNDLIOBI",
                    "HKPCLGHBKFD": {
                        "Die": [
                            "Animal_Lizard_Die"
                        ]
                    }
                }
            }
        }
    },
    "initialPoses": {
        "Default": {}
    },
    "aibeta": {
        "enable": true,
        "friendliness": 1,
        "sensing": {
            "settings": {
                "DefaultSetting": {
                    "enableVision": false,
                    "feelRange": 7.5
                }
            }
        },
        "neurons": {
            "DefaultSetting": [
                "HIT",
                "WEATHER_BAD"
            ]
        },
        "threat": {
            "viewThreatGrow": 75.0,
            "feelThreatGrow": 1000.0,
            "threatBroadcastRange": 5.0
        },
        "defendArea": {
            "defendRange": 100.0
        },
        "ui": {
            "hasDirectionIndicator": false
        },
        "profiling": {
            "lodStrategy": "MinorAnimal"
        },
        "combatFixedMoveTactic": [
            {
                "$type": "EAOLOHCNMHK",
                "enable": true,
                "nerveTrigger": [
                    "HIT",
                    "WEATHER_BAD"
                ],
                "NGIEOIGFFDH": {
                    "cd": 0.0,
                    "DMFHKPCCMAN": 200.0,
                    "MEKPCHABFJG": 30.0,
                    "GDFGBALKAEK": 8,
                    "FGJNCNBPGPD": 12,
                    "HAGANIFJPCF": 3.299999952316284,
                    "IAIJKIPIPND": 3.299999952316284,
                    "FCFLCFFJKLO": ""
                }
            },
            {
                "$type": "GJGILIGEJMO",
                "enable": true
            },
            {
                "$type": "IKIHDEMELGB",
                "enable": true,
                "EGJMGEHLDOL": {
                    "pose": [
                        1
                    ]
                },
                "NGIEOIGFFDH": {
                    "HOKGJAONGHG": 120.0,
                    "GJOBDMEBGLM": 60.0,
                    "KDLAOJIPGHP": 10.0,
                    "OEFFOIEOJNC": 1.5,
                    "HAHMEDHEBKE": 3.0,
                    "FCFLCFFJKLO": ""
                }
            }
        ]
    },
    "animal": {
        "hasAbility": false,
        "tickAbilityElement": false,
        "hasCharacterRenderering": false
    },
    "HLDCEPGFNOE": {
        "defaultConfig": {
            "NCMGLDPMKAP": "Eff_SceneObj_CatchAnimal_CaughtSuccess"
        }
    }
}