{
    "common": {
        "mass": 10000.0,
        "height": 50.0,
        "viewSize": 3.0,
        "affectedByWorld": true,
        "checkInSurface": true,
        "disableTickDistance": 10000.0,
        "clearAnimatorOnSetLightDeactive": true,
        "clearAIOnSetLightDeactive": true
    },
    "headControl": {
        "$type": "HLGPLMCNIFB",
        "useHeadControl": true,
        "BADCMJGBCHM": 360.0,
        "AIOGIMNHIGK": 360.0,
        "GDIAFJFLHCE": [
            "NormalIdle/Standby"
        ]
    },
    "specialPoint": {
        "elementAbsorb": "RootNode",
        "elementPendant": "",
        "elementDrop": "RootNode",
        "bulletAim": "AimPoint",
        "hitPoints": [
            "SelectedPoint1",
            "SelectedPoint2",
            "SelectedPoint3",
            "SelectedPoint4",
            "SelectedPoint5",
            "SelectedPoint6"
        ],
        "selectedPoints": [
            "SelectedPoint1",
            "SelectedPoint2",
            "SelectedPoint3",
            "SelectedPoint4",
            "SelectedPoint5",
            "SelectedPoint6"
        ]
    },
    "model": {
        "bornEffect": "",
        "attachEffect": "",
        "canBakeMesh": false
    },
    "dither": {
        "showDitherDuration": 2.0,
        "normalBetweenCamera": {
            "detectDitherRange": 25.0
        }
    },
    "globalValue": {
        "serverGlobalValues": [
            "SGV_Mini_Osial"
        ]
    },
    "combat": {
        "property": {
            "endureType": "Monster_Boss_Other",
            "weight": 20000.0
        },
        "beHit": {
            "hitBloodEffect": "",
            "blendShake": {
                "$type": "GJLBLNMLOKF",
                "NIBNCJEEIHG": [
                    {
                        "APADLBCEDKB": 0.33000001311302185,
                        "hitBoxNames": [
                            "BodyBox01",
                            "BodyBox02",
                            "BodyBox03",
                            "BodyBox04",
                            "BodyBox05",
                            "BodyBox06",
                            "BodyBox07",
                            "BodyBox08",
                            "BodyBox09"
                        ]
                    },
                    {
                        "APADLBCEDKB": 0.6600000262260437,
                        "hitBoxNames": [
                            "BodyBox09",
                            "BodyBox10",
                            "BodyBox11"
                        ]
                    },
                    {
                        "APADLBCEDKB": 1.0,
                        "hitBoxNames": [
                            "BodyBox12",
                            "HeadBox"
                        ]
                    }
                ]
            }
        },
        "combatLock": {
            "lockShape": "CircleLockEnemy",
            "lockType": "Boss_Lv5"
        },
        "die": {
            "hasAnimatorDie": true,
            "dieEndTime": 4.0,
            "dieForceDisappearTime": 4.0,
            "dieDisappearEffect": "",
            "dieDisappearEffectDelay": 4.0,
            "LDOHFFOEPPI": true,
            "BMOKGIFNILM": true,
            "PHCLLDNDFNG": true,
            "CHBAHMJGJBE": true,
            "OPPHENIKFJA": true,
            "CCNGAIMLPIJ": true
        }
    },
    "abilities": [
        {
            "abilityID": "",
            "abilityName": "Monster_Eldritch_Minor_Initialize",
            "abilityOverride": ""
        },
        {
            "abilityID": "",
            "abilityName": "Monster_Eldritch_Minor_StateSwitch",
            "abilityOverride": ""
        },
        {
            "abilityID": "",
            "abilityName": "Monster_Eldritch_Minor_SkillMonitor",
            "abilityOverride": ""
        },
        {
            "abilityID": "",
            "abilityName": "Monster_Eldritch_Minor_SkillManager",
            "abilityOverride": ""
        },
        {
            "abilityID": "",
            "abilityName": "Monster_Eldritch_Minor_SkillPosition_Manager",
            "abilityOverride": ""
        },
        {
            "abilityID": "",
            "abilityName": "Monster_Eldritch_Minor_DiveIn",
            "abilityOverride": ""
        },
        {
            "abilityID": "",
            "abilityName": "Monster_Eldritch_Minor_MainHead_NewRoundBlink",
            "abilityOverride": ""
        },
        {
            "abilityID": "",
            "abilityName": "Monster_Eldritch_Minor_DiveOut",
            "abilityOverride": ""
        },
        {
            "abilityID": "",
            "abilityName": "Monster_Eldritch_Minor_Gnaw",
            "abilityOverride": ""
        },
        {
            "abilityID": "",
            "abilityName": "Monster_Eldritch_Minor_WaterJet",
            "abilityOverride": ""
        },
        {
            "abilityID": "",
            "abilityName": "Monster_Eldritch_Minor_WaterImpulse",
            "abilityOverride": ""
        },
        {
            "abilityID": "",
            "abilityName": "Monster_Eldritch_Minor_WaterBall",
            "abilityOverride": ""
        },
        {
            "abilityID": "",
            "abilityName": "Monster_Eldritch_Minor_Alert",
            "abilityOverride": ""
        },
        {
            "abilityID": "",
            "abilityName": "Monster_Eldritch_Minor_Alert_BulletManager",
            "abilityOverride": ""
        }
    ],
    "stateLayers": {
        "defaultLayer": {
            "$type": "KFHJINNNDPN",
            "BOPIBFKFKCA": "",
            "stateIDs": {
                "NormalIdle": {
                    "$type": "MEECNDLIOBI",
                    "HKPCLGHBKFD": {
                        "Standby": [],
                        "UnderWater": []
                    },
                    "KNOHBHKACHA": true,
                    "BAABNFCMKIO": true,
                    "ADPGACLPFHN": [
                        "DoSkill"
                    ]
                },
                "Moving": {
                    "$type": "MEECNDLIOBI",
                    "HKPCLGHBKFD": {
                        "Moving": []
                    },
                    "BAABNFCMKIO": true,
                    "ADPGACLPFHN": [
                        "DoSkill"
                    ],
                    "NPMGEMAFACP": true
                },
                "Die": {
                    "$type": "MEECNDLIOBI",
                    "HKPCLGHBKFD": {
                        "DieMain": [
                            "Monster_Eldritch_Minor_DieMain",
                            "Audio_Monster_Eldritch_Minor_Die"
                        ],
                        "DieSub": [
                            "Monster_Eldritch_Minor_DieSub",
                            "Audio_Monster_Eldritch_Minor_Die"
                        ]
                    }
                },
                "Alert": {
                    "$type": "MEECNDLIOBI",
                    "HKPCLGHBKFD": {
                        "AlertL": [
                            "Monster_Eldritch_Minor_AlertL"
                        ],
                        "AlertM": [
                            "Monster_Eldritch_Minor_AlertM"
                        ],
                        "AlertR": [
                            "Monster_Eldritch_Minor_AlertR"
                        ],
                        "AlertUnderWater": []
                    },
                    "BGJDNIJICNM": true,
                    "ADPGACLPFHN": [
                        "BeHit",
                        "DoSkill"
                    ]
                },
                "DiveIn": {
                    "$type": "MEECNDLIOBI",
                    "HKPCLGHBKFD": {
                        "DiveIn": [
                            "Monster_Eldritch_Minor_DiveIn",
                            "Audio_Monster_Eldritch_Minor_DiveIn"
                        ]
                    },
                    "BGJDNIJICNM": true,
                    "ADPGACLPFHN": [
                        "BeHit",
                        "DoSkill"
                    ]
                },
                "DiveOut": {
                    "$type": "MEECNDLIOBI",
                    "HKPCLGHBKFD": {
                        "DiveOut": [
                            "Monster_Eldritch_Minor_DiveOut",
                            "Audio_Monster_Eldritch_Minor_DiveOut"
                        ]
                    },
                    "BGJDNIJICNM": true,
                    "ADPGACLPFHN": [
                        "BeHit",
                        "DoSkill"
                    ]
                },
                "SkillDiveIn": {
                    "$type": "MEECNDLIOBI",
                    "HKPCLGHBKFD": {
                        "SkillDiveIn": [
                            "Monster_Eldritch_Minor_DiveIn",
                            "Audio_Monster_Eldritch_Minor_DiveIn"
                        ],
                        "SkillDiveInAS": []
                    },
                    "BGJDNIJICNM": true,
                    "ADPGACLPFHN": [
                        "BeHit",
                        "DoSkill"
                    ]
                },
                "SkillDiveOut": {
                    "$type": "MEECNDLIOBI",
                    "HKPCLGHBKFD": {
                        "SkillDiveOut": [
                            "Monster_Eldritch_Minor_DiveOut",
                            "Audio_Monster_Eldritch_Minor_DiveOut"
                        ]
                    },
                    "BGJDNIJICNM": true,
                    "ADPGACLPFHN": [
                        "BeHit",
                        "DoSkill"
                    ]
                },
                "SkillStandby": {
                    "$type": "MEECNDLIOBI",
                    "HKPCLGHBKFD": {
                        "SkillStandby": []
                    },
                    "BGJDNIJICNM": true,
                    "ADPGACLPFHN": [
                        "BeHit",
                        "DoSkill"
                    ]
                },
                "Gnaw": {
                    "$type": "MEECNDLIOBI",
                    "HKPCLGHBKFD": {
                        "Gnaw_DiveOut": [
                            "Audio_Monster_Eldritch_Minor_Gnaw_DiveOut"
                        ],
                        "Gnaw_BS": [],
                        "Gnaw_Attack": [
                            "Monster_Eldritch_Minor_Gnaw_Attack",
                            "Audio_Monster_Eldritch_Minor_Gnaw_Attack"
                        ],
                        "Gnaw_OnBoard01": [
                            "Audio_Monster_Eldritch_Minor_Gnaw_OnBoard"
                        ],
                        "Gnaw_OnBoard02": [
                            "Audio_Monster_Eldritch_Minor_Gnaw_OnBoard"
                        ],
                        "Gnaw_OnBoard01_Fast": [
                            "Audio_Monster_Eldritch_Minor_Gnaw_OnBoard"
                        ],
                        "Gnaw_OnBoard02_Fast": [
                            "Audio_Monster_Eldritch_Minor_Gnaw_OnBoard"
                        ],
                        "Gnaw_AS": [
                            "Audio_Monster_Eldritch_Minor_DiveIn"
                        ],
                        "Gnaw_UnderWater": []
                    },
                    "BGJDNIJICNM": true,
                    "ADPGACLPFHN": [
                        "BeHit",
                        "DoSkill"
                    ]
                },
                "WaterJet": {
                    "$type": "MEECNDLIOBI",
                    "HKPCLGHBKFD": {
                        "WaterJet_Move": [
                            "Audio_Monster_Eldritch_Minor_Gnaw_WaterJet"
                        ],
                        "WaterJet_Laser": [
                            "Audio_Monster_Eldritch_Minor_Gnaw_WaterJet"
                        ],
                        "WaterJet_AS": [
                            "Audio_Monster_Eldritch_Minor_Gnaw_WaterJet"
                        ],
                        "WaterJet_DiveIn": [
                            "Audio_Monster_Eldritch_Minor_Gnaw_WaterJet"
                        ],
                        "WaterJet_UnderWater": []
                    },
                    "BAABNFCMKIO": true,
                    "BGJDNIJICNM": true,
                    "ADPGACLPFHN": [
                        "BeHit",
                        "DoSkill"
                    ],
                    "NPMGEMAFACP": true,
                    "DGECHOEBEBO": true
                },
                "WaterImpulse": {
                    "$type": "MEECNDLIOBI",
                    "HKPCLGHBKFD": {
                        "WaterImpulse": [
                            "Monster_Eldritch_Minor_WaterImpulse",
                            "Audio_Monster_Eldritch_Minor_Gnaw_WaterImpulse"
                        ]
                    },
                    "BGJDNIJICNM": true,
                    "ADPGACLPFHN": [
                        "BeHit",
                        "DoSkill"
                    ]
                },
                "WaterBall": {
                    "$type": "MEECNDLIOBI",
                    "HKPCLGHBKFD": {
                        "WaterBall": [
                            "Monster_Eldritch_Minor_WaterBall",
                            "Audio_Monster_Eldritch_Minor_Gnaw_WaterBall"
                        ]
                    },
                    "BGJDNIJICNM": true,
                    "ADPGACLPFHN": [
                        "BeHit",
                        "DoSkill"
                    ]
                }
            }
        }
    },
    "billboard": {
        "$type": "HFEGKLAIGGI",
        "IIKEHINGEME": "BillboardAttach",
        "offset": {
            "y": 1.5
        },
        "HECLHMINJII": 1.0,
        "ABJJCOBEPLC": true,
        "DMHOOGGGDKG": true,
        "size": "Big"
    },
    "initialPoses": {
        "Default": {
            "initialPoseID": 101,
            "initialPoseParams": {
                "boolParams": {
                    "UnderWater": "false"
                }
            }
        },
        "PowerOff": {
            "initialPoseID": 102,
            "initialPoseParams": {
                "boolParams": {
                    "UnderWater": "true"
                }
            }
        }
    },
    "aibeta": {
        "enable": true,
        "moveSetting": {
            "useNavMesh": false,
            "navMeshAgentName": "Undead01"
        },
        "sensing": {
            "settings": {
                "DefaultSetting": {
                    "viewRange": 200.0,
                    "viewPanoramic": true,
                    "feelRange": 200.0
                }
            },
            "templates": {
                "DefaultTemplate": {
                    "DefaultPoses": "DefaultSetting"
                }
            }
        },
        "threat": {
            "clearThreatTargetDistance": 999.0,
            "clearThreatEdgeDistance": 999.0,
            "clearThreatByTargetOutOfZone": true,
            "clearThreatTimerByTargetOutOfZone": 999.0,
            "resistTauntLevel": "Monster_TauntLevel_5"
        },
        "defendArea": {
            "defendRange": 50.0
        },
        "profiling": {
            "lodStrategy": "Best"
        },
        "network": {
            "syncSkill": true,
            "resetHpOnSpawn": false
        },
        "skillGroupCDConfigs": [
            {
                "skillGroupCDID": 2,
                "skillGroupCDTime": 15.0
            }
        ],
        "skillSetting": {
            "skillEliteSet": {
                "0": [
                    241,
                    251
                ],
                "1": [
                    221,
                    231,
                    241,
                    251
                ],
                "2": [
                    231,
                    241,
                    251
                ],
                "3": [
                    221,
                    241,
                    251
                ],
                "4": [
                    221,
                    231,
                    251
                ],
                "5": [
                    221,
                    231,
                    241
                ],
                "6": [
                    222
                ],
                "7": [
                    233
                ],
                "8": [
                    242,
                    252
                ]
            }
        },
        "skills": {
            "221": {
                "name": "Gnaw",
                "priority": 3,
                "castCondition": {
                    "pose": [
                        102,
                        201
                    ]
                },
                "cd": 5.0,
                "initialCD": 1.0,
                "initialCDUpperRange": 2.0,
                "publicCDGroup": "",
                "CLEPNIDJOLN": "",
                "stateIDs": [
                    "Gnaw"
                ],
                "flagTargetReachable": "11",
                "flagSelfOnTemplateCollider": "01",
                "flagSelfInZone": "11",
                "flagTargetInZone": "11"
            },
            "222": {
                "name": "Gnaw",
                "priority": 3,
                "castCondition": {
                    "pose": [
                        102,
                        201
                    ]
                },
                "cd": 5.0,
                "initialCD": 1.0,
                "initialCDUpperRange": 2.0,
                "publicCDGroup": "",
                "CLEPNIDJOLN": "",
                "stateIDs": [
                    "Gnaw"
                ],
                "flagTargetReachable": "11",
                "flagSelfOnTemplateCollider": "01",
                "flagSelfInZone": "11",
                "flagTargetInZone": "11"
            },
            "231": {
                "name": "WaterJet",
                "priority": 2,
                "castCondition": {
                    "pose": [
                        201
                    ]
                },
                "cd": 5.0,
                "initialCD": 1.0,
                "initialCDUpperRange": 1.0,
                "publicCDGroup": "",
                "CLEPNIDJOLN": "",
                "stateIDs": [
                    "SkillDiveOut",
                    "WaterJet"
                ],
                "flagTargetReachable": "11",
                "flagSelfOnTemplateCollider": "01",
                "flagSelfInZone": "11",
                "flagTargetInZone": "11"
            },
            "232": {
                "name": "WaterJet",
                "priority": 2,
                "castCondition": {
                    "pose": [
                        201
                    ]
                },
                "cd": 5.0,
                "initialCD": 1.0,
                "initialCDUpperRange": 1.0,
                "publicCDGroup": "",
                "CLEPNIDJOLN": "",
                "stateIDs": [
                    "SkillDiveOut",
                    "WaterJet"
                ],
                "flagTargetReachable": "11",
                "flagSelfOnTemplateCollider": "01",
                "flagSelfInZone": "11",
                "flagTargetInZone": "11"
            },
            "233": {
                "name": "WaterJet",
                "priority": 2,
                "castCondition": {
                    "pose": [
                        102,
                        201
                    ]
                },
                "cd": 5.0,
                "initialCD": 1.0,
                "initialCDUpperRange": 1.0,
                "publicCDGroup": "",
                "CLEPNIDJOLN": "",
                "stateIDs": [
                    "SkillDiveOut",
                    "WaterJet"
                ],
                "flagTargetReachable": "11",
                "flagSelfOnTemplateCollider": "01",
                "flagSelfInZone": "11",
                "flagTargetInZone": "11"
            },
            "241": {
                "name": "WaterImpulse",
                "priority": 4,
                "castCondition": {
                    "pose": [
                        102,
                        201,
                        202
                    ]
                },
                "cd": 5.0,
                "initialCD": 1.0,
                "initialCDUpperRange": 2.0,
                "publicCDGroup": "",
                "CLEPNIDJOLN": "",
                "stateIDs": [
                    "SkillDiveOut",
                    "WaterImpulse",
                    "SkillStandby",
                    "SkillDiveIn"
                ],
                "flagTargetReachable": "11",
                "flagSelfOnTemplateCollider": "01",
                "flagSelfInZone": "11",
                "flagTargetInZone": "11"
            },
            "242": {
                "name": "WaterImpulse",
                "priority": 4,
                "castCondition": {
                    "pose": [
                        101
                    ]
                },
                "cd": 5.0,
                "initialCD": 12.0,
                "publicCDGroup": "",
                "CLEPNIDJOLN": "",
                "stateIDs": [
                    "WaterImpulse",
                    "SkillStandby",
                    "SkillDiveIn"
                ],
                "flagTargetReachable": "11",
                "flagSelfOnTemplateCollider": "01",
                "flagSelfInZone": "11",
                "flagTargetInZone": "11"
            },
            "251": {
                "name": "WaterBall",
                "priority": 4,
                "castCondition": {
                    "pose": [
                        102,
                        201,
                        202
                    ]
                },
                "cd": 5.0,
                "initialCD": 1.0,
                "initialCDUpperRange": 2.0,
                "publicCDGroup": "",
                "CLEPNIDJOLN": "",
                "stateIDs": [
                    "SkillDiveOut",
                    "WaterBall",
                    "SkillStandby",
                    "SkillDiveIn"
                ],
                "flagTargetReachable": "11",
                "flagSelfOnTemplateCollider": "01",
                "flagSelfInZone": "11",
                "flagTargetInZone": "11"
            },
            "252": {
                "name": "WaterBall",
                "priority": 4,
                "castCondition": {
                    "pose": [
                        101
                    ]
                },
                "cd": 5.0,
                "initialCD": 5.0,
                "publicCDGroup": "",
                "CLEPNIDJOLN": "",
                "stateIDs": [
                    "WaterBall"
                ],
                "flagTargetReachable": "11",
                "flagSelfOnTemplateCollider": "01",
                "flagSelfInZone": "11",
                "flagTargetInZone": "11"
            }
        },
        "skillGCD": 1.5,
        "combatFixedMoveTactic": [
            {
                "$type": "IOJOBOPLMDH",
                "enable": true,
                "EGJMGEHLDOL": {
                    "pose": [
                        104
                    ]
                },
                "NGIEOIGFFDH": {
                    "NHPKGHAHIFA": 2,
                    "MONCHHKIDKL": 50.0,
                    "FLCNLCKOKAA": 0.0,
                    "NCCIJCONCPE": 36.0,
                    "NPNMGGIPKJB": 30.5,
                    "FGNLIFGHMAB": 2.0,
                    "FCFLCFFJKLO": ""
                }
            }
        ]
    },
    "inputKeys": [
        {
            "keyID": 201,
            "inputKeyCode": 257,
            "abilityName": ""
        },
        {
            "keyID": 211,
            "inputKeyCode": 258,
            "abilityName": ""
        },
        {
            "keyID": 221,
            "inputKeyCode": 259,
            "abilityName": ""
        },
        {
            "keyID": 231,
            "inputKeyCode": 260,
            "abilityName": ""
        },
        {
            "keyID": 241,
            "inputKeyCode": 261,
            "abilityName": ""
        },
        {
            "keyID": 251,
            "inputKeyCode": 262,
            "abilityName": ""
        }
    ],
    "move": {
        "$type": "JKDLANFKJIL",
        "COJFNGPJCCL": true,
        "MFCPGGKALCM": 20.770000457763672,
        "FMOHEOLGBMD": "None",
        "BEICMHKFBPB": true,
        "LPAKBBIADNC": "RootNode"
    },
    "audio": {
        "LKJIHNLBIJL": ""
    },
    "cameraAdjust": {
        "default": {
            "$type": "LEOHKCFLBEB",
            "priority": 1.0,
            "BPJMGLDEBOP": 150.0,
            "OEFDKGHGFOF": 150.0,
            "NHCPBJMKJFD": 0.5,
            "FHGOFJGGPPH": 48.5,
            "LFPMADFBMMD": 10.0,
            "PNPIIBEIKLC": 10.0,
            "FFBIAKHMFCM": false,
            "AABCBFLFOOC": 30.0,
            "FCEMCMPDACC": 45.0,
            "FMIFMBHNLGN": 50.0,
            "EHPJLOAAGGD": 40.0,
            "GBIIHFCMCNA": 100.0,
            "EPJDLHHOCFF": 145.0,
            "KDLPBJIAALA": "CircleR150",
            "KLHLNABBJME": "CircleR150"
        }
    }
}