{
    "common": {
        "effectAttachShape": {
            "$type": "CMIPFEGOJCH",
            "EJAEFCDBDFB": "EffectMesh"
        },
        "mass": 10000.0,
        "height": 2.700000047683716,
        "modelHeight": 2.700000047683716,
        "viewSize": 1.5,
        "affectedByWorld": true,
        "checkInSurface": true,
        "scale": 1.100000023841858,
        "useGrassDisplacement": true,
        "clearAIOnSetLightDeactive": true,
        "DLFJJCMGIBH": true,
        "NICGCIINMFJ": true
    },
    "headControl": {
        "$type": "HLGPLMCNIFB",
        "useHeadControl": true,
        "BADCMJGBCHM": 30.0,
        "AIOGIMNHIGK": 10.0,
        "GDIAFJFLHCE": [
            "NormalIdle/Standby",
            "NormalMove/WalkForward",
            "NormalMove/WalkBack",
            "NormalMove/WalkRight",
            "NormalMove/WalkLeft",
            "NormalMove/Run",
            "Turn/TurnLeft",
            "Turn/TurnRight"
        ]
    },
    "model": {
        "bornEffect": "Eff_Monster_Common_Born",
        "attachEffect": ""
    },
    "dither": {
        "showDitherDuration": 2.0
    },
    "combat": {
        "property": {
            "endureType": "Monster_Demiboss_Humanoid",
            "weight": 150.0
        },
        "beHit": {
            "hitBloodEffect": ""
        },
        "combatLock": {
            "lockShape": "CircleLockEnemy",
            "lockType": "Avatar&Monster_Lv4"
        },
        "die": {
            "hasAnimatorDie": true,
            "dieEndTime": 2.0,
            "dieForceDisappearTime": 8.0,
            "dieDisappearEffect": "",
            "dieShaderData": "EremiteSandDie",
            "dieShaderEnableDurationTime": 1.0,
            "LDOHFFOEPPI": true,
            "BMOKGIFNILM": true,
            "PHCLLDNDFNG": true,
            "CHBAHMJGJBE": true,
            "OPPHENIKFJA": true,
            "CCNGAIMLPIJ": true
        },
        "animEvents": {
            "NormalAttack01": {
                "attackPattern": {
                    "$type": "HBFCINNBDFD",
                    "triggerType": "TriggerNoRepeat",
                    "born": {
                        "$type": "KDEPFKAAHCG",
                        "offset": {
                            "HMHIOILIGBF": -1.2000000476837158,
                            "DPPJGBOHAAL": 0.0,
                            "DDOAGBLBCEF": 1.0
                        }
                    },
                    "height": 1.2000000476837158,
                    "NPLOANBGDOK": 230.0,
                    "DFMMIGEMOHH": 4.0
                },
                "attackInfo": {
                    "attackTag": "",
                    "attenuationTag": "",
                    "attenuationGroup": "default",
                    "attackProperty": {
                        "PCFAAPMOCGJ": 0.75,
                        "LCCBNOKMNFG": 0.0,
                        "elementType": "Rock",
                        "bonusCritical": 25.0,
                        "strikeType": "Slash",
                        "enBreak": 200.0,
                        "attackType": "Melee",
                        "FKGFPFNOJMN": 0.0
                    },
                    "hitPattern": {
                        "onHitEffectName": "default",
                        "hitImpulseType": "LV4",
                        "canBeDefenceHalt": true
                    }
                }
            },
            "NormalAttack02": {
                "attackPattern": {
                    "$type": "GGBJACPDDCM",
                    "triggerType": "TriggerNoRepeat",
                    "born": {
                        "$type": "KDEPFKAAHCG",
                        "offset": {
                            "HMHIOILIGBF": 0.0,
                            "DPPJGBOHAAL": 1.0,
                            "DDOAGBLBCEF": 1.2000000476837158
                        }
                    },
                    "size": {
                        "HMHIOILIGBF": 1.5,
                        "DPPJGBOHAAL": 1.5,
                        "DDOAGBLBCEF": 5.0
                    }
                },
                "attackInfo": {
                    "attackTag": "",
                    "attenuationTag": "",
                    "attenuationGroup": "default",
                    "attackProperty": {
                        "PCFAAPMOCGJ": 0.75,
                        "LCCBNOKMNFG": 0.0,
                        "elementType": "Rock",
                        "bonusCritical": 25.0,
                        "strikeType": "Blunt",
                        "enBreak": 100.0,
                        "attackType": "Melee",
                        "FKGFPFNOJMN": 0.0
                    },
                    "hitPattern": {
                        "onHitEffectName": "default",
                        "hitImpulseType": "LV4",
                        "canBeDefenceHalt": true
                    }
                }
            },
            "NormalAttack03": {
                "attackPattern": {
                    "$type": "GGBJACPDDCM",
                    "triggerType": "TriggerNoRepeat",
                    "born": {
                        "$type": "KDEPFKAAHCG",
                        "offset": {
                            "HMHIOILIGBF": 0.0,
                            "DPPJGBOHAAL": 0.0,
                            "DDOAGBLBCEF": 1.0
                        }
                    },
                    "size": {
                        "HMHIOILIGBF": 3.0,
                        "DPPJGBOHAAL": 4.0,
                        "DDOAGBLBCEF": 2.0
                    }
                },
                "attackInfo": {
                    "attackTag": "",
                    "attenuationTag": "",
                    "attenuationGroup": "default",
                    "attackProperty": {
                        "PCFAAPMOCGJ": 0.5,
                        "LCCBNOKMNFG": 0.0,
                        "elementType": "Rock",
                        "bonusCritical": 25.0,
                        "strikeType": "Blunt",
                        "enBreak": 10000.0,
                        "attackType": "Melee",
                        "FKGFPFNOJMN": 0.0
                    },
                    "hitPattern": {
                        "onHitEffectName": "default",
                        "hitImpulseType": "LV4",
                        "canBeDefenceHalt": true
                    }
                }
            },
            "MeleeAttack01_01": {
                "attackPattern": {
                    "$type": "HBFCINNBDFD",
                    "triggerType": "TriggerNoRepeat",
                    "born": {
                        "$type": "KDEPFKAAHCG",
                        "offset": {
                            "HMHIOILIGBF": 0.0,
                            "DPPJGBOHAAL": 1.0,
                            "DDOAGBLBCEF": 1.0
                        }
                    },
                    "height": 1.7999999523162842,
                    "DFMMIGEMOHH": 4.0
                },
                "attackInfo": {
                    "attackTag": "Monster_BladeMaster_BeBlockAttack",
                    "attenuationTag": "",
                    "attenuationGroup": "default",
                    "attackProperty": {
                        "PCFAAPMOCGJ": 0.5,
                        "LCCBNOKMNFG": 0.0,
                        "elementType": "Rock",
                        "bonusCritical": 25.0,
                        "strikeType": "Slash",
                        "enBreak": 200.0,
                        "attackType": "Melee",
                        "FKGFPFNOJMN": 0.0
                    },
                    "hitPattern": {
                        "onHitEffectName": "default",
                        "hitImpulseType": "LV3",
                        "canBeDefenceHalt": true
                    }
                }
            },
            "MeleeAttack01_02": {
                "attackPattern": {
                    "$type": "HBFCINNBDFD",
                    "triggerType": "TriggerNoRepeat",
                    "born": {
                        "$type": "KDEPFKAAHCG",
                        "offset": {
                            "HMHIOILIGBF": 0.0,
                            "DPPJGBOHAAL": 0.0,
                            "DDOAGBLBCEF": 1.0
                        }
                    },
                    "height": 3.0,
                    "NPLOANBGDOK": 180.0,
                    "DFMMIGEMOHH": 3.5
                },
                "attackInfo": {
                    "attackTag": "Monster_BladeMaster_BeBlockAttack",
                    "attenuationTag": "",
                    "attenuationGroup": "default",
                    "attackProperty": {
                        "PCFAAPMOCGJ": 0.75,
                        "LCCBNOKMNFG": 0.0,
                        "elementType": "Rock",
                        "bonusCritical": 25.0,
                        "strikeType": "Slash",
                        "enBreak": 200.0,
                        "attackType": "Melee",
                        "FKGFPFNOJMN": 0.0
                    },
                    "hitPattern": {
                        "onHitEffectName": "default",
                        "hitImpulseType": "LV5",
                        "canBeDefenceHalt": true
                    },
                    "cameraShake": {
                        "shakeType": "CustomVector",
                        "shakeRange": 0.10000000149011612,
                        "shakeTime": 0.10000000149011612,
                        "shakeDistance": 30.0,
                        "shakeDir": {
                            "y": 1.0,
                            "z": 1.0
                        }
                    }
                }
            },
            "SlamAttack01": {
                "attackPattern": {
                    "$type": "HBFCINNBDFD",
                    "triggerType": "TriggerNoRepeat",
                    "born": {
                        "$type": "KDEPFKAAHCG",
                        "offset": {
                            "HMHIOILIGBF": 0.0,
                            "DPPJGBOHAAL": 0.0,
                            "DDOAGBLBCEF": 0.4000000059604645
                        }
                    },
                    "height": 2.200000047683716,
                    "DFMMIGEMOHH": 4.0
                },
                "attackInfo": {
                    "attackTag": "",
                    "attenuationTag": "",
                    "attenuationGroup": "default",
                    "attackProperty": {
                        "PCFAAPMOCGJ": 1.0,
                        "LCCBNOKMNFG": 0.0,
                        "elementType": "Rock",
                        "bonusCritical": 50.0,
                        "strikeType": "Blunt",
                        "enBreak": 100.0,
                        "attackType": "Melee",
                        "FKGFPFNOJMN": 0.0
                    },
                    "hitPattern": {
                        "onHitEffectName": "default",
                        "hitImpulseType": "LV5",
                        "canBeDefenceHalt": true
                    },
                    "cameraShake": {
                        "shakeType": "CustomVector",
                        "shakeRange": 0.10000000149011612,
                        "shakeTime": 0.10000000149011612,
                        "shakeDistance": 30.0,
                        "shakeDir": {
                            "y": 1.0,
                            "z": 1.0
                        }
                    }
                }
            }
        },
        "summon": {
            "summonTags": [
                {
                    "summonTag": 25110101,
                    "name": "Gator_Eremite_Rock_01",
                    "NIEKNEHDFAE": true,
                    "JJGPJGMCLLP": true
                }
            ]
        }
    },
    "equipController": {
        "sheathPoint": "",
        "attachPoints": {
            "equip01": "WeaponR",
            "equip02": "WeaponL"
        }
    },
    "abilities": [
        {
            "abilityID": "FightControl",
            "abilityName": "Monster_Eremite_Male_Strong_Katar_FightControl",
            "abilityOverride": ""
        },
        {
            "abilityID": "StreeController",
            "abilityName": "Monster_Eremite_Male_Strong_Katar_StreeController",
            "abilityOverride": ""
        },
        {
            "abilityID": "Summon",
            "abilityName": "Monster_Eremite_Male_Strong_Katar_Summon",
            "abilityOverride": ""
        },
        {
            "abilityID": "LoopEffect",
            "abilityName": "Monster_Eremite_Male_Strong_Katar_Improve_LoopEffect",
            "abilityOverride": ""
        },
        {
            "abilityID": "Weak",
            "abilityName": "Monster_Eremite_Male_Strong_Katar_Weak",
            "abilityOverride": ""
        },
        {
            "abilityID": "SlamAtk01_Damage",
            "abilityName": "Monster_Eremite_Male_Strong_Katar_SlamAtk01_Damage",
            "abilityOverride": ""
        },
        {
            "abilityID": "RockBomb",
            "abilityName": "Monster_Eremite_Male_Strong_Katar_RockBomb",
            "abilityOverride": ""
        },
        {
            "abilityID": "Block",
            "abilityName": "Monster_Eremite_Male_Strong_Katar_Block",
            "abilityOverride": ""
        },
        {
            "abilityID": "ReturnToBorn",
            "abilityName": "Monster_Eremite_Male_Strong_Katar_ReturnToBorn",
            "abilityOverride": ""
        },
        {
            "abilityID": "ControlShader",
            "abilityName": "Monster_Eremite_Male_Strong_Katar_ControlShader",
            "abilityOverride": ""
        },
        {
            "abilityID": "ControlShader",
            "abilityName": "Monster_Eremite_Male_Strong_Katar_SlamAtk01_MoveControl",
            "abilityOverride": ""
        },
        {
            "abilityID": "",
            "abilityName": "Monster_Eremite_Strong_Katar_Strong_BladeMaster2_BlockAttack",
            "abilityOverride": ""
        }
    ],
    "stateLayers": {
        "defaultLayer": {
            "$type": "KFHJINNNDPN",
            "BOPIBFKFKCA": "",
            "stateIDs": {
                "NormalIdle": {
                    "$type": "MEECNDLIOBI",
                    "HKPCLGHBKFD": {
                        "Standby": [],
                        "Born": []
                    },
                    "KNOHBHKACHA": true,
                    "BAABNFCMKIO": true,
                    "ADPGACLPFHN": [
                        "DoSkill"
                    ]
                },
                "Standby_Weak": {
                    "$type": "MEECNDLIOBI",
                    "HKPCLGHBKFD": {
                        "Standby_Weak": []
                    },
                    "KNOHBHKACHA": true,
                    "BAABNFCMKIO": true,
                    "IMJBMEIKPJN": 20.0,
                    "PJFELLIJONH": [
                        "Recover"
                    ],
                    "ADPGACLPFHN": [
                        "DoSkill"
                    ]
                },
                "NormalMove": {
                    "$type": "MEECNDLIOBI",
                    "HKPCLGHBKFD": {
                        "WalkForward": [
                            "Audio_Monster_Eremite_male_Strong_Katar_Rock_Walk"
                        ],
                        "WalkBack": [
                            "Audio_Monster_Eremite_male_Strong_Katar_Rock_Walk"
                        ],
                        "WalkRight": [
                            "Audio_Monster_Eremite_male_Strong_Katar_Rock_Turn"
                        ],
                        "WalkLeft": [
                            "Audio_Monster_Eremite_male_Strong_Katar_Rock_Turn"
                        ],
                        "Run": []
                    },
                    "KNOHBHKACHA": true,
                    "BAABNFCMKIO": true,
                    "ADPGACLPFHN": [
                        "DoSkill"
                    ],
                    "NPMGEMAFACP": true
                },
                "Turn": {
                    "$type": "MEECNDLIOBI",
                    "HKPCLGHBKFD": {
                        "TurnLeft": [
                            "Audio_Monster_Eremite_male_Strong_Katar_Rock_Turn"
                        ],
                        "TurnRight": [
                            "Audio_Monster_Eremite_male_Strong_Katar_Rock_Turn"
                        ]
                    },
                    "KNOHBHKACHA": true,
                    "BAABNFCMKIO": true,
                    "ADPGACLPFHN": [
                        "DoSkill"
                    ],
                    "NPMGEMAFACP": true
                },
                "BeHit": {
                    "$type": "MEECNDLIOBI",
                    "HKPCLGHBKFD": {
                        "Hit_L": [],
                        "Hit_H": [
                            "Audio_Monster_Eremite_male_Strong_Katar_Rock_Hit_H"
                        ]
                    },
                    "PJFELLIJONH": [
                        "BeHit"
                    ],
                    "ADPGACLPFHN": [
                        "DoSkill"
                    ]
                },
                "BeHitThrow": {
                    "$type": "MEECNDLIOBI",
                    "HKPCLGHBKFD": {
                        "HitThrow": [],
                        "HitThrowDrop": []
                    },
                    "PJFELLIJONH": [
                        "BeHit",
                        "HitAir2HitDrop"
                    ],
                    "ADPGACLPFHN": [
                        "DoSkill",
                        "BeHit"
                    ],
                    "HGDOHKMMGIJ": [
                        {
                            "name": "AirDie"
                        }
                    ]
                },
                "BeHitThrowToStandby": {
                    "$type": "MEECNDLIOBI",
                    "HKPCLGHBKFD": {
                        "HitThrowToGround": [
                            "Audio_Monster_Eremite_male_Strong_Katar_Rock_HitThrowToGround"
                        ]
                    },
                    "PJFELLIJONH": [
                        "BeHit",
                        "HitAir2HitDrop"
                    ],
                    "ADPGACLPFHN": [
                        "DoSkill",
                        "BeHit"
                    ],
                    "HGDOHKMMGIJ": [
                        {
                            "name": "AirDie",
                            "normalizeEnd": 0.6200000047683716
                        }
                    ]
                },
                "Struggle": {
                    "$type": "MEECNDLIOBI",
                    "HKPCLGHBKFD": {
                        "Struggle": []
                    },
                    "PJFELLIJONH": [
                        "BeHit",
                        "HitAir2HitDrop"
                    ],
                    "ADPGACLPFHN": [
                        "DoSkill"
                    ]
                },
                "Die": {
                    "$type": "MEECNDLIOBI",
                    "HKPCLGHBKFD": {
                        "Die1": [
                            "Monster_Eremite_Male_Strong_Katar_Die",
                            "Audio_Monster_Eremite_male_Strong_Katar_Rock_Die"
                        ],
                        "Die2": [
                            "Monster_Eremite_Male_Strong_Katar_Die",
                            "Audio_Monster_Eremite_male_Strong_Katar_Rock_Die"
                        ],
                        "SwimDie_BS": [],
                        "SwimDie": [
                            "Monster_Eremite_SwimDie"
                        ],
                        "SwimDie_AS": []
                    },
                    "PJFELLIJONH": [
                        "DoSkill"
                    ]
                },
                "Die_RagDoll": {
                    "$type": "MEECNDLIOBI",
                    "HKPCLGHBKFD": {
                        "AirDie": [
                            "Monster_Eremite_AirDie"
                        ]
                    },
                    "PJFELLIJONH": [
                        "DoSkill"
                    ]
                },
                "Alert": {
                    "$type": "MEECNDLIOBI",
                    "HKPCLGHBKFD": {
                        "Alert": [
                            "Monster_Eremite_Male_Strong_Katar_Rock_Alert",
                            "Audio_Monster_Eremite_male_Strong_Katar_Rock_Alert"
                        ]
                    },
                    "PAKNCLFMOAC": 0.0,
                    "IMJBMEIKPJN": 20.0,
                    "ADPGACLPFHN": [
                        "BeHit",
                        "DoSkill"
                    ],
                    "EOALJPNBEOI": true
                },
                "SheathWeapon": {
                    "$type": "MEECNDLIOBI",
                    "HKPCLGHBKFD": {
                        "SheathWeapon": [
                            "Monster_Eremite_Male_Strong_Katar_Rock_ReturnToBorn",
                            "Audio_Monster_Eremite_male_Strong_Katar_Rock_SheathWeapon"
                        ]
                    },
                    "PAKNCLFMOAC": 0.0,
                    "IMJBMEIKPJN": 20.0,
                    "PJFELLIJONH": [
                        "SheathWeaponTrigger"
                    ],
                    "ADPGACLPFHN": [
                        "BeHit",
                        "DoSkill",
                        "SheathWeaponTrigger"
                    ]
                },
                "Improve": {
                    "$type": "MEECNDLIOBI",
                    "HKPCLGHBKFD": {
                        "Improve": [
                            "Monster_Eremite_Male_Strong_Katar_Improve",
                            "Audio_Monster_Eremite_male_Strong_Katar_Rock_Improve"
                        ]
                    },
                    "PAKNCLFMOAC": 0.0,
                    "IMJBMEIKPJN": 20.0,
                    "PJFELLIJONH": [
                        "ForceImprove"
                    ],
                    "ADPGACLPFHN": [
                        "BeHit",
                        "DoSkill",
                        "ForceImprove"
                    ]
                },
                "Weak": {
                    "$type": "MEECNDLIOBI",
                    "HKPCLGHBKFD": {
                        "Weak_BS": [
                            "Audio_Monster_Eremite_male_Strong_Katar_Rock_Weak_BS"
                        ],
                        "Weak_AS": [
                            "Audio_Monster_Eremite_male_Strong_Katar_Rock_Weak_AS"
                        ]
                    },
                    "PAKNCLFMOAC": 0.0,
                    "IMJBMEIKPJN": 20.0,
                    "PJFELLIJONH": [
                        "Weak",
                        "Recover"
                    ],
                    "ADPGACLPFHN": [
                        "BeHit",
                        "DoSkill",
                        "Weak",
                        "Recover"
                    ]
                },
                "Control": {
                    "$type": "MEECNDLIOBI",
                    "HKPCLGHBKFD": {
                        "Control": [
                            "Monster_Eremite_Male_Strong_Katar_Rock_Control",
                            "Audio_Monster_Eremite_male_Strong_Katar_Rock_Control"
                        ]
                    },
                    "KNOHBHKACHA": true,
                    "ADPGACLPFHN": [
                        "BeHit",
                        "DoSkill"
                    ],
                    "NPMGEMAFACP": true
                },
                "Rest": {
                    "$type": "MEECNDLIOBI",
                    "HKPCLGHBKFD": {
                        "Rest": []
                    },
                    "KNOHBHKACHA": true,
                    "ADPGACLPFHN": [
                        "BeHit",
                        "DoSkill"
                    ],
                    "NPMGEMAFACP": true
                },
                "NormalAtk01": {
                    "$type": "MEECNDLIOBI",
                    "HKPCLGHBKFD": {
                        "NormalAtk01": [
                            "Monster_Eremite_Male_Strong_Katar_NormalAtk01_BladeMaster2",
                            "Audio_Monster_Eremite_male_Strong_Katar_Rock_NormalAtk01"
                        ]
                    },
                    "PAKNCLFMOAC": 0.0,
                    "IMJBMEIKPJN": 20.0,
                    "ADPGACLPFHN": [
                        "BeHit",
                        "DoSkill"
                    ],
                    "NPMGEMAFACP": true
                },
                "NormalAtk02": {
                    "$type": "MEECNDLIOBI",
                    "HKPCLGHBKFD": {
                        "NormalAtk02": [
                            "Monster_Eremite_Male_Strong_Katar_NormalAtk02_BladeMaster2",
                            "Audio_Monster_Eremite_male_Strong_Katar_Rock_NormalAtk02"
                        ]
                    },
                    "PAKNCLFMOAC": 0.0,
                    "IMJBMEIKPJN": 20.0,
                    "ADPGACLPFHN": [
                        "BeHit",
                        "DoSkill"
                    ],
                    "NPMGEMAFACP": true
                },
                "NormalAtk03_End": {
                    "$type": "MEECNDLIOBI",
                    "HKPCLGHBKFD": {
                        "NormalAtk03_End": [
                            "Monster_Eremite_Male_Strong_Katar_Rock_NormalAtk03_End",
                            "Audio_Monster_Eremite_male_Strong_Katar_Rock_NormalAtk03_End"
                        ]
                    },
                    "PAKNCLFMOAC": 0.0,
                    "IMJBMEIKPJN": 20.0,
                    "ADPGACLPFHN": [
                        "BeHit",
                        "DoSkill"
                    ],
                    "NPMGEMAFACP": true
                },
                "NormalAtk03": {
                    "$type": "MEECNDLIOBI",
                    "HKPCLGHBKFD": {
                        "NormalAtk03": [
                            "Monster_Eremite_Male_Strong_Katar_RockBomb",
                            "Audio_Monster_Eremite_male_Strong_Katar_Rock_NormalAtk03"
                        ]
                    },
                    "PAKNCLFMOAC": 0.0,
                    "IMJBMEIKPJN": 20.0,
                    "ADPGACLPFHN": [
                        "BeHit",
                        "DoSkill"
                    ],
                    "NPMGEMAFACP": true
                },
                "DefendAttack_BS": {
                    "$type": "MEECNDLIOBI",
                    "HKPCLGHBKFD": {
                        "DefendAttack_BS": [
                            "Monster_Eremite_Male_Strong_Katar_MeleeAtk01_BS_BladeMaster2",
                            "Monster_Eremite_Male_Strong_Katar_SPAtk_Hint",
                            "Audio_Monster_Eremite_male_Strong_Katar_Rock_MeleeAttack01_BS"
                        ]
                    },
                    "PAKNCLFMOAC": 0.0,
                    "IMJBMEIKPJN": 20.0,
                    "ADPGACLPFHN": [
                        "BeHit",
                        "DoSkill"
                    ],
                    "NPMGEMAFACP": true
                },
                "DefendAttack_Middle": {
                    "$type": "MEECNDLIOBI",
                    "HKPCLGHBKFD": {
                        "DefendAttack_Middle": [
                            "Monster_Eremite_Male_Strong_Katar_MeleeAtk01_Loop"
                        ]
                    },
                    "PAKNCLFMOAC": 0.0,
                    "IMJBMEIKPJN": 20.0,
                    "ADPGACLPFHN": [
                        "BeHit",
                        "DoSkill"
                    ]
                },
                "DefendAttack_AS": {
                    "$type": "MEECNDLIOBI",
                    "HKPCLGHBKFD": {
                        "DefendAttack_AS": [
                            "Monster_Eremite_Male_Strong_Katar_MeleeAtk01_AS",
                            "Audio_Monster_Eremite_male_Strong_Katar_Rock_MeleeAttack01_AS"
                        ]
                    },
                    "PAKNCLFMOAC": 0.0,
                    "IMJBMEIKPJN": 20.0,
                    "ADPGACLPFHN": [
                        "BeHit",
                        "DoSkill"
                    ]
                },
                "ImproveNormalAtk01": {
                    "$type": "MEECNDLIOBI",
                    "HKPCLGHBKFD": {
                        "ImproveNormalAtk01": [
                            "Monster_Eremite_Male_Strong_Katar_ImproveNormalAtk01",
                            "Audio_Monster_Eremite_male_Strong_Katar_Rock_NormalAtk01"
                        ]
                    },
                    "PAKNCLFMOAC": 0.0,
                    "ADPGACLPFHN": [
                        "BeHit",
                        "DoSkill"
                    ],
                    "NPMGEMAFACP": true
                },
                "ImproveNormalAtk02": {
                    "$type": "MEECNDLIOBI",
                    "HKPCLGHBKFD": {
                        "ImproveNormalAtk02": [
                            "Monster_Eremite_Male_Strong_Katar_ImproveNormalAtk02",
                            "Audio_Monster_Eremite_male_Strong_Katar_Rock_NormalAtk02"
                        ]
                    },
                    "ADPGACLPFHN": [
                        "BeHit",
                        "DoSkill"
                    ],
                    "NPMGEMAFACP": true
                },
                "MeleeAttack01_BS": {
                    "$type": "MEECNDLIOBI",
                    "HKPCLGHBKFD": {
                        "MeleeAttack01_BS": [
                            "Monster_Eremite_Male_Strong_Katar_MeleeAtk01_BS",
                            "Audio_Monster_Eremite_male_Strong_Katar_Rock_MeleeAttack01_BS"
                        ]
                    },
                    "PAKNCLFMOAC": 0.0,
                    "ADPGACLPFHN": [
                        "BeHit",
                        "DoSkill"
                    ],
                    "NPMGEMAFACP": true
                },
                "MeleeAttack01_Loop": {
                    "$type": "MEECNDLIOBI",
                    "HKPCLGHBKFD": {
                        "MeleeAttack01_Loop": [
                            "Monster_Eremite_Male_Strong_Katar_MeleeAtk01_Loop"
                        ]
                    },
                    "PAKNCLFMOAC": 0.0,
                    "ADPGACLPFHN": [
                        "BeHit",
                        "DoSkill"
                    ],
                    "NPMGEMAFACP": true
                },
                "MeleeAttack01_AS": {
                    "$type": "MEECNDLIOBI",
                    "HKPCLGHBKFD": {
                        "MeleeAttack01_AS": [
                            "Monster_Eremite_Male_Strong_Katar_MeleeAtk01_AS",
                            "Audio_Monster_Eremite_male_Strong_Katar_Rock_MeleeAttack01_AS"
                        ]
                    },
                    "PAKNCLFMOAC": 0.0,
                    "ADPGACLPFHN": [
                        "BeHit",
                        "DoSkill"
                    ],
                    "NPMGEMAFACP": true
                },
                "SlamAttack01": {
                    "$type": "MEECNDLIOBI",
                    "HKPCLGHBKFD": {
                        "SlamAttack01": [
                            "Monster_Eremite_Male_Strong_Katar_SlamAttack01",
                            "Audio_Monster_Eremite_male_Strong_Katar_Rock_SlamAttack01"
                        ]
                    },
                    "PAKNCLFMOAC": 0.0,
                    "IMJBMEIKPJN": 20.0,
                    "ADPGACLPFHN": [
                        "BeHit",
                        "DoSkill"
                    ],
                    "NPMGEMAFACP": true
                },
                "DefendBS": {
                    "$type": "MEECNDLIOBI",
                    "HKPCLGHBKFD": {
                        "DefendBS": [
                            "Monster_Eremite_Male_Strong_Katar_Rock_DefendBS",
                            "Audio_Monster_Eremite_male_Strong_Katar_Rock_DefendBS"
                        ]
                    },
                    "PAKNCLFMOAC": 0.0,
                    "ADPGACLPFHN": [
                        "BeHit",
                        "DoSkill",
                        "DefendHit"
                    ],
                    "NPMGEMAFACP": true
                },
                "DefendLoop": {
                    "$type": "MEECNDLIOBI",
                    "HKPCLGHBKFD": {
                        "DefendLoop": []
                    },
                    "ADPGACLPFHN": [
                        "DoSkill",
                        "DefendHit",
                        "DefendBreak"
                    ],
                    "NPMGEMAFACP": true
                },
                "DefendHit": {
                    "$type": "MEECNDLIOBI",
                    "HKPCLGHBKFD": {
                        "DefendHit": [
                            "Audio_Monster_Eremite_male_Strong_Katar_Rock_DefendHit"
                        ]
                    },
                    "PJFELLIJONH": [
                        "DefendHit"
                    ],
                    "ADPGACLPFHN": [
                        "DefendBreak"
                    ],
                    "NPMGEMAFACP": true
                },
                "DefendAS": {
                    "$type": "MEECNDLIOBI",
                    "HKPCLGHBKFD": {
                        "DefendAS": [
                            "Audio_Monster_Eremite_male_Strong_Katar_Rock_DefendAS"
                        ]
                    },
                    "ADPGACLPFHN": [
                        "BeHit",
                        "DoSkill"
                    ],
                    "NPMGEMAFACP": true
                },
                "Break": {
                    "$type": "MEECNDLIOBI",
                    "HKPCLGHBKFD": {
                        "DefendBreak": [
                            "Audio_Monster_Eremite_male_Strong_Katar_Rock_DefendBreak"
                        ]
                    },
                    "PJFELLIJONH": [
                        "DefendBreak"
                    ],
                    "ADPGACLPFHN": [
                        "DoSkill"
                    ]
                }
            }
        }
    },
    "billboard": {
        "$type": "HFEGKLAIGGI",
        "IIKEHINGEME": "BillboardAttach",
        "offset": {
            "x": -0.3499999940395355
        },
        "GEKOGJAPMMH": "Character",
        "DMHOOGGGDKG": true,
        "size": "Big"
    },
    "initialPoses": {
        "Default": {}
    },
    "aibeta": {
        "enable": true,
        "moveSetting": {
            "navMeshAgentName": "Undead01",
            "almostReachedDistanceRun": 1.5
        },
        "aiCombat": {
            "combatRole": "FIGHTER"
        },
        "sensing": {
            "settings": {
                "DefaultSetting": {
                    "viewRange": 50.0,
                    "feelRange": 50.0
                },
                "HighAlert": {
                    "viewRange": 40.0,
                    "feelRange": 10.0
                },
                "LowAlert": {
                    "viewRange": 15.0,
                    "feelRange": 6.0
                },
                "NeverCombat": {
                    "enableVision": false,
                    "hearAttractionRange": 0.0,
                    "feelRange": 0.0
                }
            },
            "templates": {
                "DefaultTemplate": {
                    "DefaultPoses": "DefaultSetting"
                },
                "NeverCombatTemplate": {
                    "DefaultPoses": "NeverCombat"
                },
                "HighAlert": {
                    "DefaultPoses": "HighAlert"
                },
                "LowAlert": {
                    "DefaultPoses": "LowAlert"
                }
            }
        },
        "neurons": {
            "DefaultSetting": [
                "HIT"
            ],
            "NeverCombat": []
        },
        "threat": {
            "clearThreatTargetDistance": 100.0,
            "clearThreatEdgeDistance": 3.5,
            "clearThreatTimerByDistance": 1.75,
            "viewThreatGrow": 300.0,
            "feelThreatGrow": 300.0,
            "threatDecreaseSpeed": 10.0,
            "viewAttenuation": [
                {
                    "x": 10.0,
                    "y": 2.0
                },
                {
                    "x": 15.0,
                    "y": 0.800000011920929
                },
                {
                    "x": 20.0,
                    "y": 0.5
                },
                {
                    "x": 25.0,
                    "y": 0.30000001192092896
                },
                {
                    "x": 30.0,
                    "y": 0.20000000298023224
                }
            ],
            "resistTauntLevel": "Monster_TauntLevel_3"
        },
        "defendArea": {
            "defendRange": 100.0
        },
        "profiling": {},
        "network": {
            "syncSkill": true
        },
        "skillGroupCDConfigs": [
            {
                "skillGroupCDID": 1,
                "skillGroupCDTime": 1.0
            },
            {
                "skillGroupCDID": 2,
                "skillGroupCDTime": 2.0
            },
            {
                "skillGroupCDID": 3,
                "skillGroupCDTime": 3.0
            },
            {
                "skillGroupCDID": 4,
                "skillGroupCDTime": 25.0
            }
        ],
        "skillSetting": {
            "skillEliteSet": {
                "1": [
                    301
                ],
                "2": [
                    301
                ],
                "3": [
                    211,
                    302
                ]
            }
        },
        "skills": {
            "101": {
                "name": "OnAlert",
                "skillType": "OnAlert",
                "publicCDGroup": "",
                "ignoreGCD": true,
                "triggerGCD": false,
                "CLEPNIDJOLN": "",
                "stateIDs": [
                    "Alert"
                ],
                "skillQueryingTime": 3.0,
                "flagTargetReachable": "10",
                "flagSelfOnTemplateCollider": "01",
                "flagSelfInZone": "10",
                "flagTargetInZone": "11"
            },
            "201": {
                "name": "NormalAtk",
                "castCondition": {
                    "pose": [
                        101
                    ],
                    "pickRangeMax": 8.0
                },
                "cd": 6.0,
                "cdUpperRange": 2.0,
                "publicCDGroup": "",
                "ignoreGCD": true,
                "skillGroupCDID": 3,
                "CLEPNIDJOLN": "",
                "stateIDs": [
                    "NormalAtk01",
                    "NormalAtk02",
                    "NormalAtk03_End"
                ],
                "flagTargetReachable": "10",
                "flagSelfOnTemplateCollider": "01",
                "flagSelfInZone": "11",
                "flagTargetInZone": "11"
            },
            "202": {
                "name": "NormalAtk03",
                "castCondition": {
                    "pose": [
                        101,
                        201,
                        102
                    ],
                    "pickRangeMax": 20.0
                },
                "cd": 10.0,
                "cdUpperRange": 2.0,
                "publicCDGroup": "",
                "skillGroupCDID": 3,
                "CLEPNIDJOLN": "",
                "stateIDs": [
                    "NormalAtk03"
                ],
                "flagTargetReachable": "11",
                "flagSelfOnTemplateCollider": "01",
                "flagSelfInZone": "11",
                "flagTargetInZone": "11"
            },
            "211": {
                "name": "SlamAttack01",
                "priority": 2,
                "castCondition": {
                    "pose": [
                        101
                    ],
                    "pickRangeMax": 15.0,
                    "castRangeMax": 15.0
                },
                "cd": 10.0,
                "cdUpperRange": 2.0,
                "initialCD": 5.0,
                "initialCDUpperRange": 2.0,
                "publicCDGroup": "",
                "CLEPNIDJOLN": "",
                "stateIDs": [
                    "SlamAttack01"
                ],
                "flagTargetReachable": "11",
                "flagSelfOnTemplateCollider": "01",
                "flagSelfInZone": "11",
                "flagTargetInZone": "11"
            }
        },
        "skillGCD": 2.5,
        "combatFixedMoveTactic": [
            {
                "$type": "KIMPOLMEFNK",
                "enable": true,
                "EGJMGEHLDOL": {
                    "pose": [
                        101,
                        201,
                        102
                    ]
                },
                "NGIEOIGFFDH": {
                    "rangeMax": 15.0,
                    "DDDDMJLFJNG": 1.2000000476837158,
                    "EBEKKNCJBLL": 1.0,
                    "ODLFCBFIAEG": {
                        "ACLMEMJMCHO": 2.0,
                        "MKGIHLDDOPO": 6.0,
                        "AIMKHLAPJGH": 0.5,
                        "LJGPLFGCHJM": 3.0,
                        "ODFJMMCNEHI": 3.0
                    },
                    "EOBOHLNDGNC": "1111",
                    "JFAHEKLBENF": "1111",
                    "FCFLCFFJKLO": ""
                },
                "LKIMAMPDDDI": {
                    "201": {
                        "rangeMin": 0.0,
                        "rangeMax": 20.0,
                        "FIEBJKLPGNF": 1.5,
                        "DDDDMJLFJNG": 1.2000000476837158,
                        "EBEKKNCJBLL": 1.0,
                        "ODLFCBFIAEG": {
                            "ACLMEMJMCHO": 0.0,
                            "MKGIHLDDOPO": 0.5,
                            "AIMKHLAPJGH": 3.0,
                            "LJGPLFGCHJM": 3.0,
                            "ODFJMMCNEHI": 3.0
                        },
                        "EOBOHLNDGNC": "1111",
                        "JFAHEKLBENF": "1111",
                        "FCFLCFFJKLO": ""
                    },
                    "102": {
                        "rangeMin": 0.0,
                        "rangeMax": 20.0,
                        "FIEBJKLPGNF": 1.5,
                        "DDDDMJLFJNG": 1.2000000476837158,
                        "EBEKKNCJBLL": 1.0,
                        "ODLFCBFIAEG": {
                            "ACLMEMJMCHO": 0.0,
                            "MKGIHLDDOPO": 0.5,
                            "AIMKHLAPJGH": 3.0,
                            "LJGPLFGCHJM": 3.0,
                            "ODFJMMCNEHI": 3.0
                        },
                        "EOBOHLNDGNC": "1111",
                        "JFAHEKLBENF": "1111",
                        "FCFLCFFJKLO": ""
                    }
                }
            },
            {
                "$type": "HLPBLIEBJLM",
                "enable": true,
                "EGJMGEHLDOL": {
                    "pose": [
                        101,
                        201
                    ]
                },
                "NGIEOIGFFDH": {
                    "NHPKGHAHIFA": 1,
                    "GPKNKJPPCOM": 8.0,
                    "NDCHJGOOLCF": 99.0,
                    "FDNLEPNLLBP": 4.0,
                    "DANCMNIMNAM": 0.0,
                    "FCFLCFFJKLO": ""
                },
                "LKIMAMPDDDI": {
                    "201": {
                        "NHPKGHAHIFA": 1,
                        "NDCHJGOOLCF": 99.0,
                        "FDNLEPNLLBP": 20.0,
                        "DANCMNIMNAM": 0.0,
                        "FCFLCFFJKLO": ""
                    }
                }
            },
            {
                "$type": "GJGILIGEJMO",
                "enable": true,
                "NGIEOIGFFDH": {
                    "NHPKGHAHIFA": 1,
                    "FCFLCFFJKLO": "",
                    "BKCOJDIDEGN": ""
                }
            },
            {
                "$type": "IKIHDEMELGB",
                "EGJMGEHLDOL": {
                    "pose": [
                        1
                    ]
                },
                "NGIEOIGFFDH": {
                    "MONCHHKIDKL": 1.0,
                    "HOKGJAONGHG": 5.0,
                    "GJOBDMEBGLM": 2.5,
                    "KDLAOJIPGHP": 15.0,
                    "OEFFOIEOJNC": 4.0,
                    "HAHMEDHEBKE": 6.0,
                    "FCFLCFFJKLO": ""
                }
            }
        ]
    },
    "inputKeys": [
        {
            "keyID": 201,
            "inputKeyCode": 257,
            "abilityName": ""
        },
        {
            "keyID": 202,
            "inputKeyCode": 258,
            "abilityName": ""
        },
        {
            "keyID": 211,
            "inputKeyCode": 259,
            "abilityName": ""
        },
        {
            "keyID": 221,
            "inputKeyCode": 260,
            "abilityName": ""
        },
        {
            "keyID": 9001,
            "inputKeyCode": 261,
            "abilityName": ""
        },
        {
            "keyID": 301,
            "inputKeyCode": 262,
            "abilityName": ""
        },
        {
            "keyID": 311,
            "inputKeyCode": 263,
            "abilityName": ""
        },
        {
            "keyID": 312,
            "inputKeyCode": 264,
            "abilityName": ""
        },
        {
            "keyID": 401,
            "inputKeyCode": 265,
            "abilityName": ""
        }
    ],
    "move": {
        "$type": "JKDLANFKJIL",
        "ADKJOFPNHNO": "FourDirection",
        "LDHGAEIKIEE": "StoopType",
        "OPALOODMBJP": true,
        "LPAKBBIADNC": "RootNode"
    },
    "audio": {
        "LKJIHNLBIJL": "",
        "animAudio": {
            "onTransitionIn": [
                {
                    "currentStateName": "MeleeAttack01_Loop",
                    "audioEvent": {
                        "text": "Play_sfx_monster_Eremite_male_Strong_Katar_Rock_meleeAttack01_Loop"
                    },
                    "otherStateNames": [
                        "MeleeAttack01_Loop"
                    ],
                    "usage": "Except"
                },
                {
                    "currentStateName": "DefendAttack_Middle",
                    "audioEvent": {
                        "text": "Play_sfx_monster_Eremite_male_Strong_Katar_Rock_meleeAttack01_Loop"
                    },
                    "otherStateNames": [
                        "DefendAttack_Middle"
                    ],
                    "usage": "Except"
                }
            ],
            "onTransitionOut": [
                {
                    "currentStateName": "MeleeAttack01_Loop",
                    "audioEvent": {
                        "text": "Stop_sfx_monster_Eremite_male_Strong_Katar_Rock_meleeAttack01_Loop"
                    },
                    "otherStateNames": [
                        "MeleeAttack01_Loop"
                    ],
                    "usage": "Except"
                },
                {
                    "currentStateName": "DefendAttack_Middle",
                    "audioEvent": {
                        "text": "Stop_sfx_monster_Eremite_male_Strong_Katar_Rock_meleeAttack01_Loop"
                    },
                    "otherStateNames": [
                        "DefendAttack_Middle"
                    ],
                    "usage": "Except"
                },
                {
                    "currentStateName": "Control",
                    "audioEvent": {
                        "text": "Stop_sfx_monster_Eremite_male_Strong_Katar_Rock_control"
                    },
                    "otherStateNames": [
                        "Control"
                    ]
                }
            ]
        }
    }
}