{
    "common": {
        "effectAttachShape": {
            "$type": "CMIPFEGOJCH",
            "EJAEFCDBDFB": "EffectMesh"
        },
        "mass": 850.0,
        "height": 1.5,
        "modelHeight": 1.649999976158142,
        "affectedByWorld": true,
        "checkInSurface": true,
        "useGrassDisplacement": true,
        "clearAnimatorOnSetLightDeactive": true,
        "clearAIOnSetLightDeactive": true
    },
    "headControl": {
        "$type": "HLGPLMCNIFB",
        "useHeadControl": true,
        "BADCMJGBCHM": 75.0,
        "AIOGIMNHIGK": 30.0,
        "GDIAFJFLHCE": [
            "NormalIdle/Standby",
            "NormalMove/WalkForward",
            "NormalMove/WalkBack",
            "NormalMove/WalkRight",
            "NormalMove/WalkLeft",
            "NormalMove/Run",
            "Turn/TurnLeft",
            "Turn/TurnRight"
        ]
    },
    "model": {
        "bornEffect": "Eff_Monster_Common_Born",
        "attachEffect": ""
    },
    "dither": {
        "showDitherDuration": 1.0
    },
    "combat": {
        "property": {
            "endureType": "Monster_Minion",
            "weight": 70.0
        },
        "beHit": {
            "hitBloodEffect": ""
        },
        "combatLock": {
            "lockShape": "CircleLockEnemy",
            "lockType": "Avatar&Monster_Lv4"
        },
        "die": {
            "hasAnimatorDie": true,
            "dieEndTime": 4.0,
            "dieForceDisappearTime": 15.0,
            "dieDisappearEffect": "",
            "useRagDoll": true,
            "ragDollDieEndTimeDelay": 15.0,
            "LDOHFFOEPPI": true,
            "BMOKGIFNILM": true,
            "PHCLLDNDFNG": true,
            "CHBAHMJGJBE": true,
            "OPPHENIKFJA": true,
            "CCNGAIMLPIJ": true
        },
        "animEvents": {
            "NormalAtk": {
                "attackPattern": {
                    "$type": "HBFCINNBDFD",
                    "triggerType": "TriggerNoRepeat",
                    "born": {
                        "$type": "KDEPFKAAHCG",
                        "offset": {
                            "HMHIOILIGBF": 0.0,
                            "DPPJGBOHAAL": 0.0,
                            "DDOAGBLBCEF": 0.30000001192092896
                        }
                    },
                    "NPLOANBGDOK": 90.0,
                    "DFMMIGEMOHH": 1.75
                },
                "attackInfo": {
                    "attackTag": "",
                    "attenuationTag": "",
                    "attenuationGroup": "default",
                    "attackProperty": {
                        "PCFAAPMOCGJ": 1.0,
                        "LCCBNOKMNFG": 0.0,
                        "bonusCritical": 100.0,
                        "strikeType": "Slash",
                        "enBreak": 100.0,
                        "attackType": "Melee",
                        "FKGFPFNOJMN": 0.0
                    },
                    "hitPattern": {
                        "onHitEffectName": "default",
                        "hitImpulseType": "LV3",
                        "hitHaltTimeScale": 0.009999999776482582
                    }
                }
            },
            "TripleAtk01": {
                "attackPattern": {
                    "$type": "HBFCINNBDFD",
                    "triggerType": "TriggerNoRepeat",
                    "born": {
                        "$type": "KDEPFKAAHCG",
                        "offset": {
                            "HMHIOILIGBF": 0.0,
                            "DPPJGBOHAAL": 0.0,
                            "DDOAGBLBCEF": 0.0
                        }
                    },
                    "NPLOANBGDOK": 100.0,
                    "DFMMIGEMOHH": 2.0
                },
                "attackInfo": {
                    "attackTag": "",
                    "attenuationTag": "",
                    "attenuationGroup": "default",
                    "attackProperty": {
                        "PCFAAPMOCGJ": 0.5,
                        "LCCBNOKMNFG": 0.0,
                        "bonusCritical": 100.0,
                        "strikeType": "Slash",
                        "enBreak": 100.0,
                        "attackType": "Melee",
                        "FKGFPFNOJMN": 0.0
                    },
                    "hitPattern": {
                        "onHitEffectName": "default",
                        "hitImpulseType": "LV3"
                    }
                }
            },
            "TripleAtk02": {
                "attackPattern": {
                    "$type": "HBFCINNBDFD",
                    "triggerType": "TriggerNoRepeat",
                    "born": {
                        "$type": "KDEPFKAAHCG",
                        "offset": {
                            "HMHIOILIGBF": 0.0,
                            "DPPJGBOHAAL": 0.0,
                            "DDOAGBLBCEF": 0.5
                        }
                    },
                    "NPLOANBGDOK": 90.0,
                    "DFMMIGEMOHH": 2.0
                },
                "attackInfo": {
                    "attackTag": "",
                    "attenuationTag": "",
                    "attenuationGroup": "default",
                    "attackProperty": {
                        "PCFAAPMOCGJ": 0.5,
                        "LCCBNOKMNFG": 0.0,
                        "bonusCritical": 100.0,
                        "strikeType": "Slash",
                        "enBreak": 100.0,
                        "attackType": "Melee",
                        "FKGFPFNOJMN": 0.0
                    },
                    "hitPattern": {
                        "onHitEffectName": "default",
                        "hitImpulseType": "LV3"
                    }
                }
            },
            "TripleAtk03": {
                "attackPattern": {
                    "$type": "HBFCINNBDFD",
                    "triggerType": "TriggerNoRepeat",
                    "born": {
                        "$type": "KDEPFKAAHCG",
                        "offset": {
                            "HMHIOILIGBF": 0.0,
                            "DPPJGBOHAAL": 0.0,
                            "DDOAGBLBCEF": 0.5
                        }
                    },
                    "NPLOANBGDOK": 75.0,
                    "DFMMIGEMOHH": 2.0
                },
                "attackInfo": {
                    "attackTag": "",
                    "attenuationTag": "",
                    "attenuationGroup": "default",
                    "attackProperty": {
                        "PCFAAPMOCGJ": 0.75,
                        "LCCBNOKMNFG": 0.0,
                        "bonusCritical": 100.0,
                        "strikeType": "Slash",
                        "enBreak": 200.0,
                        "attackType": "Melee",
                        "FKGFPFNOJMN": 0.0
                    },
                    "hitPattern": {
                        "onHitEffectName": "default",
                        "hitImpulseType": "LV4"
                    },
                    "cameraShake": {
                        "shakeType": "HitVector",
                        "shakeRange": 0.03999999910593033,
                        "shakeTime": 0.09000000357627869,
                        "shakeDir": {
                            "y": -1.0
                        }
                    }
                }
            },
            "JumpAtk01": {
                "attackPattern": {
                    "$type": "HBFCINNBDFD",
                    "triggerType": "TriggerNoRepeat",
                    "born": {
                        "$type": "KDEPFKAAHCG",
                        "offset": {
                            "HMHIOILIGBF": 0.0,
                            "DPPJGBOHAAL": 0.0,
                            "DDOAGBLBCEF": 0.5
                        }
                    },
                    "NPLOANBGDOK": 75.0,
                    "DFMMIGEMOHH": 1.75
                },
                "attackInfo": {
                    "attackTag": "",
                    "attenuationTag": "",
                    "attenuationGroup": "default",
                    "attackProperty": {
                        "PCFAAPMOCGJ": 0.75,
                        "LCCBNOKMNFG": 0.0,
                        "bonusCritical": 100.0,
                        "strikeType": "Slash",
                        "enBreak": 200.0,
                        "attackType": "Melee",
                        "FKGFPFNOJMN": 0.0
                    },
                    "hitPattern": {
                        "onHitEffectName": "default",
                        "hitImpulseType": "LV5"
                    },
                    "cameraShake": {
                        "shakeType": "HitVector",
                        "shakeRange": 0.05999999865889549,
                        "shakeTime": 0.09000000357627869,
                        "shakeDir": {
                            "y": -1.0
                        }
                    }
                }
            }
        }
    },
    "equipController": {
        "sheathPoint": "",
        "attachPoints": {
            "equip01": "WeaponR",
            "equip02": "WeaponL"
        }
    },
    "abilities": [
        {
            "abilityID": "SteerAttack",
            "abilityName": "Thoarder_Female_Hatchet_Anego_SteerAttack",
            "abilityOverride": ""
        },
        {
            "abilityID": "Throw",
            "abilityName": "Thoarder_Female_Hatchet_Anego_Throw",
            "abilityOverride": ""
        },
        {
            "abilityID": "Throw_Effect",
            "abilityName": "Thoarder_Female_Hatchet_Anego_Throw_Effect",
            "abilityOverride": ""
        },
        {
            "abilityID": "JumpAttack_RushMove01",
            "abilityName": "Thoarder_Female_Hatchet_Anego_JumpAttack_RushMove01",
            "abilityOverride": ""
        },
        {
            "abilityID": "JumpAttack_RushMove02",
            "abilityName": "Thoarder_Female_Hatchet_Anego_JumpAttack_RushMove02",
            "abilityOverride": ""
        },
        {
            "abilityID": "NormalAtk_RushMove02",
            "abilityName": "Thoarder_Female_Hatchet_Anego_NormalAtk_RushMove01",
            "abilityOverride": ""
        },
        {
            "abilityID": "Order",
            "abilityName": "Thoarder_Female_Hatchet_Anego_Order",
            "abilityOverride": ""
        },
        {
            "abilityID": "ActivitySkill",
            "abilityName": "Thoarder_Female_Hatchet_Anego_ActivitySkill",
            "abilityOverride": ""
        },
        {
            "abilityID": "WeaponOnBack",
            "abilityName": "Thoarder_WeaponOnBack",
            "abilityOverride": ""
        },
        {
            "abilityID": "Axe_StateHolder",
            "abilityName": "Axe_StateHolder",
            "abilityOverride": ""
        },
        {
            "abilityID": "ReturnToBorn",
            "abilityName": "Thoarder_ReturnToBorn",
            "abilityOverride": ""
        },
        {
            "abilityID": "SmokeBombInHandR_Start",
            "abilityName": "Thoarder_Die_SmokeBombInHandR_Start",
            "abilityOverride": ""
        },
        {
            "abilityID": "SmokeBombEffect_End",
            "abilityName": "Thoarder_Die_SmokeBombEffect_End",
            "abilityOverride": ""
        },
        {
            "abilityID": "SteerMove",
            "abilityName": "Thoarder_SteerMove",
            "abilityOverride": ""
        },
        {
            "abilityID": "EndureModifier",
            "abilityName": "Thoarder_EndureModifier",
            "abilityOverride": ""
        }
    ],
    "stateLayers": {
        "defaultLayer": {
            "$type": "KFHJINNNDPN",
            "BOPIBFKFKCA": "",
            "stateIDs": {
                "NormalIdle": {
                    "$type": "MEECNDLIOBI",
                    "HKPCLGHBKFD": {
                        "Standby": [],
                        "Born": []
                    },
                    "KNOHBHKACHA": true,
                    "BAABNFCMKIO": true,
                    "ADPGACLPFHN": [
                        "DoSkill"
                    ]
                },
                "NormalMove": {
                    "$type": "MEECNDLIOBI",
                    "HKPCLGHBKFD": {
                        "WalkForward": [
                            "Audio_Monster_Thoarder_BlackRacoon_Hatchet_02_Walk"
                        ],
                        "WalkBack": [
                            "Audio_Monster_Thoarder_BlackRacoon_Hatchet_02_Walk"
                        ],
                        "WalkRight": [
                            "Audio_Monster_Thoarder_BlackRacoon_Hatchet_02_Walk"
                        ],
                        "WalkLeft": [
                            "Audio_Monster_Thoarder_BlackRacoon_Hatchet_02_Walk"
                        ],
                        "Run": [
                            "Audio_Monster_Thoarder_BlackRacoon_Hatchet_02_Run"
                        ]
                    },
                    "KNOHBHKACHA": true,
                    "BAABNFCMKIO": true,
                    "ADPGACLPFHN": [
                        "DoSkill"
                    ],
                    "NPMGEMAFACP": true
                },
                "Turn": {
                    "$type": "MEECNDLIOBI",
                    "HKPCLGHBKFD": {
                        "TurnLeft": [
                            "Audio_Monster_Thoarder_BlackRacoon_Hatchet_02_Walk"
                        ],
                        "TurnRight": [
                            "Audio_Monster_Thoarder_BlackRacoon_Hatchet_02_Walk"
                        ]
                    },
                    "KNOHBHKACHA": true,
                    "BAABNFCMKIO": true,
                    "ADPGACLPFHN": [
                        "DoSkill"
                    ],
                    "NPMGEMAFACP": true
                },
                "BeHit": {
                    "$type": "MEECNDLIOBI",
                    "HKPCLGHBKFD": {
                        "Hit_L": [
                            "Audio_Monster_Thoarder_BlackRacoon_Hatchet_02_Hit_L"
                        ],
                        "Hit_H": [
                            "Audio_Monster_Thoarder_BlackRacoon_Hatchet_02_Hit_H"
                        ],
                        "DHit": []
                    },
                    "PJFELLIJONH": [
                        "BeHit"
                    ],
                    "ADPGACLPFHN": [
                        "DoSkill",
                        "DodgeTrigger"
                    ]
                },
                "BeHitThrow": {
                    "$type": "MEECNDLIOBI",
                    "HKPCLGHBKFD": {
                        "HitThrow": [
                            "Audio_Monster_Thoarder_BlackRacoon_Hatchet_02_HitThrow"
                        ],
                        "HitThrowDrop": [],
                        "HitThrowToGround": [
                            "Audio_Monster_Thoarder_BlackRacoon_Hatchet_02_HitThrowToGround"
                        ]
                    },
                    "PJFELLIJONH": [
                        "BeHit",
                        "HitAir2HitDrop"
                    ],
                    "ADPGACLPFHN": [
                        "DoSkill"
                    ]
                },
                "Struggle": {
                    "$type": "MEECNDLIOBI",
                    "HKPCLGHBKFD": {
                        "Struggle": []
                    },
                    "PJFELLIJONH": [
                        "BeHit",
                        "HitAir2HitDrop"
                    ],
                    "ADPGACLPFHN": [
                        "DoSkill"
                    ]
                },
                "Die": {
                    "$type": "MEECNDLIOBI",
                    "HKPCLGHBKFD": {
                        "Die1": [
                            "Monster_Thoarder_Female_Hatchet_Die",
                            "Audio_Monster_Thoarder_BlackRacoon_Hatchet_02_Die"
                        ],
                        "Die2": [
                            "Monster_Thoarder_Female_Hatchet_Die",
                            "Audio_Monster_Thoarder_BlackRacoon_Hatchet_02_Die"
                        ],
                        "SwimDie": [
                            "Audio_Monster_Thoarder_NoWeapon_SwimDie"
                        ],
                        "SwimDie_AS": [
                            "Monster_Thoarder_Common_SwimDie",
                            "Audio_Monster_Thoarder_NoWeapon_SwimDie"
                        ]
                    }
                },
                "Die_RagDoll": {
                    "$type": "MEECNDLIOBI",
                    "HKPCLGHBKFD": {
                        "AirDie": [
                            "Monster_Thoarder_Common_AirDie"
                        ]
                    },
                    "CKHCPGMBKGA": true
                },
                "Life_Alert": {
                    "$type": "MEECNDLIOBI",
                    "HKPCLGHBKFD": {
                        "Alert": [
                            "Audio_Monster_Thoarder_Hatchet_Alert"
                        ]
                    },
                    "ADPGACLPFHN": [
                        "BeHit",
                        "DoSkill"
                    ]
                },
                "Life_Warning": {
                    "$type": "MEECNDLIOBI",
                    "HKPCLGHBKFD": {
                        "Warning": [
                            "Monster_Undead01_Warning",
                            "Monster_Thoarder_DrawWeapon",
                            "Audio_Monster_Thoarder_BlackRacoon_Hatchet_02_Alert"
                        ]
                    },
                    "ADPGACLPFHN": [
                        "BeHit",
                        "DoSkill"
                    ]
                },
                "NormalAtk": {
                    "$type": "MEECNDLIOBI",
                    "HKPCLGHBKFD": {
                        "NormalAtk": [
                            "Monster_Thoarder_Female_Hatchet_Anego_NormalAtk",
                            "Audio_Monster_Thoarder_BlackRacoon_Hatchet_02_NormalAtk"
                        ]
                    },
                    "ADPGACLPFHN": [
                        "BeHit",
                        "DoSkill",
                        "FirecrackerHit"
                    ]
                },
                "TripleAttack": {
                    "$type": "MEECNDLIOBI",
                    "HKPCLGHBKFD": {
                        "TripleAttack": [
                            "Monster_Thoarder_Female_Hatchet_Anego_TripleAttack",
                            "Audio_Monster_Thoarder_BlackRacoon_Hatchet_02_TripleAttack"
                        ]
                    },
                    "PAKNCLFMOAC": 0.6000000238418579,
                    "ADPGACLPFHN": [
                        "BeHit",
                        "DoSkill",
                        "FirecrackerHit"
                    ]
                },
                "JumpAttack": {
                    "$type": "MEECNDLIOBI",
                    "HKPCLGHBKFD": {
                        "JumpAttack_BS": [
                            "Monster_Thoarder_Female_Hatchet_Anego_JumpAttack"
                        ],
                        "JumpAttack_Halt": [
                            "Monster_Thoarder_Female_Hatchet_Anego_JumpAttack"
                        ],
                        "JumpAttack": [
                            "Monster_Thoarder_Female_Hatchet_Anego_JumpAttack",
                            "Audio_Monster_Thoarder_BlackRacoon_Hatchet_02_JumpAttack"
                        ]
                    },
                    "PAKNCLFMOAC": 0.6000000238418579,
                    "ADPGACLPFHN": [
                        "BeHit",
                        "DoSkill",
                        "FirecrackerHit"
                    ]
                },
                "Throw": {
                    "$type": "MEECNDLIOBI",
                    "HKPCLGHBKFD": {
                        "Throw": [
                            "Monster_Thoarder_Female_Hatchet_Anego_Throw",
                            "Audio_Monster_Thoarder_BlackRacoon_Hatchet_02_RangedAtk_Throw"
                        ],
                        "Pick": [
                            "Monster_Thoarder_Female_Hatchet_Anego_Pick",
                            "Audio_Monster_Thoarder_BlackRacoon_Hatchet_02_RangedAtk_Pick"
                        ]
                    },
                    "ADPGACLPFHN": [
                        "BeHit",
                        "DoSkill",
                        "FirecrackerHit"
                    ]
                },
                "ThrowBS": {
                    "$type": "MEECNDLIOBI",
                    "HKPCLGHBKFD": {
                        "ThrowBS": [
                            "Audio_Monster_Thoarder_Hatchet_RangedAtk_Throw"
                        ]
                    },
                    "ADPGACLPFHN": [
                        "BeHit",
                        "DoSkill",
                        "FirecrackerHit"
                    ]
                },
                "ThrowAS": {
                    "$type": "MEECNDLIOBI",
                    "HKPCLGHBKFD": {
                        "ThrowAS": [
                            "Monster_Thoarder_Female_Hatchet_Anego_Throw"
                        ]
                    },
                    "ADPGACLPFHN": [
                        "BeHit",
                        "DoSkill",
                        "FirecrackerHit"
                    ]
                },
                "PickBS": {
                    "$type": "MEECNDLIOBI",
                    "HKPCLGHBKFD": {
                        "PickBS": [
                            "Audio_Monster_Thoarder_Hatchet_RangedAtk_Pick"
                        ]
                    },
                    "ADPGACLPFHN": [
                        "BeHit",
                        "DoSkill",
                        "FirecrackerHit"
                    ]
                },
                "PickAS": {
                    "$type": "MEECNDLIOBI",
                    "HKPCLGHBKFD": {
                        "PickAS": []
                    },
                    "ADPGACLPFHN": [
                        "BeHit",
                        "DoSkill",
                        "FirecrackerHit"
                    ]
                },
                "ThrowPlus": {
                    "$type": "MEECNDLIOBI",
                    "HKPCLGHBKFD": {
                        "ThrowPlus": [
                            "Monster_Thoarder_Female_Hatchet_Anego_ThrowPlus",
                            "Audio_Monster_Thoarder_BlackRacoon_Hatchet_02_RangedAtk_Throw"
                        ],
                        "PickPlus": [
                            "Monster_Thoarder_Female_Hatchet_Anego_Pick",
                            "Audio_Monster_Thoarder_BlackRacoon_Hatchet_02_RangedAtk_Pick"
                        ]
                    },
                    "ADPGACLPFHN": [
                        "BeHit",
                        "DoSkill",
                        "FirecrackerHit"
                    ]
                },
                "MoveAtk": {
                    "$type": "MEECNDLIOBI",
                    "HKPCLGHBKFD": {
                        "MoveAtkBS": [
                            "Monster_Thoarde_Female_Hatchet_Anego_MoveAtkBS"
                        ],
                        "MoveAtkAS": [
                            "Monster_Thoarde_Female_Hatchet_Anego_MoveAtkAS"
                        ]
                    },
                    "ADPGACLPFHN": [
                        "BeHit",
                        "DoSkill",
                        "FirecrackerHit"
                    ]
                },
                "Order": {
                    "$type": "MEECNDLIOBI",
                    "HKPCLGHBKFD": {
                        "Order": [
                            "Monster_Thoarde_Female_Hatchet_Anego_Order",
                            "Audio_Monster_Thoarder_BlackRacoon_Hatchet_02_Order"
                        ]
                    },
                    "ADPGACLPFHN": [
                        "BeHit",
                        "DoSkill",
                        "FirecrackerHit"
                    ],
                    "NPMGEMAFACP": true
                },
                "Dodge": {
                    "$type": "MEECNDLIOBI",
                    "HKPCLGHBKFD": {
                        "Dodge": [
                            "Monster_Thoarde_Female_Hatchet_Anego_Dodge",
                            "Audio_Monster_Thoarder_BlackRacoon_Hatchet_02_Retreat"
                        ]
                    },
                    "ADPGACLPFHN": [
                        "BeHit",
                        "DoSkill",
                        "DodgeTrigger",
                        "FirecrackerHit"
                    ]
                },
                "ActivitySkill": {
                    "$type": "MEECNDLIOBI",
                    "HKPCLGHBKFD": {
                        "ActivitySkill": [
                            "Monster_Thoarde_Female_Hatchet_Anego_ActivitySkill",
                            "Audio_Monster_Thoarder_BlackRacoon_Hatchet_02_ActivitySkill"
                        ]
                    },
                    "PAKNCLFMOAC": 0.0,
                    "ADPGACLPFHN": [
                        "BeHit",
                        "DoSkill",
                        "FirecrackerHit"
                    ],
                    "NPMGEMAFACP": true
                },
                "FirecrackerHit": {
                    "$type": "MEECNDLIOBI",
                    "HKPCLGHBKFD": {
                        "FirecrackerHit": [
                            "Audio_Monster_Thoarder_BlackRacoon_Hatchet_02_FirecrackerHit"
                        ]
                    },
                    "NPMGEMAFACP": true
                },
                "Taunt": {
                    "$type": "MEECNDLIOBI",
                    "HKPCLGHBKFD": {
                        "Taunt_1": [
                            "Audio_Monster_Thoarder_BlackRacoon_Hatchet_02_Taunt1"
                        ],
                        "Taunt_2": [
                            "Audio_Monster_Thoarder_BlackRacoon_Hatchet_02_Taunt2"
                        ],
                        "Taunt_3": [
                            "Audio_Monster_Thoarder_BlackRacoon_Hatchet_02_Taunt3"
                        ]
                    },
                    "ADPGACLPFHN": [
                        "BeHit",
                        "DoSkill"
                    ]
                },
                "SheathWeapon": {
                    "$type": "MEECNDLIOBI",
                    "HKPCLGHBKFD": {
                        "SheathWeapon": [
                            "Monster_Thoarde_Female_Hatchet_Anego_SheathWeapon",
                            "Audio_Monster_Thoarder_BlackRacoon_Hatchet_02_SheathWeapon"
                        ]
                    },
                    "ADPGACLPFHN": [
                        "SheathWeaponTrigger"
                    ]
                }
            }
        }
    },
    "billboard": {
        "$type": "HFEGKLAIGGI",
        "IIKEHINGEME": "BillboardAttach",
        "offset": {
            "x": -0.05000000074505806
        },
        "GEKOGJAPMMH": "Character",
        "HECLHMINJII": 0.25,
        "DMHOOGGGDKG": true
    },
    "initialPoses": {
        "Default": {}
    },
    "aibeta": {
        "enable": true,
        "moveSetting": {
            "navMeshAgentName": "Undead01",
            "almostReachedDistanceRun": 1.5
        },
        "patrolFollowTactic": {
            "enable": true,
            "condition": [
                4006
            ]
        },
        "sensing": {
            "settings": {
                "DefaultSetting": {
                    "feelRange": 8.0
                },
                "HighAlert": {
                    "viewRange": 40.0,
                    "feelRange": 10.0
                }
            },
            "templates": {
                "DefaultTemplate": {
                    "DefaultPoses": "DefaultSetting"
                },
                "HighAlertTemplate": {
                    "DefaultPoses": "HighAlert"
                }
            }
        },
        "neurons": {
            "DefaultSetting": [
                "HIT"
            ]
        },
        "threat": {
            "clearThreatByLostPath": true,
            "clearThreatByTargetOutOfZone": true,
            "clearThreatTimerByDistance": 3.0,
            "clearThreatTimerByLostPath": 18.0,
            "viewAttenuation": [
                {
                    "x": 10.0,
                    "y": 2.0
                },
                {
                    "x": 15.0,
                    "y": 0.800000011920929
                },
                {
                    "x": 20.0,
                    "y": 0.5
                },
                {
                    "x": 25.0,
                    "y": 0.30000001192092896
                },
                {
                    "x": 30.0,
                    "y": 0.20000000298023224
                }
            ]
        },
        "defendArea": {},
        "profiling": {},
        "network": {
            "syncSkill": true
        },
        "skillGroupCDConfigs": [
            {
                "skillGroupCDID": 1,
                "skillGroupCDTime": 3.0
            },
            {
                "skillGroupCDID": 2,
                "skillGroupCDTime": 2.0
            }
        ],
        "skillSetting": {
            "skillEliteSet": {
                "1": [
                    401
                ]
            }
        },
        "skills": {
            "101": {
                "name": "OnAlert",
                "skillType": "OnAlert",
                "faceTarget": true,
                "publicCDGroup": "",
                "ignoreGCD": true,
                "triggerGCD": false,
                "CLEPNIDJOLN": "",
                "stateIDs": [
                    "Life_Warning"
                ],
                "skillQueryingTime": 3.0,
                "flagTargetReachable": "10",
                "flagSelfOnTemplateCollider": "01",
                "flagSelfInZone": "10",
                "flagTargetInZone": "11"
            },
            "202": {
                "name": "JumpAttack",
                "combatSkillType": "MeleeAttack",
                "priority": 3,
                "castCondition": {
                    "pose": [
                        1001
                    ],
                    "pickRangeMin": 1.5,
                    "pickRangeMax": 5.0
                },
                "cd": 5.0,
                "cdUpperRange": 1.0,
                "initialCD": 5.0,
                "publicCDGroup": "",
                "triggerGCD": false,
                "CLEPNIDJOLN": "",
                "stateIDs": [
                    "JumpAttack"
                ],
                "flagTargetReachable": "10",
                "flagSelfOnTemplateCollider": "01",
                "flagSelfInZone": "10",
                "flagTargetInZone": "11"
            },
            "203": {
                "name": "TripleAttack",
                "combatSkillType": "MeleeAttack",
                "priority": 3,
                "castCondition": {
                    "pose": [
                        1001
                    ],
                    "pickRangeMax": 3.25,
                    "castRangeMax": 3.25
                },
                "cd": 3.0,
                "cdUpperRange": 1.0,
                "initialCD": 6.0,
                "initialCDUpperRange": 5.0,
                "publicCDGroup": "",
                "CLEPNIDJOLN": "",
                "stateIDs": [
                    "TripleAttack"
                ],
                "flagTargetReachable": "10",
                "flagSelfOnTemplateCollider": "01",
                "flagSelfInZone": "10",
                "flagTargetInZone": "11"
            },
            "301": {
                "name": "HatchetThrow",
                "combatSkillType": "RangedAttack",
                "priority": 2,
                "castCondition": {
                    "pose": [
                        1001
                    ],
                    "pickRangeMin": 5.0,
                    "pickRangeMax": 15.0
                },
                "cd": 3.0,
                "publicCDGroup": "",
                "triggerGCD": false,
                "skillGroupCDID": 2,
                "CLEPNIDJOLN": "",
                "stateIDs": [
                    "ThrowBS",
                    "ThrowAS",
                    "PickAS",
                    "PickBS"
                ],
                "flagTargetReachable": "10",
                "flagSelfOnTemplateCollider": "01",
                "flagSelfInZone": "10",
                "flagTargetInZone": "11"
            },
            "331": {
                "name": "Order",
                "skillType": "CombatBuddy",
                "castCondition": {
                    "pose": [
                        1001
                    ]
                },
                "cd": 25.0,
                "cdUpperRange": 5.0,
                "initialCD": 10.0,
                "publicCDGroup": "",
                "skillGroupCDID": 2,
                "CLEPNIDJOLN": "",
                "stateIDs": [
                    "Order"
                ],
                "skillQueryingTime": 3.0,
                "flagTargetReachable": "10",
                "flagSelfOnTemplateCollider": "01",
                "flagSelfInZone": "10",
                "flagTargetInZone": "11",
                "buddySkillCondition": {
                    "selectRange": 30.0,
                    "buddyScoring": {
                        "hpFactor": 1,
                        "distFactor": -1.0,
                        "roleScores": [
                            1.0,
                            1.0,
                            1.0,
                            1.0
                        ]
                    }
                }
            },
            "401": {
                "name": "ActivitySkill",
                "priority": 1,
                "castCondition": {
                    "pickRangeMax": 20.0
                },
                "cd": 500.0,
                "cdUpperRange": 5.0,
                "publicCDGroup": "",
                "triggerGCD": false,
                "skillGroupCDID": 1,
                "CLEPNIDJOLN": "",
                "stateIDs": [
                    "ActivitySkill"
                ],
                "flagTargetReachable": "10",
                "flagSelfOnTemplateCollider": "01",
                "flagSelfInZone": "10",
                "flagTargetInZone": "11"
            }
        },
        "skillGCD": 3.0,
        "combatFixedMoveTactic": [
            {
                "$type": "KIMPOLMEFNK",
                "enable": true,
                "EGJMGEHLDOL": {
                    "pose": [
                        1001
                    ]
                },
                "NGIEOIGFFDH": {
                    "rangeMax": 10.0,
                    "ODLFCBFIAEG": {
                        "MKGIHLDDOPO": 0.0,
                        "AIMKHLAPJGH": 0.0,
                        "LJGPLFGCHJM": 2.0,
                        "ODFJMMCNEHI": 2.0
                    },
                    "EOBOHLNDGNC": "1111",
                    "JFAHEKLBENF": "1111",
                    "FCFLCFFJKLO": ""
                }
            },
            {
                "$type": "AIFAIEAELGP",
                "enable": true,
                "EGJMGEHLDOL": {
                    "pose": [
                        1
                    ]
                }
            },
            {
                "$type": "HLPBLIEBJLM",
                "enable": true,
                "EGJMGEHLDOL": {
                    "pose": [
                        1001
                    ]
                },
                "NGIEOIGFFDH": {
                    "GPKNKJPPCOM": 12.0,
                    "NDCHJGOOLCF": 50.0,
                    "FDNLEPNLLBP": 10.0,
                    "DANCMNIMNAM": 12.0,
                    "FCFLCFFJKLO": ""
                }
            },
            {
                "$type": "IPNDPOAANNE",
                "enable": true,
                "NGIEOIGFFDH": {}
            },
            {
                "$type": "GJGILIGEJMO",
                "enable": true,
                "NGIEOIGFFDH": {
                    "FCFLCFFJKLO": "",
                    "BKCOJDIDEGN": ""
                }
            },
            {
                "$type": "IKIHDEMELGB",
                "enable": true,
                "EGJMGEHLDOL": {
                    "pose": [
                        1
                    ]
                },
                "NGIEOIGFFDH": {
                    "HOKGJAONGHG": 3.0,
                    "GJOBDMEBGLM": 1.5,
                    "KDLAOJIPGHP": 15.0,
                    "OEFFOIEOJNC": 3.75,
                    "HAHMEDHEBKE": 7.5,
                    "FCFLCFFJKLO": ""
                }
            }
        ]
    },
    "inputKeys": [
        {
            "keyID": 201,
            "inputKeyCode": 257,
            "abilityName": ""
        },
        {
            "keyID": 202,
            "inputKeyCode": 258,
            "abilityName": ""
        },
        {
            "keyID": 203,
            "inputKeyCode": 259,
            "abilityName": ""
        },
        {
            "keyID": 301,
            "inputKeyCode": 260,
            "abilityName": ""
        },
        {
            "keyID": 321,
            "inputKeyCode": 262,
            "abilityName": ""
        },
        {
            "keyID": 331,
            "inputKeyCode": 261,
            "abilityName": ""
        }
    ],
    "move": {
        "$type": "JKDLANFKJIL",
        "ADKJOFPNHNO": "FourDirection",
        "LDHGAEIKIEE": "StoopType",
        "LPAKBBIADNC": "RootNode"
    },
    "audio": {
        "LKJIHNLBIJL": "",
        "animAudio": {},
        "disableEvent": {
            "text": ""
        },
        "destroyEvent": {
            "text": ""
        },
        "randomVariantSwitchGroup": {
            "text": ""
        },
        "randomVariantSwitchValues": [
            {
                "text": ""
            }
        ]
    }
}