{
    "common": {
        "effectAttachShape": {
            "$type": "CMIPFEGOJCH",
            "EJAEFCDBDFB": "EffectMesh"
        },
        "mass": 20.0,
        "height": 0.800000011920929,
        "affectedByWorld": true,
        "checkInSurface": true,
        "canTriggerElementReactionText": false,
        "clearAnimatorOnSetLightDeactive": true,
        "clearAIOnSetLightDeactive": true
    },
    "model": {
        "bornEffect": "",
        "attachEffect": "",
        "canBakeMesh": false
    },
    "combat": {
        "property": {
            "endureType": "Monster_Minion",
            "weight": 30.0,
            "isInvincible": true
        },
        "beHit": {
            "hitBloodEffect": "",
            "JEPGCKHKDDD": true,
            "muteAllHitText": true
        },
        "combatLock": {
            "lockShape": "CircleLockEnemy",
            "denyLockOn": true,
            "lockType": "Default"
        },
        "die": {
            "hasAnimatorDie": true,
            "dieEndTime": 1.0,
            "dieForceDisappearTime": 1.0,
            "dieDisappearEffect": ""
        }
    },
    "stateLayers": {
        "defaultLayer": {
            "$type": "KFHJINNNDPN",
            "BOPIBFKFKCA": "",
            "stateIDs": {
                "Born": {
                    "$type": "MEECNDLIOBI",
                    "HKPCLGHBKFD": {
                        "Born": []
                    },
                    "ADPGACLPFHN": [
                        "DoSkill"
                    ]
                },
                "NormalIdle": {
                    "$type": "MEECNDLIOBI",
                    "HKPCLGHBKFD": {
                        "Standby": []
                    },
                    "KNOHBHKACHA": true,
                    "BAABNFCMKIO": true,
                    "ADPGACLPFHN": [
                        "DoSkill"
                    ]
                },
                "NormalMove": {
                    "$type": "MEECNDLIOBI",
                    "HKPCLGHBKFD": {
                        "Walk": [
                            "Animal_Fishable_Maritime_Walk"
                        ],
                        "Run": [
                            "Animal_Fishable_Maritime_Run"
                        ]
                    },
                    "KNOHBHKACHA": true,
                    "BAABNFCMKIO": true,
                    "ADPGACLPFHN": [
                        "DoSkill"
                    ],
                    "NPMGEMAFACP": true
                },
                "Turn": {
                    "$type": "MEECNDLIOBI",
                    "HKPCLGHBKFD": {
                        "Turn_Run": [],
                        "Turn_Run_Reverse": [
                            "Animal_Fishable_Maritime_Turn_Run"
                        ]
                    },
                    "KNOHBHKACHA": true,
                    "BAABNFCMKIO": true,
                    "ADPGACLPFHN": [
                        "DoSkill"
                    ],
                    "NPMGEMAFACP": true
                },
                "BeHit": {
                    "$type": "MEECNDLIOBI",
                    "HKPCLGHBKFD": {
                        "Hit_L": []
                    },
                    "PJFELLIJONH": [
                        "BeHit"
                    ],
                    "ADPGACLPFHN": [
                        "DoSkill"
                    ]
                },
                "Die": {
                    "$type": "MEECNDLIOBI",
                    "HKPCLGHBKFD": {
                        "Die": [
                            "Animal_Fish_Die"
                        ]
                    }
                },
                "Escape": {
                    "$type": "MEECNDLIOBI",
                    "HKPCLGHBKFD": {
                        "Escape": [
                            "Animal_Fishable_Maritime_Escape"
                        ]
                    },
                    "BAABNFCMKIO": true,
                    "ADPGACLPFHN": [
                        "DoSkill"
                    ],
                    "NPMGEMAFACP": true
                },
                "QTE": {
                    "$type": "MEECNDLIOBI",
                    "HKPCLGHBKFD": {
                        "QTE_Idle": [
                            "Animal_Fishable_Maritime_Hooked_Idle"
                        ],
                        "QTE_StruggleLevel01": [
                            "Animal_Fishable_Maritime_Hooked_StruggleLevel01_Large"
                        ],
                        "QTE_StruggleLevel02": [
                            "Animal_Fishable_Maritime_Hooked_StruggleLevel02_Large"
                        ],
                        "QTE_StruggleLevel03": [
                            "Animal_Fishable_Maritime_Hooked_StruggleLevel03_Large"
                        ]
                    },
                    "BAABNFCMKIO": true,
                    "ADPGACLPFHN": [
                        "DoSkill"
                    ],
                    "NPMGEMAFACP": true
                },
                "QTESuccess": {
                    "$type": "MEECNDLIOBI",
                    "HKPCLGHBKFD": {
                        "QTESuccess": [
                            "Animal_Fishable_Maritime_Hooked_Lifted"
                        ]
                    },
                    "BAABNFCMKIO": true,
                    "ADPGACLPFHN": [
                        "DoSkill"
                    ],
                    "NPMGEMAFACP": true
                },
                "LowEnergy": {
                    "$type": "MEECNDLIOBI",
                    "HKPCLGHBKFD": {
                        "LowEnergy": [
                            "Animal_Fishable_Maritime_Hooked_LowEnergy"
                        ]
                    },
                    "BAABNFCMKIO": true,
                    "ADPGACLPFHN": [
                        "DoSkill"
                    ],
                    "NPMGEMAFACP": true
                },
                "TeaseBait": {
                    "$type": "MEECNDLIOBI",
                    "HKPCLGHBKFD": {
                        "TeaseBait": [
                            "Animal_Fishable_Maritime_TeaseBait_Large"
                        ]
                    },
                    "BAABNFCMKIO": true,
                    "ADPGACLPFHN": [
                        "DoSkill"
                    ],
                    "NPMGEMAFACP": true
                },
                "BiteBait": {
                    "$type": "MEECNDLIOBI",
                    "HKPCLGHBKFD": {
                        "BiteBait": [
                            "Animal_Fishable_Maritime_BiteBait_Large"
                        ],
                        "BiteBait_AS": [
                            "Animal_Fishable_Maritime_Hooked_Idle"
                        ]
                    },
                    "BAABNFCMKIO": true,
                    "ADPGACLPFHN": [
                        "DoSkill"
                    ],
                    "NPMGEMAFACP": true
                },
                "IdleFree": {
                    "$type": "MEECNDLIOBI",
                    "HKPCLGHBKFD": {
                        "IdleFree01": [
                            "Animal_Fishable_Maritime_IdleFree01_Large"
                        ]
                    },
                    "BAABNFCMKIO": true,
                    "ADPGACLPFHN": [
                        "DoSkill"
                    ],
                    "NPMGEMAFACP": true
                }
            }
        }
    },
    "initialPoses": {
        "Default": {},
        "Normal": {
            "initialPoseID": 1,
            "initialPoseParams": {
                "boolParams": {
                    "isSpecial": "false"
                }
            }
        },
        "Special": {
            "initialPoseID": 2,
            "initialPoseParams": {
                "boolParams": {
                    "isSpecial": "true"
                }
            }
        }
    },
    "aibeta": {
        "enable": true,
        "friendliness": 1,
        "decisionArchetype": "Animal_Fishable",
        "moveSetting": {
            "moveCategory": "Water",
            "useNavMesh": false,
            "navMeshAgentName": "Undead01"
        },
        "sensing": {
            "settings": {
                "DefaultSetting": {
                    "viewRange": 0.0,
                    "hearAttractionRange": 0.0,
                    "feelRange": 0.0
                }
            }
        },
        "neurons": {
            "DefaultSetting": [
                "HIT"
            ]
        },
        "threat": {
            "clearThreatTargetDistance": 10.0,
            "clearThreatTimerByDistance": 0.800000011920929,
            "viewThreatGrow": 0.0,
            "feelThreatGrow": 0.0,
            "threatBroadcastRange": 0.0
        },
        "defendArea": {
            "defendRange": 50.0
        },
        "ui": {
            "hasDirectionIndicator": false
        },
        "profiling": {
            "lodStrategy": "MinorAnimal",
            "moveCullingLevel": 3
        },
        "skills": {
            "1": {
                "name": "IdleFree01_SpecialIdle",
                "skillType": "Free",
                "castCondition": {
                    "pose": [
                        2
                    ],
                    "needReInitCD": true
                },
                "cd": 2.0,
                "cdUpperRange": 5.0,
                "initialCD": 2.0,
                "initialCDUpperRange": 5.0,
                "publicCDGroup": "",
                "ignoreGCD": true,
                "triggerGCD": false,
                "CLEPNIDJOLN": "",
                "stateIDs": [
                    "IdleFree"
                ],
                "flagTargetReachable": "10",
                "flagSelfOnTemplateCollider": "01",
                "flagSelfInZone": "10",
                "flagTargetInZone": "11"
            },
            "101": {
                "name": "IdleFree01_SpecialCombat",
                "castCondition": {
                    "pose": [
                        102
                    ],
                    "needReInitCD": true
                },
                "cd": 2.0,
                "cdUpperRange": 5.0,
                "initialCD": 2.0,
                "initialCDUpperRange": 5.0,
                "publicCDGroup": "",
                "ignoreGCD": true,
                "triggerGCD": false,
                "CLEPNIDJOLN": "",
                "stateIDs": [
                    "IdleFree"
                ],
                "flagTargetReachable": "10",
                "flagSelfOnTemplateCollider": "01",
                "flagSelfInZone": "10",
                "flagTargetInZone": "11"
            }
        },
        "combatFixedMoveTactic": [
            {
                "$type": "CHLECLPHOFP",
                "enable": true,
                "NGIEOIGFFDH": {
                    "NHPKGHAHIFA": 1,
                    "MONCHHKIDKL": 2.0
                }
            },
            {
                "$type": "AMKEFAEIMGO",
                "enable": true,
                "NGIEOIGFFDH": {
                    "MONCHHKIDKL": 1.25,
                    "MEKPCHABFJG": 180.0,
                    "HAGANIFJPCF": 2.0,
                    "IAIJKIPIPND": 4.0,
                    "JNOHNAPKHCF": true
                }
            },
            {
                "$type": "GCFIALNCHHG",
                "enable": true,
                "NGIEOIGFFDH": {
                    "NHPKGHAHIFA": 1,
                    "MONCHHKIDKL": 2.0,
                    "EKGMCGOFCNH": 0.5,
                    "JCDOACOHBED": 0.75
                }
            },
            {
                "$type": "GJGILIGEJMO"
            },
            {
                "$type": "IKIHDEMELGB",
                "enable": true,
                "NGIEOIGFFDH": {
                    "MONCHHKIDKL": 1.0,
                    "HOKGJAONGHG": 5.0,
                    "GJOBDMEBGLM": 3.0,
                    "KDLAOJIPGHP": 7.0,
                    "OEFFOIEOJNC": 3.200000047683716,
                    "HAHMEDHEBKE": 6.400000095367432,
                    "FCFLCFFJKLO": ""
                }
            }
        ]
    },
    "inputKeys": [
        {
            "keyID": 1,
            "inputKeyCode": 257,
            "abilityName": ""
        }
    ],
    "move": {
        "$type": "JKDLANFKJIL",
        "HMOBOILBLBJ": false,
        "COJFNGPJCCL": true,
        "MFCPGGKALCM": 0.5,
        "LPAKBBIADNC": "RootNode"
    },
    "animal": {
        "hasAbility": false,
        "tickAbilityElement": false,
        "hasCharacterRenderering": false
    }
}