{
    "common": {
        "effectAttachShape": {
            "$type": "CMIPFEGOJCH",
            "EJAEFCDBDFB": "EffectMesh"
        },
        "mass": 10000.0,
        "height": 2.700000047683716,
        "modelHeight": 2.700000047683716,
        "viewSize": 2.0,
        "affectedByWorld": true,
        "checkInSurface": true,
        "scale": 1.100000023841858,
        "useGrassDisplacement": true,
        "hasAfterImage": true,
        "clearAnimatorOnSetLightDeactive": true,
        "clearAIOnSetLightDeactive": true
    },
    "headControl": {
        "$type": "HLGPLMCNIFB",
        "useHeadControl": true,
        "BADCMJGBCHM": 20.0,
        "AIOGIMNHIGK": 5.0,
        "GDIAFJFLHCE": [
            "NormalIdle/Standby",
            "NormalMove/WalkForward",
            "NormalMove/WalkBack",
            "NormalMove/WalkRight",
            "NormalMove/WalkLeft",
            "TurnLeft/TurnLeft",
            "TurnRight/TurnRight"
        ]
    },
    "dither": {
        "showDitherDuration": 2.0
    },
    "combat": {
        "property": {
            "endureType": "Monster_Demiboss_Humanoid",
            "weight": 120.0
        },
        "beHit": {
            "hitBloodEffect": ""
        },
        "combatLock": {
            "lockShape": "CircleLockEnemy",
            "lockType": "Avatar&Monster_Lv4"
        },
        "die": {
            "hasAnimatorDie": true,
            "dieEndTime": 2.0,
            "dieForceDisappearTime": 2.0,
            "dieDisappearEffect": "Eff_Death_Avatar_Common",
            "dieShaderData": "AvatarDie",
            "useRagDoll": true,
            "ragDollDieEndTimeDelay": 1.0,
            "LDOHFFOEPPI": true,
            "BMOKGIFNILM": true,
            "PHCLLDNDFNG": true,
            "CHBAHMJGJBE": true,
            "OPPHENIKFJA": true,
            "CCNGAIMLPIJ": true
        },
        "animEvents": {
            "MeleeAtk": {
                "attackPattern": {
                    "$type": "GGBJACPDDCM",
                    "triggerType": "TriggerNoRepeat",
                    "GJKNLOPNAMC": true,
                    "born": {
                        "$type": "KDEPFKAAHCG",
                        "offset": {
                            "HMHIOILIGBF": 0.0,
                            "DPPJGBOHAAL": 1.5,
                            "DDOAGBLBCEF": 1.0
                        }
                    },
                    "size": {
                        "HMHIOILIGBF": 2.0,
                        "DPPJGBOHAAL": 2.5,
                        "DDOAGBLBCEF": 3.5
                    }
                },
                "attackInfo": {
                    "attackTag": "",
                    "attenuationTag": "",
                    "attenuationGroup": "default",
                    "attackProperty": {
                        "PCFAAPMOCGJ": 0.3330000042915344,
                        "LCCBNOKMNFG": 0.0,
                        "bonusCritical": 50.0,
                        "strikeType": "Blunt",
                        "enBreak": 100.0,
                        "attackType": "Melee",
                        "FKGFPFNOJMN": 0.0
                    },
                    "hitPattern": {
                        "onHitEffectName": "default",
                        "hitImpulseType": "LV5",
                        "canBeDefenceHalt": true
                    }
                }
            },
            "PunchRushAttack": {
                "attackPattern": {
                    "$type": "GGBJACPDDCM",
                    "triggerType": "TriggerNoRepeat",
                    "GJKNLOPNAMC": true,
                    "born": {
                        "$type": "KDEPFKAAHCG",
                        "offset": {
                            "HMHIOILIGBF": 0.0,
                            "DPPJGBOHAAL": 1.5,
                            "DDOAGBLBCEF": -0.5
                        }
                    },
                    "size": {
                        "HMHIOILIGBF": 2.0,
                        "DPPJGBOHAAL": 2.5,
                        "DDOAGBLBCEF": 4.0
                    }
                },
                "attackInfo": {
                    "attackTag": "",
                    "attenuationTag": "",
                    "attenuationGroup": "default",
                    "attackProperty": {
                        "PCFAAPMOCGJ": 0.3330000042915344,
                        "LCCBNOKMNFG": 0.0,
                        "bonusCritical": 50.0,
                        "strikeType": "Blunt",
                        "enBreak": 100.0,
                        "attackType": "Melee",
                        "FKGFPFNOJMN": 0.0
                    },
                    "hitPattern": {
                        "onHitEffectName": "default",
                        "hitImpulseType": "LV5",
                        "retreatType": "ByHitDirection",
                        "canBeDefenceHalt": true
                    }
                }
            }
        }
    },
    "equipController": {
        "sheathPoint": "",
        "attachPoints": {
            "equip01": "WeaponR",
            "equip02": "WeaponL"
        }
    },
    "abilities": [
        {
            "abilityID": "Rush",
            "abilityName": "Monster_Skirmisher_Male_Strong_Gloves_Wind_PunchRush",
            "abilityOverride": ""
        },
        {
            "abilityID": "Steer",
            "abilityName": "Monster_Skirmisher_Strong_Gloves_Wind_Steer",
            "abilityOverride": ""
        },
        {
            "abilityID": "PunchWind",
            "abilityName": "Monster_Skirmisher_Strong_Gloves_Wind_Punch_Drag",
            "abilityOverride": ""
        },
        {
            "abilityID": "Block_Punch_Damage",
            "abilityName": "Monster_Skirmisher_Male_Strong_Glove_Wind_PowerPunchDamage",
            "abilityOverride": ""
        },
        {
            "abilityID": "Block_Punch_Effect",
            "abilityName": "Monster_Skirmisher_Male_Strong_Glove_Wind_BlockAttackBS",
            "abilityOverride": ""
        },
        {
            "abilityID": "Block_Punch_AttackEffect",
            "abilityName": "Monster_Skirmisher_Male_Strong_Glove_Wind_BlockAttackEffect",
            "abilityOverride": ""
        },
        {
            "abilityID": "Block_During",
            "abilityName": "Monster_Skirmisher_Strong_Gloves_Wind_BlockDuring",
            "abilityOverride": ""
        },
        {
            "abilityID": "SecondWind",
            "abilityName": "Monster_Skirmisher_Strong_Gloves_Wind_SecondWind",
            "abilityOverride": ""
        },
        {
            "abilityID": "CheckAliance",
            "abilityName": "Monster_Skirmisher_Strong_Gloves_Wind_CheckAlliance",
            "abilityOverride": ""
        },
        {
            "abilityID": "IsReachTarget",
            "abilityName": "Monster_Skirmisher_Strong_Gloves_Wind_DistanceToTarget",
            "abilityOverride": ""
        },
        {
            "abilityID": "RushBuddyPrepareRun",
            "abilityName": "Monster_Skirmisher_Strong_Gloves_Wind_RushBuddyPrepare",
            "abilityOverride": ""
        },
        {
            "abilityID": "WindEyeEffect",
            "abilityName": "Monster_Skirmisher_Male_Strong_Gloves_Wind_EyeEffect",
            "abilityOverride": ""
        },
        {
            "abilityID": "StruggleHideWeapon",
            "abilityName": "Monster_Skirmisher_Strong_Gloves_Wind_StruggleHideWeapon",
            "abilityOverride": ""
        },
        {
            "abilityID": "WeaponSpecialEffect",
            "abilityName": "Monster_Skirmisher_Strong_Gloves_Wind_WeaponSpecialState",
            "abilityOverride": ""
        },
        {
            "abilityID": "PreCombatReset",
            "abilityName": "Monster_Skirmisher_Rifle_Fire_PreCombatRecover",
            "abilityOverride": ""
        },
        {
            "abilityID": "Monster_Skirmisher_Male_Strong_Gloves_Wind_FixedRush",
            "abilityName": "Monster_Skirmisher_Male_Strong_Gloves_Wind_FixedRush",
            "abilityOverride": ""
        }
    ],
    "stateLayers": {
        "defaultLayer": {
            "$type": "KFHJINNNDPN",
            "BOPIBFKFKCA": "",
            "stateIDs": {
                "NormalIdle": {
                    "$type": "MEECNDLIOBI",
                    "HKPCLGHBKFD": {
                        "Standby": [],
                        "Born": []
                    },
                    "KNOHBHKACHA": true,
                    "BAABNFCMKIO": true,
                    "ADPGACLPFHN": [
                        "DoSkill"
                    ]
                },
                "NormalMove": {
                    "$type": "MEECNDLIOBI",
                    "HKPCLGHBKFD": {
                        "WalkForward": [
                            "Audio_Monster_Strong_Gloves_Wind_Walk_Footstep"
                        ],
                        "WalkBack": [
                            "Audio_Monster_Strong_Gloves_Wind_Walk_Footstep"
                        ],
                        "WalkRight": [
                            "Audio_Monster_Strong_Gloves_Wind_Walk_Footstep"
                        ],
                        "WalkLeft": [
                            "Audio_Monster_Strong_Gloves_Wind_Walk_Footstep"
                        ]
                    },
                    "KNOHBHKACHA": true,
                    "BAABNFCMKIO": true,
                    "ADPGACLPFHN": [
                        "DoSkill"
                    ],
                    "NPMGEMAFACP": true
                },
                "Turn": {
                    "$type": "MEECNDLIOBI",
                    "HKPCLGHBKFD": {
                        "TurnLeft": [
                            "Audio_Monster_Strong_Gloves_Wind_Walk_Footstep"
                        ],
                        "TurnRight": [
                            "Audio_Monster_Strong_Gloves_Wind_Walk_Footstep"
                        ]
                    },
                    "KNOHBHKACHA": true,
                    "BAABNFCMKIO": true,
                    "ADPGACLPFHN": [
                        "DoSkill"
                    ],
                    "NPMGEMAFACP": true
                },
                "BeHit": {
                    "$type": "MEECNDLIOBI",
                    "HKPCLGHBKFD": {
                        "Hit_L": [
                            "Audio_Monster_Strong_Gloves_Wind_Hit_L"
                        ],
                        "Hit_H": [
                            "Audio_Monster_Strong_Gloves_Wind_Hit_H"
                        ]
                    },
                    "PJFELLIJONH": [
                        "BeHit"
                    ],
                    "ADPGACLPFHN": [
                        "DoSkill"
                    ]
                },
                "Run": {
                    "$type": "MEECNDLIOBI",
                    "HKPCLGHBKFD": {
                        "Run": [
                            "Audio_Monster_Strong_Gloves_Wind_Walk_Footstep"
                        ]
                    },
                    "KNOHBHKACHA": true,
                    "BAABNFCMKIO": true,
                    "ADPGACLPFHN": [
                        "DoSkill"
                    ],
                    "NPMGEMAFACP": true
                },
                "BeHitThrow": {
                    "$type": "MEECNDLIOBI",
                    "HKPCLGHBKFD": {
                        "HitThrow": [],
                        "HitThrowDrop": [],
                        "HitThrowToGround": [
                            "Audio_Monster_Strong_Gloves_Wind_HitThrowToGround"
                        ]
                    },
                    "PJFELLIJONH": [
                        "BeHit",
                        "HitAir2HitDrop"
                    ],
                    "ADPGACLPFHN": [
                        "DoSkill"
                    ]
                },
                "Struggle": {
                    "$type": "MEECNDLIOBI",
                    "HKPCLGHBKFD": {
                        "Struggle": []
                    },
                    "PJFELLIJONH": [
                        "BeHit",
                        "HitAir2HitDrop"
                    ],
                    "ADPGACLPFHN": [
                        "DoSkill"
                    ]
                },
                "Die": {
                    "$type": "MEECNDLIOBI",
                    "HKPCLGHBKFD": {
                        "Die1": [
                            "Monster_Skirmisher_Male_Strong_Gloves_Wind_Die",
                            "Audio_Monster_Strong_Gloves_Wind_Die"
                        ],
                        "Die2": [
                            "Monster_Skirmisher_Male_Strong_Gloves_Wind_Die",
                            "Audio_Monster_Strong_Gloves_Wind_Die"
                        ],
                        "SwimDie": [],
                        "SwimDie_AS": []
                    }
                },
                "Die_RagDoll": {
                    "$type": "MEECNDLIOBI",
                    "HKPCLGHBKFD": {
                        "AirDie": []
                    },
                    "CKHCPGMBKGA": true
                },
                "Alert": {
                    "$type": "MEECNDLIOBI",
                    "HKPCLGHBKFD": {
                        "Alert": [
                            "Monster_Skirmisher_Male_Strong_Gloves_Wind_Alert",
                            "Audio_Monster_Strong_Gloves_Wind_Alert"
                        ]
                    },
                    "ADPGACLPFHN": [
                        "BeHit",
                        "DoSkill"
                    ],
                    "NPMGEMAFACP": true
                },
                "ShowWeapon": {
                    "$type": "MEECNDLIOBI",
                    "HKPCLGHBKFD": {
                        "ShowWeapon": [
                            "Monster_Skirmisher_Male_Strong_Gloves_Wind_Alert",
                            "Monster_Skirmisher_Male_Standard_PreCombat"
                        ]
                    },
                    "ADPGACLPFHN": [
                        "BeHit",
                        "DoSkill"
                    ],
                    "NPMGEMAFACP": true
                },
                "Improve": {
                    "$type": "MEECNDLIOBI",
                    "HKPCLGHBKFD": {
                        "Improve": [
                            "Audio_Monster_Strong_Gloves_Wind_Improve"
                        ]
                    },
                    "PAKNCLFMOAC": 0.0,
                    "IMJBMEIKPJN": 20.0,
                    "ADPGACLPFHN": [
                        "BeHit",
                        "DoSkill"
                    ]
                },
                "DefendSheild_BS": {
                    "$type": "MEECNDLIOBI",
                    "HKPCLGHBKFD": {
                        "Block_BS": [
                            "Monster_Skirmisher_Male_Strong_Gloves_Wind_BlockBS",
                            "Audio_Monster_Strong_Gloves_Wind_Block_BS"
                        ]
                    },
                    "PAKNCLFMOAC": 0.0,
                    "IMJBMEIKPJN": 20.0,
                    "PJFELLIJONH": [
                        "ReachTarget",
                        "NearTarget"
                    ],
                    "ADPGACLPFHN": [
                        "BeHit",
                        "DoSkill"
                    ],
                    "NPMGEMAFACP": true
                },
                "DefendSheild": {
                    "$type": "MEECNDLIOBI",
                    "HKPCLGHBKFD": {
                        "Block_Loop": []
                    },
                    "PAKNCLFMOAC": 0.0,
                    "IMJBMEIKPJN": 20.0,
                    "ADPGACLPFHN": [
                        "BeHit",
                        "DoSkill"
                    ],
                    "NPMGEMAFACP": true
                },
                "DefendShield_AS": {
                    "$type": "MEECNDLIOBI",
                    "HKPCLGHBKFD": {
                        "Block_AS": [
                            "Audio_Monster_Strong_Gloves_Wind_Block_AS"
                        ]
                    },
                    "PAKNCLFMOAC": 0.0,
                    "IMJBMEIKPJN": 20.0,
                    "ADPGACLPFHN": [
                        "BeHit",
                        "DoSkill",
                        "BlockIsOver"
                    ],
                    "NPMGEMAFACP": true
                },
                "Punch_BS": {
                    "$type": "MEECNDLIOBI",
                    "HKPCLGHBKFD": {
                        "Punch_BS": [
                            "Monster_Skirmisher_Male_Strong_Gloves_Wind_PunchBS",
                            "Audio_Monster_Strong_Gloves_Wind_Punch_BS"
                        ],
                        "PunchNPC_BS": [
                            "Monster_Skirmisher_Male_Strong_Gloves_Wind_PunchBS",
                            "Audio_Monster_Strong_Gloves_Wind_Punch_BS"
                        ]
                    },
                    "PAKNCLFMOAC": 0.0,
                    "IMJBMEIKPJN": 20.0,
                    "ADPGACLPFHN": [
                        "BeHit",
                        "DoSkill"
                    ],
                    "NPMGEMAFACP": true
                },
                "Punch_AS": {
                    "$type": "MEECNDLIOBI",
                    "HKPCLGHBKFD": {
                        "Punch_AS": [
                            "Monster_Skirmisher_Male_Strong_Gloves_Wind_Punch",
                            "Audio_Monster_Strong_Gloves_Wind_Punch_AS"
                        ],
                        "PunchNPC_AS": [
                            "Monster_Skirmisher_Male_Strong_Gloves_Wind_Punch",
                            "Audio_Monster_Strong_Gloves_Wind_Punch_AS"
                        ]
                    },
                    "PAKNCLFMOAC": 0.0,
                    "IMJBMEIKPJN": 20.0,
                    "ADPGACLPFHN": [
                        "BeHit",
                        "DoSkill",
                        "ToAttackEnemy"
                    ],
                    "NPMGEMAFACP": true
                },
                "PunchPower": {
                    "$type": "MEECNDLIOBI",
                    "HKPCLGHBKFD": {
                        "WindPunch": [
                            "Monster_Skirmisher_Male_Strong_Gloves_Wind_PowerPunch",
                            "Audio_Monster_Strong_Gloves_Wind_Block_Punch"
                        ],
                        "Block_Punch": [
                            "Monster_Skirmisher_Male_Strong_Gloves_Wind_BlockPunch",
                            "Audio_Monster_Strong_Gloves_Wind_Block_Punch"
                        ]
                    },
                    "PAKNCLFMOAC": 0.0,
                    "IMJBMEIKPJN": 20.0,
                    "ADPGACLPFHN": [
                        "BeHit",
                        "DoSkill",
                        "BlockIsOver",
                        "BeAttacked"
                    ],
                    "NPMGEMAFACP": true
                },
                "RunToBuddy": {
                    "$type": "MEECNDLIOBI",
                    "HKPCLGHBKFD": {
                        "RunToAlliance": [
                            "Audio_Monster_Strong_Gloves_Wind_Walk_Footstep"
                        ]
                    },
                    "ADPGACLPFHN": [
                        "DoSkill"
                    ]
                },
                "SecondWind": {
                    "$type": "MEECNDLIOBI",
                    "HKPCLGHBKFD": {
                        "SecondWind": [
                            "Monster_Skirmisher_Male_Strong_Gloves_Wind_SecondWind",
                            "Audio_Monster_Strong_Gloves_Wind_SecondWind"
                        ]
                    },
                    "PAKNCLFMOAC": 0.0,
                    "IMJBMEIKPJN": 20.0,
                    "ADPGACLPFHN": [
                        "BeHit",
                        "DoSkill",
                        "ReachTarget"
                    ],
                    "NPMGEMAFACP": true
                },
                "BlockRushToAlliancePrepare": {
                    "$type": "MEECNDLIOBI",
                    "HKPCLGHBKFD": {
                        "RushBuddyPrepare": []
                    },
                    "PAKNCLFMOAC": 0.0,
                    "IMJBMEIKPJN": 20.0,
                    "ADPGACLPFHN": [
                        "BeHit",
                        "DoSkill"
                    ]
                },
                "BlockRushToAlliance": {
                    "$type": "MEECNDLIOBI",
                    "HKPCLGHBKFD": {
                        "RushBuddy": [
                            "Monster_Skirmisher_Male_Strong_Gloves_Wind_RushBuddy",
                            "Audio_Monster_Strong_Gloves_Wind_Block_RushBuddy"
                        ]
                    },
                    "PAKNCLFMOAC": 0.0,
                    "IMJBMEIKPJN": 20.0,
                    "ADPGACLPFHN": [
                        "BeHit",
                        "DoSkill",
                        "ToAttackEnemy"
                    ]
                },
                "Weak": {
                    "$type": "MEECNDLIOBI",
                    "HKPCLGHBKFD": {
                        "Weak_BS": [
                            "Audio_Monster_Strong_Gloves_Wind_Weak_BS"
                        ],
                        "Weak_Loop": [],
                        "Weak_AS": [
                            "Audio_Monster_Strong_Gloves_Wind_Weak_AS"
                        ]
                    },
                    "PAKNCLFMOAC": 0.0,
                    "IMJBMEIKPJN": 20.0,
                    "PJFELLIJONH": [
                        "WeakStart"
                    ],
                    "ADPGACLPFHN": [
                        "BeHit",
                        "DoSkill"
                    ]
                },
                "Search": {
                    "$type": "MEECNDLIOBI",
                    "HKPCLGHBKFD": {
                        "Search": []
                    },
                    "KNOHBHKACHA": true,
                    "ADPGACLPFHN": [
                        "BeHit",
                        "DoSkill"
                    ]
                },
                "Practice": {
                    "$type": "MEECNDLIOBI",
                    "HKPCLGHBKFD": {
                        "Practice": []
                    },
                    "KNOHBHKACHA": true,
                    "ADPGACLPFHN": [
                        "BeHit",
                        "DoSkill"
                    ]
                },
                "Threat": {
                    "$type": "MEECNDLIOBI",
                    "HKPCLGHBKFD": {
                        "Threat": []
                    },
                    "KNOHBHKACHA": true,
                    "ADPGACLPFHN": [
                        "BeHit",
                        "DoSkill"
                    ]
                }
            }
        }
    },
    "billboard": {
        "$type": "HFEGKLAIGGI",
        "IIKEHINGEME": "BillboardAttach",
        "GEKOGJAPMMH": "Character",
        "DMHOOGGGDKG": true,
        "KAJOCAAOIFN": 50.0,
        "size": "Big"
    },
    "initialPoses": {
        "Default": {},
        "Search": {
            "initialPoseID": 9001,
            "initialPoseParams": {
                "boolParams": {
                    "Search": "true"
                }
            }
        },
        "Practice": {
            "initialPoseID": 9011,
            "initialPoseParams": {
                "boolParams": {
                    "Practice": "true"
                }
            }
        },
        "Threat": {
            "initialPoseID": 9014,
            "initialPoseParams": {
                "boolParams": {
                    "Threat": "true"
                }
            }
        }
    },
    "aibeta": {
        "enable": true,
        "aiCombat": {
            "combatRole": "SUP"
        },
        "patrolFollowTactic": {
            "enable": true,
            "condition": [
                4009
            ]
        },
        "sensing": {
            "settings": {
                "DefaultSetting": {
                    "viewRange": 25.0,
                    "feelRange": 10.0
                },
                "NeverCombat": {
                    "enableVision": false,
                    "hearAttractionRange": 0.0,
                    "feelRange": 0.0
                }
            },
            "templates": {
                "DefaultTemplate": {
                    "DefaultPoses": "DefaultSetting"
                },
                "NeverCombatTemplate": {
                    "DefaultPoses": "NeverCombat"
                }
            }
        },
        "neurons": {
            "DefaultSetting": [
                "HIT"
            ],
            "NeverCombat": []
        },
        "threat": {
            "clearThreatByLostPath": true,
            "clearThreatTimerByLostPath": 11.0,
            "viewAttenuation": [
                {
                    "x": 10.0,
                    "y": 2.0
                },
                {
                    "x": 15.0,
                    "y": 0.800000011920929
                },
                {
                    "x": 20.0,
                    "y": 0.5
                },
                {
                    "x": 25.0,
                    "y": 0.30000001192092896
                },
                {
                    "x": 30.0,
                    "y": 0.20000000298023224
                }
            ],
            "resistTauntLevel": "Monster_TauntLevel_2"
        },
        "defendArea": {
            "defendRange": 50.0
        },
        "skillGroupCDConfigs": [
            {
                "skillGroupCDID": 0,
                "skillGroupCDTime": 5.0
            },
            {
                "skillGroupCDID": 1,
                "skillGroupCDTime": 10.0
            },
            {
                "skillGroupCDID": 2,
                "skillGroupCDTime": 15.0
            }
        ],
        "skills": {
            "1": {
                "name": "OnAlert",
                "skillType": "OnAlert",
                "faceTarget": true,
                "castCondition": {
                    "pose": [
                        9001,
                        9011,
                        9014
                    ]
                },
                "publicCDGroup": "",
                "ignoreGCD": true,
                "triggerGCD": false,
                "CLEPNIDJOLN": "",
                "stateIDs": [
                    "Alert",
                    "ShowWeapon"
                ],
                "skillQueryingTime": 3.0,
                "flagTargetReachable": "10",
                "flagSelfOnTemplateCollider": "01",
                "flagSelfInZone": "10",
                "flagTargetInZone": "11"
            },
            "2": {
                "name": "OnAlert",
                "skillType": "OnNerve",
                "faceTarget": true,
                "castCondition": {
                    "pose": [
                        1,
                        9001,
                        9011,
                        9014
                    ]
                },
                "publicCDGroup": "",
                "triggerGCD": false,
                "CLEPNIDJOLN": "",
                "stateIDs": [
                    "Alert"
                ],
                "skillQueryingTime": 3.0,
                "flagTargetReachable": "10",
                "flagSelfOnTemplateCollider": "01",
                "flagSelfInZone": "10",
                "flagTargetInZone": "11",
                "nerveTrigger": [
                    "HIT"
                ]
            },
            "3": {
                "name": "OnAlert",
                "skillType": "OnAlert",
                "faceTarget": true,
                "castCondition": {
                    "pose": [
                        1
                    ]
                },
                "publicCDGroup": "",
                "ignoreGCD": true,
                "triggerGCD": false,
                "CLEPNIDJOLN": "",
                "stateIDs": [
                    "Alert"
                ],
                "skillQueryingTime": 3.0,
                "flagTargetReachable": "10",
                "flagSelfOnTemplateCollider": "01",
                "flagSelfInZone": "10",
                "flagTargetInZone": "11"
            },
            "101": {
                "name": "Punch",
                "priority": 4,
                "castCondition": {
                    "pose": [
                        101,
                        201
                    ],
                    "pickRangeMax": 5.0
                },
                "cd": 5.0,
                "cdUpperRange": 2.5,
                "initialCD": 1.0,
                "publicCDGroup": "",
                "CLEPNIDJOLN": "",
                "stateIDs": [
                    "Punch_BS",
                    "Punch_AS"
                ],
                "skillQueryingTime": 2.0,
                "flagTargetReachable": "10",
                "flagSelfOnTemplateCollider": "01",
                "flagSelfInZone": "10",
                "flagTargetInZone": "11"
            },
            "201": {
                "name": "SecondWind",
                "skillType": "CombatBuddy",
                "priority": 1,
                "faceTarget": true,
                "castCondition": {
                    "pose": [
                        301
                    ]
                },
                "cd": 2.0,
                "cdUpperRange": 2.5,
                "initialCD": 3.0,
                "publicCDGroup": "",
                "ignoreGCD": true,
                "CLEPNIDJOLN": "",
                "stateIDs": [
                    "RunToBuddy",
                    "SecondWind"
                ],
                "skillQueryingTime": 3.0,
                "flagTargetReachable": "10",
                "flagSelfOnTemplateCollider": "01",
                "flagSelfInZone": "10",
                "flagTargetInZone": "11",
                "buddySkillCondition": {
                    "selectRange": 50.0,
                    "buddyScoring": {
                        "hpFactor": -1,
                        "distFactor": -1.0,
                        "roleScores": [
                            1.0,
                            2.0,
                            5.0,
                            3.0
                        ]
                    }
                }
            },
            "301": {
                "name": "DefendSheild",
                "priority": 2,
                "castCondition": {
                    "pose": [
                        101,
                        201
                    ],
                    "pickRangeMax": 20.0
                },
                "cd": 8.0,
                "cdUpperRange": 5.0,
                "initialCD": 7.5,
                "initialCDUpperRange": 7.5,
                "publicCDGroup": "",
                "triggerGCD": false,
                "skillGroupCDID": 2,
                "CLEPNIDJOLN": "",
                "stateIDs": [
                    "BlockRushToAlliancePrepare",
                    "BlockRushToAlliance",
                    "DefendSheild_BS",
                    "DefendSheild",
                    "DefendShield_AS"
                ],
                "skillQueryingTime": 3.0,
                "flagTargetReachable": "10",
                "flagSelfOnTemplateCollider": "01",
                "flagSelfInZone": "10",
                "flagTargetInZone": "11"
            },
            "302": {
                "name": "BuddyDefend",
                "skillType": "CombatBuddy",
                "priority": 2,
                "castCondition": {
                    "pose": [
                        201
                    ]
                },
                "cd": 10.0,
                "cdUpperRange": 5.0,
                "initialCD": 7.5,
                "initialCDUpperRange": 7.5,
                "publicCDGroup": "",
                "triggerGCD": false,
                "CLEPNIDJOLN": "",
                "stateIDs": [
                    "BlockRushToAlliancePrepare",
                    "BlockRushToAlliance",
                    "DefendSheild_BS",
                    "DefendSheild",
                    "DefendShield_AS"
                ],
                "flagTargetReachable": "11",
                "flagSelfOnTemplateCollider": "01",
                "flagSelfInZone": "11",
                "flagTargetInZone": "11",
                "buddySkillCondition": {
                    "selectRange": 50.0,
                    "buddyScoring": {
                        "hpFactor": -1,
                        "distFactor": -1.0,
                        "roleScores": [
                            1.0,
                            2.0,
                            5.0,
                            3.0
                        ]
                    }
                }
            },
            "9001": {
                "name": "Search",
                "skillType": "Free",
                "castCondition": {
                    "pose": [
                        9001
                    ]
                },
                "cd": 5.0,
                "cdUpperRange": 1.0,
                "publicCDGroup": "",
                "CLEPNIDJOLN": "",
                "stateIDs": [
                    "Search"
                ],
                "flagTargetReachable": "10",
                "flagSelfOnTemplateCollider": "01",
                "flagSelfInZone": "10",
                "flagTargetInZone": "11"
            },
            "9011": {
                "name": "Practice",
                "skillType": "Free",
                "castCondition": {
                    "pose": [
                        9011
                    ]
                },
                "cd": 5.0,
                "cdUpperRange": 1.0,
                "publicCDGroup": "",
                "CLEPNIDJOLN": "",
                "stateIDs": [
                    "Practice"
                ],
                "flagTargetReachable": "10",
                "flagSelfOnTemplateCollider": "01",
                "flagSelfInZone": "10",
                "flagTargetInZone": "11"
            },
            "9014": {
                "name": "Threat",
                "skillType": "Free",
                "castCondition": {
                    "pose": [
                        9014
                    ]
                },
                "cd": 5.0,
                "cdUpperRange": 1.0,
                "publicCDGroup": "",
                "CLEPNIDJOLN": "",
                "stateIDs": [
                    "Threat"
                ],
                "flagTargetReachable": "10",
                "flagSelfOnTemplateCollider": "01",
                "flagSelfInZone": "10",
                "flagTargetInZone": "11"
            }
        },
        "skillGCD": 3.0,
        "combatFixedMoveTactic": [
            {
                "$type": "KIMPOLMEFNK",
                "enable": true,
                "EGJMGEHLDOL": {
                    "pose": [
                        101,
                        201,
                        301
                    ]
                },
                "NGIEOIGFFDH": {
                    "rangeMin": 0.0,
                    "rangeMax": 5.0,
                    "OHCPDFPNLEP": 3.0,
                    "DDDDMJLFJNG": 1.0,
                    "EBEKKNCJBLL": 1.0,
                    "ODLFCBFIAEG": {
                        "MKGIHLDDOPO": 0.0,
                        "AIMKHLAPJGH": 0.0,
                        "LJGPLFGCHJM": 2.0,
                        "ODFJMMCNEHI": 2.0
                    },
                    "EOBOHLNDGNC": "1111",
                    "JFAHEKLBENF": "1111",
                    "FCFLCFFJKLO": ""
                },
                "LKIMAMPDDDI": {
                    "201": {
                        "rangeMin": 1.0,
                        "rangeMax": 5.0,
                        "OHCPDFPNLEP": 3.0,
                        "DDDDMJLFJNG": 1.0,
                        "EBEKKNCJBLL": 1.0,
                        "ODLFCBFIAEG": {
                            "MKGIHLDDOPO": 0.0,
                            "AIMKHLAPJGH": 0.0,
                            "LJGPLFGCHJM": 3.0,
                            "ODFJMMCNEHI": 3.0
                        },
                        "EOBOHLNDGNC": "1111",
                        "JFAHEKLBENF": "1111",
                        "FCFLCFFJKLO": ""
                    },
                    "301": {
                        "rangeMin": 1.0,
                        "rangeMax": 15.0,
                        "OHCPDFPNLEP": 3.0,
                        "DDDDMJLFJNG": 1.0,
                        "EBEKKNCJBLL": 1.0,
                        "ODLFCBFIAEG": {
                            "MKGIHLDDOPO": 0.0,
                            "AIMKHLAPJGH": 0.0,
                            "LJGPLFGCHJM": 4.0,
                            "ODFJMMCNEHI": 4.0
                        },
                        "EOBOHLNDGNC": "1111",
                        "JFAHEKLBENF": "1111",
                        "FCFLCFFJKLO": ""
                    }
                }
            },
            {
                "$type": "HLPBLIEBJLM",
                "enable": true,
                "EGJMGEHLDOL": {
                    "pose": [
                        101,
                        201,
                        301
                    ]
                },
                "NGIEOIGFFDH": {
                    "GPKNKJPPCOM": 10.0,
                    "NDCHJGOOLCF": 99.0,
                    "FDNLEPNLLBP": 5.0,
                    "DANCMNIMNAM": 0.0,
                    "FCFLCFFJKLO": ""
                },
                "LKIMAMPDDDI": {
                    "201": {
                        "GPKNKJPPCOM": 7.0,
                        "NDCHJGOOLCF": 99.0,
                        "FDNLEPNLLBP": 5.0,
                        "DANCMNIMNAM": 0.0,
                        "FCFLCFFJKLO": ""
                    },
                    "301": {
                        "GPKNKJPPCOM": 20.0,
                        "NDCHJGOOLCF": 99.0,
                        "FDNLEPNLLBP": 10.0,
                        "DANCMNIMNAM": 0.0,
                        "FCFLCFFJKLO": ""
                    }
                }
            },
            {
                "$type": "GJGILIGEJMO",
                "enable": true,
                "NGIEOIGFFDH": {
                    "FCFLCFFJKLO": "",
                    "BKCOJDIDEGN": ""
                }
            },
            {
                "$type": "IKIHDEMELGB",
                "enable": true,
                "EGJMGEHLDOL": {
                    "pose": [
                        1,
                        2,
                        3
                    ]
                },
                "NGIEOIGFFDH": {
                    "MONCHHKIDKL": 1.0,
                    "HOKGJAONGHG": 5.0,
                    "GJOBDMEBGLM": 2.5,
                    "KDLAOJIPGHP": 15.0,
                    "OEFFOIEOJNC": 5.0,
                    "HAHMEDHEBKE": 7.5,
                    "FCFLCFFJKLO": ""
                }
            }
        ]
    },
    "inputKeys": [
        {
            "keyID": 101,
            "inputKeyCode": 257,
            "abilityName": ""
        },
        {
            "keyID": 201,
            "inputKeyCode": 258,
            "abilityName": ""
        },
        {
            "keyID": 301,
            "inputKeyCode": 259,
            "abilityName": ""
        },
        {
            "keyID": 401,
            "inputKeyCode": 260,
            "abilityName": ""
        },
        {
            "keyID": 102,
            "inputKeyCode": 261,
            "abilityName": ""
        },
        {
            "keyID": 302,
            "inputKeyCode": 262,
            "abilityName": ""
        }
    ],
    "move": {
        "$type": "JKDLANFKJIL",
        "ADKJOFPNHNO": "FourDirection",
        "LDHGAEIKIEE": "StoopType",
        "LPAKBBIADNC": "RootNode"
    },
    "audio": {
        "LKJIHNLBIJL": "",
        "animAudio": {
            "onTransitionIn": [
                {
                    "currentStateName": "Weak_Loop",
                    "audioEvent": {
                        "text": "Play_sfx_monster_gloves_wind_weak_Loop"
                    }
                },
                {
                    "currentStateName": "Block_Loop",
                    "audioEvent": {
                        "text": "Play_sfx_monster_gloves_wind_block_Loop"
                    }
                }
            ],
            "onTransitionOut": [
                {
                    "currentStateName": "Weak_Loop",
                    "audioEvent": {
                        "text": "Stop_sfx_monster_gloves_wind_weak_Loop"
                    }
                },
                {
                    "currentStateName": "Block_Loop",
                    "audioEvent": {
                        "text": "Stop_sfx_monster_gloves_wind_block_Loop"
                    }
                }
            ]
        },
        "disableEvent": {
            "text": ""
        },
        "destroyEvent": {
            "text": ""
        }
    }
}