{
    "luaDataPath": "",
    "isSimpleTalk": true,
    "dontUseDefaultFinish": true,
    "entityBan": "",
    "startFade": {
        "startFadeOutDuration": 0.0
    },
    "endFade": {
        "startFadeOutDuration": 0.0
    },
    "actors": [
        {
            "alias": "Avatar",
            "visible": true,
            "bornPointName": "",
            "relativePosNpcAlias": "",
            "bindMovingTargetKey": ""
        },
        {
            "configID": 1413,
            "alias": "1413",
            "visible": true,
            "bornPointName": "Q20601JackRescue",
            "relativePosNpcAlias": "",
            "bindMovingTargetKey": ""
        }
    ],
    "group": [
        [
            {
                "$type": "KAGAFALAIGP",
                "type": "DIALOG",
                "aliasList": [
                    "1413"
                ],
                "JHEPJOMJJHH": 206010501
            },
            {
                "$type": "NFDDGDIKEAG",
                "type": "STEER_TO",
                "duration": 0.5,
                "aliasList": [
                    "1413"
                ],
                "GGJHILELIMO": "TO_LOCAL_AVATAR_ADVANCED",
                "PKKKHNGDEEE": true,
                "LGDIOPOBMPH": true,
                "NBNJEKMFIDE": true,
                "JBODIEHINII": "",
                "NNFPFPOJJOJ": ""
            },
            {
                "$type": "CENEPJCONAG",
                "type": "BODY_LANG",
                "delayTime": 0.5333333015441895,
                "aliasList": [
                    "1413"
                ],
                "OGFPAIKLDGB": 1070,
                "FOEKGLEJBIJ": ""
            }
        ],
        [
            {
                "$type": "KAGAFALAIGP",
                "type": "DIALOG",
                "aliasList": [
                    "1413"
                ],
                "JHEPJOMJJHH": 206010502
            },
            {
                "$type": "CENEPJCONAG",
                "type": "BODY_LANG",
                "aliasList": [
                    "1413"
                ],
                "OGFPAIKLDGB": 1200,
                "FOEKGLEJBIJ": ""
            }
        ],
        [
            {
                "$type": "AAFOOOPNJLB",
                "type": "DIALOG_SELECT",
                "delayTime": 0.4000000059604645,
                "aliasList": [
                    "Avatar"
                ],
                "KFAEOBDAAME": [
                    206010503
                ],
                "ELPFMMBHOLF": [
                    1459234198
                ],
                "OEAAKJDIEFD": true
            }
        ],
        [
            {
                "$type": "KAGAFALAIGP",
                "type": "DIALOG",
                "aliasList": [
                    "1413"
                ],
                "JHEPJOMJJHH": 206010504
            },
            {
                "$type": "CENEPJCONAG",
                "type": "BODY_LANG",
                "aliasList": [
                    "1413"
                ],
                "OGFPAIKLDGB": 1170,
                "FOEKGLEJBIJ": ""
            }
        ],
        [
            {
                "$type": "KAGAFALAIGP",
                "type": "DIALOG",
                "aliasList": [
                    "1413"
                ],
                "JHEPJOMJJHH": 206010505
            },
            {
                "$type": "CENEPJCONAG",
                "type": "BODY_LANG",
                "aliasList": [
                    "1413"
                ],
                "OGFPAIKLDGB": 1180,
                "FOEKGLEJBIJ": ""
            }
        ],
        [
            {
                "$type": "KAGAFALAIGP",
                "type": "DIALOG",
                "aliasList": [
                    "1413"
                ],
                "JHEPJOMJJHH": 206010506
            },
            {
                "$type": "CENEPJCONAG",
                "type": "BODY_LANG",
                "aliasList": [
                    "1413"
                ],
                "OGFPAIKLDGB": 1050,
                "FOEKGLEJBIJ": ""
            }
        ],
        [
            {
                "$type": "KAGAFALAIGP",
                "type": "DIALOG",
                "aliasList": [
                    "1413"
                ],
                "JHEPJOMJJHH": 206010507
            },
            {
                "$type": "CENEPJCONAG",
                "type": "BODY_LANG",
                "aliasList": [
                    "1413"
                ],
                "OGFPAIKLDGB": 1170,
                "FOEKGLEJBIJ": ""
            }
        ],
        [
            {
                "$type": "KAGAFALAIGP",
                "type": "DIALOG",
                "aliasList": [
                    "1413"
                ],
                "JHEPJOMJJHH": 206010508
            },
            {
                "$type": "CENEPJCONAG",
                "type": "BODY_LANG",
                "aliasList": [
                    "1413"
                ],
                "OGFPAIKLDGB": 1170,
                "FOEKGLEJBIJ": ""
            }
        ],
        [
            {
                "$type": "KAGAFALAIGP",
                "type": "DIALOG",
                "aliasList": [
                    "1413"
                ],
                "JHEPJOMJJHH": 206010509
            },
            {
                "$type": "CENEPJCONAG",
                "type": "BODY_LANG",
                "aliasList": [
                    "1413"
                ],
                "OGFPAIKLDGB": 1050,
                "FOEKGLEJBIJ": ""
            }
        ]
    ],
    "groupId": [
        {
            "grpId": 1459234195,
            "nextGrpId": 1459234196
        },
        {
            "index": 1,
            "grpId": 1459234196,
            "nextGrpId": 1459234197
        },
        {
            "index": 2,
            "grpId": 1459234197,
            "nextGrpId": 1459234198
        },
        {
            "index": 3,
            "grpId": 1459234198,
            "nextGrpId": 1459234199
        },
        {
            "index": 4,
            "grpId": 1459234199,
            "nextGrpId": 1459234200
        },
        {
            "index": 5,
            "grpId": 1459234200,
            "nextGrpId": 1459234201
        },
        {
            "index": 6,
            "grpId": 1459234201,
            "nextGrpId": 1459234202
        },
        {
            "index": 7,
            "grpId": 1459234202,
            "nextGrpId": 1459234203
        },
        {
            "index": 8,
            "grpId": 1459234203,
            "nextGrpId": 2286587133
        }
    ],
    "freeStyleDic": {
        "1413": [
            1070,
            1200,
            1170,
            1180,
            1050
        ]
    }
}