{
    "luaDataPath": "",
    "dontUseDefaultFinish": true,
    "entityBan": "",
    "disableNpcLod": true,
    "startFade": {
        "startFadeOutDuration": 0.0
    },
    "endFade": {
        "startFadeOutDuration": 0.0
    },
    "actors": [
        {
            "alias": "Avatar",
            "visible": true,
            "bornPointName": "",
            "relativePosNpcAlias": "",
            "bindMovingTargetKey": ""
        },
        {
            "configID": 30176,
            "alias": "30176",
            "visible": true,
            "bornPointName": "",
            "forceCreateDaily": true,
            "relativePosNpcAlias": "",
            "bindMovingTargetKey": ""
        }
    ],
    "group": [
        [
            {
                "$type": "NFDDGDIKEAG",
                "type": "STEER_TO",
                "duration": 1.0,
                "aliasList": [
                    "Avatar"
                ],
                "GGJHILELIMO": "TO_TARGET_ADVANCED",
                "PKKKHNGDEEE": true,
                "LGDIOPOBMPH": true,
                "NBNJEKMFIDE": true,
                "JBODIEHINII": "30176",
                "NNFPFPOJJOJ": ""
            },
            {
                "$type": "PBIGHFCHGCA",
                "type": "CAMERA_MOVE",
                "duration": 0.75,
                "KCFKJMMEECM": {
                    "x": -2566.39990234375,
                    "y": 212.2270050048828,
                    "z": -3799.4130859375
                },
                "DLGJEHNPMFN": {
                    "x": -2567.33203125,
                    "y": 212.2550048828125,
                    "z": -3799.77392578125
                },
                "NECGMADJICG": "EaseOutQuad",
                "BMHIHPIKAHM": {},
                "MMJMMAEAJOA": true,
                "HGGPLEMCNNG": false,
                "JBODIEHINII": "",
                "PHDIKPKLFIA": true,
                "EJCHLMIMLBO": "",
                "BIMPIKMCIHB": "",
                "MCAOJPLIJGI": ""
            },
            {
                "$type": "MoleMole.Config.ConfigTimeProtectAction",
                "type": "TIME_PROTECT",
                "duration": 0.75
            },
            {
                "$type": "FNPNDPFBBDD",
                "type": "LOOK_AT",
                "delayTime": 0.10000000149011612,
                "aliasList": [
                    "Avatar"
                ],
                "NKGFDJDHOBD": true,
                "useTargetPos": true,
                "LBJHJADMNBD": true,
                "CLEBINJAOLM": {
                    "x": -0.2329999953508377,
                    "y": 1.4830000400543213,
                    "z": 2.0869998931884766
                },
                "EKIONHAEIBG": {
                    "x": -2569.779052734375,
                    "y": 212.3699951171875,
                    "z": -3800.778076171875
                },
                "MNOPLOBEFLB": 0.5,
                "JBODIEHINII": "30176",
                "CFPBIOLLOCO": "NONE",
                "LPCACGGCDLI": "",
                "NNFPFPOJJOJ": ""
            },
            {
                "$type": "MoleMole.Config.ConfigVisibleInterAction",
                "type": "VISIBLE",
                "delayTime": 0.5,
                "duration": 0.25,
                "aliasList": [
                    "Avatar"
                ],
                "useDither": true,
                "extraParam": ""
            }
        ],
        [
            {
                "$type": "KAGAFALAIGP",
                "type": "DIALOG",
                "aliasList": [
                    "30176"
                ],
                "JHEPJOMJJHH": 400634601,
                "OCILKFCPBNC": 0.5
            },
            {
                "$type": "FNPNDPFBBDD",
                "type": "LOOK_AT",
                "aliasList": [
                    "Avatar"
                ],
                "MNOPLOBEFLB": 0.5,
                "JBODIEHINII": "",
                "LPCACGGCDLI": "",
                "NNFPFPOJJOJ": ""
            },
            {
                "$type": "MoleMole.Config.ConfigVisibleInterAction",
                "type": "VISIBLE",
                "aliasList": [
                    "Avatar"
                ],
                "extraParam": ""
            }
        ],
        [
            {
                "$type": "PBIGHFCHGCA",
                "type": "CAMERA_MOVE",
                "duration": 0.5,
                "CGCNCKNJOFB": "EXIT",
                "KCFKJMMEECM": {
                    "x": -2564.27587890625,
                    "y": 212.5189971923828,
                    "z": -3801.958984375
                },
                "JOBAHIHHJIB": "Other",
                "DLGJEHNPMFN": {
                    "x": 6.5,
                    "y": 297.34100341796875
                },
                "NECGMADJICG": "EaseOutQuad",
                "BMHIHPIKAHM": {},
                "MMJMMAEAJOA": true,
                "HGGPLEMCNNG": false,
                "JBODIEHINII": "",
                "PHDIKPKLFIA": true,
                "EJCHLMIMLBO": "",
                "BIMPIKMCIHB": "",
                "MCAOJPLIJGI": ""
            },
            {
                "$type": "MoleMole.Config.ConfigTimeProtectAction",
                "type": "TIME_PROTECT",
                "duration": 0.5
            },
            {
                "$type": "MoleMole.Config.ConfigVisibleInterAction",
                "type": "VISIBLE",
                "delayTime": 0.25,
                "duration": 0.25,
                "aliasList": [
                    "Avatar"
                ],
                "isVisible": true,
                "useDither": true,
                "extraParam": ""
            }
        ]
    ],
    "groupId": [
        {
            "grpId": 1977058808,
            "nextGrpId": 1977058809
        },
        {
            "index": 1,
            "grpId": 1977058809,
            "nextGrpId": 1977058810
        },
        {
            "index": 2,
            "grpId": 1977058810,
            "nextGrpId": 1977058811
        }
    ]
}