{
    "context": {
        "ActivitySubPage_Coop": {
            "actionGroups": {
                "Default": [
                    {
                        "priority": 10,
                        "eventType": "MenuBackEvent",
                        "nextToHandle": "FrameEnd",
                        "contextEvent": "BackEvent"
                    },
                    {
                        "priority": 10,
                        "eventType": "MenuConfirmEvent",
                        "nextToHandle": "FrameEnd",
                        "contextEvent": "ConfirmEvent"
                    },
                    {
                        "priority": 10,
                        "eventType": "DPadUpEvent",
                        "nextToHandle": "FrameEnd",
                        "contextEvent": "ActionNorthEvent"
                    },
                    {
                        "priority": 4,
                        "eventType": "LeftStickMoveEvent",
                        "contextEvent": "ScrollPrimaryScrollerEvent"
                    },
                    {
                        "priority": 2,
                        "eventType": "LeftStickLeftEvent",
                        "nextToHandle": "FrameEnd",
                        "contextEvent": "CommonLeftStickLeftEvent"
                    }
                ]
            },
            "stateActions": {
                "0": {
                    "keyboardTouch": "Default",
                    "keyboardMouse": "Default",
                    "joypad": "Default"
                }
            },
            "enableInputPenetrate": true,
            "enableJoypadVirtualCursor": false
        },
        "CoopRewardDialog": {
            "actionGroups": {
                "Default": [
                    {
                        "priority": 10,
                        "eventType": "MenuBackEvent",
                        "nextToHandle": "FrameEnd",
                        "contextEvent": "BackEvent"
                    },
                    {
                        "priority": 10,
                        "eventType": "MenuConfirmEvent",
                        "nextToHandle": "FrameEnd",
                        "contextEvent": "ConfirmEvent"
                    },
                    {
                        "priority": 2,
                        "eventType": "LeftStickUpEvent",
                        "nextToHandle": "FrameEnd",
                        "contextEvent": "CommonLeftStickUpEvent"
                    },
                    {
                        "priority": 2,
                        "eventType": "LeftStickDownEvent",
                        "nextToHandle": "FrameEnd",
                        "contextEvent": "CommonLeftStickDownEvent"
                    },
                    {
                        "priority": 2,
                        "eventType": "LeftStickLeftEvent",
                        "nextToHandle": "FrameEnd",
                        "contextEvent": "CommonLeftStickLeftEvent"
                    },
                    {
                        "priority": 2,
                        "eventType": "LeftStickRightEvent",
                        "nextToHandle": "FrameEnd",
                        "contextEvent": "CommonLeftStickRightEvent"
                    },
                    {
                        "eventType": "RightStickButtonEvent",
                        "contextEvent": "ShowItemDetailEvent"
                    }
                ]
            },
            "stateActions": {
                "0": {
                    "keyboardTouch": "Default",
                    "keyboardMouse": "Default",
                    "joypad": "Default"
                }
            },
            "enableJoypadVirtualCursor": false
        },
        "CoopAlbumDialog": {
            "actionGroups": {
                "Default": [
                    {
                        "priority": 10,
                        "eventType": "MenuBackEvent",
                        "nextToHandle": "FrameEnd",
                        "contextEvent": "BackEvent"
                    },
                    {
                        "priority": 10,
                        "eventType": "MenuConfirmEvent",
                        "nextToHandle": "FrameEnd",
                        "contextEvent": "ConfirmEvent"
                    },
                    {
                        "priority": 2,
                        "eventType": "LeftStickUpEvent",
                        "nextToHandle": "FrameEnd",
                        "contextEvent": "CommonLeftStickUpEvent"
                    },
                    {
                        "priority": 2,
                        "eventType": "LeftStickDownEvent",
                        "nextToHandle": "FrameEnd",
                        "contextEvent": "CommonLeftStickDownEvent"
                    },
                    {
                        "priority": 2,
                        "eventType": "LeftStickLeftEvent",
                        "nextToHandle": "FrameEnd",
                        "contextEvent": "CommonLeftStickLeftEvent"
                    },
                    {
                        "priority": 2,
                        "eventType": "LeftStickRightEvent",
                        "nextToHandle": "FrameEnd",
                        "contextEvent": "CommonLeftStickRightEvent"
                    }
                ]
            },
            "stateActions": {
                "0": {
                    "keyboardTouch": "Default",
                    "keyboardMouse": "Default",
                    "joypad": "Default"
                }
            },
            "enableJoypadVirtualCursor": false
        },
        "CoopCGDialog": {
            "actionGroups": {
                "Default": [
                    {
                        "priority": 10,
                        "eventType": "MenuBackEvent",
                        "nextToHandle": "FrameEnd",
                        "contextEvent": "BackEvent"
                    },
                    {
                        "priority": 10,
                        "eventType": "MenuConfirmEvent",
                        "nextToHandle": "FrameEnd",
                        "contextEvent": "ConfirmEvent"
                    },
                    {
                        "priority": 10,
                        "eventType": "MenuUpEvent",
                        "nextToHandle": "FrameEnd",
                        "contextEvent": "CommonMenuUpEvent"
                    }
                ]
            },
            "stateActions": {
                "0": {
                    "keyboardTouch": "Default",
                    "keyboardMouse": "Default",
                    "joypad": "Default"
                }
            },
            "enableJoypadVirtualCursor": false
        },
        "PhotoShowDialog": {
            "actionGroups": {
                "Default": [
                    {
                        "priority": 10,
                        "eventType": "MenuBackEvent",
                        "nextToHandle": "FrameEnd",
                        "contextEvent": "BackEvent"
                    }
                ]
            },
            "stateActions": {
                "0": {
                    "keyboardTouch": "Default",
                    "keyboardMouse": "Default",
                    "joypad": "Default"
                }
            },
            "enableJoypadVirtualCursor": false
        },
        "CoopPage": {
            "actionGroups": {
                "Default": [
                    {
                        "priority": 12,
                        "eventType": "MenuBackEvent",
                        "nextToHandle": "FrameEnd",
                        "contextEvent": "BackEvent"
                    },
                    {
                        "priority": 10,
                        "eventType": "ZoomCameraEvent",
                        "nextToHandle": "FrameEnd",
                        "contextEvent": "UIZoomCameraEvent"
                    }
                ],
                "Joypad": [
                    {
                        "priority": 10,
                        "eventType": "MenuConfirmEvent",
                        "nextToHandle": "FrameEnd",
                        "contextEvent": "ConfirmEvent"
                    },
                    {
                        "priority": 10,
                        "eventType": "MenuBackEvent",
                        "nextToHandle": "FrameEnd",
                        "contextEvent": "BackEvent"
                    },
                    {
                        "priority": 6,
                        "eventType": "LeftTriggerAxisEvent",
                        "contextEvent": "ZoomInMapEvent"
                    },
                    {
                        "priority": 7,
                        "eventType": "RightTriggerAxisEvent",
                        "contextEvent": "ZoomOutMapEvent"
                    },
                    {
                        "priority": 6,
                        "eventType": "MenuLeftEvent",
                        "nextToHandle": "FrameEnd",
                        "contextEvent": "CommonMenuLeftEvent"
                    },
                    {
                        "priority": 6,
                        "eventType": "MenuUpEvent",
                        "nextToHandle": "FrameEnd",
                        "contextEvent": "CommonMenuUpEvent"
                    },
                    {
                        "priority": 6,
                        "eventType": "DPadUpEvent",
                        "nextToHandle": "FrameEnd",
                        "contextEvent": "MenuNavigationUp"
                    },
                    {
                        "priority": 6,
                        "eventType": "RightStickButtonEvent",
                        "nextToHandle": "FrameEnd",
                        "contextEvent": "CommonRightStickButtonEvent"
                    },
                    {
                        "priority": 5,
                        "eventType": "LeftStickMoveEvent",
                        "contextEvent": "MoveCursorEvent"
                    }
                ]
            },
            "stateActions": {
                "0": {
                    "keyboardTouch": "Default",
                    "keyboardMouse": "Default",
                    "joypad": "Joypad"
                }
            },
            "enableJoypadVirtualCursor": false
        },
        "CoopDefeatDialog": {
            "actionGroups": {
                "Default": [
                    {
                        "priority": 10,
                        "eventType": "MenuBackEvent",
                        "nextToHandle": "FrameEnd",
                        "contextEvent": "BackEvent"
                    },
                    {
                        "priority": 10,
                        "eventType": "MenuConfirmEvent",
                        "nextToHandle": "FrameEnd",
                        "contextEvent": "ConfirmEvent"
                    }
                ]
            },
            "stateActions": {
                "0": {
                    "keyboardTouch": "Default",
                    "keyboardMouse": "Default",
                    "joypad": "Default"
                }
            },
            "enableJoypadVirtualCursor": false
        },
        "InLevelCoopBeginDialog": {
            "actionGroups": {
                "Default": [
                    {
                        "priority": 10,
                        "eventType": "MenuBackEvent",
                        "nextToHandle": "FrameEnd",
                        "contextEvent": "BackEvent"
                    },
                    {
                        "priority": 10,
                        "eventType": "MenuConfirmEvent",
                        "nextToHandle": "FrameEnd",
                        "contextEvent": "ConfirmEvent"
                    }
                ]
            },
            "stateActions": {
                "0": {
                    "keyboardTouch": "Default",
                    "keyboardMouse": "Default",
                    "joypad": "Default"
                }
            },
            "enableJoypadVirtualCursor": false
        }
    }
}