{
    "actionGroups": {
        "GameplayKeyboard": [
            {
                "priority": 1,
                "eventType": "TriggerSkill1Event"
            },
            {
                "priority": 1,
                "eventType": "ReleaseSkill1Event"
            },
            {
                "priority": 2,
                "eventType": "TriggerSkill2Event"
            },
            {
                "priority": 2,
                "eventType": "ReleaseSkill2Event"
            },
            {
                "priority": 3,
                "eventType": "TriggerSkill3Event"
            },
            {
                "priority": 3,
                "eventType": "ReleaseSkill3Event"
            },
            {
                "priority": 4,
                "eventType": "TriggerSkill4Event"
            },
            {
                "priority": 4,
                "eventType": "ReleaseSkill4Event"
            },
            {
                "priority": 5,
                "eventType": "TriggerSkill5Event"
            },
            {
                "priority": 5,
                "eventType": "ReleaseSkill5Event"
            },
            {
                "priority": 5,
                "eventType": "TriggerQuickUseEvent"
            },
            {
                "priority": 5,
                "eventType": "ReleaseQuickUseEvent"
            },
            {
                "priority": 5,
                "eventType": "TriggerActivitySkillEvent"
            },
            {
                "priority": 5,
                "eventType": "ReleaseActivitySkillEvent"
            },
            {
                "priority": 6,
                "eventType": "ToggleAttackModeEvent"
            },
            {
                "priority": 7,
                "eventType": "MoveEvent"
            },
            {
                "priority": 8,
                "eventType": "TalkOrPickEvent"
            },
            {
                "priority": 9,
                "eventType": "ChangeViewEvent"
            },
            {
                "priority": 10,
                "eventType": "ZoomCameraEvent"
            },
            {
                "priority": 11,
                "eventType": "ResetCameraEvent"
            },
            {
                "priority": 11,
                "eventType": "EnterElementViewEvent"
            },
            {
                "priority": 11,
                "eventType": "ExitElementViewEvent"
            },
            {
                "priority": 12,
                "eventType": "ToggleSlowMoveEvent"
            },
            {
                "priority": 12,
                "eventType": "ToggleSlowMoveTempEvent"
            },
            {
                "priority": 12,
                "eventType": "ResetTempSlowMoveEvent"
            },
            {
                "priority": 13,
                "eventType": "SlipEvent"
            },
            {
                "priority": 13,
                "eventType": "SlipReleaseEvent"
            },
            {
                "priority": 13,
                "eventType": "SlowMovePresseEvent"
            },
            {
                "priority": 13,
                "eventType": "SlowMoveReleaseEvent"
            },
            {
                "priority": 14,
                "eventType": "TriggerChangeWithSkillEvent"
            },
            {
                "priority": 14,
                "eventType": "CancelChangeWithSkillEvent"
            },
            {
                "priority": 15,
                "eventType": "QuestTransportEvent"
            },
            {
                "priority": 20,
                "eventType": "OpenBagEvent"
            },
            {
                "priority": 20,
                "eventType": "OpenGachaEvent"
            },
            {
                "priority": 20,
                "eventType": "MenuBackEvent"
            },
            {
                "priority": 20,
                "eventType": "OpenChatEvent"
            },
            {
                "priority": 20,
                "eventType": "OpenCharacterEvent"
            },
            {
                "priority": 20,
                "eventType": "OpenMapEvent"
            },
            {
                "priority": 20,
                "eventType": "ToggleQuestBookEvent"
            },
            {
                "priority": 20,
                "eventType": "HelpEvent"
            },
            {
                "priority": 20,
                "eventType": "MultiplayerEvent"
            },
            {
                "priority": 20,
                "eventType": "ToAvatar1Event"
            },
            {
                "priority": 20,
                "eventType": "ToAvatar2Event"
            },
            {
                "priority": 20,
                "eventType": "ToAvatar3Event"
            },
            {
                "priority": 20,
                "eventType": "ToAvatar4Event"
            },
            {
                "priority": 20,
                "eventType": "ToAvatar5Event"
            },
            {
                "priority": 15,
                "eventType": "OpenDungeonFactorEvent"
            },
            {
                "priority": 15,
                "eventType": "OpenHandbookEvent"
            },
            {
                "priority": 15,
                "eventType": "OpenPushTipsEvent"
            },
            {
                "priority": 15,
                "eventType": "OpenBattlePassEvent"
            },
            {
                "priority": 15,
                "eventType": "OpenActivityNormalEvent"
            },
            {
                "priority": 15,
                "eventType": "OpenHomeworldHandbookEvent"
            },
            {
                "priority": 15,
                "eventType": "OpenHomeworldEditorEvent"
            },
            {
                "priority": 15,
                "eventType": "OpenTeamPageEvent"
            },
            {
                "priority": 15,
                "eventType": "OpenFriendPageEvent"
            },
            {
                "priority": 16,
                "eventType": "DiveDownUpEvent"
            },
            {
                "priority": 16,
                "eventType": "DiveDownDownEvent"
            },
            {
                "priority": 17,
                "eventType": "DiveUpUpEvent"
            },
            {
                "priority": 17,
                "eventType": "DiveUpDownEvent"
            },
            {
                "priority": 20,
                "eventType": "ActivityMapScaleEvent"
            },
            {
                "priority": 20,
                "eventType": "ActivityMapSettingEvent"
            },
            {
                "priority": 20,
                "eventType": "OpenNotifyEvent"
            }
        ],
        "GameplayMouse": [
            {
                "priority": 20,
                "eventType": "OpenBagEvent"
            },
            {
                "priority": 20,
                "eventType": "OpenGachaEvent"
            },
            {
                "priority": 20,
                "eventType": "MenuBackEvent"
            },
            {
                "priority": 20,
                "eventType": "OpenChatEvent"
            },
            {
                "priority": 20,
                "eventType": "OpenCharacterEvent"
            },
            {
                "priority": 20,
                "eventType": "OpenMapEvent"
            },
            {
                "priority": 20,
                "eventType": "ToggleQuestBookEvent"
            },
            {
                "priority": 20,
                "eventType": "HelpEvent"
            },
            {
                "priority": 20,
                "eventType": "MultiplayerEvent"
            },
            {
                "priority": 20,
                "eventType": "TriggerWheelMenuEvent"
            },
            {
                "priority": 20,
                "eventType": "ToAvatar1Event"
            },
            {
                "priority": 20,
                "eventType": "ToAvatar2Event"
            },
            {
                "priority": 20,
                "eventType": "ToAvatar3Event"
            },
            {
                "priority": 20,
                "eventType": "ToAvatar4Event"
            },
            {
                "priority": 20,
                "eventType": "ToAvatar5Event"
            },
            {
                "priority": 1,
                "eventType": "TriggerSkill1Event"
            },
            {
                "priority": 1,
                "eventType": "ReleaseSkill1Event"
            },
            {
                "priority": 2,
                "eventType": "TriggerSkill2Event"
            },
            {
                "priority": 2,
                "eventType": "ReleaseSkill2Event"
            },
            {
                "priority": 3,
                "eventType": "TriggerSkill3Event"
            },
            {
                "priority": 3,
                "eventType": "ReleaseSkill3Event"
            },
            {
                "priority": 4,
                "eventType": "TriggerSkill4Event"
            },
            {
                "priority": 4,
                "eventType": "ReleaseSkill4Event"
            },
            {
                "priority": 5,
                "eventType": "TriggerSkill5Event"
            },
            {
                "priority": 5,
                "eventType": "ReleaseSkill5Event"
            },
            {
                "priority": 5,
                "eventType": "TriggerQuickUseEvent"
            },
            {
                "priority": 5,
                "eventType": "ReleaseQuickUseEvent"
            },
            {
                "priority": 5,
                "eventType": "TriggerActivitySkillEvent"
            },
            {
                "priority": 5,
                "eventType": "ReleaseActivitySkillEvent"
            },
            {
                "priority": 6,
                "eventType": "ToggleAttackModeEvent"
            },
            {
                "priority": 7,
                "eventType": "MoveEvent"
            },
            {
                "priority": 8,
                "eventType": "TalkOrPickEvent"
            },
            {
                "priority": 9,
                "eventType": "ChangeViewEvent"
            },
            {
                "priority": 10,
                "eventType": "ToPrevInteeEvent"
            },
            {
                "priority": 10,
                "eventType": "ToNextInteeEvent"
            },
            {
                "priority": 10,
                "eventType": "ZoomCameraEvent"
            },
            {
                "priority": 11,
                "eventType": "ResetCameraEvent"
            },
            {
                "priority": 11,
                "eventType": "EnterElementViewEvent"
            },
            {
                "priority": 11,
                "eventType": "ExitElementViewEvent"
            },
            {
                "priority": 12,
                "eventType": "ToggleSlowMoveEvent"
            },
            {
                "priority": 12,
                "eventType": "ToggleSlowMoveTempEvent"
            },
            {
                "priority": 12,
                "eventType": "ResetTempSlowMoveEvent"
            },
            {
                "priority": 13,
                "eventType": "SlipEvent"
            },
            {
                "priority": 13,
                "eventType": "SlipReleaseEvent"
            },
            {
                "priority": 13,
                "eventType": "SlowMovePresseEvent"
            },
            {
                "priority": 13,
                "eventType": "SlowMoveReleaseEvent"
            },
            {
                "priority": 14,
                "eventType": "TriggerChangeWithSkillEvent"
            },
            {
                "priority": 14,
                "eventType": "CancelChangeWithSkillEvent"
            },
            {
                "priority": 15,
                "eventType": "QuestTransportEvent"
            },
            {
                "priority": 15,
                "eventType": "OpenDungeonFactorEvent"
            },
            {
                "priority": 15,
                "eventType": "OpenHandbookEvent"
            },
            {
                "priority": 15,
                "eventType": "OpenPushTipsEvent"
            },
            {
                "priority": 15,
                "eventType": "OpenBattlePassEvent"
            },
            {
                "priority": 15,
                "eventType": "OpenActivityNormalEvent"
            },
            {
                "priority": 15,
                "eventType": "OpenHomeworldHandbookEvent"
            },
            {
                "priority": 15,
                "eventType": "OpenHomeworldEditorEvent"
            },
            {
                "priority": 15,
                "eventType": "OpenTeamPageEvent"
            },
            {
                "priority": 15,
                "eventType": "OpenFriendPageEvent"
            },
            {
                "priority": 16,
                "eventType": "DiveDownUpEvent"
            },
            {
                "priority": 16,
                "eventType": "DiveDownDownEvent"
            },
            {
                "priority": 17,
                "eventType": "DiveUpUpEvent"
            },
            {
                "priority": 17,
                "eventType": "DiveUpDownEvent"
            },
            {
                "priority": 20,
                "eventType": "ActivityMapScaleEvent"
            },
            {
                "priority": 20,
                "eventType": "ActivityMapSettingEvent"
            },
            {
                "priority": 20,
                "eventType": "OpenNotifyEvent"
            },
            {
                "priority": 20,
                "eventType": "MouseLeftButtonEvent"
            }
        ],
        "GameplayJoypad": [
            {
                "priority": 20,
                "eventType": "OpenPaimonEvent"
            },
            {
                "priority": 20,
                "eventType": "TriggerWheelMenuEvent"
            },
            {
                "priority": 20,
                "eventType": "QuestTransportEvent",
                "contextEvent": "ReturnToQuestEvent"
            },
            {
                "priority": 1,
                "eventType": "TalkOrPickEvent"
            },
            {
                "priority": 1,
                "eventType": "DPadUpEvent"
            },
            {
                "priority": 1,
                "eventType": "DPadRightEvent"
            },
            {
                "priority": 1,
                "eventType": "DPadDownEvent"
            },
            {
                "priority": 1,
                "eventType": "DPadLeftEvent"
            },
            {
                "priority": 1,
                "eventType": "TriggerSkill1Event"
            },
            {
                "priority": 1,
                "eventType": "ReleaseSkill1Event"
            },
            {
                "priority": 2,
                "eventType": "TriggerSkill2Event"
            },
            {
                "priority": 2,
                "eventType": "ReleaseSkill2Event"
            },
            {
                "priority": 3,
                "eventType": "TriggerSkill3Event"
            },
            {
                "priority": 3,
                "eventType": "ReleaseSkill3Event"
            },
            {
                "priority": 4,
                "eventType": "TriggerSkill4Event"
            },
            {
                "priority": 4,
                "eventType": "ReleaseSkill4Event"
            },
            {
                "priority": 5,
                "eventType": "TriggerSkill5Event"
            },
            {
                "priority": 5,
                "eventType": "ReleaseSkill5Event"
            },
            {
                "priority": 6,
                "eventType": "EnterFocusModeEvent"
            },
            {
                "priority": 6,
                "eventType": "ExitFocusModeEvent"
            },
            {
                "priority": 6,
                "eventType": "JoypadDiveTriggerSkill1Event"
            },
            {
                "priority": 6,
                "eventType": "JoypadDiveReleaseSkill1Event"
            },
            {
                "priority": 7,
                "eventType": "MoveEvent"
            },
            {
                "priority": 9,
                "eventType": "ChangeViewEvent"
            },
            {
                "priority": 10,
                "eventType": "JoypadToggleInteeEvent"
            },
            {
                "priority": 11,
                "eventType": "ResetCameraEvent"
            },
            {
                "priority": 12,
                "eventType": "SlipEvent"
            },
            {
                "priority": 12,
                "eventType": "SlipReleaseEvent"
            },
            {
                "priority": 13,
                "eventType": "SlowMovePresseEvent"
            },
            {
                "priority": 13,
                "eventType": "SlowMoveReleaseEvent"
            },
            {
                "priority": 16,
                "eventType": "JoypadDiveDownUpEvent"
            },
            {
                "priority": 16,
                "eventType": "JoypadDiveDownDownEvent"
            },
            {
                "priority": 17,
                "eventType": "JoypadDiveUpUpEvent"
            },
            {
                "priority": 17,
                "eventType": "JoypadDiveUpDownEvent"
            },
            {
                "priority": 20,
                "eventType": "OpenChatJoystickEvent",
                "contextEvent": "OpenChatEvent"
            },
            {
                "priority": 20,
                "eventType": "OpenChatCancelJoystickEvent"
            },
            {
                "priority": 20,
                "eventType": "ActivityMapScaleEvent",
                "contextEvent": "CommonMenuUpEvent"
            },
            {
                "priority": 20,
                "eventType": "ActivityMapSettingEvent",
                "contextEvent": "CommonLeftStickButtonEvent"
            },
            {
                "priority": 19,
                "eventType": "LeftTriggerEvent"
            },
            {
                "priority": 20,
                "eventType": "RightTriggerEvent"
            },
            {
                "priority": 20,
                "eventType": "ExteraSelectRightEvent"
            },
            {
                "priority": 20,
                "eventType": "ExteraSelectDownEvent"
            },
            {
                "priority": 20,
                "eventType": "ExteraSelectDownReleaseEvent"
            }
        ],
        "GameplayJoypadMoveOnly": [
            {
                "priority": 7,
                "eventType": "MoveEvent"
            }
        ],
        "GameplayJoypadMoveAndChangeView": [
            {
                "eventType": "ChangeViewEvent"
            },
            {
                "priority": 7,
                "eventType": "MoveEvent"
            },
            {
                "priority": 14,
                "eventType": "TriggerChangeWithSkillEvent"
            },
            {
                "priority": 14,
                "eventType": "CancelChangeWithSkillEvent"
            }
        ],
        "Custom": [],
        "WheelMenu": [
            {
                "eventType": "DPadUpEvent",
                "nextToHandle": "FrameEnd",
                "contextEvent": "ActionNorthEvent"
            },
            {
                "eventType": "DPadRightEvent",
                "nextToHandle": "FrameEnd",
                "contextEvent": "ActionEastEvent"
            },
            {
                "eventType": "DPadDownEvent",
                "nextToHandle": "FrameEnd",
                "contextEvent": "ActionSouthEvent"
            },
            {
                "eventType": "DPadLeftEvent",
                "nextToHandle": "FrameEnd",
                "contextEvent": "ActionWestEvent"
            },
            {
                "eventType": "LeftTriggerEvent",
                "nextToHandle": "FrameEnd",
                "contextEvent": "CommonLeftTriggerEvent"
            },
            {
                "eventType": "RightTriggerEvent",
                "nextToHandle": "FrameEnd",
                "contextEvent": "CommonRightTriggerEvent"
            },
            {
                "eventType": "ExteraSelectUpEvent",
                "nextToHandle": "FrameEnd",
                "contextEvent": "ExteraSelectUpEvent"
            },
            {
                "eventType": "ExteraSelectDownEvent",
                "nextToHandle": "FrameEnd",
                "contextEvent": "ExteraSelectDownEvent"
            },
            {
                "eventType": "ExteraSelectLeftEvent",
                "nextToHandle": "FrameEnd",
                "contextEvent": "ExteraSelectLeftEvent"
            },
            {
                "eventType": "ExteraSelectRightEvent",
                "nextToHandle": "FrameEnd",
                "contextEvent": "ExteraSelectRightEvent"
            },
            {
                "eventType": "ExteraSelectRightReleaseEvent",
                "nextToHandle": "FrameEnd",
                "contextEvent": "ExteraSelectRightReleaseEvent"
            },
            {
                "eventType": "CloseWheelMenuEvent"
            },
            {
                "eventType": "ChangeViewEvent"
            },
            {
                "priority": 1,
                "eventType": "ZoomCameraEvent"
            },
            {
                "priority": 9,
                "eventType": "RightStickButtonEvent",
                "nextToHandle": "FrameEnd",
                "contextEvent": "CommonRightStickButtonEvent"
            },
            {
                "priority": 4,
                "eventType": "RightStickLeftEvent",
                "contextEvent": "CommonRightStickLeftEvent"
            },
            {
                "priority": 4,
                "eventType": "RightStickRightEvent",
                "contextEvent": "CommonRightStickRightEvent"
            }
        ],
        "QuestTrack": [
            {
                "priority": 1,
                "eventType": "TrackQuestEvent",
                "contextEvent": "NavigateToQuestEvent"
            },
            {
                "priority": 1,
                "eventType": "ChallengeInterruptEvent",
                "nextToHandle": "FrameEnd",
                "contextEvent": "ChallengeInterruptEvent"
            }
        ],
        "QuestTrack_Joypad": [
            {
                "priority": 10,
                "eventType": "LeftStickButtonEvent",
                "nextToHandle": "FrameEnd",
                "contextEvent": "NavigateToQuestEvent"
            },
            {
                "priority": 1,
                "eventType": "ChallengeInterruptJoystickEvent",
                "nextToHandle": "FrameEnd",
                "contextEvent": "ChallengeInterruptEvent"
            }
        ],
        "MPInvitation_Joypad": [
            {
                "priority": 1,
                "eventType": "LeftStickButtonEvent",
                "contextEvent": "ConfirmEvent"
            }
        ]
    },
    "context": {
        "InLevelMainPage": {
            "stateActions": {
                "0": {
                    "keyboardTouch": "GameplayKeyboard",
                    "keyboardMouse": "GameplayMouse",
                    "joypad": "GameplayJoypad"
                },
                "-1": {
                    "keyboardTouch": "Custom",
                    "keyboardMouse": "Custom",
                    "joypad": "Custom"
                },
                "1": {
                    "keyboardTouch": "GameplayJoypadMoveOnly",
                    "keyboardMouse": "GameplayJoypadMoveOnly",
                    "joypad": "GameplayJoypadMoveOnly"
                },
                "2": {
                    "keyboardTouch": "GameplayJoypadMoveOnly",
                    "keyboardMouse": "GameplayJoypadMoveOnly",
                    "joypad": "GameplayJoypadMoveAndChangeView"
                }
            },
            "enableJoypadVirtualCursor": false,
            "CFPAAGKHEEP": {
                "$type": "KFPDEIBHCFO",
                "GEKLEKPEAJL": [
                    {
                        "eventType": "ZoomCameraEvent"
                    },
                    {
                        "eventType": "MoveEvent"
                    },
                    {
                        "eventType": "ChangeViewEvent"
                    },
                    {
                        "eventType": "CloseWheelMenuEvent"
                    },
                    {
                        "eventType": "SlowMovePresseEvent"
                    },
                    {
                        "eventType": "SlowMoveReleaseEvent"
                    },
                    {
                        "eventType": "CancelChangeWithSkillEvent"
                    },
                    {
                        "eventType": "MouseLeftButtonEvent"
                    },
                    {
                        "eventType": "LeftTriggerEvent"
                    },
                    {
                        "eventType": "RightTriggerEvent"
                    },
                    {
                        "eventType": "ExteraSelectRightEvent"
                    },
                    {
                        "eventType": "ExteraSelectDownEvent"
                    },
                    {
                        "eventType": "ExteraSelectDownReleaseEvent"
                    },
                    {
                        "eventType": "DiveDownUpEvent"
                    },
                    {
                        "eventType": "DiveUpUpEvent"
                    },
                    {
                        "eventType": "JoypadDiveDownUpEvent"
                    }
                ]
            }
        },
        "InLevelVirtualDialDialog": {
            "stateActions": {
                "0": {
                    "keyboardTouch": "WheelMenu",
                    "keyboardMouse": "WheelMenu",
                    "joypad": "WheelMenu"
                }
            },
            "enableInputPenetrate": true,
            "enableJoypadVirtualCursor": false
        },
        "MPInvitationDialog": {
            "stateActions": {
                "0": {
                    "keyboardTouch": "NotifyBanner",
                    "keyboardMouse": "NotifyBanner",
                    "joypad": "MPInvitation_Joypad"
                }
            },
            "enableInputPenetrate": true,
            "enableJoypadVirtualCursor": false
        },
        "InLevelQuestHintDialog": {
            "stateActions": {
                "0": {
                    "keyboardTouch": "QuestTrack",
                    "keyboardMouse": "QuestTrack",
                    "joypad": "QuestTrack_Joypad"
                }
            },
            "enableInputPenetrate": true,
            "enableJoypadVirtualCursor": false
        },
        "InLevelGalleryDialogContext": {
            "stateActions": {
                "0": {
                    "keyboardTouch": "QuestTrack",
                    "keyboardMouse": "QuestTrack",
                    "joypad": "QuestTrack_Joypad"
                }
            },
            "enableInputPenetrate": true,
            "enableJoypadVirtualCursor": false
        },
        "ClimateDialog": {
            "actionGroups": {
                "Default": [
                    {
                        "priority": 10,
                        "eventType": "MenuBackEvent",
                        "contextEvent": "BackEvent"
                    },
                    {
                        "priority": 10,
                        "eventType": "MenuConfirmEvent",
                        "contextEvent": "ConfirmEvent"
                    },
                    {
                        "priority": 4,
                        "eventType": "LeftStickVerticalEvent",
                        "contextEvent": "ScrollPrimaryScrollerEvent"
                    }
                ]
            },
            "stateActions": {
                "0": {
                    "keyboardTouch": "Default",
                    "keyboardMouse": "Default",
                    "joypad": "Default"
                }
            },
            "enableJoypadVirtualCursor": false
        }
    }
}