{
    "npcId": 12858,
    "talks": [
        {
            "id": 4008120,
            "beginWay": "TALK_BEGIN_MANUAL",
            "beginCond": [
                {
                    "type": "QUEST_COND_STATE_EQUAL",
                    "param": [
                        "4008121",
                        "3"
                    ]
                }
            ],
            "priority": 1,
            "initDialog": 400812001,
            "npcId": [
                12858
            ],
            "performCfg": "",
            "heroTalk": "TALK_HERO_MAIN",
            "assetIndex": 1371160318999421146,
            "prePerformCfg": "",
            "MFGJDPNMDPB": [
                9000
            ]
        },
        {
            "id": 4008132,
            "beginWay": "TALK_BEGIN_MANUAL",
            "beginCondComb": "LOGIC_AND",
            "beginCond": [
                {
                    "type": "QUEST_COND_STATE_EQUAL",
                    "param": [
                        "4008213",
                        "3"
                    ]
                }
            ],
            "priority": 2,
            "initDialog": 400813201,
            "npcId": [
                12858
            ],
            "performCfg": "",
            "heroTalk": "TALK_HERO_MAIN",
            "assetIndex": 7922396633226535995,
            "prePerformCfg": "",
            "MFGJDPNMDPB": [
                9000
            ]
        },
        {
            "id": 4008147,
            "beginWay": "TALK_BEGIN_MANUAL",
            "beginCondComb": "LOGIC_AND",
            "beginCond": [
                {
                    "type": "QUEST_COND_STATE_EQUAL",
                    "param": [
                        "4008402",
                        "3"
                    ]
                }
            ],
            "priority": 5,
            "initDialog": 400814701,
            "npcId": [
                12858
            ],
            "performCfg": "",
            "heroTalk": "TALK_HERO_MAIN",
            "assetIndex": 2841566948244202026,
            "prePerformCfg": "",
            "MFGJDPNMDPB": [
                9000
            ]
        },
        {
            "id": 4008154,
            "beginWay": "TALK_BEGIN_MANUAL",
            "beginCondComb": "LOGIC_AND",
            "beginCond": [
                {
                    "type": "QUEST_COND_STATE_EQUAL",
                    "param": [
                        "4008506",
                        "3"
                    ]
                }
            ],
            "priority": 7,
            "initDialog": 400815401,
            "npcId": [
                12858
            ],
            "performCfg": "",
            "heroTalk": "TALK_HERO_MAIN",
            "assetIndex": 13912326074805715670,
            "prePerformCfg": "",
            "MFGJDPNMDPB": [
                9000
            ]
        }
    ]
}