{
    "npcId": 1583,
    "talks": [
        {
            "id": 7051604,
            "beginWay": "TALK_BEGIN_MANUAL",
            "activeMode": "PLAY_MODE_HOST",
            "beginCond": [
                {
                    "type": "QUEST_COND_STATE_EQUAL",
                    "param": [
                        "7051601",
                        "2"
                    ]
                }
            ],
            "priority": 5,
            "initDialog": 705160401,
            "npcId": [
                1583
            ],
            "performCfg": "QuestDialogue/WQ/Mengde_70516/Q7051604",
            "heroTalk": "TALK_HERO_MAIN",
            "assetIndex": 17100966300366543735,
            "prePerformCfg": ""
        },
        {
            "id": 7093301,
            "beginWay": "TALK_BEGIN_MANUAL",
            "beginCondComb": "LOGIC_OR",
            "beginCond": [
                {
                    "type": "QUEST_COND_QUEST_NOT_RECEIVE",
                    "param": [
                        "7093301",
                        "1"
                    ]
                }
            ],
            "priority": 1,
            "initDialog": 709330101,
            "npcId": [
                1583
            ],
            "performCfg": "",
            "assetIndex": 7124618289312118947,
            "dontBlockDaily": true,
            "prePerformCfg": ""
        },
        {
            "id": 6158301,
            "beginWay": "TALK_BEGIN_MANUAL",
            "priority": 3,
            "nextTalks": [
                6158302,
                6158303,
                6158304
            ],
            "initDialog": 615830101,
            "npcId": [
                1583
            ],
            "performCfg": "",
            "assetIndex": 5000238752250383405,
            "prePerformCfg": "",
            "MFGJDPNMDPB": [
                9000
            ]
        },
        {
            "id": 6158302,
            "beginWay": "TALK_BEGIN_MANUAL",
            "priority": 1,
            "nextTalks": [
                7093301
            ],
            "initDialog": 615830201,
            "npcId": [
                1583
            ],
            "performCfg": "",
            "assetIndex": 18281148816612712191,
            "prePerformCfg": ""
        },
        {
            "id": 6158303,
            "beginWay": "TALK_BEGIN_MANUAL",
            "priority": 1,
            "initDialog": 615830301,
            "npcId": [
                1583
            ],
            "performCfg": "",
            "assetIndex": 7380540200292033406,
            "prePerformCfg": ""
        },
        {
            "id": 6158304,
            "beginWay": "TALK_BEGIN_MANUAL",
            "priority": 1,
            "initDialog": 615830401,
            "npcId": [
                1583
            ],
            "performCfg": "",
            "assetIndex": 12825242251313920292,
            "prePerformCfg": ""
        }
    ]
}