{
    "npcId": 1672,
    "talks": [
        {
            "id": 6167201,
            "beginWay": "TALK_BEGIN_MANUAL",
            "priority": 3,
            "nextTalks": [
                6167202,
                6167204
            ],
            "initDialog": 616720101,
            "npcId": [
                1672
            ],
            "performCfg": "",
            "assetIndex": 1547840843098997256,
            "prePerformCfg": "",
            "MFGJDPNMDPB": [
                9000
            ]
        },
        {
            "id": 6167202,
            "beginWay": "TALK_BEGIN_MANUAL",
            "priority": 1,
            "nextTalks": [
                6167203
            ],
            "initDialog": 616720201,
            "npcId": [
                1672
            ],
            "performCfg": "",
            "assetIndex": 8062083613200295265,
            "prePerformCfg": ""
        },
        {
            "id": 6167203,
            "beginWay": "TALK_BEGIN_MANUAL",
            "priority": 1,
            "initDialog": 616720301,
            "npcId": [
                1672
            ],
            "performCfg": "",
            "assetIndex": 11320546642894729709,
            "prePerformCfg": ""
        },
        {
            "id": 6167204,
            "beginWay": "TALK_BEGIN_MANUAL",
            "priority": 1,
            "initDialog": 616720401,
            "npcId": [
                1672
            ],
            "performCfg": "",
            "assetIndex": 13035916839221193738,
            "prePerformCfg": ""
        }
    ]
}