{
    "npcId": 2003,
    "talks": [
        {
            "id": 4003720,
            "beginWay": "TALK_BEGIN_MANUAL",
            "beginCondComb": "LOGIC_AND",
            "beginCond": [
                {
                    "type": "QUEST_COND_ACTIVITY_CLIENT_COND",
                    "param": [
                        "2010",
                        "2010002",
                        "1"
                    ]
                },
                {
                    "type": "QUEST_COND_QUEST_GLOBAL_VAR_EQUAL",
                    "param": [
                        "20014",
                        "0"
                    ]
                }
            ],
            "priority": 5,
            "nextTalks": [
                6200302,
                6200303,
                6200304
            ],
            "initDialog": 400372001,
            "npcId": [
                2003
            ],
            "performCfg": "",
            "assetIndex": 2912659161668090493,
            "prePerformCfg": ""
        },
        {
            "id": 4003750,
            "beginWay": "TALK_BEGIN_MANUAL",
            "beginCondComb": "LOGIC_AND",
            "beginCond": [
                {
                    "type": "QUEST_COND_ACTIVITY_CLIENT_COND",
                    "param": [
                        "2010",
                        "2010002",
                        "1"
                    ]
                },
                {
                    "type": "QUEST_COND_QUEST_GLOBAL_VAR_EQUAL",
                    "param": [
                        "20014",
                        "1"
                    ]
                }
            ],
            "priority": 5,
            "nextTalks": [
                6200306,
                6200307,
                6200308
            ],
            "initDialog": 400372001,
            "npcId": [
                2003
            ],
            "performCfg": "",
            "assetIndex": 17419241324138235390,
            "prePerformCfg": ""
        },
        {
            "id": 6200309,
            "beginCondComb": "LOGIC_AND",
            "beginCond": [
                {
                    "type": "QUEST_COND_QUEST_GLOBAL_VAR_EQUAL",
                    "param": [
                        "20015",
                        "1"
                    ]
                },
                {
                    "type": "QUEST_COND_QUEST_GLOBAL_VAR_EQUAL",
                    "param": [
                        "11026",
                        "1"
                    ]
                }
            ],
            "priority": 1,
            "initDialog": 620030901,
            "npcId": [
                2003
            ],
            "performCfg": "",
            "assetIndex": 3934406041887750854,
            "prePerformCfg": "",
            "stayFreeStyle": true
        },
        {
            "id": 6200310,
            "beginWay": "TALK_BEGIN_MANUAL",
            "activeMode": "PLAY_MODE_HOST",
            "beginCond": [
                {
                    "type": "QUEST_COND_GCG_LEVEL_UNLOCKED",
                    "param": [
                        "6200310"
                    ]
                }
            ],
            "priority": 1,
            "initDialog": 620031001,
            "npcId": [
                2003
            ],
            "performCfg": "",
            "assetIndex": 8628340646685422972,
            "prePerformCfg": "",
            "stayFreeStyle": true
        },
        {
            "id": 6200311,
            "beginWay": "TALK_BEGIN_MANUAL",
            "activeMode": "PLAY_MODE_HOST",
            "beginCond": [
                {
                    "type": "QUEST_COND_GCG_LEVEL_UNLOCKED",
                    "param": [
                        "6200311"
                    ]
                }
            ],
            "priority": 1,
            "initDialog": 620031101,
            "npcId": [
                2003
            ],
            "performCfg": "",
            "assetIndex": 4328590482440243842,
            "prePerformCfg": "",
            "stayFreeStyle": true
        },
        {
            "id": 6200312,
            "beginWay": "TALK_BEGIN_AUTO",
            "activeMode": "PLAY_MODE_HOST",
            "beginCond": [
                {
                    "type": "QUEST_COND_GCG_WORLD_CHALLENGE_RESULT",
                    "param": [
                        "1",
                        "2003",
                        "6200310"
                    ]
                }
            ],
            "priority": 10,
            "initDialog": 620031201,
            "npcId": [
                2003
            ],
            "performCfg": "",
            "assetIndex": 1988551021863760640,
            "prePerformCfg": "",
            "stayFreeStyle": true
        },
        {
            "id": 6200313,
            "beginWay": "TALK_BEGIN_AUTO",
            "activeMode": "PLAY_MODE_HOST",
            "beginCond": [
                {
                    "type": "QUEST_COND_GCG_WORLD_CHALLENGE_RESULT",
                    "param": [
                        "-1",
                        "2003",
                        "6200310"
                    ]
                }
            ],
            "priority": 10,
            "initDialog": 620031301,
            "npcId": [
                2003
            ],
            "performCfg": "",
            "assetIndex": 4297056200268413736,
            "prePerformCfg": "",
            "stayFreeStyle": true
        },
        {
            "id": 6200314,
            "beginWay": "TALK_BEGIN_AUTO",
            "activeMode": "PLAY_MODE_HOST",
            "beginCond": [
                {
                    "type": "QUEST_COND_GCG_WORLD_CHALLENGE_RESULT",
                    "param": [
                        "1",
                        "2003",
                        "6200311"
                    ]
                }
            ],
            "priority": 10,
            "initDialog": 620031401,
            "npcId": [
                2003
            ],
            "performCfg": "",
            "assetIndex": 17041604031421407650,
            "prePerformCfg": "",
            "stayFreeStyle": true
        },
        {
            "id": 6200315,
            "beginWay": "TALK_BEGIN_AUTO",
            "activeMode": "PLAY_MODE_HOST",
            "beginCond": [
                {
                    "type": "QUEST_COND_GCG_WORLD_CHALLENGE_RESULT",
                    "param": [
                        "-1",
                        "2003",
                        "6200311"
                    ]
                }
            ],
            "priority": 10,
            "initDialog": 620031501,
            "npcId": [
                2003
            ],
            "performCfg": "",
            "assetIndex": 7659676272501951684,
            "prePerformCfg": "",
            "stayFreeStyle": true
        },
        {
            "id": 7190101,
            "beginWay": "TALK_BEGIN_MANUAL",
            "beginCondComb": "LOGIC_OR",
            "beginCond": [
                {
                    "type": "QUEST_COND_QUEST_NOT_RECEIVE",
                    "param": [
                        "7190101",
                        "1"
                    ]
                }
            ],
            "priority": 1,
            "initDialog": 719010101,
            "npcId": [
                2003
            ],
            "performCfg": "",
            "assetIndex": 12542291921787864163,
            "dontBlockDaily": true,
            "prePerformCfg": "",
            "stayFreeStyle": true
        },
        {
            "id": 7195301,
            "beginWay": "TALK_BEGIN_MANUAL",
            "beginCondComb": "LOGIC_AND",
            "beginCond": [
                {
                    "type": "QUEST_COND_QUEST_NOT_RECEIVE",
                    "param": [
                        "7195301",
                        "1"
                    ]
                },
                {
                    "type": "QUEST_COND_QUEST_NOT_RECEIVE",
                    "param": [
                        "7190101",
                        "1"
                    ]
                }
            ],
            "priority": 1,
            "initDialog": 719530101,
            "npcId": [
                2003
            ],
            "performCfg": "",
            "assetIndex": 9554390742450821517,
            "dontBlockDaily": true,
            "prePerformCfg": "",
            "stayFreeStyle": true
        },
        {
            "id": 6200301,
            "beginWay": "TALK_BEGIN_MANUAL",
            "activeMode": "PLAY_MODE_HOST",
            "priority": 3,
            "nextTalks": [
                6200310,
                6200302,
                6200303,
                6200304
            ],
            "initDialog": 620030101,
            "npcId": [
                2003
            ],
            "performCfg": "",
            "assetIndex": 15868722685631673524,
            "prePerformCfg": "",
            "stayFreeStyle": true
        },
        {
            "id": 6200302,
            "beginWay": "TALK_BEGIN_MANUAL",
            "priority": 1,
            "nextTalks": [
                7190101
            ],
            "initDialog": 620030201,
            "npcId": [
                2003
            ],
            "performCfg": "",
            "assetIndex": 16519150742883076517,
            "prePerformCfg": "",
            "stayFreeStyle": true,
            "PPELGGCANIE": true
        },
        {
            "id": 6200303,
            "beginWay": "TALK_BEGIN_MANUAL",
            "priority": 1,
            "initDialog": 620030301,
            "npcId": [
                2003
            ],
            "performCfg": "",
            "assetIndex": 15953163859701623807,
            "prePerformCfg": "",
            "stayFreeStyle": true
        },
        {
            "id": 6200304,
            "beginWay": "TALK_BEGIN_MANUAL",
            "activeMode": "PLAY_MODE_HOST",
            "priority": 1,
            "initDialog": 620030401,
            "npcId": [
                2003
            ],
            "performCfg": "",
            "assetIndex": 16863668800216154657,
            "prePerformCfg": "",
            "stayFreeStyle": true
        },
        {
            "id": 6200305,
            "beginWay": "TALK_BEGIN_MANUAL",
            "activeMode": "PLAY_MODE_HOST",
            "beginCond": [
                {
                    "type": "QUEST_COND_QUEST_GLOBAL_VAR_EQUAL",
                    "param": [
                        "20014",
                        "1"
                    ]
                }
            ],
            "priority": 4,
            "nextTalks": [
                6200310,
                6200306,
                6200307,
                6200309,
                6200308
            ],
            "initDialog": 620030501,
            "npcId": [
                2003
            ],
            "performCfg": "",
            "assetIndex": 11041097664711407993,
            "prePerformCfg": "",
            "stayFreeStyle": true
        },
        {
            "id": 6200306,
            "beginWay": "TALK_BEGIN_MANUAL",
            "priority": 1,
            "nextTalks": [
                7195301
            ],
            "initDialog": 620030601,
            "npcId": [
                2003
            ],
            "performCfg": "",
            "assetIndex": 14050203359490023934,
            "prePerformCfg": "",
            "stayFreeStyle": true,
            "PPELGGCANIE": true
        },
        {
            "id": 6200307,
            "beginWay": "TALK_BEGIN_MANUAL",
            "priority": 1,
            "initDialog": 620030701,
            "npcId": [
                2003
            ],
            "performCfg": "",
            "assetIndex": 5927330103173715170,
            "prePerformCfg": "",
            "stayFreeStyle": true
        },
        {
            "id": 6200308,
            "beginWay": "TALK_BEGIN_MANUAL",
            "activeMode": "PLAY_MODE_HOST",
            "priority": 1,
            "initDialog": 620030801,
            "npcId": [
                2003
            ],
            "performCfg": "",
            "assetIndex": 5710795220808218459,
            "prePerformCfg": "",
            "stayFreeStyle": true
        },
        {
            "id": 7200301,
            "beginWay": "TALK_BEGIN_MANUAL",
            "beginCond": [
                {
                    "type": "QUEST_COND_ACTIVITY_OPEN",
                    "param": [
                        "1001"
                    ]
                }
            ],
            "priority": 4,
            "nextTalks": [
                7200302,
                7200303
            ],
            "initDialog": 720030101,
            "npcId": [
                2003
            ],
            "performCfg": "",
            "assetIndex": 7846360834156446768,
            "prePerformCfg": "",
            "MFGJDPNMDPB": [
                9000
            ]
        },
        {
            "id": 7200302,
            "beginWay": "TALK_BEGIN_MANUAL",
            "priority": 1,
            "initDialog": 720030201,
            "npcId": [
                2003
            ],
            "performCfg": "",
            "assetIndex": 15697936888173183634,
            "prePerformCfg": ""
        },
        {
            "id": 7200303,
            "beginWay": "TALK_BEGIN_MANUAL",
            "priority": 1,
            "initDialog": 720030301,
            "npcId": [
                2003
            ],
            "performCfg": "",
            "assetIndex": 7836920452905297123,
            "prePerformCfg": ""
        }
    ]
}