{
    "npcId": 2090,
    "talks": [
        {
            "id": 4003746,
            "beginWay": "TALK_BEGIN_MANUAL",
            "beginCond": [
                {
                    "type": "QUEST_COND_ACTIVITY_CLIENT_COND",
                    "param": [
                        "2010",
                        "2010004",
                        "1"
                    ]
                }
            ],
            "priority": 5,
            "nextTalks": [
                1200205,
                6209002,
                6209007,
                6209004,
                6209003,
                6209006,
                6209005
            ],
            "initDialog": 400374601,
            "npcId": [
                2090
            ],
            "performCfg": "",
            "assetIndex": 371338039173494773,
            "prePerformCfg": ""
        },
        {
            "id": 6209001,
            "beginWay": "TALK_BEGIN_MANUAL",
            "priority": 3,
            "nextTalks": [
                1200205,
                6209002,
                6209007,
                6209004,
                6209003,
                6209006,
                6209005
            ],
            "initDialog": 620900101,
            "npcId": [
                2090
            ],
            "performCfg": "",
            "assetIndex": 2587462291490469510,
            "prePerformCfg": "",
            "MFGJDPNMDPB": [
                9000
            ]
        },
        {
            "id": 6209002,
            "beginWay": "TALK_BEGIN_MANUAL",
            "beginCond": [
                {
                    "type": "QUEST_COND_OPEN_STATE_EQUAL",
                    "param": [
                        "1008",
                        "1"
                    ]
                }
            ],
            "priority": 1,
            "initDialog": 620900201,
            "npcId": [
                2090
            ],
            "performCfg": "",
            "assetIndex": 7297471003055432546,
            "prePerformCfg": ""
        },
        {
            "id": 6209003,
            "beginWay": "TALK_BEGIN_MANUAL",
            "priority": 1,
            "initDialog": 620900301,
            "npcId": [
                2090
            ],
            "performCfg": "",
            "assetIndex": 15418212172642187240,
            "prePerformCfg": ""
        },
        {
            "id": 6209004,
            "beginWay": "TALK_BEGIN_MANUAL",
            "beginCondComb": "LOGIC_AND",
            "beginCond": [
                {
                    "type": "QUEST_COND_STATE_EQUAL",
                    "param": [
                        "100008",
                        "3"
                    ]
                },
                {
                    "type": "QUEST_COND_QUEST_GLOBAL_VAR_EQUAL",
                    "param": [
                        "10007",
                        "0"
                    ]
                }
            ],
            "priority": 1,
            "initDialog": 620900401,
            "npcId": [
                2090
            ],
            "performCfg": "",
            "assetIndex": 8391161202831001124,
            "prePerformCfg": ""
        },
        {
            "id": 6209005,
            "beginWay": "TALK_BEGIN_MANUAL",
            "priority": 1,
            "initDialog": 620900501,
            "npcId": [
                2090
            ],
            "performCfg": "",
            "assetIndex": 15920886580748677182,
            "prePerformCfg": ""
        },
        {
            "id": 6209006,
            "beginWay": "TALK_BEGIN_MANUAL",
            "priority": 1,
            "initDialog": 620900601,
            "npcId": [
                2090
            ],
            "performCfg": "",
            "assetIndex": 106296667428126541,
            "prePerformCfg": ""
        },
        {
            "id": 6209007,
            "beginWay": "TALK_BEGIN_MANUAL",
            "beginCond": [
                {
                    "type": "QUEST_COND_QUEST_GLOBAL_VAR_EQUAL",
                    "param": [
                        "10007",
                        "1"
                    ]
                }
            ],
            "priority": 1,
            "initDialog": 620900701,
            "npcId": [
                2090
            ],
            "performCfg": "",
            "assetIndex": 17317122242127951877,
            "prePerformCfg": ""
        }
    ]
}