{
    "npcId": 3042,
    "talks": [
        {
            "id": 6304201,
            "beginWay": "TALK_BEGIN_MANUAL",
            "activeMode": "PLAY_MODE_HOST",
            "priority": 3,
            "nextTalks": [
                6304205,
                6304202,
                6304203,
                6304204
            ],
            "initDialog": 630420101,
            "npcId": [
                3042
            ],
            "performCfg": "",
            "assetIndex": 2158477615400258738,
            "prePerformCfg": "",
            "MFGJDPNMDPB": [
                9000
            ]
        },
        {
            "id": 6304202,
            "priority": 1,
            "nextTalks": [
                7291801
            ],
            "initDialog": 630420201,
            "npcId": [
                3042
            ],
            "performCfg": "",
            "assetIndex": 9059160583966393561,
            "prePerformCfg": ""
        },
        {
            "id": 6304203,
            "priority": 1,
            "initDialog": 630420301,
            "npcId": [
                3042
            ],
            "performCfg": "",
            "assetIndex": 6509543629760222099,
            "prePerformCfg": ""
        },
        {
            "id": 6304204,
            "activeMode": "PLAY_MODE_HOST",
            "priority": 1,
            "initDialog": 630420401,
            "npcId": [
                3042
            ],
            "performCfg": "",
            "assetIndex": 8975863864116356141,
            "prePerformCfg": ""
        },
        {
            "id": 6304205,
            "beginWay": "TALK_BEGIN_MANUAL",
            "activeMode": "PLAY_MODE_HOST",
            "beginCond": [
                {
                    "type": "QUEST_COND_GCG_LEVEL_UNLOCKED",
                    "param": [
                        "6304205"
                    ]
                }
            ],
            "priority": 1,
            "initDialog": 630420501,
            "npcId": [
                3042
            ],
            "performCfg": "",
            "assetIndex": 3768341128462488923,
            "prePerformCfg": ""
        },
        {
            "id": 6304206,
            "beginWay": "TALK_BEGIN_AUTO",
            "activeMode": "PLAY_MODE_HOST",
            "beginCond": [
                {
                    "type": "QUEST_COND_GCG_WORLD_CHALLENGE_RESULT",
                    "param": [
                        "1",
                        "3042",
                        "6304205"
                    ]
                }
            ],
            "priority": 10,
            "initDialog": 630420601,
            "npcId": [
                3042
            ],
            "performCfg": "",
            "assetIndex": 10010807512262860455,
            "prePerformCfg": ""
        },
        {
            "id": 6304207,
            "beginWay": "TALK_BEGIN_AUTO",
            "activeMode": "PLAY_MODE_HOST",
            "beginCond": [
                {
                    "type": "QUEST_COND_GCG_WORLD_CHALLENGE_RESULT",
                    "param": [
                        "-1",
                        "3042",
                        "6304205"
                    ]
                }
            ],
            "priority": 10,
            "initDialog": 630420701,
            "npcId": [
                3042
            ],
            "performCfg": "",
            "assetIndex": 2738167192629041269,
            "prePerformCfg": ""
        },
        {
            "id": 7291801,
            "beginWay": "TALK_BEGIN_MANUAL",
            "beginCondComb": "LOGIC_OR",
            "beginCond": [
                {
                    "type": "QUEST_COND_QUEST_NOT_RECEIVE",
                    "param": [
                        "7291801",
                        "1"
                    ]
                }
            ],
            "priority": 1,
            "initDialog": 729180101,
            "npcId": [
                3042
            ],
            "performCfg": "",
            "assetIndex": 5082636282218149427,
            "dontBlockDaily": true,
            "prePerformCfg": ""
        }
    ]
}