{
    "npcId": 3141,
    "talks": [
        {
            "id": 6314101,
            "beginWay": "TALK_BEGIN_MANUAL",
            "priority": 3,
            "nextTalks": [
                6314102,
                6314103
            ],
            "initDialog": 631410101,
            "npcId": [
                3141
            ],
            "performCfg": "",
            "assetIndex": 7638958123594781273,
            "prePerformCfg": "",
            "MFGJDPNMDPB": [
                9000
            ]
        },
        {
            "id": 6314102,
            "priority": 1,
            "nextTalks": [
                6314104,
                6314105
            ],
            "initDialog": 631410201,
            "npcId": [
                3141
            ],
            "performCfg": "",
            "assetIndex": 5313086806757393961,
            "prePerformCfg": ""
        },
        {
            "id": 6314103,
            "priority": 1,
            "initDialog": 631410301,
            "npcId": [
                3141
            ],
            "performCfg": "",
            "assetIndex": 14578186909436618463,
            "prePerformCfg": ""
        },
        {
            "id": 6314104,
            "priority": 1,
            "initDialog": 631410401,
            "npcId": [
                3141
            ],
            "performCfg": "",
            "assetIndex": 5860794613226673542,
            "prePerformCfg": ""
        },
        {
            "id": 6314105,
            "priority": 1,
            "initDialog": 631410501,
            "npcId": [
                3141
            ],
            "performCfg": "",
            "assetIndex": 7772927245931419176,
            "prePerformCfg": ""
        }
    ]
}