{
    "npcId": 4036,
    "talks": [
        {
            "id": 6403601,
            "beginWay": "TALK_BEGIN_MANUAL",
            "priority": 3,
            "nextTalks": [
                6403602,
                6403603
            ],
            "initDialog": 640360101,
            "npcId": [
                4036
            ],
            "performCfg": "",
            "assetIndex": 256022291054425829,
            "prePerformCfg": "",
            "MFGJDPNMDPB": [
                9000
            ]
        },
        {
            "id": 6403602,
            "priority": 1,
            "initDialog": 640360201,
            "npcId": [
                4036
            ],
            "performCfg": "",
            "assetIndex": 18246908149654292517,
            "prePerformCfg": ""
        },
        {
            "id": 6403603,
            "priority": 1,
            "initDialog": 640360301,
            "npcId": [
                4036
            ],
            "performCfg": "",
            "assetIndex": 9809277239404050201,
            "prePerformCfg": ""
        }
    ]
}