{
    "npcId": 4152,
    "talks": [
        {
            "id": 6415201,
            "beginWay": "TALK_BEGIN_MANUAL",
            "priority": 3,
            "nextTalks": [
                6415202,
                6415203
            ],
            "initDialog": 641520101,
            "npcId": [
                4152
            ],
            "performCfg": "",
            "assetIndex": 9339068645292766434,
            "prePerformCfg": "",
            "MFGJDPNMDPB": [
                1240
            ]
        },
        {
            "id": 6415202,
            "priority": 1,
            "initDialog": 641520201,
            "npcId": [
                4152
            ],
            "performCfg": "",
            "assetIndex": 8926173632717939507,
            "prePerformCfg": "",
            "MFGJDPNMDPB": [
                1160,
                1240
            ]
        },
        {
            "id": 6415203,
            "priority": 1,
            "initDialog": 641520301,
            "npcId": [
                4152
            ],
            "performCfg": "",
            "assetIndex": 2162386369152486350,
            "prePerformCfg": ""
        }
    ]
}