{
    "npcId": 4307,
    "talks": [
        {
            "id": 6430701,
            "beginWay": "TALK_BEGIN_MANUAL",
            "activeMode": "PLAY_MODE_HOST",
            "priority": 3,
            "nextTalks": [
                6430706,
                6430702,
                6430703
            ],
            "initDialog": 643070101,
            "npcId": [
                4307
            ],
            "performCfg": "",
            "assetIndex": 6642344302052230374,
            "prePerformCfg": "",
            "MFGJDPNMDPB": [
                9000
            ]
        },
        {
            "id": 6430702,
            "priority": 1,
            "nextTalks": [
                6430704,
                6430705
            ],
            "initDialog": 643070201,
            "npcId": [
                4307
            ],
            "performCfg": "",
            "assetIndex": 17231783431284146752,
            "prePerformCfg": ""
        },
        {
            "id": 6430703,
            "activeMode": "PLAY_MODE_HOST",
            "priority": 1,
            "initDialog": 643070301,
            "npcId": [
                4307
            ],
            "performCfg": "",
            "assetIndex": 11546709967124587953,
            "prePerformCfg": ""
        },
        {
            "id": 6430704,
            "beginCond": [
                {
                    "type": "QUEST_COND_QUEST_GLOBAL_VAR_EQUAL",
                    "param": [
                        "302821",
                        "0"
                    ]
                }
            ],
            "priority": 1,
            "nextTalks": [
                7390301
            ],
            "initDialog": 643070401,
            "npcId": [
                4307
            ],
            "performCfg": "",
            "assetIndex": 7641638599240346309,
            "prePerformCfg": ""
        },
        {
            "id": 6430705,
            "beginCond": [
                {
                    "type": "QUEST_COND_QUEST_GLOBAL_VAR_EQUAL",
                    "param": [
                        "302821",
                        "1"
                    ]
                }
            ],
            "priority": 1,
            "nextTalks": [
                7390302
            ],
            "initDialog": 643070501,
            "npcId": [
                4307
            ],
            "performCfg": "",
            "assetIndex": 13528941892162660991,
            "prePerformCfg": ""
        },
        {
            "id": 6430706,
            "beginWay": "TALK_BEGIN_MANUAL",
            "activeMode": "PLAY_MODE_HOST",
            "beginCond": [
                {
                    "type": "QUEST_COND_GCG_LEVEL_UNLOCKED",
                    "param": [
                        "6430706"
                    ]
                }
            ],
            "priority": 1,
            "initDialog": 643070601,
            "npcId": [
                4307
            ],
            "performCfg": "",
            "assetIndex": 4623932510807456667,
            "prePerformCfg": ""
        },
        {
            "id": 6430707,
            "beginWay": "TALK_BEGIN_AUTO",
            "activeMode": "PLAY_MODE_HOST",
            "beginCond": [
                {
                    "type": "QUEST_COND_GCG_WORLD_CHALLENGE_RESULT",
                    "param": [
                        "1",
                        "4307",
                        "6430706"
                    ]
                }
            ],
            "priority": 10,
            "initDialog": 643070701,
            "npcId": [
                4307
            ],
            "performCfg": "",
            "assetIndex": 1868356492606108215,
            "prePerformCfg": ""
        },
        {
            "id": 6430708,
            "beginWay": "TALK_BEGIN_AUTO",
            "activeMode": "PLAY_MODE_HOST",
            "beginCond": [
                {
                    "type": "QUEST_COND_GCG_WORLD_CHALLENGE_RESULT",
                    "param": [
                        "-1",
                        "4307",
                        "6430706"
                    ]
                }
            ],
            "priority": 10,
            "initDialog": 643070801,
            "npcId": [
                4307
            ],
            "performCfg": "",
            "assetIndex": 8025306104743674759,
            "prePerformCfg": ""
        },
        {
            "id": 7390301,
            "beginWay": "TALK_BEGIN_MANUAL",
            "beginCondComb": "LOGIC_AND",
            "beginCond": [
                {
                    "type": "QUEST_COND_QUEST_NOT_RECEIVE",
                    "param": [
                        "7390301",
                        "1"
                    ]
                },
                {
                    "type": "QUEST_COND_QUEST_GLOBAL_VAR_EQUAL",
                    "param": [
                        "302821",
                        "0"
                    ]
                }
            ],
            "priority": 1,
            "initDialog": 739030101,
            "npcId": [
                4307
            ],
            "performCfg": "",
            "assetIndex": 18274224768360428990,
            "dontBlockDaily": true,
            "prePerformCfg": ""
        },
        {
            "id": 7390302,
            "beginWay": "TALK_BEGIN_MANUAL",
            "beginCondComb": "LOGIC_AND",
            "beginCond": [
                {
                    "type": "QUEST_COND_QUEST_NOT_RECEIVE",
                    "param": [
                        "7390301",
                        "1"
                    ]
                },
                {
                    "type": "QUEST_COND_QUEST_GLOBAL_VAR_EQUAL",
                    "param": [
                        "302821",
                        "1"
                    ]
                }
            ],
            "priority": 1,
            "initDialog": 739030201,
            "npcId": [
                4307
            ],
            "performCfg": "",
            "assetIndex": 1657875379453690125,
            "dontBlockDaily": true,
            "prePerformCfg": ""
        }
    ]
}