{
    "npcId": 4419,
    "talks": [
        {
            "id": 6441801,
            "beginWay": "TALK_BEGIN_MANUAL",
            "beginCond": [
                {
                    "type": "QUEST_COND_QUEST_GLOBAL_VAR_EQUAL",
                    "param": [
                        "302821",
                        "1"
                    ]
                }
            ],
            "priority": 3,
            "initDialog": 644180101,
            "npcId": [
                4418,
                4419
            ],
            "performCfg": "",
            "assetIndex": 5047766168521060159,
            "prePerformCfg": ""
        },
        {
            "id": 6441901,
            "beginWay": "TALK_BEGIN_MANUAL",
            "beginCond": [
                {
                    "type": "QUEST_COND_QUEST_GLOBAL_VAR_EQUAL",
                    "param": [
                        "302821",
                        "0"
                    ]
                }
            ],
            "priority": 3,
            "nextTalks": [
                6441902,
                6441903
            ],
            "initDialog": 644190101,
            "npcId": [
                4419
            ],
            "performCfg": "",
            "assetIndex": 9742688014725071920,
            "prePerformCfg": "",
            "MFGJDPNMDPB": [
                9000
            ]
        },
        {
            "id": 6441902,
            "beginCond": [
                {
                    "type": "QUEST_COND_QUEST_GLOBAL_VAR_EQUAL",
                    "param": [
                        "302821",
                        "0"
                    ]
                }
            ],
            "priority": 1,
            "initDialog": 644190201,
            "npcId": [
                4419
            ],
            "performCfg": "",
            "assetIndex": 10520392043700559146,
            "prePerformCfg": ""
        },
        {
            "id": 6441903,
            "beginCond": [
                {
                    "type": "QUEST_COND_QUEST_GLOBAL_VAR_EQUAL",
                    "param": [
                        "302821",
                        "0"
                    ]
                }
            ],
            "priority": 1,
            "initDialog": 644190301,
            "npcId": [
                4419
            ],
            "performCfg": "",
            "assetIndex": 7343161797664329291,
            "prePerformCfg": ""
        }
    ]
}