{
    "npcId": 4421,
    "talks": [
        {
            "id": 6442101,
            "beginWay": "TALK_BEGIN_MANUAL",
            "priority": 3,
            "nextTalks": [
                6442102,
                6442103
            ],
            "initDialog": 644210101,
            "npcId": [
                4421
            ],
            "performCfg": "",
            "assetIndex": 1884138268029552962,
            "prePerformCfg": "",
            "MFGJDPNMDPB": [
                9000
            ]
        },
        {
            "id": 6442102,
            "priority": 1,
            "nextTalks": [
                6442104
            ],
            "initDialog": 644210201,
            "npcId": [
                4421
            ],
            "performCfg": "",
            "assetIndex": 17247446818769462651,
            "prePerformCfg": ""
        },
        {
            "id": 6442103,
            "priority": 1,
            "initDialog": 644210301,
            "npcId": [
                4421
            ],
            "performCfg": "",
            "assetIndex": 254329497603103316,
            "prePerformCfg": ""
        },
        {
            "id": 6442104,
            "priority": 1,
            "initDialog": 644210401,
            "npcId": [
                4421
            ],
            "performCfg": "",
            "assetIndex": 2004033262871329885,
            "prePerformCfg": ""
        }
    ]
}