{
    "npcId": 4458,
    "talks": [
        {
            "id": 6445801,
            "beginWay": "TALK_BEGIN_MANUAL",
            "priority": 3,
            "initDialog": 644580101,
            "npcId": [
                4458
            ],
            "performCfg": "",
            "assetIndex": 8290879009144527464,
            "prePerformCfg": "",
            "MFGJDPNMDPB": [
                9000
            ]
        }
    ]
}