{
    "npcId": 4900,
    "talks": [
        {
            "id": 30325,
            "beginWay": "TALK_BEGIN_MANUAL",
            "beginCond": [
                {
                    "type": "QUEST_COND_STATE_NOT_EQUAL",
                    "param": [
                        "30325",
                        "3"
                    ]
                }
            ],
            "initDialog": 3032501,
            "npcId": [
                4900
            ],
            "performCfg": "",
            "assetIndex": 11673292286058181642,
            "prePerformCfg": ""
        },
        {
            "id": 31150,
            "activeMode": "PLAY_MODE_ALL",
            "beginCondComb": "LOGIC_AND",
            "beginCond": [
                {
                    "type": "QUEST_COND_AVATAR_ELEMENT_NOT_EQUAL",
                    "param": [
                        "7"
                    ]
                },
                {
                    "type": "QUEST_COND_AVATAR_CAN_CHANGE_ELEMENT",
                    "param": [
                        "1"
                    ]
                },
                {
                    "type": "QUEST_COND_STATE_EQUAL",
                    "param": [
                        "35205",
                        "3"
                    ]
                }
            ],
            "priority": 1,
            "initDialog": 3115001,
            "npcId": [
                1201,
                1202,
                1203,
                1204,
                1205,
                1206,
                1207,
                1208,
                1209,
                1268,
                1272,
                1273,
                1274,
                1275,
                1277,
                1278,
                1279,
                1281,
                1282,
                1283,
                1284,
                1285,
                1286,
                1287,
                1288,
                4900,
                4901,
                4902,
                4903
            ],
            "performCfg": "",
            "assetIndex": 7309796110364668763,
            "prePerformCfg": ""
        },
        {
            "id": 31151,
            "activeMode": "PLAY_MODE_ALL",
            "priority": 1,
            "initDialog": 3115101,
            "npcId": [
                1201,
                1202,
                1203,
                1204,
                1205,
                1206,
                1207,
                1208,
                1209,
                1268,
                1272,
                1273,
                1274,
                1275,
                1277,
                1278,
                1279,
                1281,
                1282,
                1283,
                1284,
                1285,
                1286,
                1287,
                1288,
                4900,
                4901,
                4902,
                4903
            ],
            "performCfg": "",
            "assetIndex": 7852490695618531908,
            "prePerformCfg": ""
        },
        {
            "id": 31152,
            "activeMode": "PLAY_MODE_ALL",
            "priority": 1,
            "initDialog": 3115201,
            "npcId": [
                1201,
                1202,
                1203,
                1204,
                1205,
                1206,
                1207,
                1208,
                1209,
                1268,
                1272,
                1273,
                1274,
                1275,
                1277,
                1278,
                1279,
                1281,
                1282,
                1283,
                1284,
                1285,
                1286,
                1287,
                1288,
                4900,
                4901,
                4902,
                4903
            ],
            "performCfg": "",
            "assetIndex": 1589405838721026513,
            "prePerformCfg": ""
        },
        {
            "id": 31153,
            "activeMode": "PLAY_MODE_ALL",
            "beginCondComb": "LOGIC_AND",
            "beginCond": [
                {
                    "type": "QUEST_COND_AVATAR_ELEMENT_NOT_EQUAL",
                    "param": [
                        "7"
                    ]
                },
                {
                    "type": "QUEST_COND_AVATAR_CAN_CHANGE_ELEMENT",
                    "param": [
                        "1"
                    ]
                },
                {
                    "type": "QUEST_COND_STATE_EQUAL",
                    "param": [
                        "35205",
                        "3"
                    ]
                }
            ],
            "priority": 1,
            "initDialog": 3115301,
            "npcId": [
                1201,
                1202,
                1203,
                1204,
                1205,
                1206,
                1207,
                1208,
                1209,
                1268,
                1272,
                1273,
                1274,
                1275,
                1277,
                1278,
                1279,
                1281,
                1282,
                1283,
                1284,
                1285,
                1286,
                1287,
                1288,
                4900,
                4901,
                4902,
                4903
            ],
            "performCfg": "",
            "assetIndex": 6914402549472889371,
            "prePerformCfg": ""
        },
        {
            "id": 31154,
            "activeMode": "PLAY_MODE_ALL",
            "priority": 1,
            "initDialog": 3115401,
            "npcId": [
                1201,
                1202,
                1203,
                1204,
                1205,
                1206,
                1207,
                1208,
                1209,
                1268,
                1272,
                1273,
                1274,
                1275,
                1277,
                1278,
                1279,
                1281,
                1282,
                1283,
                1284,
                1285,
                1286,
                1287,
                1288,
                4900,
                4901,
                4902,
                4903
            ],
            "performCfg": "",
            "assetIndex": 1053081196639329065,
            "prePerformCfg": ""
        },
        {
            "id": 31155,
            "activeMode": "PLAY_MODE_ALL",
            "priority": 1,
            "initDialog": 3115501,
            "npcId": [
                1201,
                1202,
                1203,
                1204,
                1205,
                1206,
                1207,
                1208,
                1209,
                1268,
                1272,
                1273,
                1274,
                1275,
                1277,
                1278,
                1279,
                1281,
                1282,
                1283,
                1284,
                1285,
                1286,
                1287,
                1288,
                4900,
                4901,
                4902,
                4903
            ],
            "performCfg": "",
            "assetIndex": 16926079439467776597,
            "prePerformCfg": ""
        },
        {
            "id": 31156,
            "activeMode": "PLAY_MODE_ALL",
            "priority": 1,
            "initDialog": 3115601,
            "npcId": [
                1201,
                1202,
                1203,
                1204,
                1205,
                1206,
                1207,
                1208,
                1209,
                1268,
                1272,
                1273,
                1274,
                1275,
                1277,
                1278,
                1279,
                1281,
                1282,
                1283,
                1284,
                1285,
                1286,
                1287,
                1288,
                4900,
                4901,
                4902,
                4903,
                4905,
                4906,
                5900,
                5901,
                5902
            ],
            "performCfg": "",
            "assetIndex": 9493463439961886167,
            "prePerformCfg": ""
        },
        {
            "id": 31157,
            "activeMode": "PLAY_MODE_ALL",
            "beginCond": [
                {
                    "type": "QUEST_COND_IS_WORLD_OWNER",
                    "param": [
                        "1"
                    ]
                }
            ],
            "priority": 1,
            "initDialog": 3115701,
            "npcId": [
                1201,
                1202,
                1203,
                1204,
                1205,
                1206,
                1207,
                1208,
                1209,
                1268,
                1272,
                1273,
                1274,
                1275,
                1277,
                1278,
                1279,
                1281,
                1282,
                1283,
                1284,
                1285,
                1286,
                1287,
                1288,
                4900,
                4901,
                4902,
                4903,
                4905,
                4906,
                5900,
                5901,
                5902
            ],
            "performCfg": "",
            "assetIndex": 8055399952729395750,
            "prePerformCfg": ""
        },
        {
            "id": 31158,
            "activeMode": "PLAY_MODE_ALL",
            "beginCond": [
                {
                    "type": "QUEST_COND_IS_WORLD_OWNER",
                    "param": [
                        "1"
                    ]
                }
            ],
            "priority": 1,
            "initDialog": 3115801,
            "npcId": [
                1201,
                1202,
                1203,
                1204,
                1205,
                1206,
                1207,
                1208,
                1209,
                1268,
                1272,
                1273,
                1274,
                1275,
                1277,
                1278,
                1279,
                1281,
                1282,
                1283,
                1284,
                1285,
                1286,
                1287,
                1288,
                4900,
                4901,
                4902,
                4903,
                4905,
                4906,
                5900,
                5901,
                5902
            ],
            "performCfg": "",
            "assetIndex": 17930934495495136497,
            "prePerformCfg": ""
        },
        {
            "id": 31159,
            "activeMode": "PLAY_MODE_ALL",
            "beginCondComb": "LOGIC_AND",
            "beginCond": [
                {
                    "type": "QUEST_COND_STATE_EQUAL",
                    "param": [
                        "46902",
                        "3"
                    ]
                },
                {
                    "type": "QUEST_COND_IS_WORLD_OWNER",
                    "param": [
                        "1"
                    ]
                }
            ],
            "priority": 1,
            "initDialog": 3115901,
            "npcId": [
                1201,
                1202,
                1203,
                1204,
                1205,
                1206,
                1207,
                1208,
                1209,
                1268,
                1272,
                1273,
                1274,
                1275,
                1277,
                1278,
                1279,
                1281,
                1282,
                1283,
                1284,
                1285,
                1286,
                1287,
                1288,
                4900,
                4901,
                4902,
                4903
            ],
            "performCfg": "",
            "assetIndex": 11924179955843372278,
            "prePerformCfg": ""
        },
        {
            "id": 31160,
            "activeMode": "PLAY_MODE_ALL",
            "beginCond": [
                {
                    "type": "QUEST_COND_IS_WORLD_OWNER",
                    "param": [
                        "1"
                    ]
                }
            ],
            "priority": 1,
            "initDialog": 3116001,
            "npcId": [
                1201,
                1202,
                1203,
                1204,
                1205,
                1206,
                1207,
                1208,
                1209,
                1268,
                1272,
                1273,
                1274,
                1275,
                1277,
                1278,
                1279,
                1281,
                1282,
                1283,
                1284,
                1285,
                1286,
                1287,
                1288,
                4900,
                4901,
                4902,
                4903
            ],
            "performCfg": "",
            "assetIndex": 5042414765099515033,
            "prePerformCfg": ""
        },
        {
            "id": 31161,
            "activeMode": "PLAY_MODE_ALL",
            "beginCondComb": "LOGIC_AND",
            "beginCond": [
                {
                    "type": "QUEST_COND_AVATAR_ELEMENT_NOT_EQUAL",
                    "param": [
                        "8"
                    ]
                },
                {
                    "type": "QUEST_COND_AVATAR_CAN_CHANGE_ELEMENT",
                    "param": [
                        "1"
                    ]
                },
                {
                    "type": "QUEST_COND_STATE_EQUAL",
                    "param": [
                        "35205",
                        "3"
                    ]
                }
            ],
            "priority": 1,
            "initDialog": 3116101,
            "npcId": [
                1201,
                1202,
                1203,
                1204,
                1205,
                1206,
                1207,
                1208,
                1209,
                1268,
                1272,
                1273,
                1274,
                1275,
                1277,
                1278,
                1279,
                1281,
                1282,
                1283,
                1284,
                1285,
                1286,
                1287,
                1288,
                4900,
                4901,
                4902,
                4903
            ],
            "performCfg": "",
            "assetIndex": 5127284042497519430,
            "prePerformCfg": ""
        },
        {
            "id": 31167,
            "activeMode": "PLAY_MODE_ALL",
            "beginCondComb": "LOGIC_AND",
            "beginCond": [
                {
                    "type": "QUEST_COND_AVATAR_ELEMENT_NOT_EQUAL",
                    "param": [
                        "4"
                    ]
                },
                {
                    "type": "QUEST_COND_AVATAR_CAN_CHANGE_ELEMENT",
                    "param": [
                        "1"
                    ]
                },
                {
                    "type": "QUEST_COND_STATE_EQUAL",
                    "param": [
                        "35205",
                        "3"
                    ]
                }
            ],
            "priority": 1,
            "initDialog": 3116701,
            "npcId": [
                1201,
                1202,
                1203,
                1204,
                1205,
                1206,
                1207,
                1208,
                1209,
                1268,
                1272,
                1273,
                1274,
                1275,
                1277,
                1278,
                1279,
                1281,
                1282,
                1283,
                1284,
                1285,
                1286,
                1287,
                1288,
                4900,
                4901,
                4902,
                4903
            ],
            "performCfg": "",
            "assetIndex": 14778293573593179640,
            "prePerformCfg": ""
        },
        {
            "id": 31178,
            "activeMode": "PLAY_MODE_ALL",
            "beginCondComb": "LOGIC_AND",
            "beginCond": [
                {
                    "type": "QUEST_COND_AVATAR_ELEMENT_NOT_EQUAL",
                    "param": [
                        "3"
                    ]
                },
                {
                    "type": "QUEST_COND_AVATAR_CAN_CHANGE_ELEMENT",
                    "param": [
                        "1"
                    ]
                },
                {
                    "type": "QUEST_COND_STATE_EQUAL",
                    "param": [
                        "35205",
                        "3"
                    ]
                }
            ],
            "priority": 1,
            "initDialog": 3117801,
            "npcId": [
                1201,
                1202,
                1203,
                1204,
                1205,
                1206,
                1207,
                1208,
                1209,
                1268,
                1272,
                1273,
                1274,
                1275,
                1277,
                1278,
                1279,
                1281,
                1282,
                1283,
                1284,
                1285,
                1286,
                1287,
                1288,
                4900,
                4901,
                4902,
                4903,
                4905,
                4906
            ],
            "performCfg": "",
            "assetIndex": 4539201146479307008,
            "prePerformCfg": ""
        },
        {
            "id": 31180,
            "beginWay": "TALK_BEGIN_MANUAL",
            "activeMode": "PLAY_MODE_ALL",
            "beginCondComb": "LOGIC_AND",
            "beginCond": [
                {
                    "type": "QUEST_COND_STATE_EQUAL",
                    "param": [
                        "30325",
                        "3"
                    ]
                },
                {
                    "type": "QUEST_COND_SCENE_AREA_UNLOCKED",
                    "param": [
                        "3",
                        "26"
                    ]
                }
            ],
            "nextTalks": [
                31158,
                31178,
                31157,
                31156
            ],
            "initDialog": 3118001,
            "npcId": [
                4900
            ],
            "performCfg": "",
            "assetIndex": 13108985570806895230,
            "prePerformCfg": ""
        }
    ]
}