{
    "npcId": 5039,
    "talks": [
        {
            "id": 6503801,
            "beginWay": "TALK_BEGIN_MANUAL",
            "priority": 3,
            "initDialog": 650380101,
            "npcId": [
                5038,
                5039
            ],
            "performCfg": "",
            "assetIndex": 7267305062201980932,
            "prePerformCfg": "",
            "stayFreeStyle": true
        }
    ]
}