{
    "npcId": 5305,
    "talks": [
        {
            "id": 6530501,
            "beginWay": "TALK_BEGIN_MANUAL",
            "priority": 3,
            "nextTalks": [
                6530502,
                6530503,
                6530510,
                6530504
            ],
            "initDialog": 653050101,
            "npcId": [
                5305
            ],
            "performCfg": "",
            "assetIndex": 15910479685884737901,
            "prePerformCfg": ""
        },
        {
            "id": 6530502,
            "priority": 1,
            "nextTalks": [
                6530505,
                6530506
            ],
            "initDialog": 653050201,
            "npcId": [
                5305
            ],
            "performCfg": "",
            "assetIndex": 5964582792416549818,
            "prePerformCfg": ""
        },
        {
            "id": 6530503,
            "priority": 1,
            "initDialog": 653050301,
            "npcId": [
                5305
            ],
            "performCfg": "",
            "assetIndex": 16630974963118616977,
            "prePerformCfg": ""
        },
        {
            "id": 6530504,
            "priority": 1,
            "initDialog": 653050401,
            "npcId": [
                5305
            ],
            "performCfg": "",
            "assetIndex": 3128076765343401126,
            "prePerformCfg": ""
        },
        {
            "id": 6530505,
            "priority": 1,
            "initDialog": 653050501,
            "npcId": [
                5305
            ],
            "performCfg": "",
            "assetIndex": 3192587770591015582,
            "prePerformCfg": ""
        },
        {
            "id": 6530506,
            "priority": 1,
            "initDialog": 653050601,
            "npcId": [
                5305
            ],
            "performCfg": "",
            "assetIndex": 17843563196299808443,
            "prePerformCfg": ""
        },
        {
            "id": 6530507,
            "beginWay": "TALK_BEGIN_MANUAL",
            "beginCond": [
                {
                    "type": "QUEST_COND_STATE_EQUAL",
                    "param": [
                        "7403817",
                        "3"
                    ]
                }
            ],
            "priority": 4,
            "nextTalks": [
                6530508,
                6530503,
                6530510,
                6530504
            ],
            "initDialog": 653050701,
            "npcId": [
                5305
            ],
            "performCfg": "",
            "assetIndex": 8431177434508057636,
            "prePerformCfg": ""
        },
        {
            "id": 6530508,
            "priority": 1,
            "nextTalks": [
                6530509,
                6530506
            ],
            "initDialog": 653050801,
            "npcId": [
                5305
            ],
            "performCfg": "",
            "assetIndex": 3725762786272095029,
            "prePerformCfg": ""
        },
        {
            "id": 6530509,
            "priority": 1,
            "initDialog": 653050901,
            "npcId": [
                5305
            ],
            "performCfg": "",
            "assetIndex": 16172025380196332688,
            "prePerformCfg": ""
        },
        {
            "id": 6530510,
            "beginCond": [
                {
                    "type": "QUEST_COND_QUEST_GLOBAL_VAR_EQUAL",
                    "param": [
                        "7400703",
                        "1"
                    ]
                }
            ],
            "priority": 3,
            "initDialog": 653051001,
            "npcId": [
                5305
            ],
            "performCfg": "",
            "assetIndex": 18327053594308694196,
            "prePerformCfg": ""
        }
    ]
}