{
    "npcId": 9071,
    "talks": [
        {
            "id": 6907101,
            "beginWay": "TALK_BEGIN_MANUAL",
            "activeMode": "PLAY_MODE_HOST",
            "priority": 5,
            "nextTalks": [
                6907116,
                6907112,
                6907107,
                6907102,
                6907108,
                6907103,
                6907109,
                6907104,
                6907105,
                6907106
            ],
            "initDialog": 690710101,
            "npcId": [
                9071
            ],
            "performCfg": "QuestDialogue/HomeWorld/Cyno_9071/Q6907101",
            "assetIndex": 16486919485964985205,
            "prePerformCfg": ""
        },
        {
            "id": 6907102,
            "activeMode": "PLAY_MODE_HOST",
            "beginCond": [
                {
                    "type": "QUEST_COND_HOMEWORLD_NPC_NEW_TALK",
                    "param": [
                        "9071",
                        "6907107",
                        "0"
                    ]
                }
            ],
            "priority": 5,
            "initDialog": 690710201,
            "npcId": [
                9071
            ],
            "performCfg": "QuestDialogue/HomeWorld/Cyno_9071/Q6907102",
            "assetIndex": 13813811280400009752,
            "prePerformCfg": ""
        },
        {
            "id": 6907103,
            "activeMode": "PLAY_MODE_HOST",
            "beginCondComb": "LOGIC_AND",
            "beginCond": [
                {
                    "type": "QUEST_COND_AVATAR_FETTER_GT",
                    "param": [
                        "10000071",
                        "3"
                    ]
                },
                {
                    "type": "QUEST_COND_HOMEWORLD_NPC_NEW_TALK",
                    "param": [
                        "9071",
                        "6907108",
                        "0"
                    ]
                }
            ],
            "priority": 5,
            "initDialog": 690710301,
            "npcId": [
                9071
            ],
            "performCfg": "QuestDialogue/HomeWorld/Cyno_9071/Q6907103",
            "assetIndex": 3941386724315070942,
            "prePerformCfg": ""
        },
        {
            "id": 6907104,
            "activeMode": "PLAY_MODE_HOST",
            "beginCondComb": "LOGIC_AND",
            "beginCond": [
                {
                    "type": "QUEST_COND_AVATAR_FETTER_GT",
                    "param": [
                        "10000071",
                        "6"
                    ]
                },
                {
                    "type": "QUEST_COND_HOMEWORLD_NPC_NEW_TALK",
                    "param": [
                        "9071",
                        "6907109",
                        "0"
                    ]
                }
            ],
            "priority": 5,
            "initDialog": 690710401,
            "npcId": [
                9071
            ],
            "performCfg": "QuestDialogue/HomeWorld/Cyno_9071/Q6907104",
            "assetIndex": 5524949502145197668,
            "prePerformCfg": ""
        },
        {
            "id": 6907105,
            "activeMode": "PLAY_MODE_HOST",
            "beginCond": [
                {
                    "type": "QUEST_COND_IS_DAYTIME",
                    "param": [
                        "1"
                    ]
                }
            ],
            "priority": 5,
            "initDialog": 690710501,
            "npcId": [
                9071
            ],
            "performCfg": "QuestDialogue/HomeWorld/Cyno_9071/Q6907105",
            "assetIndex": 3912231351414740576,
            "prePerformCfg": ""
        },
        {
            "id": 6907106,
            "activeMode": "PLAY_MODE_HOST",
            "beginCond": [
                {
                    "type": "QUEST_COND_IS_DAYTIME",
                    "param": [
                        "0"
                    ]
                }
            ],
            "priority": 5,
            "initDialog": 690710601,
            "npcId": [
                9071
            ],
            "performCfg": "QuestDialogue/HomeWorld/Cyno_9071/Q6907106",
            "assetIndex": 1860744427529828031,
            "prePerformCfg": ""
        },
        {
            "id": 6907107,
            "activeMode": "PLAY_MODE_HOST",
            "beginCond": [
                {
                    "type": "QUEST_COND_HOMEWORLD_NPC_NEW_TALK",
                    "param": [
                        "9071",
                        "6907107",
                        "1"
                    ]
                }
            ],
            "priority": 5,
            "initDialog": 690710201,
            "FHMAMFKPGEM": 3,
            "npcId": [
                9071
            ],
            "performCfg": "QuestDialogue/HomeWorld/Cyno_9071/Q6907102",
            "assetIndex": 16280159431987133970,
            "prePerformCfg": ""
        },
        {
            "id": 6907108,
            "activeMode": "PLAY_MODE_HOST",
            "beginCondComb": "LOGIC_AND",
            "beginCond": [
                {
                    "type": "QUEST_COND_AVATAR_FETTER_GT",
                    "param": [
                        "10000071",
                        "3"
                    ]
                },
                {
                    "type": "QUEST_COND_HOMEWORLD_NPC_NEW_TALK",
                    "param": [
                        "9071",
                        "6907108",
                        "1"
                    ]
                }
            ],
            "priority": 5,
            "initDialog": 690710301,
            "FHMAMFKPGEM": 3,
            "npcId": [
                9071
            ],
            "performCfg": "QuestDialogue/HomeWorld/Cyno_9071/Q6907103",
            "assetIndex": 321211676236344615,
            "prePerformCfg": ""
        },
        {
            "id": 6907109,
            "activeMode": "PLAY_MODE_HOST",
            "beginCondComb": "LOGIC_AND",
            "beginCond": [
                {
                    "type": "QUEST_COND_AVATAR_FETTER_GT",
                    "param": [
                        "10000071",
                        "6"
                    ]
                },
                {
                    "type": "QUEST_COND_HOMEWORLD_NPC_NEW_TALK",
                    "param": [
                        "9071",
                        "6907109",
                        "1"
                    ]
                }
            ],
            "priority": 5,
            "initDialog": 690710401,
            "FHMAMFKPGEM": 3,
            "npcId": [
                9071
            ],
            "performCfg": "QuestDialogue/HomeWorld/Cyno_9071/Q6907104",
            "assetIndex": 10278920803546381229,
            "prePerformCfg": ""
        },
        {
            "id": 6907110,
            "beginWay": "TALK_BEGIN_MANUAL",
            "activeMode": "PLAY_MODE_HOST",
            "beginCondComb": "LOGIC_OR",
            "beginCond": [
                {
                    "type": "QUEST_COND_HOMEWORLD_NPC_EVENT",
                    "param": [
                        "6401",
                        "1"
                    ]
                },
                {
                    "type": "QUEST_COND_HOMEWORLD_NPC_EVENT",
                    "param": [
                        "6411",
                        "1"
                    ]
                }
            ],
            "priority": 6,
            "initDialog": 690711001,
            "npcId": [
                9071
            ],
            "performCfg": "QuestDialogue/HomeWorld/Cyno_9071/Q6907110",
            "assetIndex": 2693190778679364904,
            "prePerformCfg": ""
        },
        {
            "id": 6907111,
            "beginWay": "TALK_BEGIN_MANUAL",
            "activeMode": "PLAY_MODE_HOST",
            "beginCondComb": "LOGIC_OR",
            "beginCond": [
                {
                    "type": "QUEST_COND_HOMEWORLD_NPC_EVENT",
                    "param": [
                        "6402",
                        "1"
                    ]
                },
                {
                    "type": "QUEST_COND_HOMEWORLD_NPC_EVENT",
                    "param": [
                        "6412",
                        "1"
                    ]
                }
            ],
            "priority": 6,
            "initDialog": 690711101,
            "npcId": [
                9071
            ],
            "performCfg": "QuestDialogue/HomeWorld/Cyno_9071/Q6907111",
            "assetIndex": 17725574711444638621,
            "prePerformCfg": ""
        }
    ]
}