{
    "npcId": 9080,
    "talks": [
        {
            "id": 6908001,
            "beginWay": "TALK_BEGIN_MANUAL",
            "activeMode": "PLAY_MODE_HOST",
            "priority": 5,
            "nextTalks": [
                6908016,
                6908012,
                6908009,
                6908002,
                6908010,
                6908003,
                6908011,
                6908004,
                6908005,
                6908006
            ],
            "initDialog": 690800101,
            "npcId": [
                9080
            ],
            "performCfg": "QuestDialogue/HomeWorld/Mika_9080/Q6908001",
            "assetIndex": 1404582676223752827,
            "prePerformCfg": ""
        },
        {
            "id": 6908002,
            "activeMode": "PLAY_MODE_HOST",
            "beginCond": [
                {
                    "type": "QUEST_COND_HOMEWORLD_NPC_NEW_TALK",
                    "param": [
                        "9080",
                        "6908009",
                        "0"
                    ]
                }
            ],
            "priority": 5,
            "initDialog": 690800201,
            "npcId": [
                9080
            ],
            "performCfg": "QuestDialogue/HomeWorld/Mika_9080/Q6908002",
            "assetIndex": 12431543322987130998,
            "prePerformCfg": ""
        },
        {
            "id": 6908003,
            "activeMode": "PLAY_MODE_HOST",
            "beginCondComb": "LOGIC_AND",
            "beginCond": [
                {
                    "type": "QUEST_COND_AVATAR_FETTER_GT",
                    "param": [
                        "10000080",
                        "3"
                    ]
                },
                {
                    "type": "QUEST_COND_HOMEWORLD_NPC_NEW_TALK",
                    "param": [
                        "9080",
                        "6908010",
                        "0"
                    ]
                }
            ],
            "priority": 5,
            "initDialog": 690800301,
            "npcId": [
                9080
            ],
            "performCfg": "QuestDialogue/HomeWorld/Mika_9080/Q6908003",
            "assetIndex": 17271644421688418072,
            "prePerformCfg": ""
        },
        {
            "id": 6908004,
            "activeMode": "PLAY_MODE_HOST",
            "beginCondComb": "LOGIC_AND",
            "beginCond": [
                {
                    "type": "QUEST_COND_AVATAR_FETTER_GT",
                    "param": [
                        "10000080",
                        "6"
                    ]
                },
                {
                    "type": "QUEST_COND_HOMEWORLD_NPC_NEW_TALK",
                    "param": [
                        "9080",
                        "6908011",
                        "0"
                    ]
                }
            ],
            "priority": 5,
            "initDialog": 690800401,
            "npcId": [
                9080
            ],
            "performCfg": "QuestDialogue/HomeWorld/Mika_9080/Q6908004",
            "assetIndex": 5029205413908946588,
            "prePerformCfg": ""
        },
        {
            "id": 6908005,
            "activeMode": "PLAY_MODE_HOST",
            "beginCond": [
                {
                    "type": "QUEST_COND_IS_DAYTIME",
                    "param": [
                        "1"
                    ]
                }
            ],
            "priority": 5,
            "initDialog": 690800501,
            "npcId": [
                9080
            ],
            "performCfg": "QuestDialogue/HomeWorld/Mika_9080/Q6908005",
            "assetIndex": 16702428475084150450,
            "prePerformCfg": ""
        },
        {
            "id": 6908006,
            "activeMode": "PLAY_MODE_HOST",
            "beginCond": [
                {
                    "type": "QUEST_COND_IS_DAYTIME",
                    "param": [
                        "0"
                    ]
                }
            ],
            "priority": 5,
            "initDialog": 690800601,
            "npcId": [
                9080
            ],
            "performCfg": "QuestDialogue/HomeWorld/Mika_9080/Q6908006",
            "assetIndex": 13389221432985564611,
            "prePerformCfg": ""
        },
        {
            "id": 6908007,
            "beginWay": "TALK_BEGIN_MANUAL",
            "activeMode": "PLAY_MODE_HOST",
            "beginCondComb": "LOGIC_OR",
            "beginCond": [
                {
                    "type": "QUEST_COND_HOMEWORLD_NPC_EVENT",
                    "param": [
                        "7301",
                        "1"
                    ]
                },
                {
                    "type": "QUEST_COND_HOMEWORLD_NPC_EVENT",
                    "param": [
                        "7311",
                        "1"
                    ]
                }
            ],
            "priority": 6,
            "initDialog": 690800701,
            "npcId": [
                9080
            ],
            "performCfg": "QuestDialogue/HomeWorld/Mika_9080/Q6908007",
            "assetIndex": 12492255012671373010,
            "prePerformCfg": ""
        },
        {
            "id": 6908008,
            "beginWay": "TALK_BEGIN_MANUAL",
            "activeMode": "PLAY_MODE_HOST",
            "beginCondComb": "LOGIC_OR",
            "beginCond": [
                {
                    "type": "QUEST_COND_HOMEWORLD_NPC_EVENT",
                    "param": [
                        "7302",
                        "1"
                    ]
                },
                {
                    "type": "QUEST_COND_HOMEWORLD_NPC_EVENT",
                    "param": [
                        "7312",
                        "1"
                    ]
                }
            ],
            "priority": 6,
            "initDialog": 690800801,
            "npcId": [
                9080
            ],
            "performCfg": "QuestDialogue/HomeWorld/Mika_9080/Q6908008",
            "assetIndex": 12063650915895376343,
            "prePerformCfg": ""
        },
        {
            "id": 6908009,
            "activeMode": "PLAY_MODE_HOST",
            "beginCond": [
                {
                    "type": "QUEST_COND_HOMEWORLD_NPC_NEW_TALK",
                    "param": [
                        "9080",
                        "6908009",
                        "1"
                    ]
                }
            ],
            "priority": 5,
            "initDialog": 690800201,
            "FHMAMFKPGEM": 3,
            "npcId": [
                9080
            ],
            "performCfg": "QuestDialogue/HomeWorld/Mika_9080/Q6908002",
            "assetIndex": 1058326063227462609,
            "prePerformCfg": ""
        },
        {
            "id": 6908010,
            "activeMode": "PLAY_MODE_HOST",
            "beginCondComb": "LOGIC_AND",
            "beginCond": [
                {
                    "type": "QUEST_COND_AVATAR_FETTER_GT",
                    "param": [
                        "10000080",
                        "3"
                    ]
                },
                {
                    "type": "QUEST_COND_HOMEWORLD_NPC_NEW_TALK",
                    "param": [
                        "9080",
                        "6908010",
                        "1"
                    ]
                }
            ],
            "priority": 5,
            "initDialog": 690800301,
            "FHMAMFKPGEM": 3,
            "npcId": [
                9080
            ],
            "performCfg": "QuestDialogue/HomeWorld/Mika_9080/Q6908003",
            "assetIndex": 13654827967029142192,
            "prePerformCfg": ""
        },
        {
            "id": 6908011,
            "activeMode": "PLAY_MODE_HOST",
            "beginCondComb": "LOGIC_AND",
            "beginCond": [
                {
                    "type": "QUEST_COND_AVATAR_FETTER_GT",
                    "param": [
                        "10000080",
                        "6"
                    ]
                },
                {
                    "type": "QUEST_COND_HOMEWORLD_NPC_NEW_TALK",
                    "param": [
                        "9080",
                        "6908011",
                        "1"
                    ]
                }
            ],
            "priority": 5,
            "initDialog": 690800401,
            "FHMAMFKPGEM": 3,
            "npcId": [
                9080
            ],
            "performCfg": "QuestDialogue/HomeWorld/Mika_9080/Q6908004",
            "assetIndex": 9773599794198034568,
            "prePerformCfg": ""
        }
    ]
}