{
    "luaDataPath": "",
    "entityBan": "",
    "disableNpcLod": true,
    "startFade": {
        "startFadeOutDuration": 0.0
    },
    "endFade": {
        "startFadeOutDuration": 0.0
    },
    "actors": [
        {
            "alias": "Avatar",
            "visible": true,
            "bornPointName": "",
            "relativePosNpcAlias": "",
            "bindMovingTargetKey": ""
        },
        {
            "configID": 140901,
            "alias": "140901",
            "bornPointName": "",
            "relativePosNpcAlias": "",
            "bindMovingTargetKey": ""
        }
    ],
    "group": [
        [
            {
                "$type": "PBIGHFCHGCA",
                "type": "CAMERA_FOCUS",
                "duration": 0.10000000149011612,
                "JBODIEHINII": "",
                "EJCHLMIMLBO": "",
                "BIMPIKMCIHB": "",
                "MCAOJPLIJGI": ""
            },
            {
                "$type": "NFDDGDIKEAG",
                "type": "STEER_TO",
                "duration": 0.800000011920929,
                "aliasList": [
                    "140901"
                ],
                "GGJHILELIMO": "TO_LOCAL_AVATAR_ADVANCED",
                "PKKKHNGDEEE": true,
                "LGDIOPOBMPH": true,
                "NBNJEKMFIDE": true,
                "JBODIEHINII": "",
                "NNFPFPOJJOJ": ""
            },
            {
                "$type": "FNPNDPFBBDD",
                "type": "LOOK_AT",
                "aliasList": [
                    "140901"
                ],
                "NKGFDJDHOBD": true,
                "MNOPLOBEFLB": 0.5,
                "JBODIEHINII": "Avatar",
                "LPCACGGCDLI": "",
                "NNFPFPOJJOJ": ""
            }
        ],
        [
            {
                "$type": "KAGAFALAIGP",
                "type": "DIALOG",
                "aliasList": [
                    "140901"
                ],
                "JHEPJOMJJHH": 190860301,
                "OCILKFCPBNC": 0.5
            },
            {
                "$type": "CENEPJCONAG",
                "type": "BODY_LANG",
                "aliasList": [
                    "140901"
                ],
                "OGFPAIKLDGB": 1171,
                "MHDCNDAINCK": true,
                "FOEKGLEJBIJ": ""
            },
            {
                "$type": "CENEPJCONAG",
                "type": "BODY_LANG",
                "delayTime": 2.354762077331543,
                "aliasList": [
                    "140901"
                ],
                "OGFPAIKLDGB": 1120,
                "MHDCNDAINCK": true,
                "FOEKGLEJBIJ": ""
            },
            {
                "$type": "LNLLGCOBDFC",
                "type": "EMO_SYNC",
                "aliasList": [
                    "140901"
                ],
                "LKHHGAGNMKM": "Cs_Emo_Avatar_Simple_Common_Set/Cs_Emo_Avatar_Talk/Cs_Emo_Coop_Common/Cs_Emo_Coop_Noel_02/Cs_Emo_190860301",
                "AIMKGPFAAAD": "",
                "IPEKOEDCGGF": "",
                "EJNFMNJKDAH": "",
                "LOOOCOLIHFA": "",
                "KJDLMAPPPMG": "",
                "EKJHPKFBONG": [
                    17381498861490781902,
                    7310864327991566199,
                    4296926015823174597,
                    15348926345607144882
                ]
            }
        ],
        [
            {
                "$type": "MoleMole.Config.ConfigUITriggerInterAction",
                "type": "UI_TRIGGER",
                "contextName": "GivenDialog",
                "param": ""
            },
            {
                "$type": "CENEPJCONAG",
                "type": "BODY_LANG",
                "aliasList": [
                    "140901"
                ],
                "NNKEOHJCPOF": true,
                "MHDCNDAINCK": true,
                "FOEKGLEJBIJ": ""
            },
            {
                "$type": "LNLLGCOBDFC",
                "type": "EMO_SYNC",
                "aliasList": [
                    "140901"
                ],
                "LKHHGAGNMKM": "Cs_Emo_Avatar_Simple_Common_Set/Cs_Emo_Avatar_Talk/Cs_Emo_Avatar_PersonalLine/Cs_Emo_NPC_Normal",
                "AIMKGPFAAAD": "",
                "IPEKOEDCGGF": "",
                "EJNFMNJKDAH": "",
                "LOOOCOLIHFA": "",
                "KJDLMAPPPMG": "",
                "EKJHPKFBONG": [
                    17688529112195066721,
                    9156264736340661509,
                    4942799779345847704,
                    9098346572152196785
                ]
            }
        ],
        [
            {
                "$type": "MoleMole.Config.ConfigTimeProtectAction",
                "type": "TIME_PROTECT",
                "duration": 0.10000000149011612
            }
        ]
    ],
    "groupId": [
        {
            "grpId": 2387035190,
            "nextGrpId": 2387035191
        },
        {
            "index": 1,
            "grpId": 2387035191,
            "nextGrpId": 2387035192
        },
        {
            "index": 2,
            "grpId": 2387035192,
            "nextGrpId": 2387035193
        },
        {
            "index": 3,
            "grpId": 2387035193,
            "nextGrpId": 2387035194
        }
    ],
    "freeStyleDic": {
        "140901": [
            1171,
            1120
        ]
    }
}