{
    "luaDataPath": "",
    "startBlackKeepTime": 1.0,
    "entityBan": "",
    "disableNpcLod": true,
    "startFade": {
        "startFadeInDuration": 0.5,
        "startFadeOutDuration": 0.5
    },
    "endFade": {
        "startFadeOutDuration": 0.0
    },
    "actors": [
        {
            "alias": "Avatar",
            "visible": true,
            "bornPointName": "",
            "relativePosNpcAlias": "",
            "bindMovingTargetKey": ""
        },
        {
            "configID": 141701,
            "alias": "141701",
            "visible": true,
            "bornPointName": "",
            "relativePosNpcAlias": "",
            "bindMovingTargetKey": ""
        },
        {
            "configID": 1005,
            "alias": "1005",
            "visible": true,
            "bornPointName": "",
            "relativePos": {
                "x": -0.5
            },
            "relativePosNpcAlias": "",
            "bindMovingTargetKey": ""
        }
    ],
    "group": [
        [
            {
                "$type": "PBIGHFCHGCA",
                "type": "CAMERA_MOVE",
                "duration": 1.0,
                "KCFKJMMEECM": {
                    "x": 2215.758056640625,
                    "y": 211.75143432617188,
                    "z": -913.9633178710938
                },
                "DLGJEHNPMFN": {
                    "x": 2215.6689453125,
                    "y": 211.69085693359375,
                    "z": -914.95751953125
                },
                "NJCBGNHGINI": 20.0,
                "FNMFGIOLKBE": 6,
                "NECGMADJICG": "EaseInOutCubic",
                "BMHIHPIKAHM": {},
                "JBODIEHINII": "",
                "EJCHLMIMLBO": "",
                "BIMPIKMCIHB": "",
                "MCAOJPLIJGI": ""
            },
            {
                "$type": "PBIGHFCHGCA",
                "type": "CAMERA_MOVE",
                "delayTime": 0.10000000149011612,
                "duration": 5.0,
                "KCFKJMMEECM": {
                    "x": 2215.616455078125,
                    "y": 211.4733123779297,
                    "z": -913.93359375
                },
                "DLGJEHNPMFN": {
                    "x": 2215.52734375,
                    "y": 211.41273498535156,
                    "z": -914.9277954101562
                },
                "NJCBGNHGINI": 20.0,
                "NECGMADJICG": "EaseInOutQuad",
                "BMHIHPIKAHM": {},
                "JBODIEHINII": "",
                "EJCHLMIMLBO": "",
                "BIMPIKMCIHB": "",
                "MCAOJPLIJGI": ""
            },
            {
                "$type": "MoleMole.Config.ConfigCameraDOFAction",
                "type": "CAMERA_DOF",
                "enabled": true,
                "focusDistance": 10.0,
                "focusRange": 10.0,
                "nearFocalDistance": 6.0,
                "nearFocalTransDistance": 6.0,
                "dofBlurAmount": 1.0,
                "quality": 3
            },
            {
                "$type": "MoleMole.Config.ConfigTimeProtectAction",
                "type": "TIME_PROTECT",
                "duration": 2.0
            },
            {
                "$type": "AAFOOOPNJLB",
                "type": "DIALOG_SELECT",
                "delayTime": 2.9000000953674316,
                "aliasList": [
                    "Avatar"
                ],
                "KFAEOBDAAME": [
                    180000302
                ],
                "ELPFMMBHOLF": [
                    3637298836
                ],
                "OEAAKJDIEFD": true
            },
            {
                "$type": "FNPNDPFBBDD",
                "type": "LOOK_AT",
                "aliasList": [
                    "Avatar"
                ],
                "NKGFDJDHOBD": true,
                "MNOPLOBEFLB": 0.5,
                "JBODIEHINII": "141701",
                "LPCACGGCDLI": "",
                "NNFPFPOJJOJ": ""
            },
            {
                "$type": "NFDDGDIKEAG",
                "type": "STEER_TO",
                "delayTime": 1.0,
                "duration": 1.0,
                "aliasList": [
                    "Avatar"
                ],
                "GGJHILELIMO": "TO_TARGET",
                "PKKKHNGDEEE": true,
                "LGDIOPOBMPH": true,
                "NBNJEKMFIDE": true,
                "JBODIEHINII": "141701",
                "NNFPFPOJJOJ": ""
            },
            {
                "$type": "FNPNDPFBBDD",
                "type": "LOOK_AT",
                "delayTime": 1.0,
                "aliasList": [
                    "Avatar"
                ],
                "NKGFDJDHOBD": true,
                "MNOPLOBEFLB": 0.30000001192092896,
                "JBODIEHINII": "141701",
                "LPCACGGCDLI": "",
                "NNFPFPOJJOJ": ""
            },
            {
                "$type": "PCKGCMJKAFG",
                "type": "LOOK_AT_EYECTRL",
                "aliasList": [
                    "Avatar"
                ],
                "useTargetPos": false,
                "OEJLBIFJKEL": 1.0,
                "JBODIEHINII": "",
                "FEHKBOLJIOO": "Face"
            },
            {
                "$type": "MoleMole.Config.ConfigMoveToAction",
                "type": "MOVE_TO",
                "aliasList": [
                    "Avatar"
                ],
                "moveType": "NONEACCURATE",
                "routeList": [
                    {
                        "x": 2215.5,
                        "y": 209.98995971679688,
                        "z": -921.1177368164062
                    }
                ]
            },
            {
                "$type": "KAGAFALAIGP",
                "type": "DIALOG",
                "delayTime": 2.0,
                "aliasList": [
                    "141701"
                ],
                "JHEPJOMJJHH": 180000301,
                "OCILKFCPBNC": 1.0000001192092896
            },
            {
                "$type": "FNPNDPFBBDD",
                "type": "LOOK_AT",
                "aliasList": [
                    "141701"
                ],
                "MNOPLOBEFLB": 0.5,
                "JBODIEHINII": "141701",
                "CFPBIOLLOCO": "NONE",
                "LPCACGGCDLI": "",
                "NNFPFPOJJOJ": ""
            },
            {
                "$type": "LNLLGCOBDFC",
                "type": "EMO_SYNC",
                "delayTime": 2.0,
                "aliasList": [
                    "141701"
                ],
                "LKHHGAGNMKM": "Cs_Emo_Avatar_Simple_Common_Set/Cs_Emo_Avatar_Talk/Cs_Emo_WorldQuest/Cs_Emo_Mengde_18000_Dain/Cs_Emo_180000301",
                "AIMKGPFAAAD": "",
                "IPEKOEDCGGF": "",
                "EJNFMNJKDAH": "",
                "LOOOCOLIHFA": "",
                "KJDLMAPPPMG": "",
                "EKJHPKFBONG": [
                    7768608123580735610,
                    17959033318498166642,
                    13535178781862852564,
                    14179908934201946033
                ]
            },
            {
                "$type": "MoleMole.Config.ConfigMoveToAction",
                "type": "MOVE_TO",
                "aliasList": [
                    "141701"
                ],
                "moveType": "NONEACCURATE",
                "routeList": [
                    {
                        "x": 2213.78125,
                        "y": 209.98995971679688,
                        "z": -923.521240234375
                    }
                ]
            },
            {
                "$type": "NFDDGDIKEAG",
                "type": "STEER_TO",
                "delayTime": 0.10000000149011612,
                "aliasList": [
                    "141701"
                ],
                "GGJHILELIMO": "ABSOLUTE",
                "GPODKINFLFH": {
                    "x": 2214.343994140625,
                    "y": 209.98995971679688,
                    "z": -922.7510375976562
                },
                "JBODIEHINII": "",
                "NNFPFPOJJOJ": ""
            },
            {
                "$type": "PCKGCMJKAFG",
                "type": "LOOK_AT_EYECTRL",
                "aliasList": [
                    "141701"
                ],
                "useTargetPos": false,
                "KIIEOLGDJKJ": {
                    "z": 4.0
                },
                "JMJDEGALFIP": {
                    "z": 4.0
                },
                "OEJLBIFJKEL": 1.0,
                "JBODIEHINII": "",
                "FEHKBOLJIOO": "Face"
            },
            {
                "$type": "NFDDGDIKEAG",
                "type": "STEER_TO",
                "delayTime": 0.5,
                "duration": 3.0,
                "aliasList": [
                    "1005"
                ],
                "GGJHILELIMO": "TO_TARGET",
                "LGDIOPOBMPH": true,
                "NBNJEKMFIDE": true,
                "JBODIEHINII": "141701",
                "NNFPFPOJJOJ": ""
            },
            {
                "$type": "FNPNDPFBBDD",
                "type": "LOOK_AT",
                "delayTime": 0.5,
                "aliasList": [
                    "1005"
                ],
                "NKGFDJDHOBD": true,
                "MNOPLOBEFLB": 0.5,
                "JBODIEHINII": "141701",
                "LPCACGGCDLI": "",
                "NNFPFPOJJOJ": ""
            },
            {
                "$type": "MoleMole.Config.ConfigMoveToAction",
                "type": "MOVE_TO",
                "aliasList": [
                    "1005"
                ],
                "moveType": "NONEACCURATE",
                "routeList": [
                    {
                        "x": 2215.940673828125,
                        "y": 209.98995971679688,
                        "z": -921.44677734375
                    }
                ]
            }
        ],
        [
            {
                "$type": "PBIGHFCHGCA",
                "type": "CAMERA_MOVE",
                "duration": 1.0,
                "KCFKJMMEECM": {
                    "x": 2216.05078125,
                    "y": 211.39678955078125,
                    "z": -919.0867919921875
                },
                "DLGJEHNPMFN": {
                    "x": 2215.65185546875,
                    "y": 211.39617919921875,
                    "z": -920.0037841796875
                },
                "NJCBGNHGINI": 15.0,
                "FNMFGIOLKBE": 6,
                "NECGMADJICG": "EaseInOutCubic",
                "BMHIHPIKAHM": {},
                "HGGPLEMCNNG": false,
                "JBODIEHINII": "",
                "EJCHLMIMLBO": "",
                "BIMPIKMCIHB": "",
                "MCAOJPLIJGI": ""
            },
            {
                "$type": "MoleMole.Config.ConfigCameraDOFAction",
                "type": "CAMERA_DOF",
                "enabled": true,
                "focusDistance": 6.0,
                "focusRange": 3.0,
                "nearFocalDistance": 4.0,
                "nearFocalTransDistance": 4.0,
                "dofBlurAmount": 1.0,
                "quality": 3
            },
            {
                "$type": "FNPNDPFBBDD",
                "type": "LOOK_AT",
                "aliasList": [
                    "Avatar"
                ],
                "NKGFDJDHOBD": true,
                "MNOPLOBEFLB": 0.5,
                "JBODIEHINII": "141701",
                "LPCACGGCDLI": "",
                "NNFPFPOJJOJ": ""
            },
            {
                "$type": "KAGAFALAIGP",
                "type": "DIALOG",
                "aliasList": [
                    "141701"
                ],
                "JHEPJOMJJHH": 180000303,
                "OCILKFCPBNC": 0.5
            },
            {
                "$type": "LNLLGCOBDFC",
                "type": "EMO_SYNC",
                "aliasList": [
                    "141701"
                ],
                "LKHHGAGNMKM": "Cs_Emo_Avatar_Simple_Common_Set/Cs_Emo_Avatar_Talk/Cs_Emo_WorldQuest/Cs_Emo_Mengde_18000_Dain/Cs_Emo_180000303",
                "AIMKGPFAAAD": "",
                "IPEKOEDCGGF": "",
                "EJNFMNJKDAH": "",
                "LOOOCOLIHFA": "",
                "KJDLMAPPPMG": "",
                "EKJHPKFBONG": [
                    13107713655585034435,
                    3169828403509605387,
                    18227435661220522368,
                    17582041728832579200
                ]
            }
        ],
        [
            {
                "$type": "PBIGHFCHGCA",
                "type": "CAMERA_MOVE",
                "duration": 1.0,
                "KCFKJMMEECM": {
                    "x": 2214.761962890625,
                    "y": 211.20303344726562,
                    "z": -920.1121215820312
                },
                "DLGJEHNPMFN": {
                    "x": 2214.53173828125,
                    "y": 211.2952880859375,
                    "z": -921.0808715820312
                },
                "NJCBGNHGINI": 15.0,
                "FNMFGIOLKBE": 6,
                "NECGMADJICG": "EaseInOutCubic",
                "BMHIHPIKAHM": {},
                "JBODIEHINII": "",
                "EJCHLMIMLBO": "",
                "BIMPIKMCIHB": "",
                "MCAOJPLIJGI": ""
            },
            {
                "$type": "PBIGHFCHGCA",
                "type": "CAMERA_MOVE",
                "delayTime": 0.10000000149011612,
                "duration": 8.0,
                "KCFKJMMEECM": {
                    "x": 2214.7197265625,
                    "y": 211.23670959472656,
                    "z": -920.2503051757812
                },
                "DLGJEHNPMFN": {
                    "x": 2214.489501953125,
                    "y": 211.32896423339844,
                    "z": -921.2190551757812
                },
                "NJCBGNHGINI": 15.0,
                "NECGMADJICG": "EaseInOutQuad",
                "BMHIHPIKAHM": {},
                "JBODIEHINII": "",
                "EJCHLMIMLBO": "",
                "BIMPIKMCIHB": "",
                "MCAOJPLIJGI": ""
            },
            {
                "$type": "MoleMole.Config.ConfigCameraDOFAction",
                "type": "CAMERA_DOF",
                "enabled": true,
                "focusDistance": 4.0,
                "focusRange": 4.0,
                "nearFocalDistance": 2.0,
                "nearFocalTransDistance": 2.0,
                "dofBlurAmount": 1.0,
                "quality": 3
            },
            {
                "$type": "KAGAFALAIGP",
                "type": "DIALOG",
                "aliasList": [
                    "141701"
                ],
                "JHEPJOMJJHH": 180000304,
                "OCILKFCPBNC": 0.5
            },
            {
                "$type": "LNLLGCOBDFC",
                "type": "EMO_SYNC",
                "aliasList": [
                    "141701"
                ],
                "LKHHGAGNMKM": "Cs_Emo_Avatar_Simple_Common_Set/Cs_Emo_Avatar_Talk/Cs_Emo_WorldQuest/Cs_Emo_Mengde_18000_Dain/Cs_Emo_180000304",
                "AIMKGPFAAAD": "",
                "IPEKOEDCGGF": "",
                "EJNFMNJKDAH": "",
                "LOOOCOLIHFA": "",
                "KJDLMAPPPMG": "",
                "EKJHPKFBONG": [
                    6153420409894327453,
                    6766935390760562606,
                    8605619038962039589,
                    14152293327465719695
                ]
            }
        ],
        [
            {
                "$type": "PBIGHFCHGCA",
                "type": "CAMERA_MOVE",
                "duration": 1.0,
                "KCFKJMMEECM": {
                    "x": 2211.587158203125,
                    "y": 211.5963592529297,
                    "z": -904.0264892578125
                },
                "DLGJEHNPMFN": {
                    "x": 2211.7548828125,
                    "y": 211.583740234375,
                    "z": -905.01220703125
                },
                "NJCBGNHGINI": 20.0,
                "FNMFGIOLKBE": 6,
                "NECGMADJICG": "EaseInOutCubic",
                "BMHIHPIKAHM": {},
                "JBODIEHINII": "",
                "EJCHLMIMLBO": "",
                "BIMPIKMCIHB": "",
                "MCAOJPLIJGI": ""
            },
            {
                "$type": "PBIGHFCHGCA",
                "type": "CAMERA_MOVE",
                "delayTime": 0.10000000149011612,
                "duration": 10.0,
                "KCFKJMMEECM": {
                    "x": 2211.80810546875,
                    "y": 211.5851593017578,
                    "z": -903.9887084960938
                },
                "DLGJEHNPMFN": {
                    "x": 2211.975830078125,
                    "y": 211.57254028320312,
                    "z": -904.9744262695312
                },
                "NJCBGNHGINI": 20.0,
                "NECGMADJICG": "EaseInOutQuad",
                "BMHIHPIKAHM": {},
                "JBODIEHINII": "",
                "EJCHLMIMLBO": "",
                "BIMPIKMCIHB": "",
                "MCAOJPLIJGI": ""
            },
            {
                "$type": "MoleMole.Config.ConfigCameraDOFAction",
                "type": "CAMERA_DOF",
                "enabled": true,
                "focusDistance": 20.0,
                "focusRange": 20.0,
                "nearFocalDistance": 15.0,
                "nearFocalTransDistance": 15.0,
                "dofBlurAmount": 1.0,
                "quality": 3
            },
            {
                "$type": "KAGAFALAIGP",
                "type": "DIALOG",
                "aliasList": [
                    "141701"
                ],
                "JHEPJOMJJHH": 180000305,
                "OCILKFCPBNC": 0.5
            },
            {
                "$type": "LNLLGCOBDFC",
                "type": "EMO_SYNC",
                "aliasList": [
                    "141701"
                ],
                "LKHHGAGNMKM": "Cs_Emo_Avatar_Simple_Common_Set/Cs_Emo_Avatar_Talk/Cs_Emo_WorldQuest/Cs_Emo_Mengde_18000_Dain/Cs_Emo_180000305",
                "AIMKGPFAAAD": "",
                "IPEKOEDCGGF": "",
                "EJNFMNJKDAH": "",
                "LOOOCOLIHFA": "",
                "KJDLMAPPPMG": "",
                "EKJHPKFBONG": [
                    7684975503254585935,
                    17337541611179786046,
                    5800712144187395223,
                    13137521901364468278
                ]
            }
        ],
        [
            {
                "$type": "PBIGHFCHGCA",
                "type": "CAMERA_MOVE",
                "duration": 1.0,
                "KCFKJMMEECM": {
                    "x": 2214.30615234375,
                    "y": 211.0040740966797,
                    "z": -922.11572265625
                },
                "DLGJEHNPMFN": {
                    "x": 2214.163818359375,
                    "y": 211.296142578125,
                    "z": -923.0614624023438
                },
                "FNMFGIOLKBE": 6,
                "NECGMADJICG": "EaseInOutCubic",
                "BMHIHPIKAHM": {},
                "JBODIEHINII": "",
                "EJCHLMIMLBO": "",
                "BIMPIKMCIHB": "",
                "MCAOJPLIJGI": ""
            },
            {
                "$type": "PBIGHFCHGCA",
                "type": "CAMERA_MOVE",
                "delayTime": 0.10000000149011612,
                "duration": 10.0,
                "KCFKJMMEECM": {
                    "x": 2214.323486328125,
                    "y": 210.99559020996094,
                    "z": -922.0899658203125
                },
                "DLGJEHNPMFN": {
                    "x": 2214.18115234375,
                    "y": 211.28765869140625,
                    "z": -923.0357055664062
                },
                "NECGMADJICG": "EaseInOutQuad",
                "BMHIHPIKAHM": {},
                "JBODIEHINII": "",
                "EJCHLMIMLBO": "",
                "BIMPIKMCIHB": "",
                "MCAOJPLIJGI": ""
            },
            {
                "$type": "MoleMole.Config.ConfigCameraDOFAction",
                "type": "CAMERA_DOF",
                "enabled": true,
                "focusDistance": 3.0,
                "focusRange": 3.0,
                "nearFocalDistance": 1.0,
                "nearFocalTransDistance": 1.0,
                "dofBlurAmount": 1.0,
                "quality": 3
            },
            {
                "$type": "KAGAFALAIGP",
                "type": "DIALOG",
                "aliasList": [
                    "141701"
                ],
                "JHEPJOMJJHH": 180000306,
                "OCILKFCPBNC": 0.5
            },
            {
                "$type": "LNLLGCOBDFC",
                "type": "EMO_SYNC",
                "aliasList": [
                    "141701"
                ],
                "LKHHGAGNMKM": "Cs_Emo_Avatar_Simple_Common_Set/Cs_Emo_Avatar_Talk/Cs_Emo_WorldQuest/Cs_Emo_Mengde_18000_Dain/Cs_Emo_180000306",
                "AIMKGPFAAAD": "",
                "IPEKOEDCGGF": "",
                "EJNFMNJKDAH": "",
                "LOOOCOLIHFA": "",
                "KJDLMAPPPMG": "",
                "EKJHPKFBONG": [
                    7182924607909129363,
                    16378562953472992798,
                    4629148572629145076,
                    15108602728930247645
                ]
            }
        ],
        [
            {
                "$type": "PBIGHFCHGCA",
                "type": "CAMERA_MOVE",
                "duration": 1.0,
                "KCFKJMMEECM": {
                    "x": 2213.54638671875,
                    "y": 211.3147735595703,
                    "z": -923.0263061523438
                },
                "DLGJEHNPMFN": {
                    "x": 2214.3154296875,
                    "y": 211.26318359375,
                    "z": -922.3892211914062
                },
                "NJCBGNHGINI": 20.0,
                "FNMFGIOLKBE": 6,
                "NECGMADJICG": "EaseInOutCubic",
                "BMHIHPIKAHM": {},
                "JBODIEHINII": "",
                "EJCHLMIMLBO": "",
                "BIMPIKMCIHB": "",
                "MCAOJPLIJGI": ""
            },
            {
                "$type": "MoleMole.Config.ConfigCameraDOFAction",
                "type": "CAMERA_DOF",
                "enabled": true,
                "focusDistance": 4.0,
                "focusRange": 4.0,
                "dofBlurAmount": 1.0,
                "quality": 3
            },
            {
                "$type": "FNPNDPFBBDD",
                "type": "LOOK_AT",
                "delayTime": 3.5,
                "aliasList": [
                    "Avatar"
                ],
                "NKGFDJDHOBD": true,
                "MNOPLOBEFLB": 0.6000000238418579,
                "JBODIEHINII": "1005",
                "LPCACGGCDLI": "",
                "NNFPFPOJJOJ": ""
            },
            {
                "$type": "PCKGCMJKAFG",
                "type": "LOOK_AT_EYECTRL",
                "delayTime": 3.5,
                "aliasList": [
                    "Avatar"
                ],
                "useTargetPos": false,
                "KIIEOLGDJKJ": {
                    "x": -6.0,
                    "z": 2.0
                },
                "JMJDEGALFIP": {
                    "x": -6.0,
                    "z": 2.0
                },
                "OEJLBIFJKEL": 1.0,
                "JBODIEHINII": "",
                "FEHKBOLJIOO": "Face"
            },
            {
                "$type": "KAGAFALAIGP",
                "type": "DIALOG",
                "aliasList": [
                    "1005"
                ],
                "JHEPJOMJJHH": 180000307,
                "OCILKFCPBNC": 0.5
            },
            {
                "$type": "CENEPJCONAG",
                "type": "BODY_LANG",
                "aliasList": [
                    "1005"
                ],
                "OGFPAIKLDGB": 1120,
                "MHDCNDAINCK": true,
                "FOEKGLEJBIJ": ""
            },
            {
                "$type": "CENEPJCONAG",
                "type": "BODY_LANG",
                "delayTime": 3.0,
                "aliasList": [
                    "1005"
                ],
                "OGFPAIKLDGB": 1130,
                "MHDCNDAINCK": true,
                "FOEKGLEJBIJ": ""
            },
            {
                "$type": "CENEPJCONAG",
                "type": "BODY_LANG",
                "delayTime": 6.0,
                "aliasList": [
                    "1005"
                ],
                "NNKEOHJCPOF": true,
                "MHDCNDAINCK": true,
                "FOEKGLEJBIJ": ""
            },
            {
                "$type": "FNPNDPFBBDD",
                "type": "LOOK_AT",
                "delayTime": 3.0,
                "aliasList": [
                    "1005"
                ],
                "NKGFDJDHOBD": true,
                "useTargetPos": true,
                "LBJHJADMNBD": true,
                "EKIONHAEIBG": {
                    "x": 2215.495361328125,
                    "y": 211.35552978515625,
                    "z": -921.5244750976562
                },
                "MNOPLOBEFLB": 0.5,
                "JBODIEHINII": "Avatar",
                "CFPBIOLLOCO": "NONE",
                "LPCACGGCDLI": "",
                "NNFPFPOJJOJ": ""
            },
            {
                "$type": "PCKGCMJKAFG",
                "type": "LOOK_AT_EYECTRL",
                "delayTime": 3.0,
                "aliasList": [
                    "1005"
                ],
                "useTargetPos": false,
                "KIIEOLGDJKJ": {
                    "x": 5.0,
                    "z": -3.0
                },
                "JMJDEGALFIP": {
                    "x": 5.0,
                    "z": -3.0
                },
                "OEJLBIFJKEL": 1.0,
                "JBODIEHINII": "",
                "FEHKBOLJIOO": "Face"
            },
            {
                "$type": "LNLLGCOBDFC",
                "type": "EMO_SYNC",
                "aliasList": [
                    "1005"
                ],
                "LKHHGAGNMKM": "Cs_Emo_Avatar_Simple_Common_Set/Cs_Emo_Avatar_Talk/Cs_Emo_WorldQuest/Cs_Emo_Mengde_18000_Dain/Cs_Emo_180000307",
                "AIMKGPFAAAD": "",
                "IPEKOEDCGGF": "",
                "EJNFMNJKDAH": "",
                "LOOOCOLIHFA": "",
                "KJDLMAPPPMG": "",
                "EKJHPKFBONG": [
                    7371453266583442145,
                    3968919279866255453,
                    6388968682655797854,
                    8012954798706491296
                ]
            },
            {
                "$type": "NFDDGDIKEAG",
                "type": "STEER_TO",
                "delayTime": 3.0,
                "duration": 3.0,
                "aliasList": [
                    "1005"
                ],
                "GGJHILELIMO": "ABSOLUTE",
                "GPODKINFLFH": {
                    "x": 2215.061279296875,
                    "y": 209.98995971679688,
                    "z": -921.898681640625
                },
                "JBODIEHINII": "",
                "NNFPFPOJJOJ": ""
            }
        ],
        [
            {
                "$type": "PBIGHFCHGCA",
                "type": "CAMERA_MOVE",
                "delayTime": 1.0,
                "duration": 1.0,
                "KCFKJMMEECM": {
                    "x": 2213.761474609375,
                    "y": 211.42100524902344,
                    "z": -921.6685791015625
                },
                "DLGJEHNPMFN": {
                    "x": 2214.7470703125,
                    "y": 211.33468627929688,
                    "z": -921.5238037109375
                },
                "NJCBGNHGINI": 20.0,
                "FNMFGIOLKBE": 6,
                "NECGMADJICG": "EaseInOutCubic",
                "BMHIHPIKAHM": {},
                "JBODIEHINII": "",
                "EJCHLMIMLBO": "",
                "BIMPIKMCIHB": "",
                "MCAOJPLIJGI": ""
            },
            {
                "$type": "MoleMole.Config.ConfigCameraDOFAction",
                "type": "CAMERA_DOF",
                "delayTime": 1.0,
                "enabled": true,
                "focusDistance": 3.0,
                "focusRange": 3.0,
                "dofBlurAmount": 1.0,
                "quality": 3
            },
            {
                "$type": "FNPNDPFBBDD",
                "type": "LOOK_AT",
                "delayTime": 0.4000000059604645,
                "aliasList": [
                    "Avatar"
                ],
                "NKGFDJDHOBD": true,
                "MNOPLOBEFLB": 0.6000000238418579,
                "JBODIEHINII": "1005",
                "LPCACGGCDLI": "",
                "NNFPFPOJJOJ": ""
            },
            {
                "$type": "PCKGCMJKAFG",
                "type": "LOOK_AT_EYECTRL",
                "delayTime": 0.4000000059604645,
                "aliasList": [
                    "Avatar"
                ],
                "useTargetPos": false,
                "KIIEOLGDJKJ": {
                    "x": -6.0,
                    "z": 2.0
                },
                "JMJDEGALFIP": {
                    "x": -6.0,
                    "z": 2.0
                },
                "OEJLBIFJKEL": 1.0,
                "JBODIEHINII": "",
                "FEHKBOLJIOO": "Face"
            },
            {
                "$type": "KAGAFALAIGP",
                "type": "DIALOG",
                "aliasList": [
                    "1005"
                ],
                "JHEPJOMJJHH": 180000308,
                "OCILKFCPBNC": 0.5
            },
            {
                "$type": "CENEPJCONAG",
                "type": "BODY_LANG",
                "aliasList": [
                    "1005"
                ],
                "NNKEOHJCPOF": true,
                "MHDCNDAINCK": true,
                "FOEKGLEJBIJ": ""
            },
            {
                "$type": "FNPNDPFBBDD",
                "type": "LOOK_AT",
                "aliasList": [
                    "1005"
                ],
                "NKGFDJDHOBD": true,
                "OCIADBJCDPC": {
                    "x": 20.0,
                    "y": 15.0
                },
                "MNOPLOBEFLB": 0.5,
                "JBODIEHINII": "Avatar",
                "CFPBIOLLOCO": "NONE",
                "LPCACGGCDLI": "",
                "NNFPFPOJJOJ": ""
            },
            {
                "$type": "CENEPJCONAG",
                "type": "BODY_LANG",
                "delayTime": 1.0,
                "aliasList": [
                    "1005"
                ],
                "OGFPAIKLDGB": 1170,
                "MHDCNDAINCK": true,
                "FOEKGLEJBIJ": ""
            },
            {
                "$type": "CENEPJCONAG",
                "type": "BODY_LANG",
                "delayTime": 3.0,
                "aliasList": [
                    "1005"
                ],
                "NNKEOHJCPOF": true,
                "MHDCNDAINCK": true,
                "FOEKGLEJBIJ": ""
            },
            {
                "$type": "PCKGCMJKAFG",
                "type": "LOOK_AT_EYECTRL",
                "aliasList": [
                    "1005"
                ],
                "useTargetPos": false,
                "KIIEOLGDJKJ": {
                    "z": 3.0
                },
                "JMJDEGALFIP": {
                    "z": 3.0
                },
                "OEJLBIFJKEL": 1.0,
                "JBODIEHINII": "",
                "FEHKBOLJIOO": "Face"
            },
            {
                "$type": "LNLLGCOBDFC",
                "type": "EMO_SYNC",
                "aliasList": [
                    "1005"
                ],
                "LKHHGAGNMKM": "Cs_Emo_Avatar_Simple_Common_Set/Cs_Emo_Avatar_Talk/Cs_Emo_WorldQuest/Cs_Emo_Mengde_18000_Dain/Cs_Emo_180000308",
                "AIMKGPFAAAD": "",
                "IPEKOEDCGGF": "",
                "EJNFMNJKDAH": "",
                "LOOOCOLIHFA": "",
                "KJDLMAPPPMG": "",
                "EKJHPKFBONG": [
                    13783486687173051901,
                    11397921728496598479,
                    14866163615295139618,
                    8475761670750545127
                ]
            },
            {
                "$type": "PCKGCMJKAFG",
                "type": "LOOK_AT_EYECTRL",
                "delayTime": 1.0,
                "aliasList": [
                    "1005"
                ],
                "useTargetPos": false,
                "KIIEOLGDJKJ": {
                    "x": 5.0,
                    "z": -3.0
                },
                "JMJDEGALFIP": {
                    "x": 5.0,
                    "z": -3.0
                },
                "OEJLBIFJKEL": 1.0,
                "JBODIEHINII": "",
                "FEHKBOLJIOO": "Face"
            },
            {
                "$type": "FNPNDPFBBDD",
                "type": "LOOK_AT",
                "delayTime": 1.0,
                "aliasList": [
                    "1005"
                ],
                "NKGFDJDHOBD": true,
                "useTargetPos": true,
                "LBJHJADMNBD": true,
                "EKIONHAEIBG": {
                    "x": 2215.436767578125,
                    "y": 211.35552978515625,
                    "z": -921.3630981445312
                },
                "MNOPLOBEFLB": 0.5,
                "JBODIEHINII": "Avatar",
                "CFPBIOLLOCO": "NONE",
                "LPCACGGCDLI": "",
                "NNFPFPOJJOJ": ""
            },
            {
                "$type": "NFDDGDIKEAG",
                "type": "STEER_TO",
                "delayTime": 1.0,
                "duration": 3.0,
                "aliasList": [
                    "1005"
                ],
                "GGJHILELIMO": "ABSOLUTE",
                "GPODKINFLFH": {
                    "x": 2214.92822265625,
                    "y": 209.98995971679688,
                    "z": -921.5869140625
                },
                "JBODIEHINII": "",
                "NNFPFPOJJOJ": ""
            }
        ],
        [
            {
                "$type": "PBIGHFCHGCA",
                "type": "CAMERA_MOVE",
                "delayTime": 0.6000000238418579,
                "duration": 0.10000000149011612,
                "KCFKJMMEECM": {
                    "x": 2213.200439453125,
                    "y": 211.5152587890625,
                    "z": -918.0419921875
                },
                "DLGJEHNPMFN": {
                    "x": 2213.78369140625,
                    "y": 211.3990936279297,
                    "z": -918.845947265625
                },
                "FNMFGIOLKBE": 6,
                "NECGMADJICG": "EaseInOutCubic",
                "BMHIHPIKAHM": {},
                "JBODIEHINII": "",
                "EJCHLMIMLBO": "",
                "BIMPIKMCIHB": "",
                "MCAOJPLIJGI": ""
            },
            {
                "$type": "MoleMole.Config.ConfigTimeProtectAction",
                "type": "TIME_PROTECT",
                "duration": 0.699999988079071
            },
            {
                "$type": "MoleMole.Config.ConfigSimpleBlackScreenAction",
                "type": "SIMPLE_BLACK_SCREEN",
                "durationToBlack": 0.5,
                "durationKeepBlack": 1.0,
                "durationFromBlack": 0.5,
                "textMapID": ""
            },
            {
                "$type": "MoleMole.Config.ConfigVisibleInterAction",
                "type": "VISIBLE",
                "delayTime": 0.6000000238418579,
                "aliasList": [
                    "141701"
                ],
                "extraParam": ""
            }
        ]
    ],
    "groupId": [
        {
            "grpId": 3637298835,
            "nextGrpId": 3637298836
        },
        {
            "index": 1,
            "grpId": 3637298836,
            "nextGrpId": 3637298837
        },
        {
            "index": 2,
            "grpId": 3637298837,
            "nextGrpId": 3637298838
        },
        {
            "index": 3,
            "grpId": 3637298838,
            "nextGrpId": 3637298839
        },
        {
            "index": 4,
            "grpId": 3637298839,
            "nextGrpId": 3637298840
        },
        {
            "index": 5,
            "grpId": 3637298840,
            "nextGrpId": 3637298841
        },
        {
            "index": 6,
            "grpId": 3637298841,
            "nextGrpId": 3637298842
        },
        {
            "index": 7,
            "grpId": 3637298842,
            "nextGrpId": 3637298843
        }
    ],
    "freeStyleDic": {
        "141701": []
    }
}