{
    "id": 19091,
    "series": 103402,
    "type": "LQ",
    "titleTextMapHash": 2820994311,
    "descTextMapHash": 2445188262,
    "chapterId": 103402,
    "subQuests": [
        {
            "subId": 1909101,
            "mainId": 19091,
            "order": 2,
            "descTextMapHash": 3499840740,
            "exclusivePlaceList": [
                300404
            ],
            "finishCond": [
                {
                    "type": "QUEST_CONTENT_MAIN_COOP_ENTER_SAVE_POINT",
                    "param": [
                        103402,
                        1909102
                    ]
                }
            ],
            "guide": {
                "type": "QUEST_GUIDE_NPC",
                "param": [
                    "143501",
                    "SELECT_NPC_NONE"
                ],
                "guideScene": 3,
                "guideStyle": "QUEST_GUIDE_STYLE_TARGET",
                "guideLayer": "QUEST_GUIDE_LAYER_SCENE"
            },
            "acceptCondComb": {
                "FDPBPIHKEGH": ""
            },
            "versionBegin": "",
            "versionEnd": ""
        },
        {
            "subId": 1909102,
            "mainId": 19091,
            "order": 3,
            "descTextMapHash": 4184093780,
            "stepDescTextMapHash": 1212486765,
            "finishCond": [
                {
                    "type": "QUEST_CONTENT_MAIN_COOP_ENTER_SAVE_POINT",
                    "param": [
                        103402,
                        1909103
                    ]
                }
            ],
            "guide": {
                "type": "QUEST_GUIDE_LOCATION",
                "param": [
                    "Q1909102geluoli",
                    "30"
                ],
                "guideScene": 3,
                "guideStyle": "QUEST_GUIDE_STYLE_TARGET",
                "guideLayer": "QUEST_GUIDE_LAYER_SCENE"
            },
            "acceptCondComb": {
                "FDPBPIHKEGH": ""
            },
            "isRewind": true,
            "versionBegin": "",
            "versionEnd": ""
        },
        {
            "subId": 1909103,
            "mainId": 19091,
            "order": 4,
            "subIdSet": 1,
            "descTextMapHash": 773824724,
            "finishCond": [
                {
                    "type": "QUEST_CONTENT_INTERACT_GADGET",
                    "param": [
                        70710326,
                        0
                    ],
                    "count": 1
                }
            ],
            "guide": {
                "type": "QUEST_GUIDE_LOCATION",
                "param": [
                    "Q1909103target",
                    "10"
                ],
                "guideScene": 3,
                "guideStyle": "QUEST_GUIDE_STYLE_TARGET",
                "guideLayer": "QUEST_GUIDE_LAYER_SCENE"
            },
            "acceptCondComb": {
                "FDPBPIHKEGH": ""
            },
            "isRewind": true,
            "finishExec": [
                {
                    "type": "QUEST_EXEC_ADD_QUEST_PROGRESS",
                    "param": [
                        "1909105",
                        "1"
                    ]
                },
                {
                    "type": "QUEST_EXEC_ADD_QUEST_PROGRESS",
                    "param": [
                        "1909107",
                        "1"
                    ]
                }
            ],
            "versionBegin": "",
            "versionEnd": ""
        },
        {
            "subId": 1909104,
            "mainId": 19091,
            "order": 7,
            "isMpBlock": true,
            "descTextMapHash": 3793717396,
            "finishCond": [
                {
                    "type": "QUEST_CONTENT_MAIN_COOP_ENTER_SAVE_POINT",
                    "param": [
                        103402,
                        1909104
                    ]
                }
            ],
            "guide": {
                "type": "QUEST_GUIDE_NPC",
                "param": [
                    "143501",
                    "SELECT_NPC_NONE"
                ],
                "guideScene": 3,
                "guideStyle": "QUEST_GUIDE_STYLE_TARGET",
                "guideLayer": "QUEST_GUIDE_LAYER_SCENE"
            },
            "acceptCondComb": {
                "FDPBPIHKEGH": ""
            },
            "finishParent": true,
            "isRewind": true,
            "finishExec": [
                {
                    "type": "QUEST_EXEC_UNREGISTER_DYNAMIC_GROUP",
                    "param": [
                        "133004930"
                    ]
                },
                {
                    "type": "QUEST_EXEC_UNREGISTER_DYNAMIC_GROUP",
                    "param": [
                        "133004931"
                    ]
                }
            ],
            "versionBegin": "",
            "versionEnd": ""
        },
        {
            "subId": 1909105,
            "mainId": 19091,
            "order": 5,
            "subIdSet": 1,
            "descTextMapHash": 169348076,
            "finishCond": [
                {
                    "type": "QUEST_CONTENT_INTERACT_GADGET",
                    "param": [
                        70710339,
                        0
                    ],
                    "count": 1
                }
            ],
            "failCond": [
                {
                    "type": "QUEST_CONTENT_ADD_QUEST_PROGRESS",
                    "param": [
                        1909105,
                        0
                    ],
                    "count": 1
                }
            ],
            "guide": {
                "type": "QUEST_GUIDE_LOCATION",
                "param": [
                    "Q1990105target",
                    "10"
                ],
                "guideScene": 3,
                "guideStyle": "QUEST_GUIDE_STYLE_TARGET",
                "guideLayer": "QUEST_GUIDE_LAYER_SCENE"
            },
            "acceptCondComb": {
                "FDPBPIHKEGH": ""
            },
            "versionBegin": "",
            "versionEnd": ""
        },
        {
            "subId": 1909106,
            "mainId": 19091,
            "order": 1,
            "descTextMapHash": 3712358340,
            "exclusivePlaceList": [
                300404
            ],
            "finishCond": [
                {
                    "type": "QUEST_CONTENT_FINISH_PLOT",
                    "param": [
                        1909106,
                        0
                    ]
                }
            ],
            "guide": {
                "type": "QUEST_GUIDE_LOCATION",
                "param": [
                    "Q1909101player"
                ],
                "guideScene": 3,
                "guideStyle": "QUEST_GUIDE_STYLE_POINT",
                "guideLayer": "QUEST_GUIDE_LAYER_SCENE"
            },
            "acceptCondComb": {
                "FDPBPIHKEGH": ""
            },
            "isRewind": true,
            "versionBegin": "",
            "versionEnd": ""
        },
        {
            "subId": 1909107,
            "mainId": 19091,
            "order": 6,
            "subIdSet": 1,
            "descTextMapHash": 4010420692,
            "finishCond": [
                {
                    "type": "QUEST_CONTENT_INTERACT_GADGET",
                    "param": [
                        70710353,
                        0
                    ],
                    "count": 1
                }
            ],
            "failCond": [
                {
                    "type": "QUEST_CONTENT_ADD_QUEST_PROGRESS",
                    "param": [
                        1909107,
                        0
                    ],
                    "count": 1
                }
            ],
            "guide": {
                "type": "QUEST_GUIDE_LOCATION",
                "param": [
                    "Q1990107target",
                    "10"
                ],
                "guideScene": 3,
                "guideStyle": "QUEST_GUIDE_STYLE_TARGET",
                "guideLayer": "QUEST_GUIDE_LAYER_SCENE"
            },
            "acceptCondComb": {
                "FDPBPIHKEGH": ""
            },
            "versionBegin": "",
            "versionEnd": ""
        },
        {
            "subId": 1909108,
            "mainId": 19091,
            "order": 9,
            "showType": "QUEST_HIDDEN",
            "guide": {
                "type": "QUEST_GUIDE_LOCATION",
                "param": [
                    "Q1909102geluoli",
                    "50"
                ],
                "guideScene": 3,
                "guideStyle": "QUEST_GUIDE_STYLE_TARGET",
                "guideLayer": "QUEST_GUIDE_LAYER_SCENE"
            },
            "acceptCondComb": {
                "FDPBPIHKEGH": ""
            },
            "versionBegin": "",
            "versionEnd": ""
        },
        {
            "subId": 1909109,
            "mainId": 19091,
            "order": 8,
            "showType": "QUEST_HIDDEN",
            "guide": {
                "type": "QUEST_GUIDE_NPC",
                "param": [
                    "143501",
                    "SELECT_NPC_NONE"
                ],
                "guideScene": 3,
                "guideStyle": "QUEST_GUIDE_STYLE_TARGET",
                "guideLayer": "QUEST_GUIDE_LAYER_SCENE"
            },
            "acceptCondComb": {
                "FDPBPIHKEGH": ""
            },
            "versionBegin": "",
            "versionEnd": ""
        }
    ]
}