{
    "id": 492,
    "series": 2006,
    "type": "LQ",
    "titleTextMapHash": 797114329,
    "showType": "QUEST_HIDDEN",
    "chapterId": 2006,
    "subQuests": [
        {
            "subId": 49201,
            "mainId": 492,
            "order": 1,
            "descTextMapHash": 1952717832,
            "showType": "QUEST_HIDDEN",
            "finishCond": [
                {
                    "type": "QUEST_CONTENT_COMPLETE_TALK",
                    "param": [
                        49010,
                        0
                    ]
                }
            ],
            "guide": {
                "type": "QUEST_GUIDE_NPC",
                "param": [
                    "1008"
                ],
                "guideScene": 1008
            },
            "acceptCondComb": {
                "FDPBPIHKEGH": ""
            },
            "finishParent": true,
            "isRewind": true,
            "versionBegin": "",
            "versionEnd": ""
        }
    ]
}