{
    "id": 70916,
    "type": "WQ",
    "titleTextMapHash": 2130455783,
    "descTextMapHash": 1030141534,
    "rewardIdList": [
        551012
    ],
    "showType": "QUEST_HIDDEN",
    "subQuests": [
        {
            "subId": 7091601,
            "mainId": 70916,
            "order": 1,
            "showType": "QUEST_HIDDEN",
            "finishCond": [
                {
                    "type": "QUEST_CONTENT_COMPLETE_TALK",
                    "param": [
                        7091601,
                        0
                    ]
                }
            ],
            "guide": {},
            "acceptCondComb": {
                "FDPBPIHKEGH": ""
            },
            "finishParent": true,
            "versionBegin": "",
            "versionEnd": ""
        }
    ]
}