{
    "id": 72131,
    "type": "WQ",
    "titleTextMapHash": 2474356655,
    "descTextMapHash": 3492908574,
    "rewardIdList": [
        172131
    ],
    "chapterId": 10037,
    "subQuests": [
        {
            "subId": 7213104,
            "mainId": 72131,
            "order": 4,
            "descTextMapHash": 3061711204,
            "showType": "QUEST_HIDDEN",
            "finishCond": [
                {
                    "type": "QUEST_CONTENT_COMPLETE_TALK",
                    "param": [
                        7213301,
                        0
                    ]
                }
            ],
            "guide": {},
            "acceptCondComb": {
                "FDPBPIHKEGH": ""
            },
            "versionBegin": "",
            "versionEnd": ""
        },
        {
            "subId": 7213105,
            "mainId": 72131,
            "order": 5,
            "descTextMapHash": 2482668868,
            "stepDescTextMapHash": 2989439429,
            "finishCond": [
                {
                    "type": "QUEST_CONTENT_COMPLETE_TALK",
                    "param": [
                        7213102,
                        0
                    ]
                }
            ],
            "guide": {
                "type": "QUEST_GUIDE_NPC",
                "param": [
                    "20236",
                    "SELECT_NPC_NONE"
                ]
            },
            "acceptCondComb": {
                "FDPBPIHKEGH": ""
            },
            "isRewind": true,
            "versionBegin": "",
            "versionEnd": ""
        },
        {
            "subId": 7213106,
            "mainId": 72131,
            "order": 6,
            "descTextMapHash": 799028676,
            "stepDescTextMapHash": 235435157,
            "guideTipsTextMapHash": 1211084182,
            "finishCond": [
                {
                    "type": "QUEST_CONTENT_FINISH_ITEM_GIVING",
                    "param": [
                        7213106,
                        0
                    ]
                }
            ],
            "guide": {
                "type": "QUEST_GUIDE_NPC",
                "autoGuide": "QUEST_GUIDE_AUTO_ENABLE",
                "param": [
                    "20236"
                ],
                "guideScene": 3,
                "guideStyle": "QUEST_GUIDE_STYLE_TARGET",
                "guideLayer": "QUEST_GUIDE_LAYER_UI"
            },
            "acceptCondComb": {
                "FDPBPIHKEGH": ""
            },
            "finishParent": true,
            "isRewind": true,
            "finishExec": [
                {
                    "type": "QUEST_EXEC_NOTIFY_GROUP_LUA",
                    "param": [
                        "3",
                        "133212029"
                    ]
                },
                {
                    "type": "QUEST_EXEC_SET_WEATHER_GADGET",
                    "param": [
                        "3010",
                        "0"
                    ]
                },
                {
                    "type": "QUEST_EXEC_SET_WEATHER_GADGET",
                    "param": [
                        "3016",
                        "0"
                    ]
                },
                {
                    "type": "QUEST_EXEC_SET_WEATHER_GADGET",
                    "param": [
                        "3141",
                        "0"
                    ]
                },
                {
                    "type": "QUEST_EXEC_SET_WEATHER_GADGET",
                    "param": [
                        "3056",
                        "0"
                    ]
                }
            ],
            "versionBegin": "",
            "versionEnd": ""
        },
        {
            "subId": 7213107,
            "mainId": 72131,
            "order": 7,
            "descTextMapHash": 3320004388,
            "showType": "QUEST_HIDDEN",
            "guide": {},
            "acceptCondComb": {
                "FDPBPIHKEGH": ""
            },
            "versionBegin": "",
            "versionEnd": ""
        },
        {
            "subId": 7213108,
            "mainId": 72131,
            "order": 8,
            "descTextMapHash": 1271918668,
            "showType": "QUEST_HIDDEN",
            "guide": {},
            "acceptCondComb": {
                "FDPBPIHKEGH": ""
            },
            "versionBegin": "",
            "versionEnd": ""
        },
        {
            "subId": 7213109,
            "mainId": 72131,
            "order": 9,
            "descTextMapHash": 3437444764,
            "showType": "QUEST_HIDDEN",
            "finishCond": [
                {
                    "type": "QUEST_CONTENT_FINISH_PLOT",
                    "param": [
                        7213109,
                        0
                    ]
                }
            ],
            "guide": {},
            "acceptCondComb": {
                "FDPBPIHKEGH": ""
            },
            "finishExec": [
                {
                    "type": "QUEST_EXEC_NOTIFY_GROUP_LUA",
                    "param": [
                        "3",
                        "133212029"
                    ]
                }
            ],
            "versionBegin": "",
            "versionEnd": ""
        }
    ]
}