{
    "id": 72669,
    "type": "WQ",
    "titleTextMapHash": 1753902263,
    "descTextMapHash": 761035678,
    "rewardIdList": [
        172667
    ],
    "showType": "QUEST_HIDDEN",
    "subQuests": [
        {
            "subId": 7266901,
            "mainId": 72669,
            "order": 1,
            "descTextMapHash": 2211258796,
            "showType": "QUEST_HIDDEN",
            "guide": {},
            "acceptCondComb": {
                "FDPBPIHKEGH": ""
            },
            "isRewind": true,
            "versionBegin": "",
            "versionEnd": ""
        },
        {
            "subId": 7266902,
            "mainId": 72669,
            "order": 2,
            "descTextMapHash": 972749060,
            "guide": {},
            "acceptCondComb": {
                "FDPBPIHKEGH": ""
            },
            "versionBegin": "",
            "versionEnd": ""
        },
        {
            "subId": 7266903,
            "mainId": 72669,
            "order": 3,
            "descTextMapHash": 2129701308,
            "guide": {},
            "acceptCondComb": {
                "FDPBPIHKEGH": ""
            },
            "versionBegin": "",
            "versionEnd": ""
        }
    ]
}