{
    "id": 72671,
    "series": 5053,
    "type": "WQ",
    "mainQuestTag": "MAINQUEST_TAG_ACTIVITY",
    "titleTextMapHash": 1703390031,
    "rewardIdList": [
        172671
    ],
    "showType": "QUEST_HIDDEN",
    "subQuests": [
        {
            "subId": 7267101,
            "mainId": 72671,
            "order": 1,
            "showType": "QUEST_HIDDEN",
            "finishCond": [
                {
                    "type": "QUEST_CONTENT_QUEST_STATE_EQUAL",
                    "param": [
                        7267005,
                        3
                    ]
                }
            ],
            "guide": {
                "type": "QUEST_GUIDE_NPC",
                "param": [
                    "30084"
                ],
                "guideScene": 3,
                "guideStyle": "QUEST_GUIDE_STYLE_START",
                "guideLayer": "QUEST_GUIDE_LAYER_SCENE"
            },
            "acceptCondComb": {
                "FDPBPIHKEGH": ""
            },
            "finishParent": true,
            "versionBegin": "",
            "versionEnd": ""
        }
    ]
}