{
    "id": 72694,
    "type": "WQ",
    "mainQuestTag": "MAINQUEST_TAG_GUIDE",
    "titleTextMapHash": 2255522359,
    "descTextMapHash": 210390462,
    "rewardIdList": [
        172694
    ],
    "subQuests": [
        {
            "subId": 7269401,
            "mainId": 72694,
            "order": 1,
            "descTextMapHash": 2506762652,
            "finishCond": [
                {
                    "type": "QUEST_CONTENT_COMPLETE_TALK",
                    "param": [
                        7269401,
                        0
                    ]
                }
            ],
            "guide": {
                "type": "QUEST_GUIDE_NPC",
                "param": [
                    "3004"
                ],
                "guideScene": 3,
                "guideStyle": "QUEST_GUIDE_STYLE_TARGET",
                "guideLayer": "QUEST_GUIDE_LAYER_SCENE"
            },
            "acceptCondComb": {
                "FDPBPIHKEGH": ""
            },
            "isRewind": true,
            "versionBegin": "",
            "versionEnd": ""
        },
        {
            "subId": 7269402,
            "mainId": 72694,
            "order": 2,
            "descTextMapHash": 1964402532,
            "finishCond": [
                {
                    "type": "QUEST_CONTENT_COMPLETE_TALK",
                    "param": [
                        7269402,
                        0
                    ]
                }
            ],
            "guide": {
                "type": "QUEST_GUIDE_NPC",
                "param": [
                    "30187"
                ],
                "guideScene": 3,
                "guideStyle": "QUEST_GUIDE_STYLE_TARGET",
                "guideLayer": "QUEST_GUIDE_LAYER_SCENE"
            },
            "acceptCondComb": {
                "FDPBPIHKEGH": ""
            },
            "isRewind": true,
            "versionBegin": "",
            "versionEnd": ""
        },
        {
            "subId": 7269403,
            "mainId": 72694,
            "order": 3,
            "descTextMapHash": 2244421884,
            "guideTipsTextMapHash": 1646957014,
            "finishCond": [
                {
                    "type": "QUEST_CONTENT_ACTIVITY_TRIGGER_UPDATE",
                    "param": [
                        5080,
                        101
                    ],
                    "count": 1
                }
            ],
            "guide": {},
            "acceptCondComb": {
                "FDPBPIHKEGH": ""
            },
            "isRewind": true,
            "versionBegin": "",
            "versionEnd": ""
        },
        {
            "subId": 7269404,
            "mainId": 72694,
            "order": 6,
            "descTextMapHash": 1907487932,
            "finishCond": [
                {
                    "type": "QUEST_CONTENT_COMPLETE_TALK",
                    "param": [
                        7269404,
                        0
                    ]
                }
            ],
            "guide": {
                "type": "QUEST_GUIDE_NPC",
                "param": [
                    "30187"
                ],
                "guideScene": 3,
                "guideStyle": "QUEST_GUIDE_STYLE_TARGET",
                "guideLayer": "QUEST_GUIDE_LAYER_SCENE"
            },
            "acceptCondComb": {
                "FDPBPIHKEGH": ""
            },
            "finishParent": true,
            "isRewind": true,
            "versionBegin": "",
            "versionEnd": ""
        },
        {
            "subId": 7269405,
            "mainId": 72694,
            "order": 4,
            "descTextMapHash": 4225019732,
            "guideTipsTextMapHash": 2252864158,
            "finishCond": [
                {
                    "type": "QUEST_CONTENT_ACTIVITY_TRIGGER_UPDATE",
                    "param": [
                        5080,
                        102
                    ],
                    "count": 1
                }
            ],
            "guide": {},
            "acceptCondComb": {
                "FDPBPIHKEGH": ""
            },
            "isRewind": true,
            "versionBegin": "",
            "versionEnd": ""
        },
        {
            "subId": 7269406,
            "mainId": 72694,
            "order": 5,
            "descTextMapHash": 2592729636,
            "guideTipsTextMapHash": 2657035654,
            "finishCond": [
                {
                    "type": "QUEST_CONTENT_ACTIVITY_TRIGGER_UPDATE",
                    "param": [
                        5080,
                        103
                    ],
                    "count": 1
                }
            ],
            "guide": {},
            "acceptCondComb": {
                "FDPBPIHKEGH": ""
            },
            "isRewind": true,
            "versionBegin": "",
            "versionEnd": ""
        }
    ]
}