{
    "id": 73045,
    "type": "WQ",
    "titleTextMapHash": 538786911,
    "chapterId": 10083,
    "subQuests": [
        {
            "subId": 7304501,
            "mainId": 73045,
            "order": 1,
            "descTextMapHash": 3153324852,
            "guideTipsTextMapHash": 3159746638,
            "showType": "QUEST_HIDDEN",
            "finishCond": [
                {
                    "type": "QUEST_CONTENT_QUEST_STATE_EQUAL",
                    "param": [
                        7304502,
                        3
                    ]
                },
                {
                    "type": "QUEST_CONTENT_QUEST_STATE_EQUAL",
                    "param": [
                        7304503,
                        3
                    ]
                },
                {
                    "type": "QUEST_CONTENT_QUEST_STATE_EQUAL",
                    "param": [
                        7304504,
                        3
                    ]
                }
            ],
            "guide": {},
            "acceptCondComb": {
                "FDPBPIHKEGH": ""
            },
            "finishParent": true,
            "versionBegin": "",
            "versionEnd": ""
        },
        {
            "subId": 7304502,
            "mainId": 73045,
            "order": 2,
            "subIdSet": 1,
            "descTextMapHash": 1140929812,
            "guideTipsTextMapHash": 3836464286,
            "finishCond": [
                {
                    "type": "QUEST_CONTENT_COMPLETE_TALK",
                    "param": [
                        7300520,
                        0
                    ]
                }
            ],
            "guide": {},
            "acceptCondComb": {
                "FDPBPIHKEGH": ""
            },
            "versionBegin": "",
            "versionEnd": ""
        },
        {
            "subId": 7304503,
            "mainId": 73045,
            "order": 3,
            "subIdSet": 1,
            "descTextMapHash": 4158062684,
            "guideTipsTextMapHash": 200659806,
            "finishCond": [
                {
                    "type": "QUEST_CONTENT_COMPLETE_TALK",
                    "param": [
                        7300611,
                        0
                    ]
                }
            ],
            "guide": {},
            "acceptCondComb": {
                "FDPBPIHKEGH": ""
            },
            "versionBegin": "",
            "versionEnd": ""
        },
        {
            "subId": 7304504,
            "mainId": 73045,
            "order": 4,
            "subIdSet": 1,
            "descTextMapHash": 895217644,
            "guideTipsTextMapHash": 112206190,
            "finishCond": [
                {
                    "type": "QUEST_CONTENT_COMPLETE_TALK",
                    "param": [
                        7300711,
                        0
                    ]
                }
            ],
            "guide": {},
            "acceptCondComb": {
                "FDPBPIHKEGH": ""
            },
            "versionBegin": "",
            "versionEnd": ""
        }
    ]
}