{
    "id": 73324,
    "type": "WQ",
    "descTextMapHash": 140186750,
    "showType": "QUEST_HIDDEN",
    "subQuests": [
        {
            "subId": 7332401,
            "mainId": 73324,
            "order": 1,
            "showType": "QUEST_HIDDEN",
            "finishCond": [
                {
                    "type": "QUEST_CONTENT_GADGET_STATE_CHANGE",
                    "param": [
                        133307217,
                        217003
                    ]
                }
            ],
            "guide": {},
            "acceptCondComb": {
                "FDPBPIHKEGH": ""
            },
            "finishParent": true,
            "failParentShow": "QUEST_HIDDEN",
            "isRewind": true,
            "finishExec": [
                {
                    "type": "QUEST_EXEC_UNREGISTER_DYNAMIC_GROUP",
                    "param": [
                        "133307217",
                        "1"
                    ]
                },
                {
                    "type": "QUEST_EXEC_MODIFY_ARANARA_COLLECTION_STATE",
                    "param": [
                        "1",
                        "14",
                        "3"
                    ]
                }
            ],
            "versionBegin": "",
            "versionEnd": ""
        }
    ]
}