{
    "id": 73347,
    "type": "WQ",
    "titleTextMapHash": 1506757151,
    "descTextMapHash": 1400690294,
    "rewardIdList": [
        173347
    ],
    "showType": "QUEST_HIDDEN",
    "subQuests": [
        {
            "subId": 7334701,
            "mainId": 73347,
            "order": 1,
            "showType": "QUEST_HIDDEN",
            "finishCond": [
                {
                    "type": "QUEST_CONTENT_QUEST_STATE_EQUAL",
                    "param": [
                        7329702,
                        3
                    ]
                }
            ],
            "guide": {},
            "acceptCondComb": {
                "FDPBPIHKEGH": ""
            },
            "finishParent": true,
            "isRewind": true,
            "versionBegin": "",
            "versionEnd": ""
        }
    ]
}