{
    "id": 73916,
    "type": "WQ",
    "titleTextMapHash": 468078959,
    "descTextMapHash": 296633950,
    "rewardIdList": [
        554040
    ],
    "showType": "QUEST_HIDDEN",
    "subQuests": [
        {
            "subId": 7391601,
            "mainId": 73916,
            "order": 1,
            "showType": "QUEST_HIDDEN",
            "finishCond": [
                {
                    "type": "QUEST_CONTENT_COMPLETE_TALK",
                    "param": [
                        7391601,
                        0
                    ]
                }
            ],
            "guide": {},
            "acceptCondComb": {
                "FDPBPIHKEGH": ""
            },
            "finishParent": true,
            "versionBegin": "",
            "versionEnd": ""
        }
    ]
}