{
    "id": 73921,
    "type": "WQ",
    "titleTextMapHash": 301886775,
    "descTextMapHash": 295852510,
    "rewardIdList": [
        554003
    ],
    "showType": "QUEST_HIDDEN",
    "subQuests": [
        {
            "subId": 7392101,
            "mainId": 73921,
            "order": 1,
            "showType": "QUEST_HIDDEN",
            "finishCond": [
                {
                    "type": "QUEST_CONTENT_COMPLETE_TALK",
                    "param": [
                        7392101,
                        0
                    ]
                }
            ],
            "guide": {},
            "acceptCondComb": {
                "FDPBPIHKEGH": ""
            },
            "finishParent": true,
            "versionBegin": "",
            "versionEnd": ""
        }
    ]
}