{
    "luaDataPath": "",
    "entityBan": "",
    "disableNpcLod": true,
    "startFade": {
        "startFadeOutDuration": 0.0
    },
    "endFade": {
        "startFadeOutDuration": 0.0
    },
    "actors": [
        {
            "alias": "Avatar",
            "visible": true,
            "bornPointName": "",
            "relativePosNpcAlias": "",
            "bindMovingTargetKey": ""
        },
        {
            "configID": 9029,
            "alias": "9029",
            "visible": true,
            "bornPointName": "",
            "relativePosNpcAlias": "",
            "bindMovingTargetKey": ""
        }
    ],
    "group": [
        [
            {
                "$type": "CENEPJCONAG",
                "type": "BODY_LANG",
                "aliasList": [
                    "9029"
                ],
                "NNKEOHJCPOF": true,
                "MHDCNDAINCK": true,
                "LHIAJOBFNAK": false,
                "FOEKGLEJBIJ": ""
            },
            {
                "$type": "NFDDGDIKEAG",
                "type": "STEER_TO",
                "duration": 1.0,
                "aliasList": [
                    "9029"
                ],
                "GGJHILELIMO": "TO_LOCAL_AVATAR_ADVANCED",
                "GPODKINFLFH": {
                    "x": 816.739990234375,
                    "y": 318.1549987792969,
                    "z": 90.90399932861328
                },
                "PKKKHNGDEEE": true,
                "LGDIOPOBMPH": true,
                "NBNJEKMFIDE": true,
                "JBODIEHINII": "",
                "NNFPFPOJJOJ": ""
            },
            {
                "$type": "MoleMole.Config.ConfigTimeProtectAction",
                "type": "TIME_PROTECT",
                "duration": 0.5
            },
            {
                "$type": "PBIGHFCHGCA",
                "type": "CAMERA_FOCUS",
                "duration": 0.5,
                "JBODIEHINII": "",
                "EJCHLMIMLBO": "",
                "BIMPIKMCIHB": "",
                "MCAOJPLIJGI": ""
            },
            {
                "$type": "FNPNDPFBBDD",
                "type": "LOOK_AT",
                "delayTime": 0.10000000149011612,
                "aliasList": [
                    "Avatar"
                ],
                "NKGFDJDHOBD": true,
                "MNOPLOBEFLB": 0.4000000059604645,
                "JBODIEHINII": "9029",
                "MDNPCOHCCLM": true,
                "LPCACGGCDLI": "",
                "NNFPFPOJJOJ": ""
            },
            {
                "$type": "FNPNDPFBBDD",
                "type": "LOOK_AT",
                "delayTime": 0.1080000028014183,
                "aliasList": [
                    "9029"
                ],
                "NKGFDJDHOBD": true,
                "MNOPLOBEFLB": 0.4000000059604645,
                "JBODIEHINII": "Avatar",
                "MDNPCOHCCLM": true,
                "LPCACGGCDLI": "",
                "NNFPFPOJJOJ": ""
            }
        ],
        [
            {
                "$type": "LNLLGCOBDFC",
                "type": "EMO_SYNC",
                "aliasList": [
                    "9029"
                ],
                "LKHHGAGNMKM": "Cs_Emo_Avatar_Simple_Common_Set/Cs_Emo_Avatar_Talk/Cs_Emo_HomeWorld/Cs_Emo_Avatar_Klee/Cs_Emo_690291201",
                "AIMKGPFAAAD": "",
                "IPEKOEDCGGF": "",
                "EJNFMNJKDAH": "",
                "LOOOCOLIHFA": "",
                "KJDLMAPPPMG": "",
                "EKJHPKFBONG": [
                    7263240714144069682,
                    6389089257224655489,
                    14473265468381107557,
                    14783031257300720733
                ]
            },
            {
                "$type": "KAGAFALAIGP",
                "type": "DIALOG",
                "aliasList": [
                    "9029"
                ],
                "JHEPJOMJJHH": 690291201,
                "OCILKFCPBNC": 0.5
            },
            {
                "$type": "CENEPJCONAG",
                "type": "BODY_LANG",
                "delayTime": 0.15000000596046448,
                "aliasList": [
                    "9029"
                ],
                "OGFPAIKLDGB": 1171,
                "MHDCNDAINCK": true,
                "LHIAJOBFNAK": false,
                "FOEKGLEJBIJ": ""
            },
            {
                "$type": "NFDDGDIKEAG",
                "type": "STEER_TO",
                "delayTime": 0.4000000059604645,
                "duration": 1.0,
                "aliasList": [
                    "Avatar"
                ],
                "GGJHILELIMO": "TO_TARGET_ADVANCED",
                "PKKKHNGDEEE": true,
                "LGDIOPOBMPH": true,
                "NBNJEKMFIDE": true,
                "JBODIEHINII": "9029",
                "NNFPFPOJJOJ": ""
            },
            {
                "$type": "CENEPJCONAG",
                "type": "BODY_LANG",
                "delayTime": 2.4170000553131104,
                "aliasList": [
                    "9029"
                ],
                "OGFPAIKLDGB": 1130,
                "MHDCNDAINCK": true,
                "LHIAJOBFNAK": false,
                "FOEKGLEJBIJ": ""
            },
            {
                "$type": "CENEPJCONAG",
                "type": "BODY_LANG",
                "delayTime": 3.5999999046325684,
                "aliasList": [
                    "9029"
                ],
                "OGFPAIKLDGB": 4031,
                "MHDCNDAINCK": true,
                "LHIAJOBFNAK": false,
                "FOEKGLEJBIJ": ""
            },
            {
                "$type": "CENEPJCONAG",
                "type": "BODY_LANG",
                "delayTime": 5.0,
                "aliasList": [
                    "9029"
                ],
                "NNKEOHJCPOF": true,
                "MHDCNDAINCK": true,
                "LHIAJOBFNAK": false,
                "FOEKGLEJBIJ": ""
            }
        ],
        [
            {
                "$type": "CENEPJCONAG",
                "type": "BODY_LANG",
                "aliasList": [
                    "9029"
                ],
                "NNKEOHJCPOF": true,
                "MHDCNDAINCK": true,
                "LHIAJOBFNAK": false,
                "FOEKGLEJBIJ": ""
            },
            {
                "$type": "MoleMole.Config.ConfigTimeProtectAction",
                "type": "TIME_PROTECT",
                "duration": 0.30000001192092896
            }
        ]
    ],
    "groupId": [
        {
            "grpId": 1120293229,
            "nextGrpId": 1120293230
        },
        {
            "index": 1,
            "grpId": 1120293230,
            "nextGrpId": 1120293231
        },
        {
            "index": 2,
            "grpId": 1120293231,
            "nextGrpId": 1120293232
        }
    ],
    "freeStyleDic": {
        "9029": [
            1171,
            4031,
            1130
        ]
    }
}