{
    "luaDataPath": "",
    "startBlackKeepTime": 0.5,
    "entityBan": "",
    "disableNpcLod": true,
    "startFade": {
        "startFadeInDuration": 0.5,
        "startFadeOutDuration": 0.5
    },
    "endFade": {
        "startFadeOutDuration": 0.0
    },
    "actors": [
        {
            "alias": "Avatar",
            "visible": true,
            "bornPointName": "72167_player4",
            "relativePosNpcAlias": "",
            "bindMovingTargetKey": ""
        },
        {
            "configID": 1005,
            "alias": "1005",
            "visible": true,
            "bornPointName": "72167_paimeng4",
            "useRelativePos": true,
            "relativePos": {
                "x": 0.5,
                "z": 0.5
            },
            "removeActorType": "REMOVE_WITH_DISAPPEAR",
            "relativePosNpcAlias": "",
            "bindMovingTargetKey": ""
        },
        {
            "configID": 20453,
            "alias": "20453",
            "visible": true,
            "bornPointName": "72167_langwo",
            "relativePosNpcAlias": "",
            "bindMovingTargetKey": ""
        }
    ],
    "group": [
        [
            {
                "$type": "FNPNDPFBBDD",
                "type": "LOOK_AT",
                "aliasList": [
                    "1005"
                ],
                "NKGFDJDHOBD": true,
                "useTargetPos": true,
                "LBJHJADMNBD": true,
                "MNOPLOBEFLB": 0.5,
                "JBODIEHINII": "20453",
                "LPCACGGCDLI": "",
                "NNFPFPOJJOJ": ""
            },
            {
                "$type": "MoleMole.Config.ConfigTeleportToAction",
                "type": "TELEPORT_TO",
                "aliasList": [
                    "1005"
                ],
                "position": {
                    "x": -6222.671875,
                    "y": 235.6999969482422,
                    "z": -2462.64599609375
                },
                "forward": {
                    "x": 0.17800000309944153,
                    "z": 0.9010000228881836
                },
                "posBindMovingTargetKey": "",
                "forwardBindMovingTargetKey": ""
            },
            {
                "$type": "MoleMole.Config.ConfigTeleportToAction",
                "type": "TELEPORT_TO",
                "aliasList": [
                    "20453"
                ],
                "position": {
                    "x": -6222.44580078125,
                    "y": 235.74899291992188,
                    "z": -2461.550048828125
                },
                "forward": {
                    "x": 0.13600000739097595,
                    "y": -0.08699999749660492,
                    "z": -0.9900000095367432
                },
                "posBindMovingTargetKey": "",
                "forwardBindMovingTargetKey": ""
            },
            {
                "$type": "PCKGCMJKAFG",
                "type": "LOOK_AT_EYECTRL",
                "aliasList": [
                    "20453"
                ],
                "useTargetPos": false,
                "KIIEOLGDJKJ": {
                    "x": 2.0
                },
                "JMJDEGALFIP": {
                    "x": 2.0
                },
                "OEJLBIFJKEL": 1.0,
                "JBODIEHINII": "",
                "FEHKBOLJIOO": "Face"
            },
            {
                "$type": "FNPNDPFBBDD",
                "type": "LOOK_AT",
                "aliasList": [
                    "20453"
                ],
                "NKGFDJDHOBD": true,
                "useTargetPos": true,
                "LBJHJADMNBD": true,
                "MNOPLOBEFLB": 0.5,
                "JBODIEHINII": "1005",
                "LPCACGGCDLI": "",
                "NNFPFPOJJOJ": ""
            },
            {
                "$type": "MoleMole.Config.ConfigTimeProtectAction",
                "type": "TIME_PROTECT",
                "duration": 1.0
            },
            {
                "$type": "MoleMole.Config.ConfigSimpleBlackScreenAction",
                "type": "SIMPLE_BLACK_SCREEN",
                "duration": 1.0,
                "durationToBlack": 0.5,
                "durationKeepBlack": 0.5,
                "durationFromBlack": 0.5,
                "textMapID": ""
            },
            {
                "$type": "PBIGHFCHGCA",
                "type": "CAMERA_MOVE",
                "duration": 0.5,
                "KCFKJMMEECM": {
                    "x": -6204.9150390625,
                    "y": 258.76800537109375,
                    "z": -2450.549072265625
                },
                "DLGJEHNPMFN": {
                    "x": -6205.5830078125,
                    "y": 258.07501220703125,
                    "z": -2450.818115234375
                },
                "NJCBGNHGINI": 25.0,
                "FNMFGIOLKBE": 6,
                "NECGMADJICG": "EaseInOutCubic",
                "BMHIHPIKAHM": {},
                "HGGPLEMCNNG": false,
                "JBODIEHINII": "",
                "PHDIKPKLFIA": true,
                "EJCHLMIMLBO": "",
                "BIMPIKMCIHB": "",
                "MCAOJPLIJGI": ""
            },
            {
                "$type": "FNPNDPFBBDD",
                "type": "LOOK_AT",
                "aliasList": [
                    "Avatar"
                ],
                "NKGFDJDHOBD": true,
                "useTargetPos": true,
                "LBJHJADMNBD": true,
                "MNOPLOBEFLB": 0.5,
                "JBODIEHINII": "20453",
                "LPCACGGCDLI": "",
                "NNFPFPOJJOJ": ""
            },
            {
                "$type": "MoleMole.Config.ConfigTeleportToAction",
                "type": "TELEPORT_TO",
                "aliasList": [
                    "Avatar"
                ],
                "position": {
                    "x": -6221.8740234375,
                    "y": 235.6790008544922,
                    "z": -2462.56396484375
                },
                "forward": {
                    "x": -0.30000001192092896,
                    "y": -0.0020000000949949026,
                    "z": 0.6740000247955322
                },
                "posBindMovingTargetKey": "",
                "forwardBindMovingTargetKey": ""
            }
        ],
        [
            {
                "$type": "KAGAFALAIGP",
                "type": "DIALOG",
                "aliasList": [
                    "1005"
                ],
                "JHEPJOMJJHH": 722270301,
                "OCILKFCPBNC": 0.5
            },
            {
                "$type": "CENEPJCONAG",
                "type": "BODY_LANG",
                "aliasList": [
                    "1005"
                ],
                "OGFPAIKLDGB": 1230,
                "MHDCNDAINCK": true,
                "LHIAJOBFNAK": false,
                "FOEKGLEJBIJ": ""
            },
            {
                "$type": "PBIGHFCHGCA",
                "type": "CAMERA_MOVE",
                "duration": 0.5,
                "KCFKJMMEECM": {
                    "x": -6204.9150390625,
                    "y": 258.76800537109375,
                    "z": -2450.549072265625
                },
                "DLGJEHNPMFN": {
                    "x": -6205.5830078125,
                    "y": 258.07501220703125,
                    "z": -2450.818115234375
                },
                "NJCBGNHGINI": 25.0,
                "FNMFGIOLKBE": 6,
                "NECGMADJICG": "EaseInOutCubic",
                "BMHIHPIKAHM": {},
                "HGGPLEMCNNG": false,
                "JBODIEHINII": "",
                "PHDIKPKLFIA": true,
                "EJCHLMIMLBO": "",
                "BIMPIKMCIHB": "",
                "MCAOJPLIJGI": ""
            },
            {
                "$type": "PBIGHFCHGCA",
                "type": "CAMERA_MOVE",
                "delayTime": 0.07000000029802322,
                "duration": 9.800000190734863,
                "KCFKJMMEECM": {
                    "x": -6205.14013671875,
                    "y": 257.4700012207031,
                    "z": -2453.7548828125
                },
                "DLGJEHNPMFN": {
                    "x": -6205.84521484375,
                    "y": 256.781005859375,
                    "z": -2453.924072265625
                },
                "NJCBGNHGINI": 25.0,
                "NECGMADJICG": "EaseOutQuad",
                "BMHIHPIKAHM": {},
                "HGGPLEMCNNG": false,
                "JBODIEHINII": "",
                "PHDIKPKLFIA": true,
                "EJCHLMIMLBO": "",
                "BIMPIKMCIHB": "",
                "MCAOJPLIJGI": ""
            }
        ],
        [
            {
                "$type": "KAGAFALAIGP",
                "type": "DIALOG",
                "aliasList": [
                    "20453"
                ],
                "JHEPJOMJJHH": 722270302,
                "OCILKFCPBNC": 0.5
            },
            {
                "$type": "CENEPJCONAG",
                "type": "BODY_LANG",
                "aliasList": [
                    "20453"
                ],
                "OGFPAIKLDGB": 1060,
                "MHDCNDAINCK": true,
                "LHIAJOBFNAK": false,
                "FOEKGLEJBIJ": ""
            },
            {
                "$type": "LNLLGCOBDFC",
                "type": "EMO_SYNC",
                "aliasList": [
                    "20453"
                ],
                "LKHHGAGNMKM": "",
                "AIMKGPFAAAD": "Cs_Emo_NPC_Common/Cs_Emo_NPC_Normal01",
                "IPEKOEDCGGF": "Cs_Emo_NPC_Common/Cs_Emo_NPC_Upset01",
                "EJNFMNJKDAH": "",
                "LOOOCOLIHFA": "",
                "KJDLMAPPPMG": "",
                "IMIEGJDNPNN": [
                    12803840960998583578,
                    3437050431160283015,
                    6548526936325855136,
                    1274732080047098512
                ],
                "KIJHIMADJGM": [
                    6685696142296485075,
                    4251642632157619052,
                    12579597121068042023,
                    12854476297611419165
                ]
            },
            {
                "$type": "PBIGHFCHGCA",
                "type": "CAMERA_MOVE",
                "duration": 0.5,
                "KCFKJMMEECM": {
                    "x": -6222.18115234375,
                    "y": 237.11399841308594,
                    "z": -2463.06103515625
                },
                "DLGJEHNPMFN": {
                    "x": -6222.330078125,
                    "y": 236.92799377441406,
                    "z": -2462.090087890625
                },
                "NJCBGNHGINI": 20.0,
                "FNMFGIOLKBE": 6,
                "NECGMADJICG": "EaseInOutCubic",
                "BMHIHPIKAHM": {},
                "HGGPLEMCNNG": false,
                "JBODIEHINII": "",
                "PHDIKPKLFIA": true,
                "EJCHLMIMLBO": "",
                "BIMPIKMCIHB": "",
                "MCAOJPLIJGI": ""
            },
            {
                "$type": "LNLLGCOBDFC",
                "type": "EMO_SYNC",
                "aliasList": [
                    "1005"
                ],
                "LKHHGAGNMKM": "",
                "AIMKGPFAAAD": "Cs_Emo_Pet_Common/Cs_Emo_Paimon_None",
                "IPEKOEDCGGF": "Cs_Emo_Pet_Common/Cs_Emo_Paimon_Happy01",
                "EJNFMNJKDAH": "",
                "LOOOCOLIHFA": "",
                "KJDLMAPPPMG": "",
                "HCOIDDGKHJC": false,
                "IMIEGJDNPNN": [
                    1796869206626684908,
                    2049648015653630001,
                    14015965774222061559,
                    873259039409222856
                ],
                "KIJHIMADJGM": [
                    11795538569676462054,
                    5514455715760618983,
                    6871647363300542652,
                    8381196293596717205
                ]
            },
            {
                "$type": "PBIGHFCHGCA",
                "type": "CAMERA_MOVE",
                "delayTime": 0.07000000029802322,
                "duration": 14.708000183105469,
                "KCFKJMMEECM": {
                    "x": -6221.90185546875,
                    "y": 237.37399291992188,
                    "z": -2464.944091796875
                },
                "DLGJEHNPMFN": {
                    "x": -6222.0498046875,
                    "y": 237.18800354003906,
                    "z": -2463.972900390625
                },
                "NJCBGNHGINI": 20.0,
                "NECGMADJICG": "EaseOutQuad",
                "BMHIHPIKAHM": {},
                "HGGPLEMCNNG": false,
                "JBODIEHINII": "",
                "PHDIKPKLFIA": true,
                "EJCHLMIMLBO": "",
                "BIMPIKMCIHB": "",
                "MCAOJPLIJGI": ""
            },
            {
                "$type": "PCKGCMJKAFG",
                "type": "LOOK_AT_EYECTRL",
                "delayTime": 1.097000002861023,
                "aliasList": [
                    "20453"
                ],
                "useTargetPos": false,
                "KIIEOLGDJKJ": {
                    "x": -2.0
                },
                "JMJDEGALFIP": {
                    "x": -2.0
                },
                "OEJLBIFJKEL": 1.0,
                "JBODIEHINII": "",
                "FEHKBOLJIOO": "Face"
            },
            {
                "$type": "FNPNDPFBBDD",
                "type": "LOOK_AT",
                "delayTime": 1.100000023841858,
                "aliasList": [
                    "20453"
                ],
                "NKGFDJDHOBD": true,
                "useTargetPos": true,
                "LBJHJADMNBD": true,
                "MNOPLOBEFLB": 0.5,
                "JBODIEHINII": "Avatar",
                "LPCACGGCDLI": "",
                "NNFPFPOJJOJ": ""
            }
        ],
        [
            {
                "$type": "LNLLGCOBDFC",
                "type": "EMO_SYNC",
                "aliasList": [
                    "20453"
                ],
                "checkNextImmediately": true,
                "LKHHGAGNMKM": "",
                "AIMKGPFAAAD": "Cs_Emo_NPC_Common/Cs_Emo_NPC_Normal01",
                "IPEKOEDCGGF": "Cs_Emo_NPC_Common/Cs_Emo_NPC_Normal01",
                "EJNFMNJKDAH": "",
                "LOOOCOLIHFA": "",
                "KJDLMAPPPMG": "",
                "IMIEGJDNPNN": [
                    12803840960998583578,
                    3437050431160283015,
                    6548526936325855136,
                    1274732080047098512
                ],
                "KIJHIMADJGM": [
                    10638823098752766568,
                    16550434959365186937,
                    16779490980036678760,
                    2038118027140397243
                ]
            },
            {
                "$type": "CENEPJCONAG",
                "type": "BODY_LANG",
                "aliasList": [
                    "20453"
                ],
                "NNKEOHJCPOF": true,
                "MHDCNDAINCK": true,
                "LHIAJOBFNAK": false,
                "FOEKGLEJBIJ": ""
            },
            {
                "$type": "KAGAFALAIGP",
                "type": "DIALOG",
                "aliasList": [
                    "20453"
                ],
                "JHEPJOMJJHH": 722270303,
                "OCILKFCPBNC": 0.5
            },
            {
                "$type": "FNPNDPFBBDD",
                "type": "LOOK_AT",
                "delayTime": 0.5080000162124634,
                "aliasList": [
                    "20453"
                ],
                "NKGFDJDHOBD": true,
                "useTargetPos": true,
                "LBJHJADMNBD": true,
                "MNOPLOBEFLB": 0.5,
                "JBODIEHINII": "1005",
                "LPCACGGCDLI": "",
                "NNFPFPOJJOJ": ""
            },
            {
                "$type": "PCKGCMJKAFG",
                "type": "LOOK_AT_EYECTRL",
                "delayTime": 0.5130000114440918,
                "aliasList": [
                    "20453"
                ],
                "useTargetPos": false,
                "KIIEOLGDJKJ": {
                    "x": 2.0
                },
                "JMJDEGALFIP": {
                    "x": 2.0
                },
                "OEJLBIFJKEL": 1.0,
                "JBODIEHINII": "",
                "FEHKBOLJIOO": "Face"
            }
        ],
        [
            {
                "$type": "CENEPJCONAG",
                "type": "BODY_LANG",
                "aliasList": [
                    "20453"
                ],
                "OGFPAIKLDGB": 1171,
                "MHDCNDAINCK": true,
                "LHIAJOBFNAK": false,
                "FOEKGLEJBIJ": ""
            },
            {
                "$type": "FNPNDPFBBDD",
                "type": "LOOK_AT",
                "aliasList": [
                    "20453"
                ],
                "NKGFDJDHOBD": true,
                "useTargetPos": true,
                "LBJHJADMNBD": true,
                "MNOPLOBEFLB": 0.5,
                "JBODIEHINII": "Avatar",
                "LPCACGGCDLI": "",
                "NNFPFPOJJOJ": ""
            },
            {
                "$type": "PCKGCMJKAFG",
                "type": "LOOK_AT_EYECTRL",
                "aliasList": [
                    "20453"
                ],
                "useTargetPos": false,
                "KIIEOLGDJKJ": {
                    "x": -2.0
                },
                "JMJDEGALFIP": {
                    "x": -2.0
                },
                "OEJLBIFJKEL": 1.0,
                "JBODIEHINII": "",
                "FEHKBOLJIOO": "Face"
            },
            {
                "$type": "PBIGHFCHGCA",
                "type": "CAMERA_MOVE",
                "duration": 0.5,
                "KCFKJMMEECM": {
                    "x": -6220.48095703125,
                    "y": 237.05099487304688,
                    "z": -2459.743896484375
                },
                "DLGJEHNPMFN": {
                    "x": -6221.091796875,
                    "y": 236.98699951171875,
                    "z": -2460.532958984375
                },
                "NJCBGNHGINI": 20.0,
                "FNMFGIOLKBE": 6,
                "NECGMADJICG": "EaseInOutCubic",
                "BMHIHPIKAHM": {},
                "HGGPLEMCNNG": false,
                "JBODIEHINII": "",
                "PHDIKPKLFIA": true,
                "EJCHLMIMLBO": "",
                "BIMPIKMCIHB": "",
                "MCAOJPLIJGI": ""
            },
            {
                "$type": "KAGAFALAIGP",
                "type": "DIALOG",
                "aliasList": [
                    "20453"
                ],
                "JHEPJOMJJHH": 722270304,
                "OCILKFCPBNC": 0.5
            },
            {
                "$type": "PBIGHFCHGCA",
                "type": "CAMERA_MOVE",
                "delayTime": 0.07000000029802322,
                "duration": 8.807999610900879,
                "KCFKJMMEECM": {
                    "x": -6220.40283203125,
                    "y": 237.0500030517578,
                    "z": -2459.803955078125
                },
                "DLGJEHNPMFN": {
                    "x": -6221.01416015625,
                    "y": 236.98599243164062,
                    "z": -2460.593017578125
                },
                "NJCBGNHGINI": 20.0,
                "NECGMADJICG": "EaseOutQuad",
                "BMHIHPIKAHM": {},
                "HGGPLEMCNNG": false,
                "JBODIEHINII": "",
                "PHDIKPKLFIA": true,
                "EJCHLMIMLBO": "",
                "BIMPIKMCIHB": "",
                "MCAOJPLIJGI": ""
            }
        ],
        [
            {
                "$type": "FNPNDPFBBDD",
                "type": "LOOK_AT",
                "aliasList": [
                    "20453"
                ],
                "NKGFDJDHOBD": true,
                "useTargetPos": true,
                "LBJHJADMNBD": true,
                "MNOPLOBEFLB": 0.5,
                "JBODIEHINII": "1005",
                "LPCACGGCDLI": "",
                "NNFPFPOJJOJ": ""
            },
            {
                "$type": "PCKGCMJKAFG",
                "type": "LOOK_AT_EYECTRL",
                "aliasList": [
                    "20453"
                ],
                "useTargetPos": false,
                "KIIEOLGDJKJ": {
                    "x": 3.0
                },
                "JMJDEGALFIP": {
                    "x": 3.0
                },
                "OEJLBIFJKEL": 1.0,
                "JBODIEHINII": "",
                "FEHKBOLJIOO": "Face"
            },
            {
                "$type": "LNLLGCOBDFC",
                "type": "EMO_SYNC",
                "aliasList": [
                    "1005"
                ],
                "LKHHGAGNMKM": "",
                "AIMKGPFAAAD": "Cs_Emo_Pet_Common/Cs_Emo_Paimon_E",
                "IPEKOEDCGGF": "Cs_Emo_Pet_Common/Cs_Emo_Paimon_Surprise01",
                "EJNFMNJKDAH": "",
                "LOOOCOLIHFA": "",
                "KJDLMAPPPMG": "",
                "IMIEGJDNPNN": [
                    7412857520875259287,
                    1686031330343015427,
                    16163332127458561468,
                    12504227263600739740
                ],
                "KIJHIMADJGM": [
                    5172069665041538778,
                    3817339641546978999,
                    1481313530412781419,
                    15209838585823257773
                ]
            },
            {
                "$type": "KAGAFALAIGP",
                "type": "DIALOG",
                "aliasList": [
                    "1005"
                ],
                "JHEPJOMJJHH": 722270305,
                "OCILKFCPBNC": 0.5
            },
            {
                "$type": "CENEPJCONAG",
                "type": "BODY_LANG",
                "aliasList": [
                    "1005"
                ],
                "NNKEOHJCPOF": true,
                "MHDCNDAINCK": true,
                "LHIAJOBFNAK": false,
                "FOEKGLEJBIJ": ""
            }
        ],
        [
            {
                "$type": "FNPNDPFBBDD",
                "type": "LOOK_AT",
                "aliasList": [
                    "20453"
                ],
                "NKGFDJDHOBD": true,
                "useTargetPos": true,
                "LBJHJADMNBD": true,
                "MNOPLOBEFLB": 0.5,
                "JBODIEHINII": "Avatar",
                "LPCACGGCDLI": "",
                "NNFPFPOJJOJ": ""
            },
            {
                "$type": "KAGAFALAIGP",
                "type": "DIALOG",
                "aliasList": [
                    "20453"
                ],
                "JHEPJOMJJHH": 722270306,
                "OCILKFCPBNC": 0.9919999837875366
            },
            {
                "$type": "PCKGCMJKAFG",
                "type": "LOOK_AT_EYECTRL",
                "aliasList": [
                    "20453"
                ],
                "useTargetPos": false,
                "OEJLBIFJKEL": 1.0,
                "JBODIEHINII": "",
                "FEHKBOLJIOO": "Face"
            },
            {
                "$type": "PBIGHFCHGCA",
                "type": "CAMERA_MOVE",
                "duration": 0.5,
                "KCFKJMMEECM": {
                    "x": -6220.86376953125,
                    "y": 237.0279998779297,
                    "z": -2461.451904296875
                },
                "DLGJEHNPMFN": {
                    "x": -6221.64501953125,
                    "y": 237.01499938964844,
                    "z": -2462.076904296875
                },
                "NJCBGNHGINI": 20.0,
                "FNMFGIOLKBE": 6,
                "NECGMADJICG": "EaseInOutCubic",
                "BMHIHPIKAHM": {},
                "HGGPLEMCNNG": false,
                "JBODIEHINII": "",
                "PHDIKPKLFIA": true,
                "EJCHLMIMLBO": "",
                "BIMPIKMCIHB": "",
                "MCAOJPLIJGI": ""
            },
            {
                "$type": "PBIGHFCHGCA",
                "type": "CAMERA_MOVE",
                "delayTime": 0.07000000029802322,
                "duration": 6.808000087738037,
                "KCFKJMMEECM": {
                    "x": -6220.89404296875,
                    "y": 237.0290069580078,
                    "z": -2461.4150390625
                },
                "DLGJEHNPMFN": {
                    "x": -6221.6748046875,
                    "y": 237.01600646972656,
                    "z": -2462.0400390625
                },
                "NJCBGNHGINI": 20.0,
                "NECGMADJICG": "EaseOutQuad",
                "BMHIHPIKAHM": {},
                "HGGPLEMCNNG": false,
                "JBODIEHINII": "",
                "PHDIKPKLFIA": true,
                "EJCHLMIMLBO": "",
                "BIMPIKMCIHB": "",
                "MCAOJPLIJGI": ""
            },
            {
                "$type": "LNLLGCOBDFC",
                "type": "EMO_SYNC",
                "delayTime": 0.4970000088214874,
                "aliasList": [
                    "1005"
                ],
                "LKHHGAGNMKM": "",
                "AIMKGPFAAAD": "Cs_Emo_Pet_Common/Cs_Emo_Paimon_None",
                "IPEKOEDCGGF": "Cs_Emo_Pet_Common/Cs_Emo_Paimon_Normal01",
                "EJNFMNJKDAH": "",
                "LOOOCOLIHFA": "",
                "KJDLMAPPPMG": "",
                "IMIEGJDNPNN": [
                    1796869206626684908,
                    2049648015653630001,
                    14015965774222061559,
                    873259039409222856
                ],
                "KIJHIMADJGM": [
                    312453201720762420,
                    9562322946389574798,
                    18422542724361145117,
                    17949024460815132449
                ]
            },
            {
                "$type": "FNPNDPFBBDD",
                "type": "LOOK_AT",
                "delayTime": 0.4970000088214874,
                "aliasList": [
                    "Avatar"
                ],
                "NKGFDJDHOBD": true,
                "useTargetPos": true,
                "LBJHJADMNBD": true,
                "MNOPLOBEFLB": 0.5,
                "JBODIEHINII": "1005",
                "LPCACGGCDLI": "",
                "NNFPFPOJJOJ": ""
            },
            {
                "$type": "FNPNDPFBBDD",
                "type": "LOOK_AT",
                "delayTime": 0.4970000088214874,
                "aliasList": [
                    "1005"
                ],
                "NKGFDJDHOBD": true,
                "useTargetPos": true,
                "LBJHJADMNBD": true,
                "MNOPLOBEFLB": 0.5,
                "JBODIEHINII": "Avatar",
                "LPCACGGCDLI": "",
                "NNFPFPOJJOJ": ""
            },
            {
                "$type": "AAFOOOPNJLB",
                "type": "DIALOG_SELECT",
                "delayTime": 0.5,
                "aliasList": [
                    "Avatar"
                ],
                "KFAEOBDAAME": [
                    722270307,
                    722270308
                ],
                "ELPFMMBHOLF": [
                    4196845435,
                    4196845435
                ],
                "OEAAKJDIEFD": true
            }
        ],
        [
            {
                "$type": "KAGAFALAIGP",
                "type": "DIALOG",
                "aliasList": [
                    "1005"
                ],
                "JHEPJOMJJHH": 722270309,
                "OCILKFCPBNC": 0.5
            },
            {
                "$type": "FNPNDPFBBDD",
                "type": "LOOK_AT",
                "aliasList": [
                    "1005"
                ],
                "NKGFDJDHOBD": true,
                "useTargetPos": true,
                "LBJHJADMNBD": true,
                "MNOPLOBEFLB": 0.5,
                "JBODIEHINII": "20453",
                "LPCACGGCDLI": "",
                "NNFPFPOJJOJ": ""
            },
            {
                "$type": "FNPNDPFBBDD",
                "type": "LOOK_AT",
                "aliasList": [
                    "20453"
                ],
                "NKGFDJDHOBD": true,
                "useTargetPos": true,
                "LBJHJADMNBD": true,
                "MNOPLOBEFLB": 0.5,
                "JBODIEHINII": "1005",
                "LPCACGGCDLI": "",
                "NNFPFPOJJOJ": ""
            },
            {
                "$type": "PBIGHFCHGCA",
                "type": "CAMERA_MOVE",
                "duration": 0.5,
                "KCFKJMMEECM": {
                    "x": -6221.4951171875,
                    "y": 236.8679962158203,
                    "z": -2460.597900390625
                },
                "DLGJEHNPMFN": {
                    "x": -6222.09521484375,
                    "y": 236.89999389648438,
                    "z": -2461.39697265625
                },
                "NJCBGNHGINI": 20.0,
                "FNMFGIOLKBE": 6,
                "NECGMADJICG": "EaseInOutCubic",
                "BMHIHPIKAHM": {},
                "HGGPLEMCNNG": false,
                "JBODIEHINII": "",
                "PHDIKPKLFIA": true,
                "EJCHLMIMLBO": "",
                "BIMPIKMCIHB": "",
                "MCAOJPLIJGI": ""
            },
            {
                "$type": "FNPNDPFBBDD",
                "type": "LOOK_AT",
                "aliasList": [
                    "Avatar"
                ],
                "NKGFDJDHOBD": true,
                "useTargetPos": true,
                "LBJHJADMNBD": true,
                "MNOPLOBEFLB": 0.5,
                "JBODIEHINII": "20453",
                "LPCACGGCDLI": "",
                "NNFPFPOJJOJ": ""
            },
            {
                "$type": "PBIGHFCHGCA",
                "type": "CAMERA_MOVE",
                "delayTime": 0.07000000029802322,
                "duration": 7.449999809265137,
                "KCFKJMMEECM": {
                    "x": -6221.458984375,
                    "y": 236.8679962158203,
                    "z": -2460.625
                },
                "DLGJEHNPMFN": {
                    "x": -6222.05908203125,
                    "y": 236.89999389648438,
                    "z": -2461.424072265625
                },
                "NJCBGNHGINI": 20.0,
                "NECGMADJICG": "EaseOutQuad",
                "BMHIHPIKAHM": {},
                "HGGPLEMCNNG": false,
                "JBODIEHINII": "",
                "PHDIKPKLFIA": true,
                "EJCHLMIMLBO": "",
                "BIMPIKMCIHB": "",
                "MCAOJPLIJGI": ""
            },
            {
                "$type": "CENEPJCONAG",
                "type": "BODY_LANG",
                "delayTime": 0.5839999914169312,
                "aliasList": [
                    "1005"
                ],
                "OGFPAIKLDGB": 1110,
                "MHDCNDAINCK": true,
                "LHIAJOBFNAK": false,
                "FOEKGLEJBIJ": ""
            },
            {
                "$type": "CENEPJCONAG",
                "type": "BODY_LANG",
                "delayTime": 2.240999937057495,
                "aliasList": [
                    "1005"
                ],
                "NNKEOHJCPOF": true,
                "MHDCNDAINCK": true,
                "LHIAJOBFNAK": false,
                "FOEKGLEJBIJ": ""
            }
        ],
        [
            {
                "$type": "KAGAFALAIGP",
                "type": "DIALOG",
                "aliasList": [
                    "20453"
                ],
                "JHEPJOMJJHH": 722270310,
                "OCILKFCPBNC": 0.5
            },
            {
                "$type": "CENEPJCONAG",
                "type": "BODY_LANG",
                "aliasList": [
                    "20453"
                ],
                "OGFPAIKLDGB": 4030,
                "MHDCNDAINCK": true,
                "LHIAJOBFNAK": false,
                "FOEKGLEJBIJ": ""
            },
            {
                "$type": "PBIGHFCHGCA",
                "type": "CAMERA_MOVE",
                "duration": 0.5,
                "KCFKJMMEECM": {
                    "x": -6222.14501953125,
                    "y": 237.02000427246094,
                    "z": -2462.85693359375
                },
                "DLGJEHNPMFN": {
                    "x": -6222.41015625,
                    "y": 236.9409942626953,
                    "z": -2461.89599609375
                },
                "NJCBGNHGINI": 20.0,
                "FNMFGIOLKBE": 6,
                "NECGMADJICG": "EaseInOutCubic",
                "BMHIHPIKAHM": {},
                "HGGPLEMCNNG": false,
                "JBODIEHINII": "",
                "PHDIKPKLFIA": true,
                "EJCHLMIMLBO": "",
                "BIMPIKMCIHB": "",
                "MCAOJPLIJGI": ""
            },
            {
                "$type": "CENEPJCONAG",
                "type": "BODY_LANG",
                "aliasList": [
                    "1005"
                ],
                "NNKEOHJCPOF": true,
                "MHDCNDAINCK": true,
                "LHIAJOBFNAK": false,
                "FOEKGLEJBIJ": ""
            },
            {
                "$type": "CENEPJCONAG",
                "type": "BODY_LANG",
                "delayTime": 1.25,
                "aliasList": [
                    "20453"
                ],
                "OGFPAIKLDGB": 1171,
                "MHDCNDAINCK": true,
                "LHIAJOBFNAK": false,
                "FOEKGLEJBIJ": ""
            }
        ],
        [
            {
                "$type": "MoleMole.Config.ConfigTeleportToAction",
                "type": "TELEPORT_TO",
                "aliasList": [
                    "20453"
                ],
                "position": {
                    "x": -6222.44580078125,
                    "y": 235.74899291992188,
                    "z": -2461.325927734375
                },
                "forward": {
                    "x": 0.13699999451637268,
                    "z": -1.215000033378601
                },
                "posBindMovingTargetKey": "",
                "forwardBindMovingTargetKey": ""
            },
            {
                "$type": "FNPNDPFBBDD",
                "type": "LOOK_AT",
                "aliasList": [
                    "20453"
                ],
                "NKGFDJDHOBD": true,
                "useTargetPos": true,
                "LBJHJADMNBD": true,
                "MNOPLOBEFLB": 0.5,
                "JBODIEHINII": "Avatar",
                "LPCACGGCDLI": "",
                "NNFPFPOJJOJ": ""
            },
            {
                "$type": "CENEPJCONAG",
                "type": "BODY_LANG",
                "aliasList": [
                    "20453"
                ],
                "OGFPAIKLDGB": 1160,
                "MHDCNDAINCK": true,
                "LHIAJOBFNAK": false,
                "FOEKGLEJBIJ": ""
            },
            {
                "$type": "PBIGHFCHGCA",
                "type": "CAMERA_MOVE",
                "duration": 0.5,
                "KCFKJMMEECM": {
                    "x": -6227.43212890625,
                    "y": 235.75,
                    "z": -2467.552001953125
                },
                "DLGJEHNPMFN": {
                    "x": -6226.43994140625,
                    "y": 235.67100524902344,
                    "z": -2467.4560546875
                },
                "NJCBGNHGINI": 20.0,
                "FNMFGIOLKBE": 6,
                "NECGMADJICG": "EaseInOutCubic",
                "BMHIHPIKAHM": {},
                "HGGPLEMCNNG": false,
                "JBODIEHINII": "",
                "PHDIKPKLFIA": true,
                "EJCHLMIMLBO": "",
                "BIMPIKMCIHB": "",
                "MCAOJPLIJGI": ""
            },
            {
                "$type": "KAGAFALAIGP",
                "type": "DIALOG",
                "aliasList": [
                    "20453"
                ],
                "JHEPJOMJJHH": 722270311,
                "OCILKFCPBNC": 0.5
            },
            {
                "$type": "PBIGHFCHGCA",
                "type": "CAMERA_MOVE",
                "delayTime": 0.07000000029802322,
                "duration": 8.182999610900879,
                "KCFKJMMEECM": {
                    "x": -6226.84423828125,
                    "y": 235.7030029296875,
                    "z": -2467.4951171875
                },
                "DLGJEHNPMFN": {
                    "x": -6225.85205078125,
                    "y": 235.62399291992188,
                    "z": -2467.39892578125
                },
                "NJCBGNHGINI": 20.0,
                "NECGMADJICG": "EaseOutQuad",
                "BMHIHPIKAHM": {},
                "HGGPLEMCNNG": false,
                "JBODIEHINII": "",
                "PHDIKPKLFIA": true,
                "EJCHLMIMLBO": "",
                "BIMPIKMCIHB": "",
                "MCAOJPLIJGI": ""
            },
            {
                "$type": "CENEPJCONAG",
                "type": "BODY_LANG",
                "delayTime": 2.1010000705718994,
                "aliasList": [
                    "20453"
                ],
                "NNKEOHJCPOF": true,
                "MHDCNDAINCK": true,
                "LHIAJOBFNAK": false,
                "FOEKGLEJBIJ": ""
            }
        ],
        [
            {
                "$type": "FNPNDPFBBDD",
                "type": "LOOK_AT",
                "aliasList": [
                    "20453"
                ],
                "NKGFDJDHOBD": true,
                "useTargetPos": true,
                "LBJHJADMNBD": true,
                "MNOPLOBEFLB": 0.5,
                "JBODIEHINII": "Avatar",
                "LPCACGGCDLI": "",
                "NNFPFPOJJOJ": ""
            },
            {
                "$type": "CENEPJCONAG",
                "type": "BODY_LANG",
                "aliasList": [
                    "20453"
                ],
                "OGFPAIKLDGB": 1171,
                "MHDCNDAINCK": true,
                "LHIAJOBFNAK": false,
                "FOEKGLEJBIJ": ""
            },
            {
                "$type": "KAGAFALAIGP",
                "type": "DIALOG",
                "aliasList": [
                    "20453"
                ],
                "JHEPJOMJJHH": 722270312,
                "OCILKFCPBNC": 0.5
            },
            {
                "$type": "PBIGHFCHGCA",
                "type": "CAMERA_MOVE",
                "duration": 0.5,
                "KCFKJMMEECM": {
                    "x": -6219.30078125,
                    "y": 237.7740020751953,
                    "z": -2463.679931640625
                },
                "DLGJEHNPMFN": {
                    "x": -6220.15185546875,
                    "y": 237.49200439453125,
                    "z": -2463.237060546875
                },
                "NJCBGNHGINI": 20.0,
                "FNMFGIOLKBE": 6,
                "NECGMADJICG": "EaseInOutCubic",
                "BMHIHPIKAHM": {},
                "HGGPLEMCNNG": false,
                "JBODIEHINII": "",
                "PHDIKPKLFIA": true,
                "EJCHLMIMLBO": "",
                "BIMPIKMCIHB": "",
                "MCAOJPLIJGI": ""
            },
            {
                "$type": "PBIGHFCHGCA",
                "type": "CAMERA_MOVE",
                "delayTime": 0.07000000029802322,
                "duration": 5.691999912261963,
                "KCFKJMMEECM": {
                    "x": -6219.2822265625,
                    "y": 237.7760009765625,
                    "z": -2463.64111328125
                },
                "DLGJEHNPMFN": {
                    "x": -6220.1328125,
                    "y": 237.49400329589844,
                    "z": -2463.197998046875
                },
                "NJCBGNHGINI": 20.0,
                "NECGMADJICG": "EaseOutQuad",
                "BMHIHPIKAHM": {},
                "HGGPLEMCNNG": false,
                "JBODIEHINII": "",
                "PHDIKPKLFIA": true,
                "EJCHLMIMLBO": "",
                "BIMPIKMCIHB": "",
                "MCAOJPLIJGI": ""
            }
        ],
        [
            {
                "$type": "CENEPJCONAG",
                "type": "BODY_LANG",
                "aliasList": [
                    "1005"
                ],
                "OGFPAIKLDGB": 1110,
                "MHDCNDAINCK": true,
                "LHIAJOBFNAK": false,
                "FOEKGLEJBIJ": ""
            },
            {
                "$type": "LNLLGCOBDFC",
                "type": "EMO_SYNC",
                "aliasList": [
                    "1005"
                ],
                "LKHHGAGNMKM": "",
                "AIMKGPFAAAD": "Cs_Emo_Pet_Common/Cs_Emo_Paimon_Angry01",
                "IPEKOEDCGGF": "Cs_Emo_Pet_Common/Cs_Emo_Paimon_Sad01",
                "EJNFMNJKDAH": "",
                "LOOOCOLIHFA": "",
                "KJDLMAPPPMG": "",
                "IMIEGJDNPNN": [
                    8887624181441475292,
                    18209086005751125871,
                    3291038487434063407,
                    2002509548947436691
                ],
                "KIJHIMADJGM": [
                    11568139502653381171,
                    8567928142434099978,
                    3831425586395050200,
                    16058304373954184060
                ]
            },
            {
                "$type": "PBIGHFCHGCA",
                "type": "CAMERA_MOVE",
                "duration": 0.5,
                "KCFKJMMEECM": {
                    "x": -6221.90478515625,
                    "y": 236.99600219726562,
                    "z": -2461.43994140625
                },
                "DLGJEHNPMFN": {
                    "x": -6222.462890625,
                    "y": 237.00999450683594,
                    "z": -2462.26904296875
                },
                "NJCBGNHGINI": 20.0,
                "FNMFGIOLKBE": 6,
                "NECGMADJICG": "EaseInOutCubic",
                "BMHIHPIKAHM": {},
                "HGGPLEMCNNG": false,
                "JBODIEHINII": "",
                "PHDIKPKLFIA": true,
                "EJCHLMIMLBO": "",
                "BIMPIKMCIHB": "",
                "MCAOJPLIJGI": ""
            },
            {
                "$type": "KAGAFALAIGP",
                "type": "DIALOG",
                "aliasList": [
                    "1005"
                ],
                "JHEPJOMJJHH": 722270313,
                "OCILKFCPBNC": 0.5
            }
        ],
        [
            {
                "$type": "CENEPJCONAG",
                "type": "BODY_LANG",
                "aliasList": [
                    "20453"
                ],
                "OGFPAIKLDGB": 1060,
                "MHDCNDAINCK": true,
                "LHIAJOBFNAK": false,
                "FOEKGLEJBIJ": ""
            },
            {
                "$type": "KAGAFALAIGP",
                "type": "DIALOG",
                "aliasList": [
                    "20453"
                ],
                "JHEPJOMJJHH": 722270314,
                "OCILKFCPBNC": 0.5
            },
            {
                "$type": "LNLLGCOBDFC",
                "type": "EMO_SYNC",
                "aliasList": [
                    "20453"
                ],
                "LKHHGAGNMKM": "",
                "AIMKGPFAAAD": "Cs_Emo_NPC_Common/Cs_Emo_NPC_Angry01",
                "IPEKOEDCGGF": "Cs_Emo_NPC_Common/Cs_Emo_NPC_Upset01",
                "EJNFMNJKDAH": "",
                "LOOOCOLIHFA": "",
                "KJDLMAPPPMG": "",
                "IMIEGJDNPNN": [
                    9218657655395275517,
                    6356428425152214583,
                    11840959722219800112,
                    50070356133267922
                ],
                "KIJHIMADJGM": [
                    6685696142296485075,
                    4251642632157619052,
                    12579597121068042023,
                    12854476297611419165
                ]
            },
            {
                "$type": "FNPNDPFBBDD",
                "type": "LOOK_AT",
                "aliasList": [
                    "20453"
                ],
                "NKGFDJDHOBD": true,
                "useTargetPos": true,
                "LBJHJADMNBD": true,
                "MNOPLOBEFLB": 0.5,
                "JBODIEHINII": "1005",
                "LPCACGGCDLI": "",
                "NNFPFPOJJOJ": ""
            },
            {
                "$type": "LNLLGCOBDFC",
                "type": "EMO_SYNC",
                "aliasList": [
                    "1005"
                ],
                "LKHHGAGNMKM": "",
                "AIMKGPFAAAD": "Cs_Emo_Pet_Common/Cs_Emo_Paimon_None",
                "IPEKOEDCGGF": "Cs_Emo_Pet_Common/Cs_Emo_Paimon_Normal01",
                "EJNFMNJKDAH": "",
                "LOOOCOLIHFA": "",
                "KJDLMAPPPMG": "",
                "IMIEGJDNPNN": [
                    1796869206626684908,
                    2049648015653630001,
                    14015965774222061559,
                    873259039409222856
                ],
                "KIJHIMADJGM": [
                    312453201720762420,
                    9562322946389574798,
                    18422542724361145117,
                    17949024460815132449
                ]
            },
            {
                "$type": "PBIGHFCHGCA",
                "type": "CAMERA_MOVE",
                "duration": 0.5,
                "KCFKJMMEECM": {
                    "x": -6222.23486328125,
                    "y": 237.07400512695312,
                    "z": -2462.85498046875
                },
                "DLGJEHNPMFN": {
                    "x": -6222.3291015625,
                    "y": 236.92999267578125,
                    "z": -2461.8701171875
                },
                "NJCBGNHGINI": 20.0,
                "FNMFGIOLKBE": 6,
                "NECGMADJICG": "EaseInOutCubic",
                "BMHIHPIKAHM": {},
                "HGGPLEMCNNG": false,
                "JBODIEHINII": "",
                "PHDIKPKLFIA": true,
                "EJCHLMIMLBO": "",
                "BIMPIKMCIHB": "",
                "MCAOJPLIJGI": ""
            },
            {
                "$type": "CENEPJCONAG",
                "type": "BODY_LANG",
                "aliasList": [
                    "1005"
                ],
                "NNKEOHJCPOF": true,
                "MHDCNDAINCK": true,
                "LHIAJOBFNAK": false,
                "FOEKGLEJBIJ": ""
            },
            {
                "$type": "PBIGHFCHGCA",
                "type": "CAMERA_MOVE",
                "delayTime": 0.4950000047683716,
                "duration": 0.5,
                "KCFKJMMEECM": {
                    "x": -6222.033203125,
                    "y": 237.26699829101562,
                    "z": -2464.8759765625
                },
                "DLGJEHNPMFN": {
                    "x": -6222.126953125,
                    "y": 237.1230010986328,
                    "z": -2463.89111328125
                },
                "NJCBGNHGINI": 20.0,
                "NECGMADJICG": "EaseInOutQuad",
                "BMHIHPIKAHM": {},
                "HGGPLEMCNNG": false,
                "JBODIEHINII": "",
                "PHDIKPKLFIA": true,
                "EJCHLMIMLBO": "",
                "BIMPIKMCIHB": "",
                "MCAOJPLIJGI": ""
            },
            {
                "$type": "PBIGHFCHGCA",
                "type": "CAMERA_MOVE",
                "delayTime": 0.9869999885559082,
                "duration": 8.550000190734863,
                "KCFKJMMEECM": {
                    "x": -6222.0087890625,
                    "y": 237.3000030517578,
                    "z": -2465.2509765625
                },
                "DLGJEHNPMFN": {
                    "x": -6222.10302734375,
                    "y": 237.156005859375,
                    "z": -2464.26611328125
                },
                "NJCBGNHGINI": 20.0,
                "NECGMADJICG": "EaseOutQuad",
                "BMHIHPIKAHM": {},
                "HGGPLEMCNNG": false,
                "JBODIEHINII": "",
                "PHDIKPKLFIA": true,
                "EJCHLMIMLBO": "",
                "BIMPIKMCIHB": "",
                "MCAOJPLIJGI": ""
            }
        ],
        [
            {
                "$type": "CENEPJCONAG",
                "type": "BODY_LANG",
                "aliasList": [
                    "20453"
                ],
                "NNKEOHJCPOF": true,
                "MHDCNDAINCK": true,
                "LHIAJOBFNAK": false,
                "FOEKGLEJBIJ": ""
            },
            {
                "$type": "KAGAFALAIGP",
                "type": "DIALOG",
                "aliasList": [
                    "20453"
                ],
                "JHEPJOMJJHH": 722270315,
                "OCILKFCPBNC": 0.5
            },
            {
                "$type": "CENEPJCONAG",
                "type": "BODY_LANG",
                "delayTime": 1.0499999523162842,
                "aliasList": [
                    "20453"
                ],
                "OGFPAIKLDGB": 1171,
                "MHDCNDAINCK": true,
                "LHIAJOBFNAK": false,
                "FOEKGLEJBIJ": ""
            },
            {
                "$type": "FNPNDPFBBDD",
                "type": "LOOK_AT",
                "delayTime": 1.0579999685287476,
                "aliasList": [
                    "20453"
                ],
                "NKGFDJDHOBD": true,
                "useTargetPos": true,
                "LBJHJADMNBD": true,
                "MNOPLOBEFLB": 0.5,
                "JBODIEHINII": "Avatar",
                "LPCACGGCDLI": "",
                "NNFPFPOJJOJ": ""
            },
            {
                "$type": "FNPNDPFBBDD",
                "type": "LOOK_AT",
                "delayTime": 4.367000102996826,
                "aliasList": [
                    "20453"
                ],
                "NKGFDJDHOBD": true,
                "useTargetPos": true,
                "LBJHJADMNBD": true,
                "MNOPLOBEFLB": 0.5,
                "JBODIEHINII": "1005",
                "LPCACGGCDLI": "",
                "NNFPFPOJJOJ": ""
            }
        ],
        [
            {
                "$type": "KAGAFALAIGP",
                "type": "DIALOG",
                "aliasList": [
                    "1005"
                ],
                "JHEPJOMJJHH": 722270316,
                "OCILKFCPBNC": 0.5
            },
            {
                "$type": "CENEPJCONAG",
                "type": "BODY_LANG",
                "aliasList": [
                    "1005"
                ],
                "OGFPAIKLDGB": 1090,
                "MHDCNDAINCK": true,
                "LHIAJOBFNAK": false,
                "FOEKGLEJBIJ": ""
            },
            {
                "$type": "FNPNDPFBBDD",
                "type": "LOOK_AT",
                "aliasList": [
                    "20453"
                ],
                "NKGFDJDHOBD": true,
                "useTargetPos": true,
                "LBJHJADMNBD": true,
                "MNOPLOBEFLB": 0.5,
                "JBODIEHINII": "1005",
                "LPCACGGCDLI": "",
                "NNFPFPOJJOJ": ""
            },
            {
                "$type": "PBIGHFCHGCA",
                "type": "CAMERA_MOVE",
                "duration": 0.5,
                "KCFKJMMEECM": {
                    "x": -6221.54296875,
                    "y": 237.02099609375,
                    "z": -2461.64306640625
                },
                "DLGJEHNPMFN": {
                    "x": -6222.26416015625,
                    "y": 237.0260009765625,
                    "z": -2462.3359375
                },
                "NJCBGNHGINI": 20.0,
                "FNMFGIOLKBE": 6,
                "NECGMADJICG": "EaseInOutCubic",
                "BMHIHPIKAHM": {},
                "HGGPLEMCNNG": false,
                "JBODIEHINII": "",
                "PHDIKPKLFIA": true,
                "EJCHLMIMLBO": "",
                "BIMPIKMCIHB": "",
                "MCAOJPLIJGI": ""
            },
            {
                "$type": "PBIGHFCHGCA",
                "type": "CAMERA_MOVE",
                "delayTime": 0.07000000029802322,
                "duration": 11.024999618530273,
                "KCFKJMMEECM": {
                    "x": -6220.85791015625,
                    "y": 236.99600219726562,
                    "z": -2461.18896484375
                },
                "DLGJEHNPMFN": {
                    "x": -6221.5791015625,
                    "y": 237.00100708007812,
                    "z": -2461.882080078125
                },
                "NJCBGNHGINI": 20.0,
                "NECGMADJICG": "EaseOutQuad",
                "BMHIHPIKAHM": {},
                "HGGPLEMCNNG": false,
                "JBODIEHINII": "",
                "PHDIKPKLFIA": true,
                "EJCHLMIMLBO": "",
                "BIMPIKMCIHB": "",
                "MCAOJPLIJGI": ""
            },
            {
                "$type": "AAFOOOPNJLB",
                "type": "DIALOG_SELECT",
                "delayTime": 0.4000000059604645,
                "aliasList": [
                    "Avatar"
                ],
                "KFAEOBDAAME": [
                    722270317
                ],
                "ELPFMMBHOLF": [
                    1253189442
                ],
                "OEAAKJDIEFD": true
            }
        ],
        [
            {
                "$type": "FNPNDPFBBDD",
                "type": "LOOK_AT",
                "aliasList": [
                    "20453"
                ],
                "NKGFDJDHOBD": true,
                "useTargetPos": true,
                "LBJHJADMNBD": true,
                "MNOPLOBEFLB": 0.5,
                "JBODIEHINII": "Avatar",
                "LPCACGGCDLI": "",
                "NNFPFPOJJOJ": ""
            },
            {
                "$type": "CENEPJCONAG",
                "type": "BODY_LANG",
                "aliasList": [
                    "20453"
                ],
                "OGFPAIKLDGB": 4030,
                "MHDCNDAINCK": true,
                "LHIAJOBFNAK": false,
                "FOEKGLEJBIJ": ""
            },
            {
                "$type": "KAGAFALAIGP",
                "type": "DIALOG",
                "aliasList": [
                    "20453"
                ],
                "JHEPJOMJJHH": 722270318,
                "OCILKFCPBNC": 0.5
            },
            {
                "$type": "PBIGHFCHGCA",
                "type": "CAMERA_MOVE",
                "duration": 0.5,
                "KCFKJMMEECM": {
                    "x": -6219.52587890625,
                    "y": 237.3000030517578,
                    "z": -2463.617919921875
                },
                "DLGJEHNPMFN": {
                    "x": -6220.39501953125,
                    "y": 237.1529998779297,
                    "z": -2463.14599609375
                },
                "NJCBGNHGINI": 20.0,
                "FNMFGIOLKBE": 6,
                "NECGMADJICG": "EaseInOutCubic",
                "BMHIHPIKAHM": {},
                "HGGPLEMCNNG": false,
                "JBODIEHINII": "",
                "PHDIKPKLFIA": true,
                "EJCHLMIMLBO": "",
                "BIMPIKMCIHB": "",
                "MCAOJPLIJGI": ""
            },
            {
                "$type": "PBIGHFCHGCA",
                "type": "CAMERA_MOVE",
                "delayTime": 0.07000000029802322,
                "duration": 8.25,
                "KCFKJMMEECM": {
                    "x": -6219.48876953125,
                    "y": 237.29299926757812,
                    "z": -2463.549072265625
                },
                "DLGJEHNPMFN": {
                    "x": -6220.35791015625,
                    "y": 237.14599609375,
                    "z": -2463.076904296875
                },
                "NJCBGNHGINI": 20.0,
                "NECGMADJICG": "EaseOutQuad",
                "BMHIHPIKAHM": {},
                "HGGPLEMCNNG": false,
                "JBODIEHINII": "",
                "PHDIKPKLFIA": true,
                "EJCHLMIMLBO": "",
                "BIMPIKMCIHB": "",
                "MCAOJPLIJGI": ""
            },
            {
                "$type": "CENEPJCONAG",
                "type": "BODY_LANG",
                "delayTime": 1.2580000162124634,
                "aliasList": [
                    "20453"
                ],
                "OGFPAIKLDGB": 1171,
                "MHDCNDAINCK": true,
                "LHIAJOBFNAK": false,
                "FOEKGLEJBIJ": ""
            },
            {
                "$type": "FNPNDPFBBDD",
                "type": "LOOK_AT",
                "delayTime": 2.058000087738037,
                "aliasList": [
                    "20453"
                ],
                "NKGFDJDHOBD": true,
                "useTargetPos": true,
                "LBJHJADMNBD": true,
                "MNOPLOBEFLB": 0.5,
                "JBODIEHINII": "1005",
                "LPCACGGCDLI": "",
                "NNFPFPOJJOJ": ""
            }
        ],
        [
            {
                "$type": "CENEPJCONAG",
                "type": "BODY_LANG",
                "aliasList": [
                    "20453"
                ],
                "OGFPAIKLDGB": 1030,
                "MHDCNDAINCK": true,
                "LHIAJOBFNAK": false,
                "FOEKGLEJBIJ": ""
            },
            {
                "$type": "FNPNDPFBBDD",
                "type": "LOOK_AT",
                "aliasList": [
                    "20453"
                ],
                "NKGFDJDHOBD": true,
                "useTargetPos": true,
                "LBJHJADMNBD": true,
                "MNOPLOBEFLB": 0.5,
                "JBODIEHINII": "Avatar",
                "LPCACGGCDLI": "",
                "NNFPFPOJJOJ": ""
            },
            {
                "$type": "KAGAFALAIGP",
                "type": "DIALOG",
                "aliasList": [
                    "20453"
                ],
                "JHEPJOMJJHH": 722270319,
                "OCILKFCPBNC": 0.5
            },
            {
                "$type": "PBIGHFCHGCA",
                "type": "CAMERA_MOVE",
                "duration": 0.5,
                "KCFKJMMEECM": {
                    "x": -6211.08203125,
                    "y": 235.54400634765625,
                    "z": -2470.35498046875
                },
                "DLGJEHNPMFN": {
                    "x": -6211.80517578125,
                    "y": 235.697998046875,
                    "z": -2469.681884765625
                },
                "NJCBGNHGINI": 25.0,
                "FNMFGIOLKBE": 6,
                "NECGMADJICG": "EaseInOutCubic",
                "BMHIHPIKAHM": {},
                "HGGPLEMCNNG": false,
                "JBODIEHINII": "",
                "PHDIKPKLFIA": true,
                "EJCHLMIMLBO": "",
                "BIMPIKMCIHB": "",
                "MCAOJPLIJGI": ""
            },
            {
                "$type": "PBIGHFCHGCA",
                "type": "CAMERA_MOVE",
                "delayTime": 0.07000000029802322,
                "duration": 9.75,
                "KCFKJMMEECM": {
                    "x": -6211.0029296875,
                    "y": 236.00900268554688,
                    "z": -2470.3779296875
                },
                "DLGJEHNPMFN": {
                    "x": -6211.72607421875,
                    "y": 236.16299438476562,
                    "z": -2469.705078125
                },
                "NJCBGNHGINI": 25.0,
                "FNMFGIOLKBE": 1,
                "NECGMADJICG": "EaseOutQuad",
                "BMHIHPIKAHM": {},
                "HGGPLEMCNNG": false,
                "JBODIEHINII": "",
                "PHDIKPKLFIA": true,
                "EJCHLMIMLBO": "",
                "BIMPIKMCIHB": "",
                "MCAOJPLIJGI": ""
            },
            {
                "$type": "CENEPJCONAG",
                "type": "BODY_LANG",
                "delayTime": 1.649999976158142,
                "aliasList": [
                    "20453"
                ],
                "NNKEOHJCPOF": true,
                "MHDCNDAINCK": true,
                "LHIAJOBFNAK": false,
                "FOEKGLEJBIJ": ""
            }
        ],
        [
            {
                "$type": "CENEPJCONAG",
                "type": "BODY_LANG",
                "aliasList": [
                    "1005"
                ],
                "OGFPAIKLDGB": 1170,
                "MHDCNDAINCK": true,
                "LHIAJOBFNAK": false,
                "FOEKGLEJBIJ": ""
            },
            {
                "$type": "CENEPJCONAG",
                "type": "BODY_LANG",
                "aliasList": [
                    "20453"
                ],
                "NNKEOHJCPOF": true,
                "MHDCNDAINCK": true,
                "LHIAJOBFNAK": false,
                "FOEKGLEJBIJ": ""
            },
            {
                "$type": "KAGAFALAIGP",
                "type": "DIALOG",
                "aliasList": [
                    "1005"
                ],
                "JHEPJOMJJHH": 722270320,
                "OCILKFCPBNC": 0.5
            },
            {
                "$type": "PBIGHFCHGCA",
                "type": "CAMERA_MOVE",
                "duration": 0.5,
                "KCFKJMMEECM": {
                    "x": -6219.990234375,
                    "y": 239.3300018310547,
                    "z": -2458.98193359375
                },
                "DLGJEHNPMFN": {
                    "x": -6220.494140625,
                    "y": 238.76199340820312,
                    "z": -2459.633056640625
                },
                "NJCBGNHGINI": 25.0,
                "FNMFGIOLKBE": 6,
                "NECGMADJICG": "EaseInOutCubic",
                "BMHIHPIKAHM": {},
                "HGGPLEMCNNG": false,
                "JBODIEHINII": "",
                "PHDIKPKLFIA": true,
                "EJCHLMIMLBO": "",
                "BIMPIKMCIHB": "",
                "MCAOJPLIJGI": ""
            },
            {
                "$type": "PBIGHFCHGCA",
                "type": "CAMERA_MOVE",
                "delayTime": 0.07000000029802322,
                "duration": 7.982999801635742,
                "KCFKJMMEECM": {
                    "x": -6220.203125,
                    "y": 239.1300048828125,
                    "z": -2459.264892578125
                },
                "DLGJEHNPMFN": {
                    "x": -6220.70703125,
                    "y": 238.56199645996094,
                    "z": -2459.916015625
                },
                "NJCBGNHGINI": 25.0,
                "NECGMADJICG": "EaseOutQuad",
                "BMHIHPIKAHM": {},
                "HGGPLEMCNNG": false,
                "JBODIEHINII": "",
                "PHDIKPKLFIA": true,
                "EJCHLMIMLBO": "",
                "BIMPIKMCIHB": "",
                "MCAOJPLIJGI": ""
            }
        ],
        [
            {
                "$type": "CENEPJCONAG",
                "type": "BODY_LANG",
                "aliasList": [
                    "20453"
                ],
                "OGFPAIKLDGB": 4040,
                "MHDCNDAINCK": true,
                "LHIAJOBFNAK": false,
                "FOEKGLEJBIJ": ""
            },
            {
                "$type": "FNPNDPFBBDD",
                "type": "LOOK_AT",
                "aliasList": [
                    "20453"
                ],
                "NKGFDJDHOBD": true,
                "useTargetPos": true,
                "LBJHJADMNBD": true,
                "MNOPLOBEFLB": 0.5,
                "JBODIEHINII": "1005",
                "LPCACGGCDLI": "",
                "NNFPFPOJJOJ": ""
            },
            {
                "$type": "LNLLGCOBDFC",
                "type": "EMO_SYNC",
                "aliasList": [
                    "20453"
                ],
                "LKHHGAGNMKM": "",
                "AIMKGPFAAAD": "Cs_Emo_NPC_Common/Cs_Emo_NPC_Normal01",
                "IPEKOEDCGGF": "Cs_Emo_NPC_Common/Cs_Emo_NPC_WinkA01",
                "EJNFMNJKDAH": "",
                "LOOOCOLIHFA": "",
                "KJDLMAPPPMG": "",
                "HCOIDDGKHJC": false,
                "IMIEGJDNPNN": [
                    12803840960998583578,
                    3437050431160283015,
                    6548526936325855136,
                    1274732080047098512
                ],
                "KIJHIMADJGM": [
                    3765270258116979292,
                    5819579798871825639,
                    6466964524325215505,
                    5921498707822553356
                ]
            },
            {
                "$type": "KAGAFALAIGP",
                "type": "DIALOG",
                "aliasList": [
                    "20453"
                ],
                "JHEPJOMJJHH": 722270321,
                "OCILKFCPBNC": 0.5
            },
            {
                "$type": "PBIGHFCHGCA",
                "type": "CAMERA_MOVE",
                "duration": 0.5,
                "KCFKJMMEECM": {
                    "x": -6222.1728515625,
                    "y": 237.01699829101562,
                    "z": -2462.952880859375
                },
                "DLGJEHNPMFN": {
                    "x": -6222.39208984375,
                    "y": 236.96200561523438,
                    "z": -2461.97900390625
                },
                "NJCBGNHGINI": 15.0,
                "FNMFGIOLKBE": 6,
                "NECGMADJICG": "EaseInOutCubic",
                "BMHIHPIKAHM": {},
                "HGGPLEMCNNG": false,
                "JBODIEHINII": "",
                "PHDIKPKLFIA": true,
                "EJCHLMIMLBO": "",
                "BIMPIKMCIHB": "",
                "MCAOJPLIJGI": ""
            },
            {
                "$type": "CENEPJCONAG",
                "type": "BODY_LANG",
                "aliasList": [
                    "1005"
                ],
                "NNKEOHJCPOF": true,
                "MHDCNDAINCK": true,
                "LHIAJOBFNAK": false,
                "FOEKGLEJBIJ": ""
            },
            {
                "$type": "PBIGHFCHGCA",
                "type": "CAMERA_MOVE",
                "delayTime": 0.07000000029802322,
                "duration": 6.175000190734863,
                "KCFKJMMEECM": {
                    "x": -6222.14404296875,
                    "y": 237.01800537109375,
                    "z": -2462.946044921875
                },
                "DLGJEHNPMFN": {
                    "x": -6222.36279296875,
                    "y": 236.96299743652344,
                    "z": -2461.971923828125
                },
                "NJCBGNHGINI": 15.0,
                "NECGMADJICG": "EaseOutQuad",
                "BMHIHPIKAHM": {},
                "HGGPLEMCNNG": false,
                "JBODIEHINII": "",
                "PHDIKPKLFIA": true,
                "EJCHLMIMLBO": "",
                "BIMPIKMCIHB": "",
                "MCAOJPLIJGI": ""
            }
        ],
        [
            {
                "$type": "MoleMole.Config.ConfigSimpleBlackScreenAction",
                "type": "SIMPLE_BLACK_SCREEN",
                "durationToBlack": 0.5,
                "durationKeepBlack": 1.0,
                "durationFromBlack": 0.5,
                "textMapID": "",
                "useTextFade": true
            },
            {
                "$type": "MoleMole.Config.ConfigTimeProtectAction",
                "type": "TIME_PROTECT",
                "duration": 0.6000000238418579
            },
            {
                "$type": "PBIGHFCHGCA",
                "type": "CAMERA_MOVE",
                "delayTime": 0.6000000238418579,
                "duration": 0.10000000149011612,
                "KCFKJMMEECM": {
                    "x": -6221.05712890625,
                    "y": 236.70199584960938,
                    "z": -2464.93896484375
                },
                "DLGJEHNPMFN": {
                    "x": -6221.38818359375,
                    "y": 236.65899658203125,
                    "z": -2463.99609375
                },
                "FNMFGIOLKBE": 6,
                "NECGMADJICG": "EaseInOutCubic",
                "BMHIHPIKAHM": {},
                "HGGPLEMCNNG": false,
                "JBODIEHINII": "",
                "PHDIKPKLFIA": true,
                "EJCHLMIMLBO": "",
                "BIMPIKMCIHB": "",
                "MCAOJPLIJGI": ""
            }
        ]
    ],
    "groupId": [
        {
            "grpId": 4196845428,
            "nextGrpId": 4196845429
        },
        {
            "index": 1,
            "grpId": 4196845429,
            "nextGrpId": 4196845430
        },
        {
            "index": 2,
            "grpId": 4196845430,
            "nextGrpId": 4196845431
        },
        {
            "index": 3,
            "grpId": 4196845431,
            "nextGrpId": 4196845432
        },
        {
            "index": 4,
            "grpId": 4196845432,
            "nextGrpId": 4196845433
        },
        {
            "index": 5,
            "grpId": 4196845433,
            "nextGrpId": 4196845434
        },
        {
            "index": 6,
            "grpId": 4196845434,
            "nextGrpId": 4196845435
        },
        {
            "index": 7,
            "grpId": 4196845435,
            "nextGrpId": 4196845436
        },
        {
            "index": 8,
            "grpId": 4196845436,
            "nextGrpId": 1253189436
        },
        {
            "index": 9,
            "grpId": 1253189436,
            "nextGrpId": 1253189437
        },
        {
            "index": 10,
            "grpId": 1253189437,
            "nextGrpId": 1253189438
        },
        {
            "index": 11,
            "grpId": 1253189438,
            "nextGrpId": 1253189439
        },
        {
            "index": 12,
            "grpId": 1253189439,
            "nextGrpId": 1253189440
        },
        {
            "index": 13,
            "grpId": 1253189440,
            "nextGrpId": 1253189441
        },
        {
            "index": 14,
            "grpId": 1253189441,
            "nextGrpId": 1253189442
        },
        {
            "index": 15,
            "grpId": 1253189442,
            "nextGrpId": 1253189443
        },
        {
            "index": 16,
            "grpId": 1253189443,
            "nextGrpId": 1253189444
        },
        {
            "index": 17,
            "grpId": 1253189444,
            "nextGrpId": 1253189445
        },
        {
            "index": 18,
            "grpId": 1253189445,
            "nextGrpId": 1253189467
        },
        {
            "index": 19,
            "grpId": 1253189467,
            "nextGrpId": 1253189468
        }
    ],
    "freeStyleDic": {
        "20453": [
            1060,
            1171,
            4030,
            1160,
            1030,
            4040
        ]
    }
}