{
    "luaDataPath": "",
    "dontUseDefaultFinish": true,
    "entityBan": "",
    "disableNpcLod": true,
    "BHNKJKDADLC": true,
    "JJFIGGKCCCF": true,
    "EKDGNGHMECG": true,
    "GMFELEKFHNC": 5,
    "startFade": {
        "startFadeOutDuration": 0.0
    },
    "endFade": {
        "startFadeOutDuration": 0.0
    },
    "actors": [
        {
            "alias": "Avatar",
            "visible": true,
            "bornPointName": "",
            "relativePosType": "AVATAR_NEW",
            "relativePosNpcAlias": "",
            "bindMovingTargetKey": ""
        },
        {
            "configID": 30341,
            "alias": "30341",
            "visible": true,
            "bornPointName": "",
            "forceCreateDaily": true,
            "relativePosType": "AVATAR_NEW",
            "relativePosNpcAlias": "",
            "bindMovingTargetKey": ""
        }
    ],
    "group": [
        [
            {
                "$type": "MoleMole.Config.ConfigTimeProtectAction",
                "type": "TIME_PROTECT",
                "duration": 0.10000000149011612,
                "actionId": 104
            },
            {
                "$type": "PBIGHFCHGCA",
                "type": "CAMERA_MOVE",
                "duration": 0.5,
                "actionId": 116,
                "CGCNCKNJOFB": "RELATIVE_TO_TARGET_ENTITY",
                "KCFKJMMEECM": {
                    "x": -332.6499938964844,
                    "y": 315.37298583984375,
                    "z": 2889.93310546875
                },
                "JOBAHIHHJIB": "RELATIVE_TO_TARGET_ENTITY",
                "DLGJEHNPMFN": {
                    "x": 4.168000221252441,
                    "y": 208.15899658203125
                },
                "FNMFGIOLKBE": 6,
                "NECGMADJICG": "EaseInOutCubic",
                "BMHIHPIKAHM": {},
                "MMJMMAEAJOA": true,
                "HGGPLEMCNNG": false,
                "JBODIEHINII": "30341",
                "PHDIKPKLFIA": true,
                "EJCHLMIMLBO": "",
                "BIMPIKMCIHB": "",
                "MCAOJPLIJGI": ""
            }
        ],
        [
            {
                "$type": "KAGAFALAIGP",
                "type": "DIALOG",
                "aliasList": [
                    "30341"
                ],
                "actionId": 107,
                "JHEPJOMJJHH": 736967501,
                "OCILKFCPBNC": 0.5
            },
            {
                "$type": "CENEPJCONAG",
                "type": "BODY_LANG",
                "aliasList": [
                    "30341"
                ],
                "actionId": 118,
                "OGFPAIKLDGB": 4040,
                "MHDCNDAINCK": true,
                "LHIAJOBFNAK": false,
                "GJGPNLJEIFP": true,
                "FOEKGLEJBIJ": ""
            }
        ],
        [
            {
                "$type": "MoleMole.Config.ConfigTimeProtectAction",
                "type": "TIME_PROTECT",
                "duration": 0.10000000149011612,
                "actionId": 105
            },
            {
                "$type": "MoleMole.Config.ConfigUITriggerInterAction",
                "type": "UI_TRIGGER",
                "actionId": 115,
                "contextName": "AkaFesReasoningQuestion",
                "param": "2011"
            },
            {
                "$type": "PBIGHFCHGCA",
                "type": "CAMERA_MOVE",
                "duration": 0.5,
                "actionId": 120,
                "flag": 2,
                "KCFKJMMEECM": {
                    "x": -331.23199462890625,
                    "y": 315.45001220703125,
                    "z": 2875.62109375
                },
                "DLGJEHNPMFN": {
                    "x": -330.88299560546875,
                    "y": 315.4280090332031,
                    "z": 2876.55810546875
                },
                "FNMFGIOLKBE": 6,
                "NECGMADJICG": "EaseInOutCubic",
                "BMHIHPIKAHM": {},
                "MMJMMAEAJOA": true,
                "HGGPLEMCNNG": false,
                "JBODIEHINII": "Avatar",
                "PHDIKPKLFIA": true,
                "EJCHLMIMLBO": "",
                "BIMPIKMCIHB": "",
                "MCAOJPLIJGI": ""
            },
            {
                "$type": "PBIGHFCHGCA",
                "type": "CAMERA_MOVE",
                "duration": 0.5,
                "actionId": 121,
                "flag": 1,
                "KCFKJMMEECM": {
                    "x": -331.281005859375,
                    "y": 315.510009765625,
                    "z": 2875.468017578125
                },
                "DLGJEHNPMFN": {
                    "x": -330.864990234375,
                    "y": 315.4880065917969,
                    "z": 2876.376953125
                },
                "FNMFGIOLKBE": 6,
                "NECGMADJICG": "EaseInOutCubic",
                "BMHIHPIKAHM": {},
                "MMJMMAEAJOA": true,
                "HGGPLEMCNNG": false,
                "JBODIEHINII": "Avatar",
                "PHDIKPKLFIA": true,
                "EJCHLMIMLBO": "",
                "BIMPIKMCIHB": "",
                "MCAOJPLIJGI": ""
            }
        ]
    ],
    "groupId": [
        {
            "grpId": 3461108387,
            "nextGrpId": 3461108388
        },
        {
            "index": 1,
            "grpId": 3461108388,
            "nextGrpId": 3461108389
        },
        {
            "index": 2,
            "grpId": 3461108389,
            "nextGrpId": 3461108390
        }
    ],
    "freeStyleDic": {
        "30341": [
            4040
        ]
    }
}