{
    "luaDataPath": "",
    "dontUseDefaultFinish": true,
    "entityBan": "",
    "disableNpcLod": true,
    "EKDGNGHMECG": true,
    "GMFELEKFHNC": 5,
    "startFade": {
        "startFadeOutDuration": 0.0
    },
    "endFade": {
        "startFadeOutDuration": 0.0
    },
    "actors": [
        {
            "alias": "Avatar",
            "visible": true,
            "bornPointName": "",
            "relativePosType": "AVATAR_NEW",
            "relativePosNpcAlias": "",
            "bindMovingTargetKey": ""
        },
        {
            "configID": 9537,
            "alias": "9537",
            "visible": true,
            "bornPointName": "",
            "relativePosType": "AVATAR_NEW",
            "relativePosNpcAlias": "",
            "bindMovingTargetKey": ""
        }
    ],
    "group": [
        [
            {
                "$type": "MoleMole.Config.ConfigTimeProtectAction",
                "type": "TIME_PROTECT",
                "duration": 0.10000000149011612,
                "actionId": 104
            },
            {
                "$type": "MoleMole.Config.ConfigUITriggerInterAction",
                "type": "UI_TRIGGER",
                "actionId": 108,
                "contextName": "GcgCardGroupName",
                "param": "1"
            },
            {
                "$type": "FNPNDPFBBDD",
                "type": "LOOK_AT",
                "aliasList": [
                    "9537"
                ],
                "actionId": 110,
                "MNOPLOBEFLB": 0.5,
                "JBODIEHINII": "",
                "MDNPCOHCCLM": true,
                "CAJDMFBMGNG": 60.0,
                "LPCACGGCDLI": "",
                "NNFPFPOJJOJ": ""
            }
        ],
        [
            {
                "$type": "KAGAFALAIGP",
                "type": "DIALOG",
                "aliasList": [
                    "9537"
                ],
                "actionId": 107,
                "JHEPJOMJJHH": 695370601,
                "OCILKFCPBNC": 3.5
            },
            {
                "$type": "LNLLGCOBDFC",
                "type": "EMO_SYNC",
                "aliasList": [
                    "9537"
                ],
                "actionId": 109,
                "LKHHGAGNMKM": "Cs_Emo_Avatar_Simple_Common_Set/Cs_Emo_Avatar_Talk/Cs_Emo_GCG/Cs_Emo_Avatar_Hutao/Cs_Emo_695370601",
                "AIMKGPFAAAD": "",
                "IPEKOEDCGGF": "",
                "EJNFMNJKDAH": "",
                "LOOOCOLIHFA": "",
                "KJDLMAPPPMG": "",
                "EKJHPKFBONG": [
                    12327770038787708462,
                    13602481904598780014,
                    17213323596017290013,
                    17780284594729066061
                ]
            },
            {
                "$type": "CENEPJCONAG",
                "type": "BODY_LANG",
                "aliasList": [
                    "9537"
                ],
                "actionId": 111,
                "OGFPAIKLDGB": 8040,
                "MHDCNDAINCK": true,
                "LHIAJOBFNAK": false,
                "GJGPNLJEIFP": true,
                "FOEKGLEJBIJ": ""
            },
            {
                "$type": "CENEPJCONAG",
                "type": "BODY_LANG",
                "delayTime": 3.1440000534057617,
                "aliasList": [
                    "9537"
                ],
                "actionId": 112,
                "OGFPAIKLDGB": 4030,
                "MHDCNDAINCK": true,
                "LHIAJOBFNAK": false,
                "GJGPNLJEIFP": true,
                "FOEKGLEJBIJ": ""
            }
        ],
        [
            {
                "$type": "MoleMole.Config.ConfigTimeProtectAction",
                "type": "TIME_PROTECT",
                "duration": 0.10000000149011612,
                "actionId": 105
            },
            {
                "$type": "CENEPJCONAG",
                "type": "BODY_LANG",
                "aliasList": [
                    "9537"
                ],
                "actionId": 114,
                "NNKEOHJCPOF": true,
                "MHDCNDAINCK": true,
                "LHIAJOBFNAK": false,
                "GJGPNLJEIFP": true,
                "FOEKGLEJBIJ": ""
            }
        ]
    ],
    "groupId": [
        {
            "grpId": 803208599,
            "nextGrpId": 803208600
        },
        {
            "index": 1,
            "grpId": 803208600,
            "nextGrpId": 803208601
        },
        {
            "index": 2,
            "grpId": 803208601,
            "nextGrpId": 803208602
        }
    ],
    "freeStyleDic": {
        "9537": [
            8040,
            4030
        ]
    },
    "EGOADMBCKDB": {
        "9537": [
            "SitChat01AS",
            "SitHoldArm01AS",
            "SitPutArm01AS",
            "SitShrug01AS",
            "SitThink01AS"
        ]
    }
}