{
    "luaDataPath": "",
    "isSimpleTalk": true,
    "entityBan": "",
    "disableNpcLod": true,
    "startFade": {
        "startFadeOutDuration": 0.0
    },
    "endFade": {
        "startFadeOutDuration": 0.0
    },
    "actors": [
        {
            "alias": "Avatar",
            "visible": true,
            "bornPointName": "",
            "relativePosNpcAlias": "",
            "bindMovingTargetKey": ""
        },
        {
            "configID": 30083,
            "alias": "30083",
            "visible": true,
            "bornPointName": "",
            "relativePosNpcAlias": "",
            "bindMovingTargetKey": ""
        }
    ],
    "group": [
        [
            {
                "$type": "MoleMole.Config.ConfigTimeProtectAction",
                "type": "TIME_PROTECT",
                "duration": 0.4000000059604645
            },
            {
                "$type": "PBIGHFCHGCA",
                "type": "CAMERA_FOCUS",
                "delayTime": 0.30000001192092896,
                "duration": 0.10000000149011612,
                "JBODIEHINII": "",
                "EJCHLMIMLBO": "",
                "BIMPIKMCIHB": "",
                "MCAOJPLIJGI": ""
            }
        ],
        [
            {
                "$type": "NFDDGDIKEAG",
                "type": "STEER_TO",
                "duration": 0.800000011920929,
                "aliasList": [
                    "30083"
                ],
                "GGJHILELIMO": "TO_LOCAL_AVATAR",
                "PKKKHNGDEEE": true,
                "JBODIEHINII": "",
                "NNFPFPOJJOJ": ""
            },
            {
                "$type": "KAGAFALAIGP",
                "type": "DIALOG",
                "aliasList": [
                    "30083"
                ],
                "JHEPJOMJJHH": 726580101,
                "OCILKFCPBNC": 0.5
            },
            {
                "$type": "AAFOOOPNJLB",
                "type": "DIALOG_SELECT",
                "delayTime": 0.4000000059604645,
                "aliasList": [
                    "Avatar"
                ],
                "KFAEOBDAAME": [
                    726580102
                ],
                "ELPFMMBHOLF": [
                    765341108
                ],
                "OEAAKJDIEFD": true
            }
        ],
        [
            {
                "$type": "KAGAFALAIGP",
                "type": "DIALOG",
                "aliasList": [
                    "30083"
                ],
                "JHEPJOMJJHH": 726580103,
                "OCILKFCPBNC": 0.5
            }
        ],
        [
            {
                "$type": "KAGAFALAIGP",
                "type": "DIALOG",
                "aliasList": [
                    "30083"
                ],
                "JHEPJOMJJHH": 726580104,
                "OCILKFCPBNC": 0.5
            }
        ],
        [
            {
                "$type": "KAGAFALAIGP",
                "type": "DIALOG",
                "aliasList": [
                    "30083"
                ],
                "JHEPJOMJJHH": 726580105,
                "OCILKFCPBNC": 0.5
            },
            {
                "$type": "AAFOOOPNJLB",
                "type": "DIALOG_SELECT",
                "delayTime": 0.4000000059604645,
                "aliasList": [
                    "Avatar"
                ],
                "KFAEOBDAAME": [
                    726580106
                ],
                "ELPFMMBHOLF": [
                    765341111
                ],
                "OEAAKJDIEFD": true
            }
        ],
        [
            {
                "$type": "KAGAFALAIGP",
                "type": "DIALOG",
                "aliasList": [
                    "30083"
                ],
                "JHEPJOMJJHH": 726580107,
                "OCILKFCPBNC": 0.5
            }
        ],
        [
            {
                "$type": "KAGAFALAIGP",
                "type": "DIALOG",
                "aliasList": [
                    "30083"
                ],
                "JHEPJOMJJHH": 726580108,
                "OCILKFCPBNC": 0.5
            }
        ],
        [
            {
                "$type": "KAGAFALAIGP",
                "type": "DIALOG",
                "aliasList": [
                    "30083"
                ],
                "JHEPJOMJJHH": 726580109,
                "OCILKFCPBNC": 0.5
            }
        ],
        [
            {
                "$type": "KAGAFALAIGP",
                "type": "DIALOG",
                "aliasList": [
                    "30083"
                ],
                "JHEPJOMJJHH": 726580110,
                "OCILKFCPBNC": 0.5
            }
        ],
        [
            {
                "$type": "KAGAFALAIGP",
                "type": "DIALOG",
                "aliasList": [
                    "30083"
                ],
                "JHEPJOMJJHH": 726580111,
                "OCILKFCPBNC": 0.5
            }
        ],
        [
            {
                "$type": "KAGAFALAIGP",
                "type": "DIALOG",
                "aliasList": [
                    "30083"
                ],
                "JHEPJOMJJHH": 726580112,
                "OCILKFCPBNC": 0.5
            }
        ],
        [
            {
                "$type": "KAGAFALAIGP",
                "type": "DIALOG",
                "aliasList": [
                    "30083"
                ],
                "JHEPJOMJJHH": 726580113,
                "OCILKFCPBNC": 0.5
            }
        ],
        [
            {
                "$type": "KAGAFALAIGP",
                "type": "DIALOG",
                "aliasList": [
                    "30083"
                ],
                "JHEPJOMJJHH": 726580114,
                "OCILKFCPBNC": 0.5
            }
        ],
        [
            {
                "$type": "KAGAFALAIGP",
                "type": "DIALOG",
                "aliasList": [
                    "30083"
                ],
                "JHEPJOMJJHH": 726580115,
                "OCILKFCPBNC": 0.5
            }
        ],
        [
            {
                "$type": "KAGAFALAIGP",
                "type": "DIALOG",
                "aliasList": [
                    "30083"
                ],
                "JHEPJOMJJHH": 726580116,
                "OCILKFCPBNC": 0.5
            }
        ],
        [
            {
                "$type": "KAGAFALAIGP",
                "type": "DIALOG",
                "aliasList": [
                    "30083"
                ],
                "JHEPJOMJJHH": 726580117,
                "OCILKFCPBNC": 0.5
            },
            {
                "$type": "AAFOOOPNJLB",
                "type": "DIALOG_SELECT",
                "delayTime": 0.4000000059604645,
                "aliasList": [
                    "Avatar"
                ],
                "KFAEOBDAAME": [
                    726580118
                ],
                "ELPFMMBHOLF": [
                    2250737861
                ],
                "OEAAKJDIEFD": true
            }
        ],
        [
            {
                "$type": "KAGAFALAIGP",
                "type": "DIALOG",
                "aliasList": [
                    "30083"
                ],
                "JHEPJOMJJHH": 726580119,
                "OCILKFCPBNC": 0.5
            }
        ],
        [
            {
                "$type": "KAGAFALAIGP",
                "type": "DIALOG",
                "aliasList": [
                    "30083"
                ],
                "JHEPJOMJJHH": 726580120,
                "OCILKFCPBNC": 0.5
            }
        ],
        [
            {
                "$type": "KAGAFALAIGP",
                "type": "DIALOG_CLEAR"
            },
            {
                "$type": "MoleMole.Config.ConfigSimpleBlackScreenAction",
                "type": "SIMPLE_BLACK_SCREEN",
                "durationToBlack": 0.5,
                "durationKeepBlack": 1.5,
                "durationFromBlack": 0.5,
                "textMapID": ""
            },
            {
                "$type": "MoleMole.Config.ConfigTimeProtectAction",
                "type": "TIME_PROTECT",
                "duration": 0.10000000149011612
            }
        ]
    ],
    "groupId": [
        {
            "grpId": 765341106,
            "nextGrpId": 765341107
        },
        {
            "index": 1,
            "grpId": 765341107,
            "nextGrpId": 765341108
        },
        {
            "index": 2,
            "grpId": 765341108,
            "nextGrpId": 765341109
        },
        {
            "index": 3,
            "grpId": 765341109,
            "nextGrpId": 765341110
        },
        {
            "index": 4,
            "grpId": 765341110,
            "nextGrpId": 765341111
        },
        {
            "index": 5,
            "grpId": 765341111,
            "nextGrpId": 765341112
        },
        {
            "index": 6,
            "grpId": 765341112,
            "nextGrpId": 765341113
        },
        {
            "index": 7,
            "grpId": 765341113,
            "nextGrpId": 765341114
        },
        {
            "index": 8,
            "grpId": 765341114,
            "nextGrpId": 2250737854
        },
        {
            "index": 9,
            "grpId": 2250737854,
            "nextGrpId": 2250737855
        },
        {
            "index": 10,
            "grpId": 2250737855,
            "nextGrpId": 2250737856
        },
        {
            "index": 11,
            "grpId": 2250737856,
            "nextGrpId": 2250737857
        },
        {
            "index": 12,
            "grpId": 2250737857,
            "nextGrpId": 2250737858
        },
        {
            "index": 13,
            "grpId": 2250737858,
            "nextGrpId": 2250737859
        },
        {
            "index": 14,
            "grpId": 2250737859,
            "nextGrpId": 2250737860
        },
        {
            "index": 15,
            "grpId": 2250737860,
            "nextGrpId": 2250737861
        },
        {
            "index": 16,
            "grpId": 2250737861,
            "nextGrpId": 2250737862
        },
        {
            "index": 17,
            "grpId": 2250737862,
            "nextGrpId": 2250737863
        },
        {
            "index": 18,
            "grpId": 2250737863,
            "nextGrpId": 2250737885
        }
    ],
    "freeStyleDic": {
        "30083": []
    }
}