{
    "EOAFIONGPKO": {
        "Eff_Gcg_Monster_Maidenwater_Spine_Loop": {
            "PPACHBEALIN": true,
            "FLFKIHBJGJE": "Gcg_CardFace_Char_Monster_Maidenwater_Spine",
            "ACOBJHDOLCH": "EffectRoot_Char",
            "LNBMDEHNHAN": true,
            "OFBKGAKIABP": 0.5
        }
    }
}