{
    "talkId": 5088,
    "type": "FREE",
    "dialogList": [
        {
            "id": 1016508800,
            "talkRole": {
                "type": "TALK_ROLE_NPC",
                "id": "5088"
            },
            "talkContentTextMapHash": 1596544906,
            "talkAssetPath": "",
            "talkAssetPathAlter": "",
            "talkAudioName": "",
            "actionBefore": "",
            "actionWhile": "",
            "actionAfter": "",
            "optionIcon": ""
        }
    ]
}