{
    "talkId": 5115,
    "type": "FREE",
    "dialogList": [
        {
            "id": 1016511500,
            "talkRole": {
                "type": "TALK_ROLE_NPC",
                "id": "5115"
            },
            "talkContentTextMapHash": 1966115394,
            "talkAssetPath": "",
            "talkAssetPathAlter": "",
            "talkAudioName": "",
            "actionBefore": "",
            "actionWhile": "",
            "actionAfter": "",
            "optionIcon": ""
        }
    ]
}