{
    "talkId": 5123,
    "type": "FREE",
    "dialogList": [
        {
            "id": 1016512300,
            "talkRole": {
                "type": "TALK_ROLE_NPC",
                "id": "5123"
            },
            "talkContentTextMapHash": 1738533106,
            "talkAssetPath": "",
            "talkAssetPathAlter": "",
            "talkAudioName": "",
            "actionBefore": "",
            "actionWhile": "",
            "actionAfter": "",
            "optionIcon": ""
        }
    ]
}