{
    "talkId": 5141,
    "type": "FREE",
    "dialogList": [
        {
            "id": 1016514100,
            "talkRole": {
                "type": "TALK_ROLE_NPC",
                "id": "5141"
            },
            "talkContentTextMapHash": 2708009794,
            "talkAssetPath": "",
            "talkAssetPathAlter": "",
            "talkAudioName": "",
            "actionBefore": "",
            "actionWhile": "",
            "actionAfter": "",
            "optionIcon": ""
        }
    ]
}