{
    "talkId": 5144,
    "type": "FREE",
    "dialogList": [
        {
            "id": 1016514400,
            "talkRole": {
                "type": "TALK_ROLE_NPC",
                "id": "5144"
            },
            "talkContentTextMapHash": 320085946,
            "talkAssetPath": "",
            "talkAssetPathAlter": "",
            "talkAudioName": "",
            "actionBefore": "",
            "actionWhile": "",
            "actionAfter": "",
            "optionIcon": ""
        }
    ]
}