[
    {
        "crowdGroupID": 1,
        "boundCenter": {
            "x": 1536.99755859375,
            "y": 282.4483642578125,
            "z": 4907.0068359375
        },
        "boundSize": {
            "x": 163.14111328125,
            "y": 3.05712890625,
            "z": 362.80712890625
        },
        "crowdRestrictionGroups": [
            {
                "questRes": [
                    {
                        "questID": 400417,
                        "questStates": [
                            "QUEST_STATE_UNFINISHED"
                        ]
                    }
                ]
            },
            {
                "questRes": [
                    {
                        "questID": 400404,
                        "questStates": [
                            "QUEST_STATE_UNFINISHED"
                        ]
                    }
                ]
            }
        ],
        "CPNBCGHJMBP": true
    },
    {
        "crowdGroupID": 2,
        "boundCenter": {
            "x": 1845.96044921875,
            "y": 442.0918884277344,
            "z": 4896.64404296875
        },
        "boundSize": {
            "x": 223.89697265625,
            "y": 2.34722900390625,
            "z": 168.7138671875
        },
        "CPNBCGHJMBP": true
    },
    {
        "crowdGroupID": 3,
        "boundCenter": {
            "x": 1691.528564453125,
            "y": 482.93975830078125,
            "z": 4991.0537109375
        },
        "boundSize": {
            "x": 53.8131103515625,
            "y": 0.75250244140625,
            "z": 45.357421875
        },
        "CPNBCGHJMBP": true
    },
    {
        "crowdGroupID": 4,
        "boundCenter": {
            "x": 1673.637451171875,
            "y": 281.3599548339844,
            "z": 4987.30322265625
        },
        "boundSize": {
            "x": 9.7249755859375,
            "y": 0.05389404296875,
            "z": 5.6259765625
        },
        "crowdRestrictionGroups": [
            {
                "questRes": [
                    {
                        "questID": 400411,
                        "questStates": [
                            "QUEST_STATE_UNFINISHED"
                        ]
                    }
                ]
            },
            {
                "questRes": [
                    {
                        "questID": 400412,
                        "questStates": [
                            "QUEST_STATE_UNFINISHED"
                        ]
                    }
                ]
            },
            {
                "questRes": [
                    {
                        "questID": 400417,
                        "questStates": [
                            "QUEST_STATE_UNFINISHED"
                        ]
                    }
                ]
            },
            {
                "questRes": [
                    {
                        "questID": 400404,
                        "questStates": [
                            "QUEST_STATE_UNFINISHED"
                        ]
                    }
                ]
            }
        ],
        "CPNBCGHJMBP": true
    },
    {
        "crowdGroupID": 5,
        "boundCenter": {
            "x": 1634.95751953125,
            "y": 281.3330078125,
            "z": 5027.466796875
        },
        "boundSize": {
            "x": 1.257080078125,
            "z": 0.17724609375
        },
        "crowdRestrictionGroups": [
            {
                "questRes": [
                    {
                        "questID": 400402,
                        "questStates": [
                            "QUEST_STATE_UNFINISHED"
                        ]
                    }
                ]
            },
            {
                "questRes": [
                    {
                        "questID": 400403,
                        "questStates": [
                            "QUEST_STATE_UNFINISHED"
                        ]
                    }
                ]
            },
            {
                "questRes": [
                    {
                        "questID": 400404,
                        "questStates": [
                            "QUEST_STATE_UNFINISHED"
                        ]
                    }
                ]
            },
            {
                "questRes": [
                    {
                        "questID": 400405,
                        "questStates": [
                            "QUEST_STATE_UNFINISHED"
                        ]
                    }
                ]
            },
            {
                "questRes": [
                    {
                        "questID": 400417,
                        "questStates": [
                            "QUEST_STATE_UNFINISHED"
                        ]
                    }
                ]
            }
        ],
        "CPNBCGHJMBP": true
    },
    {
        "crowdGroupID": 6,
        "boundCenter": {
            "x": 1668.446044921875,
            "y": 282.8870849609375,
            "z": 4999.84521484375
        },
        "boundSize": {
            "x": 34.0159912109375,
            "z": 69.9091796875
        },
        "crowdRestrictionGroups": [
            {
                "questRes": [
                    {
                        "questID": 400417,
                        "questStates": [
                            "QUEST_STATE_UNFINISHED"
                        ]
                    }
                ]
            },
            {
                "questRes": [
                    {
                        "questID": 400404,
                        "questStates": [
                            "QUEST_STATE_UNFINISHED"
                        ]
                    }
                ]
            },
            {
                "questRes": [
                    {
                        "questID": 400402,
                        "questStates": [
                            "QUEST_STATE_UNFINISHED"
                        ]
                    }
                ]
            },
            {
                "questRes": [
                    {
                        "questID": 400403,
                        "questStates": [
                            "QUEST_STATE_UNFINISHED"
                        ]
                    }
                ]
            }
        ],
        "CPNBCGHJMBP": true
    }
]