[
    {
        "crowdGroupID": 1,
        "boundCenter": {
            "x": -13.958806991577148,
            "y": 3.607689380645752,
            "z": 104.52257537841797
        },
        "boundSize": {
            "x": 46.31058883666992,
            "y": 7.425043106079102,
            "z": 173.1844482421875
        },
        "spawnByDefault": false,
        "crowdRestrictionGroups": [
            {
                "questRes": [
                    {
                        "questID": 400618,
                        "questStates": [
                            "QUEST_STATE_UNFINISHED"
                        ]
                    }
                ]
            }
        ]
    },
    {
        "crowdGroupID": 2,
        "boundCenter": {
            "x": 5.176634788513184,
            "y": 3.287814140319824,
            "z": 124.69908905029297
        },
        "boundSize": {
            "x": 39.44075012207031,
            "y": 8.06479263305664,
            "z": 128.2726287841797
        },
        "spawnByDefault": false,
        "crowdRestrictionGroups": [
            {
                "questRes": [
                    {
                        "questID": 400217,
                        "questStates": [
                            "QUEST_STATE_FINISHED"
                        ]
                    },
                    {
                        "questID": 400211,
                        "questAccepted": false
                    }
                ]
            }
        ]
    },
    {
        "crowdGroupID": 3,
        "boundCenter": {
            "x": 8.426970481872559,
            "y": 2.8016629219055176,
            "z": 122.35777282714844
        },
        "boundSize": {
            "x": 42.633880615234375,
            "y": 9.022724151611328,
            "z": 132.20785522460938
        },
        "spawnByDefault": false,
        "crowdRestrictionGroups": [
            {
                "questRes": [
                    {
                        "questID": 400626,
                        "questStates": [
                            "QUEST_STATE_UNFINISHED"
                        ]
                    }
                ]
            },
            {
                "questRes": [
                    {
                        "questID": 400603,
                        "questStates": [
                            "QUEST_STATE_UNFINISHED"
                        ]
                    }
                ]
            },
            {
                "questRes": [
                    {
                        "questID": 400604,
                        "questStates": [
                            "QUEST_STATE_UNFINISHED"
                        ]
                    }
                ]
            },
            {
                "questRes": [
                    {
                        "questID": 400605,
                        "questStates": [
                            "QUEST_STATE_UNFINISHED"
                        ]
                    }
                ]
            },
            {
                "questRes": [
                    {
                        "questID": 400620,
                        "questStates": [
                            "QUEST_STATE_UNFINISHED"
                        ]
                    }
                ]
            }
        ]
    }
]