{
    "id": 117,
    "stageMatureEvents": [
        "Play_amb_scene_Homeworld_Exterior_Ukiyo"
    ],
    "stageExitEvents": [
        "Stop_amb_scene_Homeworld_Exterior_Ukiyo",
        "State_Music_NonCombat"
    ],
    "stateValue": "State_Homeworld_Scene_Ukiyo",
    "CCIIHNIJEGB": {
        "text": "Play_Music_Scene"
    },
    "BILLPIIPIDM": {
        "text": "Stop_Music_Scene"
    }
}