{
    "ConfigRaijin": {
        "OFKAGBDNNOM": {
            "locked": {
                "$type": "JFIBMPGKIJG",
                "EEIEIHIIDBI": [
                    {
                        "$type": "CJBNHOLDIJN",
                        "EGJMGEHLDOL": {
                            "$type": "OHNIGPCOFFG",
                            "EKPBINPPJML": 2013,
                            "state": "QUEST_STATE_FINISHED"
                        }
                    }
                ]
            },
            "beforeMQ1": {
                "$type": "JFIBMPGKIJG",
                "EEIEIHIIDBI": [
                    {
                        "$type": "CJBNHOLDIJN",
                        "EGJMGEHLDOL": {
                            "$type": "OHNIGPCOFFG",
                            "EKPBINPPJML": 72155,
                            "state": "QUEST_STATE_FINISHED"
                        }
                    },
                    {
                        "$type": "EJOBGGOEEOE",
                        "EKPBINPPJML": 72155
                    }
                ]
            },
            "trackMQ1": {
                "$type": "EJOBGGOEEOE",
                "EKPBINPPJML": 72155,
                "visible": true
            },
            "trackMQ2": {
                "$type": "EJOBGGOEEOE",
                "EKPBINPPJML": 72156,
                "visible": true
            },
            "trackMQ3": {
                "$type": "EJOBGGOEEOE",
                "EKPBINPPJML": 72157,
                "visible": true
            },
            "trackMQ4": {
                "$type": "EJOBGGOEEOE",
                "EKPBINPPJML": 72158,
                "visible": true
            },
            "trackMonster": {
                "$type": "OHNIGPCOFFG",
                "EKPBINPPJML": 72158,
                "state": "QUEST_STATE_FINISHED"
            }
        },
        "CBMOAKNJABH": {
            "updateLocked": {
                "$type": "IADEDIGPJCC",
                "actions": [
                    {
                        "$type": "MJCIKGMJGKA",
                        "CFKIOKCFFMD": "UnlockTips",
                        "DNLEFPAGIBM": true
                    },
                    {
                        "$type": "MJCIKGMJGKA",
                        "CFKIOKCFFMD": "ButtonGoto"
                    },
                    {
                        "$type": "NHADCOLLMOA",
                        "CFKIOKCFFMD": "UnlockTips",
                        "textMap": "UI_ACTIVITY_PREQUEST_COND_02",
                        "EKPBINPPJML": 2013
                    }
                ]
            },
            "updateTrackQuest": {
                "$type": "IADEDIGPJCC",
                "actions": [
                    {
                        "$type": "MJCIKGMJGKA",
                        "CFKIOKCFFMD": "UnlockTips"
                    },
                    {
                        "$type": "MJCIKGMJGKA",
                        "CFKIOKCFFMD": "ButtonGoto",
                        "DNLEFPAGIBM": true
                    },
                    {
                        "$type": "ALBGKIBBKFA",
                        "CFKIOKCFFMD": "ButtonGoto",
                        "textMap": "UI_ACTIVITY_QUEST_GOTO_BUTTON"
                    }
                ]
            },
            "updateTrackMonster": {
                "$type": "IADEDIGPJCC",
                "actions": [
                    {
                        "$type": "MJCIKGMJGKA",
                        "CFKIOKCFFMD": "UnlockTips"
                    },
                    {
                        "$type": "MJCIKGMJGKA",
                        "CFKIOKCFFMD": "ButtonGoto",
                        "DNLEFPAGIBM": true
                    },
                    {
                        "$type": "ALBGKIBBKFA",
                        "CFKIOKCFFMD": "ButtonGoto",
                        "textMap": "UI_ACTIVITY_CHALLENGE_GOTO_BUTTON"
                    }
                ]
            },
            "clickTrackAdvMark": {
                "$type": "IADEDIGPJCC",
                "actions": [
                    {
                        "$type": "AHKEIAOPJBN",
                        "HELDOPMDONO": "MarkAdventurers",
                        "JEMMMDHJLMI": 3
                    },
                    {
                        "$type": "JJKAACHIOEC",
                        "HNFLGLLBBAM": 5043,
                        "BDPDEGFELDF": 2,
                        "PEAEEKJCMCD": 5043001,
                        "MNPKCMNKKDH": ""
                    },
                    {
                        "$type": "CGOGJENNIOJ",
                        "CFKIOKCFFMD": "Animator",
                        "JEDBBLKJJKB": "FadeOut",
                        "IDMPLAPHCIE": true
                    }
                ]
            },
            "clickTrackMQ1": {
                "$type": "IADEDIGPJCC",
                "actions": [
                    {
                        "$type": "LBMECPHPMMI",
                        "EKPBINPPJML": 72155
                    },
                    {
                        "$type": "JJKAACHIOEC",
                        "HNFLGLLBBAM": 5043,
                        "BDPDEGFELDF": 2,
                        "PEAEEKJCMCD": 5043001,
                        "MNPKCMNKKDH": ""
                    },
                    {
                        "$type": "CGOGJENNIOJ",
                        "CFKIOKCFFMD": "Animator",
                        "JEDBBLKJJKB": "FadeOut",
                        "IDMPLAPHCIE": true
                    }
                ]
            },
            "clickTrackMQ2": {
                "$type": "IADEDIGPJCC",
                "actions": [
                    {
                        "$type": "LBMECPHPMMI",
                        "EKPBINPPJML": 72156
                    },
                    {
                        "$type": "JJKAACHIOEC",
                        "HNFLGLLBBAM": 5043,
                        "BDPDEGFELDF": 2,
                        "PEAEEKJCMCD": 5043001,
                        "MNPKCMNKKDH": ""
                    },
                    {
                        "$type": "CGOGJENNIOJ",
                        "CFKIOKCFFMD": "Animator",
                        "JEDBBLKJJKB": "FadeOut",
                        "IDMPLAPHCIE": true
                    }
                ]
            },
            "clickTrackMQ3": {
                "$type": "IADEDIGPJCC",
                "actions": [
                    {
                        "$type": "LBMECPHPMMI",
                        "EKPBINPPJML": 72157
                    },
                    {
                        "$type": "JJKAACHIOEC",
                        "HNFLGLLBBAM": 5043,
                        "BDPDEGFELDF": 2,
                        "PEAEEKJCMCD": 5043001,
                        "MNPKCMNKKDH": ""
                    },
                    {
                        "$type": "CGOGJENNIOJ",
                        "CFKIOKCFFMD": "Animator",
                        "JEDBBLKJJKB": "FadeOut",
                        "IDMPLAPHCIE": true
                    }
                ]
            },
            "clickTrackMQ4": {
                "$type": "IADEDIGPJCC",
                "actions": [
                    {
                        "$type": "LBMECPHPMMI",
                        "EKPBINPPJML": 72158
                    },
                    {
                        "$type": "JJKAACHIOEC",
                        "HNFLGLLBBAM": 5043,
                        "BDPDEGFELDF": 2,
                        "PEAEEKJCMCD": 5043001,
                        "MNPKCMNKKDH": ""
                    },
                    {
                        "$type": "CGOGJENNIOJ",
                        "CFKIOKCFFMD": "Animator",
                        "JEDBBLKJJKB": "FadeOut",
                        "IDMPLAPHCIE": true
                    }
                ]
            },
            "clickTrackMonster": {
                "$type": "IADEDIGPJCC",
                "actions": [
                    {
                        "$type": "KCBPHJPFICO",
                        "PFLNKNCLFJE": 33
                    },
                    {
                        "$type": "JJKAACHIOEC",
                        "HNFLGLLBBAM": 5043,
                        "BDPDEGFELDF": 3,
                        "PEAEEKJCMCD": 5043001,
                        "MNPKCMNKKDH": ""
                    },
                    {
                        "$type": "CGOGJENNIOJ",
                        "CFKIOKCFFMD": "Animator",
                        "JEDBBLKJJKB": "FadeOut",
                        "IDMPLAPHCIE": true
                    }
                ]
            }
        },
        "LOPFNAMJFAG": [
            {
                "DLBIOKBKJFH": "locked",
                "actionName": "updateLocked"
            },
            {
                "DLBIOKBKJFH": "beforeMQ1",
                "actionName": "updateTrackQuest"
            },
            {
                "DLBIOKBKJFH": "trackMQ1",
                "actionName": "updateTrackQuest"
            },
            {
                "DLBIOKBKJFH": "trackMQ2",
                "actionName": "updateTrackQuest"
            },
            {
                "DLBIOKBKJFH": "trackMQ3",
                "actionName": "updateTrackQuest"
            },
            {
                "DLBIOKBKJFH": "trackMQ4",
                "actionName": "updateTrackQuest"
            },
            {
                "DLBIOKBKJFH": "trackMonster",
                "actionName": "updateTrackMonster"
            }
        ],
        "FMFBODKANFH": [
            {
                "DLBIOKBKJFH": "beforeMQ1",
                "actionName": "clickTrackAdvMark"
            },
            {
                "DLBIOKBKJFH": "trackMQ1",
                "actionName": "clickTrackMQ1"
            },
            {
                "DLBIOKBKJFH": "trackMQ2",
                "actionName": "clickTrackMQ2"
            },
            {
                "DLBIOKBKJFH": "trackMQ3",
                "actionName": "clickTrackMQ3"
            },
            {
                "DLBIOKBKJFH": "trackMQ4",
                "actionName": "clickTrackMQ4"
            },
            {
                "DLBIOKBKJFH": "trackMonster",
                "actionName": "clickTrackMonster"
            }
        ]
    }
}