{
    "PIMNJPJLLLA": [
        {
            "name": "Monster_Deaconfire_Q_Golden",
            "HAOFGIEJMML": [
                {
                    "CFCKHOOOBPG": 2.4800000190734863,
                    "actionGroups": [
                        {
                            "actions": [
                                {
                                    "$type": "GOKPBABANJE",
                                    "JLJOPNPLCOO": {
                                        "target": "Actor"
                                    }
                                },
                                {
                                    "$type": "MHIAHFHBBJN",
                                    "JLJOPNPLCOO": {
                                        "target": "Actor"
                                    }
                                },
                                {
                                    "$type": "OBCLEKPPLAA",
                                    "JLJOPNPLCOO": {
                                        "target": "Actor"
                                    }
                                },
                                {
                                    "$type": "PCFMADBJCHP",
                                    "JLJOPNPLCOO": {
                                        "target": "Actor"
                                    },
                                    "effectName": "Eff_Gcg_Monster_DeaconFire_ElementalBurst_Spine",
                                    "JGFDJMMGIPG": true,
                                    "FLFKIHBJGJE": "",
                                    "ACOBJHDOLCH": "",
                                    "KELBFLFDAOI": {
                                        "$type": "IOFNKGGHMIG"
                                    }
                                }
                            ]
                        }
                    ]
                },
                {
                    "CFCKHOOOBPG": 0.9200000166893005,
                    "actionGroups": [
                        {
                            "actions": [
                                {
                                    "$type": "PCFMADBJCHP",
                                    "JLJOPNPLCOO": {
                                        "target": "Actor"
                                    },
                                    "effectName": "Eff_Gcg_Monster_DeaconFire_ElementalBurst_Spine_Weapon",
                                    "JGFDJMMGIPG": true,
                                    "PPACHBEALIN": true,
                                    "FLFKIHBJGJE": "Gcg_CardFace_Char_Monster_DeaconFire_Spine",
                                    "ACOBJHDOLCH": "EffectRoot_Weapons_02",
                                    "KELBFLFDAOI": {
                                        "$type": "IOFNKGGHMIG"
                                    }
                                }
                            ]
                        }
                    ]
                },
                {
                    "CFCKHOOOBPG": 0.699999988079071,
                    "actionGroups": [
                        {
                            "actions": [
                                {
                                    "$type": "PCFMADBJCHP",
                                    "JLJOPNPLCOO": {
                                        "target": "MainTarget"
                                    },
                                    "effectName": "Eff_Gcg_Monster_DeaconFire_ElementalBurst_Hit",
                                    "FLFKIHBJGJE": "",
                                    "ACOBJHDOLCH": "",
                                    "KELBFLFDAOI": {
                                        "$type": "INECFAJHLGF"
                                    },
                                    "PMFEDHGLPEG": "HorizontalAxisFlip"
                                },
                                {
                                    "$type": "PCFMADBJCHP",
                                    "JLJOPNPLCOO": {
                                        "target": "Actor"
                                    },
                                    "effectName": "Eff_Gcg_Monster_DeaconFire_ElementalBurst_BS",
                                    "FLFKIHBJGJE": "",
                                    "ACOBJHDOLCH": "",
                                    "KELBFLFDAOI": {
                                        "$type": "IOFNKGGHMIG"
                                    }
                                }
                            ]
                        }
                    ]
                },
                {
                    "CFCKHOOOBPG": 1.7000000476837158,
                    "actionGroups": [
                        {
                            "actions": [
                                {
                                    "$type": "CIBBIEBMNKC",
                                    "JLJOPNPLCOO": {
                                        "target": "AllTarget"
                                    }
                                }
                            ]
                        }
                    ]
                },
                {
                    "CFCKHOOOBPG": 0.029999999329447746,
                    "actionGroups": [
                        {
                            "actions": [
                                {
                                    "$type": "PCFMADBJCHP",
                                    "JLJOPNPLCOO": {
                                        "target": "Actor"
                                    },
                                    "effectName": "Eff_Gcg_Common_Spine_ReturnToLoop",
                                    "JGFDJMMGIPG": true,
                                    "FLFKIHBJGJE": "",
                                    "ACOBJHDOLCH": "",
                                    "KELBFLFDAOI": {
                                        "$type": "IOFNKGGHMIG"
                                    }
                                }
                            ]
                        }
                    ]
                },
                {
                    "actionGroups": [
                        {
                            "actions": [
                                {
                                    "$type": "GOKPBABANJE",
                                    "JLJOPNPLCOO": {
                                        "target": "Actor"
                                    },
                                    "BFFLAADCGJO": true
                                },
                                {
                                    "$type": "MHIAHFHBBJN",
                                    "JLJOPNPLCOO": {
                                        "target": "Actor"
                                    },
                                    "BFFLAADCGJO": true
                                }
                            ]
                        }
                    ]
                }
            ],
            "EEPPONJEKGG": [
                {
                    "actionGroups": [
                        {
                            "actions": [
                                {
                                    "$type": "LKMCEDJPAII",
                                    "JLJOPNPLCOO": {
                                        "target": "MainTarget"
                                    },
                                    "MBAOFEAIJKB": "Common_ShakeScreen_Test_Q"
                                }
                            ]
                        }
                    ]
                }
            ]
        }
    ]
}