{
    "PIMNJPJLLLA": [
        {
            "name": "Character_Qin_Q_Golden",
            "CPMGOHGFIGF": 1.7000000476837158,
            "LGJOLAPBLAK": 1.7000000476837158,
            "HAOFGIEJMML": [
                {
                    "CFCKHOOOBPG": 2.450000047683716,
                    "actionGroups": [
                        {
                            "actions": [
                                {
                                    "$type": "GOKPBABANJE",
                                    "JLJOPNPLCOO": {
                                        "target": "Actor"
                                    }
                                },
                                {
                                    "$type": "MHIAHFHBBJN",
                                    "JLJOPNPLCOO": {
                                        "target": "Actor"
                                    }
                                },
                                {
                                    "$type": "OBCLEKPPLAA",
                                    "JLJOPNPLCOO": {
                                        "target": "Actor"
                                    }
                                },
                                {
                                    "$type": "PCFMADBJCHP",
                                    "JLJOPNPLCOO": {
                                        "target": "Actor"
                                    },
                                    "effectName": "Eff_Gcg_Avatar_Qin_ElementalBurst_Spine",
                                    "JGFDJMMGIPG": true,
                                    "FLFKIHBJGJE": "",
                                    "ACOBJHDOLCH": "",
                                    "KELBFLFDAOI": {
                                        "$type": "IOFNKGGHMIG"
                                    }
                                }
                            ]
                        }
                    ]
                },
                {
                    "CFCKHOOOBPG": 0.3499999940395355,
                    "actionGroups": [
                        {
                            "actions": [
                                {
                                    "$type": "PCFMADBJCHP",
                                    "JLJOPNPLCOO": {
                                        "target": "Actor"
                                    },
                                    "effectName": "Eff_Gcg_Avatar_Qin_ElementalBurst",
                                    "FLFKIHBJGJE": "",
                                    "ACOBJHDOLCH": "",
                                    "KELBFLFDAOI": {
                                        "$type": "IOFNKGGHMIG"
                                    }
                                }
                            ]
                        }
                    ]
                },
                {
                    "CFCKHOOOBPG": 2.1700000762939453,
                    "actionGroups": [
                        {
                            "actions": [
                                {
                                    "$type": "CIBBIEBMNKC",
                                    "JLJOPNPLCOO": {
                                        "target": "AllTarget"
                                    }
                                }
                            ]
                        }
                    ]
                },
                {
                    "CFCKHOOOBPG": 0.029999999329447746,
                    "actionGroups": [
                        {
                            "actions": [
                                {
                                    "$type": "PCFMADBJCHP",
                                    "JLJOPNPLCOO": {
                                        "target": "Actor"
                                    },
                                    "effectName": "Eff_Gcg_Common_Spine_ReturnToLoop",
                                    "JGFDJMMGIPG": true,
                                    "FLFKIHBJGJE": "",
                                    "ACOBJHDOLCH": "",
                                    "KELBFLFDAOI": {
                                        "$type": "IOFNKGGHMIG"
                                    }
                                }
                            ]
                        }
                    ]
                },
                {
                    "actionGroups": [
                        {
                            "actions": [
                                {
                                    "$type": "GOKPBABANJE",
                                    "JLJOPNPLCOO": {
                                        "target": "Actor"
                                    },
                                    "BFFLAADCGJO": true
                                },
                                {
                                    "$type": "MHIAHFHBBJN",
                                    "JLJOPNPLCOO": {
                                        "target": "Actor"
                                    },
                                    "BFFLAADCGJO": true
                                }
                            ]
                        }
                    ]
                }
            ],
            "EEPPONJEKGG": [
                {
                    "actionGroups": [
                        {
                            "actions": [
                                {
                                    "$type": "PCFMADBJCHP",
                                    "JLJOPNPLCOO": {
                                        "target": "ContextTarget"
                                    },
                                    "effectName": "Eff_Gcg_Common_ElementalArt_Healing_Hit",
                                    "FLFKIHBJGJE": "",
                                    "ACOBJHDOLCH": "",
                                    "KELBFLFDAOI": {
                                        "$type": "IOFNKGGHMIG"
                                    }
                                }
                            ]
                        }
                    ]
                }
            ]
        }
    ]
}