{
    "name": "Char_Skill_12012",
    "CLFPJIMIPNN": {
        "-2060930438": {
            "$type": "PFBEFBBHHEL",
            "value": 1
        },
        "476224977": {
            "$type": "LHDIOMALHHF",
            "type": "Element",
            "ratio": "GCG_ELEMENT_HYDRO"
        }
    }
}