{
    "DEHOHGEKLCM": 5132,
    "FCDJDFBMHCP": {
        "ABHLNOAFHCG": [
            {
                "NICFGAAPFAB": [
                    31101
                ],
                "ODMDBBJGDDI": false,
                "FMOPMCALPMB": [
                    {
                        "$type": "FEMLKMFNLDJ",
                        "OFBOONPFEMC": "UI_ACTIVITY_SORUSHTRIAL_QUEST1"
                    }
                ],
                "CLINDKFOBKM": [
                    {
                        "$type": "FEMLKMFNLDJ",
                        "OFBOONPFEMC": "UI_ACTIVITY_SORUSHTRIAL_QUEST1"
                    }
                ],
                "CDCCEJDBIGL": false
            },
            {
                "NICFGAAPFAB": [
                    73238
                ],
                "AFEPAGBPMNI": [
                    {
                        "$type": "KNGKGMPNHFF",
                        "HPONBEAMIID": false,
                        "AGBEPGHMNHI": 7323801
                    }
                ],
                "FMOPMCALPMB": [
                    {
                        "$type": "HOGABOLFFGK",
                        "IHMPMMJGLDM": "",
                        "GDOAGOCEFJM": ""
                    }
                ],
                "PGKKDGKLGEG": [
                    {
                        "$type": "EIJOBNFKFPI",
                        "HPONBEAMIID": false
                    }
                ],
                "CLINDKFOBKM": [
                    {
                        "$type": "HOGABOLFFGK",
                        "IHMPMMJGLDM": "",
                        "GDOAGOCEFJM": ""
                    }
                ],
                "CDCCEJDBIGL": false
            },
            {
                "NICFGAAPFAB": [
                    73235
                ],
                "OCCBAKNOBEK": [
                    {
                        "$type": "HBLDOFKGPJL"
                    }
                ],
                "AFEPAGBPMNI": [
                    {
                        "$type": "EIJOBNFKFPI",
                        "HPONBEAMIID": false
                    }
                ],
                "FMOPMCALPMB": [
                    {
                        "$type": "HOGABOLFFGK",
                        "IHMPMMJGLDM": "",
                        "GDOAGOCEFJM": ""
                    }
                ],
                "PGKKDGKLGEG": [
                    {
                        "$type": "EIJOBNFKFPI",
                        "HPONBEAMIID": false
                    }
                ],
                "CLINDKFOBKM": [
                    {
                        "$type": "HOGABOLFFGK",
                        "IHMPMMJGLDM": "",
                        "GDOAGOCEFJM": ""
                    }
                ],
                "CDCCEJDBIGL": false
            },
            {
                "NICFGAAPFAB": [
                    73231
                ],
                "OCCBAKNOBEK": [
                    {
                        "$type": "HBLDOFKGPJL"
                    }
                ],
                "AFEPAGBPMNI": [
                    {
                        "$type": "EIJOBNFKFPI",
                        "HPONBEAMIID": false
                    }
                ],
                "FMOPMCALPMB": [
                    {
                        "$type": "HOGABOLFFGK",
                        "IHMPMMJGLDM": "",
                        "GDOAGOCEFJM": ""
                    }
                ],
                "PGKKDGKLGEG": [
                    {
                        "$type": "EIJOBNFKFPI",
                        "HPONBEAMIID": false
                    }
                ],
                "CLINDKFOBKM": [
                    {
                        "$type": "HOGABOLFFGK",
                        "IHMPMMJGLDM": "",
                        "GDOAGOCEFJM": ""
                    }
                ],
                "CDCCEJDBIGL": false
            },
            {
                "NICFGAAPFAB": [
                    7325144
                ],
                "ODMDBBJGDDI": false,
                "OCCBAKNOBEK": [
                    {
                        "$type": "HBLDOFKGPJL"
                    }
                ],
                "AFEPAGBPMNI": [
                    {
                        "$type": "EIJOBNFKFPI",
                        "HPONBEAMIID": false
                    }
                ],
                "FMOPMCALPMB": [
                    {
                        "$type": "HOGABOLFFGK",
                        "IHMPMMJGLDM": "UI_ACTIVITY_SORUSHTRIAL_QUEST2",
                        "GDOAGOCEFJM": ""
                    }
                ],
                "PGKKDGKLGEG": [
                    {
                        "$type": "EIJOBNFKFPI",
                        "HPONBEAMIID": false
                    }
                ],
                "CLINDKFOBKM": [
                    {
                        "$type": "HOGABOLFFGK",
                        "IHMPMMJGLDM": "UI_ACTIVITY_SORUSHTRIAL_QUEST2",
                        "GDOAGOCEFJM": ""
                    }
                ],
                "CDCCEJDBIGL": false
            }
        ],
        "CLHMGPMFJHF": "UI_ACTIVITY_QUICK_START_TITLE",
        "GCCCDPCPHDJ": "UI_ACTIVITY_SORUSHTRIAL_QUICKSTART_CONTENT",
        "ADAHGMCEDPO": [
            [
                73238
            ],
            [
                73235,
                73231,
                73251
            ]
        ]
    }
}