{
    "name": "Char_Skill_13023",
    "CLFPJIMIPNN": {
        "-2060930438": {
            "$type": "PFBEFBBHHEL",
            "value": 3
        },
        "476224977": {
            "$type": "LHDIOMALHHF",
            "type": "Element",
            "ratio": "GCG_ELEMENT_PYRO"
        }
    }
}