{
    "GFKMEPOHKHE": {
        "335652797": 2147483647,
        "335658736": 15,
        "335658737": 2147483648,
        "335658739": 268370175,
        "335658740": 4294967295,
        "335658744": 67043583,
        "335658746": 14,
        "335658751": 786432,
        "335660733": 4294967295,
        "335674859": 4294967295,
        "335674860": 4294967295,
        "335674861": 4294967295
    },
    "MNMEGBDLPPG": [
        {
            "KACECHPPNMP": [
                335544419,
                335544420,
                335650715,
                335651395,
                335652797,
                335658724,
                335658726,
                335658731,
                335658732,
                335658733,
                335658735,
                335658736,
                335658737,
                335658738,
                335658739,
                335658740,
                335658744,
                335658914,
                335658915,
                335658917,
                335658918,
                335660727,
                335660731,
                335660732,
                335660733,
                335665665,
                335665666,
                335665667,
                335665668,
                335671686,
                335672031,
                335674859,
                335674860,
                335674865
            ]
        }
    ],
    "LPPBIOKHDCA": [
        335544419,
        335544420,
        335650715,
        335651395,
        335652797,
        335658724,
        335658726,
        335658731,
        335658732,
        335658733,
        335658735,
        335658736,
        335658737,
        335658738,
        335658739,
        335658740,
        335658741,
        335658744,
        335658746,
        335658748,
        335658749,
        335658751,
        335658914,
        335658915,
        335658916,
        335658917,
        335658918,
        335660727,
        335660728,
        335660731,
        335660732,
        335660733,
        335665665,
        335665666,
        335665667,
        335665668,
        335671686,
        335672031,
        335674859,
        335674860,
        335674861,
        335674865
    ]
}