{
    "gadgetId": 0,
    "areaId": 0,
    "pos": {
        "y": 1.58457609512212e+29
    },
    "KLBEFMLGCJN": [
        {
            "x": -1042.32861328125,
            "y": 130.25018310546875,
            "z": 5115.54052734375
        },
        {
            "x": -1087.123046875,
            "y": 203.56033325195312,
            "z": 4360.8828125
        },
        {
            "x": -778.8106689453125,
            "y": 163.57449340820312,
            "z": 4131.58251953125
        },
        {
            "x": -381.09698486328125,
            "y": 241.9420166015625,
            "z": 4210.44482421875
        },
        {
            "x": -352.16485595703125,
            "y": 207.6443328857422,
            "z": 4980.7822265625
        },
        {
            "x": -572.3614501953125,
            "y": 254.14010620117188,
            "z": 5115.49365234375
        }
    ]
}