{
    "name": "Char_Skill_16034",
    "CLFPJIMIPNN": {
        "-2060930438": {
            "$type": "PFBEFBBHHEL",
            "value": 4
        },
        "476224977": {
            "$type": "LHDIOMALHHF",
            "type": "Element",
            "ratio": "GCG_ELEMENT_GEO"
        }
    }
}