{
    "id": 15,
    "sceneId": 3,
    "CNOKAIMCPEA": [
        {
            "$type": "FOAHBDLDFMK",
            "id": 1501,
            "MOKBANBFGAA": [
                {
                    "minArea": {
                        "x": -532.609130859375,
                        "y": 144.14230346679688,
                        "z": 2284.837158203125
                    },
                    "maxArea": {
                        "x": -420.8878479003906,
                        "y": 203.47674560546875,
                        "z": 2392.880615234375
                    },
                    "roadPoints": [
                        {
                            "x": -521.273681640625,
                            "y": 144.14230346679688,
                            "z": 2392.880615234375
                        },
                        {
                            "x": -490.0145263671875,
                            "y": 144.14230346679688,
                            "z": 2382.2177734375
                        },
                        {
                            "x": -472.76495361328125,
                            "y": 144.14230346679688,
                            "z": 2347.68603515625
                        },
                        {
                            "x": -449.1047668457031,
                            "y": 144.14230346679688,
                            "z": 2326.62744140625
                        },
                        {
                            "x": -420.8878479003906,
                            "y": 144.14230346679688,
                            "z": 2323.242431640625
                        },
                        {
                            "x": -434.3689270019531,
                            "y": 144.14230346679688,
                            "z": 2284.837158203125
                        },
                        {
                            "x": -477.00701904296875,
                            "y": 144.14230346679688,
                            "z": 2302.197265625
                        },
                        {
                            "x": -497.25042724609375,
                            "y": 144.14230346679688,
                            "z": 2327.452392578125
                        },
                        {
                            "x": -521.456298828125,
                            "y": 144.14230346679688,
                            "z": 2334.33544921875
                        },
                        {
                            "x": -532.609130859375,
                            "y": 144.14230346679688,
                            "z": 2385.9228515625
                        }
                    ]
                },
                {
                    "minArea": {
                        "x": -448.45172119140625,
                        "y": 100.88335418701172,
                        "z": 2169.652587890625
                    },
                    "maxArea": {
                        "x": -210.8296661376953,
                        "y": 201.48699951171875,
                        "z": 2324.8232421875
                    },
                    "roadPoints": [
                        {
                            "x": -429.7818298339844,
                            "y": 100.88335418701172,
                            "z": 2324.8232421875
                        },
                        {
                            "x": -448.45172119140625,
                            "y": 100.88335418701172,
                            "z": 2298.77001953125
                        },
                        {
                            "x": -445.99560546875,
                            "y": 100.88335418701172,
                            "z": 2223.8828125
                        },
                        {
                            "x": -368.1201171875,
                            "y": 100.88335418701172,
                            "z": 2201.1904296875
                        },
                        {
                            "x": -299.67242431640625,
                            "y": 100.88335418701172,
                            "z": 2169.652587890625
                        },
                        {
                            "x": -217.53453063964844,
                            "y": 100.88335418701172,
                            "z": 2182.525390625
                        },
                        {
                            "x": -210.8296661376953,
                            "y": 100.88335418701172,
                            "z": 2231.172119140625
                        },
                        {
                            "x": -251.2599639892578,
                            "y": 100.88335418701172,
                            "z": 2248.338134765625
                        },
                        {
                            "x": -296.193115234375,
                            "y": 100.88335418701172,
                            "z": 2277.338134765625
                        },
                        {
                            "x": -362.0688171386719,
                            "y": 100.88335418701172,
                            "z": 2308.681396484375
                        },
                        {
                            "x": -415.2115478515625,
                            "y": 100.88335418701172,
                            "z": 2320.700439453125
                        }
                    ]
                },
                {
                    "minArea": {
                        "x": -312.4789733886719,
                        "y": 146.66835021972656,
                        "z": 2234.1787109375
                    },
                    "maxArea": {
                        "x": -185.02490234375,
                        "y": 220.06295776367188,
                        "z": 2297.80419921875
                    },
                    "roadPoints": [
                        {
                            "x": -312.4789733886719,
                            "y": 146.66835021972656,
                            "z": 2288.66748046875
                        },
                        {
                            "x": -303.32568359375,
                            "y": 146.66835021972656,
                            "z": 2267.162109375
                        },
                        {
                            "x": -260.5024719238281,
                            "y": 146.66835021972656,
                            "z": 2261.056640625
                        },
                        {
                            "x": -236.74781799316406,
                            "y": 146.66835021972656,
                            "z": 2234.1787109375
                        },
                        {
                            "x": -185.02490234375,
                            "y": 146.66835021972656,
                            "z": 2260.781494140625
                        },
                        {
                            "x": -193.0225067138672,
                            "y": 146.66835021972656,
                            "z": 2279.58984375
                        },
                        {
                            "x": -210.36224365234375,
                            "y": 146.66835021972656,
                            "z": 2274.80322265625
                        },
                        {
                            "x": -226.8081512451172,
                            "y": 146.66835021972656,
                            "z": 2268.4345703125
                        },
                        {
                            "x": -245.1526336669922,
                            "y": 146.66835021972656,
                            "z": 2288.2021484375
                        },
                        {
                            "x": -273.41839599609375,
                            "y": 146.66835021972656,
                            "z": 2297.80419921875
                        },
                        {
                            "x": -300.4693908691406,
                            "y": 146.66835021972656,
                            "z": 2290.9541015625
                        }
                    ]
                },
                {
                    "minArea": {
                        "x": -228.08139038085938,
                        "y": 218.65579223632812,
                        "z": 2237.837646484375
                    },
                    "maxArea": {
                        "x": -183.7674102783203,
                        "y": 237.6446533203125,
                        "z": 2281.88720703125
                    },
                    "roadPoints": [
                        {
                            "x": -193.1806640625,
                            "y": 218.65579223632812,
                            "z": 2276.929443359375
                        },
                        {
                            "x": -183.7674102783203,
                            "y": 218.65579223632812,
                            "z": 2263.636474609375
                        },
                        {
                            "x": -185.2620391845703,
                            "y": 218.65579223632812,
                            "z": 2252.976318359375
                        },
                        {
                            "x": -205.05062866210938,
                            "y": 218.65579223632812,
                            "z": 2237.837646484375
                        },
                        {
                            "x": -228.08139038085938,
                            "y": 218.65579223632812,
                            "z": 2266.5673828125
                        },
                        {
                            "x": -219.7694091796875,
                            "y": 218.65579223632812,
                            "z": 2281.88720703125
                        }
                    ]
                }
            ],
            "BEFDGNHALBH": [
                {
                    "id": 15010001,
                    "type": "REGION_ENTRANCE",
                    "pos": {
                        "x": -508.0777282714844,
                        "y": 185.91880798339844,
                        "z": 2368.7724609375
                    },
                    "CKMGECMFNGD": {
                        "offset": {
                            "y": 1.0
                        }
                    },
                    "LCPFEPOFHGN": "LOGIC_AND",
                    "PEIIAMFBJNI": [
                        15010002
                    ],
                    "CGHPEGECFMD": 4294967295,
                    "AFDHFAJPGMA": 4294967295
                }
            ],
            "DENGLHDNJHH": true
        }
    ]
}