{
    "name": "Char_Skill_35023",
    "CLFPJIMIPNN": {
        "-2060930438": {
            "$type": "PFBEFBBHHEL",
            "value": 3
        },
        "476224977": {
            "$type": "LHDIOMALHHF",
            "type": "Element",
            "ratio": "GCG_ELEMENT_ANEMO"
        },
        "-1197212178": {
            "$type": "DLEPODELEAJ",
            "type": "EffectNum",
            "value": 1
        }
    }
}