{
    "FLHJFHBJMKE": 1,
    "OIFKLNCALLJ": 1,
    "CFFJNELNLDP": [
        {
            "CNMNLBLGNOO": 1,
            "AEAPFIJNNMK": 1,
            "DKCGJMGPMCL": {
                "x": -47.0,
                "y": 1.0
            },
            "KFBIGLKAKCG": {
                "y": 90.0
            },
            "LOJGNLAIEIN": {
                "CNFKHMALDAA": {
                    "x": -78.0,
                    "z": -20.0
                },
                "HACCHHCGBOC": {
                    "x": 60.0,
                    "y": 40.0,
                    "z": 40.0
                },
                "KGAFDKJLHFF": 400,
                "NOBKHGBPEMP": [
                    2
                ]
            },
            "KAEMLBJAMKB": [
                {
                    "index": 1,
                    "CPPMJPLHCKJ": {
                        "z": 17.0
                    },
                    "JPJOENGPAOP": [
                        "Prop"
                    ],
                    "AAHBCHCKKFF": true,
                    "configID": 1003
                },
                {
                    "index": 2,
                    "CPPMJPLHCKJ": {
                        "x": 30.0,
                        "z": 17.0
                    },
                    "AAHBCHCKKFF": true,
                    "configID": 1004
                },
                {
                    "index": 3,
                    "CPPMJPLHCKJ": {
                        "x": 7.0,
                        "z": 13.0
                    },
                    "AAHBCHCKKFF": true,
                    "configID": 1004
                },
                {
                    "index": 4,
                    "CPPMJPLHCKJ": {
                        "x": 25.0,
                        "z": 35.0
                    },
                    "AAHBCHCKKFF": true,
                    "configID": 2003,
                    "MNCDDOLAGKA": {
                        "y": 90.0
                    }
                },
                {
                    "index": 5,
                    "CPPMJPLHCKJ": {
                        "x": 42.0,
                        "y": 5.0,
                        "z": 17.0
                    },
                    "AAHBCHCKKFF": true,
                    "configID": 2001
                },
                {
                    "index": 6,
                    "CPPMJPLHCKJ": {
                        "y": 5.0,
                        "z": 35.0
                    },
                    "AAHBCHCKKFF": true,
                    "configID": 2002
                },
                {
                    "index": 7,
                    "CPPMJPLHCKJ": {
                        "x": 41.0,
                        "z": 17.0
                    },
                    "AAHBCHCKKFF": true,
                    "configID": 2003,
                    "MNCDDOLAGKA": {
                        "y": 90.0
                    }
                },
                {
                    "index": 8,
                    "CPPMJPLHCKJ": {
                        "x": 20.0,
                        "z": 9.0
                    },
                    "AAHBCHCKKFF": true,
                    "configID": 2003
                },
                {
                    "index": 9,
                    "CPPMJPLHCKJ": {
                        "x": 36.0,
                        "z": 17.0
                    },
                    "AAHBCHCKKFF": true,
                    "configID": 2004,
                    "MNCDDOLAGKA": {
                        "y": 90.0
                    }
                },
                {
                    "index": 10,
                    "CPPMJPLHCKJ": {
                        "z": 30.0
                    },
                    "AAHBCHCKKFF": true,
                    "configID": 2003
                },
                {
                    "index": 11,
                    "CPPMJPLHCKJ": {
                        "x": 15.0,
                        "y": 5.0
                    },
                    "AAHBCHCKKFF": true,
                    "configID": 2002
                },
                {
                    "index": 12,
                    "CPPMJPLHCKJ": {
                        "x": 42.0,
                        "z": 28.0
                    },
                    "AAHBCHCKKFF": true,
                    "configID": 2004,
                    "MNCDDOLAGKA": {
                        "y": 180.0
                    }
                },
                {
                    "index": 13,
                    "CPPMJPLHCKJ": {
                        "x": 42.0,
                        "z": 27.0
                    },
                    "AAHBCHCKKFF": true,
                    "configID": 2003
                },
                {
                    "index": 14,
                    "CPPMJPLHCKJ": {
                        "y": 5.0,
                        "z": 30.0
                    },
                    "AAHBCHCKKFF": true,
                    "configID": 2002
                },
                {
                    "index": 15,
                    "CPPMJPLHCKJ": {
                        "x": 47.0,
                        "z": 17.0
                    },
                    "AAHBCHCKKFF": true,
                    "configID": 2003,
                    "MNCDDOLAGKA": {
                        "y": 90.0
                    }
                },
                {
                    "index": 16,
                    "CPPMJPLHCKJ": {
                        "x": 5.0,
                        "y": 5.0,
                        "z": 30.0
                    },
                    "AAHBCHCKKFF": true,
                    "configID": 2002
                },
                {
                    "index": 17,
                    "CPPMJPLHCKJ": {
                        "x": 10.0,
                        "y": 5.0,
                        "z": 5.0
                    },
                    "AAHBCHCKKFF": true,
                    "configID": 2002
                },
                {
                    "index": 18,
                    "CPPMJPLHCKJ": {
                        "z": 9.0
                    },
                    "AAHBCHCKKFF": true,
                    "configID": 2003
                },
                {
                    "index": 19,
                    "CPPMJPLHCKJ": {
                        "x": 20.0,
                        "y": 5.0,
                        "z": 35.0
                    },
                    "AAHBCHCKKFF": true,
                    "configID": 2002
                },
                {
                    "index": 20,
                    "CPPMJPLHCKJ": {
                        "x": 41.0,
                        "z": 12.0
                    },
                    "AAHBCHCKKFF": true,
                    "configID": 2003,
                    "MNCDDOLAGKA": {
                        "y": 90.0
                    }
                },
                {
                    "index": 21,
                    "CPPMJPLHCKJ": {
                        "x": 42.0,
                        "z": 12.0
                    },
                    "AAHBCHCKKFF": true,
                    "configID": 2001
                },
                {
                    "index": 22,
                    "CPPMJPLHCKJ": {
                        "x": 15.0,
                        "y": 5.0,
                        "z": 35.0
                    },
                    "AAHBCHCKKFF": true,
                    "configID": 2002
                },
                {
                    "index": 23,
                    "CPPMJPLHCKJ": {
                        "x": 20.0,
                        "y": 5.0,
                        "z": 30.0
                    },
                    "AAHBCHCKKFF": true,
                    "configID": 2002
                },
                {
                    "index": 24,
                    "CPPMJPLHCKJ": {
                        "x": 41.0,
                        "z": 22.0
                    },
                    "AAHBCHCKKFF": true,
                    "configID": 2003,
                    "MNCDDOLAGKA": {
                        "y": 90.0
                    }
                },
                {
                    "index": 25,
                    "CPPMJPLHCKJ": {
                        "x": 42.0,
                        "z": 17.0
                    },
                    "AAHBCHCKKFF": true,
                    "configID": 2001
                },
                {
                    "index": 26,
                    "CPPMJPLHCKJ": {
                        "y": 5.0,
                        "z": 5.0
                    },
                    "AAHBCHCKKFF": true,
                    "configID": 2002
                },
                {
                    "index": 27,
                    "CPPMJPLHCKJ": {
                        "x": 47.0,
                        "y": 5.0,
                        "z": 17.0
                    },
                    "AAHBCHCKKFF": true,
                    "configID": 2003,
                    "MNCDDOLAGKA": {
                        "y": 90.0
                    }
                },
                {
                    "index": 28,
                    "CPPMJPLHCKJ": {
                        "x": 42.0,
                        "y": 5.0,
                        "z": 16.0
                    },
                    "AAHBCHCKKFF": true,
                    "configID": 2003
                },
                {
                    "index": 29,
                    "CPPMJPLHCKJ": {
                        "x": 10.0,
                        "y": 5.0,
                        "z": 35.0
                    },
                    "AAHBCHCKKFF": true,
                    "configID": 2002
                },
                {
                    "index": 30,
                    "CPPMJPLHCKJ": {
                        "x": 42.0,
                        "y": 10.0,
                        "z": 17.0
                    },
                    "AAHBCHCKKFF": true,
                    "configID": 2001
                },
                {
                    "index": 31,
                    "CPPMJPLHCKJ": {
                        "x": 5.0,
                        "y": 5.0,
                        "z": 35.0
                    },
                    "AAHBCHCKKFF": true,
                    "configID": 2002
                },
                {
                    "index": 32,
                    "CPPMJPLHCKJ": {
                        "x": 10.0,
                        "y": 5.0
                    },
                    "AAHBCHCKKFF": true,
                    "configID": 2002
                },
                {
                    "index": 33,
                    "CPPMJPLHCKJ": {
                        "x": 42.0,
                        "z": 6.0
                    },
                    "AAHBCHCKKFF": true,
                    "configID": 2004
                },
                {
                    "index": 34,
                    "CPPMJPLHCKJ": {
                        "x": 25.0
                    },
                    "AAHBCHCKKFF": true,
                    "configID": 2003,
                    "MNCDDOLAGKA": {
                        "y": 90.0
                    }
                },
                {
                    "index": 35,
                    "CPPMJPLHCKJ": {
                        "x": 41.0,
                        "y": 5.0,
                        "z": 17.0
                    },
                    "AAHBCHCKKFF": true,
                    "configID": 2003,
                    "MNCDDOLAGKA": {
                        "y": 90.0
                    }
                },
                {
                    "index": 36,
                    "CPPMJPLHCKJ": {
                        "y": 5.0
                    },
                    "AAHBCHCKKFF": true,
                    "configID": 2002
                },
                {
                    "index": 37,
                    "CPPMJPLHCKJ": {
                        "x": 20.0,
                        "z": 30.0
                    },
                    "AAHBCHCKKFF": true,
                    "configID": 2003
                },
                {
                    "index": 38,
                    "CPPMJPLHCKJ": {
                        "x": 15.0,
                        "z": 9.0
                    },
                    "AAHBCHCKKFF": true,
                    "configID": 2003
                },
                {
                    "index": 39,
                    "CPPMJPLHCKJ": {
                        "x": 25.0,
                        "z": 5.0
                    },
                    "AAHBCHCKKFF": true,
                    "configID": 2003,
                    "MNCDDOLAGKA": {
                        "y": 90.0
                    }
                },
                {
                    "index": 40,
                    "CPPMJPLHCKJ": {
                        "x": 10.0,
                        "y": 5.0,
                        "z": 30.0
                    },
                    "AAHBCHCKKFF": true,
                    "configID": 2002
                },
                {
                    "index": 41,
                    "CPPMJPLHCKJ": {
                        "x": 42.0,
                        "y": 5.0,
                        "z": 22.0
                    },
                    "AAHBCHCKKFF": true,
                    "configID": 2003
                },
                {
                    "index": 42,
                    "CPPMJPLHCKJ": {
                        "x": 25.0,
                        "z": 30.0
                    },
                    "AAHBCHCKKFF": true,
                    "configID": 2003,
                    "MNCDDOLAGKA": {
                        "y": 90.0
                    }
                },
                {
                    "index": 43,
                    "CPPMJPLHCKJ": {
                        "x": 5.0,
                        "y": 5.0,
                        "z": 5.0
                    },
                    "AAHBCHCKKFF": true,
                    "configID": 2002
                },
                {
                    "index": 44,
                    "CPPMJPLHCKJ": {
                        "x": 47.0,
                        "z": 22.0
                    },
                    "AAHBCHCKKFF": true,
                    "configID": 2003,
                    "MNCDDOLAGKA": {
                        "y": 90.0
                    }
                },
                {
                    "index": 45,
                    "CPPMJPLHCKJ": {
                        "x": 5.0,
                        "z": 9.0
                    },
                    "AAHBCHCKKFF": true,
                    "configID": 2003
                },
                {
                    "index": 46,
                    "CPPMJPLHCKJ": {
                        "x": 20.0,
                        "y": 5.0
                    },
                    "AAHBCHCKKFF": true,
                    "configID": 2002
                },
                {
                    "index": 47,
                    "CPPMJPLHCKJ": {
                        "x": 42.0,
                        "z": 11.0
                    },
                    "AAHBCHCKKFF": true,
                    "configID": 2003
                },
                {
                    "index": 48,
                    "CPPMJPLHCKJ": {
                        "x": 41.0,
                        "z": 36.0
                    },
                    "AAHBCHCKKFF": true,
                    "configID": 3008
                },
                {
                    "index": 49,
                    "CPPMJPLHCKJ": {
                        "x": 10.0,
                        "z": 9.0
                    },
                    "AAHBCHCKKFF": true,
                    "configID": 2003
                },
                {
                    "index": 50,
                    "CPPMJPLHCKJ": {
                        "x": 15.0,
                        "z": 30.0
                    },
                    "AAHBCHCKKFF": true,
                    "configID": 2003
                },
                {
                    "index": 51,
                    "CPPMJPLHCKJ": {
                        "x": 10.0,
                        "z": 30.0
                    },
                    "AAHBCHCKKFF": true,
                    "configID": 2003
                },
                {
                    "index": 52,
                    "CPPMJPLHCKJ": {
                        "x": 20.0,
                        "y": 5.0,
                        "z": 5.0
                    },
                    "AAHBCHCKKFF": true,
                    "configID": 2002
                },
                {
                    "index": 53,
                    "CPPMJPLHCKJ": {
                        "x": 15.0,
                        "y": 5.0,
                        "z": 5.0
                    },
                    "AAHBCHCKKFF": true,
                    "configID": 2002
                },
                {
                    "index": 54,
                    "CPPMJPLHCKJ": {
                        "x": 5.0,
                        "z": 30.0
                    },
                    "AAHBCHCKKFF": true,
                    "configID": 2003
                },
                {
                    "index": 55,
                    "CPPMJPLHCKJ": {
                        "x": 42.0,
                        "z": 22.0
                    },
                    "AAHBCHCKKFF": true,
                    "configID": 2001
                },
                {
                    "index": 56,
                    "CPPMJPLHCKJ": {
                        "x": 15.0,
                        "y": 5.0,
                        "z": 30.0
                    },
                    "AAHBCHCKKFF": true,
                    "configID": 2002
                },
                {
                    "index": 57,
                    "CPPMJPLHCKJ": {
                        "x": 5.0,
                        "y": 5.0
                    },
                    "AAHBCHCKKFF": true,
                    "configID": 2002
                },
                {
                    "index": 58,
                    "CPPMJPLHCKJ": {
                        "x": 47.0,
                        "z": 12.0
                    },
                    "AAHBCHCKKFF": true,
                    "configID": 2003,
                    "MNCDDOLAGKA": {
                        "y": 90.0
                    }
                }
            ]
        },
        {
            "CNMNLBLGNOO": 2,
            "AEAPFIJNNMK": 2,
            "DKCGJMGPMCL": {
                "x": 37.29999923706055
            },
            "KFBIGLKAKCG": {
                "y": 90.0
            },
            "LOJGNLAIEIN": {
                "CNFKHMALDAA": {
                    "x": 38.0,
                    "z": -20.0
                },
                "HACCHHCGBOC": {
                    "x": 40.0,
                    "y": 40.0,
                    "z": 40.0
                },
                "KGAFDKJLHFF": 400,
                "NANMBLJEINE": [
                    1
                ]
            },
            "KAEMLBJAMKB": [
                {
                    "index": 59,
                    "CPPMJPLHCKJ": {
                        "x": 29.0,
                        "y": 15.0,
                        "z": 18.0
                    },
                    "AAHBCHCKKFF": true,
                    "configID": 1002
                },
                {
                    "index": 60,
                    "CPPMJPLHCKJ": {
                        "x": 29.0,
                        "y": 10.0,
                        "z": 13.0
                    },
                    "AAHBCHCKKFF": true,
                    "configID": 2001
                },
                {
                    "index": 61,
                    "CPPMJPLHCKJ": {
                        "x": 12.0,
                        "y": 5.0,
                        "z": 2.0
                    },
                    "AAHBCHCKKFF": true,
                    "configID": 1002
                },
                {
                    "index": 62,
                    "CPPMJPLHCKJ": {
                        "x": 21.0
                    },
                    "AAHBCHCKKFF": true,
                    "configID": 4009
                },
                {
                    "index": 63,
                    "CPPMJPLHCKJ": {
                        "x": 10.0,
                        "z": 21.0
                    },
                    "AAHBCHCKKFF": true,
                    "configID": 1002
                },
                {
                    "index": 64,
                    "CPPMJPLHCKJ": {
                        "x": 10.0,
                        "z": 5.0
                    },
                    "AAHBCHCKKFF": true,
                    "configID": 2001
                },
                {
                    "index": 65,
                    "CPPMJPLHCKJ": {
                        "x": 12.0,
                        "y": 5.0,
                        "z": 15.0
                    },
                    "AAHBCHCKKFF": true,
                    "configID": 1002
                },
                {
                    "index": 66,
                    "CPPMJPLHCKJ": {
                        "x": 17.0,
                        "y": 5.0,
                        "z": 1.0
                    },
                    "AAHBCHCKKFF": true,
                    "configID": 5003
                },
                {
                    "index": 67,
                    "CPPMJPLHCKJ": {
                        "x": 12.0,
                        "z": 18.0
                    },
                    "AAHBCHCKKFF": true,
                    "configID": 1002
                },
                {
                    "index": 68,
                    "CPPMJPLHCKJ": {
                        "x": 33.0,
                        "y": 5.0,
                        "z": 1.0
                    },
                    "AAHBCHCKKFF": true,
                    "configID": 1002
                },
                {
                    "index": 69,
                    "CPPMJPLHCKJ": {
                        "x": 37.0,
                        "y": 5.0,
                        "z": 26.0
                    },
                    "AAHBCHCKKFF": true,
                    "configID": 5001
                },
                {
                    "index": 70,
                    "CPPMJPLHCKJ": {
                        "x": 37.0,
                        "y": 5.0,
                        "z": 18.0
                    },
                    "AAHBCHCKKFF": true,
                    "configID": 1002
                },
                {
                    "index": 71,
                    "CPPMJPLHCKJ": {
                        "x": 33.0
                    },
                    "AAHBCHCKKFF": true,
                    "configID": 2001
                },
                {
                    "index": 72,
                    "CPPMJPLHCKJ": {
                        "x": 22.0,
                        "y": 5.0,
                        "z": 10.0
                    },
                    "AAHBCHCKKFF": true,
                    "configID": 5003
                },
                {
                    "index": 73,
                    "CPPMJPLHCKJ": {
                        "x": 10.0,
                        "y": 4.0,
                        "z": 18.0
                    },
                    "AAHBCHCKKFF": true,
                    "configID": 2002
                },
                {
                    "index": 74,
                    "CPPMJPLHCKJ": {
                        "x": 26.0,
                        "y": 5.0,
                        "z": 23.0
                    },
                    "AAHBCHCKKFF": true,
                    "configID": 2001
                },
                {
                    "index": 75,
                    "CPPMJPLHCKJ": {
                        "x": 37.0,
                        "y": 5.0,
                        "z": 23.0
                    },
                    "AAHBCHCKKFF": true,
                    "configID": 1002
                },
                {
                    "index": 76,
                    "CPPMJPLHCKJ": {
                        "x": 35.0,
                        "z": 30.0
                    },
                    "AAHBCHCKKFF": true,
                    "configID": 2001
                },
                {
                    "index": 77,
                    "CPPMJPLHCKJ": {
                        "x": 21.0,
                        "z": 8.0
                    },
                    "AAHBCHCKKFF": true,
                    "configID": 2001
                },
                {
                    "index": 78,
                    "CPPMJPLHCKJ": {
                        "x": 26.0,
                        "y": 10.0,
                        "z": 15.0
                    },
                    "AAHBCHCKKFF": true,
                    "configID": 1002
                },
                {
                    "index": 79,
                    "CPPMJPLHCKJ": {
                        "x": 21.0,
                        "z": 18.0
                    },
                    "AAHBCHCKKFF": true,
                    "configID": 2001
                },
                {
                    "index": 80,
                    "CPPMJPLHCKJ": {
                        "x": 21.0,
                        "z": 28.0
                    },
                    "AAHBCHCKKFF": true,
                    "configID": 2001
                },
                {
                    "index": 81,
                    "CPPMJPLHCKJ": {
                        "x": 26.0,
                        "y": 10.0,
                        "z": 27.0
                    },
                    "AAHBCHCKKFF": true,
                    "configID": 1002
                },
                {
                    "index": 82,
                    "CPPMJPLHCKJ": {
                        "x": 26.0,
                        "y": 10.0,
                        "z": 31.0
                    },
                    "AAHBCHCKKFF": true,
                    "configID": 1002
                },
                {
                    "index": 83,
                    "CPPMJPLHCKJ": {
                        "x": 26.0,
                        "y": 5.0,
                        "z": 18.0
                    },
                    "AAHBCHCKKFF": true,
                    "configID": 2001
                },
                {
                    "index": 84,
                    "CPPMJPLHCKJ": {
                        "x": 26.0,
                        "y": 10.0,
                        "z": 8.0
                    },
                    "AAHBCHCKKFF": true,
                    "configID": 1002
                },
                {
                    "index": 85,
                    "CPPMJPLHCKJ": {
                        "x": 29.0,
                        "y": 10.0,
                        "z": 18.0
                    },
                    "AAHBCHCKKFF": true,
                    "configID": 2001
                },
                {
                    "index": 86,
                    "CPPMJPLHCKJ": {
                        "x": 29.0,
                        "y": 15.0,
                        "z": 26.0
                    },
                    "AAHBCHCKKFF": true,
                    "configID": 1002
                },
                {
                    "index": 87,
                    "CPPMJPLHCKJ": {
                        "x": 14.0,
                        "z": 20.0
                    },
                    "AAHBCHCKKFF": true,
                    "configID": 5003
                },
                {
                    "index": 88,
                    "CPPMJPLHCKJ": {
                        "x": 26.0,
                        "y": 5.0,
                        "z": 28.0
                    },
                    "AAHBCHCKKFF": true,
                    "configID": 2001
                },
                {
                    "index": 89,
                    "CPPMJPLHCKJ": {
                        "x": 31.0,
                        "y": 5.0,
                        "z": 36.0
                    },
                    "AAHBCHCKKFF": true,
                    "configID": 1002
                },
                {
                    "index": 90,
                    "CPPMJPLHCKJ": {
                        "x": 26.0,
                        "y": 10.0,
                        "z": 24.0
                    },
                    "AAHBCHCKKFF": true,
                    "configID": 1002
                },
                {
                    "index": 91,
                    "CPPMJPLHCKJ": {
                        "x": 26.0,
                        "y": 10.0,
                        "z": 17.0
                    },
                    "AAHBCHCKKFF": true,
                    "configID": 1002
                },
                {
                    "index": 92,
                    "CPPMJPLHCKJ": {
                        "x": 30.0,
                        "z": 35.0
                    },
                    "AAHBCHCKKFF": true,
                    "configID": 2001
                },
                {
                    "index": 93,
                    "CPPMJPLHCKJ": {
                        "x": 29.0,
                        "y": 15.0,
                        "z": 20.0
                    },
                    "AAHBCHCKKFF": true,
                    "configID": 1002
                },
                {
                    "index": 94,
                    "CPPMJPLHCKJ": {
                        "x": 29.0,
                        "y": 10.0,
                        "z": 29.0
                    },
                    "AAHBCHCKKFF": true,
                    "configID": 5003
                },
                {
                    "index": 95,
                    "CPPMJPLHCKJ": {
                        "x": 29.0,
                        "y": 15.0,
                        "z": 22.0
                    },
                    "AAHBCHCKKFF": true,
                    "configID": 1002
                },
                {
                    "index": 96,
                    "CPPMJPLHCKJ": {
                        "x": 21.0,
                        "z": 23.0
                    },
                    "AAHBCHCKKFF": true,
                    "configID": 2001
                },
                {
                    "index": 97,
                    "CPPMJPLHCKJ": {
                        "x": 15.0
                    },
                    "AAHBCHCKKFF": true,
                    "configID": 2001
                },
                {
                    "index": 98,
                    "CPPMJPLHCKJ": {
                        "x": 32.0,
                        "y": 15.0,
                        "z": 18.0
                    },
                    "AAHBCHCKKFF": true,
                    "configID": 2001
                },
                {
                    "index": 99,
                    "CPPMJPLHCKJ": {
                        "x": 21.0,
                        "z": 13.0
                    },
                    "AAHBCHCKKFF": true,
                    "configID": 2001
                },
                {
                    "index": 100,
                    "CPPMJPLHCKJ": {
                        "x": 26.0,
                        "y": 10.0,
                        "z": 12.0
                    },
                    "AAHBCHCKKFF": true,
                    "configID": 1002
                },
                {
                    "index": 101,
                    "CPPMJPLHCKJ": {
                        "x": 5.0,
                        "z": 18.0
                    },
                    "AAHBCHCKKFF": true,
                    "configID": 2004,
                    "MNCDDOLAGKA": {
                        "y": 90.0
                    }
                },
                {
                    "index": 102,
                    "CPPMJPLHCKJ": {
                        "x": 35.0,
                        "z": 15.0
                    },
                    "AAHBCHCKKFF": true,
                    "configID": 2001
                },
                {
                    "index": 103,
                    "CPPMJPLHCKJ": {
                        "x": 12.0,
                        "y": 5.0,
                        "z": 17.0
                    },
                    "AAHBCHCKKFF": true,
                    "configID": 1002
                },
                {
                    "index": 104,
                    "CPPMJPLHCKJ": {
                        "x": 29.0,
                        "y": 15.0,
                        "z": 14.0
                    },
                    "AAHBCHCKKFF": true,
                    "configID": 1002
                },
                {
                    "index": 105,
                    "CPPMJPLHCKJ": {
                        "x": 26.0,
                        "y": 5.0,
                        "z": 13.0
                    },
                    "AAHBCHCKKFF": true,
                    "configID": 2001
                },
                {
                    "index": 106,
                    "CPPMJPLHCKJ": {
                        "x": 31.0,
                        "y": 5.0,
                        "z": 38.0
                    },
                    "AAHBCHCKKFF": true,
                    "configID": 1002
                },
                {
                    "index": 107,
                    "CPPMJPLHCKJ": {
                        "x": 10.0
                    },
                    "AAHBCHCKKFF": true,
                    "configID": 2001
                },
                {
                    "index": 108,
                    "CPPMJPLHCKJ": {
                        "x": 12.0,
                        "y": 5.0,
                        "z": 5.0
                    },
                    "AAHBCHCKKFF": true,
                    "configID": 1002
                },
                {
                    "index": 109,
                    "CPPMJPLHCKJ": {
                        "x": 10.0,
                        "z": 18.0
                    },
                    "AAHBCHCKKFF": true,
                    "configID": 1002
                },
                {
                    "index": 110,
                    "CPPMJPLHCKJ": {
                        "x": 35.0,
                        "z": 25.0
                    },
                    "AAHBCHCKKFF": true,
                    "configID": 2001
                },
                {
                    "index": 111,
                    "CPPMJPLHCKJ": {
                        "x": 33.0,
                        "y": 5.0,
                        "z": 38.0
                    },
                    "AAHBCHCKKFF": true,
                    "configID": 1002
                },
                {
                    "index": 112,
                    "CPPMJPLHCKJ": {
                        "x": 12.0,
                        "y": 5.0,
                        "z": 7.0
                    },
                    "AAHBCHCKKFF": true,
                    "configID": 1002
                },
                {
                    "index": 113,
                    "CPPMJPLHCKJ": {
                        "x": 26.0
                    },
                    "AAHBCHCKKFF": true,
                    "configID": 4010,
                    "MNCDDOLAGKA": {
                        "y": 90.0
                    }
                },
                {
                    "index": 114,
                    "CPPMJPLHCKJ": {
                        "x": 29.0,
                        "y": 10.0,
                        "z": 23.0
                    },
                    "AAHBCHCKKFF": true,
                    "configID": 2001
                },
                {
                    "index": 115,
                    "CPPMJPLHCKJ": {
                        "x": 29.0,
                        "y": 15.0,
                        "z": 16.0
                    },
                    "AAHBCHCKKFF": true,
                    "configID": 1002
                },
                {
                    "index": 116,
                    "CPPMJPLHCKJ": {
                        "y": 3.0,
                        "z": 2.0
                    },
                    "AAHBCHCKKFF": true,
                    "configID": 2003,
                    "MNCDDOLAGKA": {
                        "y": 270.0
                    }
                },
                {
                    "index": 117,
                    "CPPMJPLHCKJ": {
                        "x": 21.0,
                        "z": 35.0
                    },
                    "AAHBCHCKKFF": true,
                    "configID": 2001
                },
                {
                    "index": 118,
                    "CPPMJPLHCKJ": {
                        "x": 28.0
                    },
                    "AAHBCHCKKFF": true,
                    "configID": 2001
                },
                {
                    "index": 119,
                    "CPPMJPLHCKJ": {
                        "x": 37.0,
                        "y": 5.0,
                        "z": 16.0
                    },
                    "AAHBCHCKKFF": true,
                    "configID": 5002
                },
                {
                    "index": 120,
                    "CPPMJPLHCKJ": {
                        "x": 10.0,
                        "z": 13.0
                    },
                    "AAHBCHCKKFF": true,
                    "configID": 2001
                },
                {
                    "index": 121,
                    "CPPMJPLHCKJ": {
                        "x": 29.0,
                        "y": 5.0,
                        "z": 1.0
                    },
                    "AAHBCHCKKFF": true,
                    "configID": 1002
                },
                {
                    "index": 122,
                    "CPPMJPLHCKJ": {
                        "x": 12.0,
                        "y": 5.0,
                        "z": 19.0
                    },
                    "AAHBCHCKKFF": true,
                    "configID": 1002
                },
                {
                    "index": 123,
                    "CPPMJPLHCKJ": {
                        "x": 22.0,
                        "y": 5.0,
                        "z": 29.0
                    },
                    "AAHBCHCKKFF": true,
                    "configID": 1002
                },
                {
                    "index": 124,
                    "CPPMJPLHCKJ": {
                        "x": 37.0,
                        "y": 5.0,
                        "z": 28.0
                    },
                    "AAHBCHCKKFF": true,
                    "configID": 1002
                },
                {
                    "index": 125,
                    "CPPMJPLHCKJ": {
                        "x": 22.0,
                        "y": 5.0,
                        "z": 24.0
                    },
                    "AAHBCHCKKFF": true,
                    "configID": 1002
                },
                {
                    "index": 126,
                    "CPPMJPLHCKJ": {
                        "x": 26.0,
                        "y": 10.0,
                        "z": 22.0
                    },
                    "AAHBCHCKKFF": true,
                    "configID": 1002
                },
                {
                    "index": 127,
                    "CPPMJPLHCKJ": {
                        "x": 22.0,
                        "y": 5.0,
                        "z": 14.0
                    },
                    "AAHBCHCKKFF": true,
                    "configID": 1002
                },
                {
                    "index": 128,
                    "CPPMJPLHCKJ": {
                        "x": 26.0,
                        "z": 18.0
                    },
                    "AAHBCHCKKFF": true,
                    "configID": 2001
                },
                {
                    "index": 129,
                    "CPPMJPLHCKJ": {
                        "x": 22.0,
                        "y": 5.0,
                        "z": 19.0
                    },
                    "AAHBCHCKKFF": true,
                    "configID": 1002
                },
                {
                    "index": 130,
                    "CPPMJPLHCKJ": {
                        "x": 12.0,
                        "z": 21.0
                    },
                    "AAHBCHCKKFF": true,
                    "configID": 1002
                },
                {
                    "index": 131,
                    "CPPMJPLHCKJ": {
                        "x": 31.0,
                        "y": 5.0,
                        "z": 1.0
                    },
                    "AAHBCHCKKFF": true,
                    "configID": 1002
                },
                {
                    "index": 132,
                    "CPPMJPLHCKJ": {
                        "x": 37.0,
                        "y": 5.0,
                        "z": 21.0
                    },
                    "AAHBCHCKKFF": true,
                    "configID": 5001
                },
                {
                    "index": 133,
                    "CPPMJPLHCKJ": {
                        "x": 26.0,
                        "y": 5.0,
                        "z": 8.0
                    },
                    "AAHBCHCKKFF": true,
                    "configID": 2001
                },
                {
                    "index": 134,
                    "CPPMJPLHCKJ": {
                        "x": 33.0,
                        "y": 5.0,
                        "z": 36.0
                    },
                    "AAHBCHCKKFF": true,
                    "configID": 1002
                },
                {
                    "index": 135,
                    "CPPMJPLHCKJ": {
                        "x": 35.0,
                        "z": 20.0
                    },
                    "AAHBCHCKKFF": true,
                    "configID": 2001
                },
                {
                    "index": 136,
                    "CPPMJPLHCKJ": {
                        "x": 35.0,
                        "y": 5.0,
                        "z": 35.0
                    },
                    "AAHBCHCKKFF": true,
                    "configID": 3005,
                    "MNCDDOLAGKA": {
                        "y": 270.0
                    }
                },
                {
                    "index": 137,
                    "CPPMJPLHCKJ": {
                        "x": 35.0,
                        "y": 3.0,
                        "z": 10.0
                    },
                    "AAHBCHCKKFF": true,
                    "configID": 2005,
                    "MNCDDOLAGKA": {
                        "y": 180.0
                    }
                },
                {
                    "index": 138,
                    "CPPMJPLHCKJ": {
                        "x": 37.0,
                        "y": 5.0,
                        "z": 31.0
                    },
                    "AAHBCHCKKFF": true,
                    "configID": 5001
                },
                {
                    "index": 139,
                    "CPPMJPLHCKJ": {
                        "x": 32.0,
                        "y": 20.0,
                        "z": 18.0
                    },
                    "AAHBCHCKKFF": true,
                    "configID": 1001,
                    "MNCDDOLAGKA": {
                        "y": 180.0
                    }
                },
                {
                    "index": 140,
                    "CPPMJPLHCKJ": {
                        "x": 37.0,
                        "y": 5.0,
                        "z": 33.0
                    },
                    "AAHBCHCKKFF": true,
                    "configID": 1002
                },
                {
                    "index": 141,
                    "CPPMJPLHCKJ": {
                        "x": 35.0,
                        "z": 35.0
                    },
                    "AAHBCHCKKFF": true,
                    "configID": 2001
                },
                {
                    "index": 142,
                    "CPPMJPLHCKJ": {
                        "x": 29.0,
                        "y": 15.0,
                        "z": 24.0
                    },
                    "AAHBCHCKKFF": true,
                    "configID": 1002
                }
            ]
        }
    ]
}