{
    "common": {
        "effectAttachShape": {
            "$type": "CMIPFEGOJCH",
            "EJAEFCDBDFB": "EffectMesh"
        },
        "mass": 80.0,
        "height": 0.6000000238418579,
        "affectedByWorld": true,
        "checkInSurface": true,
        "scale": 1.2999999523162842,
        "clearAIOnSetLightDeactive": true,
        "DLFJJCMGIBH": true,
        "NICGCIINMFJ": true
    },
    "model": {
        "bornEffect": "",
        "attachEffect": "",
        "canBakeMesh": false
    },
    "dither": {
        "showDitherDuration": 2.0
    },
    "globalValue": {
        "serverGlobalValues": [
            "SGV_Fungus_StartBurst_Immediately"
        ],
        "CCKNHEFGCPP": {
            "SGV_Fungus_StartBurst_Immediately": 0.0
        }
    },
    "combat": {
        "property": {
            "endureType": "Monster_Fungus_Battle",
            "weight": 75.0
        },
        "beHit": {
            "hitBloodEffect": ""
        },
        "combatLock": {
            "lockShape": "CircleLockEnemy",
            "lockType": "Avatar&Monster_Lv4"
        },
        "die": {
            "hasAnimatorDie": true,
            "dieEndTime": 0.5,
            "dieForceDisappearTime": 1.5,
            "dieDisappearEffect": "Eff_Death_Common",
            "dieShaderData": "MonsterDie",
            "LDOHFFOEPPI": true,
            "BMOKGIFNILM": true,
            "PHCLLDNDFNG": true,
            "CHBAHMJGJBE": true,
            "OPPHENIKFJA": true,
            "CCNGAIMLPIJ": true
        }
    },
    "abilities": [
        {
            "abilityID": "",
            "abilityName": "Affix_FungusFighterV2_Fungus_ElemMastery",
            "abilityOverride": ""
        },
        {
            "abilityID": "",
            "abilityName": "Fungus_BVB_Universal_ElementalBlast_Immediately",
            "abilityOverride": ""
        },
        {
            "abilityID": "",
            "abilityName": "FungusFighter_Universal_LineMixin",
            "abilityOverride": ""
        },
        {
            "abilityID": "",
            "abilityName": "Fungus_BVB_Un_Water_Bubble_Reject",
            "abilityOverride": ""
        },
        {
            "abilityID": "",
            "abilityName": "Fungus_Deux_BVB_Wind_OverdoseBullet_Trigger",
            "abilityOverride": ""
        },
        {
            "abilityID": "",
            "abilityName": "Fungus_Deux_BVB_HealingWaving",
            "abilityOverride": ""
        },
        {
            "abilityID": "",
            "abilityName": "Fungus_Deux_BVB_Passive_SpeedUp",
            "abilityOverride": ""
        }
    ],
    "stateLayers": {
        "defaultLayer": {
            "$type": "KFHJINNNDPN",
            "BOPIBFKFKCA": "",
            "stateIDs": {
                "Born": {
                    "$type": "MEECNDLIOBI",
                    "HKPCLGHBKFD": {
                        "Born": []
                    },
                    "ADPGACLPFHN": [
                        "DoSkill"
                    ]
                },
                "NormalIdle": {
                    "$type": "MEECNDLIOBI",
                    "HKPCLGHBKFD": {
                        "StandbyFree": [],
                        "Standby": []
                    },
                    "KNOHBHKACHA": true,
                    "BAABNFCMKIO": true,
                    "ADPGACLPFHN": [
                        "DoSkill"
                    ],
                    "NPMGEMAFACP": true,
                    "EOALJPNBEOI": true
                },
                "NormalMove": {
                    "$type": "MEECNDLIOBI",
                    "HKPCLGHBKFD": {
                        "WalkForward_BS": [
                            "Audio_Monster_Fungus_Deux_Walk"
                        ],
                        "WalkForward_AS": [
                            "Monster_Fungus_Deux_WalkForward"
                        ],
                        "Run_Decay": [
                            "Audio_Monster_Fungus_Deux_Run"
                        ]
                    },
                    "KNOHBHKACHA": true,
                    "BAABNFCMKIO": true,
                    "ADPGACLPFHN": [
                        "DoSkill"
                    ],
                    "NPMGEMAFACP": true
                },
                "BeHit": {
                    "$type": "MEECNDLIOBI",
                    "HKPCLGHBKFD": {
                        "Hit_H": [
                            "Audio_Monster_Fungus_Deux_HitThrow"
                        ]
                    },
                    "BAABNFCMKIO": true,
                    "PJFELLIJONH": [
                        "BeHit"
                    ],
                    "ADPGACLPFHN": [
                        "DoSkill"
                    ],
                    "MGFHGCKKPDB": true
                },
                "BeHitThrowAir": {
                    "$type": "MEECNDLIOBI",
                    "HKPCLGHBKFD": {
                        "HitThrow": [
                            "Audio_Monster_Fungus_Deux_HitThrow"
                        ],
                        "HitThrowDrop": []
                    },
                    "PJFELLIJONH": [
                        "BeHit",
                        "HitAir2HitDrop"
                    ],
                    "ADPGACLPFHN": [
                        "DoSkill"
                    ],
                    "HGDOHKMMGIJ": [
                        {
                            "name": "BurstUnavailable"
                        }
                    ]
                },
                "BeHitThrow": {
                    "$type": "MEECNDLIOBI",
                    "HKPCLGHBKFD": {
                        "HitThrowToGround": [
                            "Audio_Monster_Fungus_Deux_HitThrowToGround"
                        ]
                    },
                    "PJFELLIJONH": [
                        "BeHit"
                    ],
                    "GCDDJKIMHDO": true
                },
                "Struggle": {
                    "$type": "MEECNDLIOBI",
                    "HKPCLGHBKFD": {
                        "Struggle": []
                    },
                    "PJFELLIJONH": [
                        "BeHit",
                        "HitAir2HitDrop"
                    ],
                    "ADPGACLPFHN": [
                        "DoSkill"
                    ],
                    "HGDOHKMMGIJ": [
                        {
                            "name": "BurstUnavailable"
                        }
                    ]
                },
                "Die": {
                    "$type": "MEECNDLIOBI",
                    "HKPCLGHBKFD": {
                        "Die_BS": [
                            "Audio_Monster_Fungus_Deux_Die"
                        ],
                        "Die": [],
                        "AirDie": [],
                        "SwimDie_BS": [],
                        "SwimDie": []
                    }
                },
                "Warning": {
                    "$type": "MEECNDLIOBI",
                    "HKPCLGHBKFD": {
                        "Warning": [
                            "Audio_Monster_Fungus_Deux_Warning"
                        ]
                    },
                    "BAABNFCMKIO": true,
                    "ADPGACLPFHN": [
                        "BeHit",
                        "DoSkill"
                    ],
                    "NPMGEMAFACP": true
                },
                "ReturnToBorn": {
                    "$type": "MEECNDLIOBI",
                    "HKPCLGHBKFD": {
                        "ReturnToBorn_BS": [
                            "Audio_Monster_Fungus_Deux_ReturnToBorn_BS"
                        ],
                        "ReturnToBorn_Loop": [],
                        "ReturnToBorn_AS": [
                            "Audio_Monster_Fungus_Deux_ReturnToBorn_AS"
                        ]
                    },
                    "BGJDNIJICNM": true,
                    "ADPGACLPFHN": [
                        "BeHit",
                        "DoSkill"
                    ]
                },
                "NormalAttack": {
                    "$type": "MEECNDLIOBI",
                    "HKPCLGHBKFD": {
                        "OverdoseBullet_BS": [
                            "Monster_Fungus_BVB_Deux_Wind_OverdoseBullet_BS",
                            "Audio_Monster_Fungus_Activity_Deux_Wind_Overdose_Bullet"
                        ],
                        "OverdoseBullet": [
                            "Monster_Fungus_BVB_Deux_Wind_OverdoseBullet"
                        ],
                        "OverdoseBullet_AS": []
                    },
                    "PAKNCLFMOAC": 0.800000011920929,
                    "ADPGACLPFHN": [
                        "BeHit",
                        "DoSkill"
                    ]
                },
                "UnionBurst": {
                    "$type": "MEECNDLIOBI",
                    "HKPCLGHBKFD": {
                        "HealingWaving": [
                            "Monster_Fungus_BVB_Deux_Wind_HealingWaving"
                        ]
                    },
                    "PAKNCLFMOAC": 0.0,
                    "ADPGACLPFHN": [
                        "BeHit",
                        "DoSkill"
                    ]
                }
            }
        }
    },
    "billboard": {
        "$type": "HFEGKLAIGGI",
        "IIKEHINGEME": "BillboardAttach",
        "offset": {
            "y": 0.5
        },
        "HECLHMINJII": 1.0,
        "ABJJCOBEPLC": true,
        "showDistance": 36.0,
        "KJFKPPALBJJ": true,
        "DMHOOGGGDKG": true
    },
    "initialPoses": {
        "Default": {}
    },
    "aibeta": {
        "enable": true,
        "moveSetting": {
            "navMeshAgentName": "Undead01"
        },
        "sensing": {
            "settings": {
                "DefaultSetting": {
                    "viewRange": 22.0,
                    "feelRange": 30.0
                },
                "NoSensing": {
                    "enableVision": false,
                    "hearAttractionRange": 0.0,
                    "feelRange": 0.0
                }
            },
            "templates": {
                "DefaultTemplate": {
                    "DefaultPoses": "DefaultSetting"
                },
                "NoSensing": {
                    "DefaultPoses": "NoSensing"
                }
            }
        },
        "neurons": {
            "DefaultSetting": [
                "HIT"
            ],
            "NeverCombat": []
        },
        "threat": {
            "clearThreatTargetDistance": 30.0,
            "clearThreatEdgeDistance": 5.0,
            "clearThreatTimerByDistance": 2.0,
            "viewAttenuation": [
                {
                    "x": 12.0,
                    "y": 1.0
                },
                {
                    "x": 20.0,
                    "y": 0.5
                }
            ],
            "targetDistanceScoreSystem": {
                "weight": 100,
                "value": 8.0,
                "max": 30.0,
                "enable": true
            }
        },
        "defendArea": {
            "defendRange": 50.0
        },
        "scriptedMoveToTactic": {
            "enable": true
        },
        "skills": {
            "201": {
                "name": "NormalAttack",
                "castCondition": {
                    "pose": [
                        1001,
                        1002
                    ],
                    "pickRangeMax": 6.099999904632568
                },
                "cd": 3.0,
                "publicCDGroup": "",
                "triggerCDOnStart": true,
                "CLEPNIDJOLN": "",
                "stateIDs": [
                    "NormalAttack"
                ],
                "flagTargetReachable": "10",
                "flagSelfOnTemplateCollider": "11",
                "flagSelfInZone": "11",
                "flagTargetInZone": "11"
            },
            "401": {
                "name": "UnionBurst",
                "castCondition": {
                    "pose": [
                        233
                    ]
                },
                "publicCDGroup": "",
                "CLEPNIDJOLN": "",
                "stateIDs": [
                    "UnionBurst"
                ],
                "flagTargetReachable": "10",
                "flagSelfOnTemplateCollider": "01",
                "flagSelfInZone": "10",
                "flagTargetInZone": "11"
            }
        },
        "skillGCD": 1.2000000476837158,
        "target": {
            "defaultSetting": [
                "COMMAND",
                "POINT",
                "THREAT"
            ]
        },
        "combatFixedMoveTactic": [
            {
                "$type": "HLPBLIEBJLM",
                "enable": true,
                "EGJMGEHLDOL": {
                    "pose": [
                        1001,
                        1002
                    ]
                },
                "NGIEOIGFFDH": {
                    "NHPKGHAHIFA": 1,
                    "GPKNKJPPCOM": 6.0,
                    "FDNLEPNLLBP": 5.900000095367432,
                    "FCFLCFFJKLO": ""
                }
            },
            {
                "$type": "DOKMNBGHAFA",
                "enable": true,
                "NGIEOIGFFDH": {
                    "NHPKGHAHIFA": 1,
                    "FDNLEPNLLBP": 0.4000000059604645,
                    "BINPAEGDNGL": 5.0
                }
            }
        ]
    },
    "inputKeys": [
        {
            "keyID": 201,
            "inputKeyCode": 257,
            "abilityName": ""
        },
        {
            "keyID": 401,
            "inputKeyCode": 259,
            "abilityName": ""
        }
    ],
    "move": {
        "$type": "JKDLANFKJIL",
        "NGDJGNMGHIM": "AirBlend3D",
        "LDHGAEIKIEE": "SlimeType",
        "NKJKJFLNPPN": 6.619999885559082,
        "LPAKBBIADNC": "RootNode"
    }
}