{
    "id": 206,
    "stageMatureEvents": [
        "Play_Amb_Dungeon_Carnival02"
    ],
    "stageExitEvents": [
        "Stop_Amb_Dungeon_Carnival02",
        "State_Music_NonCombat"
    ],
    "stateValue": "State_Dungeon_XM32_Carnival01",
    "CCIIHNIJEGB": {
        "text": "Play_Music_Dungeon"
    },
    "BILLPIIPIDM": {
        "text": "Stop_Music_Dungeon"
    }
}