{
    "Level_SmrDungeon_Dehya_01_Inside_Vsp": {
        "$type": "NENJBOLIMHI",
        "DDJAPBKMFHK": true,
        "height": 129.24984741210938,
        "CEJBIGAKPDG": "Center",
        "width": 370.0806579589844,
        "length": 384.16510009765625
    },
    "Level_SmrDungeon_Dehya_BossTop_Inside_Ve": {
        "$type": "NENJBOLIMHI",
        "DDJAPBKMFHK": true,
        "height": 50.0,
        "CEJBIGAKPDG": "Center",
        "width": 150.0,
        "length": 150.0
    },
    "Level_SmrDungeon_Dehya_BossBottom_Inside_Ve": {
        "$type": "NENJBOLIMHI",
        "DDJAPBKMFHK": true,
        "height": 50.0,
        "CEJBIGAKPDG": "Center",
        "width": 65.0,
        "length": 150.0
    },
    "Level_SmrDungeon_Dehya_boss_Inside_Ve": {
        "$type": "NENJBOLIMHI",
        "DDJAPBKMFHK": true,
        "height": 83.69999694824219,
        "CEJBIGAKPDG": "Center",
        "width": 150.0,
        "length": 150.0
    },
    "Level_SmrDungeon_Dehya_NoSandMove_Inside_Vsp": {
        "$type": "NENJBOLIMHI",
        "DDJAPBKMFHK": true,
        "height": 191.60650634765625,
        "CEJBIGAKPDG": "Center",
        "width": 417.33380126953125,
        "length": 507.2669677734375
    }
}