{
    "id": 189,
    "stageMatureEvents": [
        "Play_Amb_Dungeon_FungusFighter01"
    ],
    "stageExitEvents": [
        "Stop_Amb_Dungeon_FungusFighter01",
        "State_Music_NonCombat"
    ],
    "stateValue": "State_Dungeon_v35_FungusFighte",
    "CCIIHNIJEGB": {
        "text": "Play_Music_Dungeon"
    },
    "BILLPIIPIDM": {
        "text": "Stop_Music_Dungeon"
    }
}