{
    "name": "Char_Skill_31043",
    "CLFPJIMIPNN": {
        "-2060930438": {
            "$type": "PFBEFBBHHEL",
            "value": 3
        },
        "476224977": {
            "$type": "LHDIOMALHHF",
            "type": "Element",
            "ratio": "GCG_ELEMENT_CRYO"
        }
    }
}