{
    "PIMNJPJLLLA": [
        {
            "name": "Monster_Effigyelectric_Q_Normal",
            "HAOFGIEJMML": [
                {
                    "CFCKHOOOBPG": 0.44999998807907104,
                    "actionGroups": [
                        {
                            "actions": [
                                {
                                    "$type": "MHIAHFHBBJN",
                                    "JLJOPNPLCOO": {
                                        "target": "Actor"
                                    }
                                },
                                {
                                    "$type": "PCFMADBJCHP",
                                    "JLJOPNPLCOO": {
                                        "target": "Actor"
                                    },
                                    "effectName": "Eff_Gcg_Common_ElementalBurst_NormalCharge",
                                    "FLFKIHBJGJE": "",
                                    "ACOBJHDOLCH": "",
                                    "KELBFLFDAOI": {
                                        "$type": "IOFNKGGHMIG"
                                    }
                                }
                            ]
                        }
                    ]
                },
                {
                    "CFCKHOOOBPG": 0.949999988079071,
                    "actionGroups": [
                        {
                            "actions": [
                                {
                                    "$type": "PCFMADBJCHP",
                                    "JLJOPNPLCOO": {
                                        "target": "MainTarget"
                                    },
                                    "effectName": "Eff_Gcg_Monster_Effigyelectric_ElementalBurst_Hit",
                                    "FLFKIHBJGJE": "",
                                    "ACOBJHDOLCH": "",
                                    "KELBFLFDAOI": {
                                        "$type": "JIBDBDMJCMD",
                                        "JLJOPNPLCOO": {
                                            "target": "Actor"
                                        }
                                    }
                                }
                            ]
                        }
                    ]
                },
                {
                    "actionGroups": [
                        {
                            "actions": [
                                {
                                    "$type": "CIBBIEBMNKC",
                                    "JLJOPNPLCOO": {
                                        "target": "AllTarget"
                                    }
                                }
                            ]
                        }
                    ]
                }
            ],
            "EEPPONJEKGG": [
                {
                    "actionGroups": [
                        {
                            "actions": [
                                {
                                    "$type": "LKMCEDJPAII",
                                    "JLJOPNPLCOO": {
                                        "target": "MainTarget"
                                    },
                                    "MBAOFEAIJKB": "Common_ShakeScreen_Test_Q"
                                }
                            ]
                        }
                    ]
                },
                {
                    "actionGroups": [
                        {
                            "actions": [
                                {
                                    "$type": "MHIAHFHBBJN",
                                    "JLJOPNPLCOO": {
                                        "target": "Actor"
                                    },
                                    "BFFLAADCGJO": true
                                }
                            ]
                        }
                    ]
                }
            ]
        }
    ]
}