{
    "PIMNJPJLLLA": [
        {
            "name": "Character_Sara_Q_Golden",
            "HAOFGIEJMML": [
                {
                    "CFCKHOOOBPG": 1.7200000286102295,
                    "actionGroups": [
                        {
                            "actions": [
                                {
                                    "$type": "GOKPBABANJE",
                                    "JLJOPNPLCOO": {
                                        "target": "Actor"
                                    }
                                },
                                {
                                    "$type": "MHIAHFHBBJN",
                                    "JLJOPNPLCOO": {
                                        "target": "Actor"
                                    }
                                },
                                {
                                    "$type": "OBCLEKPPLAA",
                                    "JLJOPNPLCOO": {
                                        "target": "Actor"
                                    }
                                },
                                {
                                    "$type": "PCFMADBJCHP",
                                    "JLJOPNPLCOO": {
                                        "target": "Actor"
                                    },
                                    "effectName": "Eff_Gcg_Avatar_Sara_ElementalBurst_Spine",
                                    "JGFDJMMGIPG": true,
                                    "FLFKIHBJGJE": "",
                                    "ACOBJHDOLCH": "",
                                    "KELBFLFDAOI": {
                                        "$type": "IOFNKGGHMIG"
                                    }
                                }
                            ]
                        }
                    ]
                },
                {
                    "CFCKHOOOBPG": 0.029999999329447746,
                    "actionGroups": [
                        {
                            "actions": [
                                {
                                    "$type": "PCFMADBJCHP",
                                    "JLJOPNPLCOO": {
                                        "target": "Actor"
                                    },
                                    "effectName": "Eff_Gcg_Avatar_Sara_ElementalBurst_BS",
                                    "FLFKIHBJGJE": "",
                                    "ACOBJHDOLCH": "",
                                    "KELBFLFDAOI": {
                                        "$type": "IOFNKGGHMIG"
                                    }
                                }
                            ]
                        }
                    ]
                },
                {
                    "CFCKHOOOBPG": 0.15000000596046448,
                    "actionGroups": [
                        {
                            "actions": [
                                {
                                    "$type": "PCFMADBJCHP",
                                    "JLJOPNPLCOO": {
                                        "target": "MainTarget"
                                    },
                                    "effectName": "Eff_Gcg_Avatar_Sara_ElementalBurst_Hit",
                                    "FLFKIHBJGJE": "",
                                    "ACOBJHDOLCH": "",
                                    "KELBFLFDAOI": {
                                        "$type": "INECFAJHLGF"
                                    },
                                    "PMFEDHGLPEG": "HorizontalAxisFlip"
                                }
                            ]
                        }
                    ]
                },
                {
                    "CFCKHOOOBPG": 2.4000000953674316,
                    "actionGroups": [
                        {
                            "actions": [
                                {
                                    "$type": "CIBBIEBMNKC",
                                    "JLJOPNPLCOO": {
                                        "target": "MainTarget"
                                    }
                                },
                                {
                                    "$type": "LKMCEDJPAII",
                                    "JLJOPNPLCOO": {
                                        "target": "MainTarget"
                                    },
                                    "MBAOFEAIJKB": "Common_ShakeScreen_Test_Q"
                                }
                            ]
                        }
                    ]
                },
                {
                    "CFCKHOOOBPG": 0.029999999329447746,
                    "actionGroups": [
                        {
                            "actions": [
                                {
                                    "$type": "PCFMADBJCHP",
                                    "JLJOPNPLCOO": {
                                        "target": "Actor"
                                    },
                                    "effectName": "Eff_Gcg_Common_Spine_ReturnToLoop",
                                    "JGFDJMMGIPG": true,
                                    "FLFKIHBJGJE": "",
                                    "ACOBJHDOLCH": "",
                                    "KELBFLFDAOI": {
                                        "$type": "IOFNKGGHMIG"
                                    }
                                }
                            ]
                        }
                    ]
                },
                {
                    "actionGroups": [
                        {
                            "actions": [
                                {
                                    "$type": "GOKPBABANJE",
                                    "JLJOPNPLCOO": {
                                        "target": "Actor"
                                    },
                                    "BFFLAADCGJO": true
                                },
                                {
                                    "$type": "MHIAHFHBBJN",
                                    "JLJOPNPLCOO": {
                                        "target": "Actor"
                                    },
                                    "BFFLAADCGJO": true
                                }
                            ]
                        }
                    ]
                }
            ]
        }
    ]
}