{
    "luaDataPath": "",
    "dontUseDefaultFinish": true,
    "entityBan": "",
    "disableNpcLod": true,
    "EKDGNGHMECG": true,
    "GMFELEKFHNC": 5,
    "startFade": {
        "startFadeOutDuration": 0.0
    },
    "endFade": {
        "startFadeOutDuration": 0.0
    },
    "actors": [
        {
            "alias": "Avatar",
            "visible": true,
            "bornPointName": "",
            "relativePosType": "AVATAR_NEW",
            "relativePosNpcAlias": "",
            "bindMovingTargetKey": ""
        },
        {
            "configID": 9511,
            "alias": "9511",
            "visible": true,
            "bornPointName": "",
            "relativePosType": "AVATAR_NEW",
            "relativePosNpcAlias": "",
            "bindMovingTargetKey": ""
        }
    ],
    "group": [
        [
            {
                "$type": "MoleMole.Config.ConfigUITriggerInterAction",
                "type": "UI_TRIGGER",
                "actionId": 110,
                "contextName": "GcgCardGroupName",
                "param": "1"
            },
            {
                "$type": "MoleMole.Config.ConfigRequestMsgAction",
                "type": "REQUEST_MSG",
                "actionId": 111,
                "msgName": "GCGTCInvite",
                "param": ""
            },
            {
                "$type": "MoleMole.Config.ConfigBlackScreenAction",
                "type": "BLACK_SCREEN",
                "duration": 3.0,
                "actionId": 124,
                "durationToBlack": 0.5,
                "durationKeepBlack": 2.0,
                "durationFromBlack": 0.5,
                "inteePos": "",
                "textMapID": "",
                "useTextFade": true
            },
            {
                "$type": "MoleMole.Config.ConfigTeleportToAction",
                "type": "TELEPORT_TO",
                "delayTime": 0.5,
                "aliasList": [
                    "Avatar"
                ],
                "actionId": 112,
                "forward": {
                    "z": 1.0
                },
                "openLongDisTeleport": true,
                "posSelectType": "GCG_PLAYER",
                "posBindMovingTargetKey": "",
                "forwardBindMovingTargetKey": ""
            },
            {
                "$type": "MoleMole.Config.ConfigSitOrStandAction",
                "type": "SIT_OR_STAND",
                "delayTime": 1.7999999523162842,
                "aliasList": [
                    "Avatar"
                ],
                "actionId": 113,
                "isSit": true,
                "banResetFreestyle": true
            },
            {
                "$type": "PBIGHFCHGCA",
                "type": "CAMERA_MOVE",
                "delayTime": 2.0,
                "duration": 0.10000000149011612,
                "actionId": 125,
                "CGCNCKNJOFB": "RELATIVE_TO_INTEE_ONLY",
                "KCFKJMMEECM": {
                    "y": 1.6299999952316284,
                    "z": 0.8299999833106995
                },
                "JOBAHIHHJIB": "RELATIVE_TO_INTEE_FORWARD",
                "DLGJEHNPMFN": {
                    "y": 1.659999966621399,
                    "z": -0.3799999952316284
                },
                "NJCBGNHGINI": 30.0,
                "FNMFGIOLKBE": 6,
                "NECGMADJICG": "EaseInOutCubic",
                "BMHIHPIKAHM": {},
                "HGGPLEMCNNG": false,
                "JBODIEHINII": "",
                "PHDIKPKLFIA": true,
                "EJCHLMIMLBO": "",
                "JDMKIMCOABH": [
                    8010,
                    8011,
                    8012,
                    8013,
                    8040,
                    8060
                ],
                "JFCBOMEEGIL": {
                    "y": 1.1399999856948853,
                    "z": 0.7300000190734863
                },
                "DOAEEJENGPF": {
                    "y": 1.159999966621399,
                    "z": -0.3799999952316284
                },
                "BIMPIKMCIHB": "",
                "MCAOJPLIJGI": ""
            }
        ],
        [
            {
                "$type": "KAGAFALAIGP",
                "type": "DIALOG",
                "aliasList": [
                    "9511"
                ],
                "actionId": 108,
                "JHEPJOMJJHH": 695110601,
                "OCILKFCPBNC": 0.5
            },
            {
                "$type": "LNLLGCOBDFC",
                "type": "EMO_SYNC",
                "aliasList": [
                    "9511"
                ],
                "actionId": 114,
                "LKHHGAGNMKM": "Cs_Emo_Avatar_Simple_Common_Set/Cs_Emo_Avatar_Talk/Cs_Emo_GCG/Cs_Emo_Avatar_Kaeya/Cs_Emo_695110601",
                "AIMKGPFAAAD": "",
                "IPEKOEDCGGF": "",
                "EJNFMNJKDAH": "",
                "LOOOCOLIHFA": "",
                "KJDLMAPPPMG": "",
                "EKJHPKFBONG": [
                    3229585850639840819,
                    6615850822427382122,
                    16988781719074091007,
                    11593487479996637220
                ]
            },
            {
                "$type": "CENEPJCONAG",
                "type": "BODY_LANG",
                "aliasList": [
                    "9511"
                ],
                "actionId": 115,
                "OGFPAIKLDGB": 8011,
                "MHDCNDAINCK": true,
                "LHIAJOBFNAK": false,
                "GJGPNLJEIFP": true,
                "FOEKGLEJBIJ": ""
            }
        ],
        [
            {
                "$type": "MoleMole.Config.ConfigTimeProtectAction",
                "type": "TIME_PROTECT",
                "duration": 0.10000000149011612,
                "actionId": 105
            },
            {
                "$type": "CENEPJCONAG",
                "type": "BODY_LANG",
                "aliasList": [
                    "9511"
                ],
                "actionId": 116,
                "NNKEOHJCPOF": true,
                "MHDCNDAINCK": true,
                "LHIAJOBFNAK": false,
                "GJGPNLJEIFP": true,
                "FOEKGLEJBIJ": ""
            },
            {
                "$type": "LNLLGCOBDFC",
                "type": "EMO_SYNC",
                "aliasList": [
                    "9511"
                ],
                "actionId": 117,
                "LKHHGAGNMKM": "",
                "AIMKGPFAAAD": "Cs_Emo_Avatar_Common/Cs_Emo_Avatar_Default01",
                "IPEKOEDCGGF": "Cs_Emo_Avatar_Common/Cs_Emo_Avatar_Default01_B",
                "EJNFMNJKDAH": "",
                "LOOOCOLIHFA": "",
                "KJDLMAPPPMG": "",
                "IMIEGJDNPNN": [
                    1010565500959774114,
                    17914558573000180712,
                    14498871351621154070,
                    14348654671849899985
                ],
                "KIJHIMADJGM": [
                    12199605016063642592,
                    6659610500948409138,
                    10783156204328777859,
                    13383650154785247612
                ]
            }
        ]
    ],
    "groupId": [
        {
            "grpId": 629097464,
            "nextGrpId": 629097465
        },
        {
            "index": 1,
            "grpId": 629097465,
            "nextGrpId": 629097466
        },
        {
            "index": 2,
            "grpId": 629097466,
            "nextGrpId": 629097467
        }
    ],
    "freeStyleDic": {
        "9511": [
            8011
        ]
    },
    "EGOADMBCKDB": {
        "9511": [
            "SitChat01AS",
            "SitHoldArm01AS",
            "SitPutArm01AS",
            "SitShrug01AS",
            "SitThink01AS"
        ]
    }
}