{
    "luaDataPath": "",
    "entityBan": "",
    "disableNpcLod": true,
    "BHNKJKDADLC": true,
    "startFade": {
        "startFadeOutDuration": 0.0
    },
    "endFade": {
        "startFadeOutDuration": 0.0
    },
    "actors": [
        {
            "alias": "Avatar",
            "visible": true,
            "bornPointName": "",
            "relativePosNpcAlias": "",
            "bindMovingTargetKey": ""
        },
        {
            "configID": 2617,
            "alias": "2617",
            "visible": true,
            "bornPointName": "",
            "forceCreateDaily": true,
            "relativePosNpcAlias": "",
            "bindMovingTargetKey": ""
        },
        {
            "configID": 1005,
            "alias": "1005",
            "visible": true,
            "bornPointName": "",
            "useRelativePos": true,
            "relativePos": {
                "x": -0.5600000023841858,
                "z": 0.5
            },
            "removeActorType": "REMOVE_WITH_DISAPPEAR",
            "relativePosNpcAlias": "",
            "bindMovingTargetKey": ""
        }
    ],
    "group": [
        [
            {
                "$type": "MoleMole.Config.ConfigTimeProtectAction",
                "type": "TIME_PROTECT",
                "duration": 0.10000000149011612
            },
            {
                "$type": "NFDDGDIKEAG",
                "type": "STEER_TO",
                "delayTime": 0.367000013589859,
                "duration": 1.0,
                "aliasList": [
                    "2617"
                ],
                "GGJHILELIMO": "TO_TARGET",
                "PKKKHNGDEEE": true,
                "LGDIOPOBMPH": true,
                "NBNJEKMFIDE": true,
                "JBODIEHINII": "Avatar",
                "NNFPFPOJJOJ": ""
            },
            {
                "$type": "NFDDGDIKEAG",
                "type": "STEER_TO",
                "delayTime": 0.4000000059604645,
                "duration": 1.0,
                "aliasList": [
                    "Avatar"
                ],
                "GGJHILELIMO": "TO_TARGET",
                "PKKKHNGDEEE": true,
                "LGDIOPOBMPH": true,
                "NBNJEKMFIDE": true,
                "JBODIEHINII": "2617",
                "NNFPFPOJJOJ": ""
            },
            {
                "$type": "FNPNDPFBBDD",
                "type": "LOOK_AT",
                "delayTime": 0.675000011920929,
                "aliasList": [
                    "1005"
                ],
                "NKGFDJDHOBD": true,
                "MNOPLOBEFLB": 0.5,
                "JBODIEHINII": "2617",
                "LPCACGGCDLI": "",
                "NNFPFPOJJOJ": ""
            }
        ],
        [
            {
                "$type": "KAGAFALAIGP",
                "type": "DIALOG",
                "aliasList": [
                    "2617"
                ],
                "JHEPJOMJJHH": 710411301,
                "OCILKFCPBNC": 0.5
            },
            {
                "$type": "AAFOOOPNJLB",
                "type": "DIALOG_SELECT",
                "delayTime": 0.4000000059604645,
                "aliasList": [
                    "Avatar"
                ],
                "KFAEOBDAAME": [
                    710411302,
                    710411303
                ],
                "ELPFMMBHOLF": [
                    780678932,
                    780678932
                ],
                "OEAAKJDIEFD": true
            }
        ],
        [
            {
                "$type": "KAGAFALAIGP",
                "type": "DIALOG",
                "aliasList": [
                    "2617"
                ],
                "JHEPJOMJJHH": 710411304,
                "OCILKFCPBNC": 0.5
            },
            {
                "$type": "AAFOOOPNJLB",
                "type": "DIALOG_SELECT",
                "delayTime": 0.4000000059604645,
                "aliasList": [
                    "Avatar"
                ],
                "KFAEOBDAAME": [
                    710411305
                ],
                "ELPFMMBHOLF": [
                    780678933
                ],
                "OEAAKJDIEFD": true
            }
        ],
        [
            {
                "$type": "KAGAFALAIGP",
                "type": "DIALOG",
                "aliasList": [
                    "2617"
                ],
                "JHEPJOMJJHH": 710411306,
                "OCILKFCPBNC": 0.5
            },
            {
                "$type": "AAFOOOPNJLB",
                "type": "DIALOG_SELECT",
                "delayTime": 0.4000000059604645,
                "aliasList": [
                    "Avatar"
                ],
                "KFAEOBDAAME": [
                    710411307,
                    710411324
                ],
                "ELPFMMBHOLF": [
                    780678934,
                    2726210429
                ],
                "OEAAKJDIEFD": true
            }
        ],
        [
            {
                "$type": "KAGAFALAIGP",
                "type": "DIALOG",
                "aliasList": [
                    "2617"
                ],
                "JHEPJOMJJHH": 710411308,
                "OCILKFCPBNC": 0.5
            }
        ],
        [
            {
                "$type": "KAGAFALAIGP",
                "type": "DIALOG",
                "aliasList": [
                    "2617"
                ],
                "JHEPJOMJJHH": 710411309,
                "OCILKFCPBNC": 0.5
            }
        ],
        [
            {
                "$type": "KAGAFALAIGP",
                "type": "DIALOG",
                "aliasList": [
                    "2617"
                ],
                "JHEPJOMJJHH": 710411310,
                "OCILKFCPBNC": 0.5
            }
        ],
        [
            {
                "$type": "KAGAFALAIGP",
                "type": "DIALOG",
                "aliasList": [
                    "1005"
                ],
                "JHEPJOMJJHH": 710411311,
                "OCILKFCPBNC": 0.5
            },
            {
                "$type": "AAFOOOPNJLB",
                "type": "DIALOG_SELECT",
                "delayTime": 0.4000000059604645,
                "aliasList": [
                    "Avatar"
                ],
                "KFAEOBDAAME": [
                    710411312
                ],
                "ELPFMMBHOLF": [
                    780678938
                ],
                "OEAAKJDIEFD": true
            }
        ],
        [
            {
                "$type": "KAGAFALAIGP",
                "type": "DIALOG",
                "aliasList": [
                    "2617"
                ],
                "JHEPJOMJJHH": 710411313,
                "OCILKFCPBNC": 0.5
            }
        ],
        [
            {
                "$type": "KAGAFALAIGP",
                "type": "DIALOG",
                "aliasList": [
                    "2617"
                ],
                "JHEPJOMJJHH": 710411314,
                "OCILKFCPBNC": 0.5
            }
        ],
        [
            {
                "$type": "KAGAFALAIGP",
                "type": "DIALOG",
                "aliasList": [
                    "2617"
                ],
                "JHEPJOMJJHH": 710411315,
                "OCILKFCPBNC": 0.5
            }
        ],
        [
            {
                "$type": "KAGAFALAIGP",
                "type": "DIALOG",
                "aliasList": [
                    "1005"
                ],
                "JHEPJOMJJHH": 710411316,
                "OCILKFCPBNC": 0.5
            }
        ],
        [
            {
                "$type": "KAGAFALAIGP",
                "type": "DIALOG",
                "aliasList": [
                    "2617"
                ],
                "JHEPJOMJJHH": 710411317,
                "OCILKFCPBNC": 0.5
            }
        ],
        [
            {
                "$type": "KAGAFALAIGP",
                "type": "DIALOG",
                "aliasList": [
                    "2617"
                ],
                "JHEPJOMJJHH": 710411318,
                "OCILKFCPBNC": 0.5
            }
        ],
        [
            {
                "$type": "KAGAFALAIGP",
                "type": "DIALOG",
                "aliasList": [
                    "1005"
                ],
                "JHEPJOMJJHH": 710411319,
                "OCILKFCPBNC": 0.5
            }
        ],
        [
            {
                "$type": "KAGAFALAIGP",
                "type": "DIALOG",
                "aliasList": [
                    "1005"
                ],
                "JHEPJOMJJHH": 710411320,
                "OCILKFCPBNC": 0.5
            }
        ],
        [
            {
                "$type": "KAGAFALAIGP",
                "type": "DIALOG",
                "aliasList": [
                    "2617"
                ],
                "JHEPJOMJJHH": 710411321,
                "OCILKFCPBNC": 0.5
            }
        ],
        [
            {
                "$type": "KAGAFALAIGP",
                "type": "DIALOG",
                "aliasList": [
                    "2617"
                ],
                "JHEPJOMJJHH": 710411322,
                "OCILKFCPBNC": 0.5
            }
        ],
        [
            {
                "$type": "KAGAFALAIGP",
                "type": "DIALOG",
                "aliasList": [
                    "2617"
                ],
                "JHEPJOMJJHH": 710411323,
                "OCILKFCPBNC": 0.5
            }
        ],
        [
            {
                "$type": "KAGAFALAIGP",
                "type": "DIALOG",
                "aliasList": [
                    "2617"
                ],
                "JHEPJOMJJHH": 710411325,
                "OCILKFCPBNC": 0.5
            }
        ],
        [
            {
                "$type": "KAGAFALAIGP",
                "type": "DIALOG",
                "aliasList": [
                    "2617"
                ],
                "JHEPJOMJJHH": 710411326,
                "OCILKFCPBNC": 0.5
            }
        ],
        [
            {
                "$type": "KAGAFALAIGP",
                "type": "DIALOG",
                "aliasList": [
                    "2617"
                ],
                "JHEPJOMJJHH": 710411327,
                "OCILKFCPBNC": 0.5
            }
        ],
        [
            {
                "$type": "KAGAFALAIGP",
                "type": "DIALOG",
                "aliasList": [
                    "1005"
                ],
                "JHEPJOMJJHH": 710411328,
                "OCILKFCPBNC": 0.5
            }
        ],
        [
            {
                "$type": "KAGAFALAIGP",
                "type": "DIALOG",
                "aliasList": [
                    "2617"
                ],
                "JHEPJOMJJHH": 710411329,
                "OCILKFCPBNC": 0.5
            },
            {
                "$type": "AAFOOOPNJLB",
                "type": "DIALOG_SELECT",
                "delayTime": 0.4000000059604645,
                "aliasList": [
                    "Avatar"
                ],
                "KFAEOBDAAME": [
                    710411330
                ],
                "ELPFMMBHOLF": [
                    2726210434
                ],
                "OEAAKJDIEFD": true
            }
        ],
        [
            {
                "$type": "KAGAFALAIGP",
                "type": "DIALOG",
                "aliasList": [
                    "1005"
                ],
                "JHEPJOMJJHH": 710411331,
                "OCILKFCPBNC": 0.5
            }
        ],
        [
            {
                "$type": "KAGAFALAIGP",
                "type": "DIALOG",
                "aliasList": [
                    "2617"
                ],
                "JHEPJOMJJHH": 710411332,
                "OCILKFCPBNC": 0.5
            }
        ],
        [
            {
                "$type": "KAGAFALAIGP",
                "type": "DIALOG",
                "aliasList": [
                    "1005"
                ],
                "JHEPJOMJJHH": 710411333,
                "OCILKFCPBNC": 0.5
            }
        ],
        [
            {
                "$type": "KAGAFALAIGP",
                "type": "DIALOG",
                "aliasList": [
                    "1005"
                ],
                "JHEPJOMJJHH": 710411334,
                "OCILKFCPBNC": 0.5
            }
        ],
        [
            {
                "$type": "KAGAFALAIGP",
                "type": "DIALOG",
                "aliasList": [
                    "2617"
                ],
                "JHEPJOMJJHH": 710411335,
                "OCILKFCPBNC": 0.5
            }
        ],
        [
            {
                "$type": "KAGAFALAIGP",
                "type": "DIALOG",
                "aliasList": [
                    "1005"
                ],
                "JHEPJOMJJHH": 710411336,
                "OCILKFCPBNC": 0.5
            }
        ],
        [
            {
                "$type": "KAGAFALAIGP",
                "type": "DIALOG",
                "aliasList": [
                    "2617"
                ],
                "JHEPJOMJJHH": 710411337,
                "OCILKFCPBNC": 0.5
            }
        ],
        [
            {
                "$type": "KAGAFALAIGP",
                "type": "DIALOG",
                "aliasList": [
                    "2617"
                ],
                "JHEPJOMJJHH": 710411338,
                "OCILKFCPBNC": 0.5
            },
            {
                "$type": "AAFOOOPNJLB",
                "type": "DIALOG_SELECT",
                "delayTime": 0.4000000059604645,
                "aliasList": [
                    "Avatar"
                ],
                "KFAEOBDAAME": [
                    710411339
                ],
                "ELPFMMBHOLF": [
                    2726210463
                ],
                "OEAAKJDIEFD": true
            }
        ],
        [
            {
                "$type": "KAGAFALAIGP",
                "type": "DIALOG",
                "aliasList": [
                    "1005"
                ],
                "JHEPJOMJJHH": 710411340,
                "OCILKFCPBNC": 0.5
            }
        ],
        [
            {
                "$type": "KAGAFALAIGP",
                "type": "DIALOG",
                "aliasList": [
                    "2617"
                ],
                "JHEPJOMJJHH": 710411341,
                "OCILKFCPBNC": 0.5
            }
        ],
        [
            {
                "$type": "KAGAFALAIGP",
                "type": "DIALOG",
                "aliasList": [
                    "2617"
                ],
                "JHEPJOMJJHH": 710411342,
                "OCILKFCPBNC": 0.5
            }
        ],
        [
            {
                "$type": "KAGAFALAIGP",
                "type": "DIALOG",
                "aliasList": [
                    "2617"
                ],
                "JHEPJOMJJHH": 710411343,
                "OCILKFCPBNC": 0.5
            }
        ],
        [
            {
                "$type": "KAGAFALAIGP",
                "type": "DIALOG",
                "aliasList": [
                    "2617"
                ],
                "JHEPJOMJJHH": 710411344,
                "OCILKFCPBNC": 0.5
            }
        ],
        [
            {
                "$type": "KAGAFALAIGP",
                "type": "DIALOG",
                "aliasList": [
                    "2617"
                ],
                "JHEPJOMJJHH": 710411345,
                "OCILKFCPBNC": 0.5
            }
        ],
        [
            {
                "$type": "KAGAFALAIGP",
                "type": "DIALOG",
                "aliasList": [
                    "1005"
                ],
                "JHEPJOMJJHH": 710411346,
                "OCILKFCPBNC": 0.5
            }
        ],
        [
            {
                "$type": "KAGAFALAIGP",
                "type": "DIALOG",
                "aliasList": [
                    "2617"
                ],
                "JHEPJOMJJHH": 710411347,
                "OCILKFCPBNC": 0.5
            }
        ],
        [
            {
                "$type": "KAGAFALAIGP",
                "type": "DIALOG",
                "aliasList": [
                    "2617"
                ],
                "JHEPJOMJJHH": 710411348,
                "OCILKFCPBNC": 0.5
            }
        ],
        [
            {
                "$type": "MoleMole.Config.ConfigTimeProtectAction",
                "type": "TIME_PROTECT",
                "duration": 0.10000000149011612
            }
        ],
        [
            {
                "$type": "MoleMole.Config.ConfigTimeProtectAction",
                "type": "TIME_PROTECT",
                "duration": 0.10000000149011612
            }
        ]
    ],
    "groupId": [
        {
            "grpId": 780678930,
            "nextGrpId": 780678931
        },
        {
            "index": 1,
            "grpId": 780678931,
            "nextGrpId": 780678932
        },
        {
            "index": 2,
            "grpId": 780678932,
            "nextGrpId": 780678933
        },
        {
            "index": 3,
            "grpId": 780678933,
            "nextGrpId": 780678934
        },
        {
            "index": 4,
            "grpId": 780678934,
            "nextGrpId": 780678935
        },
        {
            "index": 5,
            "grpId": 780678935,
            "nextGrpId": 780678936
        },
        {
            "index": 6,
            "grpId": 780678936,
            "nextGrpId": 780678937
        },
        {
            "index": 7,
            "grpId": 780678937,
            "nextGrpId": 780678938
        },
        {
            "index": 8,
            "grpId": 780678938,
            "nextGrpId": 2726210398
        },
        {
            "index": 9,
            "grpId": 2726210398,
            "nextGrpId": 2726210399
        },
        {
            "index": 10,
            "grpId": 2726210399,
            "nextGrpId": 2726210400
        },
        {
            "index": 11,
            "grpId": 2726210400,
            "nextGrpId": 2726210401
        },
        {
            "index": 12,
            "grpId": 2726210401,
            "nextGrpId": 2726210402
        },
        {
            "index": 13,
            "grpId": 2726210402,
            "nextGrpId": 2726210403
        },
        {
            "index": 14,
            "grpId": 2726210403,
            "nextGrpId": 2726210404
        },
        {
            "index": 15,
            "grpId": 2726210404,
            "nextGrpId": 2726210405
        },
        {
            "index": 16,
            "grpId": 2726210405,
            "nextGrpId": 2726210406
        },
        {
            "index": 17,
            "grpId": 2726210406,
            "nextGrpId": 2726210407
        },
        {
            "index": 18,
            "grpId": 2726210407,
            "nextGrpId": 2726210493
        },
        {
            "index": 19,
            "grpId": 2726210429,
            "nextGrpId": 2726210430
        },
        {
            "index": 20,
            "grpId": 2726210430,
            "nextGrpId": 2726210431
        },
        {
            "index": 21,
            "grpId": 2726210431,
            "nextGrpId": 2726210432
        },
        {
            "index": 22,
            "grpId": 2726210432,
            "nextGrpId": 2726210433
        },
        {
            "index": 23,
            "grpId": 2726210433,
            "nextGrpId": 2726210434
        },
        {
            "index": 24,
            "grpId": 2726210434,
            "nextGrpId": 2726210435
        },
        {
            "index": 25,
            "grpId": 2726210435,
            "nextGrpId": 2726210436
        },
        {
            "index": 26,
            "grpId": 2726210436,
            "nextGrpId": 2726210437
        },
        {
            "index": 27,
            "grpId": 2726210437,
            "nextGrpId": 2726210438
        },
        {
            "index": 28,
            "grpId": 2726210438,
            "nextGrpId": 2726210460
        },
        {
            "index": 29,
            "grpId": 2726210460,
            "nextGrpId": 2726210461
        },
        {
            "index": 30,
            "grpId": 2726210461,
            "nextGrpId": 2726210462
        },
        {
            "index": 31,
            "grpId": 2726210462,
            "nextGrpId": 2726210463
        },
        {
            "index": 32,
            "grpId": 2726210463,
            "nextGrpId": 2726210464
        },
        {
            "index": 33,
            "grpId": 2726210464,
            "nextGrpId": 2726210465
        },
        {
            "index": 34,
            "grpId": 2726210465,
            "nextGrpId": 2726210466
        },
        {
            "index": 35,
            "grpId": 2726210466,
            "nextGrpId": 2726210467
        },
        {
            "index": 36,
            "grpId": 2726210467,
            "nextGrpId": 2726210468
        },
        {
            "index": 37,
            "grpId": 2726210468,
            "nextGrpId": 2726210469
        },
        {
            "index": 38,
            "grpId": 2726210469,
            "nextGrpId": 2726210491
        },
        {
            "index": 39,
            "grpId": 2726210491,
            "nextGrpId": 2726210492
        },
        {
            "index": 40,
            "grpId": 2726210492,
            "nextGrpId": 2726210493
        },
        {
            "index": 41,
            "grpId": 2726210493,
            "nextGrpId": 2726210494
        },
        {
            "index": 42,
            "grpId": 2726210494,
            "nextGrpId": 2726210495
        }
    ],
    "freeStyleDic": {
        "2617": []
    }
}