{
    "luaDataPath": "",
    "entityBan": "",
    "group": [
        [
            {
                "$type": "KAGAFALAIGP",
                "type": "DIALOG_CLEAR"
            }
        ],
        [
            {
                "$type": "JNIDKFIJABL",
                "type": "SHOP_EXCHANGE",
                "FPPHLPCBBKP": "SHOP_TYPE_NPC_VerrGoldet"
            }
        ],
        [
            {
                "$type": "PBIGHFCHGCA",
                "type": "CAMERA_MOVE",
                "duration": 1.0,
                "CGCNCKNJOFB": "EXIT",
                "JOBAHIHHJIB": "TO_INTEE",
                "COBIBPMPAPO": 5.0,
                "JBODIEHINII": "",
                "EJCHLMIMLBO": "",
                "BIMPIKMCIHB": "",
                "MCAOJPLIJGI": ""
            }
        ]
    ]
}