{
    "108": {
        "isUnderTimeScale": true,
        "coolDownFail": -4.542771447096934e+16
    },
    "67": {
        "isUnderTimeScale": true
    },
    "100": {
        "isUnderTimeScale": true
    },
    "1373": {},
    "69": {
        "coolDownFail": 1.739550479573984e-13
    },
    "15057": {
        "isUnderTimeScale": true,
        "coolDownFail": 4574.43701171875
    },
    "42": {
        "coolDownSuccess": -4.542771876593664e+16
    },
    "8836": {
        "isUnderTimeScale": true,
        "coolDownSuccess": 1.458283573741076e+22,
        "coolDownFail": 3.6836414240279584e-35
    },
    "54": {
        "isUnderTimeScale": true
    }
}