{
    "barTransitions": {},
    "gridTransitions": {},
    "cueTransitions": {
        "shifters": [
            {},
            {
                "targetSongId": 55
            },
            {
                "targetSongId": -8,
                "rootConditionId": -4
            },
            {
                "targetSongId": -41,
                "rootConditionId": -12
            },
            {
                "targetSongId": 2619
            },
            {
                "targetSongId": -34,
                "rootConditionId": 53
            },
            {
                "rootConditionId": 4428
            },
            {
                "targetSongId": 7905,
                "rootConditionId": -11
            },
            {
                "targetSongId": 2619
            },
            {
                "targetSongId": -34,
                "rootConditionId": -4338
            },
            {
                "targetSongId": -35
            },
            {
                "targetSongId": 52,
                "rootConditionId": -55
            },
            {
                "targetSongId": -35,
                "rootConditionId": 2619
            },
            {
                "targetSongId": -34,
                "rootConditionId": 49
            },
            {
                "rootConditionId": -4429
            },
            {
                "targetSongId": 263,
                "rootConditionId": -9
            },
            {
                "targetSongId": 2619
            },
            {
                "targetSongId": -34,
                "rootConditionId": -29
            },
            {
                "targetSongId": -4430
            },
            {
                "targetSongId": 38,
                "rootConditionId": 42
            },
            {
                "targetSongId": -35,
                "rootConditionId": 2619
            },
            {
                "targetSongId": -34,
                "rootConditionId": -5835
            },
            {
                "targetSongId": -35
            },
            {
                "targetSongId": -136470,
                "rootConditionId": -35
            },
            {
                "rootConditionId": 20
            },
            {
                "targetSongId": -34,
                "rootConditionId": 72595399
            },
            {
                "targetSongId": -8110,
                "rootConditionId": 9
            },
            {
                "targetSongId": 2619
            },
            {
                "targetSongId": -34,
                "rootConditionId": 49
            },
            {},
            {},
            {
                "targetSongId": -4
            },
            {
                "targetSongId": -1404
            },
            {
                "targetSongId": 2619
            },
            {
                "targetSongId": -34,
                "rootConditionId": -7
            },
            {},
            {
                "targetSongId": -35
            },
            {
                "targetSongId": 45,
                "rootConditionId": -54
            },
            {
                "rootConditionId": -35
            },
            {
                "rootConditionId": 20
            },
            {
                "targetSongId": -34,
                "rootConditionId": -34
            },
            {},
            {
                "targetSongId": -35
            },
            {
                "targetSongId": 27,
                "rootConditionId": -59
            },
            {
                "targetSongId": -35
            },
            {
                "rootConditionId": 20
            },
            {
                "targetSongId": -34,
                "rootConditionId": -72582450
            },
            {
                "targetSongId": -4,
                "rootConditionId": -1476
            },
            {
                "targetSongId": 2619
            },
            {
                "targetSongId": -34,
                "rootConditionId": -41
            },
            {
                "rootConditionId": 4430
            },
            {
                "targetSongId": 33,
                "rootConditionId": -1
            },
            {
                "targetSongId": -35,
                "rootConditionId": 2619
            },
            {
                "targetSongId": -34,
                "rootConditionId": 48
            },
            {
                "targetSongId": -4430
            },
            {
                "targetSongId": -4897,
                "rootConditionId": -12
            },
            {
                "targetSongId": 2619
            },
            {
                "targetSongId": -34,
                "rootConditionId": 72574346
            },
            {
                "targetSongId": 54,
                "rootConditionId": 53
            },
            {
                "targetSongId": -35
            },
            {
                "rootConditionId": 20
            },
            {
                "targetSongId": -34,
                "rootConditionId": 526
            },
            {
                "targetSongId": -35,
                "rootConditionId": -4
            },
            {
                "targetSongId": 1555
            },
            {
                "targetSongId": 2619
            },
            {
                "targetSongId": -34,
                "rootConditionId": -58
            },
            {
                "targetSongId": 4428
            }
        ]
    }
}