{
    "sceneId": 40901,
    "monsters": [
        {
            "groupId": 240901002,
            "mapInstId": 2001,
            "aiGroupID": 240901002,
            "DBJILNPPJHP": true,
            "EIANNAGALAJ": 999.0,
            "FKMENPJNOEM": true,
            "clearThreatTargetDistance": 999.0,
            "aiNeuronSetting": "DefaultSetting",
            "aiSensingTemplate": "DefaultTemplate",
            "forceCombatOnSpawn": true,
            "OPOFAEBHLLK": "",
            "OGJHDDPDNKM": ""
        },
        {
            "groupId": 240901002,
            "mapInstId": 2002,
            "aiGroupID": 240901002,
            "DBJILNPPJHP": true,
            "EIANNAGALAJ": 999.0,
            "FKMENPJNOEM": true,
            "clearThreatTargetDistance": 999.0,
            "aiNeuronSetting": "DefaultSetting",
            "aiSensingTemplate": "DefaultTemplate",
            "forceCombatOnSpawn": true,
            "OPOFAEBHLLK": "",
            "OGJHDDPDNKM": ""
        },
        {
            "groupId": 240901002,
            "mapInstId": 2003,
            "aiGroupID": 240901002,
            "DBJILNPPJHP": true,
            "EIANNAGALAJ": 999.0,
            "FKMENPJNOEM": true,
            "clearThreatTargetDistance": 999.0,
            "aiNeuronSetting": "DefaultSetting",
            "aiSensingTemplate": "DefaultTemplate",
            "forceCombatOnSpawn": true,
            "OPOFAEBHLLK": "",
            "OGJHDDPDNKM": ""
        },
        {
            "groupId": 240901002,
            "mapInstId": 2004,
            "aiGroupID": 240901002,
            "DBJILNPPJHP": true,
            "EIANNAGALAJ": 999.0,
            "FKMENPJNOEM": true,
            "clearThreatTargetDistance": 999.0,
            "aiNeuronSetting": "DefaultSetting",
            "aiSensingTemplate": "DefaultTemplate",
            "forceCombatOnSpawn": true,
            "OPOFAEBHLLK": "",
            "OGJHDDPDNKM": ""
        },
        {
            "groupId": 240901002,
            "mapInstId": 2008,
            "aiGroupID": 240901002,
            "DBJILNPPJHP": true,
            "EIANNAGALAJ": 999.0,
            "FKMENPJNOEM": true,
            "clearThreatTargetDistance": 999.0,
            "aiNeuronSetting": "DefaultSetting",
            "aiSensingTemplate": "DefaultTemplate",
            "forceCombatOnSpawn": true,
            "OPOFAEBHLLK": "",
            "OGJHDDPDNKM": ""
        },
        {
            "groupId": 240901002,
            "mapInstId": 2009,
            "aiGroupID": 240901002,
            "DBJILNPPJHP": true,
            "EIANNAGALAJ": 999.0,
            "FKMENPJNOEM": true,
            "clearThreatTargetDistance": 999.0,
            "aiNeuronSetting": "DefaultSetting",
            "aiSensingTemplate": "DefaultTemplate",
            "forceCombatOnSpawn": true,
            "OPOFAEBHLLK": "",
            "OGJHDDPDNKM": ""
        },
        {
            "groupId": 240901002,
            "mapInstId": 2011,
            "aiGroupID": 240901002,
            "DBJILNPPJHP": true,
            "EIANNAGALAJ": 999.0,
            "FKMENPJNOEM": true,
            "clearThreatTargetDistance": 999.0,
            "aiNeuronSetting": "DefaultSetting",
            "aiSensingTemplate": "DefaultTemplate",
            "forceCombatOnSpawn": true,
            "OPOFAEBHLLK": "",
            "OGJHDDPDNKM": ""
        },
        {
            "groupId": 240901002,
            "mapInstId": 2015,
            "aiGroupID": 240901002,
            "DBJILNPPJHP": true,
            "EIANNAGALAJ": 999.0,
            "FKMENPJNOEM": true,
            "clearThreatTargetDistance": 999.0,
            "aiNeuronSetting": "DefaultSetting",
            "aiSensingTemplate": "DefaultTemplate",
            "forceCombatOnSpawn": true,
            "OPOFAEBHLLK": "",
            "OGJHDDPDNKM": ""
        },
        {
            "groupId": 240901002,
            "mapInstId": 2016,
            "aiGroupID": 240901002,
            "DBJILNPPJHP": true,
            "EIANNAGALAJ": 999.0,
            "FKMENPJNOEM": true,
            "clearThreatTargetDistance": 999.0,
            "aiNeuronSetting": "DefaultSetting",
            "aiSensingTemplate": "DefaultTemplate",
            "forceCombatOnSpawn": true,
            "OPOFAEBHLLK": "",
            "OGJHDDPDNKM": ""
        },
        {
            "groupId": 240901002,
            "mapInstId": 2019,
            "aiGroupID": 240901002,
            "DBJILNPPJHP": true,
            "EIANNAGALAJ": 999.0,
            "FKMENPJNOEM": true,
            "clearThreatTargetDistance": 999.0,
            "aiNeuronSetting": "DefaultSetting",
            "aiSensingTemplate": "DefaultTemplate",
            "forceCombatOnSpawn": true,
            "OPOFAEBHLLK": "",
            "OGJHDDPDNKM": ""
        }
    ]
}