{
    "sceneId": 3,
    "monsters": [
        {
            "groupId": 133402002,
            "mapInstId": 2002,
            "aiGroupID": 133402002,
            "defendAreaID": 340200001,
            "aiNeuronSetting": "NeverCombat",
            "aiSensingTemplate": "NutcrackerTemplate",
            "billboardHasUIBar": true,
            "billboardHideUIBarDis": 80.0,
            "billboardUIBarNeedEnterCombat": true,
            "billboardHpBarStyle": "Boss",
            "OPOFAEBHLLK": "",
            "NPHJOAECJBI": true,
            "OGJHDDPDNKM": "Nutcracker_SpecialAlert"
        },
        {
            "groupId": 133402002,
            "mapInstId": 2003,
            "aiGroupID": 133402002,
            "defendAreaID": 340200001,
            "aiNeuronSetting": "NeverCombat",
            "aiSensingTemplate": "NutcrackerTemplate",
            "billboardHasUIBar": true,
            "billboardHideUIBarDis": 80.0,
            "billboardUIBarNeedEnterCombat": true,
            "billboardHpBarStyle": "Boss",
            "OPOFAEBHLLK": "",
            "NPHJOAECJBI": true,
            "OGJHDDPDNKM": "Nutcracker_SpecialAlert"
        },
        {
            "groupId": 133402005,
            "mapInstId": 5002,
            "aiGroupID": 133402005,
            "aiNeuronSetting": "DefaultSetting",
            "aiSensingTemplate": "DefaultTemplate",
            "disableWander": true,
            "OPOFAEBHLLK": "",
            "OGJHDDPDNKM": ""
        },
        {
            "groupId": 133402005,
            "mapInstId": 5003,
            "aiGroupID": 133402005,
            "aiNeuronSetting": "DefaultSetting",
            "aiSensingTemplate": "DefaultTemplate",
            "disableWander": true,
            "OPOFAEBHLLK": "",
            "OGJHDDPDNKM": ""
        },
        {
            "groupId": 133402006,
            "mapInstId": 6001,
            "aiNeuronSetting": "DefaultSetting",
            "aiSensingTemplate": "DefaultTemplate",
            "OPOFAEBHLLK": "",
            "NPHJOAECJBI": true,
            "OGJHDDPDNKM": "AbilityFish"
        },
        {
            "groupId": 133402008,
            "mapInstId": 8002,
            "aiGroupID": 133402008,
            "aiNeuronSetting": "DefaultSetting",
            "aiSensingTemplate": "DefaultTemplate",
            "OPOFAEBHLLK": "",
            "OGJHDDPDNKM": ""
        },
        {
            "groupId": 133402008,
            "mapInstId": 8003,
            "aiGroupID": 133402008,
            "aiNeuronSetting": "DefaultSetting",
            "aiSensingTemplate": "DefaultTemplate",
            "OPOFAEBHLLK": "",
            "OGJHDDPDNKM": ""
        },
        {
            "groupId": 133402014,
            "mapInstId": 14001,
            "aiGroupID": 133402014,
            "aiNeuronSetting": "DefaultSetting",
            "aiSensingTemplate": "CollectTemplate",
            "OPOFAEBHLLK": "",
            "OGJHDDPDNKM": ""
        },
        {
            "groupId": 133402014,
            "mapInstId": 14002,
            "aiGroupID": 133402014,
            "aiNeuronSetting": "DefaultSetting",
            "aiSensingTemplate": "CollectTemplate",
            "OPOFAEBHLLK": "",
            "OGJHDDPDNKM": ""
        },
        {
            "groupId": 133402014,
            "mapInstId": 14003,
            "routeId": 340200011,
            "aiGroupID": 133402017,
            "aiNeuronSetting": "DefaultSetting",
            "aiSensingTemplate": "DefaultTemplate",
            "OPOFAEBHLLK": "",
            "OGJHDDPDNKM": ""
        },
        {
            "groupId": 133402015,
            "mapInstId": 15002,
            "aiGroupID": 133402015,
            "aiNeuronSetting": "DefaultSetting",
            "aiSensingTemplate": "DefaultTemplate",
            "disableWander": true,
            "OPOFAEBHLLK": "",
            "OGJHDDPDNKM": ""
        },
        {
            "groupId": 133402015,
            "mapInstId": 15003,
            "aiGroupID": 133402015,
            "aiNeuronSetting": "DefaultSetting",
            "aiSensingTemplate": "DefaultTemplate",
            "disableWander": true,
            "OPOFAEBHLLK": "",
            "OGJHDDPDNKM": ""
        },
        {
            "groupId": 133402015,
            "mapInstId": 15004,
            "aiGroupID": 133402015,
            "aiNeuronSetting": "DefaultSetting",
            "aiSensingTemplate": "DefaultTemplate",
            "disableWander": true,
            "OPOFAEBHLLK": "",
            "OGJHDDPDNKM": ""
        },
        {
            "groupId": 133402016,
            "mapInstId": 16002,
            "aiGroupID": 133402016,
            "aiNeuronSetting": "DefaultSetting",
            "aiSensingTemplate": "DefaultTemplate",
            "disableWander": true,
            "OPOFAEBHLLK": "",
            "OGJHDDPDNKM": ""
        },
        {
            "groupId": 133402016,
            "mapInstId": 16003,
            "aiGroupID": 133402016,
            "aiNeuronSetting": "DefaultSetting",
            "aiSensingTemplate": "DefaultTemplate",
            "disableWander": true,
            "OPOFAEBHLLK": "",
            "OGJHDDPDNKM": ""
        },
        {
            "groupId": 133402016,
            "mapInstId": 16004,
            "aiGroupID": 133402016,
            "aiNeuronSetting": "DefaultSetting",
            "aiSensingTemplate": "DefaultTemplate",
            "disableWander": true,
            "OPOFAEBHLLK": "",
            "OGJHDDPDNKM": ""
        },
        {
            "groupId": 133402025,
            "mapInstId": 25002,
            "aiGroupID": 133402025,
            "aiNeuronSetting": "DefaultSetting",
            "aiSensingTemplate": "DefaultTemplate",
            "disableWander": true,
            "OPOFAEBHLLK": "",
            "OGJHDDPDNKM": ""
        },
        {
            "groupId": 133402025,
            "mapInstId": 25003,
            "aiGroupID": 133402025,
            "aiNeuronSetting": "DefaultSetting",
            "aiSensingTemplate": "DefaultTemplate",
            "disableWander": true,
            "OPOFAEBHLLK": "",
            "OGJHDDPDNKM": ""
        },
        {
            "groupId": 133402027,
            "mapInstId": 27001,
            "aiGroupID": 133402027,
            "aiNeuronSetting": "DefaultSetting",
            "aiSensingTemplate": "DefaultTemplate",
            "OPOFAEBHLLK": "",
            "OGJHDDPDNKM": ""
        },
        {
            "groupId": 133402027,
            "mapInstId": 27002,
            "aiGroupID": 133402027,
            "aiNeuronSetting": "DefaultSetting",
            "aiSensingTemplate": "DefaultTemplate",
            "OPOFAEBHLLK": "",
            "OGJHDDPDNKM": ""
        },
        {
            "groupId": 133402027,
            "mapInstId": 27005,
            "aiGroupID": 133402027,
            "aiNeuronSetting": "DefaultSetting",
            "aiSensingTemplate": "DefaultTemplate",
            "OPOFAEBHLLK": "",
            "OGJHDDPDNKM": ""
        },
        {
            "groupId": 133402027,
            "mapInstId": 27006,
            "aiGroupID": 133402027,
            "aiNeuronSetting": "DefaultSetting",
            "aiSensingTemplate": "DefaultTemplate",
            "OPOFAEBHLLK": "",
            "OGJHDDPDNKM": ""
        },
        {
            "groupId": 133402028,
            "mapInstId": 28001,
            "aiGroupID": 133402028,
            "aiNeuronSetting": "DefaultSetting",
            "aiSensingTemplate": "NoSensing",
            "OPOFAEBHLLK": "",
            "OGJHDDPDNKM": ""
        },
        {
            "groupId": 133402030,
            "mapInstId": 30007,
            "aiNeuronSetting": "DefaultSetting",
            "aiSensingTemplate": "DefaultTemplate",
            "OPOFAEBHLLK": "",
            "NPHJOAECJBI": true,
            "OGJHDDPDNKM": "AbilityFish"
        },
        {
            "groupId": 133402030,
            "mapInstId": 30008,
            "aiNeuronSetting": "DefaultSetting",
            "aiSensingTemplate": "DefaultTemplate",
            "OPOFAEBHLLK": "",
            "NPHJOAECJBI": true,
            "OGJHDDPDNKM": "AbilityFish"
        },
        {
            "groupId": 133402034,
            "mapInstId": 34001,
            "routeId": 340200050,
            "aiGroupID": 133402034,
            "aiNeuronSetting": "DefaultSetting",
            "aiSensingTemplate": "DefaultTemplate",
            "OPOFAEBHLLK": "",
            "OGJHDDPDNKM": ""
        },
        {
            "groupId": 133402034,
            "mapInstId": 34002,
            "routeId": 340200050,
            "aiNeuronSetting": "DefaultSetting",
            "aiSensingTemplate": "DefaultTemplate",
            "OPOFAEBHLLK": "",
            "NPHJOAECJBI": true,
            "OGJHDDPDNKM": "AbilityFish"
        },
        {
            "groupId": 133402034,
            "mapInstId": 34003,
            "routeId": 340200050,
            "aiNeuronSetting": "DefaultSetting",
            "aiSensingTemplate": "DefaultTemplate",
            "OPOFAEBHLLK": "",
            "NPHJOAECJBI": true,
            "OGJHDDPDNKM": "AbilityFish"
        },
        {
            "groupId": 133402036,
            "mapInstId": 36002,
            "routeId": 340200008,
            "aiGroupID": 133402036,
            "aiNeuronSetting": "DefaultSetting",
            "aiSensingTemplate": "DefaultTemplate",
            "billboardUIBarNeedEnterCombat": true,
            "OPOFAEBHLLK": "",
            "OGJHDDPDNKM": ""
        },
        {
            "groupId": 133402037,
            "mapInstId": 37004,
            "routeId": 340200015,
            "aiNeuronSetting": "DefaultSetting",
            "aiSensingTemplate": "DefaultTemplate",
            "OPOFAEBHLLK": "",
            "OGJHDDPDNKM": ""
        },
        {
            "groupId": 133402039,
            "mapInstId": 39001,
            "aiGroupID": 133402039,
            "aiNeuronSetting": "DefaultSetting",
            "aiSensingTemplate": "DefaultTemplate",
            "OPOFAEBHLLK": "",
            "OGJHDDPDNKM": ""
        },
        {
            "groupId": 133402039,
            "mapInstId": 39002,
            "aiGroupID": 133402039,
            "aiNeuronSetting": "DefaultSetting",
            "aiSensingTemplate": "DefaultTemplate",
            "OPOFAEBHLLK": "",
            "OGJHDDPDNKM": ""
        },
        {
            "groupId": 133402039,
            "mapInstId": 39003,
            "aiGroupID": 133402039,
            "aiNeuronSetting": "DefaultSetting",
            "aiSensingTemplate": "DefaultTemplate",
            "OPOFAEBHLLK": "",
            "OGJHDDPDNKM": ""
        },
        {
            "groupId": 133402040,
            "mapInstId": 40001,
            "aiNeuronSetting": "DefaultSetting",
            "aiSensingTemplate": "DefaultTemplate",
            "OPOFAEBHLLK": "",
            "NPHJOAECJBI": true,
            "OGJHDDPDNKM": "AbilityFish"
        },
        {
            "groupId": 133402040,
            "mapInstId": 40003,
            "aiNeuronSetting": "DefaultSetting",
            "aiSensingTemplate": "DefaultTemplate",
            "OPOFAEBHLLK": "",
            "NPHJOAECJBI": true,
            "OGJHDDPDNKM": "AbilityFish"
        },
        {
            "groupId": 133402040,
            "mapInstId": 40004,
            "aiNeuronSetting": "DefaultSetting",
            "aiSensingTemplate": "DefaultTemplate",
            "OPOFAEBHLLK": "",
            "NPHJOAECJBI": true,
            "OGJHDDPDNKM": "AbilityFish"
        },
        {
            "groupId": 133402041,
            "mapInstId": 41001,
            "aiGroupID": 133402041,
            "aiNeuronSetting": "DefaultSetting",
            "aiSensingTemplate": "DefaultTemplate",
            "OPOFAEBHLLK": "",
            "OGJHDDPDNKM": ""
        },
        {
            "groupId": 133402041,
            "mapInstId": 41003,
            "aiGroupID": 133402041,
            "aiNeuronSetting": "DefaultSetting",
            "aiSensingTemplate": "DefaultTemplate",
            "OPOFAEBHLLK": "",
            "OGJHDDPDNKM": ""
        },
        {
            "groupId": 133402042,
            "mapInstId": 42004,
            "routeId": 340200245,
            "aiNeuronSetting": "DefaultSetting",
            "aiSensingTemplate": "DefaultTemplate",
            "OPOFAEBHLLK": "",
            "OGJHDDPDNKM": ""
        },
        {
            "groupId": 133402042,
            "mapInstId": 42005,
            "routeId": 340200010,
            "aiNeuronSetting": "DefaultSetting",
            "aiSensingTemplate": "DefaultTemplate",
            "OPOFAEBHLLK": "",
            "OGJHDDPDNKM": ""
        },
        {
            "groupId": 133402042,
            "mapInstId": 42006,
            "aiNeuronSetting": "DefaultSetting",
            "aiSensingTemplate": "DefaultTemplate",
            "OPOFAEBHLLK": "",
            "NPHJOAECJBI": true,
            "OGJHDDPDNKM": "AbilityFish"
        },
        {
            "groupId": 133402044,
            "mapInstId": 44002,
            "aiGroupID": 133402044,
            "defendAreaRange": 10.0,
            "aiNeuronSetting": "DefaultSetting",
            "aiSensingTemplate": "DefaultTemplate",
            "disableWander": true,
            "OPOFAEBHLLK": "",
            "OGJHDDPDNKM": ""
        },
        {
            "groupId": 133402044,
            "mapInstId": 44003,
            "aiGroupID": 133402044,
            "defendAreaRange": 10.0,
            "aiNeuronSetting": "DefaultSetting",
            "aiSensingTemplate": "DefaultTemplate",
            "disableWander": true,
            "OPOFAEBHLLK": "",
            "OGJHDDPDNKM": ""
        },
        {
            "groupId": 133402044,
            "mapInstId": 44004,
            "aiGroupID": 133402044,
            "defendAreaRange": 10.0,
            "aiNeuronSetting": "DefaultSetting",
            "aiSensingTemplate": "DefaultTemplate",
            "disableWander": true,
            "OPOFAEBHLLK": "",
            "OGJHDDPDNKM": ""
        },
        {
            "groupId": 133402044,
            "mapInstId": 44005,
            "aiGroupID": 133402044,
            "defendAreaRange": 10.0,
            "aiNeuronSetting": "DefaultSetting",
            "aiSensingTemplate": "DefaultTemplate",
            "disableWander": true,
            "OPOFAEBHLLK": "",
            "OGJHDDPDNKM": ""
        },
        {
            "groupId": 133402050,
            "mapInstId": 50001,
            "aiNeuronSetting": "DefaultSetting",
            "aiSensingTemplate": "DefaultTemplate",
            "OPOFAEBHLLK": "",
            "NPHJOAECJBI": true,
            "OGJHDDPDNKM": "AbilityFish"
        },
        {
            "groupId": 133402050,
            "mapInstId": 50002,
            "aiGroupID": 133402050,
            "defendAreaRange": 15.0,
            "aiNeuronSetting": "DefaultSetting",
            "aiSensingTemplate": "DefaultTemplate",
            "OPOFAEBHLLK": "",
            "OGJHDDPDNKM": ""
        },
        {
            "groupId": 133402050,
            "mapInstId": 50003,
            "aiGroupID": 133402050,
            "defendAreaRange": 15.0,
            "aiNeuronSetting": "DefaultSetting",
            "aiSensingTemplate": "DefaultTemplate",
            "OPOFAEBHLLK": "",
            "OGJHDDPDNKM": ""
        },
        {
            "groupId": 133402052,
            "mapInstId": 52001,
            "aiGroupID": 133402052,
            "aiNeuronSetting": "DefaultSetting",
            "aiSensingTemplate": "DefaultTemplate",
            "disableWander": true,
            "OPOFAEBHLLK": "",
            "OGJHDDPDNKM": ""
        },
        {
            "groupId": 133402052,
            "mapInstId": 52005,
            "aiGroupID": 133402052,
            "aiNeuronSetting": "DefaultSetting",
            "aiSensingTemplate": "DefaultTemplate",
            "disableWander": true,
            "OPOFAEBHLLK": "",
            "OGJHDDPDNKM": ""
        },
        {
            "groupId": 133402057,
            "mapInstId": 57001,
            "aiGroupID": 133402057,
            "aiNeuronSetting": "DefaultSetting",
            "aiSensingTemplate": "DefaultTemplate",
            "OPOFAEBHLLK": "",
            "OGJHDDPDNKM": ""
        },
        {
            "groupId": 133402057,
            "mapInstId": 57002,
            "aiGroupID": 133402057,
            "aiNeuronSetting": "DefaultSetting",
            "aiSensingTemplate": "DefaultTemplate",
            "OPOFAEBHLLK": "",
            "OGJHDDPDNKM": ""
        },
        {
            "groupId": 133402059,
            "mapInstId": 59001,
            "routeId": 340200067,
            "aiNeuronSetting": "DefaultSetting",
            "aiSensingTemplate": "DefaultTemplate",
            "OPOFAEBHLLK": "",
            "NPHJOAECJBI": true,
            "OGJHDDPDNKM": "AbilityFish"
        },
        {
            "groupId": 133402066,
            "mapInstId": 66001,
            "aiGroupID": 133402066,
            "aiNeuronSetting": "DefaultSetting",
            "aiSensingTemplate": "DefaultTemplate",
            "OPOFAEBHLLK": "",
            "OGJHDDPDNKM": ""
        },
        {
            "groupId": 133402066,
            "mapInstId": 66002,
            "aiGroupID": 133402066,
            "aiNeuronSetting": "DefaultSetting",
            "aiSensingTemplate": "DefaultTemplate",
            "OPOFAEBHLLK": "",
            "OGJHDDPDNKM": ""
        },
        {
            "groupId": 133402066,
            "mapInstId": 66003,
            "aiGroupID": 133402066,
            "aiNeuronSetting": "DefaultSetting",
            "aiSensingTemplate": "DefaultTemplate",
            "OPOFAEBHLLK": "",
            "OGJHDDPDNKM": ""
        },
        {
            "groupId": 133402066,
            "mapInstId": 66004,
            "aiGroupID": 133402066,
            "aiNeuronSetting": "DefaultSetting",
            "aiSensingTemplate": "DefaultTemplate",
            "OPOFAEBHLLK": "",
            "OGJHDDPDNKM": ""
        },
        {
            "groupId": 133402068,
            "mapInstId": 68009,
            "aiNeuronSetting": "DefaultSetting",
            "aiSensingTemplate": "DefaultTemplate",
            "OPOFAEBHLLK": "",
            "NPHJOAECJBI": true,
            "OGJHDDPDNKM": "AbilityFish"
        },
        {
            "groupId": 133402069,
            "mapInstId": 69001,
            "aiGroupID": 133402069,
            "aiNeuronSetting": "DefaultSetting",
            "aiSensingTemplate": "DefaultTemplate",
            "OPOFAEBHLLK": "",
            "OGJHDDPDNKM": ""
        },
        {
            "groupId": 133402069,
            "mapInstId": 69002,
            "aiGroupID": 133402069,
            "aiNeuronSetting": "DefaultSetting",
            "aiSensingTemplate": "DefaultTemplate",
            "OPOFAEBHLLK": "",
            "OGJHDDPDNKM": ""
        },
        {
            "groupId": 133402070,
            "mapInstId": 70001,
            "aiGroupID": 1,
            "aiNeuronSetting": "DefaultSetting",
            "aiSensingTemplate": "DefaultTemplate",
            "OPOFAEBHLLK": "",
            "OGJHDDPDNKM": ""
        },
        {
            "groupId": 133402070,
            "mapInstId": 70002,
            "aiGroupID": 1,
            "aiNeuronSetting": "DefaultSetting",
            "aiSensingTemplate": "DefaultTemplate",
            "OPOFAEBHLLK": "",
            "OGJHDDPDNKM": ""
        },
        {
            "groupId": 133402070,
            "mapInstId": 70003,
            "routeId": 340200162,
            "aiGroupID": 1,
            "aiNeuronSetting": "DefaultSetting",
            "aiSensingTemplate": "DefaultTemplate",
            "OPOFAEBHLLK": "",
            "OGJHDDPDNKM": ""
        },
        {
            "groupId": 133402070,
            "mapInstId": 70004,
            "aiGroupID": 1,
            "aiNeuronSetting": "DefaultSetting",
            "aiSensingTemplate": "DefaultTemplate",
            "OPOFAEBHLLK": "",
            "OGJHDDPDNKM": ""
        },
        {
            "groupId": 133402070,
            "mapInstId": 70006,
            "routeId": 340200162,
            "aiGroupID": 1,
            "aiNeuronSetting": "DefaultSetting",
            "aiSensingTemplate": "DefaultTemplate",
            "OPOFAEBHLLK": "",
            "OGJHDDPDNKM": ""
        },
        {
            "groupId": 133402071,
            "mapInstId": 71020,
            "aiNeuronSetting": "DefaultSetting",
            "aiSensingTemplate": "DefaultTemplate",
            "disableWander": true,
            "OPOFAEBHLLK": "",
            "NPHJOAECJBI": true,
            "OGJHDDPDNKM": "AbilityFish"
        },
        {
            "groupId": 133402080,
            "mapInstId": 80001,
            "aiGroupID": 133402080,
            "aiNeuronSetting": "DefaultSetting",
            "aiSensingTemplate": "DefaultTemplate",
            "disableWander": true,
            "OPOFAEBHLLK": "",
            "OGJHDDPDNKM": ""
        },
        {
            "groupId": 133402083,
            "mapInstId": 83001,
            "aiGroupID": 133402083,
            "aiNeuronSetting": "DefaultSetting",
            "aiSensingTemplate": "DefaultTemplate",
            "OPOFAEBHLLK": "",
            "OGJHDDPDNKM": ""
        },
        {
            "groupId": 133402083,
            "mapInstId": 83002,
            "aiGroupID": 133402083,
            "aiNeuronSetting": "DefaultSetting",
            "aiSensingTemplate": "DefaultTemplate",
            "OPOFAEBHLLK": "",
            "OGJHDDPDNKM": ""
        },
        {
            "groupId": 133402084,
            "mapInstId": 84002,
            "aiGroupID": 133402084,
            "aiNeuronSetting": "DefaultSetting",
            "aiSensingTemplate": "DefaultTemplate",
            "disableWander": true,
            "OPOFAEBHLLK": "",
            "OGJHDDPDNKM": ""
        },
        {
            "groupId": 133402084,
            "mapInstId": 84004,
            "aiGroupID": 133402084,
            "aiNeuronSetting": "DefaultSetting",
            "aiSensingTemplate": "DefaultTemplate",
            "disableWander": true,
            "OPOFAEBHLLK": "",
            "OGJHDDPDNKM": ""
        },
        {
            "groupId": 133402085,
            "mapInstId": 85001,
            "aiGroupID": 133402085,
            "aiNeuronSetting": "DefaultSetting",
            "aiSensingTemplate": "DefaultTemplate",
            "OPOFAEBHLLK": "",
            "OGJHDDPDNKM": ""
        },
        {
            "groupId": 133402085,
            "mapInstId": 85002,
            "aiGroupID": 133402085,
            "aiNeuronSetting": "DefaultSetting",
            "aiSensingTemplate": "DefaultTemplate",
            "OPOFAEBHLLK": "",
            "OGJHDDPDNKM": ""
        },
        {
            "groupId": 133402107,
            "mapInstId": 107004,
            "aiGroupID": 133402107,
            "aiNeuronSetting": "DefaultSetting",
            "aiSensingTemplate": "DefaultTemplate",
            "OPOFAEBHLLK": "",
            "OGJHDDPDNKM": ""
        },
        {
            "groupId": 133402107,
            "mapInstId": 107005,
            "aiGroupID": 133402107,
            "aiNeuronSetting": "DefaultSetting",
            "aiSensingTemplate": "DefaultTemplate",
            "OPOFAEBHLLK": "",
            "OGJHDDPDNKM": ""
        },
        {
            "groupId": 133402107,
            "mapInstId": 107006,
            "aiGroupID": 133402107,
            "aiNeuronSetting": "DefaultSetting",
            "aiSensingTemplate": "DefaultTemplate",
            "OPOFAEBHLLK": "",
            "OGJHDDPDNKM": ""
        },
        {
            "groupId": 133402107,
            "mapInstId": 107007,
            "aiGroupID": 133402107,
            "aiNeuronSetting": "DefaultSetting",
            "aiSensingTemplate": "DefaultTemplate",
            "OPOFAEBHLLK": "",
            "OGJHDDPDNKM": ""
        },
        {
            "groupId": 133402107,
            "mapInstId": 107008,
            "routeId": 340200167,
            "aiGroupID": 133402107,
            "aiNeuronSetting": "DefaultSetting",
            "aiSensingTemplate": "DefaultTemplate",
            "OPOFAEBHLLK": "",
            "OGJHDDPDNKM": ""
        },
        {
            "groupId": 133402107,
            "mapInstId": 107009,
            "aiGroupID": 133402107,
            "aiNeuronSetting": "DefaultSetting",
            "aiSensingTemplate": "DefaultTemplate",
            "OPOFAEBHLLK": "",
            "OGJHDDPDNKM": ""
        },
        {
            "groupId": 133402110,
            "mapInstId": 110019,
            "aiGroupID": 133402110,
            "aiNeuronSetting": "DefaultSetting",
            "aiSensingTemplate": "DefaultTemplate",
            "OPOFAEBHLLK": "",
            "OGJHDDPDNKM": ""
        },
        {
            "groupId": 133402110,
            "mapInstId": 110023,
            "aiGroupID": 133402110,
            "aiNeuronSetting": "DefaultSetting",
            "aiSensingTemplate": "DefaultTemplate",
            "OPOFAEBHLLK": "",
            "OGJHDDPDNKM": ""
        },
        {
            "groupId": 133402110,
            "mapInstId": 110029,
            "aiGroupID": 133402110,
            "aiNeuronSetting": "DefaultSetting",
            "aiSensingTemplate": "DefaultTemplate",
            "OPOFAEBHLLK": "",
            "OGJHDDPDNKM": ""
        },
        {
            "groupId": 133402110,
            "mapInstId": 110030,
            "aiGroupID": 133402110,
            "aiNeuronSetting": "DefaultSetting",
            "aiSensingTemplate": "DefaultTemplate",
            "OPOFAEBHLLK": "",
            "OGJHDDPDNKM": ""
        },
        {
            "groupId": 133402110,
            "mapInstId": 110031,
            "aiGroupID": 133402110,
            "aiNeuronSetting": "DefaultSetting",
            "aiSensingTemplate": "DefaultTemplate",
            "OPOFAEBHLLK": "",
            "OGJHDDPDNKM": ""
        },
        {
            "groupId": 133402119,
            "mapInstId": 119005,
            "aiGroupID": 133402119,
            "aiNeuronSetting": "DefaultSetting",
            "aiSensingTemplate": "DefaultTemplate",
            "disableWander": true,
            "OPOFAEBHLLK": "",
            "OGJHDDPDNKM": ""
        },
        {
            "groupId": 133402119,
            "mapInstId": 119006,
            "aiGroupID": 133402119,
            "aiNeuronSetting": "DefaultSetting",
            "aiSensingTemplate": "DefaultTemplate",
            "disableWander": true,
            "OPOFAEBHLLK": "",
            "OGJHDDPDNKM": ""
        },
        {
            "groupId": 133402119,
            "mapInstId": 119007,
            "aiGroupID": 133402119,
            "aiNeuronSetting": "DefaultSetting",
            "aiSensingTemplate": "DefaultTemplate",
            "disableWander": true,
            "OPOFAEBHLLK": "",
            "OGJHDDPDNKM": ""
        },
        {
            "groupId": 133402119,
            "mapInstId": 119020,
            "aiGroupID": 133402119,
            "aiNeuronSetting": "DefaultSetting",
            "aiSensingTemplate": "DefaultTemplate",
            "disableWander": true,
            "OPOFAEBHLLK": "",
            "OGJHDDPDNKM": ""
        },
        {
            "groupId": 133402121,
            "mapInstId": 121001,
            "aiGroupID": 133402121,
            "aiNeuronSetting": "DefaultSetting",
            "aiSensingTemplate": "DefaultTemplate",
            "OPOFAEBHLLK": "",
            "OGJHDDPDNKM": ""
        },
        {
            "groupId": 133402121,
            "mapInstId": 121002,
            "aiGroupID": 133402121,
            "aiNeuronSetting": "DefaultSetting",
            "aiSensingTemplate": "DefaultTemplate",
            "OPOFAEBHLLK": "",
            "OGJHDDPDNKM": ""
        },
        {
            "groupId": 133402121,
            "mapInstId": 121003,
            "aiGroupID": 133402121,
            "aiNeuronSetting": "DefaultSetting",
            "aiSensingTemplate": "DefaultTemplate",
            "OPOFAEBHLLK": "",
            "OGJHDDPDNKM": ""
        },
        {
            "groupId": 133402121,
            "mapInstId": 121004,
            "aiGroupID": 133402121,
            "aiNeuronSetting": "DefaultSetting",
            "aiSensingTemplate": "DefaultTemplate",
            "OPOFAEBHLLK": "",
            "OGJHDDPDNKM": ""
        },
        {
            "groupId": 133402121,
            "mapInstId": 121005,
            "aiGroupID": 133402121,
            "aiNeuronSetting": "DefaultSetting",
            "aiSensingTemplate": "DefaultTemplate",
            "OPOFAEBHLLK": "",
            "OGJHDDPDNKM": ""
        },
        {
            "groupId": 133402121,
            "mapInstId": 121006,
            "aiGroupID": 133402121,
            "aiNeuronSetting": "DefaultSetting",
            "aiSensingTemplate": "DefaultTemplate",
            "OPOFAEBHLLK": "",
            "OGJHDDPDNKM": ""
        },
        {
            "groupId": 133402121,
            "mapInstId": 121013,
            "aiGroupID": 133402121,
            "aiNeuronSetting": "DefaultSetting",
            "aiSensingTemplate": "DefaultTemplate",
            "OPOFAEBHLLK": "",
            "OGJHDDPDNKM": ""
        },
        {
            "groupId": 133402121,
            "mapInstId": 121014,
            "aiGroupID": 133402121,
            "aiNeuronSetting": "DefaultSetting",
            "aiSensingTemplate": "DefaultTemplate",
            "OPOFAEBHLLK": "",
            "OGJHDDPDNKM": ""
        },
        {
            "groupId": 133402121,
            "mapInstId": 121015,
            "aiGroupID": 133402121,
            "aiNeuronSetting": "DefaultSetting",
            "aiSensingTemplate": "DefaultTemplate",
            "OPOFAEBHLLK": "",
            "OGJHDDPDNKM": ""
        },
        {
            "groupId": 133402121,
            "mapInstId": 121016,
            "aiGroupID": 133402121,
            "aiNeuronSetting": "DefaultSetting",
            "aiSensingTemplate": "DefaultTemplate",
            "OPOFAEBHLLK": "",
            "OGJHDDPDNKM": ""
        },
        {
            "groupId": 133402123,
            "mapInstId": 123001,
            "aiGroupID": 133402123,
            "aiNeuronSetting": "DefaultSetting",
            "aiSensingTemplate": "DefaultTemplate",
            "forceCombatOnSpawn": true,
            "OPOFAEBHLLK": "",
            "OGJHDDPDNKM": ""
        },
        {
            "groupId": 133402123,
            "mapInstId": 123002,
            "aiGroupID": 133402123,
            "aiNeuronSetting": "DefaultSetting",
            "aiSensingTemplate": "DefaultTemplate",
            "forceCombatOnSpawn": true,
            "OPOFAEBHLLK": "",
            "OGJHDDPDNKM": ""
        },
        {
            "groupId": 133402123,
            "mapInstId": 123017,
            "aiGroupID": 133402123,
            "aiNeuronSetting": "DefaultSetting",
            "aiSensingTemplate": "DefaultTemplate",
            "forceCombatOnSpawn": true,
            "OPOFAEBHLLK": "",
            "OGJHDDPDNKM": ""
        },
        {
            "groupId": 133402123,
            "mapInstId": 123018,
            "aiGroupID": 133402123,
            "aiNeuronSetting": "DefaultSetting",
            "aiSensingTemplate": "DefaultTemplate",
            "forceCombatOnSpawn": true,
            "OPOFAEBHLLK": "",
            "OGJHDDPDNKM": ""
        },
        {
            "groupId": 133401134,
            "mapInstId": 134002,
            "aiGroupID": 133401134,
            "aiNeuronSetting": "DefaultSetting",
            "aiSensingTemplate": "DefaultTemplate",
            "disableWander": true,
            "OPOFAEBHLLK": "",
            "OGJHDDPDNKM": ""
        },
        {
            "groupId": 133401134,
            "mapInstId": 134004,
            "aiGroupID": 133401134,
            "aiNeuronSetting": "DefaultSetting",
            "aiSensingTemplate": "DefaultTemplate",
            "disableWander": true,
            "OPOFAEBHLLK": "",
            "OGJHDDPDNKM": ""
        },
        {
            "groupId": 133402138,
            "mapInstId": 138002,
            "aiGroupID": 133402138,
            "aiNeuronSetting": "DefaultSetting",
            "aiSensingTemplate": "DefaultTemplate",
            "OPOFAEBHLLK": "",
            "OGJHDDPDNKM": ""
        },
        {
            "groupId": 133402148,
            "mapInstId": 148002,
            "routeId": 340200127,
            "aiGroupID": 133402148,
            "aiNeuronSetting": "DefaultSetting",
            "aiSensingTemplate": "DefaultTemplate",
            "OPOFAEBHLLK": "",
            "OGJHDDPDNKM": ""
        },
        {
            "groupId": 133402149,
            "mapInstId": 149001,
            "aiGroupID": 133402149,
            "aiNeuronSetting": "DefaultSetting",
            "aiSensingTemplate": "DefaultTemplate",
            "disableWander": true,
            "OPOFAEBHLLK": "",
            "OGJHDDPDNKM": ""
        },
        {
            "groupId": 133402149,
            "mapInstId": 149002,
            "aiGroupID": 133402149,
            "aiNeuronSetting": "DefaultSetting",
            "aiSensingTemplate": "DefaultTemplate",
            "disableWander": true,
            "OPOFAEBHLLK": "",
            "OGJHDDPDNKM": ""
        },
        {
            "groupId": 133402152,
            "mapInstId": 152001,
            "aiGroupID": 133402152,
            "aiNeuronSetting": "DefaultSetting",
            "aiSensingTemplate": "DefaultTemplate",
            "disableWander": true,
            "OPOFAEBHLLK": "",
            "OGJHDDPDNKM": ""
        },
        {
            "groupId": 133402152,
            "mapInstId": 152002,
            "aiGroupID": 133402152,
            "aiNeuronSetting": "Make",
            "aiSensingTemplate": "DefaultTemplate",
            "disableWander": true,
            "OPOFAEBHLLK": "",
            "OGJHDDPDNKM": ""
        },
        {
            "groupId": 133402152,
            "mapInstId": 152003,
            "aiGroupID": 133402152,
            "aiNeuronSetting": "DefaultSetting",
            "aiSensingTemplate": "DefaultTemplate",
            "OPOFAEBHLLK": "",
            "OGJHDDPDNKM": ""
        },
        {
            "groupId": 133402152,
            "mapInstId": 152004,
            "aiGroupID": 133402152,
            "aiNeuronSetting": "DefaultSetting",
            "aiSensingTemplate": "DefaultTemplate",
            "OPOFAEBHLLK": "",
            "OGJHDDPDNKM": ""
        },
        {
            "groupId": 133402152,
            "mapInstId": 152005,
            "aiGroupID": 133402152,
            "aiNeuronSetting": "DefaultSetting",
            "aiSensingTemplate": "DefaultTemplate",
            "OPOFAEBHLLK": "",
            "OGJHDDPDNKM": ""
        },
        {
            "groupId": 133402152,
            "mapInstId": 152006,
            "aiGroupID": 133402152,
            "aiNeuronSetting": "DefaultSetting",
            "aiSensingTemplate": "DefaultTemplate",
            "OPOFAEBHLLK": "",
            "OGJHDDPDNKM": ""
        },
        {
            "groupId": 133402153,
            "mapInstId": 153001,
            "aiNeuronSetting": "DefaultSetting",
            "aiSensingTemplate": "DefaultTemplate",
            "OPOFAEBHLLK": "",
            "NPHJOAECJBI": true,
            "OGJHDDPDNKM": "AbilityFish"
        },
        {
            "groupId": 133402153,
            "mapInstId": 153002,
            "aiNeuronSetting": "DefaultSetting",
            "aiSensingTemplate": "DefaultTemplate",
            "OPOFAEBHLLK": "",
            "NPHJOAECJBI": true,
            "OGJHDDPDNKM": "AbilityFish"
        },
        {
            "groupId": 133402153,
            "mapInstId": 153003,
            "aiNeuronSetting": "DefaultSetting",
            "aiSensingTemplate": "DefaultTemplate",
            "OPOFAEBHLLK": "",
            "NPHJOAECJBI": true,
            "OGJHDDPDNKM": "AbilityFish"
        },
        {
            "groupId": 133402153,
            "mapInstId": 153004,
            "aiNeuronSetting": "DefaultSetting",
            "aiSensingTemplate": "DefaultTemplate",
            "OPOFAEBHLLK": "",
            "NPHJOAECJBI": true,
            "OGJHDDPDNKM": "AbilityFish"
        },
        {
            "groupId": 133402153,
            "mapInstId": 153005,
            "aiNeuronSetting": "DefaultSetting",
            "aiSensingTemplate": "DefaultTemplate",
            "OPOFAEBHLLK": "",
            "NPHJOAECJBI": true,
            "OGJHDDPDNKM": "AbilityFish"
        },
        {
            "groupId": 133402153,
            "mapInstId": 153006,
            "aiNeuronSetting": "DefaultSetting",
            "aiSensingTemplate": "DefaultTemplate",
            "OPOFAEBHLLK": "",
            "NPHJOAECJBI": true,
            "OGJHDDPDNKM": "AbilityFish"
        },
        {
            "groupId": 133402153,
            "mapInstId": 153008,
            "routeId": 340200096,
            "aiNeuronSetting": "DefaultSetting",
            "aiSensingTemplate": "DefaultTemplate",
            "OPOFAEBHLLK": "",
            "NPHJOAECJBI": true,
            "OGJHDDPDNKM": "AbilityFish"
        },
        {
            "groupId": 133402153,
            "mapInstId": 153009,
            "routeId": 340200235,
            "aiNeuronSetting": "DefaultSetting",
            "aiSensingTemplate": "DefaultTemplate",
            "OPOFAEBHLLK": "",
            "NPHJOAECJBI": true,
            "OGJHDDPDNKM": "AbilityFish"
        },
        {
            "groupId": 133402153,
            "mapInstId": 153014,
            "routeId": 340200244,
            "aiNeuronSetting": "DefaultSetting",
            "aiSensingTemplate": "DefaultTemplate",
            "OPOFAEBHLLK": "",
            "NPHJOAECJBI": true,
            "OGJHDDPDNKM": "AbilityFish"
        },
        {
            "groupId": 133402153,
            "mapInstId": 153029,
            "aiNeuronSetting": "DefaultSetting",
            "aiSensingTemplate": "DefaultTemplate",
            "OPOFAEBHLLK": "",
            "NPHJOAECJBI": true,
            "OGJHDDPDNKM": "AbilityFish"
        },
        {
            "groupId": 133402153,
            "mapInstId": 153030,
            "aiNeuronSetting": "DefaultSetting",
            "aiSensingTemplate": "DefaultTemplate",
            "OPOFAEBHLLK": "",
            "NPHJOAECJBI": true,
            "OGJHDDPDNKM": "AbilityFish"
        },
        {
            "groupId": 133402153,
            "mapInstId": 153031,
            "routeId": 340200243,
            "aiNeuronSetting": "DefaultSetting",
            "aiSensingTemplate": "DefaultTemplate",
            "OPOFAEBHLLK": "",
            "NPHJOAECJBI": true,
            "OGJHDDPDNKM": "AbilityFish"
        },
        {
            "groupId": 133402170,
            "mapInstId": 170001,
            "aiGroupID": 133402170,
            "aiNeuronSetting": "DefaultSetting",
            "aiSensingTemplate": "DefaultTemplate",
            "disableWander": true,
            "OPOFAEBHLLK": "",
            "OGJHDDPDNKM": ""
        },
        {
            "groupId": 133402170,
            "mapInstId": 170002,
            "aiGroupID": 133402170,
            "aiNeuronSetting": "DefaultSetting",
            "aiSensingTemplate": "DefaultTemplate",
            "disableWander": true,
            "OPOFAEBHLLK": "",
            "OGJHDDPDNKM": ""
        },
        {
            "groupId": 133402170,
            "mapInstId": 170003,
            "aiGroupID": 133402170,
            "aiNeuronSetting": "DefaultSetting",
            "aiSensingTemplate": "DefaultTemplate",
            "disableWander": true,
            "OPOFAEBHLLK": "",
            "OGJHDDPDNKM": ""
        },
        {
            "groupId": 133402170,
            "mapInstId": 170004,
            "aiGroupID": 133402170,
            "aiNeuronSetting": "DefaultSetting",
            "aiSensingTemplate": "DefaultTemplate",
            "disableWander": true,
            "OPOFAEBHLLK": "",
            "OGJHDDPDNKM": ""
        },
        {
            "groupId": 133402174,
            "mapInstId": 174001,
            "aiGroupID": 133402174,
            "aiNeuronSetting": "DefaultSetting",
            "aiSensingTemplate": "NeverCombatTemplate",
            "OPOFAEBHLLK": "",
            "OGJHDDPDNKM": ""
        },
        {
            "groupId": 133402174,
            "mapInstId": 174002,
            "aiNeuronSetting": "DefaultSetting",
            "aiSensingTemplate": "DefaultTemplate",
            "OPOFAEBHLLK": "",
            "NPHJOAECJBI": true,
            "OGJHDDPDNKM": "AbilityFish"
        },
        {
            "groupId": 133402174,
            "mapInstId": 174003,
            "aiNeuronSetting": "DefaultSetting",
            "aiSensingTemplate": "NeverCombatTemplate",
            "OPOFAEBHLLK": "",
            "OGJHDDPDNKM": ""
        },
        {
            "groupId": 133402174,
            "mapInstId": 174004,
            "aiNeuronSetting": "DefaultSetting",
            "aiSensingTemplate": "NeverCombatTemplate",
            "OPOFAEBHLLK": "",
            "OGJHDDPDNKM": ""
        },
        {
            "groupId": 133402174,
            "mapInstId": 174005,
            "aiGroupID": 133402174,
            "aiNeuronSetting": "DefaultSetting",
            "aiSensingTemplate": "NeverCombatTemplate",
            "OPOFAEBHLLK": "",
            "OGJHDDPDNKM": ""
        },
        {
            "groupId": 133402181,
            "mapInstId": 181001,
            "routeId": 340200257,
            "aiGroupID": 133402181,
            "aiNeuronSetting": "DefaultSetting",
            "aiSensingTemplate": "DefaultTemplate",
            "disableWander": true,
            "OPOFAEBHLLK": "",
            "OGJHDDPDNKM": ""
        },
        {
            "groupId": 133402181,
            "mapInstId": 181003,
            "aiGroupID": 133402181,
            "aiNeuronSetting": "DefaultSetting",
            "aiSensingTemplate": "DefaultTemplate",
            "disableWander": true,
            "OPOFAEBHLLK": "",
            "OGJHDDPDNKM": ""
        },
        {
            "groupId": 133402181,
            "mapInstId": 181004,
            "routeId": 340200277,
            "aiGroupID": 133402181,
            "aiNeuronSetting": "DefaultSetting",
            "aiSensingTemplate": "DefaultTemplate",
            "disableWander": true,
            "OPOFAEBHLLK": "",
            "OGJHDDPDNKM": ""
        },
        {
            "groupId": 133402185,
            "mapInstId": 185002,
            "aiGroupID": 133402185,
            "aiNeuronSetting": "DefaultSetting",
            "aiSensingTemplate": "DefaultTemplate",
            "disableWander": true,
            "OPOFAEBHLLK": "",
            "OGJHDDPDNKM": ""
        },
        {
            "groupId": 133402185,
            "mapInstId": 185003,
            "aiGroupID": 133402185,
            "aiNeuronSetting": "DefaultSetting",
            "aiSensingTemplate": "DefaultTemplate",
            "disableWander": true,
            "OPOFAEBHLLK": "",
            "OGJHDDPDNKM": ""
        },
        {
            "groupId": 133402186,
            "mapInstId": 186001,
            "aiGroupID": 133402186,
            "aiNeuronSetting": "DefaultSetting",
            "aiSensingTemplate": "DefaultTemplate",
            "disableWander": true,
            "OPOFAEBHLLK": "",
            "OGJHDDPDNKM": ""
        },
        {
            "groupId": 133402189,
            "mapInstId": 189001,
            "aiGroupID": 133402189,
            "aiNeuronSetting": "DefaultSetting",
            "aiSensingTemplate": "DefaultTemplate",
            "OPOFAEBHLLK": "",
            "OGJHDDPDNKM": ""
        },
        {
            "groupId": 133402189,
            "mapInstId": 189002,
            "aiGroupID": 133402189,
            "aiNeuronSetting": "DefaultSetting",
            "aiSensingTemplate": "DefaultTemplate",
            "OPOFAEBHLLK": "",
            "OGJHDDPDNKM": ""
        },
        {
            "groupId": 133402196,
            "mapInstId": 196001,
            "aiGroupID": 133402196,
            "aiNeuronSetting": "DefaultSetting",
            "aiSensingTemplate": "DefaultTemplate",
            "OPOFAEBHLLK": "",
            "OGJHDDPDNKM": ""
        },
        {
            "groupId": 133402196,
            "mapInstId": 196002,
            "aiGroupID": 133402196,
            "aiNeuronSetting": "DefaultSetting",
            "aiSensingTemplate": "DefaultTemplate",
            "OPOFAEBHLLK": "",
            "OGJHDDPDNKM": ""
        },
        {
            "groupId": 133402196,
            "mapInstId": 196003,
            "aiGroupID": 133402196,
            "aiNeuronSetting": "DefaultSetting",
            "aiSensingTemplate": "DefaultTemplate",
            "OPOFAEBHLLK": "",
            "OGJHDDPDNKM": ""
        },
        {
            "groupId": 133402196,
            "mapInstId": 196008,
            "aiGroupID": 133402196,
            "aiNeuronSetting": "DefaultSetting",
            "aiSensingTemplate": "DefaultTemplate",
            "OPOFAEBHLLK": "",
            "OGJHDDPDNKM": ""
        },
        {
            "groupId": 133402196,
            "mapInstId": 196009,
            "aiGroupID": 133402196,
            "aiNeuronSetting": "DefaultSetting",
            "aiSensingTemplate": "DefaultTemplate",
            "OPOFAEBHLLK": "",
            "OGJHDDPDNKM": ""
        },
        {
            "groupId": 133402198,
            "mapInstId": 198001,
            "aiGroupID": 133402198,
            "aiNeuronSetting": "DefaultSetting",
            "aiSensingTemplate": "DefaultTemplate",
            "disableWander": true,
            "OPOFAEBHLLK": "",
            "OGJHDDPDNKM": ""
        },
        {
            "groupId": 133402198,
            "mapInstId": 198002,
            "aiGroupID": 133402198,
            "aiNeuronSetting": "DefaultSetting",
            "aiSensingTemplate": "DefaultTemplate",
            "OPOFAEBHLLK": "",
            "OGJHDDPDNKM": ""
        },
        {
            "groupId": 133402227,
            "mapInstId": 227001,
            "aiGroupID": 133402227,
            "aiNeuronSetting": "DefaultSetting",
            "aiSensingTemplate": "DefaultTemplate",
            "disableWander": true,
            "OPOFAEBHLLK": "",
            "OGJHDDPDNKM": ""
        },
        {
            "groupId": 133402233,
            "mapInstId": 233001,
            "aiGroupID": 133402233,
            "aiNeuronSetting": "DefaultSetting",
            "aiSensingTemplate": "DefaultTemplate",
            "disableWander": true,
            "OPOFAEBHLLK": "",
            "OGJHDDPDNKM": ""
        },
        {
            "groupId": 133402233,
            "mapInstId": 233002,
            "aiGroupID": 133402233,
            "aiNeuronSetting": "DefaultSetting",
            "aiSensingTemplate": "DefaultTemplate",
            "disableWander": true,
            "OPOFAEBHLLK": "",
            "OGJHDDPDNKM": ""
        },
        {
            "groupId": 133402233,
            "mapInstId": 233003,
            "aiGroupID": 133402233,
            "aiNeuronSetting": "DefaultSetting",
            "aiSensingTemplate": "DefaultTemplate",
            "OPOFAEBHLLK": "",
            "OGJHDDPDNKM": ""
        },
        {
            "groupId": 133402233,
            "mapInstId": 233004,
            "routeId": 340200129,
            "aiGroupID": 133402233,
            "aiNeuronSetting": "DefaultSetting",
            "aiSensingTemplate": "DefaultTemplate",
            "OPOFAEBHLLK": "",
            "OGJHDDPDNKM": ""
        },
        {
            "groupId": 133402233,
            "mapInstId": 233005,
            "routeId": 340200130,
            "aiGroupID": 133402233,
            "aiNeuronSetting": "DefaultSetting",
            "aiSensingTemplate": "DefaultTemplate",
            "OPOFAEBHLLK": "",
            "OGJHDDPDNKM": ""
        },
        {
            "groupId": 133402233,
            "mapInstId": 233006,
            "aiGroupID": 133402233,
            "aiNeuronSetting": "DefaultSetting",
            "aiSensingTemplate": "DefaultTemplate",
            "OPOFAEBHLLK": "",
            "OGJHDDPDNKM": ""
        },
        {
            "groupId": 133402233,
            "mapInstId": 233007,
            "aiGroupID": 133402233,
            "aiNeuronSetting": "DefaultSetting",
            "aiSensingTemplate": "DefaultTemplate",
            "OPOFAEBHLLK": "",
            "OGJHDDPDNKM": ""
        },
        {
            "groupId": 133402233,
            "mapInstId": 233008,
            "aiGroupID": 133402233,
            "aiNeuronSetting": "DefaultSetting",
            "aiSensingTemplate": "DefaultTemplate",
            "OPOFAEBHLLK": "",
            "OGJHDDPDNKM": ""
        },
        {
            "groupId": 133402233,
            "mapInstId": 233009,
            "aiGroupID": 133402233,
            "aiNeuronSetting": "DefaultSetting",
            "aiSensingTemplate": "DefaultTemplate",
            "OPOFAEBHLLK": "",
            "OGJHDDPDNKM": ""
        },
        {
            "groupId": 133402233,
            "mapInstId": 233010,
            "aiGroupID": 133402233,
            "aiNeuronSetting": "DefaultSetting",
            "aiSensingTemplate": "DefaultTemplate",
            "OPOFAEBHLLK": "",
            "OGJHDDPDNKM": ""
        },
        {
            "groupId": 133402233,
            "mapInstId": 233011,
            "aiGroupID": 133402233,
            "aiNeuronSetting": "DefaultSetting",
            "aiSensingTemplate": "DefaultTemplate",
            "OPOFAEBHLLK": "",
            "OGJHDDPDNKM": ""
        },
        {
            "groupId": 133402233,
            "mapInstId": 233012,
            "aiGroupID": 133402233,
            "aiNeuronSetting": "DefaultSetting",
            "aiSensingTemplate": "DefaultTemplate",
            "OPOFAEBHLLK": "",
            "OGJHDDPDNKM": ""
        },
        {
            "groupId": 133402233,
            "mapInstId": 233013,
            "routeId": 340200133,
            "aiGroupID": 133402233,
            "aiNeuronSetting": "DefaultSetting",
            "aiSensingTemplate": "DefaultTemplate",
            "OPOFAEBHLLK": "",
            "OGJHDDPDNKM": ""
        },
        {
            "groupId": 133402233,
            "mapInstId": 233014,
            "aiGroupID": 133402233,
            "aiNeuronSetting": "DefaultSetting",
            "aiSensingTemplate": "DefaultTemplate",
            "OPOFAEBHLLK": "",
            "OGJHDDPDNKM": ""
        },
        {
            "groupId": 133402233,
            "mapInstId": 233015,
            "aiGroupID": 133402233,
            "aiNeuronSetting": "DefaultSetting",
            "aiSensingTemplate": "DefaultTemplate",
            "OPOFAEBHLLK": "",
            "OGJHDDPDNKM": ""
        },
        {
            "groupId": 133402233,
            "mapInstId": 233017,
            "routeId": 340200247,
            "aiGroupID": 133402233,
            "aiNeuronSetting": "DefaultSetting",
            "aiSensingTemplate": "DefaultTemplate",
            "OPOFAEBHLLK": "",
            "OGJHDDPDNKM": ""
        },
        {
            "groupId": 133402233,
            "mapInstId": 233018,
            "routeId": 340200152,
            "aiGroupID": 133402233,
            "aiNeuronSetting": "DefaultSetting",
            "aiSensingTemplate": "DefaultTemplate",
            "OPOFAEBHLLK": "",
            "OGJHDDPDNKM": ""
        },
        {
            "groupId": 133402233,
            "mapInstId": 233019,
            "routeId": 340200152,
            "aiGroupID": 133402233,
            "aiNeuronSetting": "DefaultSetting",
            "aiSensingTemplate": "DefaultTemplate",
            "OPOFAEBHLLK": "",
            "OGJHDDPDNKM": ""
        },
        {
            "groupId": 133402233,
            "mapInstId": 233020,
            "routeId": 340200152,
            "aiGroupID": 133402233,
            "aiNeuronSetting": "DefaultSetting",
            "aiSensingTemplate": "DefaultTemplate",
            "OPOFAEBHLLK": "",
            "OGJHDDPDNKM": ""
        },
        {
            "groupId": 133402233,
            "mapInstId": 233021,
            "aiGroupID": 133402233,
            "aiNeuronSetting": "DefaultSetting",
            "aiSensingTemplate": "DefaultTemplate",
            "OPOFAEBHLLK": "",
            "OGJHDDPDNKM": ""
        },
        {
            "groupId": 133402233,
            "mapInstId": 233022,
            "aiGroupID": 133402233,
            "aiNeuronSetting": "DefaultSetting",
            "aiSensingTemplate": "DefaultTemplate",
            "OPOFAEBHLLK": "",
            "OGJHDDPDNKM": ""
        },
        {
            "groupId": 133402233,
            "mapInstId": 233023,
            "aiGroupID": 133402233,
            "aiNeuronSetting": "DefaultSetting",
            "aiSensingTemplate": "DefaultTemplate",
            "OPOFAEBHLLK": "",
            "OGJHDDPDNKM": ""
        },
        {
            "groupId": 133402233,
            "mapInstId": 233024,
            "aiGroupID": 133402233,
            "aiNeuronSetting": "DefaultSetting",
            "aiSensingTemplate": "DefaultTemplate",
            "OPOFAEBHLLK": "",
            "OGJHDDPDNKM": ""
        },
        {
            "groupId": 133402233,
            "mapInstId": 233025,
            "routeId": 340200157,
            "aiGroupID": 133402233,
            "aiNeuronSetting": "DefaultSetting",
            "aiSensingTemplate": "DefaultTemplate",
            "OPOFAEBHLLK": "",
            "OGJHDDPDNKM": ""
        },
        {
            "groupId": 133402233,
            "mapInstId": 233026,
            "routeId": 340200133,
            "aiGroupID": 133402233,
            "aiNeuronSetting": "DefaultSetting",
            "aiSensingTemplate": "DefaultTemplate",
            "OPOFAEBHLLK": "",
            "OGJHDDPDNKM": ""
        },
        {
            "groupId": 133402233,
            "mapInstId": 233027,
            "aiGroupID": 133402233,
            "aiNeuronSetting": "DefaultSetting",
            "aiSensingTemplate": "DefaultTemplate",
            "OPOFAEBHLLK": "",
            "OGJHDDPDNKM": ""
        },
        {
            "groupId": 133402233,
            "mapInstId": 233028,
            "aiGroupID": 133402233,
            "aiNeuronSetting": "DefaultSetting",
            "aiSensingTemplate": "DefaultTemplate",
            "OPOFAEBHLLK": "",
            "OGJHDDPDNKM": ""
        },
        {
            "groupId": 133402233,
            "mapInstId": 233029,
            "aiGroupID": 133402233,
            "aiNeuronSetting": "DefaultSetting",
            "aiSensingTemplate": "DefaultTemplate",
            "OPOFAEBHLLK": "",
            "OGJHDDPDNKM": ""
        },
        {
            "groupId": 133402233,
            "mapInstId": 233030,
            "aiGroupID": 133402233,
            "aiNeuronSetting": "DefaultSetting",
            "aiSensingTemplate": "DefaultTemplate",
            "OPOFAEBHLLK": "",
            "OGJHDDPDNKM": ""
        },
        {
            "groupId": 133402233,
            "mapInstId": 233031,
            "aiGroupID": 133402233,
            "aiNeuronSetting": "DefaultSetting",
            "aiSensingTemplate": "DefaultTemplate",
            "OPOFAEBHLLK": "",
            "OGJHDDPDNKM": ""
        },
        {
            "groupId": 133402233,
            "mapInstId": 233032,
            "aiGroupID": 133402233,
            "aiNeuronSetting": "DefaultSetting",
            "aiSensingTemplate": "DefaultTemplate",
            "OPOFAEBHLLK": "",
            "OGJHDDPDNKM": ""
        },
        {
            "groupId": 133402233,
            "mapInstId": 233033,
            "aiGroupID": 133402233,
            "aiNeuronSetting": "DefaultSetting",
            "aiSensingTemplate": "DefaultTemplate",
            "OPOFAEBHLLK": "",
            "OGJHDDPDNKM": ""
        },
        {
            "groupId": 133402233,
            "mapInstId": 233034,
            "aiGroupID": 133402233,
            "aiNeuronSetting": "DefaultSetting",
            "aiSensingTemplate": "DefaultTemplate",
            "OPOFAEBHLLK": "",
            "OGJHDDPDNKM": ""
        },
        {
            "groupId": 133402233,
            "mapInstId": 233035,
            "aiGroupID": 133402233,
            "aiNeuronSetting": "DefaultSetting",
            "aiSensingTemplate": "DefaultTemplate",
            "OPOFAEBHLLK": "",
            "OGJHDDPDNKM": ""
        },
        {
            "groupId": 133402233,
            "mapInstId": 233036,
            "aiGroupID": 133402233,
            "aiNeuronSetting": "DefaultSetting",
            "aiSensingTemplate": "DefaultTemplate",
            "OPOFAEBHLLK": "",
            "OGJHDDPDNKM": ""
        },
        {
            "groupId": 133402233,
            "mapInstId": 233037,
            "aiGroupID": 133402124,
            "aiNeuronSetting": "DefaultSetting",
            "aiSensingTemplate": "DefaultTemplate",
            "OPOFAEBHLLK": "",
            "OGJHDDPDNKM": ""
        },
        {
            "groupId": 133402233,
            "mapInstId": 233038,
            "aiGroupID": 133402124,
            "aiNeuronSetting": "DefaultSetting",
            "aiSensingTemplate": "DefaultTemplate",
            "OPOFAEBHLLK": "",
            "OGJHDDPDNKM": ""
        },
        {
            "groupId": 133402233,
            "mapInstId": 233039,
            "aiGroupID": 133402233,
            "aiNeuronSetting": "DefaultSetting",
            "aiSensingTemplate": "DefaultTemplate",
            "OPOFAEBHLLK": "",
            "OGJHDDPDNKM": ""
        },
        {
            "groupId": 133402233,
            "mapInstId": 233040,
            "aiGroupID": 133402233,
            "aiNeuronSetting": "DefaultSetting",
            "aiSensingTemplate": "DefaultTemplate",
            "OPOFAEBHLLK": "",
            "OGJHDDPDNKM": ""
        },
        {
            "groupId": 133402233,
            "mapInstId": 233041,
            "aiGroupID": 133402233,
            "aiNeuronSetting": "DefaultSetting",
            "aiSensingTemplate": "DefaultTemplate",
            "OPOFAEBHLLK": "",
            "OGJHDDPDNKM": ""
        },
        {
            "groupId": 133402233,
            "mapInstId": 233042,
            "aiGroupID": 133402233,
            "aiNeuronSetting": "DefaultSetting",
            "aiSensingTemplate": "DefaultTemplate",
            "OPOFAEBHLLK": "",
            "OGJHDDPDNKM": ""
        },
        {
            "groupId": 133402233,
            "mapInstId": 233043,
            "aiGroupID": 133402233,
            "aiNeuronSetting": "DefaultSetting",
            "aiSensingTemplate": "DefaultTemplate",
            "OPOFAEBHLLK": "",
            "OGJHDDPDNKM": ""
        },
        {
            "groupId": 133402233,
            "mapInstId": 233044,
            "aiGroupID": 133402233,
            "aiNeuronSetting": "DefaultSetting",
            "aiSensingTemplate": "DefaultTemplate",
            "OPOFAEBHLLK": "",
            "OGJHDDPDNKM": ""
        },
        {
            "groupId": 133402233,
            "mapInstId": 233045,
            "aiGroupID": 133402185,
            "aiNeuronSetting": "DefaultSetting",
            "aiSensingTemplate": "DefaultTemplate",
            "OPOFAEBHLLK": "",
            "OGJHDDPDNKM": ""
        },
        {
            "groupId": 133402331,
            "mapInstId": 331002,
            "aiNeuronSetting": "DefaultSetting",
            "aiSensingTemplate": "DefaultTemplate",
            "disableWander": true,
            "OPOFAEBHLLK": "",
            "NPHJOAECJBI": true,
            "OGJHDDPDNKM": "AbilityFish"
        },
        {
            "groupId": 133402331,
            "mapInstId": 331003,
            "aiGroupID": 133402331,
            "aiNeuronSetting": "DefaultSetting",
            "aiSensingTemplate": "DefaultTemplate",
            "disableWander": true,
            "OPOFAEBHLLK": "",
            "OGJHDDPDNKM": ""
        },
        {
            "groupId": 133402332,
            "mapInstId": 332001,
            "aiGroupID": 133402332,
            "aiNeuronSetting": "DefaultSetting",
            "aiSensingTemplate": "DefaultTemplate",
            "disableWander": true,
            "OPOFAEBHLLK": "",
            "OGJHDDPDNKM": ""
        },
        {
            "groupId": 133402332,
            "mapInstId": 332002,
            "aiGroupID": 133402332,
            "aiNeuronSetting": "DefaultSetting",
            "aiSensingTemplate": "DefaultTemplate",
            "disableWander": true,
            "OPOFAEBHLLK": "",
            "OGJHDDPDNKM": ""
        },
        {
            "groupId": 133402332,
            "mapInstId": 332005,
            "aiGroupID": 133402332,
            "aiNeuronSetting": "NeverCombat",
            "aiSensingTemplate": "NeverCombatTemplate",
            "OPOFAEBHLLK": "",
            "OGJHDDPDNKM": ""
        },
        {
            "groupId": 133402332,
            "mapInstId": 332006,
            "aiNeuronSetting": "DefaultSetting",
            "aiSensingTemplate": "DefaultTemplate",
            "OPOFAEBHLLK": "",
            "NPHJOAECJBI": true,
            "OGJHDDPDNKM": "AbilityFish"
        },
        {
            "groupId": 133402344,
            "mapInstId": 344004,
            "aiNeuronSetting": "DefaultSetting",
            "aiSensingTemplate": "DefaultTemplate",
            "OPOFAEBHLLK": "",
            "NPHJOAECJBI": true,
            "OGJHDDPDNKM": "AbilityFish"
        },
        {
            "groupId": 133402348,
            "mapInstId": 348001,
            "aiGroupID": 133402348,
            "aiNeuronSetting": "DefaultSetting",
            "aiSensingTemplate": "DefaultTemplate",
            "OPOFAEBHLLK": "",
            "OGJHDDPDNKM": ""
        },
        {
            "groupId": 133402354,
            "mapInstId": 354001,
            "aiGroupID": 133402354,
            "aiNeuronSetting": "DefaultSetting",
            "aiSensingTemplate": "DefaultTemplate",
            "forceCombatOnSpawn": true,
            "OPOFAEBHLLK": "",
            "OGJHDDPDNKM": ""
        },
        {
            "groupId": 133402354,
            "mapInstId": 354007,
            "aiGroupID": 133402354,
            "aiNeuronSetting": "DefaultSetting",
            "aiSensingTemplate": "DefaultTemplate",
            "forceCombatOnSpawn": true,
            "OPOFAEBHLLK": "",
            "OGJHDDPDNKM": ""
        },
        {
            "groupId": 133402354,
            "mapInstId": 354018,
            "aiGroupID": 133402354,
            "aiNeuronSetting": "DefaultSetting",
            "aiSensingTemplate": "DefaultTemplate",
            "forceCombatOnSpawn": true,
            "OPOFAEBHLLK": "",
            "OGJHDDPDNKM": ""
        },
        {
            "groupId": 133402354,
            "mapInstId": 354019,
            "aiGroupID": 133402354,
            "aiNeuronSetting": "DefaultSetting",
            "aiSensingTemplate": "DefaultTemplate",
            "forceCombatOnSpawn": true,
            "OPOFAEBHLLK": "",
            "OGJHDDPDNKM": ""
        },
        {
            "groupId": 133402354,
            "mapInstId": 354020,
            "aiGroupID": 133402354,
            "aiNeuronSetting": "DefaultSetting",
            "aiSensingTemplate": "DefaultTemplate",
            "forceCombatOnSpawn": true,
            "OPOFAEBHLLK": "",
            "OGJHDDPDNKM": ""
        },
        {
            "groupId": 133402360,
            "mapInstId": 360001,
            "aiGroupID": 133402360,
            "aiNeuronSetting": "DefaultSetting",
            "aiSensingTemplate": "DefaultTemplate",
            "forceCombatOnSpawn": true,
            "OPOFAEBHLLK": "",
            "OGJHDDPDNKM": ""
        },
        {
            "groupId": 133402363,
            "mapInstId": 363001,
            "aiGroupID": 133402233,
            "aiNeuronSetting": "DefaultSetting",
            "aiSensingTemplate": "DefaultTemplate",
            "OPOFAEBHLLK": "",
            "OGJHDDPDNKM": ""
        },
        {
            "groupId": 133402363,
            "mapInstId": 363002,
            "aiGroupID": 133402363,
            "aiNeuronSetting": "DefaultSetting",
            "aiSensingTemplate": "DefaultTemplate",
            "landingPointID": 340200003,
            "OPOFAEBHLLK": "",
            "OGJHDDPDNKM": ""
        },
        {
            "groupId": 133402363,
            "mapInstId": 363003,
            "aiGroupID": 133402363,
            "aiNeuronSetting": "DefaultSetting",
            "aiSensingTemplate": "DefaultTemplate",
            "OPOFAEBHLLK": "",
            "OGJHDDPDNKM": ""
        },
        {
            "groupId": 133402363,
            "mapInstId": 363004,
            "aiGroupID": 133402363,
            "aiNeuronSetting": "DefaultSetting",
            "aiSensingTemplate": "DefaultTemplate",
            "OPOFAEBHLLK": "",
            "OGJHDDPDNKM": ""
        },
        {
            "groupId": 133402363,
            "mapInstId": 363005,
            "aiGroupID": 133402363,
            "aiNeuronSetting": "DefaultSetting",
            "aiSensingTemplate": "DefaultTemplate",
            "OPOFAEBHLLK": "",
            "OGJHDDPDNKM": ""
        },
        {
            "groupId": 133401391,
            "mapInstId": 391001,
            "aiNeuronSetting": "DefaultSetting",
            "aiSensingTemplate": "DefaultTemplate",
            "OPOFAEBHLLK": "",
            "NPHJOAECJBI": true,
            "OGJHDDPDNKM": "AbilityFish"
        },
        {
            "groupId": 133401391,
            "mapInstId": 391002,
            "aiGroupID": 133401391,
            "aiNeuronSetting": "DefaultSetting",
            "aiSensingTemplate": "DefaultTemplate",
            "OPOFAEBHLLK": "",
            "OGJHDDPDNKM": ""
        },
        {
            "groupId": 133401391,
            "mapInstId": 391004,
            "aiGroupID": 133401391,
            "aiNeuronSetting": "DefaultSetting",
            "aiSensingTemplate": "DefaultTemplate",
            "OPOFAEBHLLK": "",
            "OGJHDDPDNKM": ""
        },
        {
            "groupId": 133401392,
            "mapInstId": 392001,
            "aiGroupID": 133401392,
            "aiNeuronSetting": "DefaultSetting",
            "aiSensingTemplate": "DefaultTemplate",
            "OPOFAEBHLLK": "",
            "OGJHDDPDNKM": ""
        },
        {
            "groupId": 133401392,
            "mapInstId": 392002,
            "aiGroupID": 133401392,
            "aiNeuronSetting": "DefaultSetting",
            "aiSensingTemplate": "DefaultTemplate",
            "OPOFAEBHLLK": "",
            "OGJHDDPDNKM": ""
        },
        {
            "groupId": 133401392,
            "mapInstId": 392003,
            "aiGroupID": 133401392,
            "aiNeuronSetting": "DefaultSetting",
            "aiSensingTemplate": "DefaultTemplate",
            "OPOFAEBHLLK": "",
            "OGJHDDPDNKM": ""
        },
        {
            "groupId": 133402412,
            "mapInstId": 412001,
            "aiNeuronSetting": "DefaultSetting",
            "aiSensingTemplate": "DefaultTemplate",
            "OPOFAEBHLLK": "",
            "NPHJOAECJBI": true,
            "OGJHDDPDNKM": "AbilityFish"
        },
        {
            "groupId": 133402412,
            "mapInstId": 412002,
            "routeId": 340200187,
            "aiGroupID": 133402412,
            "aiNeuronSetting": "DefaultSetting",
            "aiSensingTemplate": "DefaultTemplate",
            "OPOFAEBHLLK": "",
            "OGJHDDPDNKM": ""
        },
        {
            "groupId": 133402412,
            "mapInstId": 412003,
            "routeId": 340200187,
            "aiGroupID": 133402412,
            "aiNeuronSetting": "DefaultSetting",
            "aiSensingTemplate": "DefaultTemplate",
            "OPOFAEBHLLK": "",
            "OGJHDDPDNKM": ""
        },
        {
            "groupId": 133402412,
            "mapInstId": 412004,
            "routeId": 340200187,
            "aiGroupID": 133402412,
            "aiNeuronSetting": "DefaultSetting",
            "aiSensingTemplate": "DefaultTemplate",
            "OPOFAEBHLLK": "",
            "OGJHDDPDNKM": ""
        },
        {
            "groupId": 133402412,
            "mapInstId": 412005,
            "routeId": 340200187,
            "aiGroupID": 133402412,
            "aiNeuronSetting": "DefaultSetting",
            "aiSensingTemplate": "DefaultTemplate",
            "OPOFAEBHLLK": "",
            "OGJHDDPDNKM": ""
        },
        {
            "groupId": 133402412,
            "mapInstId": 412006,
            "routeId": 340200187,
            "aiGroupID": 133402412,
            "aiNeuronSetting": "DefaultSetting",
            "aiSensingTemplate": "DefaultTemplate",
            "OPOFAEBHLLK": "",
            "OGJHDDPDNKM": ""
        },
        {
            "groupId": 133402412,
            "mapInstId": 412007,
            "aiNeuronSetting": "DefaultSetting",
            "aiSensingTemplate": "NeverCombatTemplate",
            "OPOFAEBHLLK": "",
            "OGJHDDPDNKM": ""
        },
        {
            "groupId": 133402423,
            "mapInstId": 423001,
            "routeId": 340200190,
            "aiNeuronSetting": "DefaultSetting",
            "aiSensingTemplate": "DefaultTemplate",
            "OPOFAEBHLLK": "",
            "NPHJOAECJBI": true,
            "OGJHDDPDNKM": "AbilityFish"
        },
        {
            "groupId": 133402423,
            "mapInstId": 423002,
            "routeId": 340200190,
            "aiNeuronSetting": "DefaultSetting",
            "aiSensingTemplate": "DefaultTemplate",
            "OPOFAEBHLLK": "",
            "OGJHDDPDNKM": ""
        },
        {
            "groupId": 133402423,
            "mapInstId": 423003,
            "routeId": 340200190,
            "aiNeuronSetting": "DefaultSetting",
            "aiSensingTemplate": "DefaultTemplate",
            "OPOFAEBHLLK": "",
            "NPHJOAECJBI": true,
            "OGJHDDPDNKM": "AbilityFish"
        },
        {
            "groupId": 133402423,
            "mapInstId": 423004,
            "routeId": 340200191,
            "aiNeuronSetting": "DefaultSetting",
            "aiSensingTemplate": "DefaultTemplate",
            "OPOFAEBHLLK": "",
            "OGJHDDPDNKM": ""
        },
        {
            "groupId": 133402423,
            "mapInstId": 423005,
            "routeId": 340200191,
            "aiNeuronSetting": "DefaultSetting",
            "aiSensingTemplate": "DefaultTemplate",
            "OPOFAEBHLLK": "",
            "OGJHDDPDNKM": ""
        },
        {
            "groupId": 133403647,
            "mapInstId": 647006,
            "aiGroupID": 133403647,
            "aiNeuronSetting": "DefaultSetting",
            "aiSensingTemplate": "DefaultTemplate",
            "OPOFAEBHLLK": "",
            "OGJHDDPDNKM": ""
        },
        {
            "groupId": 133403647,
            "mapInstId": 647007,
            "aiGroupID": 133403647,
            "aiNeuronSetting": "DefaultSetting",
            "aiSensingTemplate": "DefaultTemplate",
            "OPOFAEBHLLK": "",
            "OGJHDDPDNKM": ""
        }
    ]
}