{
    "sceneId": 33720,
    "monsters": [
        {
            "groupId": 233720004,
            "mapInstId": 4001,
            "aiGroupID": 233720004,
            "DBJILNPPJHP": true,
            "EIANNAGALAJ": 999.0,
            "FKMENPJNOEM": true,
            "clearThreatTargetDistance": 999.0,
            "aiNeuronSetting": "DefaultSetting",
            "aiSensingTemplate": "DefaultTemplate",
            "forceCombatOnSpawn": true,
            "disableWander": true,
            "OPOFAEBHLLK": "",
            "OGJHDDPDNKM": ""
        },
        {
            "groupId": 233720004,
            "mapInstId": 4004,
            "aiGroupID": 233720004,
            "DBJILNPPJHP": true,
            "EIANNAGALAJ": 999.0,
            "FKMENPJNOEM": true,
            "clearThreatTargetDistance": 999.0,
            "aiNeuronSetting": "DefaultSetting",
            "aiSensingTemplate": "DefaultTemplate",
            "forceCombatOnSpawn": true,
            "disableWander": true,
            "OPOFAEBHLLK": "",
            "OGJHDDPDNKM": ""
        },
        {
            "groupId": 233720004,
            "mapInstId": 4005,
            "aiGroupID": 233720004,
            "DBJILNPPJHP": true,
            "EIANNAGALAJ": 999.0,
            "FKMENPJNOEM": true,
            "clearThreatTargetDistance": 999.0,
            "aiNeuronSetting": "DefaultSetting",
            "aiSensingTemplate": "DefaultTemplate",
            "forceCombatOnSpawn": true,
            "disableWander": true,
            "OPOFAEBHLLK": "",
            "OGJHDDPDNKM": ""
        },
        {
            "groupId": 233720004,
            "mapInstId": 4018,
            "aiGroupID": 233720004,
            "DBJILNPPJHP": true,
            "EIANNAGALAJ": 999.0,
            "FKMENPJNOEM": true,
            "clearThreatTargetDistance": 999.0,
            "aiNeuronSetting": "DefaultSetting",
            "aiSensingTemplate": "DefaultTemplate",
            "forceCombatOnSpawn": true,
            "disableWander": true,
            "OPOFAEBHLLK": "",
            "OGJHDDPDNKM": ""
        },
        {
            "groupId": 233720004,
            "mapInstId": 4019,
            "aiGroupID": 233720004,
            "DBJILNPPJHP": true,
            "EIANNAGALAJ": 999.0,
            "FKMENPJNOEM": true,
            "clearThreatTargetDistance": 999.0,
            "aiNeuronSetting": "DefaultSetting",
            "aiSensingTemplate": "DefaultTemplate",
            "forceCombatOnSpawn": true,
            "disableWander": true,
            "OPOFAEBHLLK": "",
            "OGJHDDPDNKM": ""
        },
        {
            "groupId": 233720005,
            "mapInstId": 5001,
            "aiGroupID": 233720005,
            "DBJILNPPJHP": true,
            "EIANNAGALAJ": 999.0,
            "FKMENPJNOEM": true,
            "clearThreatTargetDistance": 999.0,
            "aiNeuronSetting": "DefaultSetting",
            "aiSensingTemplate": "DefaultTemplate",
            "forceCombatOnSpawn": true,
            "disableWander": true,
            "OPOFAEBHLLK": "",
            "OGJHDDPDNKM": ""
        },
        {
            "groupId": 233720005,
            "mapInstId": 5002,
            "aiGroupID": 233720005,
            "DBJILNPPJHP": true,
            "EIANNAGALAJ": 999.0,
            "FKMENPJNOEM": true,
            "clearThreatTargetDistance": 999.0,
            "aiNeuronSetting": "DefaultSetting",
            "aiSensingTemplate": "DefaultTemplate",
            "forceCombatOnSpawn": true,
            "disableWander": true,
            "OPOFAEBHLLK": "",
            "OGJHDDPDNKM": ""
        },
        {
            "groupId": 233720005,
            "mapInstId": 5004,
            "aiGroupID": 233720005,
            "DBJILNPPJHP": true,
            "EIANNAGALAJ": 999.0,
            "FKMENPJNOEM": true,
            "clearThreatTargetDistance": 999.0,
            "aiNeuronSetting": "DefaultSetting",
            "aiSensingTemplate": "DefaultTemplate",
            "forceCombatOnSpawn": true,
            "disableWander": true,
            "OPOFAEBHLLK": "",
            "OGJHDDPDNKM": ""
        },
        {
            "groupId": 233720005,
            "mapInstId": 5006,
            "aiGroupID": 233720005,
            "DBJILNPPJHP": true,
            "EIANNAGALAJ": 999.0,
            "FKMENPJNOEM": true,
            "clearThreatTargetDistance": 999.0,
            "aiNeuronSetting": "DefaultSetting",
            "aiSensingTemplate": "DefaultTemplate",
            "forceCombatOnSpawn": true,
            "disableWander": true,
            "OPOFAEBHLLK": "",
            "OGJHDDPDNKM": ""
        }
    ]
}