{
    "sceneId": 35742,
    "monsters": [
        {
            "groupId": 235742004,
            "mapInstId": 4001,
            "aiGroupID": 235742004,
            "DBJILNPPJHP": true,
            "EIANNAGALAJ": 999.0,
            "FKMENPJNOEM": true,
            "clearThreatTargetDistance": 999.0,
            "aiNeuronSetting": "DefaultSetting",
            "aiSensingTemplate": "DefaultTemplate",
            "forceCombatOnSpawn": true,
            "disableWander": true,
            "OPOFAEBHLLK": "",
            "OGJHDDPDNKM": ""
        },
        {
            "groupId": 235742004,
            "mapInstId": 4004,
            "aiGroupID": 235742004,
            "DBJILNPPJHP": true,
            "EIANNAGALAJ": 999.0,
            "FKMENPJNOEM": true,
            "clearThreatTargetDistance": 999.0,
            "aiNeuronSetting": "DefaultSetting",
            "aiSensingTemplate": "DefaultTemplate",
            "forceCombatOnSpawn": true,
            "disableWander": true,
            "OPOFAEBHLLK": "",
            "OGJHDDPDNKM": ""
        },
        {
            "groupId": 235742004,
            "mapInstId": 4005,
            "aiGroupID": 235742004,
            "DBJILNPPJHP": true,
            "EIANNAGALAJ": 999.0,
            "FKMENPJNOEM": true,
            "clearThreatTargetDistance": 999.0,
            "aiNeuronSetting": "DefaultSetting",
            "aiSensingTemplate": "DefaultTemplate",
            "forceCombatOnSpawn": true,
            "disableWander": true,
            "OPOFAEBHLLK": "",
            "OGJHDDPDNKM": ""
        },
        {
            "groupId": 235742004,
            "mapInstId": 4006,
            "aiGroupID": 235742004,
            "DBJILNPPJHP": true,
            "EIANNAGALAJ": 999.0,
            "FKMENPJNOEM": true,
            "clearThreatTargetDistance": 999.0,
            "aiNeuronSetting": "DefaultSetting",
            "aiSensingTemplate": "DefaultTemplate",
            "forceCombatOnSpawn": true,
            "disableWander": true,
            "OPOFAEBHLLK": "",
            "OGJHDDPDNKM": ""
        },
        {
            "groupId": 235742005,
            "mapInstId": 5001,
            "aiGroupID": 235742005,
            "DBJILNPPJHP": true,
            "EIANNAGALAJ": 999.0,
            "FKMENPJNOEM": true,
            "clearThreatTargetDistance": 999.0,
            "aiNeuronSetting": "DefaultSetting",
            "aiSensingTemplate": "DefaultTemplate",
            "forceCombatOnSpawn": true,
            "disableWander": true,
            "billboardHasUIBar": true,
            "OPOFAEBHLLK": "",
            "OGJHDDPDNKM": ""
        }
    ]
}