{
    "sceneId": 40763,
    "monsters": [
        {
            "groupId": 240763002,
            "mapInstId": 2004,
            "aiGroupID": 240763002,
            "DBJILNPPJHP": true,
            "EIANNAGALAJ": 999.0,
            "aiNeuronSetting": "DefaultSetting",
            "aiSensingTemplate": "DefaultTemplate",
            "forceCombatOnSpawn": true,
            "disableWander": true,
            "OPOFAEBHLLK": "",
            "OGJHDDPDNKM": ""
        },
        {
            "groupId": 240763002,
            "mapInstId": 2005,
            "aiGroupID": 240763002,
            "DBJILNPPJHP": true,
            "EIANNAGALAJ": 999.0,
            "aiNeuronSetting": "DefaultSetting",
            "aiSensingTemplate": "DefaultTemplate",
            "forceCombatOnSpawn": true,
            "disableWander": true,
            "OPOFAEBHLLK": "",
            "OGJHDDPDNKM": ""
        }
    ]
}