{
    "sceneId": 40022,
    "monsters": [
        {
            "groupId": 240022002,
            "mapInstId": 2007,
            "aiNeuronSetting": "DefaultSetting",
            "aiSensingTemplate": "DefaultTemplate",
            "forceCombatOnSpawn": true,
            "billboardHasUIBar": true,
            "OPOFAEBHLLK": "",
            "OGJHDDPDNKM": ""
        }
    ]
}