{
    "luaDataPath": "",
    "startBlackKeepTime": 0.5,
    "entityBan": "",
    "disableNpcLod": true,
    "BHNKJKDADLC": true,
    "JJFIGGKCCCF": true,
    "EKDGNGHMECG": true,
    "startFade": {
        "startFadeInDuration": 0.5,
        "startFadeOutDuration": 0.5
    },
    "endFade": {
        "startFadeOutDuration": 0.0
    },
    "actors": [
        {
            "alias": "Avatar",
            "visible": true,
            "bornPointName": "N10000005_T7326413",
            "relativePosType": "AVATAR_NEW",
            "relativePosNpcAlias": "",
            "bindMovingTargetKey": ""
        },
        {
            "configID": 1005,
            "alias": "1005",
            "visible": true,
            "bornPointName": "Q7326413_N1005_3014",
            "relativePos": {
                "x": 0.5,
                "z": -0.5
            },
            "removeActorType": "NEW_REMOVE_WITH_DISAPPEAR",
            "relativePosType": "AVATAR_NEW",
            "relativePosNpcAlias": "",
            "bindMovingTargetKey": ""
        }
    ],
    "group": [
        [
            {
                "$type": "MoleMole.Config.ConfigTimeProtectAction",
                "type": "TIME_PROTECT",
                "duration": 1.0,
                "actionId": 104
            },
            {
                "$type": "MoleMole.Config.ConfigBlackScreenAction",
                "type": "BLACK_SCREEN",
                "duration": 1.0,
                "actionId": 117,
                "blackScreenType": "KEEP_BLACK",
                "durationToBlack": 0.5,
                "durationKeepBlack": 1.0,
                "durationFromBlack": 0.5,
                "inteePos": "",
                "textMapID": "",
                "useTextFade": true
            },
            {
                "$type": "PBIGHFCHGCA",
                "type": "CAMERA_MOVE",
                "delayTime": 0.43299999833106995,
                "duration": 0.5,
                "actionId": 143,
                "KCFKJMMEECM": {
                    "x": -1243.9000244140625,
                    "y": 73.35600280761719,
                    "z": 5141.7998046875
                },
                "DLGJEHNPMFN": {
                    "x": -1244.323974609375,
                    "y": 73.25199890136719,
                    "z": 5140.89990234375
                },
                "FNMFGIOLKBE": 6,
                "NECGMADJICG": "EaseInOutCubic",
                "BMHIHPIKAHM": {},
                "MMJMMAEAJOA": true,
                "DNFHBDHNHKE": -0.0020000000949949026,
                "HGGPLEMCNNG": false,
                "JBODIEHINII": "",
                "PHDIKPKLFIA": true,
                "EJCHLMIMLBO": "",
                "BIMPIKMCIHB": "",
                "MCAOJPLIJGI": ""
            }
        ],
        [
            {
                "$type": "MoleMole.Config.ConfigBlackScreenAction",
                "type": "BLACK_SCREEN",
                "duration": 0.5,
                "actionId": 118,
                "blackScreenType": "FROM_BLACK",
                "durationToBlack": 0.5,
                "durationKeepBlack": 0.5,
                "durationFromBlack": 0.5,
                "inteePos": "",
                "textMapID": "",
                "useTextFade": true
            },
            {
                "$type": "PBIGHFCHGCA",
                "type": "CAMERA_MOVE",
                "duration": 0.5,
                "actionId": 120,
                "KCFKJMMEECM": {
                    "x": -1243.9000244140625,
                    "y": 73.35600280761719,
                    "z": 5141.7998046875
                },
                "DLGJEHNPMFN": {
                    "x": -1244.323974609375,
                    "y": 73.25199890136719,
                    "z": 5140.89990234375
                },
                "FNMFGIOLKBE": 6,
                "NECGMADJICG": "EaseInOutCubic",
                "BMHIHPIKAHM": {},
                "MMJMMAEAJOA": true,
                "DNFHBDHNHKE": -0.0020000000949949026,
                "HGGPLEMCNNG": false,
                "JBODIEHINII": "",
                "PHDIKPKLFIA": true,
                "EJCHLMIMLBO": "",
                "BIMPIKMCIHB": "",
                "MCAOJPLIJGI": ""
            },
            {
                "$type": "KAGAFALAIGP",
                "type": "DIALOG",
                "aliasList": [
                    "1005"
                ],
                "actionId": 107,
                "JHEPJOMJJHH": 732641301,
                "OCILKFCPBNC": 3.125
            },
            {
                "$type": "PBIGHFCHGCA",
                "type": "CAMERA_MOVE",
                "delayTime": 0.4169999957084656,
                "duration": 7.0,
                "actionId": 124,
                "KCFKJMMEECM": {
                    "x": -1243.5999755859375,
                    "y": 73.35600280761719,
                    "z": 5141.7001953125
                },
                "DLGJEHNPMFN": {
                    "x": -1244.0240478515625,
                    "y": 73.25199890136719,
                    "z": 5140.7998046875
                },
                "NJCBGNHGINI": 43.0,
                "FNMFGIOLKBE": 2,
                "NECGMADJICG": "Linear",
                "BMHIHPIKAHM": {},
                "MMJMMAEAJOA": true,
                "DNFHBDHNHKE": -0.0020000000949949026,
                "HGGPLEMCNNG": false,
                "JBODIEHINII": "",
                "PHDIKPKLFIA": true,
                "EJCHLMIMLBO": "",
                "BIMPIKMCIHB": "",
                "MCAOJPLIJGI": ""
            },
            {
                "$type": "CENEPJCONAG",
                "type": "BODY_LANG",
                "delayTime": 0.46700000762939453,
                "aliasList": [
                    "Avatar"
                ],
                "actionId": 139,
                "OGFPAIKLDGB": 1190,
                "MHDCNDAINCK": true,
                "LHIAJOBFNAK": false,
                "GJGPNLJEIFP": true,
                "FOEKGLEJBIJ": ""
            },
            {
                "$type": "CENEPJCONAG",
                "type": "BODY_LANG",
                "delayTime": 0.7860000133514404,
                "aliasList": [
                    "1005"
                ],
                "actionId": 137,
                "OGFPAIKLDGB": 1170,
                "MHDCNDAINCK": true,
                "LHIAJOBFNAK": false,
                "GJGPNLJEIFP": true,
                "FOEKGLEJBIJ": ""
            },
            {
                "$type": "CENEPJCONAG",
                "type": "BODY_LANG",
                "delayTime": 2.9089999198913574,
                "aliasList": [
                    "Avatar"
                ],
                "actionId": 140,
                "NNKEOHJCPOF": true,
                "MHDCNDAINCK": true,
                "LHIAJOBFNAK": false,
                "GJGPNLJEIFP": true,
                "FOEKGLEJBIJ": ""
            },
            {
                "$type": "AAFOOOPNJLB",
                "type": "DIALOG_SELECT",
                "delayTime": 3.125,
                "aliasList": [
                    "Avatar"
                ],
                "actionId": 108,
                "KFAEOBDAAME": [
                    732641302,
                    732641304
                ],
                "ELPFMMBHOLF": [
                    2467456585,
                    2467456586
                ],
                "OEAAKJDIEFD": true,
                "ONFBGDHPCEO": 2467456582
            },
            {
                "$type": "CENEPJCONAG",
                "type": "BODY_LANG",
                "delayTime": 3.49399995803833,
                "aliasList": [
                    "1005"
                ],
                "actionId": 138,
                "NNKEOHJCPOF": true,
                "MHDCNDAINCK": true,
                "LHIAJOBFNAK": false,
                "GJGPNLJEIFP": true,
                "FOEKGLEJBIJ": ""
            }
        ],
        [
            {
                "$type": "PBIGHFCHGCA",
                "type": "CAMERA_MOVE",
                "duration": 0.5,
                "actionId": 122,
                "KCFKJMMEECM": {
                    "x": -1245.571044921875,
                    "y": 73.41300201416016,
                    "z": 5137.40283203125
                },
                "DLGJEHNPMFN": {
                    "x": -1245.9749755859375,
                    "y": 73.35700225830078,
                    "z": 5136.490234375
                },
                "NJCBGNHGINI": 42.0,
                "FNMFGIOLKBE": 6,
                "NECGMADJICG": "EaseInOutCubic",
                "BMHIHPIKAHM": {},
                "MMJMMAEAJOA": true,
                "DNFHBDHNHKE": -0.0020000000949949026,
                "HGGPLEMCNNG": false,
                "JBODIEHINII": "",
                "PHDIKPKLFIA": true,
                "EJCHLMIMLBO": "",
                "BIMPIKMCIHB": "",
                "MCAOJPLIJGI": ""
            },
            {
                "$type": "KAGAFALAIGP",
                "type": "DIALOG",
                "aliasList": [
                    "1005"
                ],
                "actionId": 110,
                "JHEPJOMJJHH": 732641303,
                "OCILKFCPBNC": 2.0
            },
            {
                "$type": "CENEPJCONAG",
                "type": "BODY_LANG",
                "delayTime": 0.017999999225139618,
                "aliasList": [
                    "1005"
                ],
                "actionId": 125,
                "OGFPAIKLDGB": 1110,
                "MHDCNDAINCK": true,
                "LHIAJOBFNAK": false,
                "GJGPNLJEIFP": true,
                "FOEKGLEJBIJ": ""
            },
            {
                "$type": "CENEPJCONAG",
                "type": "BODY_LANG",
                "delayTime": 0.10899999737739563,
                "aliasList": [
                    "Avatar"
                ],
                "actionId": 136,
                "OGFPAIKLDGB": 1230,
                "MHDCNDAINCK": true,
                "LHIAJOBFNAK": false,
                "GJGPNLJEIFP": true,
                "FOEKGLEJBIJ": ""
            },
            {
                "$type": "CENEPJCONAG",
                "type": "BODY_LANG",
                "delayTime": 1.7259999513626099,
                "aliasList": [
                    "1005"
                ],
                "actionId": 126,
                "OGFPAIKLDGB": 1300,
                "MHDCNDAINCK": true,
                "LHIAJOBFNAK": false,
                "GJGPNLJEIFP": true,
                "FOEKGLEJBIJ": ""
            },
            {
                "$type": "CENEPJCONAG",
                "type": "BODY_LANG",
                "delayTime": 4.826000213623047,
                "aliasList": [
                    "1005"
                ],
                "actionId": 127,
                "NNKEOHJCPOF": true,
                "MHDCNDAINCK": true,
                "LHIAJOBFNAK": false,
                "GJGPNLJEIFP": true,
                "FOEKGLEJBIJ": ""
            }
        ],
        [
            {
                "$type": "PBIGHFCHGCA",
                "type": "CAMERA_MOVE",
                "duration": 0.5,
                "actionId": 123,
                "KCFKJMMEECM": {
                    "x": -1245.571044921875,
                    "y": 73.41300201416016,
                    "z": 5137.40283203125
                },
                "DLGJEHNPMFN": {
                    "x": -1245.9749755859375,
                    "y": 73.35700225830078,
                    "z": 5136.490234375
                },
                "NJCBGNHGINI": 42.0,
                "FNMFGIOLKBE": 6,
                "NECGMADJICG": "EaseInOutCubic",
                "BMHIHPIKAHM": {},
                "MMJMMAEAJOA": true,
                "DNFHBDHNHKE": -0.0020000000949949026,
                "HGGPLEMCNNG": false,
                "JBODIEHINII": "",
                "PHDIKPKLFIA": true,
                "EJCHLMIMLBO": "",
                "BIMPIKMCIHB": "",
                "MCAOJPLIJGI": ""
            },
            {
                "$type": "KAGAFALAIGP",
                "type": "DIALOG",
                "aliasList": [
                    "1005"
                ],
                "actionId": 112,
                "JHEPJOMJJHH": 732641305,
                "OCILKFCPBNC": 2.0
            },
            {
                "$type": "CENEPJCONAG",
                "type": "BODY_LANG",
                "delayTime": 0.3100000023841858,
                "aliasList": [
                    "1005"
                ],
                "actionId": 129,
                "OGFPAIKLDGB": 1140,
                "MHDCNDAINCK": true,
                "LHIAJOBFNAK": false,
                "GJGPNLJEIFP": true,
                "FOEKGLEJBIJ": ""
            },
            {
                "$type": "CENEPJCONAG",
                "type": "BODY_LANG",
                "delayTime": 1.5479999780654907,
                "aliasList": [
                    "1005"
                ],
                "actionId": 128,
                "OGFPAIKLDGB": 1300,
                "MHDCNDAINCK": true,
                "LHIAJOBFNAK": false,
                "GJGPNLJEIFP": true,
                "FOEKGLEJBIJ": ""
            },
            {
                "$type": "CENEPJCONAG",
                "type": "BODY_LANG",
                "delayTime": 4.526000022888184,
                "aliasList": [
                    "1005"
                ],
                "actionId": 130,
                "NNKEOHJCPOF": true,
                "MHDCNDAINCK": true,
                "LHIAJOBFNAK": false,
                "GJGPNLJEIFP": true,
                "FOEKGLEJBIJ": ""
            }
        ],
        [
            {
                "$type": "KAGAFALAIGP",
                "type": "DIALOG",
                "aliasList": [
                    "1005"
                ],
                "actionId": 114,
                "JHEPJOMJJHH": 732641306,
                "OCILKFCPBNC": 1.5
            },
            {
                "$type": "CENEPJCONAG",
                "type": "BODY_LANG",
                "delayTime": 0.012000000104308128,
                "aliasList": [
                    "1005"
                ],
                "actionId": 131,
                "NNKEOHJCPOF": true,
                "MHDCNDAINCK": true,
                "LHIAJOBFNAK": false,
                "GJGPNLJEIFP": true,
                "FOEKGLEJBIJ": ""
            },
            {
                "$type": "PBIGHFCHGCA",
                "type": "CAMERA_MOVE",
                "delayTime": 0.382999986410141,
                "duration": 1.5,
                "actionId": 142,
                "KCFKJMMEECM": {
                    "x": -1245.571044921875,
                    "y": 73.41300201416016,
                    "z": 5137.40283203125
                },
                "DLGJEHNPMFN": {
                    "x": -1245.7979736328125,
                    "y": 73.33899688720703,
                    "z": 5136.43212890625
                },
                "NJCBGNHGINI": 38.0,
                "FNMFGIOLKBE": 2,
                "NECGMADJICG": "Linear",
                "BMHIHPIKAHM": {},
                "MMJMMAEAJOA": true,
                "DNFHBDHNHKE": -0.0020000000949949026,
                "HGGPLEMCNNG": false,
                "JBODIEHINII": "",
                "PHDIKPKLFIA": true,
                "EJCHLMIMLBO": "",
                "BIMPIKMCIHB": "",
                "MCAOJPLIJGI": ""
            },
            {
                "$type": "NFDDGDIKEAG",
                "type": "STEER_TO",
                "delayTime": 0.38600000739097595,
                "duration": 1.0,
                "aliasList": [
                    "1005"
                ],
                "actionId": 141,
                "GGJHILELIMO": "ABSOLUTE",
                "GFKPEELNDMP": true,
                "GPODKINFLFH": {
                    "x": -1245.344970703125,
                    "y": 72.02300262451172,
                    "z": 5135.869140625
                },
                "OPFKICFLGCD": 90.0,
                "PKKKHNGDEEE": true,
                "LGDIOPOBMPH": true,
                "NBNJEKMFIDE": true,
                "JBODIEHINII": "",
                "DMPFMDNFEHA": true,
                "OJJKHFPNNKJ": true,
                "NNFPFPOJJOJ": ""
            },
            {
                "$type": "CENEPJCONAG",
                "type": "BODY_LANG",
                "delayTime": 0.40400001406669617,
                "aliasList": [
                    "1005"
                ],
                "actionId": 132,
                "OGFPAIKLDGB": 9040,
                "MHDCNDAINCK": true,
                "LHIAJOBFNAK": false,
                "GJGPNLJEIFP": true,
                "FOEKGLEJBIJ": ""
            },
            {
                "$type": "CENEPJCONAG",
                "type": "BODY_LANG",
                "delayTime": 1.4589999914169312,
                "aliasList": [
                    "1005"
                ],
                "actionId": 133,
                "OGFPAIKLDGB": 1230,
                "MHDCNDAINCK": true,
                "LHIAJOBFNAK": false,
                "GJGPNLJEIFP": true,
                "FOEKGLEJBIJ": ""
            }
        ],
        [
            {
                "$type": "MoleMole.Config.ConfigTimeProtectAction",
                "type": "TIME_PROTECT",
                "duration": 0.10000000149011612,
                "actionId": 105
            },
            {
                "$type": "MoleMole.Config.ConfigSimpleBlackScreenAction",
                "type": "SIMPLE_BLACK_SCREEN",
                "actionId": 115,
                "durationToBlack": 0.5,
                "durationKeepBlack": 1.0,
                "durationFromBlack": 0.5,
                "textMapID": ""
            },
            {
                "$type": "MoleMole.Config.ConfigTimeProtectAction",
                "type": "TIME_PROTECT",
                "duration": 0.699999988079071,
                "actionId": 116
            },
            {
                "$type": "PBIGHFCHGCA",
                "type": "CAMERA_MOVE",
                "delayTime": 0.6169999837875366,
                "duration": 0.0,
                "actionId": 135,
                "KCFKJMMEECM": {
                    "x": -1246.626953125,
                    "y": 73.43699645996094,
                    "z": 5139.9658203125
                },
                "DLGJEHNPMFN": {
                    "x": -1246.4949951171875,
                    "y": 73.31300354003906,
                    "z": 5138.98193359375
                },
                "NJCBGNHGINI": 48.0,
                "FNMFGIOLKBE": 6,
                "NECGMADJICG": "EaseInOutCubic",
                "BMHIHPIKAHM": {},
                "MMJMMAEAJOA": true,
                "DNFHBDHNHKE": -0.0020000000949949026,
                "HGGPLEMCNNG": false,
                "JBODIEHINII": "",
                "PHDIKPKLFIA": true,
                "EJCHLMIMLBO": "",
                "BIMPIKMCIHB": "",
                "MCAOJPLIJGI": ""
            }
        ]
    ],
    "groupId": [
        {
            "grpId": 2467456583,
            "nextGrpId": 2467456584
        },
        {
            "index": 1,
            "grpId": 2467456584,
            "nextGrpId": 2467456585
        },
        {
            "index": 2,
            "grpId": 2467456585,
            "nextGrpId": 2467456587
        },
        {
            "index": 3,
            "grpId": 2467456586,
            "nextGrpId": 2467456587
        },
        {
            "index": 4,
            "grpId": 2467456587,
            "nextGrpId": 2467456588
        },
        {
            "index": 5,
            "grpId": 2467456588,
            "nextGrpId": 2467456589
        }
    ]
}