{
    "luaDataPath": "",
    "startBlackKeepTime": 0.5,
    "entityBan": "",
    "disableNpcLod": true,
    "BHNKJKDADLC": true,
    "JJFIGGKCCCF": true,
    "EKDGNGHMECG": true,
    "startFade": {
        "startFadeInDuration": 0.5,
        "startFadeOutDuration": 0.5
    },
    "endFade": {
        "startFadeOutDuration": 0.0
    },
    "actors": [
        {
            "alias": "Avatar",
            "visible": true,
            "bornPointName": "T7305513_N10000005",
            "relativePosType": "AVATAR_NEW",
            "relativePosNpcAlias": "",
            "bindMovingTargetKey": ""
        },
        {
            "configID": 20723,
            "alias": "20723",
            "visible": true,
            "bornPointName": "T7305513_N20723",
            "relativePosType": "AVATAR_NEW",
            "relativePosNpcAlias": "",
            "bindMovingTargetKey": ""
        },
        {
            "configID": 1005,
            "alias": "1005",
            "visible": true,
            "bornPointName": "T7305513_N1005",
            "removeActorType": "REMOVE_WITH_DISAPPEAR",
            "relativePosType": "AVATAR_NEW",
            "relativePosNpcAlias": "",
            "bindMovingTargetKey": ""
        },
        {
            "configID": 20722,
            "alias": "20722",
            "visible": true,
            "bornPointName": "T7305513_N20722",
            "relativePosType": "AVATAR_NEW",
            "relativePosNpcAlias": "",
            "bindMovingTargetKey": ""
        },
        {
            "configID": 20724,
            "alias": "20724",
            "visible": true,
            "bornPointName": "",
            "relativePosType": "AVATAR_NEW",
            "relativePosNpcAlias": "",
            "bindMovingTargetKey": ""
        }
    ],
    "group": [
        [
            {
                "$type": "MoleMole.Config.ConfigTimeProtectAction",
                "type": "TIME_PROTECT",
                "duration": 0.10000000149011612,
                "actionId": 104
            }
        ],
        [
            {
                "$type": "KAGAFALAIGP",
                "type": "DIALOG",
                "aliasList": [
                    "20723"
                ],
                "actionId": 107,
                "JHEPJOMJJHH": 730551301,
                "OCILKFCPBNC": 0.5
            }
        ],
        [
            {
                "$type": "KAGAFALAIGP",
                "type": "DIALOG",
                "aliasList": [
                    "1005"
                ],
                "actionId": 109,
                "JHEPJOMJJHH": 730551302,
                "OCILKFCPBNC": 0.5
            }
        ],
        [
            {
                "$type": "KAGAFALAIGP",
                "type": "DIALOG",
                "aliasList": [
                    "20724"
                ],
                "actionId": 111,
                "JHEPJOMJJHH": 730551303,
                "OCILKFCPBNC": 0.5
            }
        ],
        [
            {
                "$type": "KAGAFALAIGP",
                "type": "DIALOG",
                "aliasList": [
                    "20723"
                ],
                "actionId": 113,
                "JHEPJOMJJHH": 730551304,
                "OCILKFCPBNC": 0.5
            }
        ],
        [
            {
                "$type": "KAGAFALAIGP",
                "type": "DIALOG",
                "aliasList": [
                    "20722"
                ],
                "actionId": 115,
                "JHEPJOMJJHH": 730551305,
                "OCILKFCPBNC": 0.5
            }
        ],
        [
            {
                "$type": "MoleMole.Config.ConfigTimeProtectAction",
                "type": "TIME_PROTECT",
                "duration": 0.10000000149011612,
                "actionId": 105
            }
        ]
    ],
    "groupId": [
        {
            "grpId": 2098346567,
            "nextGrpId": 2098346568
        },
        {
            "index": 1,
            "grpId": 2098346568,
            "nextGrpId": 2098346569
        },
        {
            "index": 2,
            "grpId": 2098346569,
            "nextGrpId": 2098346570
        },
        {
            "index": 3,
            "grpId": 2098346570,
            "nextGrpId": 2098346571
        },
        {
            "index": 4,
            "grpId": 2098346571,
            "nextGrpId": 2098346572
        },
        {
            "index": 5,
            "grpId": 2098346572,
            "nextGrpId": 2098346573
        },
        {
            "index": 6,
            "grpId": 2098346573,
            "nextGrpId": 2098346574
        }
    ]
}