{
    "luaDataPath": "",
    "startBlackKeepTime": 0.5,
    "entityBan": "",
    "disableNpcLod": true,
    "BHNKJKDADLC": true,
    "JJFIGGKCCCF": true,
    "EKDGNGHMECG": true,
    "startFade": {
        "startFadeInDuration": 0.5,
        "startFadeOutDuration": 0.5
    },
    "endFade": {
        "startFadeOutDuration": 0.0
    },
    "actors": [
        {
            "alias": "Avatar",
            "visible": true,
            "bornPointName": "guide_Q7301512_player",
            "relativePosNpcAlias": "",
            "bindMovingTargetKey": ""
        },
        {
            "configID": 1005,
            "alias": "1005",
            "visible": true,
            "bornPointName": "guide_Q7301512_paimon",
            "relativePos": {
                "x": 0.800000011920929,
                "z": 0.800000011920929
            },
            "removeActorType": "REMOVE_WITH_DISAPPEAR",
            "relativePosNpcAlias": "",
            "bindMovingTargetKey": ""
        },
        {
            "configID": 20607,
            "alias": "20607",
            "visible": true,
            "bornPointName": "guide_Q7301512",
            "relativePosNpcAlias": "",
            "bindMovingTargetKey": ""
        },
        {
            "alias": "AvatarNpc",
            "visible": true,
            "bornPointName": "",
            "removeActorType": "REMOVE",
            "relativePosType": "AVATAR_NEW",
            "relativePosNpcAlias": "",
            "bindMovingTargetKey": ""
        }
    ],
    "group": [
        [
            {
                "$type": "MoleMole.Config.ConfigTimeProtectAction",
                "type": "TIME_PROTECT",
                "duration": 0.10000000149011612
            },
            {
                "$type": "MoleMole.Config.ConfigBlackScreenAction",
                "type": "BLACK_SCREEN",
                "actionId": 149,
                "blackScreenType": "KEEP_BLACK",
                "durationKeepBlack": 0.5,
                "inteePos": "",
                "textMapID": "",
                "useTextFade": true
            },
            {
                "$type": "MoleMole.Config.ConfigHideWidgetPet",
                "type": "HIDE_WIDGET_PET",
                "actionId": 152,
                "isHide": true
            },
            {
                "$type": "PBIGHFCHGCA",
                "type": "CAMERA_MOVE",
                "duration": 1.0,
                "actionId": 156,
                "KCFKJMMEECM": {
                    "x": -1124.634033203125,
                    "y": 169.8489990234375,
                    "z": 3659.009033203125
                },
                "DLGJEHNPMFN": {
                    "x": -1123.7020263671875,
                    "y": 169.8419952392578,
                    "z": 3658.64697265625
                },
                "FNMFGIOLKBE": 6,
                "NECGMADJICG": "EaseInOutCubic",
                "BMHIHPIKAHM": {},
                "MMJMMAEAJOA": true,
                "HGGPLEMCNNG": false,
                "JBODIEHINII": "",
                "PHDIKPKLFIA": true,
                "EJCHLMIMLBO": "",
                "BIMPIKMCIHB": "",
                "MCAOJPLIJGI": ""
            },
            {
                "$type": "MoleMole.Config.ConfigVisibleInterAction",
                "type": "VISIBLE",
                "aliasList": [
                    "Avatar"
                ],
                "actionId": 310,
                "extraParam": ""
            },
            {
                "$type": "MoleMole.Config.ConfigTeleportToAction",
                "type": "TELEPORT_TO",
                "aliasList": [
                    "1005"
                ],
                "actionId": 153,
                "position": {
                    "x": -1120.3790283203125,
                    "y": 168.0500030517578,
                    "z": 3651.943115234375
                },
                "forward": {
                    "x": 2.5940001010894775,
                    "y": 0.028999999165534973,
                    "z": 2.4539999961853027
                },
                "openLongDisTeleport": true,
                "posBindMovingTargetKey": "",
                "forwardBindMovingTargetKey": ""
            },
            {
                "$type": "FNPNDPFBBDD",
                "type": "LOOK_AT",
                "aliasList": [
                    "1005"
                ],
                "actionId": 157,
                "NKGFDJDHOBD": true,
                "useTargetPos": true,
                "LBJHJADMNBD": true,
                "EKIONHAEIBG": {
                    "x": -1118.136962890625,
                    "y": 168.95700073242188,
                    "z": 3654.14892578125
                },
                "MNOPLOBEFLB": 0.4000000059604645,
                "JBODIEHINII": "",
                "CFPBIOLLOCO": "NONE",
                "LPCACGGCDLI": "",
                "NNFPFPOJJOJ": ""
            },
            {
                "$type": "MoleMole.Config.ConfigTeleportToAction",
                "type": "TELEPORT_TO",
                "aliasList": [
                    "20607"
                ],
                "actionId": 125,
                "position": {
                    "x": -1117.93798828125,
                    "y": 168.63699340820312,
                    "z": 3654.3291015625
                },
                "forward": {
                    "x": -0.27000001072883606,
                    "z": 0.8379999995231628
                },
                "openLongDisTeleport": true,
                "posBindMovingTargetKey": "",
                "forwardBindMovingTargetKey": ""
            },
            {
                "$type": "FNPNDPFBBDD",
                "type": "LOOK_AT",
                "aliasList": [
                    "20607"
                ],
                "actionId": 157,
                "NKGFDJDHOBD": true,
                "useTargetPos": true,
                "LBJHJADMNBD": true,
                "EKIONHAEIBG": {
                    "x": -1118.6209716796875,
                    "y": 169.56300354003906,
                    "z": 3656.489013671875
                },
                "MNOPLOBEFLB": 0.4000000059604645,
                "JBODIEHINII": "",
                "CFPBIOLLOCO": "NONE",
                "LPCACGGCDLI": "",
                "NNFPFPOJJOJ": ""
            },
            {
                "$type": "MoleMole.Config.ConfigSetModelTransform",
                "type": "SET_MODEL_TRANSFORM",
                "aliasList": [
                    "20607"
                ],
                "actionId": 293,
                "groudHight": -0.03999999910593033
            },
            {
                "$type": "MoleMole.Config.ConfigTeleportToAction",
                "type": "TELEPORT_TO",
                "aliasList": [
                    "AvatarNpc"
                ],
                "actionId": 153,
                "position": {
                    "x": -1121.175048828125,
                    "y": 168.03500366210938,
                    "z": 3652.388916015625
                },
                "forward": {
                    "x": 3.4089999198913574,
                    "y": 0.04399999976158142,
                    "z": 2.0799999237060547
                },
                "openLongDisTeleport": true,
                "posBindMovingTargetKey": "",
                "forwardBindMovingTargetKey": ""
            },
            {
                "$type": "FNPNDPFBBDD",
                "type": "LOOK_AT",
                "aliasList": [
                    "AvatarNpc"
                ],
                "actionId": 157,
                "NKGFDJDHOBD": true,
                "useTargetPos": true,
                "LBJHJADMNBD": true,
                "EKIONHAEIBG": {
                    "x": -1118.136962890625,
                    "y": 168.95700073242188,
                    "z": 3654.14892578125
                },
                "MNOPLOBEFLB": 0.4000000059604645,
                "JBODIEHINII": "",
                "CFPBIOLLOCO": "NONE",
                "LPCACGGCDLI": "",
                "NNFPFPOJJOJ": ""
            },
            {
                "$type": "MoleMole.Config.ConfigPlayerNPCEnergyTypeAction",
                "type": "SET_PLAYER_NPC_ENERGY_TYPE",
                "aliasList": [
                    "AvatarNpc"
                ],
                "actionId": 319,
                "setHeroEngergyType": true
            },
            {
                "$type": "MoleMole.Config.ConfigMoveToAction",
                "type": "MOVE_TO",
                "delayTime": 0.10000000149011612,
                "aliasList": [
                    "1005"
                ],
                "actionId": 192,
                "moveType": "WALK",
                "routeList": [
                    {
                        "x": -1118.8179931640625,
                        "y": 168.06100463867188,
                        "z": 3653.090087890625
                    }
                ],
                "exactlyMove": true
            }
        ],
        [
            {
                "$type": "MoleMole.Config.ConfigBlackScreenAction",
                "type": "BLACK_SCREEN",
                "actionId": 150,
                "blackScreenType": "FROM_BLACK",
                "durationFromBlack": 0.5,
                "inteePos": "",
                "textMapID": "",
                "useTextFade": true
            },
            {
                "$type": "PBIGHFCHGCA",
                "type": "CAMERA_MOVE",
                "duration": 10.0,
                "actionId": 156,
                "KCFKJMMEECM": {
                    "x": -1124.886962890625,
                    "y": 169.66900634765625,
                    "z": 3658.361083984375
                },
                "DLGJEHNPMFN": {
                    "x": -1123.9549560546875,
                    "y": 169.66200256347656,
                    "z": 3657.9990234375
                },
                "NECGMADJICG": "EaseOutQuad",
                "BMHIHPIKAHM": {},
                "HGGPLEMCNNG": false,
                "JBODIEHINII": "",
                "PHDIKPKLFIA": true,
                "EJCHLMIMLBO": "",
                "BIMPIKMCIHB": "",
                "MCAOJPLIJGI": ""
            },
            {
                "$type": "KAGAFALAIGP",
                "type": "DIALOG",
                "aliasList": [
                    "1005"
                ],
                "JHEPJOMJJHH": 730151601,
                "OCILKFCPBNC": 1.7999999523162842
            },
            {
                "$type": "MoleMole.Config.ConfigMoveToAction",
                "type": "MOVE_TO",
                "aliasList": [
                    "AvatarNpc"
                ],
                "actionId": 192,
                "moveType": "WALK",
                "routeList": [
                    {
                        "x": -1119.779052734375,
                        "y": 168.0290069580078,
                        "z": 3653.27587890625
                    }
                ],
                "exactlyMove": true
            },
            {
                "$type": "FNPNDPFBBDD",
                "type": "LOOK_AT",
                "delayTime": 0.5,
                "aliasList": [
                    "20607"
                ],
                "actionId": 157,
                "NKGFDJDHOBD": true,
                "useTargetPos": true,
                "LBJHJADMNBD": true,
                "EKIONHAEIBG": {
                    "x": -1120.1669921875,
                    "y": 169.43899536132812,
                    "z": 3653.221923828125
                },
                "MNOPLOBEFLB": 0.4000000059604645,
                "JBODIEHINII": "",
                "CFPBIOLLOCO": "NONE",
                "LPCACGGCDLI": "",
                "NNFPFPOJJOJ": ""
            },
            {
                "$type": "NFDDGDIKEAG",
                "type": "STEER_TO",
                "delayTime": 0.800000011920929,
                "duration": 1.0,
                "aliasList": [
                    "20607"
                ],
                "actionId": 165,
                "GGJHILELIMO": "ABSOLUTE",
                "GPODKINFLFH": {
                    "x": -1118.7669677734375,
                    "y": 168.63699340820312,
                    "z": 3653.64501953125
                },
                "PKKKHNGDEEE": true,
                "JBODIEHINII": "",
                "NNFPFPOJJOJ": ""
            },
            {
                "$type": "FNPNDPFBBDD",
                "type": "LOOK_AT",
                "delayTime": 1.690999984741211,
                "aliasList": [
                    "20607"
                ],
                "actionId": 157,
                "NKGFDJDHOBD": true,
                "useTargetPos": true,
                "LBJHJADMNBD": true,
                "EKIONHAEIBG": {
                    "x": -1120.1669921875,
                    "y": 169.43899536132812,
                    "z": 3653.221923828125
                },
                "MNOPLOBEFLB": 0.30000001192092896,
                "JBODIEHINII": "",
                "CFPBIOLLOCO": "NONE",
                "LPCACGGCDLI": "",
                "NNFPFPOJJOJ": ""
            },
            {
                "$type": "CENEPJCONAG",
                "type": "BODY_LANG",
                "delayTime": 2.2339999675750732,
                "aliasList": [
                    "1005"
                ],
                "actionId": 198,
                "OGFPAIKLDGB": 1130,
                "MHDCNDAINCK": true,
                "LHIAJOBFNAK": false,
                "GJGPNLJEIFP": true,
                "FOEKGLEJBIJ": ""
            },
            {
                "$type": "CENEPJCONAG",
                "type": "BODY_LANG",
                "delayTime": 4.047999858856201,
                "aliasList": [
                    "20607"
                ],
                "actionId": 199,
                "OGFPAIKLDGB": 4030,
                "MHDCNDAINCK": true,
                "LHIAJOBFNAK": false,
                "GJGPNLJEIFP": true,
                "FOEKGLEJBIJ": ""
            }
        ],
        [
            {
                "$type": "PBIGHFCHGCA",
                "type": "CAMERA_MOVE",
                "duration": 1.0,
                "actionId": 167,
                "KCFKJMMEECM": {
                    "x": -1123.3929443359375,
                    "y": 169.64500427246094,
                    "z": 3652.708984375
                },
                "DLGJEHNPMFN": {
                    "x": -1122.4169921875,
                    "y": 169.48899841308594,
                    "z": 3652.85791015625
                },
                "NJCBGNHGINI": 25.0,
                "FNMFGIOLKBE": 6,
                "NECGMADJICG": "EaseInOutCubic",
                "BMHIHPIKAHM": {},
                "MMJMMAEAJOA": true,
                "HGGPLEMCNNG": false,
                "JBODIEHINII": "",
                "PHDIKPKLFIA": true,
                "EJCHLMIMLBO": "",
                "BIMPIKMCIHB": "",
                "MCAOJPLIJGI": ""
            },
            {
                "$type": "MoleMole.Config.ConfigTeleportToAction",
                "type": "TELEPORT_TO",
                "aliasList": [
                    "1005"
                ],
                "actionId": 153,
                "position": {
                    "x": -1119.75,
                    "y": 168.07899475097656,
                    "z": 3652.50390625
                },
                "forward": {
                    "x": 1.965999960899353,
                    "z": 1.8930000066757202
                },
                "openLongDisTeleport": true,
                "posBindMovingTargetKey": "",
                "forwardBindMovingTargetKey": ""
            },
            {
                "$type": "CENEPJCONAG",
                "type": "BODY_LANG",
                "aliasList": [
                    "1005"
                ],
                "actionId": 202,
                "NNKEOHJCPOF": true,
                "MHDCNDAINCK": true,
                "LHIAJOBFNAK": false,
                "GJGPNLJEIFP": true,
                "FOEKGLEJBIJ": ""
            },
            {
                "$type": "KAGAFALAIGP",
                "type": "DIALOG",
                "aliasList": [
                    "20607"
                ],
                "JHEPJOMJJHH": 730151602,
                "OCILKFCPBNC": 0.5
            },
            {
                "$type": "CENEPJCONAG",
                "type": "BODY_LANG",
                "aliasList": [
                    "20607"
                ],
                "actionId": 169,
                "OGFPAIKLDGB": 1080,
                "MHDCNDAINCK": true,
                "LHIAJOBFNAK": false,
                "GJGPNLJEIFP": true,
                "FOEKGLEJBIJ": ""
            },
            {
                "$type": "MoleMole.Config.ConfigTeleportToAction",
                "type": "TELEPORT_TO",
                "aliasList": [
                    "AvatarNpc"
                ],
                "actionId": 153,
                "position": {
                    "x": -1120.1719970703125,
                    "y": 168.07899475097656,
                    "z": 3652.9990234375
                },
                "forward": {
                    "x": 2.4059998989105225,
                    "z": 1.4700000286102295
                },
                "openLongDisTeleport": true,
                "posBindMovingTargetKey": "",
                "forwardBindMovingTargetKey": ""
            },
            {
                "$type": "PBIGHFCHGCA",
                "type": "CAMERA_MOVE",
                "delayTime": 0.10000000149011612,
                "duration": 6.0,
                "actionId": 167,
                "KCFKJMMEECM": {
                    "x": -1123.197998046875,
                    "y": 169.61399841308594,
                    "z": 3652.7470703125
                },
                "DLGJEHNPMFN": {
                    "x": -1122.2220458984375,
                    "y": 169.45799255371094,
                    "z": 3652.89599609375
                },
                "NJCBGNHGINI": 25.0,
                "NECGMADJICG": "EaseOutQuad",
                "BMHIHPIKAHM": {},
                "MMJMMAEAJOA": true,
                "HGGPLEMCNNG": false,
                "JBODIEHINII": "",
                "PHDIKPKLFIA": true,
                "EJCHLMIMLBO": "",
                "BIMPIKMCIHB": "",
                "MCAOJPLIJGI": ""
            }
        ],
        [
            {
                "$type": "MoleMole.Config.ConfigTimeProtectAction",
                "type": "TIME_PROTECT",
                "duration": 3.5,
                "actionId": 146
            },
            {
                "$type": "FNPNDPFBBDD",
                "type": "LOOK_AT",
                "aliasList": [
                    "20607"
                ],
                "actionId": 157,
                "NKGFDJDHOBD": true,
                "useTargetPos": true,
                "LBJHJADMNBD": true,
                "EKIONHAEIBG": {
                    "x": -1118.6209716796875,
                    "y": 168.8470001220703,
                    "z": 3656.489013671875
                },
                "MNOPLOBEFLB": 0.4000000059604645,
                "JBODIEHINII": "",
                "CFPBIOLLOCO": "NONE",
                "LPCACGGCDLI": "",
                "NNFPFPOJJOJ": ""
            },
            {
                "$type": "CENEPJCONAG",
                "type": "BODY_LANG",
                "aliasList": [
                    "20607"
                ],
                "actionId": 313,
                "NNKEOHJCPOF": true,
                "MHDCNDAINCK": true,
                "LHIAJOBFNAK": false,
                "GJGPNLJEIFP": true,
                "FOEKGLEJBIJ": ""
            },
            {
                "$type": "NFDDGDIKEAG",
                "type": "STEER_TO",
                "delayTime": 0.3499999940395355,
                "duration": 1.0,
                "aliasList": [
                    "20607"
                ],
                "actionId": 158,
                "GGJHILELIMO": "ABSOLUTE",
                "GPODKINFLFH": {
                    "x": -1118.2080078125,
                    "y": 168.63699340820312,
                    "z": 3655.1669921875
                },
                "PKKKHNGDEEE": true,
                "JBODIEHINII": "",
                "NNFPFPOJJOJ": ""
            },
            {
                "$type": "PBIGHFCHGCA",
                "type": "CAMERA_MOVE",
                "delayTime": 0.800000011920929,
                "duration": 0.5,
                "actionId": 160,
                "KCFKJMMEECM": {
                    "x": -1118.85400390625,
                    "y": 168.63299560546875,
                    "z": 3655.468994140625
                },
                "DLGJEHNPMFN": {
                    "x": -1118.260009765625,
                    "y": 168.86700439453125,
                    "z": 3654.698974609375
                },
                "NJCBGNHGINI": 26.0,
                "FNMFGIOLKBE": 6,
                "NECGMADJICG": "Linear",
                "BMHIHPIKAHM": {},
                "HGGPLEMCNNG": false,
                "JBODIEHINII": "",
                "PHDIKPKLFIA": true,
                "EJCHLMIMLBO": "",
                "BIMPIKMCIHB": "",
                "MCAOJPLIJGI": ""
            },
            {
                "$type": "KAGAFALAIGP",
                "type": "DIALOG_CLEAR",
                "delayTime": 0.800000011920929,
                "actionId": 316,
                "JHEPJOMJJHH": 730151602
            },
            {
                "$type": "PBIGHFCHGCA",
                "type": "CAMERA_MOVE",
                "delayTime": 0.8999999761581421,
                "duration": 2.5999999046325684,
                "actionId": 160,
                "KCFKJMMEECM": {
                    "x": -1118.781005859375,
                    "y": 168.6179962158203,
                    "z": 3655.52001953125
                },
                "DLGJEHNPMFN": {
                    "x": -1118.2110595703125,
                    "y": 168.8719940185547,
                    "z": 3654.739013671875
                },
                "NJCBGNHGINI": 25.0,
                "NECGMADJICG": "Linear",
                "BMHIHPIKAHM": {},
                "MMJMMAEAJOA": true,
                "DNFHBDHNHKE": 359.635009765625,
                "HGGPLEMCNNG": false,
                "JBODIEHINII": "",
                "PHDIKPKLFIA": true,
                "EJCHLMIMLBO": "",
                "BIMPIKMCIHB": "",
                "MCAOJPLIJGI": ""
            },
            {
                "$type": "FNPNDPFBBDD",
                "type": "LOOK_AT",
                "delayTime": 1.2309999465942383,
                "aliasList": [
                    "20607"
                ],
                "actionId": 157,
                "NKGFDJDHOBD": true,
                "useTargetPos": true,
                "LBJHJADMNBD": true,
                "EKIONHAEIBG": {
                    "x": -1118.6209716796875,
                    "y": 168.8470001220703,
                    "z": 3656.489013671875
                },
                "MNOPLOBEFLB": 0.30000001192092896,
                "JBODIEHINII": "",
                "CFPBIOLLOCO": "NONE",
                "LPCACGGCDLI": "",
                "NNFPFPOJJOJ": ""
            },
            {
                "$type": "FNPNDPFBBDD",
                "type": "LOOK_AT",
                "delayTime": 2.009999990463257,
                "aliasList": [
                    "20607"
                ],
                "actionId": 157,
                "NKGFDJDHOBD": true,
                "useTargetPos": true,
                "LBJHJADMNBD": true,
                "EKIONHAEIBG": {
                    "x": -1118.6209716796875,
                    "y": 169.56300354003906,
                    "z": 3656.489013671875
                },
                "MNOPLOBEFLB": 0.30000001192092896,
                "JBODIEHINII": "",
                "CFPBIOLLOCO": "NONE",
                "LPCACGGCDLI": "",
                "NNFPFPOJJOJ": ""
            },
            {
                "$type": "CENEPJCONAG",
                "type": "BODY_LANG",
                "delayTime": 2.184999942779541,
                "aliasList": [
                    "20607"
                ],
                "actionId": 145,
                "OGFPAIKLDGB": 1050,
                "MHDCNDAINCK": true,
                "LHIAJOBFNAK": false,
                "GJGPNLJEIFP": true,
                "FOEKGLEJBIJ": ""
            }
        ],
        [
            {
                "$type": "MoleMole.Config.ConfigTimeProtectAction",
                "type": "TIME_PROTECT",
                "duration": 2.0,
                "actionId": 210
            },
            {
                "$type": "PBIGHFCHGCA",
                "type": "CAMERA_MOVE",
                "duration": 1.0,
                "actionId": 172,
                "KCFKJMMEECM": {
                    "x": -1117.23095703125,
                    "y": 170.7030029296875,
                    "z": 3654.85595703125
                },
                "DLGJEHNPMFN": {
                    "x": -1117.9530029296875,
                    "y": 170.28700256347656,
                    "z": 3654.302978515625
                },
                "NJCBGNHGINI": 25.0,
                "FNMFGIOLKBE": 6,
                "NECGMADJICG": "EaseInOutCubic",
                "BMHIHPIKAHM": {},
                "MMJMMAEAJOA": true,
                "HGGPLEMCNNG": false,
                "JBODIEHINII": "",
                "PHDIKPKLFIA": true,
                "EJCHLMIMLBO": "",
                "BIMPIKMCIHB": "",
                "MCAOJPLIJGI": ""
            },
            {
                "$type": "PBIGHFCHGCA",
                "type": "CAMERA_MOVE",
                "delayTime": 0.10000000149011612,
                "duration": 1.899999976158142,
                "actionId": 172,
                "KCFKJMMEECM": {
                    "x": -1117.3929443359375,
                    "y": 170.6269989013672,
                    "z": 3654.73095703125
                },
                "DLGJEHNPMFN": {
                    "x": -1118.114990234375,
                    "y": 170.21099853515625,
                    "z": 3654.177978515625
                },
                "NJCBGNHGINI": 25.0,
                "NECGMADJICG": "Linear",
                "BMHIHPIKAHM": {},
                "MMJMMAEAJOA": true,
                "HGGPLEMCNNG": false,
                "JBODIEHINII": "",
                "PHDIKPKLFIA": true,
                "EJCHLMIMLBO": "",
                "BIMPIKMCIHB": "",
                "MCAOJPLIJGI": ""
            },
            {
                "$type": "FNPNDPFBBDD",
                "type": "LOOK_AT",
                "delayTime": 0.22599999606609344,
                "aliasList": [
                    "1005"
                ],
                "actionId": 157,
                "NKGFDJDHOBD": true,
                "useTargetPos": true,
                "LBJHJADMNBD": true,
                "EKIONHAEIBG": {
                    "x": -1118.89697265625,
                    "y": 169.91400146484375,
                    "z": 3656.489013671875
                },
                "MNOPLOBEFLB": 0.4000000059604645,
                "JBODIEHINII": "",
                "CFPBIOLLOCO": "NONE",
                "LPCACGGCDLI": "",
                "NNFPFPOJJOJ": ""
            },
            {
                "$type": "FNPNDPFBBDD",
                "type": "LOOK_AT",
                "delayTime": 0.30000001192092896,
                "aliasList": [
                    "AvatarNpc"
                ],
                "actionId": 157,
                "NKGFDJDHOBD": true,
                "useTargetPos": true,
                "LBJHJADMNBD": true,
                "EKIONHAEIBG": {
                    "x": -1119.0579833984375,
                    "y": 169.99200439453125,
                    "z": 3656.489013671875
                },
                "MNOPLOBEFLB": 0.4000000059604645,
                "JBODIEHINII": "",
                "CFPBIOLLOCO": "NONE",
                "LPCACGGCDLI": "",
                "NNFPFPOJJOJ": ""
            },
            {
                "$type": "LNLLGCOBDFC",
                "type": "EMO_SYNC",
                "delayTime": 0.35499998927116394,
                "aliasList": [
                    "1005"
                ],
                "actionId": 228,
                "LKHHGAGNMKM": "",
                "AIMKGPFAAAD": "Cs_Emo_Pet_Common/Cs_Emo_Paimon_E",
                "IPEKOEDCGGF": "Cs_Emo_Pet_Common/Cs_Emo_Paimon_Surprise01_B",
                "EJNFMNJKDAH": "",
                "LOOOCOLIHFA": "",
                "KJDLMAPPPMG": "",
                "IMIEGJDNPNN": [
                    7412857520875259287,
                    1686031330343015427,
                    16163332127458561468,
                    12504227263600739740
                ],
                "KIJHIMADJGM": [
                    2672246597421509944,
                    9455765212899301531,
                    2660185490443124627,
                    13980042791963369577
                ]
            },
            {
                "$type": "NFDDGDIKEAG",
                "type": "STEER_TO",
                "delayTime": 0.47600001096725464,
                "duration": 0.800000011920929,
                "aliasList": [
                    "1005"
                ],
                "actionId": 158,
                "GGJHILELIMO": "ABSOLUTE",
                "GPODKINFLFH": {
                    "x": -1119.0419921875,
                    "y": 168.04200744628906,
                    "z": 3655.929931640625
                },
                "JBODIEHINII": "",
                "NNFPFPOJJOJ": ""
            },
            {
                "$type": "FNPNDPFBBDD",
                "type": "LOOK_AT",
                "delayTime": 1.1269999742507935,
                "aliasList": [
                    "1005"
                ],
                "actionId": 157,
                "NKGFDJDHOBD": true,
                "useTargetPos": true,
                "LBJHJADMNBD": true,
                "EKIONHAEIBG": {
                    "x": -1118.89697265625,
                    "y": 169.91400146484375,
                    "z": 3656.489013671875
                },
                "MNOPLOBEFLB": 0.30000001192092896,
                "JBODIEHINII": "",
                "CFPBIOLLOCO": "NONE",
                "LPCACGGCDLI": "",
                "NNFPFPOJJOJ": ""
            }
        ],
        [
            {
                "$type": "MoleMole.Config.ConfigTimeProtectAction",
                "type": "TIME_PROTECT",
                "duration": 3.0,
                "actionId": 146
            },
            {
                "$type": "PBIGHFCHGCA",
                "type": "CAMERA_MOVE",
                "duration": 1.0,
                "actionId": 174,
                "KCFKJMMEECM": {
                    "x": -1119.4189453125,
                    "y": 169.1649932861328,
                    "z": 3651.181884765625
                },
                "DLGJEHNPMFN": {
                    "x": -1119.3790283203125,
                    "y": 169.29600524902344,
                    "z": 3652.172119140625
                },
                "NJCBGNHGINI": 40.0,
                "FNMFGIOLKBE": 6,
                "NECGMADJICG": "EaseInOutCubic",
                "BMHIHPIKAHM": {},
                "MMJMMAEAJOA": true,
                "HGGPLEMCNNG": false,
                "JBODIEHINII": "",
                "PHDIKPKLFIA": true,
                "EJCHLMIMLBO": "",
                "BIMPIKMCIHB": "",
                "MCAOJPLIJGI": ""
            },
            {
                "$type": "FNPNDPFBBDD",
                "type": "LOOK_AT",
                "aliasList": [
                    "1005"
                ],
                "actionId": 157,
                "NKGFDJDHOBD": true,
                "useTargetPos": true,
                "LBJHJADMNBD": true,
                "EKIONHAEIBG": {
                    "x": -1118.89697265625,
                    "y": 170.58900451660156,
                    "z": 3656.489013671875
                },
                "MNOPLOBEFLB": 0.800000011920929,
                "JBODIEHINII": "",
                "CFPBIOLLOCO": "NONE",
                "LPCACGGCDLI": "",
                "NNFPFPOJJOJ": ""
            },
            {
                "$type": "LNLLGCOBDFC",
                "type": "EMO_SYNC",
                "aliasList": [
                    "1005"
                ],
                "actionId": 288,
                "LKHHGAGNMKM": "",
                "AIMKGPFAAAD": "Cs_Emo_Pet_Common/Cs_Emo_Paimon_Line01",
                "IPEKOEDCGGF": "Cs_Emo_Pet_Common/Cs_Emo_Paimon_Normal01",
                "EJNFMNJKDAH": "",
                "LOOOCOLIHFA": "",
                "KJDLMAPPPMG": "",
                "IMIEGJDNPNN": [
                    2368283007678680735,
                    2787779582621845965,
                    12044466278388347058,
                    1886771682776136198
                ],
                "KIJHIMADJGM": [
                    312453201720762420,
                    9562322946389574798,
                    18422542724361145117,
                    17949024460815132449
                ]
            },
            {
                "$type": "PBIGHFCHGCA",
                "type": "CAMERA_MOVE",
                "delayTime": 0.10000000149011612,
                "duration": 3.9000000953674316,
                "actionId": 174,
                "KCFKJMMEECM": {
                    "x": -1119.405029296875,
                    "y": 169.31100463867188,
                    "z": 3651.160888671875
                },
                "DLGJEHNPMFN": {
                    "x": -1119.364990234375,
                    "y": 169.44200134277344,
                    "z": 3652.15087890625
                },
                "NJCBGNHGINI": 40.0,
                "NECGMADJICG": "Linear",
                "BMHIHPIKAHM": {},
                "MMJMMAEAJOA": true,
                "HGGPLEMCNNG": false,
                "JBODIEHINII": "",
                "PHDIKPKLFIA": true,
                "EJCHLMIMLBO": "",
                "BIMPIKMCIHB": "",
                "MCAOJPLIJGI": ""
            },
            {
                "$type": "FNPNDPFBBDD",
                "type": "LOOK_AT",
                "delayTime": 0.1899999976158142,
                "aliasList": [
                    "AvatarNpc"
                ],
                "actionId": 157,
                "NKGFDJDHOBD": true,
                "useTargetPos": true,
                "LBJHJADMNBD": true,
                "EKIONHAEIBG": {
                    "x": -1119.0579833984375,
                    "y": 170.7030029296875,
                    "z": 3656.489013671875
                },
                "MNOPLOBEFLB": 0.800000011920929,
                "JBODIEHINII": "",
                "CFPBIOLLOCO": "NONE",
                "LPCACGGCDLI": "",
                "NNFPFPOJJOJ": ""
            },
            {
                "$type": "MoleMole.Config.ConfigPlayEffectAction",
                "type": "PLAY_EFFECT",
                "delayTime": 0.20000000298023224,
                "actionId": 315,
                "effectIndex": "1",
                "patternName": "Eff_ScenObj_VarunaStone_BigFlare_Active",
                "pos": {
                    "x": -1118.8699951171875,
                    "y": 168.85000610351562,
                    "z": 3657.06005859375
                },
                "euler": {
                    "y": -156.3489990234375
                },
                "scale": {
                    "x": 1.0,
                    "y": 1.0,
                    "z": 1.0
                },
                "isLoop": true,
                "otherTargetNpcAlias": ""
            },
            {
                "$type": "CENEPJCONAG",
                "type": "BODY_LANG",
                "delayTime": 1.5,
                "aliasList": [
                    "20607"
                ],
                "actionId": 215,
                "NNKEOHJCPOF": true,
                "MHDCNDAINCK": true,
                "LHIAJOBFNAK": false,
                "GJGPNLJEIFP": true,
                "FOEKGLEJBIJ": ""
            }
        ],
        [
            {
                "$type": "PBIGHFCHGCA",
                "type": "CAMERA_MOVE",
                "duration": 1.0,
                "actionId": 184,
                "KCFKJMMEECM": {
                    "x": -1117.3050537109375,
                    "y": 175.68099975585938,
                    "z": 3663.385009765625
                },
                "DLGJEHNPMFN": {
                    "x": -1117.406982421875,
                    "y": 174.9770050048828,
                    "z": 3662.681884765625
                },
                "NJCBGNHGINI": 50.0,
                "FNMFGIOLKBE": 6,
                "NECGMADJICG": "EaseInOutCubic",
                "BMHIHPIKAHM": {},
                "MMJMMAEAJOA": true,
                "HGGPLEMCNNG": false,
                "JBODIEHINII": "",
                "PHDIKPKLFIA": true,
                "EJCHLMIMLBO": "",
                "BIMPIKMCIHB": "",
                "MCAOJPLIJGI": ""
            },
            {
                "$type": "KAGAFALAIGP",
                "type": "DIALOG",
                "aliasList": [
                    "1005"
                ],
                "JHEPJOMJJHH": 730151603,
                "OCILKFCPBNC": 1.5
            },
            {
                "$type": "FNPNDPFBBDD",
                "type": "LOOK_AT",
                "aliasList": [
                    "1005"
                ],
                "actionId": 157,
                "NKGFDJDHOBD": true,
                "useTargetPos": true,
                "LBJHJADMNBD": true,
                "EKIONHAEIBG": {
                    "x": -1120.3160400390625,
                    "y": 169.44400024414062,
                    "z": 3653.14697265625
                },
                "MNOPLOBEFLB": 0.30000001192092896,
                "JBODIEHINII": "",
                "CFPBIOLLOCO": "NONE",
                "LPCACGGCDLI": "",
                "NNFPFPOJJOJ": ""
            },
            {
                "$type": "CENEPJCONAG",
                "type": "BODY_LANG",
                "aliasList": [
                    "20607"
                ],
                "actionId": 216,
                "NNKEOHJCPOF": true,
                "MHDCNDAINCK": true,
                "LHIAJOBFNAK": false,
                "GJGPNLJEIFP": true,
                "FOEKGLEJBIJ": ""
            },
            {
                "$type": "MoleMole.Config.ConfigTeleportToAction",
                "type": "TELEPORT_TO",
                "aliasList": [
                    "AvatarNpc"
                ],
                "actionId": 188,
                "position": {
                    "x": -1120.468017578125,
                    "y": 168.0229949951172,
                    "z": 3652.904052734375
                },
                "forward": {
                    "x": 1.0640000104904175,
                    "z": 0.7390000224113464
                },
                "openLongDisTeleport": true,
                "posBindMovingTargetKey": "",
                "forwardBindMovingTargetKey": ""
            },
            {
                "$type": "PBIGHFCHGCA",
                "type": "CAMERA_MOVE",
                "delayTime": 0.10000000149011612,
                "duration": 6.0,
                "actionId": 184,
                "KCFKJMMEECM": {
                    "x": -1117.260009765625,
                    "y": 175.99099731445312,
                    "z": 3663.695068359375
                },
                "DLGJEHNPMFN": {
                    "x": -1117.362060546875,
                    "y": 175.28700256347656,
                    "z": 3662.991943359375
                },
                "NJCBGNHGINI": 50.0,
                "NECGMADJICG": "EaseOutQuad",
                "BMHIHPIKAHM": {},
                "MMJMMAEAJOA": true,
                "HGGPLEMCNNG": false,
                "JBODIEHINII": "",
                "PHDIKPKLFIA": true,
                "EJCHLMIMLBO": "",
                "BIMPIKMCIHB": "",
                "MCAOJPLIJGI": ""
            },
            {
                "$type": "FNPNDPFBBDD",
                "type": "LOOK_AT",
                "delayTime": 0.20800000429153442,
                "aliasList": [
                    "AvatarNpc"
                ],
                "actionId": 157,
                "NKGFDJDHOBD": true,
                "useTargetPos": true,
                "LBJHJADMNBD": true,
                "EKIONHAEIBG": {
                    "x": -1119.8289794921875,
                    "y": 169.3820037841797,
                    "z": 3652.617919921875
                },
                "MNOPLOBEFLB": 0.30000001192092896,
                "JBODIEHINII": "",
                "CFPBIOLLOCO": "NONE",
                "LPCACGGCDLI": "",
                "NNFPFPOJJOJ": ""
            },
            {
                "$type": "FNPNDPFBBDD",
                "type": "LOOK_AT",
                "delayTime": 0.25,
                "aliasList": [
                    "20607"
                ],
                "actionId": 157,
                "NKGFDJDHOBD": true,
                "useTargetPos": true,
                "LBJHJADMNBD": true,
                "EKIONHAEIBG": {
                    "x": -1120.1669921875,
                    "y": 169.43899536132812,
                    "z": 3653.221923828125
                },
                "MNOPLOBEFLB": 0.4000000059604645,
                "JBODIEHINII": "",
                "CFPBIOLLOCO": "NONE",
                "LPCACGGCDLI": "",
                "NNFPFPOJJOJ": ""
            },
            {
                "$type": "CENEPJCONAG",
                "type": "BODY_LANG",
                "delayTime": 0.48899999260902405,
                "aliasList": [
                    "1005"
                ],
                "actionId": 220,
                "OGFPAIKLDGB": 1170,
                "MHDCNDAINCK": true,
                "LHIAJOBFNAK": false,
                "GJGPNLJEIFP": true,
                "FOEKGLEJBIJ": ""
            },
            {
                "$type": "NFDDGDIKEAG",
                "type": "STEER_TO",
                "delayTime": 0.5,
                "duration": 1.0,
                "aliasList": [
                    "20607"
                ],
                "actionId": 165,
                "GGJHILELIMO": "ABSOLUTE",
                "GPODKINFLFH": {
                    "x": -1118.7669677734375,
                    "y": 168.63699340820312,
                    "z": 3653.64501953125
                },
                "PKKKHNGDEEE": true,
                "JBODIEHINII": "",
                "NNFPFPOJJOJ": ""
            },
            {
                "$type": "FNPNDPFBBDD",
                "type": "LOOK_AT",
                "delayTime": 1.3220000267028809,
                "aliasList": [
                    "20607"
                ],
                "actionId": 157,
                "NKGFDJDHOBD": true,
                "useTargetPos": true,
                "LBJHJADMNBD": true,
                "EKIONHAEIBG": {
                    "x": -1120.1669921875,
                    "y": 169.43899536132812,
                    "z": 3653.221923828125
                },
                "MNOPLOBEFLB": 0.30000001192092896,
                "JBODIEHINII": "",
                "CFPBIOLLOCO": "NONE",
                "LPCACGGCDLI": "",
                "NNFPFPOJJOJ": ""
            },
            {
                "$type": "AAFOOOPNJLB",
                "type": "DIALOG_SELECT",
                "delayTime": 1.5,
                "aliasList": [
                    "Avatar"
                ],
                "KFAEOBDAAME": [
                    730151604
                ],
                "ELPFMMBHOLF": [
                    3157444881
                ],
                "OEAAKJDIEFD": true
            },
            {
                "$type": "CENEPJCONAG",
                "type": "BODY_LANG",
                "delayTime": 2.2839999198913574,
                "aliasList": [
                    "AvatarNpc"
                ],
                "actionId": 222,
                "OGFPAIKLDGB": 4030,
                "MHDCNDAINCK": true,
                "LHIAJOBFNAK": false,
                "GJGPNLJEIFP": true,
                "FOEKGLEJBIJ": ""
            },
            {
                "$type": "FNPNDPFBBDD",
                "type": "LOOK_AT",
                "delayTime": 3.4769999980926514,
                "aliasList": [
                    "1005"
                ],
                "actionId": 157,
                "NKGFDJDHOBD": true,
                "useTargetPos": true,
                "LBJHJADMNBD": true,
                "EKIONHAEIBG": {
                    "x": -1118.89697265625,
                    "y": 170.58900451660156,
                    "z": 3656.489013671875
                },
                "MNOPLOBEFLB": 0.30000001192092896,
                "JBODIEHINII": "",
                "CFPBIOLLOCO": "NONE",
                "LPCACGGCDLI": "",
                "NNFPFPOJJOJ": ""
            },
            {
                "$type": "CENEPJCONAG",
                "type": "BODY_LANG",
                "delayTime": 3.509000062942505,
                "aliasList": [
                    "1005"
                ],
                "actionId": 221,
                "NNKEOHJCPOF": true,
                "MHDCNDAINCK": true,
                "LHIAJOBFNAK": false,
                "GJGPNLJEIFP": true,
                "FOEKGLEJBIJ": ""
            },
            {
                "$type": "FNPNDPFBBDD",
                "type": "LOOK_AT",
                "delayTime": 3.865999937057495,
                "aliasList": [
                    "AvatarNpc"
                ],
                "actionId": 157,
                "NKGFDJDHOBD": true,
                "useTargetPos": true,
                "LBJHJADMNBD": true,
                "EKIONHAEIBG": {
                    "x": -1119.0579833984375,
                    "y": 170.7030029296875,
                    "z": 3656.489013671875
                },
                "MNOPLOBEFLB": 0.30000001192092896,
                "JBODIEHINII": "",
                "CFPBIOLLOCO": "NONE",
                "LPCACGGCDLI": "",
                "NNFPFPOJJOJ": ""
            }
        ],
        [
            {
                "$type": "PBIGHFCHGCA",
                "type": "CAMERA_MOVE",
                "duration": 1.0,
                "actionId": 230,
                "KCFKJMMEECM": {
                    "x": -1119.2230224609375,
                    "y": 168.8070068359375,
                    "z": 3653.764892578125
                },
                "DLGJEHNPMFN": {
                    "x": -1118.3060302734375,
                    "y": 168.9290008544922,
                    "z": 3654.14404296875
                },
                "NJCBGNHGINI": 25.0,
                "FNMFGIOLKBE": 6,
                "NECGMADJICG": "EaseInOutCubic",
                "BMHIHPIKAHM": {},
                "MMJMMAEAJOA": true,
                "HGGPLEMCNNG": false,
                "JBODIEHINII": "",
                "PHDIKPKLFIA": true,
                "EJCHLMIMLBO": "",
                "BIMPIKMCIHB": "",
                "MCAOJPLIJGI": ""
            },
            {
                "$type": "MoleMole.Config.ConfigTeleportToAction",
                "type": "TELEPORT_TO",
                "aliasList": [
                    "1005"
                ],
                "actionId": 239,
                "position": {
                    "x": -1119.85302734375,
                    "y": 168.03700256347656,
                    "z": 3652.60595703125
                },
                "forward": {
                    "x": 1.5889999866485596,
                    "y": 0.004999999888241291,
                    "z": 1.465000033378601
                },
                "openLongDisTeleport": true,
                "posBindMovingTargetKey": "",
                "forwardBindMovingTargetKey": ""
            },
            {
                "$type": "FNPNDPFBBDD",
                "type": "LOOK_AT",
                "aliasList": [
                    "1005"
                ],
                "actionId": 157,
                "NKGFDJDHOBD": true,
                "useTargetPos": true,
                "LBJHJADMNBD": true,
                "EKIONHAEIBG": {
                    "x": -1118.136962890625,
                    "y": 168.95700073242188,
                    "z": 3654.14892578125
                },
                "MNOPLOBEFLB": 0.4000000059604645,
                "JBODIEHINII": "",
                "CFPBIOLLOCO": "NONE",
                "LPCACGGCDLI": "",
                "NNFPFPOJJOJ": ""
            },
            {
                "$type": "CENEPJCONAG",
                "type": "BODY_LANG",
                "aliasList": [
                    "1005"
                ],
                "actionId": 262,
                "NNKEOHJCPOF": true,
                "MHDCNDAINCK": true,
                "LHIAJOBFNAK": false,
                "GJGPNLJEIFP": true,
                "FOEKGLEJBIJ": ""
            },
            {
                "$type": "KAGAFALAIGP",
                "type": "DIALOG",
                "aliasList": [
                    "20607"
                ],
                "JHEPJOMJJHH": 730151605,
                "OCILKFCPBNC": 0.5
            },
            {
                "$type": "MoleMole.Config.ConfigTeleportToAction",
                "type": "TELEPORT_TO",
                "aliasList": [
                    "AvatarNpc"
                ],
                "actionId": 241,
                "position": {
                    "x": -1120.468017578125,
                    "y": 168.02699279785156,
                    "z": 3652.904052734375
                },
                "forward": {
                    "x": 2.2230000495910645,
                    "z": 1.309000015258789
                },
                "openLongDisTeleport": true,
                "posBindMovingTargetKey": "",
                "forwardBindMovingTargetKey": ""
            },
            {
                "$type": "FNPNDPFBBDD",
                "type": "LOOK_AT",
                "aliasList": [
                    "AvatarNpc"
                ],
                "actionId": 157,
                "NKGFDJDHOBD": true,
                "useTargetPos": true,
                "LBJHJADMNBD": true,
                "EKIONHAEIBG": {
                    "x": -1118.136962890625,
                    "y": 168.95700073242188,
                    "z": 3654.14892578125
                },
                "MNOPLOBEFLB": 0.4000000059604645,
                "JBODIEHINII": "",
                "CFPBIOLLOCO": "NONE",
                "LPCACGGCDLI": "",
                "NNFPFPOJJOJ": ""
            },
            {
                "$type": "CENEPJCONAG",
                "type": "BODY_LANG",
                "aliasList": [
                    "AvatarNpc"
                ],
                "actionId": 245,
                "NNKEOHJCPOF": true,
                "MHDCNDAINCK": true,
                "LHIAJOBFNAK": false,
                "GJGPNLJEIFP": true,
                "FOEKGLEJBIJ": ""
            },
            {
                "$type": "CENEPJCONAG",
                "type": "BODY_LANG",
                "delayTime": 1.0299999713897705,
                "aliasList": [
                    "20607"
                ],
                "actionId": 235,
                "OGFPAIKLDGB": 4030,
                "MHDCNDAINCK": true,
                "LHIAJOBFNAK": false,
                "GJGPNLJEIFP": true,
                "FOEKGLEJBIJ": ""
            }
        ],
        [
            {
                "$type": "PBIGHFCHGCA",
                "type": "CAMERA_MOVE",
                "duration": 1.0,
                "actionId": 236,
                "KCFKJMMEECM": {
                    "x": -1117.0169677734375,
                    "y": 169.14199829101562,
                    "z": 3656.010009765625
                },
                "DLGJEHNPMFN": {
                    "x": -1117.593017578125,
                    "y": 169.10800170898438,
                    "z": 3655.193115234375
                },
                "NJCBGNHGINI": 25.0,
                "FNMFGIOLKBE": 6,
                "NECGMADJICG": "EaseInOutCubic",
                "BMHIHPIKAHM": {},
                "MMJMMAEAJOA": true,
                "HGGPLEMCNNG": false,
                "JBODIEHINII": "",
                "PHDIKPKLFIA": true,
                "EJCHLMIMLBO": "",
                "BIMPIKMCIHB": "",
                "MCAOJPLIJGI": ""
            },
            {
                "$type": "KAGAFALAIGP",
                "type": "DIALOG",
                "aliasList": [
                    "20607"
                ],
                "JHEPJOMJJHH": 730151606,
                "OCILKFCPBNC": 0.5
            },
            {
                "$type": "PBIGHFCHGCA",
                "type": "CAMERA_MOVE",
                "delayTime": 0.10000000149011612,
                "duration": 10.0,
                "actionId": 236,
                "KCFKJMMEECM": {
                    "x": -1117.1290283203125,
                    "y": 169.16799926757812,
                    "z": 3656.0869140625
                },
                "DLGJEHNPMFN": {
                    "x": -1117.699951171875,
                    "y": 169.13099670410156,
                    "z": 3655.26708984375
                },
                "NJCBGNHGINI": 25.0,
                "NECGMADJICG": "EaseOutQuad",
                "BMHIHPIKAHM": {},
                "MMJMMAEAJOA": true,
                "HGGPLEMCNNG": false,
                "JBODIEHINII": "",
                "PHDIKPKLFIA": true,
                "EJCHLMIMLBO": "",
                "BIMPIKMCIHB": "",
                "MCAOJPLIJGI": ""
            }
        ],
        [
            {
                "$type": "PBIGHFCHGCA",
                "type": "CAMERA_MOVE",
                "duration": 1.0,
                "actionId": 247,
                "KCFKJMMEECM": {
                    "x": -1122.8709716796875,
                    "y": 169.36300659179688,
                    "z": 3650.368896484375
                },
                "DLGJEHNPMFN": {
                    "x": -1123.2740478515625,
                    "y": 169.88699340820312,
                    "z": 3651.118896484375
                },
                "FNMFGIOLKBE": 6,
                "NECGMADJICG": "EaseInOutCubic",
                "BMHIHPIKAHM": {},
                "HGGPLEMCNNG": false,
                "JBODIEHINII": "",
                "PHDIKPKLFIA": true,
                "EJCHLMIMLBO": "",
                "BIMPIKMCIHB": "",
                "MCAOJPLIJGI": ""
            },
            {
                "$type": "KAGAFALAIGP",
                "type": "DIALOG",
                "aliasList": [
                    "20607"
                ],
                "JHEPJOMJJHH": 730151607,
                "OCILKFCPBNC": 0.5
            },
            {
                "$type": "PBIGHFCHGCA",
                "type": "CAMERA_MOVE",
                "delayTime": 0.10000000149011612,
                "duration": 12.0,
                "actionId": 247,
                "KCFKJMMEECM": {
                    "x": -1122.7969970703125,
                    "y": 169.5749969482422,
                    "z": 3650.260986328125
                },
                "DLGJEHNPMFN": {
                    "x": -1123.199951171875,
                    "y": 170.0989990234375,
                    "z": 3651.010986328125
                },
                "NECGMADJICG": "EaseOutQuad",
                "BMHIHPIKAHM": {},
                "HGGPLEMCNNG": false,
                "JBODIEHINII": "",
                "PHDIKPKLFIA": true,
                "EJCHLMIMLBO": "",
                "BIMPIKMCIHB": "",
                "MCAOJPLIJGI": ""
            }
        ],
        [
            {
                "$type": "PBIGHFCHGCA",
                "type": "CAMERA_MOVE",
                "duration": 1.0,
                "actionId": 249,
                "KCFKJMMEECM": {
                    "x": -1118.2989501953125,
                    "y": 169.13999938964844,
                    "z": 3653.889892578125
                },
                "DLGJEHNPMFN": {
                    "x": -1119.14501953125,
                    "y": 169.22300720214844,
                    "z": 3653.364013671875
                },
                "NJCBGNHGINI": 25.0,
                "FNMFGIOLKBE": 6,
                "NECGMADJICG": "EaseInOutCubic",
                "BMHIHPIKAHM": {},
                "MMJMMAEAJOA": true,
                "HGGPLEMCNNG": false,
                "JBODIEHINII": "",
                "PHDIKPKLFIA": true,
                "EJCHLMIMLBO": "",
                "BIMPIKMCIHB": "",
                "MCAOJPLIJGI": ""
            },
            {
                "$type": "KAGAFALAIGP",
                "type": "DIALOG",
                "aliasList": [
                    "1005"
                ],
                "JHEPJOMJJHH": 730151608,
                "OCILKFCPBNC": 0.5
            },
            {
                "$type": "CENEPJCONAG",
                "type": "BODY_LANG",
                "aliasList": [
                    "1005"
                ],
                "actionId": 251,
                "OGFPAIKLDGB": 1180,
                "MHDCNDAINCK": true,
                "LHIAJOBFNAK": false,
                "GJGPNLJEIFP": true,
                "FOEKGLEJBIJ": ""
            },
            {
                "$type": "LNLLGCOBDFC",
                "type": "EMO_SYNC",
                "aliasList": [
                    "1005"
                ],
                "actionId": 254,
                "LKHHGAGNMKM": "",
                "AIMKGPFAAAD": "Cs_Emo_Pet_Common/Cs_Emo_Paimon_Line01",
                "IPEKOEDCGGF": "Cs_Emo_Pet_Common/Cs_Emo_Paimon_Normal02",
                "EJNFMNJKDAH": "",
                "LOOOCOLIHFA": "",
                "KJDLMAPPPMG": "",
                "IMIEGJDNPNN": [
                    2368283007678680735,
                    2787779582621845965,
                    12044466278388347058,
                    1886771682776136198
                ],
                "KIJHIMADJGM": [
                    18069355584172837685,
                    15252089842078405392,
                    3912795416900241226,
                    13220211510885340510
                ]
            },
            {
                "$type": "PBIGHFCHGCA",
                "type": "CAMERA_MOVE",
                "delayTime": 0.10000000149011612,
                "duration": 10.0,
                "actionId": 249,
                "KCFKJMMEECM": {
                    "x": -1118.2139892578125,
                    "y": 169.0970001220703,
                    "z": 3653.737060546875
                },
                "DLGJEHNPMFN": {
                    "x": -1119.0899658203125,
                    "y": 169.18099975585938,
                    "z": 3653.261962890625
                },
                "NJCBGNHGINI": 25.0,
                "NECGMADJICG": "EaseOutQuad",
                "BMHIHPIKAHM": {},
                "MMJMMAEAJOA": true,
                "DNFHBDHNHKE": 359.7170104980469,
                "HGGPLEMCNNG": false,
                "JBODIEHINII": "",
                "PHDIKPKLFIA": true,
                "EJCHLMIMLBO": "",
                "BIMPIKMCIHB": "",
                "MCAOJPLIJGI": ""
            },
            {
                "$type": "CENEPJCONAG",
                "type": "BODY_LANG",
                "delayTime": 3.6610000133514404,
                "aliasList": [
                    "1005"
                ],
                "actionId": 252,
                "NNKEOHJCPOF": true,
                "MHDCNDAINCK": true,
                "LHIAJOBFNAK": false,
                "GJGPNLJEIFP": true,
                "FOEKGLEJBIJ": ""
            },
            {
                "$type": "LNLLGCOBDFC",
                "type": "EMO_SYNC",
                "delayTime": 3.6610000133514404,
                "aliasList": [
                    "1005"
                ],
                "actionId": 254,
                "LKHHGAGNMKM": "",
                "AIMKGPFAAAD": "Cs_Emo_Pet_Common/Cs_Emo_Paimon_Line01",
                "IPEKOEDCGGF": "Cs_Emo_Pet_Common/Cs_Emo_Paimon_Normal02_B",
                "EJNFMNJKDAH": "",
                "LOOOCOLIHFA": "",
                "KJDLMAPPPMG": "",
                "IMIEGJDNPNN": [
                    2368283007678680735,
                    2787779582621845965,
                    12044466278388347058,
                    1886771682776136198
                ],
                "KIJHIMADJGM": [
                    8193175980003048155,
                    1264945116173066023,
                    9863698042095554948,
                    6125281388361076342
                ]
            },
            {
                "$type": "CENEPJCONAG",
                "type": "BODY_LANG",
                "delayTime": 4.013999938964844,
                "aliasList": [
                    "1005"
                ],
                "actionId": 253,
                "OGFPAIKLDGB": 1130,
                "MHDCNDAINCK": true,
                "LHIAJOBFNAK": false,
                "GJGPNLJEIFP": true,
                "FOEKGLEJBIJ": ""
            }
        ],
        [
            {
                "$type": "PBIGHFCHGCA",
                "type": "CAMERA_MOVE",
                "duration": 1.0,
                "actionId": 164,
                "KCFKJMMEECM": {
                    "x": -1118.77001953125,
                    "y": 170.76499938964844,
                    "z": 3648.214111328125
                },
                "DLGJEHNPMFN": {
                    "x": -1118.876953125,
                    "y": 170.38400268554688,
                    "z": 3649.133056640625
                },
                "FNMFGIOLKBE": 6,
                "NECGMADJICG": "EaseInOutCubic",
                "BMHIHPIKAHM": {},
                "MMJMMAEAJOA": true,
                "HGGPLEMCNNG": false,
                "JBODIEHINII": "",
                "PHDIKPKLFIA": true,
                "EJCHLMIMLBO": "",
                "BIMPIKMCIHB": "",
                "MCAOJPLIJGI": ""
            },
            {
                "$type": "MoleMole.Config.ConfigTeleportToAction",
                "type": "TELEPORT_TO",
                "aliasList": [
                    "1005"
                ],
                "actionId": 256,
                "position": {
                    "x": -1119.52294921875,
                    "y": 168.04200744628906,
                    "z": 3652.916015625
                },
                "forward": {
                    "x": 1.4429999589920044,
                    "y": -0.004999999888241291,
                    "z": 1.2710000276565552
                },
                "openLongDisTeleport": true,
                "posBindMovingTargetKey": "",
                "forwardBindMovingTargetKey": ""
            },
            {
                "$type": "CENEPJCONAG",
                "type": "BODY_LANG",
                "aliasList": [
                    "1005"
                ],
                "actionId": 258,
                "NNKEOHJCPOF": true,
                "MHDCNDAINCK": true,
                "LHIAJOBFNAK": false,
                "GJGPNLJEIFP": true,
                "FOEKGLEJBIJ": ""
            },
            {
                "$type": "LNLLGCOBDFC",
                "type": "EMO_SYNC",
                "aliasList": [
                    "1005"
                ],
                "actionId": 282,
                "LKHHGAGNMKM": "",
                "AIMKGPFAAAD": "Cs_Emo_Pet_Common/Cs_Emo_Paimon_Line01",
                "IPEKOEDCGGF": "Cs_Emo_Pet_Common/Cs_Emo_Paimon_Normal01",
                "EJNFMNJKDAH": "",
                "LOOOCOLIHFA": "",
                "KJDLMAPPPMG": "",
                "IMIEGJDNPNN": [
                    2368283007678680735,
                    2787779582621845965,
                    12044466278388347058,
                    1886771682776136198
                ],
                "KIJHIMADJGM": [
                    312453201720762420,
                    9562322946389574798,
                    18422542724361145117,
                    17949024460815132449
                ]
            },
            {
                "$type": "KAGAFALAIGP",
                "type": "DIALOG",
                "aliasList": [
                    "20607"
                ],
                "JHEPJOMJJHH": 730151609,
                "OCILKFCPBNC": 0.5
            },
            {
                "$type": "MoleMole.Config.ConfigTeleportToAction",
                "type": "TELEPORT_TO",
                "aliasList": [
                    "AvatarNpc"
                ],
                "actionId": 255,
                "position": {
                    "x": -1120.052978515625,
                    "y": 168.0240020751953,
                    "z": 3653.14306640625
                },
                "forward": {
                    "x": 1.8580000400543213,
                    "y": 0.004000000189989805,
                    "z": 1.0520000457763672
                },
                "openLongDisTeleport": true,
                "posBindMovingTargetKey": "",
                "forwardBindMovingTargetKey": ""
            },
            {
                "$type": "PBIGHFCHGCA",
                "type": "CAMERA_MOVE",
                "delayTime": 0.10000000149011612,
                "duration": 10.0,
                "actionId": 164,
                "KCFKJMMEECM": {
                    "x": -1118.8189697265625,
                    "y": 170.6510009765625,
                    "z": 3648.162109375
                },
                "DLGJEHNPMFN": {
                    "x": -1118.925048828125,
                    "y": 170.27499389648438,
                    "z": 3649.0830078125
                },
                "NECGMADJICG": "EaseOutQuad",
                "BMHIHPIKAHM": {},
                "HGGPLEMCNNG": false,
                "JBODIEHINII": "",
                "PHDIKPKLFIA": true,
                "EJCHLMIMLBO": "",
                "BIMPIKMCIHB": "",
                "MCAOJPLIJGI": ""
            },
            {
                "$type": "CENEPJCONAG",
                "type": "BODY_LANG",
                "delayTime": 3.4070000648498535,
                "aliasList": [
                    "20607"
                ],
                "actionId": 259,
                "OGFPAIKLDGB": 4040,
                "MHDCNDAINCK": true,
                "LHIAJOBFNAK": false,
                "GJGPNLJEIFP": true,
                "FOEKGLEJBIJ": ""
            }
        ],
        [
            {
                "$type": "PBIGHFCHGCA",
                "type": "CAMERA_MOVE",
                "duration": 1.0,
                "actionId": 261,
                "KCFKJMMEECM": {
                    "x": -1118.458984375,
                    "y": 169.20799255371094,
                    "z": 3653.37890625
                },
                "DLGJEHNPMFN": {
                    "x": -1119.3929443359375,
                    "y": 169.31500244140625,
                    "z": 3653.037109375
                },
                "NJCBGNHGINI": 25.0,
                "FNMFGIOLKBE": 6,
                "NECGMADJICG": "EaseInOutCubic",
                "BMHIHPIKAHM": {},
                "MMJMMAEAJOA": true,
                "HGGPLEMCNNG": false,
                "JBODIEHINII": "",
                "PHDIKPKLFIA": true,
                "EJCHLMIMLBO": "",
                "BIMPIKMCIHB": "",
                "MCAOJPLIJGI": ""
            },
            {
                "$type": "KAGAFALAIGP",
                "type": "DIALOG",
                "aliasList": [
                    "1005"
                ],
                "JHEPJOMJJHH": 730151610,
                "OCILKFCPBNC": 0.5
            },
            {
                "$type": "CENEPJCONAG",
                "type": "BODY_LANG",
                "aliasList": [
                    "1005"
                ],
                "actionId": 264,
                "OGFPAIKLDGB": 1130,
                "MHDCNDAINCK": true,
                "LHIAJOBFNAK": false,
                "GJGPNLJEIFP": true,
                "FOEKGLEJBIJ": ""
            },
            {
                "$type": "LNLLGCOBDFC",
                "type": "EMO_SYNC",
                "aliasList": [
                    "1005"
                ],
                "actionId": 268,
                "LKHHGAGNMKM": "",
                "AIMKGPFAAAD": "Cs_Emo_Pet_Common/Cs_Emo_Paimon_Line01",
                "IPEKOEDCGGF": "Cs_Emo_Pet_Common/Cs_Emo_Paimon_Normal02",
                "EJNFMNJKDAH": "",
                "LOOOCOLIHFA": "",
                "KJDLMAPPPMG": "",
                "IMIEGJDNPNN": [
                    2368283007678680735,
                    2787779582621845965,
                    12044466278388347058,
                    1886771682776136198
                ],
                "KIJHIMADJGM": [
                    18069355584172837685,
                    15252089842078405392,
                    3912795416900241226,
                    13220211510885340510
                ]
            },
            {
                "$type": "CENEPJCONAG",
                "type": "BODY_LANG",
                "aliasList": [
                    "20607"
                ],
                "actionId": 265,
                "NNKEOHJCPOF": true,
                "MHDCNDAINCK": true,
                "LHIAJOBFNAK": false,
                "GJGPNLJEIFP": true,
                "FOEKGLEJBIJ": ""
            },
            {
                "$type": "LNLLGCOBDFC",
                "type": "EMO_SYNC",
                "aliasList": [
                    "AvatarNpc"
                ],
                "actionId": 284,
                "LKHHGAGNMKM": "",
                "AIMKGPFAAAD": "Cs_Emo_Avatar_Common/Cs_Emo_Avatar_Angry01",
                "IPEKOEDCGGF": "Cs_Emo_Avatar_Common/Cs_Emo_Avatar_Gentle01",
                "EJNFMNJKDAH": "",
                "LOOOCOLIHFA": "",
                "KJDLMAPPPMG": "",
                "IMIEGJDNPNN": [
                    14296606849723709100,
                    5508348580450379567,
                    7627497203169383327,
                    8979581647593659876
                ],
                "KIJHIMADJGM": [
                    16936364625734641526,
                    12723692093682084560,
                    7584763146597514602,
                    9115589832287442173
                ]
            },
            {
                "$type": "PBIGHFCHGCA",
                "type": "CAMERA_MOVE",
                "delayTime": 0.10000000149011612,
                "duration": 4.0,
                "actionId": 261,
                "KCFKJMMEECM": {
                    "x": -1118.488037109375,
                    "y": 169.1929931640625,
                    "z": 3653.447998046875
                },
                "DLGJEHNPMFN": {
                    "x": -1119.407958984375,
                    "y": 169.3090057373047,
                    "z": 3653.072998046875
                },
                "NJCBGNHGINI": 25.0,
                "NECGMADJICG": "EaseOutQuad",
                "BMHIHPIKAHM": {},
                "MMJMMAEAJOA": true,
                "HGGPLEMCNNG": false,
                "JBODIEHINII": "",
                "PHDIKPKLFIA": true,
                "EJCHLMIMLBO": "",
                "BIMPIKMCIHB": "",
                "MCAOJPLIJGI": ""
            }
        ],
        [
            {
                "$type": "PBIGHFCHGCA",
                "type": "CAMERA_MOVE",
                "duration": 1.0,
                "actionId": 267,
                "KCFKJMMEECM": {
                    "x": -1120.4739990234375,
                    "y": 169.4550018310547,
                    "z": 3650.85107421875
                },
                "DLGJEHNPMFN": {
                    "x": -1120.0369873046875,
                    "y": 169.3560028076172,
                    "z": 3651.7451171875
                },
                "NJCBGNHGINI": 25.0,
                "FNMFGIOLKBE": 6,
                "NECGMADJICG": "EaseInOutCubic",
                "BMHIHPIKAHM": {},
                "MMJMMAEAJOA": true,
                "HGGPLEMCNNG": false,
                "JBODIEHINII": "",
                "PHDIKPKLFIA": true,
                "EJCHLMIMLBO": "",
                "BIMPIKMCIHB": "",
                "MCAOJPLIJGI": ""
            },
            {
                "$type": "CENEPJCONAG",
                "type": "BODY_LANG",
                "aliasList": [
                    "1005"
                ],
                "actionId": 273,
                "NNKEOHJCPOF": true,
                "MHDCNDAINCK": true,
                "LHIAJOBFNAK": false,
                "GJGPNLJEIFP": true,
                "FOEKGLEJBIJ": ""
            },
            {
                "$type": "KAGAFALAIGP",
                "type": "DIALOG",
                "aliasList": [
                    "20607"
                ],
                "JHEPJOMJJHH": 730151611,
                "OCILKFCPBNC": 0.5
            },
            {
                "$type": "CENEPJCONAG",
                "type": "BODY_LANG",
                "aliasList": [
                    "20607"
                ],
                "actionId": 266,
                "NNKEOHJCPOF": true,
                "MHDCNDAINCK": true,
                "LHIAJOBFNAK": false,
                "GJGPNLJEIFP": true,
                "FOEKGLEJBIJ": ""
            },
            {
                "$type": "PBIGHFCHGCA",
                "type": "CAMERA_MOVE",
                "delayTime": 0.10000000149011612,
                "duration": 16.0,
                "actionId": 267,
                "KCFKJMMEECM": {
                    "x": -1120.4239501953125,
                    "y": 169.375,
                    "z": 3650.81591796875
                },
                "DLGJEHNPMFN": {
                    "x": -1119.9949951171875,
                    "y": 169.28799438476562,
                    "z": 3651.715087890625
                },
                "NJCBGNHGINI": 25.0,
                "NECGMADJICG": "EaseOutQuad",
                "BMHIHPIKAHM": {},
                "MMJMMAEAJOA": true,
                "HGGPLEMCNNG": false,
                "JBODIEHINII": "",
                "PHDIKPKLFIA": true,
                "EJCHLMIMLBO": "",
                "BIMPIKMCIHB": "",
                "MCAOJPLIJGI": ""
            },
            {
                "$type": "CENEPJCONAG",
                "type": "BODY_LANG",
                "delayTime": 1.8589999675750732,
                "aliasList": [
                    "20607"
                ],
                "actionId": 285,
                "OGFPAIKLDGB": 4030,
                "MHDCNDAINCK": true,
                "LHIAJOBFNAK": false,
                "GJGPNLJEIFP": true,
                "FOEKGLEJBIJ": ""
            }
        ],
        [
            {
                "$type": "KAGAFALAIGP",
                "type": "DIALOG",
                "aliasList": [
                    "20607"
                ],
                "JHEPJOMJJHH": 730151612,
                "OCILKFCPBNC": 0.5
            },
            {
                "$type": "CENEPJCONAG",
                "type": "BODY_LANG",
                "delayTime": 1.38100004196167,
                "aliasList": [
                    "20607"
                ],
                "actionId": 286,
                "OGFPAIKLDGB": 1080,
                "MHDCNDAINCK": true,
                "LHIAJOBFNAK": false,
                "GJGPNLJEIFP": true,
                "FOEKGLEJBIJ": ""
            }
        ],
        [
            {
                "$type": "PBIGHFCHGCA",
                "type": "CAMERA_MOVE",
                "duration": 1.0,
                "actionId": 271,
                "KCFKJMMEECM": {
                    "x": -1118.83203125,
                    "y": 168.9600067138672,
                    "z": 3653.1240234375
                },
                "DLGJEHNPMFN": {
                    "x": -1118.22998046875,
                    "y": 168.94400024414062,
                    "z": 3653.922119140625
                },
                "NJCBGNHGINI": 25.0,
                "FNMFGIOLKBE": 6,
                "NECGMADJICG": "EaseInOutCubic",
                "BMHIHPIKAHM": {},
                "MMJMMAEAJOA": true,
                "HGGPLEMCNNG": false,
                "JBODIEHINII": "",
                "PHDIKPKLFIA": true,
                "EJCHLMIMLBO": "",
                "BIMPIKMCIHB": "",
                "MCAOJPLIJGI": ""
            },
            {
                "$type": "MoleMole.Config.ConfigTeleportToAction",
                "type": "TELEPORT_TO",
                "aliasList": [
                    "1005"
                ],
                "actionId": 272,
                "position": {
                    "x": -1119.6689453125,
                    "y": 168.04200744628906,
                    "z": 3652.64990234375
                },
                "forward": {
                    "x": 0.8970000147819519,
                    "z": 0.9269999861717224
                },
                "openLongDisTeleport": true,
                "posBindMovingTargetKey": "",
                "forwardBindMovingTargetKey": ""
            },
            {
                "$type": "KAGAFALAIGP",
                "type": "DIALOG",
                "aliasList": [
                    "20607"
                ],
                "JHEPJOMJJHH": 730151613,
                "OCILKFCPBNC": 0.5
            },
            {
                "$type": "CENEPJCONAG",
                "type": "BODY_LANG",
                "aliasList": [
                    "20607"
                ],
                "actionId": 287,
                "NNKEOHJCPOF": true,
                "MHDCNDAINCK": true,
                "LHIAJOBFNAK": false,
                "GJGPNLJEIFP": true,
                "FOEKGLEJBIJ": ""
            },
            {
                "$type": "PBIGHFCHGCA",
                "type": "CAMERA_MOVE",
                "delayTime": 0.10000000149011612,
                "duration": 8.0,
                "actionId": 271,
                "KCFKJMMEECM": {
                    "x": -1118.760986328125,
                    "y": 168.83999633789062,
                    "z": 3653.0869140625
                },
                "DLGJEHNPMFN": {
                    "x": -1118.2060546875,
                    "y": 168.90899658203125,
                    "z": 3653.916015625
                },
                "NJCBGNHGINI": 25.0,
                "NECGMADJICG": "EaseOutQuad",
                "BMHIHPIKAHM": {},
                "MMJMMAEAJOA": true,
                "DNFHBDHNHKE": 359.947998046875,
                "HGGPLEMCNNG": false,
                "JBODIEHINII": "",
                "PHDIKPKLFIA": true,
                "EJCHLMIMLBO": "",
                "BIMPIKMCIHB": "",
                "MCAOJPLIJGI": ""
            },
            {
                "$type": "AAFOOOPNJLB",
                "type": "DIALOG_SELECT",
                "delayTime": 0.4000000059604645,
                "aliasList": [
                    "Avatar"
                ],
                "KFAEOBDAAME": [
                    730151614,
                    730151616
                ],
                "ELPFMMBHOLF": [
                    3391510637,
                    3391510638
                ],
                "OEAAKJDIEFD": true
            }
        ],
        [
            {
                "$type": "MoleMole.Config.ConfigLuaAction",
                "type": "LUA_ACTION",
                "duration": 0.10000000149011612,
                "invoke": true,
                "invokeAlias": "73015",
                "invokeParam": 1
            },
            {
                "$type": "KAGAFALAIGP",
                "type": "DIALOG",
                "aliasList": [
                    "20607"
                ],
                "JHEPJOMJJHH": 730151615,
                "OCILKFCPBNC": 0.5
            },
            {
                "$type": "CENEPJCONAG",
                "type": "BODY_LANG",
                "aliasList": [
                    "20607"
                ],
                "actionId": 278,
                "OGFPAIKLDGB": 4030,
                "MHDCNDAINCK": true,
                "LHIAJOBFNAK": false,
                "GJGPNLJEIFP": true,
                "FOEKGLEJBIJ": ""
            }
        ],
        [
            {
                "$type": "MoleMole.Config.ConfigLuaAction",
                "type": "LUA_ACTION",
                "duration": 0.10000000149011612,
                "invoke": true,
                "invokeAlias": "73015",
                "invokeParam": 2
            },
            {
                "$type": "PBIGHFCHGCA",
                "type": "CAMERA_MOVE",
                "duration": 1.0,
                "actionId": 274,
                "KCFKJMMEECM": {
                    "x": -1107.9110107421875,
                    "y": 174.2689971923828,
                    "z": 3651.672119140625
                },
                "DLGJEHNPMFN": {
                    "x": -1108.7979736328125,
                    "y": 173.822998046875,
                    "z": 3651.787109375
                },
                "NJCBGNHGINI": 25.0,
                "FNMFGIOLKBE": 6,
                "NECGMADJICG": "EaseInOutCubic",
                "BMHIHPIKAHM": {},
                "MMJMMAEAJOA": true,
                "HGGPLEMCNNG": false,
                "JBODIEHINII": "",
                "PHDIKPKLFIA": true,
                "EJCHLMIMLBO": "",
                "BIMPIKMCIHB": "",
                "MCAOJPLIJGI": ""
            },
            {
                "$type": "KAGAFALAIGP",
                "type": "DIALOG",
                "aliasList": [
                    "20607"
                ],
                "JHEPJOMJJHH": 730151617,
                "OCILKFCPBNC": 0.5
            },
            {
                "$type": "CENEPJCONAG",
                "type": "BODY_LANG",
                "aliasList": [
                    "20607"
                ],
                "actionId": 290,
                "NNKEOHJCPOF": true,
                "MHDCNDAINCK": true,
                "LHIAJOBFNAK": false,
                "GJGPNLJEIFP": true,
                "FOEKGLEJBIJ": ""
            },
            {
                "$type": "PBIGHFCHGCA",
                "type": "CAMERA_MOVE",
                "delayTime": 0.10000000149011612,
                "duration": 10.0,
                "actionId": 274,
                "KCFKJMMEECM": {
                    "x": -1107.31494140625,
                    "y": 174.57000732421875,
                    "z": 3651.594970703125
                },
                "DLGJEHNPMFN": {
                    "x": -1108.2030029296875,
                    "y": 174.12399291992188,
                    "z": 3651.7099609375
                },
                "NJCBGNHGINI": 25.0,
                "NECGMADJICG": "EaseOutQuad",
                "BMHIHPIKAHM": {},
                "MMJMMAEAJOA": true,
                "HGGPLEMCNNG": false,
                "JBODIEHINII": "",
                "PHDIKPKLFIA": true,
                "EJCHLMIMLBO": "",
                "BIMPIKMCIHB": "",
                "MCAOJPLIJGI": ""
            },
            {
                "$type": "CENEPJCONAG",
                "type": "BODY_LANG",
                "delayTime": 3.6459999084472656,
                "aliasList": [
                    "20607"
                ],
                "actionId": 291,
                "OGFPAIKLDGB": 4040,
                "MHDCNDAINCK": true,
                "LHIAJOBFNAK": false,
                "GJGPNLJEIFP": true,
                "FOEKGLEJBIJ": ""
            }
        ],
        [
            {
                "$type": "MoleMole.Config.ConfigSimpleBlackScreenAction",
                "type": "SIMPLE_BLACK_SCREEN",
                "durationToBlack": 0.5,
                "durationKeepBlack": 3.0,
                "durationFromBlack": 0.5,
                "textMapID": ""
            },
            {
                "$type": "MoleMole.Config.ConfigTimeProtectAction",
                "type": "TIME_PROTECT",
                "duration": 3.0
            },
            {
                "$type": "PBIGHFCHGCA",
                "type": "CAMERA_MOVE",
                "delayTime": 0.6000000238418579,
                "duration": 0.10000000149011612,
                "actionId": 280,
                "KCFKJMMEECM": {
                    "x": -1122.22900390625,
                    "y": 169.88600158691406,
                    "z": 3651.781005859375
                },
                "DLGJEHNPMFN": {
                    "x": -1121.449951171875,
                    "y": 169.55299377441406,
                    "z": 3652.31201171875
                },
                "FNMFGIOLKBE": 6,
                "NECGMADJICG": "EaseInOutCubic",
                "BMHIHPIKAHM": {},
                "MMJMMAEAJOA": true,
                "HGGPLEMCNNG": false,
                "JBODIEHINII": "",
                "PHDIKPKLFIA": true,
                "EJCHLMIMLBO": "",
                "BIMPIKMCIHB": "",
                "MCAOJPLIJGI": ""
            },
            {
                "$type": "MoleMole.Config.ConfigPlayEffectAction",
                "type": "PLAY_EFFECT",
                "delayTime": 0.6000000238418579,
                "actionId": 320,
                "effectIndex": "1",
                "patternName": "Eff_ScenObj_VarunaStone_BigFlare_Active",
                "pos": {
                    "x": -1118.8699951171875,
                    "y": 168.85000610351562,
                    "z": 3657.06005859375
                },
                "euler": {
                    "y": -156.3489990234375
                },
                "scale": {
                    "x": 1.0,
                    "y": 1.0,
                    "z": 1.0
                },
                "isLoop": true,
                "isRemove": true,
                "otherTargetNpcAlias": ""
            },
            {
                "$type": "MoleMole.Config.ConfigVisibleInterAction",
                "type": "VISIBLE",
                "delayTime": 0.6000000238418579,
                "aliasList": [
                    "Avatar"
                ],
                "actionId": 312,
                "isVisible": true,
                "extraParam": ""
            },
            {
                "$type": "MoleMole.Config.ConfigVisibleInterAction",
                "type": "VISIBLE",
                "delayTime": 0.6000000238418579,
                "aliasList": [
                    "20607"
                ],
                "actionId": 281,
                "extraParam": ""
            },
            {
                "$type": "MoleMole.Config.ConfigVisibleInterAction",
                "type": "VISIBLE",
                "delayTime": 0.6000000238418579,
                "aliasList": [
                    "AvatarNpc"
                ],
                "actionId": 311,
                "extraParam": ""
            }
        ]
    ],
    "groupId": [
        {
            "grpId": 3157444874,
            "nextGrpId": 3157444875
        },
        {
            "index": 1,
            "grpId": 3157444875,
            "nextGrpId": 3157444876
        },
        {
            "index": 2,
            "grpId": 3157444876,
            "nextGrpId": 3157444877
        },
        {
            "index": 3,
            "grpId": 3157444877,
            "nextGrpId": 3157444878
        },
        {
            "index": 4,
            "grpId": 3157444878,
            "nextGrpId": 3157444879
        },
        {
            "index": 5,
            "grpId": 3157444879,
            "nextGrpId": 3157444880
        },
        {
            "index": 6,
            "grpId": 3157444880,
            "nextGrpId": 3157444881
        },
        {
            "index": 7,
            "grpId": 3157444881,
            "nextGrpId": 3157444882
        },
        {
            "index": 8,
            "grpId": 3157444882,
            "nextGrpId": 3391510630
        },
        {
            "index": 9,
            "grpId": 3391510630,
            "nextGrpId": 3391510631
        },
        {
            "index": 10,
            "grpId": 3391510631,
            "nextGrpId": 3391510632
        },
        {
            "index": 11,
            "grpId": 3391510632,
            "nextGrpId": 3391510633
        },
        {
            "index": 12,
            "grpId": 3391510633,
            "nextGrpId": 3391510634
        },
        {
            "index": 13,
            "grpId": 3391510634,
            "nextGrpId": 3391510635
        },
        {
            "index": 14,
            "grpId": 3391510635,
            "nextGrpId": 3391510636
        },
        {
            "index": 15,
            "grpId": 3391510636,
            "nextGrpId": 3391510637
        },
        {
            "index": 16,
            "grpId": 3391510637,
            "nextGrpId": 3391510638
        },
        {
            "index": 17,
            "grpId": 3391510638,
            "nextGrpId": 3391510639
        },
        {
            "index": 18,
            "grpId": 3391510639,
            "nextGrpId": 3391510661
        }
    ],
    "freeStyleDic": {
        "20607": [
            4030,
            1080,
            1050,
            4040
        ],
        "1025": [
            4030
        ],
        "1026": [
            4030
        ]
    }
}