{
    "luaDataPath": "",
    "startBlackKeepTime": 0.5,
    "entityBan": "",
    "disableNpcLod": true,
    "BHNKJKDADLC": true,
    "JJFIGGKCCCF": true,
    "EKDGNGHMECG": true,
    "startFade": {
        "startFadeInDuration": 0.5,
        "startFadeOutDuration": 0.5
    },
    "endFade": {
        "startFadeOutDuration": 0.0
    },
    "actors": [
        {
            "alias": "Avatar",
            "visible": true,
            "bornPointName": "Q801210_N10000005",
            "relativePosType": "AVATAR_NEW",
            "relativePosNpcAlias": "",
            "bindMovingTargetKey": ""
        },
        {
            "alias": "AvatarNpc",
            "visible": true,
            "bornPointName": "Q801210_N10000005",
            "removeActorType": "NEW_REMOVE",
            "relativePosType": "AVATAR_NEW",
            "relativePosNpcAlias": "",
            "bindMovingTargetKey": ""
        },
        {
            "configID": 13171,
            "alias": "13171",
            "visible": true,
            "bornPointName": "Q801210_N13076",
            "relativePosType": "AVATAR_NEW",
            "relativePosNpcAlias": "",
            "bindMovingTargetKey": ""
        },
        {
            "configID": 13072,
            "alias": "13072",
            "visible": true,
            "bornPointName": "Q801210_N13072",
            "removeActorType": "NEW_REMOVE",
            "relativePosType": "AVATAR_NEW",
            "relativePosNpcAlias": "",
            "bindMovingTargetKey": ""
        }
    ],
    "group": [
        [
            {
                "$type": "MoleMole.Config.ConfigTimeProtectAction",
                "type": "TIME_PROTECT",
                "duration": 1.0,
                "actionId": 104
            },
            {
                "$type": "MoleMole.Config.ConfigBlackScreenAction",
                "type": "BLACK_SCREEN",
                "duration": 1.0,
                "actionId": 133,
                "blackScreenType": "KEEP_BLACK",
                "durationToBlack": 0.5,
                "durationKeepBlack": 1.0,
                "durationFromBlack": 0.5,
                "inteePos": "",
                "textMapID": "",
                "useTextFade": true
            },
            {
                "$type": "PBIGHFCHGCA",
                "type": "CAMERA_MOVE",
                "duration": 0.5,
                "actionId": 158,
                "KCFKJMMEECM": {
                    "x": -504.6650085449219,
                    "y": 213.43800354003906,
                    "z": 2387.134033203125
                },
                "DLGJEHNPMFN": {
                    "x": -503.760986328125,
                    "y": 213.53199768066406,
                    "z": 2387.550048828125
                },
                "NJCBGNHGINI": 20.0,
                "FNMFGIOLKBE": 6,
                "NECGMADJICG": "EaseInOutCubic",
                "BMHIHPIKAHM": {},
                "MMJMMAEAJOA": true,
                "HGGPLEMCNNG": false,
                "JBODIEHINII": "",
                "PHDIKPKLFIA": true,
                "EJCHLMIMLBO": "",
                "BIMPIKMCIHB": "",
                "MCAOJPLIJGI": ""
            },
            {
                "$type": "MoleMole.Config.ConfigVisibleInterAction",
                "type": "VISIBLE",
                "aliasList": [
                    "Avatar"
                ],
                "actionId": 141,
                "extraParam": ""
            },
            {
                "$type": "MoleMole.Config.ConfigTeleportToAction",
                "type": "TELEPORT_TO",
                "aliasList": [
                    "Avatar"
                ],
                "actionId": 372,
                "position": {
                    "x": -510.8900146484375,
                    "y": 214.57000732421875,
                    "z": 2376.679931640625
                },
                "forward": {
                    "x": 0.6110000014305115,
                    "z": 0.7910000085830688
                },
                "openLongDisTeleport": true,
                "posBindMovingTargetKey": "",
                "forwardBindMovingTargetKey": ""
            },
            {
                "$type": "MoleMole.Config.ConfigPlayerNPCEnergyTypeAction",
                "type": "SET_PLAYER_NPC_ENERGY_TYPE",
                "aliasList": [
                    "AvatarNpc"
                ],
                "actionId": 139,
                "setHeroEngergyType": true
            },
            {
                "$type": "MoleMole.Config.ConfigTeleportToAction",
                "type": "TELEPORT_TO",
                "aliasList": [
                    "AvatarNpc"
                ],
                "actionId": 150,
                "position": {
                    "x": -510.8900146484375,
                    "y": 214.57000732421875,
                    "z": 2376.679931640625
                },
                "forward": {
                    "x": 0.6110000014305115,
                    "z": 0.7910000085830688
                },
                "openLongDisTeleport": true,
                "posBindMovingTargetKey": "",
                "forwardBindMovingTargetKey": ""
            },
            {
                "$type": "MoleMole.Config.ConfigTeleportToAction",
                "type": "TELEPORT_TO",
                "aliasList": [
                    "13171"
                ],
                "actionId": 227,
                "position": {
                    "x": -501.02099609375,
                    "y": 212.8070068359375,
                    "z": 2388.27294921875
                },
                "forward": {
                    "x": 0.4410000145435333,
                    "z": 0.8970000147819519
                },
                "openLongDisTeleport": true,
                "posBindMovingTargetKey": "",
                "forwardBindMovingTargetKey": ""
            },
            {
                "$type": "MoleMole.Config.ConfigTeleportToAction",
                "type": "TELEPORT_TO",
                "aliasList": [
                    "13072"
                ],
                "actionId": 152,
                "position": {
                    "x": -511.3999938964844,
                    "y": 214.44500732421875,
                    "z": 2377.760009765625
                },
                "forward": {
                    "x": 1.5440000295639038,
                    "z": 2.0280001163482666
                },
                "openLongDisTeleport": true,
                "posBindMovingTargetKey": "",
                "forwardBindMovingTargetKey": ""
            }
        ],
        [
            {
                "$type": "MoleMole.Config.ConfigBlackScreenAction",
                "type": "BLACK_SCREEN",
                "duration": 0.5,
                "actionId": 134,
                "blackScreenType": "FROM_BLACK",
                "durationToBlack": 0.5,
                "durationKeepBlack": 0.5,
                "durationFromBlack": 0.5,
                "inteePos": "",
                "textMapID": "",
                "useTextFade": true
            },
            {
                "$type": "PBIGHFCHGCA",
                "type": "CAMERA_MOVE",
                "duration": 0.5,
                "actionId": 154,
                "KCFKJMMEECM": {
                    "x": -504.6650085449219,
                    "y": 213.43800354003906,
                    "z": 2387.134033203125
                },
                "DLGJEHNPMFN": {
                    "x": -503.760986328125,
                    "y": 213.53199768066406,
                    "z": 2387.550048828125
                },
                "NJCBGNHGINI": 20.0,
                "FNMFGIOLKBE": 6,
                "NECGMADJICG": "EaseInOutCubic",
                "BMHIHPIKAHM": {},
                "MMJMMAEAJOA": true,
                "HGGPLEMCNNG": false,
                "JBODIEHINII": "",
                "PHDIKPKLFIA": true,
                "EJCHLMIMLBO": "",
                "BIMPIKMCIHB": "",
                "MCAOJPLIJGI": ""
            },
            {
                "$type": "KAGAFALAIGP",
                "type": "DIALOG",
                "aliasList": [
                    "13171"
                ],
                "actionId": 107,
                "JHEPJOMJJHH": 80120601,
                "OCILKFCPBNC": 0.5
            },
            {
                "$type": "PBIGHFCHGCA",
                "type": "CAMERA_MOVE",
                "delayTime": 0.10000000149011612,
                "duration": 4.835000038146973,
                "actionId": 159,
                "KCFKJMMEECM": {
                    "x": -504.6109924316406,
                    "y": 213.44000244140625,
                    "z": 2387.014892578125
                },
                "DLGJEHNPMFN": {
                    "x": -503.7070007324219,
                    "y": 213.53399658203125,
                    "z": 2387.430908203125
                },
                "NJCBGNHGINI": 20.0,
                "NECGMADJICG": "EaseOutQuad",
                "BMHIHPIKAHM": {},
                "MMJMMAEAJOA": true,
                "HGGPLEMCNNG": false,
                "JBODIEHINII": "",
                "PHDIKPKLFIA": true,
                "EJCHLMIMLBO": "",
                "BIMPIKMCIHB": "",
                "MCAOJPLIJGI": ""
            }
        ],
        [
            {
                "$type": "PBIGHFCHGCA",
                "type": "CAMERA_MOVE",
                "duration": 0.5,
                "actionId": 160,
                "KCFKJMMEECM": {
                    "x": -515.1950073242188,
                    "y": 214.59500122070312,
                    "z": 2382.054931640625
                },
                "DLGJEHNPMFN": {
                    "x": -514.2689819335938,
                    "y": 214.57200622558594,
                    "z": 2382.431884765625
                },
                "NJCBGNHGINI": 20.0,
                "FNMFGIOLKBE": 6,
                "NECGMADJICG": "EaseInOutCubic",
                "BMHIHPIKAHM": {},
                "MMJMMAEAJOA": true,
                "HGGPLEMCNNG": false,
                "JBODIEHINII": "",
                "PHDIKPKLFIA": true,
                "EJCHLMIMLBO": "",
                "BIMPIKMCIHB": "",
                "MCAOJPLIJGI": ""
            },
            {
                "$type": "MoleMole.Config.ConfigCameraDOFAction",
                "type": "CAMERA_DOF",
                "actionId": 364,
                "enabled": true,
                "focusDistance": 102.72000122070312,
                "focusRange": 51.8849983215332,
                "nearFocalDistance": 7.860000133514404,
                "nearFocalTransDistance": 8.293000221252441,
                "dofBlurAmount": 1.5,
                "quality": 3
            },
            {
                "$type": "FNPNDPFBBDD",
                "type": "LOOK_AT",
                "aliasList": [
                    "AvatarNpc"
                ],
                "actionId": 192,
                "NKGFDJDHOBD": true,
                "useTargetPos": true,
                "LBJHJADMNBD": true,
                "EKIONHAEIBG": {
                    "x": -501.2959899902344,
                    "y": 213.88400268554688,
                    "z": 2389.31005859375
                },
                "MNOPLOBEFLB": 0.5,
                "JBODIEHINII": "",
                "CFPBIOLLOCO": "NONE",
                "MDNPCOHCCLM": true,
                "LPCACGGCDLI": "",
                "NNFPFPOJJOJ": ""
            },
            {
                "$type": "MoleMole.Config.ConfigTeleportToAction",
                "type": "TELEPORT_TO",
                "aliasList": [
                    "13171"
                ],
                "actionId": 238,
                "position": {
                    "x": -502.01300048828125,
                    "y": 212.69700622558594,
                    "z": 2388.93408203125
                },
                "forward": {
                    "x": 0.4410000145435333,
                    "z": 0.8970000147819519
                },
                "openLongDisTeleport": true,
                "posBindMovingTargetKey": "",
                "forwardBindMovingTargetKey": ""
            },
            {
                "$type": "KAGAFALAIGP",
                "type": "DIALOG",
                "aliasList": [
                    "13072"
                ],
                "actionId": 109,
                "JHEPJOMJJHH": 80120602,
                "OCILKFCPBNC": 2.0
            },
            {
                "$type": "LNLLGCOBDFC",
                "type": "EMO_SYNC",
                "aliasList": [
                    "13072"
                ],
                "actionId": 143,
                "LKHHGAGNMKM": "Cs_Emo_Avatar_Simple_Common_Set/Cs_Emo_Avatar_Talk/Cs_Emo_Avatar_MainLine/Cs_Emo_Avatar_Twins03/Cs_Emo_80120602",
                "AIMKGPFAAAD": "",
                "IPEKOEDCGGF": "",
                "EJNFMNJKDAH": "",
                "LOOOCOLIHFA": "",
                "KJDLMAPPPMG": "",
                "EKJHPKFBONG": [
                    8268156668657841523,
                    17219166785194289142,
                    5912102297125083752,
                    7222001589961807738
                ]
            },
            {
                "$type": "MoleMole.Config.ConfigMoveToAction",
                "type": "MOVE_TO",
                "aliasList": [
                    "13072"
                ],
                "actionId": 190,
                "moveType": "RUN",
                "routeList": [
                    {
                        "x": -505.9100036621094,
                        "y": 213.53799438476562,
                        "z": 2385.294921875
                    }
                ],
                "exactlyMove": true,
                "closeNavMesh": true,
                "openSetPos": true
            },
            {
                "$type": "FNPNDPFBBDD",
                "type": "LOOK_AT",
                "aliasList": [
                    "13072"
                ],
                "actionId": 191,
                "NKGFDJDHOBD": true,
                "useTargetPos": true,
                "LBJHJADMNBD": true,
                "EKIONHAEIBG": {
                    "x": -501.2959899902344,
                    "y": 213.88400268554688,
                    "z": 2389.31005859375
                },
                "MNOPLOBEFLB": 0.5,
                "JBODIEHINII": "",
                "CFPBIOLLOCO": "NONE",
                "MDNPCOHCCLM": true,
                "LPCACGGCDLI": "",
                "NNFPFPOJJOJ": ""
            },
            {
                "$type": "PBIGHFCHGCA",
                "type": "CAMERA_MOVE",
                "delayTime": 0.10000000149011612,
                "duration": 7.413000106811523,
                "actionId": 161,
                "KCFKJMMEECM": {
                    "x": -514.7269897460938,
                    "y": 214.58299255371094,
                    "z": 2382.24609375
                },
                "DLGJEHNPMFN": {
                    "x": -513.801025390625,
                    "y": 214.55999755859375,
                    "z": 2382.623046875
                },
                "NJCBGNHGINI": 20.0,
                "NECGMADJICG": "EaseOutQuad",
                "BMHIHPIKAHM": {},
                "MMJMMAEAJOA": true,
                "HGGPLEMCNNG": false,
                "JBODIEHINII": "",
                "PHDIKPKLFIA": true,
                "EJCHLMIMLBO": "",
                "BIMPIKMCIHB": "",
                "MCAOJPLIJGI": ""
            },
            {
                "$type": "MoleMole.Config.ConfigMoveToAction",
                "type": "MOVE_TO",
                "delayTime": 0.20000000298023224,
                "aliasList": [
                    "Avatar"
                ],
                "actionId": 373,
                "moveType": "RUN",
                "routeList": [
                    {
                        "x": -505.31201171875,
                        "y": 213.77099609375,
                        "z": 2384.27294921875
                    }
                ],
                "exactlyMove": true,
                "closeNavMesh": true,
                "closeAvatarNavMesh": true,
                "openSetPos": true
            },
            {
                "$type": "MoleMole.Config.ConfigMoveToAction",
                "type": "MOVE_TO",
                "delayTime": 0.20000000298023224,
                "aliasList": [
                    "AvatarNpc"
                ],
                "actionId": 189,
                "moveType": "RUN",
                "routeList": [
                    {
                        "x": -505.31201171875,
                        "y": 213.77099609375,
                        "z": 2384.27294921875
                    }
                ],
                "exactlyMove": true,
                "closeNavMesh": true,
                "openSetPos": true
            },
            {
                "$type": "AAFOOOPNJLB",
                "type": "DIALOG_SELECT",
                "delayTime": 2.0,
                "aliasList": [
                    "AvatarNpc"
                ],
                "actionId": 136,
                "KFAEOBDAAME": [
                    80120603
                ],
                "ELPFMMBHOLF": [
                    249879759
                ],
                "OEAAKJDIEFD": true,
                "ONFBGDHPCEO": 249879755
            }
        ],
        [
            {
                "$type": "PBIGHFCHGCA",
                "type": "CAMERA_MOVE",
                "duration": 0.5,
                "actionId": 157,
                "KCFKJMMEECM": {
                    "x": -501.0830078125,
                    "y": 213.90899658203125,
                    "z": 2390.616943359375
                },
                "DLGJEHNPMFN": {
                    "x": -501.57501220703125,
                    "y": 213.9040069580078,
                    "z": 2389.74609375
                },
                "NJCBGNHGINI": 35.0,
                "FNMFGIOLKBE": 6,
                "NECGMADJICG": "EaseInOutCubic",
                "BMHIHPIKAHM": {},
                "MMJMMAEAJOA": true,
                "HGGPLEMCNNG": false,
                "JBODIEHINII": "",
                "PHDIKPKLFIA": true,
                "EJCHLMIMLBO": "",
                "BIMPIKMCIHB": "",
                "MCAOJPLIJGI": ""
            },
            {
                "$type": "MoleMole.Config.ConfigCameraDOFAction",
                "type": "CAMERA_DOF",
                "actionId": 246,
                "enabled": true,
                "focusDistance": 116.96499633789062,
                "focusRange": 41.00899887084961,
                "nearFocalDistance": 4.111000061035156,
                "nearFocalTransDistance": 3.052000045776367,
                "dofBlurAmount": 2.0,
                "quality": 3
            },
            {
                "$type": "MoleMole.Config.ConfigTeleportToAction",
                "type": "TELEPORT_TO",
                "aliasList": [
                    "Avatar"
                ],
                "actionId": 374,
                "position": {
                    "x": -505.31201171875,
                    "y": 213.77099609375,
                    "z": 2384.27294921875
                },
                "forward": {
                    "x": 0.5920000076293945,
                    "z": 0.8059999942779541
                },
                "openLongDisTeleport": true,
                "posBindMovingTargetKey": "",
                "forwardBindMovingTargetKey": ""
            },
            {
                "$type": "MoleMole.Config.ConfigTeleportToAction",
                "type": "TELEPORT_TO",
                "aliasList": [
                    "AvatarNpc"
                ],
                "actionId": 195,
                "position": {
                    "x": -505.31201171875,
                    "y": 213.77099609375,
                    "z": 2384.27294921875
                },
                "forward": {
                    "x": 0.5920000076293945,
                    "z": 0.8059999942779541
                },
                "openLongDisTeleport": true,
                "posBindMovingTargetKey": "",
                "forwardBindMovingTargetKey": ""
            },
            {
                "$type": "MoleMole.Config.ConfigTeleportToAction",
                "type": "TELEPORT_TO",
                "aliasList": [
                    "13171"
                ],
                "actionId": 193,
                "position": {
                    "x": -501.6730041503906,
                    "y": 212.73199462890625,
                    "z": 2388.85302734375
                },
                "forward": {
                    "x": 0.48899999260902405,
                    "z": 0.9940000176429749
                },
                "openLongDisTeleport": true,
                "posBindMovingTargetKey": "",
                "forwardBindMovingTargetKey": ""
            },
            {
                "$type": "KAGAFALAIGP",
                "type": "DIALOG",
                "aliasList": [
                    "13072"
                ],
                "actionId": 112,
                "JHEPJOMJJHH": 80120604,
                "OCILKFCPBNC": 0.5
            },
            {
                "$type": "LNLLGCOBDFC",
                "type": "EMO_SYNC",
                "aliasList": [
                    "13072"
                ],
                "actionId": 144,
                "LKHHGAGNMKM": "Cs_Emo_Avatar_Simple_Common_Set/Cs_Emo_Avatar_Talk/Cs_Emo_Avatar_MainLine/Cs_Emo_Avatar_Twins03/Cs_Emo_80120604",
                "AIMKGPFAAAD": "",
                "IPEKOEDCGGF": "",
                "EJNFMNJKDAH": "",
                "LOOOCOLIHFA": "",
                "KJDLMAPPPMG": "",
                "EKJHPKFBONG": [
                    18443318638897770960,
                    1042768311066996154,
                    15114078907535980156,
                    18196570580134330562
                ]
            },
            {
                "$type": "MoleMole.Config.ConfigTeleportToAction",
                "type": "TELEPORT_TO",
                "aliasList": [
                    "13072"
                ],
                "actionId": 194,
                "position": {
                    "x": -505.9100036621094,
                    "y": 213.53799438476562,
                    "z": 2385.294921875
                },
                "forward": {
                    "x": 0.5889999866485596,
                    "z": 0.8080000281333923
                },
                "openLongDisTeleport": true,
                "posBindMovingTargetKey": "",
                "forwardBindMovingTargetKey": ""
            },
            {
                "$type": "PBIGHFCHGCA",
                "type": "CAMERA_MOVE",
                "delayTime": 0.10000000149011612,
                "duration": 12.800999641418457,
                "actionId": 164,
                "KCFKJMMEECM": {
                    "x": -501.1929931640625,
                    "y": 213.89999389648438,
                    "z": 2390.679931640625
                },
                "DLGJEHNPMFN": {
                    "x": -501.68499755859375,
                    "y": 213.89500427246094,
                    "z": 2389.80908203125
                },
                "NJCBGNHGINI": 35.0,
                "NECGMADJICG": "EaseOutQuad",
                "BMHIHPIKAHM": {},
                "MMJMMAEAJOA": true,
                "HGGPLEMCNNG": false,
                "JBODIEHINII": "",
                "PHDIKPKLFIA": true,
                "EJCHLMIMLBO": "",
                "BIMPIKMCIHB": "",
                "MCAOJPLIJGI": ""
            },
            {
                "$type": "CENEPJCONAG",
                "type": "BODY_LANG",
                "delayTime": 2.48799991607666,
                "aliasList": [
                    "13072"
                ],
                "actionId": 166,
                "OGFPAIKLDGB": 1130,
                "MHDCNDAINCK": true,
                "LHIAJOBFNAK": false,
                "GJGPNLJEIFP": true,
                "FOEKGLEJBIJ": ""
            }
        ],
        [
            {
                "$type": "PBIGHFCHGCA",
                "type": "CAMERA_MOVE",
                "duration": 0.5,
                "actionId": 165,
                "KCFKJMMEECM": {
                    "x": -505.4840087890625,
                    "y": 214.66000366210938,
                    "z": 2387.701904296875
                },
                "DLGJEHNPMFN": {
                    "x": -505.5710144042969,
                    "y": 214.80099487304688,
                    "z": 2386.716064453125
                },
                "NJCBGNHGINI": 20.0,
                "FNMFGIOLKBE": 6,
                "NECGMADJICG": "EaseInOutCubic",
                "BMHIHPIKAHM": {},
                "MMJMMAEAJOA": true,
                "HGGPLEMCNNG": false,
                "JBODIEHINII": "",
                "PHDIKPKLFIA": true,
                "EJCHLMIMLBO": "",
                "BIMPIKMCIHB": "",
                "MCAOJPLIJGI": ""
            },
            {
                "$type": "MoleMole.Config.ConfigCameraDOFAction",
                "type": "CAMERA_DOF",
                "actionId": 247,
                "focusDistance": 5.0,
                "focusRange": 10.0,
                "nearFocalDistance": 1.0,
                "nearFocalTransDistance": 1.0,
                "dofBlurAmount": 1.0,
                "quality": 3
            },
            {
                "$type": "LNLLGCOBDFC",
                "type": "EMO_SYNC",
                "aliasList": [
                    "AvatarNpc"
                ],
                "actionId": 239,
                "LKHHGAGNMKM": "",
                "AIMKGPFAAAD": "Cs_Emo_Avatar_Common/Cs_Emo_Avatar_Angry01",
                "IPEKOEDCGGF": "Cs_Emo_Avatar_Common/Cs_Emo_Avatar_Angry01_B",
                "EJNFMNJKDAH": "",
                "LOOOCOLIHFA": "",
                "KJDLMAPPPMG": "",
                "IMIEGJDNPNN": [
                    14296606849723709100,
                    5508348580450379567,
                    7627497203169383327,
                    8979581647593659876
                ],
                "KIJHIMADJGM": [
                    12827270931485377071,
                    477271327041930928,
                    15631992893087520179,
                    3915791412555494663
                ]
            },
            {
                "$type": "KAGAFALAIGP",
                "type": "DIALOG",
                "aliasList": [
                    "13072"
                ],
                "actionId": 114,
                "JHEPJOMJJHH": 80120605,
                "OCILKFCPBNC": 0.5
            },
            {
                "$type": "LNLLGCOBDFC",
                "type": "EMO_SYNC",
                "aliasList": [
                    "13072"
                ],
                "actionId": 145,
                "LKHHGAGNMKM": "Cs_Emo_Avatar_Simple_Common_Set/Cs_Emo_Avatar_Talk/Cs_Emo_Avatar_MainLine/Cs_Emo_Avatar_Twins03/Cs_Emo_80120605",
                "AIMKGPFAAAD": "",
                "IPEKOEDCGGF": "",
                "EJNFMNJKDAH": "",
                "LOOOCOLIHFA": "",
                "KJDLMAPPPMG": "",
                "EKJHPKFBONG": [
                    11485224393820986260,
                    7067287383693100868,
                    15430855462730633326,
                    17677990903902011244
                ]
            },
            {
                "$type": "CENEPJCONAG",
                "type": "BODY_LANG",
                "aliasList": [
                    "13072"
                ],
                "actionId": 167,
                "NNKEOHJCPOF": true,
                "MHDCNDAINCK": true,
                "LHIAJOBFNAK": false,
                "GJGPNLJEIFP": true,
                "FOEKGLEJBIJ": ""
            },
            {
                "$type": "PBIGHFCHGCA",
                "type": "CAMERA_MOVE",
                "delayTime": 0.10000000149011612,
                "duration": 13.395999908447266,
                "actionId": 174,
                "KCFKJMMEECM": {
                    "x": -505.4939880371094,
                    "y": 214.71200561523438,
                    "z": 2387.5048828125
                },
                "DLGJEHNPMFN": {
                    "x": -505.58099365234375,
                    "y": 214.85299682617188,
                    "z": 2386.51904296875
                },
                "NJCBGNHGINI": 20.0,
                "NECGMADJICG": "EaseOutQuad",
                "BMHIHPIKAHM": {},
                "MMJMMAEAJOA": true,
                "HGGPLEMCNNG": false,
                "JBODIEHINII": "",
                "PHDIKPKLFIA": true,
                "EJCHLMIMLBO": "",
                "BIMPIKMCIHB": "",
                "MCAOJPLIJGI": ""
            },
            {
                "$type": "CENEPJCONAG",
                "type": "BODY_LANG",
                "delayTime": 2.9509999752044678,
                "aliasList": [
                    "13072"
                ],
                "actionId": 168,
                "OGFPAIKLDGB": 1060,
                "MHDCNDAINCK": true,
                "LHIAJOBFNAK": false,
                "GJGPNLJEIFP": true,
                "FOEKGLEJBIJ": ""
            }
        ],
        [
            {
                "$type": "PBIGHFCHGCA",
                "type": "CAMERA_MOVE",
                "duration": 0.5,
                "actionId": 175,
                "KCFKJMMEECM": {
                    "x": -508.0469970703125,
                    "y": 215.5279998779297,
                    "z": 2384.51904296875
                },
                "DLGJEHNPMFN": {
                    "x": -507.1650085449219,
                    "y": 215.33200073242188,
                    "z": 2384.947998046875
                },
                "NJCBGNHGINI": 15.0,
                "FNMFGIOLKBE": 6,
                "NECGMADJICG": "EaseInOutCubic",
                "BMHIHPIKAHM": {},
                "MMJMMAEAJOA": true,
                "HGGPLEMCNNG": false,
                "JBODIEHINII": "",
                "PHDIKPKLFIA": true,
                "EJCHLMIMLBO": "",
                "BIMPIKMCIHB": "",
                "MCAOJPLIJGI": ""
            },
            {
                "$type": "LNLLGCOBDFC",
                "type": "EMO_SYNC",
                "aliasList": [
                    "AvatarNpc"
                ],
                "actionId": 240,
                "LKHHGAGNMKM": "",
                "AIMKGPFAAAD": "Cs_Emo_Avatar_Common/Cs_Emo_Avatar_Angry01",
                "IPEKOEDCGGF": "Cs_Emo_Avatar_Common/Cs_Emo_Avatar_Default01_B",
                "EJNFMNJKDAH": "",
                "LOOOCOLIHFA": "",
                "KJDLMAPPPMG": "",
                "IMIEGJDNPNN": [
                    14296606849723709100,
                    5508348580450379567,
                    7627497203169383327,
                    8979581647593659876
                ],
                "KIJHIMADJGM": [
                    12199605016063642592,
                    6659610500948409138,
                    10783156204328777859,
                    13383650154785247612
                ]
            },
            {
                "$type": "MoleMole.Config.ConfigTeleportToAction",
                "type": "TELEPORT_TO",
                "aliasList": [
                    "13171"
                ],
                "actionId": 304,
                "position": {
                    "x": -502.0580139160156,
                    "y": 212.89700317382812,
                    "z": 2388.381103515625
                },
                "forward": {
                    "x": 0.6510000228881836,
                    "z": 0.7590000033378601
                },
                "openLongDisTeleport": true,
                "posBindMovingTargetKey": "",
                "forwardBindMovingTargetKey": ""
            },
            {
                "$type": "KAGAFALAIGP",
                "type": "DIALOG",
                "aliasList": [
                    "13072"
                ],
                "actionId": 116,
                "JHEPJOMJJHH": 80120606,
                "OCILKFCPBNC": 0.5
            },
            {
                "$type": "LNLLGCOBDFC",
                "type": "EMO_SYNC",
                "aliasList": [
                    "13072"
                ],
                "actionId": 146,
                "LKHHGAGNMKM": "Cs_Emo_Avatar_Simple_Common_Set/Cs_Emo_Avatar_Talk/Cs_Emo_Avatar_MainLine/Cs_Emo_Avatar_Twins03/Cs_Emo_80120606",
                "AIMKGPFAAAD": "",
                "IPEKOEDCGGF": "",
                "EJNFMNJKDAH": "",
                "LOOOCOLIHFA": "",
                "KJDLMAPPPMG": "",
                "EKJHPKFBONG": [
                    13335046527894091904,
                    17923316602617987015,
                    14626820080188869180,
                    2063532419531512564
                ]
            },
            {
                "$type": "CENEPJCONAG",
                "type": "BODY_LANG",
                "aliasList": [
                    "13072"
                ],
                "actionId": 169,
                "NNKEOHJCPOF": true,
                "MHDCNDAINCK": true,
                "LHIAJOBFNAK": false,
                "GJGPNLJEIFP": true,
                "FOEKGLEJBIJ": ""
            },
            {
                "$type": "PBIGHFCHGCA",
                "type": "CAMERA_MOVE",
                "delayTime": 0.10000000149011612,
                "duration": 12.338000297546387,
                "actionId": 176,
                "KCFKJMMEECM": {
                    "x": -508.6409912109375,
                    "y": 215.66000366210938,
                    "z": 2384.22998046875
                },
                "DLGJEHNPMFN": {
                    "x": -507.7590026855469,
                    "y": 215.46400451660156,
                    "z": 2384.658935546875
                },
                "NJCBGNHGINI": 15.0,
                "NECGMADJICG": "EaseOutQuad",
                "BMHIHPIKAHM": {},
                "MMJMMAEAJOA": true,
                "HGGPLEMCNNG": false,
                "JBODIEHINII": "",
                "PHDIKPKLFIA": true,
                "EJCHLMIMLBO": "",
                "BIMPIKMCIHB": "",
                "MCAOJPLIJGI": ""
            },
            {
                "$type": "CENEPJCONAG",
                "type": "BODY_LANG",
                "delayTime": 0.625,
                "aliasList": [
                    "13072"
                ],
                "actionId": 170,
                "OGFPAIKLDGB": 1171,
                "MHDCNDAINCK": true,
                "LHIAJOBFNAK": false,
                "GJGPNLJEIFP": true,
                "FOEKGLEJBIJ": ""
            },
            {
                "$type": "CENEPJCONAG",
                "type": "BODY_LANG",
                "delayTime": 3.447000026702881,
                "aliasList": [
                    "13072"
                ],
                "actionId": 171,
                "OGFPAIKLDGB": 4040,
                "MHDCNDAINCK": true,
                "LHIAJOBFNAK": false,
                "GJGPNLJEIFP": true,
                "FOEKGLEJBIJ": ""
            },
            {
                "$type": "CENEPJCONAG",
                "type": "BODY_LANG",
                "delayTime": 6.4710001945495605,
                "aliasList": [
                    "13072"
                ],
                "actionId": 172,
                "OGFPAIKLDGB": 1130,
                "MHDCNDAINCK": true,
                "LHIAJOBFNAK": false,
                "GJGPNLJEIFP": true,
                "FOEKGLEJBIJ": ""
            }
        ],
        [
            {
                "$type": "PBIGHFCHGCA",
                "type": "CAMERA_MOVE",
                "duration": 0.5,
                "actionId": 177,
                "KCFKJMMEECM": {
                    "x": -502.89898681640625,
                    "y": 213.69200134277344,
                    "z": 2389.77294921875
                },
                "DLGJEHNPMFN": {
                    "x": -502.02301025390625,
                    "y": 213.61500549316406,
                    "z": 2389.297119140625
                },
                "NJCBGNHGINI": 20.0,
                "FNMFGIOLKBE": 6,
                "NECGMADJICG": "EaseInOutCubic",
                "BMHIHPIKAHM": {},
                "MMJMMAEAJOA": true,
                "HGGPLEMCNNG": false,
                "JBODIEHINII": "",
                "PHDIKPKLFIA": true,
                "EJCHLMIMLBO": "",
                "BIMPIKMCIHB": "",
                "MCAOJPLIJGI": ""
            },
            {
                "$type": "KAGAFALAIGP",
                "type": "DIALOG",
                "aliasList": [
                    "13171"
                ],
                "actionId": 118,
                "JHEPJOMJJHH": 80120607,
                "OCILKFCPBNC": 0.5
            },
            {
                "$type": "MoleMole.Config.ConfigTeleportToAction",
                "type": "TELEPORT_TO",
                "aliasList": [
                    "13171"
                ],
                "actionId": 303,
                "position": {
                    "x": -501.6730041503906,
                    "y": 212.73199462890625,
                    "z": 2388.85302734375
                },
                "forward": {
                    "x": 0.48899999260902405,
                    "z": 0.9940000176429749
                },
                "openLongDisTeleport": true,
                "posBindMovingTargetKey": "",
                "forwardBindMovingTargetKey": ""
            },
            {
                "$type": "PBIGHFCHGCA",
                "type": "CAMERA_MOVE",
                "delayTime": 0.10000000149011612,
                "duration": 5.59499979019165,
                "actionId": 178,
                "KCFKJMMEECM": {
                    "x": -502.92498779296875,
                    "y": 213.69000244140625,
                    "z": 2389.72607421875
                },
                "DLGJEHNPMFN": {
                    "x": -502.04901123046875,
                    "y": 213.61300659179688,
                    "z": 2389.25
                },
                "NJCBGNHGINI": 20.0,
                "NECGMADJICG": "EaseOutQuad",
                "BMHIHPIKAHM": {},
                "MMJMMAEAJOA": true,
                "HGGPLEMCNNG": false,
                "JBODIEHINII": "",
                "PHDIKPKLFIA": true,
                "EJCHLMIMLBO": "",
                "BIMPIKMCIHB": "",
                "MCAOJPLIJGI": ""
            }
        ],
        [
            {
                "$type": "PBIGHFCHGCA",
                "type": "CAMERA_MOVE",
                "duration": 0.5,
                "actionId": 179,
                "KCFKJMMEECM": {
                    "x": -504.7179870605469,
                    "y": 214.6219940185547,
                    "z": 2388.654052734375
                },
                "DLGJEHNPMFN": {
                    "x": -504.95599365234375,
                    "y": 214.70700073242188,
                    "z": 2387.68701171875
                },
                "NJCBGNHGINI": 20.0,
                "FNMFGIOLKBE": 6,
                "NECGMADJICG": "EaseInOutCubic",
                "BMHIHPIKAHM": {},
                "MMJMMAEAJOA": true,
                "HGGPLEMCNNG": false,
                "JBODIEHINII": "",
                "PHDIKPKLFIA": true,
                "EJCHLMIMLBO": "",
                "BIMPIKMCIHB": "",
                "MCAOJPLIJGI": ""
            },
            {
                "$type": "MoleMole.Config.ConfigTeleportToAction",
                "type": "TELEPORT_TO",
                "aliasList": [
                    "Avatar"
                ],
                "actionId": 375,
                "position": {
                    "x": -505.3559875488281,
                    "y": 213.7480010986328,
                    "z": 2384.384033203125
                },
                "forward": {
                    "x": 0.5920000076293945,
                    "z": 0.8059999942779541
                },
                "openLongDisTeleport": true,
                "posBindMovingTargetKey": "",
                "forwardBindMovingTargetKey": ""
            },
            {
                "$type": "MoleMole.Config.ConfigTeleportToAction",
                "type": "TELEPORT_TO",
                "aliasList": [
                    "AvatarNpc"
                ],
                "actionId": 196,
                "position": {
                    "x": -505.3559875488281,
                    "y": 213.7480010986328,
                    "z": 2384.384033203125
                },
                "forward": {
                    "x": 0.5920000076293945,
                    "z": 0.8059999942779541
                },
                "openLongDisTeleport": true,
                "posBindMovingTargetKey": "",
                "forwardBindMovingTargetKey": ""
            },
            {
                "$type": "LNLLGCOBDFC",
                "type": "EMO_SYNC",
                "aliasList": [
                    "AvatarNpc"
                ],
                "actionId": 262,
                "LKHHGAGNMKM": "",
                "AIMKGPFAAAD": "Cs_Emo_Avatar_Common/Cs_Emo_Avatar_Angry01",
                "IPEKOEDCGGF": "Cs_Emo_Avatar_Common/Cs_Emo_Avatar_Angry01_B",
                "EJNFMNJKDAH": "",
                "LOOOCOLIHFA": "",
                "KJDLMAPPPMG": "",
                "IMIEGJDNPNN": [
                    14296606849723709100,
                    5508348580450379567,
                    7627497203169383327,
                    8979581647593659876
                ],
                "KIJHIMADJGM": [
                    12827270931485377071,
                    477271327041930928,
                    15631992893087520179,
                    3915791412555494663
                ]
            },
            {
                "$type": "KAGAFALAIGP",
                "type": "DIALOG",
                "aliasList": [
                    "13072"
                ],
                "actionId": 120,
                "JHEPJOMJJHH": 80120608,
                "OCILKFCPBNC": 0.5
            },
            {
                "$type": "LNLLGCOBDFC",
                "type": "EMO_SYNC",
                "aliasList": [
                    "13072"
                ],
                "actionId": 147,
                "LKHHGAGNMKM": "Cs_Emo_Avatar_Simple_Common_Set/Cs_Emo_Avatar_Talk/Cs_Emo_Avatar_MainLine/Cs_Emo_Avatar_Twins03/Cs_Emo_80120608",
                "AIMKGPFAAAD": "",
                "IPEKOEDCGGF": "",
                "EJNFMNJKDAH": "",
                "LOOOCOLIHFA": "",
                "KJDLMAPPPMG": "",
                "EKJHPKFBONG": [
                    2632843007408972220,
                    10748701065495392245,
                    17843591171528385636,
                    13663468252208536768
                ]
            },
            {
                "$type": "CENEPJCONAG",
                "type": "BODY_LANG",
                "aliasList": [
                    "13072"
                ],
                "actionId": 173,
                "NNKEOHJCPOF": true,
                "MHDCNDAINCK": true,
                "LHIAJOBFNAK": false,
                "GJGPNLJEIFP": true,
                "FOEKGLEJBIJ": ""
            },
            {
                "$type": "PBIGHFCHGCA",
                "type": "CAMERA_MOVE",
                "delayTime": 0.10000000149011612,
                "duration": 5.0,
                "actionId": 180,
                "KCFKJMMEECM": {
                    "x": -504.78900146484375,
                    "y": 214.66099548339844,
                    "z": 2388.389892578125
                },
                "DLGJEHNPMFN": {
                    "x": -505.0270080566406,
                    "y": 214.74600219726562,
                    "z": 2387.422119140625
                },
                "NJCBGNHGINI": 20.0,
                "NECGMADJICG": "EaseOutQuad",
                "BMHIHPIKAHM": {},
                "MMJMMAEAJOA": true,
                "HGGPLEMCNNG": false,
                "JBODIEHINII": "",
                "PHDIKPKLFIA": true,
                "EJCHLMIMLBO": "",
                "BIMPIKMCIHB": "",
                "MCAOJPLIJGI": ""
            },
            {
                "$type": "AAFOOOPNJLB",
                "type": "DIALOG_SELECT",
                "delayTime": 0.4000000059604645,
                "aliasList": [
                    "AvatarNpc"
                ],
                "actionId": 137,
                "KFAEOBDAAME": [
                    80120609,
                    80120610
                ],
                "ELPFMMBHOLF": [
                    249879764,
                    249879764
                ],
                "OEAAKJDIEFD": true,
                "ONFBGDHPCEO": 249879755
            },
            {
                "$type": "FNPNDPFBBDD",
                "type": "LOOK_AT",
                "delayTime": 1.5609999895095825,
                "aliasList": [
                    "AvatarNpc"
                ],
                "actionId": 197,
                "NKGFDJDHOBD": true,
                "useTargetPos": true,
                "LBJHJADMNBD": true,
                "EKIONHAEIBG": {
                    "x": -505.6969909667969,
                    "y": 215.21099853515625,
                    "z": 2385.090087890625
                },
                "MNOPLOBEFLB": 0.5,
                "JBODIEHINII": "",
                "CFPBIOLLOCO": "NONE",
                "MDNPCOHCCLM": true,
                "LPCACGGCDLI": "",
                "NNFPFPOJJOJ": ""
            }
        ],
        [
            {
                "$type": "PBIGHFCHGCA",
                "type": "CAMERA_MOVE",
                "duration": 0.5,
                "actionId": 181,
                "KCFKJMMEECM": {
                    "x": -504.44000244140625,
                    "y": 215.17300415039062,
                    "z": 2385.202880859375
                },
                "DLGJEHNPMFN": {
                    "x": -505.4389953613281,
                    "y": 215.17100524902344,
                    "z": 2385.25
                },
                "NJCBGNHGINI": 20.0,
                "FNMFGIOLKBE": 6,
                "NECGMADJICG": "EaseInOutCubic",
                "BMHIHPIKAHM": {},
                "MMJMMAEAJOA": true,
                "HGGPLEMCNNG": false,
                "JBODIEHINII": "",
                "PHDIKPKLFIA": true,
                "EJCHLMIMLBO": "",
                "BIMPIKMCIHB": "",
                "MCAOJPLIJGI": ""
            },
            {
                "$type": "MoleMole.Config.ConfigTeleportToAction",
                "type": "TELEPORT_TO",
                "aliasList": [
                    "Avatar"
                ],
                "actionId": 376,
                "position": {
                    "x": -504.5419921875,
                    "y": 213.7530059814453,
                    "z": 2384.426025390625
                },
                "forward": {
                    "x": 0.4050000011920929,
                    "z": 0.9139999747276306
                },
                "openLongDisTeleport": true,
                "posBindMovingTargetKey": "",
                "forwardBindMovingTargetKey": ""
            },
            {
                "$type": "MoleMole.Config.ConfigTeleportToAction",
                "type": "TELEPORT_TO",
                "aliasList": [
                    "AvatarNpc"
                ],
                "actionId": 198,
                "position": {
                    "x": -504.5419921875,
                    "y": 213.7530059814453,
                    "z": 2384.426025390625
                },
                "forward": {
                    "x": 0.4050000011920929,
                    "z": 0.9139999747276306
                },
                "openLongDisTeleport": true,
                "posBindMovingTargetKey": "",
                "forwardBindMovingTargetKey": ""
            },
            {
                "$type": "FNPNDPFBBDD",
                "type": "LOOK_AT",
                "aliasList": [
                    "AvatarNpc"
                ],
                "actionId": 199,
                "NKGFDJDHOBD": true,
                "useTargetPos": true,
                "LBJHJADMNBD": true,
                "EKIONHAEIBG": {
                    "x": -505.6969909667969,
                    "y": 215.21099853515625,
                    "z": 2385.090087890625
                },
                "MNOPLOBEFLB": -1.0,
                "JBODIEHINII": "",
                "CFPBIOLLOCO": "NONE",
                "MDNPCOHCCLM": true,
                "LPCACGGCDLI": "",
                "NNFPFPOJJOJ": ""
            },
            {
                "$type": "LNLLGCOBDFC",
                "type": "EMO_SYNC",
                "aliasList": [
                    "AvatarNpc"
                ],
                "actionId": 263,
                "LKHHGAGNMKM": "",
                "AIMKGPFAAAD": "Cs_Emo_Avatar_Common/Cs_Emo_Avatar_Angry01",
                "IPEKOEDCGGF": "Cs_Emo_Avatar_Common/Cs_Emo_Avatar_Default01_B",
                "EJNFMNJKDAH": "",
                "LOOOCOLIHFA": "",
                "KJDLMAPPPMG": "",
                "IMIEGJDNPNN": [
                    14296606849723709100,
                    5508348580450379567,
                    7627497203169383327,
                    8979581647593659876
                ],
                "KIJHIMADJGM": [
                    12199605016063642592,
                    6659610500948409138,
                    10783156204328777859,
                    13383650154785247612
                ]
            },
            {
                "$type": "KAGAFALAIGP",
                "type": "DIALOG",
                "aliasList": [
                    "13072"
                ],
                "actionId": 123,
                "JHEPJOMJJHH": 80120611,
                "OCILKFCPBNC": 0.5
            },
            {
                "$type": "LNLLGCOBDFC",
                "type": "EMO_SYNC",
                "aliasList": [
                    "13072"
                ],
                "actionId": 148,
                "LKHHGAGNMKM": "Cs_Emo_Avatar_Simple_Common_Set/Cs_Emo_Avatar_Talk/Cs_Emo_Avatar_MainLine/Cs_Emo_Avatar_Twins03/Cs_Emo_80120611",
                "AIMKGPFAAAD": "",
                "IPEKOEDCGGF": "",
                "EJNFMNJKDAH": "",
                "LOOOCOLIHFA": "",
                "KJDLMAPPPMG": "",
                "EKJHPKFBONG": [
                    4710067418565170082,
                    2357401737249961710,
                    841779367051306111,
                    15953068941241190381
                ]
            },
            {
                "$type": "MoleMole.Config.ConfigTeleportToAction",
                "type": "TELEPORT_TO",
                "aliasList": [
                    "13072"
                ],
                "actionId": 200,
                "position": {
                    "x": -505.9100036621094,
                    "y": 213.53799438476562,
                    "z": 2385.294921875
                },
                "forward": {
                    "x": 0.8539999723434448,
                    "z": 0.7239999771118164
                },
                "openLongDisTeleport": true,
                "posBindMovingTargetKey": "",
                "forwardBindMovingTargetKey": ""
            },
            {
                "$type": "FNPNDPFBBDD",
                "type": "LOOK_AT",
                "aliasList": [
                    "13072"
                ],
                "actionId": 201,
                "NKGFDJDHOBD": true,
                "useTargetPos": true,
                "LBJHJADMNBD": true,
                "EKIONHAEIBG": {
                    "x": -504.9949951171875,
                    "y": 215.11500549316406,
                    "z": 2385.243896484375
                },
                "MNOPLOBEFLB": 0.5,
                "JBODIEHINII": "",
                "CFPBIOLLOCO": "NONE",
                "MDNPCOHCCLM": true,
                "LPCACGGCDLI": "",
                "NNFPFPOJJOJ": ""
            },
            {
                "$type": "CENEPJCONAG",
                "type": "BODY_LANG",
                "aliasList": [
                    "13072"
                ],
                "actionId": 203,
                "OGFPAIKLDGB": 1173,
                "MHDCNDAINCK": true,
                "LHIAJOBFNAK": false,
                "GJGPNLJEIFP": true,
                "FOEKGLEJBIJ": ""
            },
            {
                "$type": "PBIGHFCHGCA",
                "type": "CAMERA_MOVE",
                "delayTime": 0.10000000149011612,
                "duration": 9.0,
                "actionId": 182,
                "KCFKJMMEECM": {
                    "x": -504.5719909667969,
                    "y": 215.17300415039062,
                    "z": 2385.2099609375
                },
                "DLGJEHNPMFN": {
                    "x": -505.5710144042969,
                    "y": 215.17100524902344,
                    "z": 2385.258056640625
                },
                "NJCBGNHGINI": 20.0,
                "NECGMADJICG": "EaseOutQuad",
                "BMHIHPIKAHM": {},
                "MMJMMAEAJOA": true,
                "HGGPLEMCNNG": false,
                "JBODIEHINII": "",
                "PHDIKPKLFIA": true,
                "EJCHLMIMLBO": "",
                "BIMPIKMCIHB": "",
                "MCAOJPLIJGI": ""
            },
            {
                "$type": "CENEPJCONAG",
                "type": "BODY_LANG",
                "delayTime": 3.8239998817443848,
                "aliasList": [
                    "13072"
                ],
                "actionId": 202,
                "OGFPAIKLDGB": 1130,
                "MHDCNDAINCK": true,
                "LHIAJOBFNAK": false,
                "GJGPNLJEIFP": true,
                "FOEKGLEJBIJ": ""
            }
        ],
        [
            {
                "$type": "PBIGHFCHGCA",
                "type": "CAMERA_MOVE",
                "duration": 0.5,
                "actionId": 183,
                "KCFKJMMEECM": {
                    "x": -497.15899658203125,
                    "y": 214.552001953125,
                    "z": 2382.884033203125
                },
                "DLGJEHNPMFN": {
                    "x": -498.11700439453125,
                    "y": 214.56199645996094,
                    "z": 2383.169921875
                },
                "NJCBGNHGINI": 18.0,
                "FNMFGIOLKBE": 6,
                "NECGMADJICG": "EaseInOutCubic",
                "BMHIHPIKAHM": {},
                "MMJMMAEAJOA": true,
                "HGGPLEMCNNG": false,
                "JBODIEHINII": "",
                "PHDIKPKLFIA": true,
                "EJCHLMIMLBO": "",
                "BIMPIKMCIHB": "",
                "MCAOJPLIJGI": ""
            },
            {
                "$type": "MoleMole.Config.ConfigTeleportToAction",
                "type": "TELEPORT_TO",
                "aliasList": [
                    "Avatar"
                ],
                "actionId": 377,
                "position": {
                    "x": -505.37799072265625,
                    "y": 213.73500061035156,
                    "z": 2384.44189453125
                },
                "forward": {
                    "x": 0.47999998927116394,
                    "z": 0.8769999742507935
                },
                "openLongDisTeleport": true,
                "posBindMovingTargetKey": "",
                "forwardBindMovingTargetKey": ""
            },
            {
                "$type": "MoleMole.Config.ConfigTeleportToAction",
                "type": "TELEPORT_TO",
                "aliasList": [
                    "AvatarNpc"
                ],
                "actionId": 241,
                "position": {
                    "x": -505.37799072265625,
                    "y": 213.73500061035156,
                    "z": 2384.44189453125
                },
                "forward": {
                    "x": 0.47999998927116394,
                    "z": 0.8769999742507935
                },
                "openLongDisTeleport": true,
                "posBindMovingTargetKey": "",
                "forwardBindMovingTargetKey": ""
            },
            {
                "$type": "MoleMole.Config.ConfigTeleportToAction",
                "type": "TELEPORT_TO",
                "aliasList": [
                    "13171"
                ],
                "actionId": 206,
                "position": {
                    "x": -501.6730041503906,
                    "y": 212.73199462890625,
                    "z": 2388.85302734375
                },
                "forward": {
                    "x": 0.7799999713897705,
                    "z": 0.6259999871253967
                },
                "openLongDisTeleport": true,
                "posBindMovingTargetKey": "",
                "forwardBindMovingTargetKey": ""
            },
            {
                "$type": "KAGAFALAIGP",
                "type": "DIALOG",
                "aliasList": [
                    "13072"
                ],
                "actionId": 125,
                "JHEPJOMJJHH": 80120612,
                "OCILKFCPBNC": 0.5
            },
            {
                "$type": "LNLLGCOBDFC",
                "type": "EMO_SYNC",
                "aliasList": [
                    "13072"
                ],
                "actionId": 149,
                "LKHHGAGNMKM": "Cs_Emo_Avatar_Simple_Common_Set/Cs_Emo_Avatar_Talk/Cs_Emo_Avatar_MainLine/Cs_Emo_Avatar_Twins03/Cs_Emo_80120612",
                "AIMKGPFAAAD": "",
                "IPEKOEDCGGF": "",
                "EJNFMNJKDAH": "",
                "LOOOCOLIHFA": "",
                "KJDLMAPPPMG": "",
                "EKJHPKFBONG": [
                    14063879898397318845,
                    15691926029919435479,
                    10955941461677107870,
                    13128229658135233792
                ]
            },
            {
                "$type": "CENEPJCONAG",
                "type": "BODY_LANG",
                "aliasList": [
                    "13072"
                ],
                "actionId": 204,
                "NNKEOHJCPOF": true,
                "MHDCNDAINCK": true,
                "LHIAJOBFNAK": false,
                "GJGPNLJEIFP": true,
                "FOEKGLEJBIJ": ""
            },
            {
                "$type": "FNPNDPFBBDD",
                "type": "LOOK_AT",
                "aliasList": [
                    "13072"
                ],
                "actionId": 209,
                "NKGFDJDHOBD": true,
                "useTargetPos": true,
                "LBJHJADMNBD": true,
                "EKIONHAEIBG": {
                    "x": -501.2959899902344,
                    "y": 213.88400268554688,
                    "z": 2389.31005859375
                },
                "MNOPLOBEFLB": 0.5,
                "JBODIEHINII": "",
                "CFPBIOLLOCO": "NONE",
                "MDNPCOHCCLM": true,
                "LPCACGGCDLI": "",
                "NNFPFPOJJOJ": ""
            },
            {
                "$type": "PBIGHFCHGCA",
                "type": "CAMERA_MOVE",
                "delayTime": 0.16500000655651093,
                "duration": 11.21399974822998,
                "actionId": 208,
                "KCFKJMMEECM": {
                    "x": -497.7040100097656,
                    "y": 214.5570068359375,
                    "z": 2383.0458984375
                },
                "DLGJEHNPMFN": {
                    "x": -498.6619873046875,
                    "y": 214.56700134277344,
                    "z": 2383.33203125
                },
                "NJCBGNHGINI": 18.0,
                "NECGMADJICG": "EaseOutQuad",
                "BMHIHPIKAHM": {},
                "MMJMMAEAJOA": true,
                "HGGPLEMCNNG": false,
                "JBODIEHINII": "",
                "PHDIKPKLFIA": true,
                "EJCHLMIMLBO": "",
                "BIMPIKMCIHB": "",
                "MCAOJPLIJGI": ""
            },
            {
                "$type": "FNPNDPFBBDD",
                "type": "LOOK_AT",
                "delayTime": 0.16500000655651093,
                "aliasList": [
                    "AvatarNpc"
                ],
                "actionId": 210,
                "NKGFDJDHOBD": true,
                "useTargetPos": true,
                "LBJHJADMNBD": true,
                "EKIONHAEIBG": {
                    "x": -501.2959899902344,
                    "y": 213.88400268554688,
                    "z": 2389.31005859375
                },
                "MNOPLOBEFLB": 0.5,
                "JBODIEHINII": "",
                "CFPBIOLLOCO": "NONE",
                "MDNPCOHCCLM": true,
                "LPCACGGCDLI": "",
                "NNFPFPOJJOJ": ""
            },
            {
                "$type": "AAFOOOPNJLB",
                "type": "DIALOG_SELECT",
                "delayTime": 0.4000000059604645,
                "aliasList": [
                    "AvatarNpc"
                ],
                "actionId": 138,
                "KFAEOBDAAME": [
                    80120613,
                    80120614
                ],
                "ELPFMMBHOLF": [
                    3451305189,
                    3451305189
                ],
                "OEAAKJDIEFD": true,
                "ONFBGDHPCEO": 249879755
            },
            {
                "$type": "CENEPJCONAG",
                "type": "BODY_LANG",
                "delayTime": 1.0210000276565552,
                "aliasList": [
                    "13072"
                ],
                "actionId": 205,
                "OGFPAIKLDGB": 1060,
                "MHDCNDAINCK": true,
                "LHIAJOBFNAK": false,
                "GJGPNLJEIFP": true,
                "FOEKGLEJBIJ": ""
            }
        ],
        [
            {
                "$type": "PBIGHFCHGCA",
                "type": "CAMERA_MOVE",
                "duration": 0.5,
                "actionId": 243,
                "KCFKJMMEECM": {
                    "x": -505.0159912109375,
                    "y": 215.3040008544922,
                    "z": 2384.589111328125
                },
                "DLGJEHNPMFN": {
                    "x": -504.31298828125,
                    "y": 214.9720001220703,
                    "z": 2385.218017578125
                },
                "NJCBGNHGINI": 40.0,
                "FNMFGIOLKBE": 6,
                "NECGMADJICG": "EaseInOutCubic",
                "BMHIHPIKAHM": {},
                "HGGPLEMCNNG": false,
                "JBODIEHINII": "",
                "PHDIKPKLFIA": true,
                "EJCHLMIMLBO": "",
                "BIMPIKMCIHB": "",
                "MCAOJPLIJGI": ""
            },
            {
                "$type": "MoleMole.Config.ConfigTeleportToAction",
                "type": "TELEPORT_TO",
                "aliasList": [
                    "Avatar"
                ],
                "actionId": 378,
                "position": {
                    "x": -505.24700927734375,
                    "y": 213.68600463867188,
                    "z": 2384.738037109375
                },
                "forward": {
                    "x": 0.4050000011920929,
                    "z": 0.9139999747276306
                },
                "openLongDisTeleport": true,
                "posBindMovingTargetKey": "",
                "forwardBindMovingTargetKey": ""
            },
            {
                "$type": "MoleMole.Config.ConfigTeleportToAction",
                "type": "TELEPORT_TO",
                "aliasList": [
                    "AvatarNpc"
                ],
                "actionId": 242,
                "position": {
                    "x": -505.24700927734375,
                    "y": 213.68600463867188,
                    "z": 2384.738037109375
                },
                "forward": {
                    "x": 0.4050000011920929,
                    "z": 0.9139999747276306
                },
                "openLongDisTeleport": true,
                "posBindMovingTargetKey": "",
                "forwardBindMovingTargetKey": ""
            },
            {
                "$type": "LNLLGCOBDFC",
                "type": "EMO_SYNC",
                "aliasList": [
                    "AvatarNpc"
                ],
                "actionId": 265,
                "LKHHGAGNMKM": "",
                "AIMKGPFAAAD": "Cs_Emo_Avatar_Common/Cs_Emo_Avatar_Default01",
                "IPEKOEDCGGF": "Cs_Emo_Avatar_Common/Cs_Emo_Avatar_Default01_B",
                "EJNFMNJKDAH": "",
                "LOOOCOLIHFA": "",
                "KJDLMAPPPMG": "",
                "IMIEGJDNPNN": [
                    1010565500959774114,
                    17914558573000180712,
                    14498871351621154070,
                    14348654671849899985
                ],
                "KIJHIMADJGM": [
                    12199605016063642592,
                    6659610500948409138,
                    10783156204328777859,
                    13383650154785247612
                ]
            },
            {
                "$type": "KAGAFALAIGP",
                "type": "DIALOG",
                "aliasList": [
                    "13171"
                ],
                "actionId": 128,
                "JHEPJOMJJHH": 80120615,
                "OCILKFCPBNC": 0.5
            },
            {
                "$type": "MoleMole.Config.ConfigTeleportToAction",
                "type": "TELEPORT_TO",
                "aliasList": [
                    "13171"
                ],
                "actionId": 245,
                "position": {
                    "x": -501.6730041503906,
                    "y": 213.093994140625,
                    "z": 2387.544921875
                },
                "forward": {
                    "x": 0.7799999713897705,
                    "z": 0.6259999871253967
                },
                "openLongDisTeleport": true,
                "posBindMovingTargetKey": "",
                "forwardBindMovingTargetKey": ""
            },
            {
                "$type": "LNLLGCOBDFC",
                "type": "EMO_SYNC",
                "aliasList": [
                    "13072"
                ],
                "actionId": 264,
                "LKHHGAGNMKM": "",
                "AIMKGPFAAAD": "Cs_Emo_NPC_Common/Cs_Emo_NPC_Normal01",
                "IPEKOEDCGGF": "Cs_Emo_NPC_Common/Cs_Emo_NPC_Normal01_B",
                "EJNFMNJKDAH": "",
                "LOOOCOLIHFA": "",
                "KJDLMAPPPMG": "",
                "IMIEGJDNPNN": [
                    12803840960998583578,
                    3437050431160283015,
                    6548526936325855136,
                    1274732080047098512
                ],
                "KIJHIMADJGM": [
                    15191155715402440098,
                    420038106395935518,
                    2651432695756251320,
                    4209314551981667660
                ]
            },
            {
                "$type": "PBIGHFCHGCA",
                "type": "CAMERA_MOVE",
                "delayTime": 0.10000000149011612,
                "duration": 3.0,
                "actionId": 184,
                "KCFKJMMEECM": {
                    "x": -504.4880065917969,
                    "y": 215.05499267578125,
                    "z": 2385.06103515625
                },
                "DLGJEHNPMFN": {
                    "x": -503.7850036621094,
                    "y": 214.72300720214844,
                    "z": 2385.68994140625
                },
                "NJCBGNHGINI": 40.0,
                "NECGMADJICG": "EaseOutQuad",
                "BMHIHPIKAHM": {},
                "HGGPLEMCNNG": false,
                "JBODIEHINII": "",
                "PHDIKPKLFIA": true,
                "EJCHLMIMLBO": "",
                "BIMPIKMCIHB": "",
                "MCAOJPLIJGI": ""
            }
        ],
        [
            {
                "$type": "DKLMLAFNEFF",
                "type": "CUTSCENE",
                "actionId": 320,
                "DOAJDIBEEBD": {
                    "$type": "LKIMJCPPNNB",
                    "preTaskCfg": {
                        "BOHJKFPDNME": ""
                    },
                    "luaDataPath": "",
                    "resPath": "",
                    "castListPath": "",
                    "entityBan": ""
                },
                "FKIDEMAJMNK": 801210
            }
        ],
        [
            {
                "$type": "MoleMole.Config.ConfigSimpleBlackScreenAction",
                "type": "SIMPLE_BLACK_SCREEN",
                "actionId": 129,
                "durationToBlack": 0.5,
                "durationKeepBlack": 2.0,
                "durationFromBlack": 0.5,
                "textMapID": ""
            },
            {
                "$type": "MoleMole.Config.ConfigTimeProtectAction",
                "type": "TIME_PROTECT",
                "duration": 0.699999988079071,
                "actionId": 130
            },
            {
                "$type": "MoleMole.Config.ConfigVisibleInterAction",
                "type": "VISIBLE",
                "delayTime": 0.6000000238418579,
                "aliasList": [
                    "Avatar"
                ],
                "actionId": 140,
                "isVisible": true,
                "extraParam": ""
            },
            {
                "$type": "MoleMole.Config.ConfigVisibleInterAction",
                "type": "VISIBLE",
                "delayTime": 0.6000000238418579,
                "aliasList": [
                    "AvatarNpc"
                ],
                "actionId": 142,
                "extraParam": ""
            },
            {
                "$type": "MoleMole.Config.ConfigVisibleInterAction",
                "type": "VISIBLE",
                "delayTime": 0.6000000238418579,
                "aliasList": [
                    "13171"
                ],
                "actionId": 131,
                "extraParam": ""
            },
            {
                "$type": "MoleMole.Config.ConfigVisibleInterAction",
                "type": "VISIBLE",
                "delayTime": 0.6000000238418579,
                "aliasList": [
                    "13072"
                ],
                "actionId": 132,
                "extraParam": ""
            }
        ]
    ],
    "groupId": [
        {
            "grpId": 249879756,
            "nextGrpId": 249879757
        },
        {
            "index": 1,
            "grpId": 249879757,
            "nextGrpId": 249879758
        },
        {
            "index": 2,
            "grpId": 249879758,
            "nextGrpId": 249879759
        },
        {
            "index": 3,
            "grpId": 249879759,
            "nextGrpId": 249879760
        },
        {
            "index": 4,
            "grpId": 249879760,
            "nextGrpId": 249879761
        },
        {
            "index": 5,
            "grpId": 249879761,
            "nextGrpId": 249879762
        },
        {
            "index": 6,
            "grpId": 249879762,
            "nextGrpId": 249879763
        },
        {
            "index": 7,
            "grpId": 249879763,
            "nextGrpId": 249879764
        },
        {
            "index": 8,
            "grpId": 249879764,
            "nextGrpId": 3451305188
        },
        {
            "index": 9,
            "grpId": 3451305188,
            "nextGrpId": 3451305189
        },
        {
            "index": 10,
            "grpId": 3451305189,
            "nextGrpId": 3451305190
        },
        {
            "index": 11,
            "grpId": 3451305190,
            "nextGrpId": 3451305191
        },
        {
            "index": 12,
            "grpId": 3451305191,
            "nextGrpId": 3451305192
        }
    ],
    "freeStyleDic": {
        "1025": [],
        "1026": [],
        "13072": [
            1130,
            1060,
            1171,
            4040,
            1173
        ]
    }
}