{
    "luaDataPath": "",
    "entityBan": "",
    "group": [
        [
            {
                "$type": "DKLMLAFNEFF",
                "type": "CUTSCENE",
                "DOAJDIBEEBD": {
                    "$type": "LKIMJCPPNNB",
                    "type": "TIME_LINE_PREFAB",
                    "luaDataPath": "",
                    "resPath": "ART/Cutscene/Cs_UnlockTowerCutscene",
                    "castListPath": "",
                    "entityBan": "",
                    "startPosType": "RELATIVE_TO_LOCAL_AVATAR"
                }
            },
            {
                "$type": "MLJOJBJJGIH",
                "type": "SOUND",
                "stateGroup": "StateGroup_gameState",
                "state": "State_Cutscene",
                "LMDLLFDEGBI": ""
            }
        ],
        [
            {
                "$type": "MLJOJBJJGIH",
                "type": "SOUND",
                "stateGroup": "StateGroup_gameState",
                "state": "State_Explore",
                "LMDLLFDEGBI": ""
            }
        ]
    ]
}