{
    "luaDataPath": "",
    "dontUseDefaultFinish": true,
    "startBlackKeepTime": 1.0,
    "entityBan": "",
    "disableNpcLod": true,
    "EKDGNGHMECG": true,
    "GMFELEKFHNC": 5,
    "startFade": {
        "startFadeInDuration": 0.5,
        "startFadeOutDuration": 0.5
    },
    "endFade": {
        "startFadeOutDuration": 0.0
    },
    "actors": [
        {
            "alias": "Avatar",
            "visible": true,
            "bornPointName": "",
            "relativePosType": "AVATAR_NEW",
            "relativePosNpcAlias": "",
            "bindMovingTargetKey": ""
        },
        {
            "configID": 9539,
            "alias": "9539",
            "visible": true,
            "bornPointName": "",
            "relativePosType": "AVATAR_NEW",
            "relativePosNpcAlias": "",
            "bindMovingTargetKey": ""
        }
    ],
    "group": [
        [
            {
                "$type": "MoleMole.Config.ConfigTimeProtectAction",
                "type": "TIME_PROTECT",
                "duration": 0.800000011920929,
                "actionId": 104
            },
            {
                "$type": "MoleMole.Config.ConfigTeleportToAction",
                "type": "TELEPORT_TO",
                "aliasList": [
                    "Avatar"
                ],
                "actionId": 111,
                "forward": {
                    "z": 1.0
                },
                "openLongDisTeleport": true,
                "posSelectType": "GCG_PLAYER",
                "posBindMovingTargetKey": "",
                "forwardBindMovingTargetKey": ""
            },
            {
                "$type": "MoleMole.Config.ConfigVisibleInterAction",
                "type": "VISIBLE",
                "aliasList": [
                    "Avatar"
                ],
                "actionId": 113,
                "extraParam": ""
            },
            {
                "$type": "FNPNDPFBBDD",
                "type": "LOOK_AT",
                "aliasList": [
                    "9539"
                ],
                "actionId": 119,
                "MNOPLOBEFLB": 0.5,
                "JBODIEHINII": "",
                "MDNPCOHCCLM": true,
                "CAJDMFBMGNG": 60.0,
                "LPCACGGCDLI": "",
                "NNFPFPOJJOJ": ""
            },
            {
                "$type": "NFDDGDIKEAG",
                "type": "STEER_TO",
                "delayTime": 0.30000001192092896,
                "duration": 0.10000000149011612,
                "aliasList": [
                    "Avatar"
                ],
                "actionId": 112,
                "flag": 32,
                "GGJHILELIMO": "TO_TARGET",
                "LGDIOPOBMPH": true,
                "NBNJEKMFIDE": true,
                "JBODIEHINII": "9539",
                "DMPFMDNFEHA": true,
                "OJJKHFPNNKJ": true,
                "NNFPFPOJJOJ": ""
            },
            {
                "$type": "NFDDGDIKEAG",
                "type": "STEER_TO",
                "delayTime": 0.30000001192092896,
                "duration": 0.10000000149011612,
                "aliasList": [
                    "9539"
                ],
                "actionId": 115,
                "flag": 32,
                "GGJHILELIMO": "TO_LOCAL_AVATAR",
                "LGDIOPOBMPH": true,
                "NBNJEKMFIDE": true,
                "JBODIEHINII": "",
                "OJJKHFPNNKJ": true,
                "NNFPFPOJJOJ": ""
            },
            {
                "$type": "PBIGHFCHGCA",
                "type": "CAMERA_MOVE",
                "delayTime": 0.6000000238418579,
                "duration": 0.10000000149011612,
                "actionId": 110,
                "CGCNCKNJOFB": "RELATIVE_TO_INTEE_ONLY",
                "KCFKJMMEECM": {
                    "y": 0.9440000057220459,
                    "z": 1.5980000495910645
                },
                "JOBAHIHHJIB": "RELATIVE_TO_INTEE_FORWARD",
                "DLGJEHNPMFN": {
                    "y": 0.9639999866485596,
                    "z": 0.5989999771118164
                },
                "NJCBGNHGINI": 30.0,
                "FNMFGIOLKBE": 6,
                "NECGMADJICG": "EaseInOutCubic",
                "BMHIHPIKAHM": {},
                "HGGPLEMCNNG": false,
                "JBODIEHINII": "",
                "PHDIKPKLFIA": true,
                "EJCHLMIMLBO": "",
                "BIMPIKMCIHB": "",
                "MCAOJPLIJGI": ""
            }
        ],
        [
            {
                "$type": "KAGAFALAIGP",
                "type": "DIALOG",
                "aliasList": [
                    "9539"
                ],
                "actionId": 109,
                "JHEPJOMJJHH": 695391101,
                "OCILKFCPBNC": 0.5
            },
            {
                "$type": "LNLLGCOBDFC",
                "type": "EMO_SYNC",
                "aliasList": [
                    "9539"
                ],
                "actionId": 116,
                "LKHHGAGNMKM": "Cs_Emo_Avatar_Simple_Common_Set/Cs_Emo_Avatar_Talk/Cs_Emo_GCG/Cs_Emo_Avatar_Nahida/Cs_Emo_695391101",
                "AIMKGPFAAAD": "",
                "IPEKOEDCGGF": "",
                "EJNFMNJKDAH": "",
                "LOOOCOLIHFA": "",
                "KJDLMAPPPMG": "",
                "HCOIDDGKHJC": false,
                "EKJHPKFBONG": [
                    6617009724162803536,
                    3055854773106297403,
                    10331894129458643686,
                    8976137498098510913
                ]
            },
            {
                "$type": "CENEPJCONAG",
                "type": "BODY_LANG",
                "delayTime": 1.8420000076293945,
                "aliasList": [
                    "9539"
                ],
                "actionId": 117,
                "OGFPAIKLDGB": 1192,
                "LHIAJOBFNAK": false,
                "GJGPNLJEIFP": true,
                "FOEKGLEJBIJ": ""
            }
        ],
        [
            {
                "$type": "MoleMole.Config.ConfigTimeProtectAction",
                "type": "TIME_PROTECT",
                "duration": 0.699999988079071,
                "actionId": 105
            },
            {
                "$type": "MoleMole.Config.ConfigSimpleBlackScreenAction",
                "type": "SIMPLE_BLACK_SCREEN",
                "duration": 0.5,
                "actionId": 106,
                "durationToBlack": 0.5,
                "durationKeepBlack": 1.0,
                "durationFromBlack": 0.5,
                "textMapID": ""
            },
            {
                "$type": "CENEPJCONAG",
                "type": "BODY_LANG",
                "aliasList": [
                    "9539"
                ],
                "actionId": 120,
                "NNKEOHJCPOF": true,
                "LHIAJOBFNAK": false,
                "GJGPNLJEIFP": true,
                "FOEKGLEJBIJ": ""
            },
            {
                "$type": "PBIGHFCHGCA",
                "type": "CAMERA_MOVE",
                "delayTime": 0.6000000238418579,
                "duration": 0.10000000149011612,
                "actionId": 107,
                "CGCNCKNJOFB": "EXIT",
                "KCFKJMMEECM": {
                    "x": 2244.261962890625,
                    "y": 219.67599487304688,
                    "z": -892.4349975585938
                },
                "JOBAHIHHJIB": "Other",
                "DLGJEHNPMFN": {
                    "x": 55.3849983215332,
                    "y": 272.96099853515625
                },
                "FNMFGIOLKBE": 6,
                "NECGMADJICG": "EaseInOutCubic",
                "BMHIHPIKAHM": {},
                "MMJMMAEAJOA": true,
                "HGGPLEMCNNG": false,
                "JBODIEHINII": "",
                "PHDIKPKLFIA": true,
                "EJCHLMIMLBO": "",
                "BIMPIKMCIHB": "",
                "MCAOJPLIJGI": ""
            },
            {
                "$type": "MoleMole.Config.ConfigVisibleInterAction",
                "type": "VISIBLE",
                "delayTime": 0.6000000238418579,
                "aliasList": [
                    "Avatar"
                ],
                "actionId": 114,
                "isVisible": true,
                "extraParam": ""
            }
        ]
    ],
    "groupId": [
        {
            "grpId": 895128004,
            "nextGrpId": 895128005
        },
        {
            "index": 1,
            "grpId": 895128005,
            "nextGrpId": 895128006
        },
        {
            "index": 2,
            "grpId": 895128006,
            "nextGrpId": 895128007
        }
    ],
    "freeStyleDic": {
        "9539": [
            1192
        ]
    },
    "EGOADMBCKDB": {
        "9539": [
            "SitHoldArm01AS"
        ]
    }
}