{
    "Fatuus_Maiden_WaterSpear_Normal": {
        "$type": "IOHCOOOBCPH",
        "common": {
            "effectAttachShape": {
                "$type": "PBGINMMOLDC",
                "AOOMOJMAGMJ": 0.5,
                "IMLIDOCMEII": 0.5
            }
        },
        "combat": {
            "property": {
                "useCreatorProperty": true,
                "isLockHP": true,
                "ignorePurgeRate": false
            },
            "beHit": {
                "hitBloodEffect": "",
                "GKIOKIDJLCA": true,
                "JEPGCKHKDDD": true,
                "muteAllHitText": true
            },
            "combatLock": {
                "lockShape": "CircleLockEnemy",
                "denyLockOn": true,
                "lockType": "Default"
            }
        },
        "attackAttenuation": "",
        "abilities": [
            {
                "abilityID": "Damage",
                "abilityName": "Monster_Fatuus_Maiden_WaterSpear_Normal",
                "abilityOverride": ""
            }
        ],
        "BDPGABAMMPP": {
            "lifeTime": 8.0
        },
        "move": {
            "$type": "FEJKPHBAIHP",
            "NOFDPFHMFNM": 30.0,
            "BLECDCEAOFM": {
                "$type": "HMFDMPDLMCJ"
            },
            "IFJAOJKFNIK": 40.0,
            "EPLFGAAFNIM": 10.0,
            "ECPHNBHDJEJ": 0.009999999776482582
        },
        "MNNPNOAELLI": {
            "$type": "AFPECAAHDNC",
            "collision": {
                "targetType": "Enemy"
            },
            "HDABNDJLLCO": [
                {
                    "$type": "HLFEAMOONEP",
                    "abilityName": "Monster_Fatuus_Maiden_WaterSpear_Normal"
                }
            ]
        }
    },
    "Fatuus_Maiden_WaterSpear_Power": {
        "$type": "IOHCOOOBCPH",
        "common": {
            "effectAttachShape": {
                "$type": "PBGINMMOLDC",
                "AOOMOJMAGMJ": 0.5,
                "IMLIDOCMEII": 0.5
            }
        },
        "combat": {
            "property": {
                "useCreatorProperty": true,
                "isLockHP": true,
                "ignorePurgeRate": false
            },
            "beHit": {
                "hitBloodEffect": "",
                "GKIOKIDJLCA": true,
                "JEPGCKHKDDD": true,
                "muteAllHitText": true
            },
            "combatLock": {
                "lockShape": "CircleLockEnemy",
                "denyLockOn": true,
                "lockType": "Default"
            }
        },
        "attackAttenuation": "",
        "abilities": [
            {
                "abilityID": "Damage",
                "abilityName": "Monster_Fatuus_Maiden_WaterSpear_Power",
                "abilityOverride": ""
            }
        ],
        "BDPGABAMMPP": {
            "lifeTime": 5.0
        },
        "move": {
            "$type": "MNCDFIAEMIA",
            "NOFDPFHMFNM": 10.0,
            "maxSpeed": 15.0,
            "minSpeed": 12.0,
            "NDLHJKADBGC": 1000.0,
            "BLECDCEAOFM": {
                "$type": "HMFDMPDLMCJ"
            },
            "NNDCMFPMIFK": 0.25,
            "JKPFKNHDNKE": 1000.0,
            "NIMNPPDBKIH": 0.800000011920929
        },
        "MNNPNOAELLI": {
            "$type": "AFPECAAHDNC",
            "collision": {
                "targetType": "Enemy"
            },
            "HDABNDJLLCO": [
                {
                    "$type": "HLFEAMOONEP",
                    "abilityName": "Monster_Fatuus_Maiden_WaterSpear_Power"
                }
            ]
        }
    },
    "Fatuus_Maiden_Water_DetectObj": {
        "$type": "IOHCOOOBCPH",
        "combat": {
            "property": {
                "useCreatorProperty": true,
                "HP": 99999.0,
                "isInvincible": true,
                "denyElementStick": true,
                "ignorePurgeRate": false
            },
            "beHit": {
                "hitBloodEffect": "",
                "GKIOKIDJLCA": true,
                "JEPGCKHKDDD": true,
                "muteAllHitText": true
            },
            "combatLock": {
                "lockShape": "CircleLockEnemy",
                "denyLockOn": true,
                "lockType": "Default"
            }
        },
        "attackAttenuation": "",
        "abilities": [
            {
                "abilityID": "Fatuus_Maiden_Detect",
                "abilityName": "Monster_Fatuus_Maiden_Water_DetectObj",
                "abilityOverride": ""
            }
        ],
        "BDPGABAMMPP": {
            "lifeTime": 5.0
        },
        "move": {
            "$type": "BELFBLEANMG",
            "BGKIHCPJBMO": {
                "muteAll": true
            },
            "target": "TargetEntity",
            "IIKEHINGEME": "",
            "ABIHJGPBBFD": true,
            "offset": {
                "y": 10.0
            },
            "IHAJOCLBEOK": ""
        }
    },
    "Fatuus_Maiden_Water_DetectLockObj": {
        "$type": "IOHCOOOBCPH",
        "combat": {
            "property": {
                "HP": 99999.0,
                "isInvincible": true,
                "denyElementStick": true,
                "ignorePurgeRate": false
            },
            "beHit": {
                "hitBloodEffect": "",
                "GKIOKIDJLCA": true,
                "JEPGCKHKDDD": true,
                "muteAllHitText": true
            },
            "combatLock": {
                "lockShape": "CircleLockEnemy",
                "denyLockOn": true,
                "lockType": "Default"
            }
        },
        "attackAttenuation": "",
        "abilities": [
            {
                "abilityID": "Fatuus_Maiden_Water_DetectLockObj",
                "abilityName": "Monster_Fatuus_Maiden_Water_DetectLockObj",
                "abilityOverride": ""
            }
        ],
        "BDPGABAMMPP": {
            "lifeTime": 600.0
        },
        "move": {
            "$type": "BELFBLEANMG",
            "BGKIHCPJBMO": {
                "muteAll": true
            },
            "target": "TargetEntity",
            "IIKEHINGEME": "",
            "ABIHJGPBBFD": true,
            "IHAJOCLBEOK": ""
        }
    },
    "Fatuus_Maiden_Water_DetectOnce": {
        "$type": "IOHCOOOBCPH",
        "combat": {
            "property": {
                "useCreatorProperty": true,
                "HP": 99999.0,
                "isInvincible": true,
                "denyElementStick": true,
                "ignorePurgeRate": false
            },
            "beHit": {
                "hitBloodEffect": "",
                "GKIOKIDJLCA": true,
                "JEPGCKHKDDD": true,
                "muteAllHitText": true
            },
            "combatLock": {
                "lockShape": "CircleLockEnemy",
                "denyLockOn": true,
                "lockType": "Default"
            }
        },
        "attackAttenuation": "",
        "abilities": [
            {
                "abilityID": "Fatuus_Maiden_Water_DetectOnce",
                "abilityName": "Monster_Fatuus_Maiden_Water_DetectOnceFollow",
                "abilityOverride": ""
            }
        ],
        "BDPGABAMMPP": {
            "lifeTime": 3.0
        },
        "move": {
            "$type": "BELFBLEANMG",
            "BGKIHCPJBMO": {
                "muteAll": true
            },
            "target": "TargetEntity",
            "IIKEHINGEME": "",
            "ABIHJGPBBFD": true,
            "IHAJOCLBEOK": ""
        }
    },
    "Fatuus_Maiden_Water_Capture": {
        "$type": "IOHCOOOBCPH",
        "combat": {
            "property": {
                "useCreatorProperty": true,
                "HP": 99999.0,
                "isInvincible": true,
                "denyElementStick": true,
                "ignorePurgeRate": false
            },
            "beHit": {
                "hitBloodEffect": "",
                "GKIOKIDJLCA": true,
                "JEPGCKHKDDD": true,
                "muteAllHitText": true
            },
            "combatLock": {
                "lockShape": "CircleLockEnemy",
                "denyLockOn": true,
                "lockType": "Default"
            }
        },
        "attackAttenuation": "",
        "abilities": [
            {
                "abilityID": "Fatuus_Maiden_Water_Capture",
                "abilityName": "Monster_Fatuus_Maiden_Water_Capture",
                "abilityOverride": ""
            }
        ],
        "BDPGABAMMPP": {
            "lifeTime": 5.300000190734863
        }
    },
    "Fatuus_Maiden_Water_BlinkGate": {
        "$type": "IOHCOOOBCPH",
        "combat": {
            "property": {
                "useCreatorProperty": true,
                "HP": 99999.0,
                "isInvincible": true,
                "denyElementStick": true,
                "ignorePurgeRate": false
            },
            "beHit": {
                "hitBloodEffect": "",
                "GKIOKIDJLCA": true,
                "JEPGCKHKDDD": true,
                "muteAllHitText": true
            },
            "combatLock": {
                "lockShape": "CircleLockEnemy",
                "denyLockOn": true,
                "lockType": "Default"
            }
        },
        "attackAttenuation": "",
        "abilities": [
            {
                "abilityID": "Fatuus_Maiden_Water_BlinkGate",
                "abilityName": "Monster_Fatuus_Maiden_Water_BlinkGate",
                "abilityOverride": ""
            }
        ],
        "BDPGABAMMPP": {
            "lifeTime": 4.300000190734863
        }
    },
    "Fatuus_Maiden_WaterTomb": {
        "$type": "IOHCOOOBCPH",
        "common": {
            "effectAttachShape": {
                "$type": "PBGINMMOLDC",
                "OBEFFBEFICB": 0.4000000059604645
            },
            "mass": 5.0,
            "affectedByWorld": true,
            "checkInSurface": true
        },
        "combat": {
            "property": {
                "useCreatorProperty": true,
                "HP": 1.0,
                "defense": 999999.0,
                "isLockHP": true,
                "denyElementStick": true
            },
            "combatLock": {
                "lockShape": "CircleLockEnemy",
                "denyLockOn": true,
                "lockType": "Default"
            }
        },
        "attackAttenuation": "",
        "abilities": [
            {
                "abilityID": "Monster_Fatuus_Maiden_WaterTomb_Damage",
                "abilityName": "Monster_Fatuus_Maiden_WaterTomb_Damage",
                "abilityOverride": ""
            }
        ],
        "BDPGABAMMPP": {
            "lifeTime": 5.0
        }
    },
    "Fatuus_Maiden_WaterTomb_LockEffect": {
        "$type": "IOHCOOOBCPH",
        "common": {
            "effectAttachShape": {
                "$type": "PBGINMMOLDC",
                "OBEFFBEFICB": 0.4000000059604645
            },
            "mass": 5.0,
            "affectedByWorld": true,
            "checkInSurface": true
        },
        "combat": {
            "property": {
                "useCreatorProperty": true,
                "HP": 1.0,
                "defense": 999999.0,
                "isLockHP": true,
                "canTriggerBullet": true,
                "denyElementStick": true
            },
            "combatLock": {
                "lockShape": "CircleLockEnemy",
                "denyLockOn": true,
                "lockType": "Default"
            }
        },
        "attackAttenuation": "",
        "abilities": [
            {
                "abilityID": "Monster_Fatuus_Maiden_WaterTomb_Lock",
                "abilityName": "Monster_Fatuus_Maiden_WaterTomb_Lock",
                "abilityOverride": ""
            }
        ],
        "BDPGABAMMPP": {
            "lifeTime": 2.0
        },
        "move": {
            "$type": "CPPNDCFKMLL",
            "BGKIHCPJBMO": {
                "excludeForces": [
                    "WindZoneType"
                ]
            },
            "NOFDPFHMFNM": 10.0,
            "PLBCKMMEAOC": true,
            "radius": 1.5,
            "HFFPPCEMOGJ": true,
            "LOFPGDFOCLJ": true
        }
    },
    "Fatuus_Maiden_Water_DieDeleteOBJ": {
        "$type": "IOHCOOOBCPH",
        "combat": {
            "property": {
                "HP": 99999.0,
                "isInvincible": true,
                "denyElementStick": true,
                "ignorePurgeRate": false
            },
            "beHit": {
                "hitBloodEffect": "",
                "GKIOKIDJLCA": true,
                "JEPGCKHKDDD": true,
                "muteAllHitText": true
            },
            "combatLock": {
                "lockShape": "CircleLockEnemy",
                "denyLockOn": true,
                "lockType": "Default"
            }
        },
        "attackAttenuation": "",
        "abilities": [
            {
                "abilityID": "Fatuus_Maiden_Water_DieDeleteOBJ",
                "abilityName": "Monster_Fatuus_Maiden_Water_DieDeleteOBJ",
                "abilityOverride": ""
            }
        ],
        "BDPGABAMMPP": {
            "lifeTime": 5.0
        }
    }
}