{
    "SceneObj_Level_Common_Property_Ani_Prop_MuticharacterOperator_01": {
        "$type": "IOHCOOOBCPH",
        "model": {
            "bornEffect": "",
            "attachEffect": "Eff_Gear_ElementDungeon_Operator"
        },
        "KNGBEDDABOM": true,
        "attackAttenuation": "default",
        "abilities": [
            {
                "abilityID": "",
                "abilityName": "SceneObj_Level_Common_Property_Ani_Prop_MuticharacterOperator_01_Ability",
                "abilityOverride": ""
            }
        ],
        "JJENAKLGBNC": {
            "BGJCIKIOCLM": "UI/open_MultiCharacter_Team_Page",
            "ALEGNEJBLAF": "",
            "OAJHCMOLIDM": [
                "HOST"
            ],
            "icon": "",
            "KKMMGKBKLNB": "",
            "GEDPHHDMFAD": "",
            "NIBCCLBLADB": ""
        },
        "DDOEFBHBEPJ": {
            "HGJJHLBEICG": "",
            "DDNOEPFCCDC": true,
            "GCKPCNOBEHG": 2.0
        },
        "NEPNGCGEAOL": {
            "MJDNEHMOFEA": [
                {
                    "$type": "FHCNELPNCPL",
                    "intID": "gadgetState",
                    "EBNFFBOBCHB": true
                },
                {
                    "$type": "DLMIEELFJNB",
                    "parameter": "gadgetState",
                    "type": "Int",
                    "healLimitedByCasterMaxHPRatio": "Eff_Gear_ElementDungeon_Operator"
                },
                {
                    "$type": "DLMIEELFJNB",
                    "GEBLEANKIHJ": "GearStop",
                    "parameter": "gadgetState",
                    "type": "Int",
                    "value": 202,
                    "healLimitedByCasterMaxHPRatio": "Eff_Gear_ElementDungeon_Operator"
                },
                {
                    "$type": "COKKJJJPMOP",
                    "enable": true
                },
                {
                    "$type": "COKKJJJPMOP",
                    "GEBLEANKIHJ": "GearStop"
                }
            ]
        }
    },
    "SceneObj_Ticket_Chest_Locked_Lv1": {
        "$type": "IOHCOOOBCPH",
        "model": {
            "bornEffect": "Eff_Item_SpecialTreasureBox_Born",
            "attachEffect": ""
        },
        "KNGBEDDABOM": true,
        "combat": {
            "property": {
                "HP": 99999.0,
                "weight": 50.0,
                "isLockHP": true,
                "ignorePurgeRate": false
            },
            "beHit": {
                "hitBloodEffect": "",
                "GKIOKIDJLCA": true
            },
            "combatLock": {
                "lockShape": "CircleLockEnemy",
                "denyLockOn": true,
                "lockType": "Gadget_Lv1"
            },
            "die": {
                "dieEndTime": 4.800000190734863,
                "dieForceDisappearTime": 4.800000190734863,
                "dieDisappearEffect": "",
                "dieShaderData": "GadgetDie",
                "dieModelFadeDelay": 3.0
            }
        },
        "attackAttenuation": "",
        "abilities": [
            {
                "abilityID": "Ability_01",
                "abilityName": "SceneObj_Ticket_Chest_Open_Eff_Lv1",
                "abilityOverride": ""
            }
        ],
        "JJENAKLGBNC": {
            "BGJCIKIOCLM": "TEST/TEST_Chest_Btn",
            "ALEGNEJBLAF": "",
            "JHAIJNHCFPC": "NormalChest",
            "icon": "",
            "KKMMGKBKLNB": "",
            "GEDPHHDMFAD": "",
            "NIBCCLBLADB": ""
        },
        "DDOEFBHBEPJ": {
            "AFCFPBCEJKH": {
                "DOIONKMFNCD": "Eff_Chest_Open_Continuous_LV1",
                "JJMOPLIBACL": true
            },
            "PKABANPMJCL": {
                "bornEffect": "",
                "HBAJPKPHOMN": "",
                "DKDLKFDICEM": ""
            },
            "HGJJHLBEICG": "",
            "JCBHMPCFFDI": 1.149999976158142
        },
        "stateLayers": {
            "defaultLayer": {
                "$type": "KFHJINNNDPN",
                "BOPIBFKFKCA": "",
                "stateIDs": {
                    "All": {
                        "$type": "ILLKEGMDAEF",
                        "HKPCLGHBKFD": {
                            "Default": [],
                            "ChestOpen": [
                                "Audio_SceneObj_Item_Treasurebox01_102_ChestOpen"
                            ],
                            "Unlock_State": [
                                "Chest_Unlock"
                            ]
                        }
                    },
                    "Lock": {
                        "$type": "ILLKEGMDAEF",
                        "HKPCLGHBKFD": {
                            "Special_State": [
                                "Chest_Lock"
                            ]
                        }
                    }
                }
            }
        },
        "NEPNGCGEAOL": {
            "MJDNEHMOFEA": [
                {
                    "$type": "COKKJJJPMOP",
                    "enable": true
                },
                {
                    "$type": "FHCNELPNCPL",
                    "intID": "ChestState",
                    "value": 1
                },
                {
                    "$type": "COKKJJJPMOP",
                    "GEBLEANKIHJ": "ChestLocked"
                },
                {
                    "$type": "FHCNELPNCPL",
                    "GEBLEANKIHJ": "ChestLocked",
                    "intID": "ChestState"
                }
            ]
        }
    },
    "SceneObj_Ticket_Chest_Locked_Lv2": {
        "$type": "IOHCOOOBCPH",
        "model": {
            "bornEffect": "Eff_Item_SpecialTreasureBox_Born",
            "attachEffect": ""
        },
        "KNGBEDDABOM": true,
        "combat": {
            "property": {
                "HP": 99999.0,
                "weight": 50.0,
                "isLockHP": true,
                "ignorePurgeRate": false
            },
            "beHit": {
                "hitBloodEffect": "",
                "GKIOKIDJLCA": true
            },
            "combatLock": {
                "lockShape": "CircleLockEnemy",
                "denyLockOn": true,
                "lockType": "Gadget_Lv1"
            },
            "die": {
                "dieEndTime": 4.800000190734863,
                "dieForceDisappearTime": 4.800000190734863,
                "dieDisappearEffect": "",
                "dieShaderData": "GadgetDie",
                "dieModelFadeDelay": 3.0
            }
        },
        "attackAttenuation": "",
        "abilities": [
            {
                "abilityID": "Ability_01",
                "abilityName": "SceneObj_Ticket_Chest_Open_Eff_Lv2",
                "abilityOverride": ""
            }
        ],
        "JJENAKLGBNC": {
            "BGJCIKIOCLM": "TEST/TEST_Chest_Btn",
            "ALEGNEJBLAF": "",
            "JHAIJNHCFPC": "NormalChest",
            "icon": "",
            "KKMMGKBKLNB": "",
            "GEDPHHDMFAD": "",
            "NIBCCLBLADB": ""
        },
        "DDOEFBHBEPJ": {
            "AFCFPBCEJKH": {
                "DOIONKMFNCD": "Eff_Chest_Open_Continuous_LV2",
                "JJMOPLIBACL": true
            },
            "PKABANPMJCL": {
                "bornEffect": "",
                "HBAJPKPHOMN": "",
                "DKDLKFDICEM": ""
            },
            "HGJJHLBEICG": "",
            "JCBHMPCFFDI": 1.350000023841858
        },
        "stateLayers": {
            "defaultLayer": {
                "$type": "KFHJINNNDPN",
                "BOPIBFKFKCA": "",
                "stateIDs": {
                    "All": {
                        "$type": "ILLKEGMDAEF",
                        "HKPCLGHBKFD": {
                            "Default": [],
                            "ChestOpen": [
                                "Audio_SceneObj_Item_Treasurebox01_102_ChestOpen"
                            ],
                            "Unlock_State": [
                                "Chest_Unlock"
                            ]
                        }
                    },
                    "Lock": {
                        "$type": "ILLKEGMDAEF",
                        "HKPCLGHBKFD": {
                            "Special_State": [
                                "Chest_Lock"
                            ]
                        }
                    }
                }
            }
        },
        "NEPNGCGEAOL": {
            "MJDNEHMOFEA": [
                {
                    "$type": "COKKJJJPMOP",
                    "enable": true
                },
                {
                    "$type": "FHCNELPNCPL",
                    "intID": "ChestState",
                    "value": 1
                },
                {
                    "$type": "COKKJJJPMOP",
                    "GEBLEANKIHJ": "ChestLocked"
                },
                {
                    "$type": "FHCNELPNCPL",
                    "GEBLEANKIHJ": "ChestLocked",
                    "intID": "ChestState"
                }
            ]
        }
    },
    "SceneObj_Ticket_Chest_Locked_Lv4": {
        "$type": "IOHCOOOBCPH",
        "model": {
            "bornEffect": "Eff_Item_SpecialTreasureBox_Born",
            "attachEffect": ""
        },
        "KNGBEDDABOM": true,
        "combat": {
            "property": {
                "HP": 99999.0,
                "weight": 50.0,
                "isLockHP": true,
                "ignorePurgeRate": false
            },
            "beHit": {
                "hitBloodEffect": "",
                "GKIOKIDJLCA": true
            },
            "combatLock": {
                "lockShape": "CircleLockEnemy",
                "denyLockOn": true,
                "lockType": "Gadget_Lv1"
            },
            "die": {
                "dieEndTime": 4.800000190734863,
                "dieForceDisappearTime": 4.800000190734863,
                "dieDisappearEffect": "",
                "dieShaderData": "GadgetDie",
                "dieModelFadeDelay": 3.0
            }
        },
        "attackAttenuation": "",
        "abilities": [
            {
                "abilityID": "Ability_01",
                "abilityName": "SceneObj_Ticket_Chest_Open_Eff_Lv4",
                "abilityOverride": ""
            }
        ],
        "JJENAKLGBNC": {
            "BGJCIKIOCLM": "TEST/TEST_Chest_Btn",
            "ALEGNEJBLAF": "",
            "JHAIJNHCFPC": "NormalChest",
            "icon": "",
            "KKMMGKBKLNB": "",
            "GEDPHHDMFAD": "",
            "NIBCCLBLADB": ""
        },
        "DDOEFBHBEPJ": {
            "AFCFPBCEJKH": {
                "DOIONKMFNCD": "Eff_Chest_Open_Continuous_LV4",
                "JJMOPLIBACL": true
            },
            "PKABANPMJCL": {
                "bornEffect": "",
                "HBAJPKPHOMN": "",
                "DKDLKFDICEM": ""
            },
            "HGJJHLBEICG": "",
            "JCBHMPCFFDI": 1.7000000476837158
        },
        "stateLayers": {
            "defaultLayer": {
                "$type": "KFHJINNNDPN",
                "BOPIBFKFKCA": "",
                "stateIDs": {
                    "All": {
                        "$type": "ILLKEGMDAEF",
                        "HKPCLGHBKFD": {
                            "Default": [],
                            "ChestOpen": [
                                "Audio_SceneObj_Item_Treasurebox01_102_ChestOpen"
                            ],
                            "Unlock_State": [
                                "Chest_Unlock"
                            ]
                        }
                    },
                    "Lock": {
                        "$type": "ILLKEGMDAEF",
                        "HKPCLGHBKFD": {
                            "Special_State": [
                                "Chest_Lock"
                            ]
                        }
                    }
                }
            }
        },
        "NEPNGCGEAOL": {
            "MJDNEHMOFEA": [
                {
                    "$type": "COKKJJJPMOP",
                    "enable": true
                },
                {
                    "$type": "FHCNELPNCPL",
                    "intID": "ChestState",
                    "value": 1
                },
                {
                    "$type": "COKKJJJPMOP",
                    "GEBLEANKIHJ": "ChestLocked"
                },
                {
                    "$type": "FHCNELPNCPL",
                    "GEBLEANKIHJ": "ChestLocked",
                    "intID": "ChestState"
                }
            ]
        }
    },
    "SceneObj_Ticket_Chest_Locked_Lv5": {
        "$type": "IOHCOOOBCPH",
        "model": {
            "bornEffect": "Eff_Item_SpecialTreasureBox_Born",
            "attachEffect": ""
        },
        "KNGBEDDABOM": true,
        "combat": {
            "property": {
                "HP": 99999.0,
                "weight": 50.0,
                "isLockHP": true,
                "ignorePurgeRate": false
            },
            "beHit": {
                "hitBloodEffect": "",
                "GKIOKIDJLCA": true
            },
            "combatLock": {
                "lockShape": "CircleLockEnemy",
                "denyLockOn": true,
                "lockType": "Gadget_Lv1"
            },
            "die": {
                "dieEndTime": 4.800000190734863,
                "dieForceDisappearTime": 4.800000190734863,
                "dieDisappearEffect": "",
                "dieShaderData": "GadgetDie",
                "dieModelFadeDelay": 3.0
            }
        },
        "attackAttenuation": "",
        "abilities": [
            {
                "abilityID": "Ability_01",
                "abilityName": "SceneObj_Ticket_Chest_Open_Eff_Lv5",
                "abilityOverride": ""
            }
        ],
        "JJENAKLGBNC": {
            "BGJCIKIOCLM": "TEST/TEST_Chest_Btn",
            "ALEGNEJBLAF": "",
            "JHAIJNHCFPC": "NormalChest",
            "icon": "",
            "KKMMGKBKLNB": "",
            "GEDPHHDMFAD": "",
            "NIBCCLBLADB": ""
        },
        "DDOEFBHBEPJ": {
            "AFCFPBCEJKH": {
                "DOIONKMFNCD": "Eff_Chest_Open_Continuous_LV5",
                "JJMOPLIBACL": true
            },
            "PKABANPMJCL": {
                "bornEffect": "",
                "HBAJPKPHOMN": "",
                "DKDLKFDICEM": ""
            },
            "HGJJHLBEICG": "",
            "JCBHMPCFFDI": 1.5499999523162842
        },
        "stateLayers": {
            "defaultLayer": {
                "$type": "KFHJINNNDPN",
                "BOPIBFKFKCA": "",
                "stateIDs": {
                    "All": {
                        "$type": "ILLKEGMDAEF",
                        "HKPCLGHBKFD": {
                            "Default": [],
                            "ChestOpen": [
                                "Audio_SceneObj_Item_Treasurebox01_102_ChestOpen"
                            ],
                            "Unlock_State": [
                                "Chest_Unlock"
                            ]
                        }
                    },
                    "Lock": {
                        "$type": "ILLKEGMDAEF",
                        "HKPCLGHBKFD": {
                            "Special_State": [
                                "Chest_Lock"
                            ]
                        }
                    }
                }
            }
        },
        "NEPNGCGEAOL": {
            "MJDNEHMOFEA": [
                {
                    "$type": "COKKJJJPMOP",
                    "enable": true
                },
                {
                    "$type": "FHCNELPNCPL",
                    "intID": "ChestState",
                    "value": 1
                },
                {
                    "$type": "COKKJJJPMOP",
                    "GEBLEANKIHJ": "ChestLocked"
                },
                {
                    "$type": "FHCNELPNCPL",
                    "GEBLEANKIHJ": "ChestLocked",
                    "intID": "ChestState"
                }
            ]
        }
    },
    "SceneObj_Gather_Ticket_Box_3_8": {
        "$type": "IOHCOOOBCPH",
        "model": {
            "bornEffect": "",
            "attachEffect": ""
        },
        "KNGBEDDABOM": true,
        "combat": {
            "property": {
                "HP": 99999.0,
                "weight": 50.0,
                "isInvincible": true,
                "isLockHP": true,
                "ignorePurgeRate": false
            },
            "beHit": {
                "hitBloodEffect": "",
                "hitAutoRedirect": false,
                "GKIOKIDJLCA": true,
                "JEPGCKHKDDD": true,
                "muteAllHitText": true
            },
            "combatLock": {
                "lockShape": "CircleLockEnemy",
                "denyLockOn": true,
                "lockType": "Gadget_Lv1"
            },
            "die": {
                "dieEndTime": 2.0,
                "dieForceDisappearTime": 2.0,
                "dieDisappearEffect": ""
            }
        },
        "attackAttenuation": "",
        "abilities": [
            {
                "abilityID": "Ability_01",
                "abilityName": "SceneObj_Gather_Ticket_Box_3_8",
                "abilityOverride": ""
            }
        ],
        "DDOEFBHBEPJ": {
            "PKABANPMJCL": {
                "EHGGNLFEJLK": "AutoSelect",
                "DALPHLBLMHD": true,
                "bornEffect": "",
                "HBAJPKPHOMN": "",
                "DKDLKFDICEM": ""
            },
            "HGJJHLBEICG": ""
        },
        "KOBGNKGMHNB": true
    },
    "SceneObj_Gather_Fake_Ticket_Box_3_8": {
        "$type": "IOHCOOOBCPH",
        "model": {
            "bornEffect": "",
            "attachEffect": ""
        },
        "KNGBEDDABOM": true,
        "attackAttenuation": "",
        "abilities": [
            {
                "abilityID": "Ability_01",
                "abilityName": "SceneObj_Gather_Fake_Ticket_Box_3_8",
                "abilityOverride": ""
            }
        ],
        "DDOEFBHBEPJ": {
            "HGJJHLBEICG": ""
        },
        "audio": {
            "$type": "IGNGMHPHOEP",
            "LKJIHNLBIJL": "",
            "animAudio": {},
            "initEvent": {
                "text": "Play_amb_sceneObj_item_windCrystal_idle"
            },
            "disableEvent": {
                "text": "Stop_amb_sceneObj_item_windCrystal_idle"
            },
            "destroyEvent": {
                "text": "Stop_amb_sceneObj_item_windCrystal_idle"
            }
        },
        "KOBGNKGMHNB": true,
        "JBAPPNCCMLH": true
    },
    "SceneObj_Gather_Ticket_Box_Fly_3_8": {
        "$type": "IOHCOOOBCPH",
        "model": {
            "bornEffect": "",
            "attachEffect": "Eff_SceneObj_PenumbraTicket_Fly_01"
        },
        "KNGBEDDABOM": true,
        "attackAttenuation": "",
        "abilities": [
            {
                "abilityID": "Ability_01",
                "abilityName": "SceneObj_Gather_Ticket_Box_Fly_3_8",
                "abilityOverride": ""
            }
        ]
    }
}