{
    "SceneObj_GrassDragon_ProtectObj": {
        "$type": "IOHCOOOBCPH",
        "common": {
            "disableTickDistance": 100000.0
        },
        "globalValue": {
            "serverGlobalValues": [
                "SGV_GrassDragon_CUR_PROGRESS",
                "SGV_On_Progress_Up"
            ],
            "CCKNHEFGCPP": {
                "SGV_GrassDragon_CUR_PROGRESS": 0.0,
                "SGV_On_Progress_Up": 0.0
            }
        },
        "KNGBEDDABOM": true,
        "combat": {
            "property": {
                "HP": 1000.0,
                "attack": 100.0,
                "weight": 50.0,
                "isInvincible": true,
                "isLockHP": true
            },
            "beHit": {
                "hitBloodEffect": "",
                "hitAutoRedirect": false,
                "GKIOKIDJLCA": true,
                "JEPGCKHKDDD": true,
                "muteAllHitText": true
            },
            "combatLock": {
                "lockShape": "CircleLockEnemy",
                "denyLockOn": true,
                "lockType": "Gadget_Lv1"
            },
            "die": {
                "dieForceDisappearTime": 0.10000000149011612,
                "dieDisappearEffect": ""
            }
        },
        "attackAttenuation": "",
        "abilities": [
            {
                "abilityID": "SceneObj_GrassDragon_ProtectObj",
                "abilityName": "SceneObj_GrassDragon_ProtectObj",
                "abilityOverride": ""
            },
            {
                "abilityID": "Ability_02",
                "abilityName": "Scene_RockGadget_Summon_Detect",
                "abilityOverride": ""
            }
        ],
        "stateLayers": {
            "defaultLayer": {
                "$type": "KFHJINNNDPN",
                "BOPIBFKFKCA": "",
                "stateIDs": {
                    "TurnToLand": {
                        "$type": "ILLKEGMDAEF",
                        "HKPCLGHBKFD": {
                            "TurnToLand": []
                        },
                        "BGJDNIJICNM": true
                    }
                }
            }
        },
        "NEPNGCGEAOL": {
            "MJDNEHMOFEA": [
                {
                    "$type": "FHCNELPNCPL",
                    "intID": "GadgetState",
                    "EBNFFBOBCHB": true
                }
            ]
        }
    },
    "SceneObj_GrassDragon_Vine_Up": {
        "$type": "IOHCOOOBCPH",
        "common": {
            "disableTickDistance": 100000.0
        },
        "KNGBEDDABOM": true,
        "combat": {
            "property": {
                "HP": 1000.0,
                "attack": 100.0,
                "weight": 50.0,
                "isInvincible": true,
                "isLockHP": true,
                "canTriggerBullet": true
            },
            "beHit": {
                "hitBloodEffect": "",
                "hitAutoRedirect": false,
                "GKIOKIDJLCA": true,
                "JEPGCKHKDDD": true,
                "muteAllHitText": true
            },
            "combatLock": {
                "lockShape": "CircleLockEnemy",
                "denyLockOn": true,
                "lockType": "Gadget_Lv1"
            },
            "die": {
                "dieForceDisappearTime": 0.10000000149011612,
                "dieDisappearEffect": ""
            }
        },
        "attackAttenuation": "",
        "abilities": [
            {
                "abilityID": "SceneObj_GrassDragon_Vine_Up",
                "abilityName": "SceneObj_GrassDragon_Vine_Up",
                "abilityOverride": ""
            }
        ],
        "NEPNGCGEAOL": {
            "MJDNEHMOFEA": [
                {
                    "$type": "FHCNELPNCPL",
                    "intID": "GadgetState",
                    "EBNFFBOBCHB": true
                }
            ]
        }
    },
    "SceneObj_GrassDragon_StoryNotify": {
        "$type": "IOHCOOOBCPH",
        "common": {
            "disableTickDistance": 100000.0
        },
        "KNGBEDDABOM": true,
        "combat": {
            "property": {
                "HP": 1000.0,
                "attack": 100.0,
                "weight": 50.0,
                "isInvincible": true,
                "isLockHP": true,
                "canTriggerBullet": true
            },
            "beHit": {
                "hitBloodEffect": "",
                "hitAutoRedirect": false,
                "GKIOKIDJLCA": true,
                "JEPGCKHKDDD": true,
                "muteAllHitText": true
            },
            "combatLock": {
                "lockShape": "CircleLockEnemy",
                "denyLockOn": true,
                "lockType": "Gadget_Lv1"
            },
            "die": {
                "dieForceDisappearTime": 0.10000000149011612,
                "dieDisappearEffect": ""
            }
        },
        "attackAttenuation": "",
        "abilities": [
            {
                "abilityID": "SceneObj_GrassDragon_StoryNotify",
                "abilityName": "SceneObj_GrassDragon_StoryNotify",
                "abilityOverride": ""
            }
        ]
    },
    "SceneObj_GrassDragon_StageChange_12_Cam": {
        "$type": "IOHCOOOBCPH",
        "common": {
            "disableTickDistance": 100000.0
        },
        "KNGBEDDABOM": true,
        "combat": {
            "property": {
                "HP": 1000.0,
                "attack": 100.0,
                "weight": 50.0,
                "isInvincible": true,
                "isLockHP": true,
                "canTriggerBullet": true
            },
            "beHit": {
                "hitBloodEffect": "",
                "hitAutoRedirect": false,
                "GKIOKIDJLCA": true,
                "JEPGCKHKDDD": true,
                "muteAllHitText": true
            },
            "combatLock": {
                "lockShape": "CircleLockEnemy",
                "denyLockOn": true,
                "lockType": "Gadget_Lv1"
            },
            "die": {
                "dieForceDisappearTime": 0.10000000149011612,
                "dieDisappearEffect": ""
            }
        },
        "attackAttenuation": "",
        "abilities": [
            {
                "abilityID": "SceneObj_GrassDragon_StageChange_12_Cam",
                "abilityName": "SceneObj_GrassDragon_StageChange_12_Cam",
                "abilityOverride": ""
            }
        ]
    },
    "SceneObj_GrassDragon_Music": {
        "$type": "IOHCOOOBCPH",
        "common": {
            "disableTickDistance": 100000.0
        },
        "KNGBEDDABOM": true,
        "combat": {
            "property": {
                "HP": 1000.0,
                "attack": 100.0,
                "weight": 50.0,
                "isInvincible": true,
                "isLockHP": true,
                "canTriggerBullet": true
            },
            "beHit": {
                "hitBloodEffect": "",
                "hitAutoRedirect": false,
                "GKIOKIDJLCA": true,
                "JEPGCKHKDDD": true,
                "muteAllHitText": true
            },
            "combatLock": {
                "lockShape": "CircleLockEnemy",
                "denyLockOn": true,
                "lockType": "Gadget_Lv1"
            },
            "die": {
                "dieForceDisappearTime": 0.10000000149011612,
                "dieDisappearEffect": ""
            }
        },
        "attackAttenuation": "",
        "abilities": [
            {
                "abilityID": "SceneObj_GrassDragon_Music",
                "abilityName": "SceneObj_GrassDragon_Music",
                "abilityOverride": ""
            }
        ]
    },
    "SceneObj_GrassDragon_Protect_Gel": {
        "$type": "IOHCOOOBCPH",
        "common": {
            "disableTickDistance": 100000.0
        },
        "globalValue": {
            "serverGlobalValues": [
                "SGV_GrassDragon_CUR_PROGRESS"
            ]
        },
        "KNGBEDDABOM": true,
        "combat": {
            "property": {
                "HP": 1000.0,
                "attack": 100.0,
                "weight": 50.0,
                "isInvincible": true,
                "isLockHP": true
            },
            "beHit": {
                "hitBloodEffect": "",
                "hitAutoRedirect": false,
                "GKIOKIDJLCA": true,
                "JEPGCKHKDDD": true,
                "muteAllHitText": true
            },
            "combatLock": {
                "lockShape": "CircleLockEnemy",
                "denyLockOn": true,
                "lockType": "Gadget_Lv1"
            },
            "die": {
                "dieForceDisappearTime": 0.10000000149011612,
                "dieDisappearEffect": ""
            }
        },
        "attackAttenuation": "",
        "abilities": [
            {
                "abilityID": "SceneObj_GrassDragon_Protect_Gel",
                "abilityName": "SceneObj_GrassDragon_Protect_Gel",
                "abilityOverride": ""
            }
        ],
        "stateLayers": {
            "defaultLayer": {
                "$type": "KFHJINNNDPN",
                "BOPIBFKFKCA": "",
                "stateIDs": {
                    "TurnToLand": {
                        "$type": "ILLKEGMDAEF",
                        "HKPCLGHBKFD": {
                            "TurnToLand": []
                        },
                        "BGJDNIJICNM": true
                    }
                }
            }
        },
        "NEPNGCGEAOL": {
            "MJDNEHMOFEA": [
                {
                    "$type": "FHCNELPNCPL",
                    "intID": "GadgetState",
                    "EBNFFBOBCHB": true
                }
            ]
        }
    }
}