{
    "Candace_ExtraAttack_Bullet": {
        "$type": "IOHCOOOBCPH",
        "common": {
            "effectAttachShape": {
                "$type": "PBGINMMOLDC"
            }
        },
        "combat": {
            "property": {
                "useCreatorProperty": true,
                "isInvincible": true,
                "ignorePurgeRate": false
            },
            "beHit": {
                "hitBloodEffect": "",
                "GKIOKIDJLCA": true,
                "JEPGCKHKDDD": true,
                "muteAllHitText": true
            },
            "combatLock": {
                "lockShape": "CircleLockEnemy",
                "denyLockOn": true,
                "lockType": "Default"
            }
        },
        "attackAttenuation": "",
        "abilities": [
            {
                "abilityID": "Bullet_Candace_ExtraAttack_Bullet",
                "abilityName": "Bullet_Candace_ExtraAttack_Bullet",
                "abilityOverride": ""
            }
        ],
        "BDPGABAMMPP": {
            "lifeTime": 0.5
        },
        "move": {
            "$type": "BELFBLEANMG",
            "IIKEHINGEME": "",
            "ABIHJGPBBFD": true,
            "offset": {
                "y": 0.8999999761581421
            },
            "KFIHIDEPLKH": {
                "z": 1.0
            },
            "IHAJOCLBEOK": ""
        },
        "MNNPNOAELLI": {
            "$type": "AFPECAAHDNC",
            "collision": {
                "ccd": {
                    "type": "Always"
                },
                "triggerType": "TriggerNoRepeat",
                "targetType": "Enemy",
                "ignoreScene": true
            },
            "HDABNDJLLCO": [
                {
                    "$type": "HLFEAMOONEP",
                    "abilityName": "Bullet_Candace_ExtraAttack_Bullet"
                }
            ]
        }
    },
    "Candace_ElementalBurst_WaterField": {
        "$type": "IOHCOOOBCPH",
        "combat": {
            "property": {
                "useCreatorProperty": true,
                "isInvincible": true,
                "canTriggerBullet": true,
                "denyElementStick": true
            },
            "beHit": {
                "hitBloodEffect": "",
                "GKIOKIDJLCA": true,
                "JEPGCKHKDDD": true,
                "muteAllHitText": true
            },
            "combatLock": {
                "lockShape": "CircleLockEnemy",
                "denyLockOn": true,
                "lockType": "Default"
            }
        },
        "attackAttenuation": "",
        "BDPGABAMMPP": {
            "lifeTime": 15.0
        },
        "move": {
            "$type": "BELFBLEANMG",
            "IIKEHINGEME": "RootNode",
            "IHAJOCLBEOK": ""
        }
    }
}