{
    "Absorb_CrabShield_Hitbox": {
        "$type": "IOHCOOOBCPH",
        "common": {
            "effectAttachShape": {
                "$type": "PBGINMMOLDC"
            }
        },
        "combat": {
            "property": {
                "useCreatorProperty": true,
                "HP": 999999.0,
                "isLockHP": true,
                "ignoreDamageToSelf": true
            },
            "beHit": {
                "hitBloodEffect": ""
            },
            "combatLock": {
                "lockShape": "CircleLockEnemy",
                "denyLockOn": true,
                "lockType": "Gadget_Lv1"
            },
            "die": {
                "dieEndTime": 0.5,
                "dieForceDisappearTime": 0.5,
                "dieDisappearEffect": ""
            }
        },
        "attackAttenuation": "",
        "abilities": [
            {
                "abilityID": "Avatar_Dive_CrabShield_HitBox",
                "abilityName": "Avatar_Dive_CrabShield_HitBox",
                "abilityOverride": ""
            }
        ],
        "BDPGABAMMPP": {
            "lifeTime": 1.5
        },
        "move": {
            "$type": "BELFBLEANMG",
            "IIKEHINGEME": "",
            "ABIHJGPBBFD": true,
            "KFIHIDEPLKH": {
                "z": 1.0
            },
            "EMDHMEDHGPE": true,
            "KEDHAOHPJKL": true,
            "IHAJOCLBEOK": ""
        },
        "HCBLOAEFFEC": true
    },
    "Absorb_CrabShield_Hitbox_Long": {
        "$type": "IOHCOOOBCPH",
        "common": {
            "effectAttachShape": {
                "$type": "PBGINMMOLDC"
            }
        },
        "combat": {
            "property": {
                "useCreatorProperty": true,
                "HP": 999999.0,
                "isLockHP": true,
                "ignoreDamageToSelf": true
            },
            "beHit": {
                "hitBloodEffect": ""
            },
            "combatLock": {
                "lockShape": "CircleLockEnemy",
                "denyLockOn": true,
                "lockType": "Gadget_Lv1"
            },
            "die": {
                "dieEndTime": 0.5,
                "dieForceDisappearTime": 0.5,
                "dieDisappearEffect": ""
            }
        },
        "attackAttenuation": "",
        "abilities": [
            {
                "abilityID": "Avatar_Dive_CrabShield_HitBox",
                "abilityName": "Avatar_Dive_CrabShield_HitBox",
                "abilityOverride": ""
            }
        ],
        "BDPGABAMMPP": {
            "lifeTime": 10.0
        },
        "move": {
            "$type": "CJBKMBOOPHF",
            "NOFDPFHMFNM": 15.0,
            "maxSpeed": 20.0,
            "minSpeed": 15.0,
            "EILJBCHMAIH": 5.0
        },
        "HCBLOAEFFEC": true
    },
    "Absorb_CrabShield_Back_Bullet_01": {
        "$type": "IOHCOOOBCPH",
        "common": {
            "effectAttachShape": {
                "$type": "PBGINMMOLDC",
                "OBEFFBEFICB": 0.4000000059604645
            }
        },
        "combat": {
            "property": {
                "useCreatorProperty": true,
                "HP": 999999.0,
                "defense": 999999.0,
                "isInvincible": true,
                "isLockHP": true,
                "canTriggerBullet": true,
                "denyElementStick": true
            },
            "beHit": {
                "hitBloodEffect": "",
                "GKIOKIDJLCA": true,
                "JEPGCKHKDDD": true,
                "muteAllHitText": true
            },
            "combatLock": {
                "lockShape": "CircleLockEnemy",
                "denyLockOn": true,
                "lockType": "Default"
            }
        },
        "attackAttenuation": "",
        "abilities": [
            {
                "abilityID": "Absorb_CrabShield_Back_Bullet_01",
                "abilityName": "Absorb_CrabShield_Back_Bullet_01",
                "abilityOverride": ""
            }
        ],
        "BDPGABAMMPP": {
            "lifeTime": 5.0
        },
        "move": {
            "$type": "EHIGOGOLKOO",
            "BGKIHCPJBMO": {
                "muteAll": true
            },
            "NOFDPFHMFNM": 20.0,
            "maxSpeed": 20.0,
            "EILJBCHMAIH": 5.0,
            "BLECDCEAOFM": {
                "$type": "HMFDMPDLMCJ"
            },
            "PEDAEPACCIK": {
                "MMNBGLNBDMP": true
            },
            "HFFPPCEMOGJ": true
        },
        "MNNPNOAELLI": {
            "$type": "AFPECAAHDNC",
            "collision": {
                "targetType": "Enemy",
                "ignoreWater": true
            },
            "HDABNDJLLCO": [
                {
                    "$type": "HLFEAMOONEP",
                    "abilityName": "Absorb_CrabShield_Back_Bullet_01"
                }
            ],
            "MHOEMLCBJOO": [
                {
                    "$type": "HLFEAMOONEP",
                    "abilityName": "Absorb_CrabShield_Back_Bullet_01"
                }
            ],
            "GOMGCHKCHKI": true,
            "CBHACCCJFPI": 0.5,
            "CHIILEPJCLG": true
        }
    },
    "Absorb_CrabShield_Back_Bullet_02": {
        "$type": "IOHCOOOBCPH",
        "common": {
            "effectAttachShape": {
                "$type": "PBGINMMOLDC",
                "OBEFFBEFICB": 0.4000000059604645
            }
        },
        "combat": {
            "property": {
                "useCreatorProperty": true,
                "HP": 999999.0,
                "defense": 999999.0,
                "isInvincible": true,
                "isLockHP": true
            },
            "beHit": {
                "hitBloodEffect": "",
                "GKIOKIDJLCA": true,
                "JEPGCKHKDDD": true,
                "muteAllHitText": true
            },
            "combatLock": {
                "lockShape": "CircleLockEnemy",
                "denyLockOn": true,
                "lockType": "Default"
            }
        },
        "attackAttenuation": "",
        "abilities": [
            {
                "abilityID": "Absorb_CrabShield_Back_Bullet_01",
                "abilityName": "Absorb_CrabShield_Back_Bullet_01",
                "abilityOverride": ""
            }
        ],
        "BDPGABAMMPP": {
            "lifeTime": 5.0
        },
        "move": {
            "$type": "CJBKMBOOPHF",
            "BGKIHCPJBMO": {
                "muteAll": true
            },
            "NOFDPFHMFNM": 20.0,
            "maxSpeed": 20.0,
            "minSpeed": 15.0,
            "EILJBCHMAIH": 5.0,
            "PEDAEPACCIK": {
                "MMNBGLNBDMP": true
            }
        },
        "MNNPNOAELLI": {
            "$type": "AFPECAAHDNC",
            "collision": {
                "targetType": "Enemy",
                "ignoreWater": true
            },
            "HDABNDJLLCO": [
                {
                    "$type": "HLFEAMOONEP",
                    "abilityName": "Absorb_CrabShield_Back_Bullet_01"
                }
            ],
            "MHOEMLCBJOO": [
                {
                    "$type": "HLFEAMOONEP",
                    "abilityName": "Absorb_CrabShield_Back_Bullet_01"
                }
            ],
            "GOMGCHKCHKI": true,
            "CBHACCCJFPI": 0.5,
            "CHIILEPJCLG": true
        }
    },
    "Absorb_Echo_Bullet_02": {
        "$type": "IOHCOOOBCPH",
        "common": {
            "effectAttachShape": {
                "$type": "PBGINMMOLDC"
            }
        },
        "combat": {
            "property": {
                "useCreatorProperty": true,
                "isInvincible": true,
                "canTriggerBullet": true,
                "denyElementStick": true
            },
            "beHit": {
                "hitBloodEffect": "",
                "GKIOKIDJLCA": true,
                "JEPGCKHKDDD": true,
                "muteAllHitText": true
            },
            "combatLock": {
                "lockShape": "CircleLockEnemy",
                "denyLockOn": true,
                "lockType": "Gadget_Lv1"
            }
        },
        "attackAttenuation": "",
        "abilities": [
            {
                "abilityID": "Absorb_SealEcho_Bullet_02",
                "abilityName": "Absorb_SealEcho_Bullet_02",
                "abilityOverride": ""
            }
        ],
        "BDPGABAMMPP": {
            "lifeTime": 1.5
        },
        "move": {
            "$type": "CJBKMBOOPHF",
            "BGKIHCPJBMO": {
                "muteAll": true
            },
            "NOFDPFHMFNM": 10.0,
            "maxSpeed": 20.0,
            "minSpeed": 10.0,
            "EILJBCHMAIH": 2.0,
            "PEDAEPACCIK": {
                "MMNBGLNBDMP": true
            }
        },
        "MNNPNOAELLI": {
            "$type": "AFPECAAHDNC",
            "collision": {
                "ccd": {
                    "type": "Always"
                },
                "triggerType": "TriggerNoRepeat",
                "targetType": "Enemy",
                "ignoreScene": true,
                "ignoreWater": true
            },
            "HDABNDJLLCO": [
                {
                    "$type": "HLFEAMOONEP",
                    "abilityName": "Absorb_SealEcho_Bullet_02"
                }
            ]
        }
    },
    "Absorb_Echo_Bullet_01": {
        "$type": "IOHCOOOBCPH",
        "common": {
            "effectAttachShape": {
                "$type": "PBGINMMOLDC"
            }
        },
        "combat": {
            "property": {
                "useCreatorProperty": true,
                "isInvincible": true,
                "canTriggerBullet": true,
                "denyElementStick": true
            },
            "beHit": {
                "hitBloodEffect": "",
                "GKIOKIDJLCA": true,
                "JEPGCKHKDDD": true,
                "muteAllHitText": true
            },
            "combatLock": {
                "lockShape": "CircleLockEnemy",
                "denyLockOn": true,
                "lockType": "Gadget_Lv1"
            }
        },
        "attackAttenuation": "",
        "abilities": [
            {
                "abilityID": "Absorb_SealEcho_Bullet_01",
                "abilityName": "Absorb_SealEcho_Bullet_01",
                "abilityOverride": ""
            }
        ],
        "BDPGABAMMPP": {
            "lifeTime": 2.0
        },
        "move": {
            "$type": "CJBKMBOOPHF",
            "BGKIHCPJBMO": {
                "muteAll": true
            },
            "NOFDPFHMFNM": 10.0,
            "maxSpeed": 20.0,
            "minSpeed": 10.0,
            "EILJBCHMAIH": 2.0,
            "PEDAEPACCIK": {
                "MMNBGLNBDMP": true
            }
        },
        "MNNPNOAELLI": {
            "$type": "AFPECAAHDNC",
            "collision": {
                "ccd": {
                    "type": "Always"
                },
                "triggerType": "TriggerNoRepeat",
                "targetType": "Enemy",
                "ignoreScene": true,
                "ignoreWater": true
            },
            "HDABNDJLLCO": [
                {
                    "$type": "HLFEAMOONEP",
                    "abilityName": "Absorb_SealEcho_Bullet_01"
                }
            ]
        }
    },
    "Absorb_Aim_Driver_CrabShield": {
        "$type": "IOHCOOOBCPH",
        "common": {
            "effectAttachShape": {
                "$type": "PBGINMMOLDC"
            }
        },
        "combat": {
            "property": {
                "useCreatorProperty": true,
                "HP": 99999.0,
                "defense": 99999.0,
                "isInvincible": true,
                "canTriggerBullet": true,
                "denyElementStick": true
            },
            "beHit": {
                "hitBloodEffect": "",
                "GKIOKIDJLCA": true,
                "JEPGCKHKDDD": true,
                "muteAllHitText": true
            },
            "combatLock": {
                "lockShape": "CircleLockEnemy",
                "denyLockOn": true,
                "lockType": "Gadget_Lv1"
            }
        },
        "attackAttenuation": "",
        "abilities": [
            {
                "abilityID": "Avatar_Dive_Lock_Collider_Driver_CrabShield",
                "abilityName": "Avatar_Dive_Lock_Collider_Driver_CrabShield",
                "abilityOverride": ""
            }
        ],
        "BDPGABAMMPP": {
            "lifeTime": 30.0
        },
        "move": {
            "$type": "BELFBLEANMG",
            "BGKIHCPJBMO": {
                "muteAll": true
            },
            "IIKEHINGEME": "RootNode",
            "ABIHJGPBBFD": true,
            "IHAJOCLBEOK": ""
        }
    }
}