{
    "SceneObj_Level_WhiteBox_ShadowPlay_BackGround": {
        "$type": "IOHCOOOBCPH",
        "KNGBEDDABOM": true,
        "combat": {
            "property": {
                "HP": 99999.0,
                "isInvincible": true,
                "isLockHP": true,
                "canTriggerBullet": true
            },
            "combatLock": {
                "lockShape": "CircleLockEnemy",
                "denyLockOn": true,
                "lockType": "Default"
            }
        },
        "attackAttenuation": "",
        "abilities": [
            {
                "abilityID": "SceneObj_Level_WhiteBox_ShadowPlay_BackGround",
                "abilityName": "SceneObj_Level_WhiteBox_ShadowPlay_BackGround",
                "abilityOverride": ""
            }
        ],
        "JJENAKLGBNC": {
            "BGJCIKIOCLM": "TEST/TEST_Chest_Btn",
            "ALEGNEJBLAF": "UI_MAP_TAG_CHANGE_CONFIRM",
            "JHAIJNHCFPC": "WidgetMPSupport",
            "DAHONBOOPGI": [
                "SceneObj_Level_WhiteBox_ShadowPlay_BackGround"
            ],
            "icon": "UI_Icon_Intee_Mechanism",
            "KKMMGKBKLNB": "",
            "GEDPHHDMFAD": "",
            "NIBCCLBLADB": ""
        },
        "NEPNGCGEAOL": {
            "MJDNEHMOFEA": [
                {
                    "$type": "FHCNELPNCPL",
                    "intID": "State",
                    "EBNFFBOBCHB": true
                }
            ]
        },
        "JEMDHNLFOGF": {
            "APGKCLJCPJN": 10.0
        }
    },
    "SceneObj_Level_WhiteBox_ShadowPlay_Decal": {
        "$type": "IOHCOOOBCPH",
        "KNGBEDDABOM": true,
        "attackAttenuation": "",
        "abilities": [
            {
                "abilityID": "SceneObj_Level_WhiteBox_ShadowPlay_Decal",
                "abilityName": "SceneObj_Level_WhiteBox_ShadowPlay_Decal",
                "abilityOverride": ""
            }
        ],
        "move": {
            "$type": "BELFBLEANMG",
            "IIKEHINGEME": "",
            "IHAJOCLBEOK": ""
        }
    }
}