{
    "Yae_NormalAttack01_Gadget": {
        "$type": "IOHCOOOBCPH",
        "common": {
            "effectAttachShape": {
                "$type": "PBGINMMOLDC"
            }
        },
        "combat": {
            "property": {
                "useCreatorProperty": true,
                "isInvincible": true,
                "canTriggerBullet": true,
                "denyElementStick": true,
                "ignorePurgeRate": false
            },
            "beHit": {
                "hitBloodEffect": "",
                "GKIOKIDJLCA": true,
                "JEPGCKHKDDD": true,
                "muteAllHitText": true
            },
            "combatLock": {
                "lockShape": "CircleLockEnemy",
                "denyLockOn": true,
                "lockType": "Default"
            }
        },
        "attackAttenuation": "",
        "abilities": [
            {
                "abilityID": "",
                "abilityName": "Avatar_Yae_Attack01_Bullet_Material",
                "abilityOverride": ""
            }
        ],
        "BDPGABAMMPP": {
            "lifeTime": 2.0
        }
    },
    "Yae_NormalAttack02_Gadget": {
        "$type": "IOHCOOOBCPH",
        "common": {
            "effectAttachShape": {
                "$type": "PBGINMMOLDC"
            }
        },
        "combat": {
            "property": {
                "useCreatorProperty": true,
                "isInvincible": true,
                "canTriggerBullet": true,
                "denyElementStick": true,
                "ignorePurgeRate": false
            },
            "beHit": {
                "hitBloodEffect": "",
                "GKIOKIDJLCA": true,
                "JEPGCKHKDDD": true,
                "muteAllHitText": true
            },
            "combatLock": {
                "lockShape": "CircleLockEnemy",
                "denyLockOn": true,
                "lockType": "Default"
            }
        },
        "attackAttenuation": "",
        "abilities": [
            {
                "abilityID": "",
                "abilityName": "Avatar_Yae_Attack02_Bullet_Material",
                "abilityOverride": ""
            }
        ],
        "BDPGABAMMPP": {
            "lifeTime": 2.0
        }
    },
    "Yae_NormalAttack03_Gadget": {
        "$type": "IOHCOOOBCPH",
        "common": {
            "effectAttachShape": {
                "$type": "PBGINMMOLDC"
            }
        },
        "combat": {
            "property": {
                "useCreatorProperty": true,
                "isInvincible": true,
                "canTriggerBullet": true,
                "denyElementStick": true,
                "ignorePurgeRate": false
            },
            "beHit": {
                "hitBloodEffect": "",
                "GKIOKIDJLCA": true,
                "JEPGCKHKDDD": true,
                "muteAllHitText": true
            },
            "combatLock": {
                "lockShape": "CircleLockEnemy",
                "denyLockOn": true,
                "lockType": "Default"
            }
        },
        "attackAttenuation": "",
        "abilities": [
            {
                "abilityID": "",
                "abilityName": "Avatar_Yae_Attack03_Bullet_Material",
                "abilityOverride": ""
            }
        ],
        "BDPGABAMMPP": {
            "lifeTime": 2.0
        }
    },
    "Yae_ExtraAttack_Bullet": {
        "$type": "IOHCOOOBCPH",
        "common": {
            "effectAttachShape": {
                "$type": "PBGINMMOLDC",
                "AOOMOJMAGMJ": 0.5,
                "IMLIDOCMEII": 0.5
            },
            "affectedByWorld": true
        },
        "combat": {
            "property": {
                "useCreatorProperty": true,
                "isInvincible": true,
                "canTriggerBullet": true,
                "denyElementStick": true,
                "ignorePurgeRate": false
            },
            "beHit": {
                "hitBloodEffect": "",
                "GKIOKIDJLCA": true,
                "JEPGCKHKDDD": true,
                "muteAllHitText": true
            },
            "combatLock": {
                "lockShape": "CircleLockEnemy",
                "denyLockOn": true,
                "lockType": "Default"
            }
        },
        "attackAttenuation": "",
        "abilities": [
            {
                "abilityID": "",
                "abilityName": "Avatar_Yae_ExtraAttack_Bullet_Material",
                "abilityOverride": ""
            }
        ],
        "BDPGABAMMPP": {
            "lifeTime": 1.7999999523162842
        },
        "move": {
            "$type": "CJBKMBOOPHF",
            "NOFDPFHMFNM": 11.0,
            "CAMKOAKMJHD": 0.6600000262260437,
            "MLLDAINGCPD": {
                "LDGCOFBNILL": 2.0,
                "IDPIALMIAEG": 60.0,
                "JPJMEPGMIBM": 0.10000000149011612,
                "EBNKPFBIDBP": 0.30000001192092896,
                "MJHMIDBFLLM": true,
                "FHFBJGOKDBP": "Keep",
                "OMEEHJNLOMB": "Keep"
            }
        }
    },
    "Yae_ElementalArt_Bullet": {
        "$type": "IOHCOOOBCPH",
        "common": {
            "effectAttachShape": {
                "$type": "PBGINMMOLDC"
            },
            "affectedByWorld": true
        },
        "combat": {
            "property": {
                "useCreatorProperty": true,
                "canTriggerBullet": true,
                "denyElementStick": true,
                "ignorePurgeRate": false
            },
            "beHit": {
                "hitBloodEffect": "",
                "GKIOKIDJLCA": true,
                "JEPGCKHKDDD": true,
                "muteAllHitText": true
            },
            "combatLock": {
                "lockShape": "CircleLockEnemy",
                "denyLockOn": true,
                "lockType": "Gadget_Lv1"
            }
        },
        "attackAttenuation": "",
        "abilities": [
            {
                "abilityID": "",
                "abilityName": "Avatar_Yae_ElementalArt_Bullet_Material",
                "abilityOverride": ""
            }
        ],
        "BDPGABAMMPP": {
            "lifeTime": 0.6000000238418579
        },
        "move": {
            "$type": "EHIGOGOLKOO",
            "NOFDPFHMFNM": 20.0,
            "HFFPPCEMOGJ": true
        },
        "MNNPNOAELLI": {
            "$type": "AFPECAAHDNC",
            "collision": {
                "ccd": {
                    "type": "Always"
                },
                "targetType": "Enemy"
            },
            "HDABNDJLLCO": [
                {
                    "$type": "HLFEAMOONEP",
                    "abilityName": "Avatar_Yae_ElementalArt_Bullet_Material"
                }
            ],
            "MHOEMLCBJOO": [
                {
                    "$type": "HLFEAMOONEP",
                    "abilityName": "Avatar_Yae_ElementalArt_Bullet_Material"
                }
            ],
            "CBHACCCJFPI": 1.0,
            "CHIILEPJCLG": true
        }
    },
    "Yae_ElementalArt_Bullet_HasTarget": {
        "$type": "IOHCOOOBCPH",
        "common": {
            "effectAttachShape": {
                "$type": "PBGINMMOLDC"
            },
            "affectedByWorld": true
        },
        "combat": {
            "property": {
                "useCreatorProperty": true,
                "canTriggerBullet": true,
                "denyElementStick": true,
                "ignorePurgeRate": false
            },
            "beHit": {
                "hitBloodEffect": "",
                "GKIOKIDJLCA": true,
                "JEPGCKHKDDD": true,
                "muteAllHitText": true
            },
            "combatLock": {
                "lockShape": "CircleLockEnemy",
                "denyLockOn": true,
                "lockType": "Gadget_Lv1"
            }
        },
        "attackAttenuation": "",
        "abilities": [
            {
                "abilityID": "",
                "abilityName": "Avatar_Yae_ElementalArt_Bullet_HasTarget_Material",
                "abilityOverride": ""
            }
        ],
        "BDPGABAMMPP": {
            "lifeTime": 0.6000000238418579
        },
        "move": {
            "$type": "EHIGOGOLKOO",
            "NOFDPFHMFNM": 20.0,
            "HFFPPCEMOGJ": true
        },
        "MNNPNOAELLI": {
            "$type": "AFPECAAHDNC",
            "collision": {
                "ccd": {
                    "type": "Always"
                },
                "targetType": "Enemy"
            },
            "HDABNDJLLCO": [
                {
                    "$type": "HLFEAMOONEP",
                    "abilityName": "Avatar_Yae_ElementalArt_Bullet_HasTarget_Material"
                }
            ],
            "MHOEMLCBJOO": [
                {
                    "$type": "HLFEAMOONEP",
                    "abilityName": "Avatar_Yae_ElementalArt_Bullet_HasTarget_Material"
                }
            ],
            "CBHACCCJFPI": 1.0,
            "CHIILEPJCLG": true
        }
    },
    "Yae_ElementalArt_Bullet_Air": {
        "$type": "IOHCOOOBCPH",
        "common": {
            "effectAttachShape": {
                "$type": "PBGINMMOLDC"
            },
            "affectedByWorld": true
        },
        "combat": {
            "property": {
                "useCreatorProperty": true,
                "canTriggerBullet": true,
                "denyElementStick": true,
                "ignorePurgeRate": false
            },
            "beHit": {
                "hitBloodEffect": "",
                "GKIOKIDJLCA": true,
                "JEPGCKHKDDD": true,
                "muteAllHitText": true
            },
            "combatLock": {
                "lockShape": "CircleLockEnemy",
                "denyLockOn": true,
                "lockType": "Gadget_Lv1"
            },
            "die": {
                "dieDisappearEffect": ""
            }
        },
        "attackAttenuation": "",
        "abilities": [
            {
                "abilityID": "",
                "abilityName": "Avatar_Yae_ElementalArt_Bullet_Air_Material",
                "abilityOverride": ""
            }
        ],
        "BDPGABAMMPP": {
            "lifeTime": 0.75
        },
        "move": {
            "$type": "EHIGOGOLKOO",
            "NOFDPFHMFNM": 20.0,
            "NDLHJKADBGC": 360.0,
            "BLECDCEAOFM": {
                "$type": "HMFDMPDLMCJ",
                "NPDMGIGABBO": true
            },
            "HFFPPCEMOGJ": true
        },
        "MNNPNOAELLI": {
            "$type": "AFPECAAHDNC",
            "collision": {
                "ccd": {
                    "type": "Always"
                },
                "targetType": "Enemy"
            },
            "HDABNDJLLCO": [
                {
                    "$type": "HLFEAMOONEP",
                    "abilityName": "Avatar_Yae_ElementalArt_Bullet_Air_Material"
                }
            ],
            "CBHACCCJFPI": 1.0,
            "CHIILEPJCLG": true
        }
    },
    "Yae_ElementalArt_Aim_Bullet": {
        "$type": "IOHCOOOBCPH",
        "common": {
            "effectAttachShape": {
                "$type": "PBGINMMOLDC",
                "AOOMOJMAGMJ": 2.4000000953674316,
                "IMLIDOCMEII": 2.4000000953674316,
                "OBEFFBEFICB": 2.4000000953674316
            },
            "affectedByWorld": true
        },
        "combat": {
            "property": {
                "useCreatorProperty": true
            },
            "combatLock": {
                "lockShape": "CircleLockEnemy",
                "denyLockOn": true,
                "lockType": "Default"
            }
        },
        "attackAttenuation": "",
        "abilities": [
            {
                "abilityID": "",
                "abilityName": "Avatar_Yae_ElementalArt_Aim_Bullet_Material",
                "abilityOverride": ""
            }
        ],
        "BDPGABAMMPP": {
            "lifeTime": 0.20000000298023224
        },
        "move": {
            "$type": "CJBKMBOOPHF",
            "NOFDPFHMFNM": 50.0,
            "FLBOCGHONPG": true
        },
        "MNNPNOAELLI": {
            "$type": "AFPECAAHDNC",
            "collision": {
                "ccd": {
                    "type": "Always"
                },
                "targetType": "Enemy",
                "ignoreWater": true
            },
            "HDABNDJLLCO": [
                {
                    "$type": "HLFEAMOONEP",
                    "abilityName": "Avatar_Yae_ElementalArt_Aim_Bullet_Material"
                }
            ],
            "MHOEMLCBJOO": [
                {
                    "$type": "HLFEAMOONEP",
                    "abilityName": "Avatar_Yae_ElementalArt_Aim_Bullet_Material"
                }
            ]
        }
    },
    "Yae_ElementalArt_FoxTower": {
        "$type": "IOHCOOOBCPH",
        "common": {
            "effectAttachShape": {
                "$type": "PBGINMMOLDC"
            }
        },
        "combat": {
            "property": {
                "useCreatorProperty": true,
                "isInvincible": true,
                "denyElementStick": true,
                "ignorePurgeRate": false,
                "ignoreDamageToSelf": true
            },
            "beHit": {
                "hitBloodEffect": "",
                "GKIOKIDJLCA": true,
                "JEPGCKHKDDD": true,
                "muteAllHitText": true
            },
            "combatLock": {
                "lockShape": "CircleLockEnemy",
                "denyLockOn": true,
                "lockType": "Gadget_Lv1"
            }
        },
        "attackAttenuation": "",
        "abilities": [
            {
                "abilityID": "",
                "abilityName": "Avatar_Yae_ElementalArt_FoxTower_Material",
                "abilityOverride": ""
            }
        ],
        "field": {
            "shape": "CircleR10H20",
            "AGKCOGKCAGC": "",
            "triggerInfinite": true,
            "checkInterval": 0.10000000149011612,
            "lifeTime": 30.0,
            "PKBIFJFAJEK": "",
            "CJIOPEJJHDM": ""
        },
        "BDPGABAMMPP": {
            "lifeTime": 30.0
        }
    },
    "Yae_FoxTower_ThunderFall_Level1": {
        "$type": "IOHCOOOBCPH",
        "common": {
            "effectAttachShape": {
                "$type": "PBGINMMOLDC"
            }
        },
        "combat": {
            "property": {
                "useCreatorProperty": true,
                "canTriggerBullet": true,
                "denyElementStick": true,
                "ignorePurgeRate": false
            },
            "beHit": {
                "hitBloodEffect": "",
                "GKIOKIDJLCA": true,
                "JEPGCKHKDDD": true,
                "muteAllHitText": true
            },
            "combatLock": {
                "lockShape": "CircleLockEnemy",
                "denyLockOn": true,
                "lockType": "Default"
            }
        },
        "attackAttenuation": "",
        "abilities": [
            {
                "abilityID": "",
                "abilityName": "Avatar_Yae_FoxTower_ThunderFall_Level1",
                "abilityOverride": ""
            }
        ],
        "BDPGABAMMPP": {
            "lifeTime": 1.0
        }
    },
    "Yae_FoxTower_ThunderFall_Level2": {
        "$type": "IOHCOOOBCPH",
        "common": {
            "effectAttachShape": {
                "$type": "PBGINMMOLDC"
            }
        },
        "combat": {
            "property": {
                "useCreatorProperty": true,
                "canTriggerBullet": true,
                "denyElementStick": true,
                "ignorePurgeRate": false
            },
            "beHit": {
                "hitBloodEffect": "",
                "GKIOKIDJLCA": true,
                "JEPGCKHKDDD": true,
                "muteAllHitText": true
            },
            "combatLock": {
                "lockShape": "CircleLockEnemy",
                "denyLockOn": true,
                "lockType": "Default"
            }
        },
        "attackAttenuation": "",
        "abilities": [
            {
                "abilityID": "",
                "abilityName": "Avatar_Yae_FoxTower_ThunderFall_Level2",
                "abilityOverride": ""
            }
        ],
        "BDPGABAMMPP": {
            "lifeTime": 1.0
        }
    },
    "Yae_FoxTower_ThunderFall_Level3": {
        "$type": "IOHCOOOBCPH",
        "common": {
            "effectAttachShape": {
                "$type": "PBGINMMOLDC"
            }
        },
        "combat": {
            "property": {
                "useCreatorProperty": true,
                "canTriggerBullet": true,
                "denyElementStick": true,
                "ignorePurgeRate": false
            },
            "beHit": {
                "hitBloodEffect": "",
                "GKIOKIDJLCA": true,
                "JEPGCKHKDDD": true,
                "muteAllHitText": true
            },
            "combatLock": {
                "lockShape": "CircleLockEnemy",
                "denyLockOn": true,
                "lockType": "Default"
            }
        },
        "attackAttenuation": "",
        "abilities": [
            {
                "abilityID": "",
                "abilityName": "Avatar_Yae_FoxTower_ThunderFall_Level3",
                "abilityOverride": ""
            }
        ],
        "BDPGABAMMPP": {
            "lifeTime": 1.0
        }
    },
    "Yae_FoxTower_ThunderFall_Level4": {
        "$type": "IOHCOOOBCPH",
        "common": {
            "effectAttachShape": {
                "$type": "PBGINMMOLDC"
            }
        },
        "combat": {
            "property": {
                "useCreatorProperty": true,
                "canTriggerBullet": true,
                "denyElementStick": true,
                "ignorePurgeRate": false
            },
            "beHit": {
                "hitBloodEffect": "",
                "GKIOKIDJLCA": true,
                "JEPGCKHKDDD": true,
                "muteAllHitText": true
            },
            "combatLock": {
                "lockShape": "CircleLockEnemy",
                "denyLockOn": true,
                "lockType": "Default"
            }
        },
        "attackAttenuation": "",
        "abilities": [
            {
                "abilityID": "",
                "abilityName": "Avatar_Yae_FoxTower_ThunderFall_Level4",
                "abilityOverride": ""
            }
        ],
        "BDPGABAMMPP": {
            "lifeTime": 1.0
        }
    },
    "Yae_ElementalBurst_TowerExplosion": {
        "$type": "IOHCOOOBCPH",
        "common": {
            "effectAttachShape": {
                "$type": "PBGINMMOLDC"
            }
        },
        "combat": {
            "property": {
                "useCreatorProperty": true,
                "canTriggerBullet": true,
                "denyElementStick": true,
                "ignorePurgeRate": false
            },
            "beHit": {
                "hitBloodEffect": "",
                "GKIOKIDJLCA": true,
                "JEPGCKHKDDD": true,
                "muteAllHitText": true
            },
            "combatLock": {
                "lockShape": "CircleLockEnemy",
                "denyLockOn": true,
                "lockType": "Default"
            }
        },
        "attackAttenuation": "",
        "abilities": [
            {
                "abilityID": "",
                "abilityName": "Avatar_Yae_ElementalBurst_TowerExplosion_Material",
                "abilityOverride": ""
            }
        ],
        "BDPGABAMMPP": {
            "lifeTime": 5.0
        }
    }
}