{
    "LaSignora_AirWall_01": {
        "$type": "IOHCOOOBCPH",
        "model": {
            "bornEffect": "",
            "attachEffect": "Eff_Monster_LaSignora_AirWall_01"
        },
        "KNGBEDDABOM": true,
        "attackAttenuation": ""
    },
    "LaSignora_AirWall_02": {
        "$type": "IOHCOOOBCPH",
        "model": {
            "bornEffect": "",
            "attachEffect": "Eff_Monster_LaSignora_AirWall_02"
        },
        "KNGBEDDABOM": true,
        "attackAttenuation": ""
    },
    "LaSignora_Alert_CameraAnchor": {
        "$type": "IOHCOOOBCPH",
        "combat": {
            "property": {
                "HP": 999.0,
                "isInvincible": true,
                "ignorePurgeRate": false
            },
            "combatLock": {
                "lockShape": "CircleLockEnemy",
                "denyLockOn": true,
                "lockType": "Default"
            }
        },
        "attackAttenuation": "",
        "abilities": [
            {
                "abilityID": "",
                "abilityName": "LaSignora_Alert_CameraAnchor",
                "abilityOverride": ""
            }
        ],
        "BDPGABAMMPP": {
            "lifeTime": 10.0
        }
    },
    "LaSignora_Climate_AIController": {
        "$type": "IOHCOOOBCPH",
        "attackAttenuation": "",
        "abilities": [
            {
                "abilityID": "",
                "abilityName": "LaSignora_Climate_AIController",
                "abilityOverride": ""
            }
        ],
        "BDPGABAMMPP": {
            "lifeInfinite": true
        }
    },
    "LaSignora_IceCocoon_Climate_AIController": {
        "$type": "IOHCOOOBCPH",
        "attackAttenuation": "",
        "abilities": [
            {
                "abilityID": "",
                "abilityName": "LaSignora_Climate_AIClear",
                "abilityOverride": ""
            },
            {
                "abilityID": "",
                "abilityName": "LaSignora_Harbinger_Climate_AIClear",
                "abilityOverride": ""
            }
        ],
        "BDPGABAMMPP": {
            "lifeInfinite": true
        }
    },
    "LaSignora_Harbinger_Climate_AIController": {
        "$type": "IOHCOOOBCPH",
        "attackAttenuation": "",
        "abilities": [
            {
                "abilityID": "",
                "abilityName": "LaSignora_Harbinger_Climate_AIController",
                "abilityOverride": ""
            }
        ],
        "BDPGABAMMPP": {
            "lifeInfinite": true
        }
    },
    "LaSignora_ShatteredHeart": {
        "$type": "IOHCOOOBCPH",
        "common": {},
        "combat": {
            "property": {
                "useCreatorProperty": true,
                "isLockHP": true,
                "canTriggerBullet": true,
                "ABKGDMJEMJJ": true
            },
            "beHit": {
                "hitBloodEffect": "",
                "hitAutoRedirect": false,
                "muteAllHitText": true
            },
            "combatLock": {
                "lockShape": "CircleLockEnemy",
                "lockType": "Gear_Lv3"
            }
        },
        "attackAttenuation": "",
        "abilities": [
            {
                "abilityID": "",
                "abilityName": "LaSignora_ShatteredHeart",
                "abilityOverride": ""
            }
        ],
        "billboard": {
            "$type": "HFEGKLAIGGI",
            "IIKEHINGEME": "BillboardAttach",
            "offset": {
                "y": 1.350000023841858
            },
            "HECLHMINJII": 0.5,
            "showDistance": 48.0,
            "DMHOOGGGDKG": true,
            "KAJOCAAOIFN": 48.0,
            "size": "Small",
            "GFHHHAEBHHL": true
        }
    },
    "LaSignora_ShatteredHeart_01": {
        "$type": "IOHCOOOBCPH",
        "common": {},
        "combat": {
            "property": {
                "useCreatorProperty": true,
                "isLockHP": true,
                "canTriggerBullet": true,
                "ABKGDMJEMJJ": true
            },
            "beHit": {
                "hitBloodEffect": "",
                "hitAutoRedirect": false,
                "muteAllHitText": true
            },
            "combatLock": {
                "lockShape": "CircleLockEnemy",
                "lockType": "Gear_Lv3"
            }
        },
        "attackAttenuation": "",
        "abilities": [
            {
                "abilityID": "",
                "abilityName": "LaSignora_ShatteredHeart",
                "abilityOverride": ""
            },
            {
                "abilityID": "",
                "abilityName": "LaSignora_ShatteredHeart_01",
                "abilityOverride": ""
            }
        ],
        "billboard": {
            "$type": "HFEGKLAIGGI",
            "IIKEHINGEME": "BillboardAttach",
            "offset": {
                "y": 1.350000023841858
            },
            "HECLHMINJII": 0.5,
            "showDistance": 48.0,
            "DMHOOGGGDKG": true,
            "KAJOCAAOIFN": 48.0,
            "size": "Small",
            "GFHHHAEBHHL": true
        }
    },
    "LaSignora_ShatteredHeart_02": {
        "$type": "IOHCOOOBCPH",
        "common": {},
        "combat": {
            "property": {
                "useCreatorProperty": true,
                "isLockHP": true,
                "canTriggerBullet": true,
                "ABKGDMJEMJJ": true
            },
            "beHit": {
                "hitBloodEffect": "",
                "hitAutoRedirect": false,
                "muteAllHitText": true
            },
            "combatLock": {
                "lockShape": "CircleLockEnemy",
                "lockType": "Gear_Lv3"
            }
        },
        "attackAttenuation": "",
        "abilities": [
            {
                "abilityID": "",
                "abilityName": "LaSignora_ShatteredHeart",
                "abilityOverride": ""
            },
            {
                "abilityID": "",
                "abilityName": "LaSignora_ShatteredHeart_02",
                "abilityOverride": ""
            }
        ],
        "billboard": {
            "$type": "HFEGKLAIGGI",
            "IIKEHINGEME": "BillboardAttach",
            "offset": {
                "y": 1.350000023841858
            },
            "HECLHMINJII": 0.5,
            "showDistance": 48.0,
            "DMHOOGGGDKG": true,
            "KAJOCAAOIFN": 48.0,
            "size": "Small",
            "GFHHHAEBHHL": true
        }
    },
    "LaSignora_ShatteredHeart_03": {
        "$type": "IOHCOOOBCPH",
        "common": {},
        "combat": {
            "property": {
                "useCreatorProperty": true,
                "isLockHP": true,
                "canTriggerBullet": true,
                "ABKGDMJEMJJ": true
            },
            "beHit": {
                "hitBloodEffect": "",
                "hitAutoRedirect": false,
                "muteAllHitText": true
            },
            "combatLock": {
                "lockShape": "CircleLockEnemy",
                "lockType": "Gear_Lv3"
            }
        },
        "attackAttenuation": "",
        "abilities": [
            {
                "abilityID": "",
                "abilityName": "LaSignora_ShatteredHeart",
                "abilityOverride": ""
            },
            {
                "abilityID": "",
                "abilityName": "LaSignora_ShatteredHeart_03",
                "abilityOverride": ""
            }
        ],
        "billboard": {
            "$type": "HFEGKLAIGGI",
            "IIKEHINGEME": "BillboardAttach",
            "offset": {
                "y": 1.350000023841858
            },
            "HECLHMINJII": 0.5,
            "showDistance": 48.0,
            "DMHOOGGGDKG": true,
            "KAJOCAAOIFN": 48.0,
            "size": "Small",
            "GFHHHAEBHHL": true
        }
    },
    "LaSignora_ShatteredHeart_04": {
        "$type": "IOHCOOOBCPH",
        "common": {},
        "combat": {
            "property": {
                "useCreatorProperty": true,
                "isLockHP": true,
                "canTriggerBullet": true,
                "ABKGDMJEMJJ": true
            },
            "beHit": {
                "hitBloodEffect": "",
                "hitAutoRedirect": false,
                "muteAllHitText": true
            },
            "combatLock": {
                "lockShape": "CircleLockEnemy",
                "lockType": "Gear_Lv3"
            }
        },
        "attackAttenuation": "",
        "abilities": [
            {
                "abilityID": "",
                "abilityName": "LaSignora_ShatteredHeart",
                "abilityOverride": ""
            },
            {
                "abilityID": "",
                "abilityName": "LaSignora_ShatteredHeart_04",
                "abilityOverride": ""
            }
        ],
        "billboard": {
            "$type": "HFEGKLAIGGI",
            "IIKEHINGEME": "BillboardAttach",
            "offset": {
                "y": 1.350000023841858
            },
            "HECLHMINJII": 0.5,
            "showDistance": 48.0,
            "DMHOOGGGDKG": true,
            "KAJOCAAOIFN": 48.0,
            "size": "Small",
            "GFHHHAEBHHL": true
        }
    },
    "LaSignora_MeleeAtk01_BulletAnchor": {
        "$type": "IOHCOOOBCPH",
        "attackAttenuation": "",
        "abilities": [
            {
                "abilityID": "",
                "abilityName": "LaSignora_MeleeAtk01_BulletAnchor",
                "abilityOverride": ""
            }
        ],
        "BDPGABAMMPP": {
            "lifeTime": 3.0
        }
    },
    "LaSignora_FrostBlume_Bullet": {
        "$type": "IOHCOOOBCPH",
        "combat": {
            "property": {
                "useCreatorProperty": true,
                "HP": 999999.0,
                "attack": 10.0,
                "defense": 999999.0,
                "isInvincible": true,
                "canTriggerBullet": true,
                "denyElementStick": true
            },
            "beHit": {
                "hitBloodEffect": "",
                "GKIOKIDJLCA": true,
                "JEPGCKHKDDD": true,
                "muteAllHitText": true
            },
            "combatLock": {
                "lockShape": "CircleLockEnemy",
                "denyLockOn": true,
                "lockType": "Default"
            }
        },
        "attackAttenuation": "",
        "abilities": [
            {
                "abilityID": "",
                "abilityName": "LaSignora_FrostBlume_Bullet",
                "abilityOverride": ""
            }
        ],
        "BDPGABAMMPP": {
            "lifeTime": 5.0
        },
        "move": {
            "$type": "CJBKMBOOPHF",
            "NOFDPFHMFNM": 20.0,
            "BLECDCEAOFM": {
                "$type": "HMFDMPDLMCJ"
            }
        },
        "MNNPNOAELLI": {
            "$type": "AFPECAAHDNC",
            "collision": {},
            "HDABNDJLLCO": [
                {
                    "$type": "HLFEAMOONEP",
                    "abilityName": "LaSignora_FrostBlume_Bullet"
                }
            ]
        }
    },
    "LaSignora_FrostBlume_Hor_Bullet": {
        "$type": "IOHCOOOBCPH",
        "combat": {
            "property": {
                "useCreatorProperty": true,
                "HP": 999999.0,
                "attack": 10.0,
                "defense": 999999.0,
                "isInvincible": true,
                "canTriggerBullet": true,
                "denyElementStick": true
            },
            "beHit": {
                "hitBloodEffect": "",
                "GKIOKIDJLCA": true,
                "JEPGCKHKDDD": true,
                "muteAllHitText": true
            },
            "combatLock": {
                "lockShape": "CircleLockEnemy",
                "denyLockOn": true,
                "lockType": "Default"
            }
        },
        "attackAttenuation": "",
        "abilities": [
            {
                "abilityID": "",
                "abilityName": "LaSignora_FrostBlume_Hor_Bullet",
                "abilityOverride": ""
            }
        ],
        "BDPGABAMMPP": {
            "lifeTime": 2.0
        },
        "move": {
            "$type": "CJBKMBOOPHF",
            "BGKIHCPJBMO": {
                "muteAll": true
            },
            "NOFDPFHMFNM": 20.0,
            "BLECDCEAOFM": {
                "$type": "HMFDMPDLMCJ"
            }
        },
        "MNNPNOAELLI": {
            "$type": "AFPECAAHDNC",
            "collision": {
                "triggerType": "TriggerNoRepeat",
                "targetType": "Enemy"
            },
            "HDABNDJLLCO": [
                {
                    "$type": "HLFEAMOONEP",
                    "abilityName": "LaSignora_FrostBlume_Hor_Bullet"
                }
            ]
        }
    },
    "LaSignora_FrostBlume_Ver_Bullet": {
        "$type": "IOHCOOOBCPH",
        "combat": {
            "property": {
                "useCreatorProperty": true,
                "HP": 999999.0,
                "attack": 10.0,
                "defense": 999999.0,
                "isInvincible": true,
                "canTriggerBullet": true,
                "denyElementStick": true
            },
            "beHit": {
                "hitBloodEffect": "",
                "GKIOKIDJLCA": true,
                "JEPGCKHKDDD": true,
                "muteAllHitText": true
            },
            "combatLock": {
                "lockShape": "CircleLockEnemy",
                "denyLockOn": true,
                "lockType": "Default"
            }
        },
        "attackAttenuation": "",
        "BDPGABAMMPP": {
            "lifeTime": 3.0
        },
        "move": {
            "$type": "EHIGOGOLKOO",
            "NOFDPFHMFNM": 6.0,
            "NDLHJKADBGC": 90.0,
            "BLECDCEAOFM": {
                "$type": "HMFDMPDLMCJ"
            },
            "HFFPPCEMOGJ": true
        },
        "MNNPNOAELLI": {
            "$type": "AFPECAAHDNC",
            "collision": {
                "targetType": "Enemy"
            }
        }
    },
    "LaSignora_FrostBlume_Trace_Bullet": {
        "$type": "IOHCOOOBCPH",
        "combat": {
            "property": {
                "useCreatorProperty": true,
                "HP": 999999.0,
                "attack": 10.0,
                "defense": 999999.0,
                "isInvincible": true,
                "canTriggerBullet": true,
                "denyElementStick": true
            },
            "beHit": {
                "hitBloodEffect": "",
                "GKIOKIDJLCA": true,
                "JEPGCKHKDDD": true,
                "muteAllHitText": true
            },
            "combatLock": {
                "lockShape": "CircleLockEnemy",
                "denyLockOn": true,
                "lockType": "Default"
            }
        },
        "attackAttenuation": "",
        "abilities": [
            {
                "abilityID": "",
                "abilityName": "LaSignora_FrostBlume_Trace_Bullet",
                "abilityOverride": ""
            },
            {
                "abilityID": "",
                "abilityName": "LaSignora_FrostBlume_Trace_Bullet_Damage",
                "abilityOverride": ""
            }
        ],
        "BDPGABAMMPP": {
            "lifeTime": 3.0
        },
        "move": {
            "$type": "EHIGOGOLKOO",
            "NOFDPFHMFNM": 10.0,
            "maxSpeed": 15.0,
            "minSpeed": 10.0,
            "NDLHJKADBGC": 90.0,
            "EILJBCHMAIH": 5.0,
            "BLECDCEAOFM": {
                "$type": "HMFDMPDLMCJ"
            }
        },
        "MNNPNOAELLI": {
            "$type": "AFPECAAHDNC",
            "collision": {
                "triggerType": "TriggerNoRepeat",
                "targetType": "Enemy"
            },
            "HDABNDJLLCO": [
                {
                    "$type": "HLFEAMOONEP",
                    "abilityName": "LaSignora_FrostBlume_Trace_Bullet_Damage"
                }
            ],
            "MHOEMLCBJOO": [
                {
                    "$type": "HLFEAMOONEP",
                    "abilityName": "LaSignora_FrostBlume_Trace_Bullet"
                }
            ]
        }
    },
    "LaSignora_FrostBlume_Gadget": {
        "$type": "IOHCOOOBCPH",
        "common": {},
        "combat": {
            "property": {
                "useCreatorProperty": true,
                "HP": 999999.0,
                "attack": 15.0,
                "defense": 999999.0,
                "isInvincible": true,
                "canTriggerBullet": true,
                "denyElementStick": true
            },
            "beHit": {
                "hitBloodEffect": "",
                "GKIOKIDJLCA": true,
                "JEPGCKHKDDD": true,
                "muteAllHitText": true
            },
            "combatLock": {
                "lockShape": "CircleLockEnemy",
                "denyLockOn": true,
                "lockType": "Default"
            }
        },
        "attackAttenuation": "",
        "abilities": [
            {
                "abilityID": "",
                "abilityName": "LaSignora_FrostBlume_Gadget",
                "abilityOverride": ""
            }
        ],
        "BDPGABAMMPP": {
            "lifeTime": 10.0
        }
    },
    "LaSignora_BaneChisel_Single_Bullet": {
        "$type": "IOHCOOOBCPH",
        "combat": {
            "property": {
                "useCreatorProperty": true,
                "HP": 999999.0,
                "attack": 10.0,
                "defense": 999999.0,
                "isInvincible": true,
                "canTriggerBullet": true,
                "denyElementStick": true
            },
            "beHit": {
                "hitBloodEffect": "",
                "GKIOKIDJLCA": true,
                "JEPGCKHKDDD": true,
                "muteAllHitText": true
            },
            "combatLock": {
                "lockShape": "CircleLockEnemy",
                "denyLockOn": true,
                "lockType": "Default"
            }
        },
        "attackAttenuation": "",
        "abilities": [
            {
                "abilityID": "",
                "abilityName": "LaSignora_BaneChisel_Single_Bullet",
                "abilityOverride": ""
            }
        ],
        "BDPGABAMMPP": {
            "lifeTime": 10.0
        },
        "move": {
            "$type": "MNCDFIAEMIA",
            "NOFDPFHMFNM": 15.0,
            "maxSpeed": 20.0,
            "minSpeed": 15.0,
            "NDLHJKADBGC": 1080.0,
            "EILJBCHMAIH": 3.0,
            "BLECDCEAOFM": {
                "$type": "HMFDMPDLMCJ"
            },
            "ELPLIOJMJND": 60.0,
            "NNDCMFPMIFK": 0.30000001192092896,
            "JKPFKNHDNKE": 1080.0,
            "NIMNPPDBKIH": 0.5
        },
        "MNNPNOAELLI": {
            "$type": "AFPECAAHDNC",
            "collision": {
                "targetType": "Enemy"
            },
            "HDABNDJLLCO": [
                {
                    "$type": "HLFEAMOONEP",
                    "abilityName": "LaSignora_BaneChisel_Single_Bullet"
                }
            ]
        }
    },
    "LaSignora_BaneChisel_Rect_Bullet": {
        "$type": "IOHCOOOBCPH",
        "combat": {
            "property": {
                "useCreatorProperty": true,
                "HP": 999999.0,
                "attack": 10.0,
                "defense": 999999.0,
                "isInvincible": true,
                "canTriggerBullet": true,
                "denyElementStick": true
            },
            "beHit": {
                "hitBloodEffect": "",
                "GKIOKIDJLCA": true,
                "JEPGCKHKDDD": true,
                "muteAllHitText": true
            },
            "combatLock": {
                "lockShape": "CircleLockEnemy",
                "denyLockOn": true,
                "lockType": "Default"
            }
        },
        "attackAttenuation": "",
        "BDPGABAMMPP": {
            "lifeTime": 10.0
        },
        "move": {
            "$type": "CJBKMBOOPHF",
            "BGKIHCPJBMO": {
                "muteAll": true
            },
            "NOFDPFHMFNM": 20.0,
            "BLECDCEAOFM": {
                "$type": "HMFDMPDLMCJ"
            }
        },
        "MNNPNOAELLI": {
            "$type": "AFPECAAHDNC",
            "collision": {
                "triggerType": "TriggerNoRepeat"
            }
        }
    },
    "LaSignora_MeleeAtk02_Ver_BulletAnchor": {
        "$type": "IOHCOOOBCPH",
        "combat": {
            "property": {
                "isInvincible": true,
                "denyElementStick": true
            },
            "beHit": {
                "hitBloodEffect": "",
                "GKIOKIDJLCA": true,
                "JEPGCKHKDDD": true,
                "muteAllHitText": true
            },
            "combatLock": {
                "lockShape": "CircleLockEnemy",
                "denyLockOn": true,
                "lockType": "Default"
            }
        },
        "attackAttenuation": "",
        "abilities": [
            {
                "abilityID": "",
                "abilityName": "LaSignora_BaneChisel_Bullet_Target",
                "abilityOverride": ""
            }
        ],
        "BDPGABAMMPP": {
            "lifeTime": 7.0
        }
    },
    "LaSignora_BaneChisel_Bullet": {
        "$type": "IOHCOOOBCPH",
        "combat": {
            "property": {
                "useCreatorProperty": true,
                "HP": 999999.0,
                "attack": 10.0,
                "defense": 999999.0,
                "isInvincible": true,
                "canTriggerBullet": true,
                "denyElementStick": true
            },
            "beHit": {
                "hitBloodEffect": "",
                "GKIOKIDJLCA": true,
                "JEPGCKHKDDD": true,
                "muteAllHitText": true
            },
            "combatLock": {
                "lockShape": "CircleLockEnemy",
                "denyLockOn": true,
                "lockType": "Default"
            }
        },
        "attackAttenuation": "",
        "abilities": [
            {
                "abilityID": "",
                "abilityName": "LaSignora_BaneChisel_Bullet",
                "abilityOverride": ""
            }
        ],
        "BDPGABAMMPP": {
            "lifeTime": 5.0
        },
        "move": {
            "$type": "CJBKMBOOPHF",
            "BGKIHCPJBMO": {
                "muteAll": true
            },
            "NOFDPFHMFNM": 30.0,
            "EILJBCHMAIH": 10.0,
            "BLECDCEAOFM": {
                "$type": "HMFDMPDLMCJ"
            }
        },
        "MNNPNOAELLI": {
            "$type": "AFPECAAHDNC",
            "collision": {
                "ccd": {
                    "type": "Always"
                },
                "triggerType": "TriggerNoRepeat",
                "targetType": "All",
                "ignoreScene": true
            },
            "HDABNDJLLCO": [
                {
                    "$type": "HLFEAMOONEP",
                    "abilityName": "LaSignora_BaneChisel_Bullet"
                }
            ]
        }
    },
    "LaSignora_BaneChisel_Bullet_Anchor": {
        "$type": "IOHCOOOBCPH",
        "combat": {
            "property": {
                "useCreatorProperty": true,
                "HP": 999999.0,
                "attack": 10.0,
                "defense": 999999.0,
                "isInvincible": true,
                "canTriggerBullet": true,
                "denyElementStick": true
            },
            "beHit": {
                "hitBloodEffect": "",
                "GKIOKIDJLCA": true,
                "JEPGCKHKDDD": true,
                "muteAllHitText": true
            },
            "combatLock": {
                "lockShape": "CircleLockEnemy",
                "denyLockOn": true,
                "lockType": "Default"
            }
        },
        "attackAttenuation": "",
        "abilities": [
            {
                "abilityID": "",
                "abilityName": "LaSignora_BaneChisel_Bullet_Anchor",
                "abilityOverride": ""
            }
        ],
        "BDPGABAMMPP": {
            "lifeTime": 10.0
        },
        "move": {
            "$type": "EHIGOGOLKOO",
            "BGKIHCPJBMO": {
                "muteAll": true
            },
            "NOFDPFHMFNM": 0.10000000149011612,
            "BLECDCEAOFM": {
                "$type": "HMFDMPDLMCJ",
                "LMMIHLFCHOD": 360.0
            },
            "HFFPPCEMOGJ": true
        },
        "MNNPNOAELLI": {
            "$type": "AFPECAAHDNC",
            "collision": {
                "triggerType": "TriggerNoRepeat"
            }
        }
    },
    "LaSignora_BaneChisel_Bullet_Damage": {
        "$type": "IOHCOOOBCPH",
        "combat": {
            "property": {
                "useCreatorProperty": true,
                "HP": 999999.0,
                "attack": 10.0,
                "defense": 999999.0,
                "isInvincible": true,
                "canTriggerBullet": true,
                "denyElementStick": true
            },
            "beHit": {
                "hitBloodEffect": "",
                "GKIOKIDJLCA": true,
                "JEPGCKHKDDD": true,
                "muteAllHitText": true
            },
            "combatLock": {
                "lockShape": "CircleLockEnemy",
                "denyLockOn": true,
                "lockType": "Default"
            }
        },
        "attackAttenuation": "",
        "abilities": [
            {
                "abilityID": "",
                "abilityName": "LaSignora_BaneChisel_Bullet_Damage",
                "abilityOverride": ""
            }
        ],
        "BDPGABAMMPP": {
            "lifeTime": 5.0
        }
    },
    "LaSignora_Wrap_Follow": {
        "$type": "IOHCOOOBCPH",
        "combat": {
            "property": {
                "useCreatorProperty": true,
                "HP": 999999.0,
                "attack": 10.0,
                "defense": 999999.0,
                "isInvincible": true,
                "canTriggerBullet": true,
                "denyElementStick": true
            },
            "beHit": {
                "hitBloodEffect": "",
                "GKIOKIDJLCA": true,
                "JEPGCKHKDDD": true,
                "muteAllHitText": true
            },
            "combatLock": {
                "lockShape": "CircleLockEnemy",
                "denyLockOn": true,
                "lockType": "Default"
            }
        },
        "attackAttenuation": "",
        "BDPGABAMMPP": {
            "lifeTime": 10.0
        },
        "move": {
            "$type": "EHIGOGOLKOO",
            "BGKIHCPJBMO": {
                "muteAll": true
            },
            "NOFDPFHMFNM": 0.10000000149011612,
            "HFFPPCEMOGJ": true
        },
        "MNNPNOAELLI": {
            "$type": "AFPECAAHDNC",
            "collision": {}
        }
    },
    "LaSignora_IceCocoon": {
        "$type": "IOHCOOOBCPH",
        "common": {
            "effectAttachShape": {
                "$type": "DNEEEIMONPN",
                "EJAEFCDBDFB": "EffectMesh"
            },
            "affectedByWorld": true,
            "scale": 1.5
        },
        "specialPoint": {
            "elementAbsorb": "RootNode",
            "elementPendant": "",
            "elementDrop": "RootNode",
            "bulletAim": "AimPoint"
        },
        "KNGBEDDABOM": true,
        "combat": {
            "property": {
                "HP": 999999.0,
                "attack": 10.0,
                "defense": 999999.0,
                "isLockHP": true
            },
            "beHit": {
                "hitBloodEffect": "",
                "muteAllHitText": true
            },
            "combatLock": {
                "lockShape": "CircleLockEnemy",
                "lockType": "Avatar&Monster_Lv4"
            }
        },
        "attackAttenuation": "",
        "abilities": [
            {
                "abilityID": "",
                "abilityName": "LaSignora_IceCocoon",
                "abilityOverride": ""
            }
        ],
        "BDPGABAMMPP": {
            "lifeInfinite": true
        }
    },
    "LaSignora_FlameDesire": {
        "$type": "IOHCOOOBCPH",
        "attackAttenuation": "",
        "abilities": [
            {
                "abilityID": "",
                "abilityName": "LaSignora_FlameDesire",
                "abilityOverride": ""
            }
        ],
        "BDPGABAMMPP": {
            "lifeInfinite": true
        },
        "JJENAKLGBNC": {
            "BGJCIKIOCLM": "TEST/TEST_Chest_Btn",
            "ALEGNEJBLAF": "",
            "JHAIJNHCFPC": "WidgetMPSupport",
            "DAHONBOOPGI": [
                "LaSignora_FlameDesire"
            ],
            "icon": "",
            "KKMMGKBKLNB": "",
            "GEDPHHDMFAD": "",
            "NIBCCLBLADB": ""
        }
    },
    "LaSignora_IceCocoon_FrostBlume_Anchor": {
        "$type": "IOHCOOOBCPH",
        "common": {},
        "combat": {
            "property": {
                "useCreatorProperty": true,
                "HP": 999999.0,
                "attack": 15.0,
                "defense": 999999.0,
                "isInvincible": true,
                "canTriggerBullet": true,
                "denyElementStick": true
            },
            "beHit": {
                "hitBloodEffect": "",
                "GKIOKIDJLCA": true,
                "JEPGCKHKDDD": true,
                "muteAllHitText": true
            },
            "combatLock": {
                "lockShape": "CircleLockEnemy",
                "denyLockOn": true,
                "lockType": "Default"
            }
        },
        "attackAttenuation": "",
        "abilities": [
            {
                "abilityID": "",
                "abilityName": "LaSignora_IceCocoon_FrostBlume_Anchor",
                "abilityOverride": ""
            }
        ],
        "BDPGABAMMPP": {
            "lifeTime": 10.0
        }
    },
    "LaSignora_IceCocoon_FrostBlume_Bullet": {
        "$type": "IOHCOOOBCPH",
        "combat": {
            "property": {
                "useCreatorProperty": true,
                "HP": 999999.0,
                "attack": 10.0,
                "defense": 999999.0,
                "isInvincible": true,
                "canTriggerBullet": true,
                "denyElementStick": true
            },
            "beHit": {
                "hitBloodEffect": "",
                "GKIOKIDJLCA": true,
                "JEPGCKHKDDD": true,
                "muteAllHitText": true
            },
            "combatLock": {
                "lockShape": "CircleLockEnemy",
                "denyLockOn": true,
                "lockType": "Default"
            }
        },
        "attackAttenuation": "",
        "abilities": [
            {
                "abilityID": "",
                "abilityName": "LaSignora_IceCocoon_FrostBlume_Bullet",
                "abilityOverride": ""
            }
        ],
        "BDPGABAMMPP": {
            "lifeTime": 2.0
        },
        "move": {
            "$type": "CJBKMBOOPHF",
            "NOFDPFHMFNM": 10.0,
            "EILJBCHMAIH": 10.0,
            "BLECDCEAOFM": {
                "$type": "HMFDMPDLMCJ"
            }
        },
        "MNNPNOAELLI": {
            "$type": "AFPECAAHDNC",
            "collision": {
                "triggerType": "TriggerNoRepeat",
                "targetType": "Enemy"
            },
            "HDABNDJLLCO": [
                {
                    "$type": "HLFEAMOONEP",
                    "abilityName": "LaSignora_IceCocoon_FrostBlume_Bullet"
                }
            ]
        }
    },
    "LaSignora_IceCocoon_FrostBlume_Gadget": {
        "$type": "IOHCOOOBCPH",
        "common": {},
        "combat": {
            "property": {
                "useCreatorProperty": true,
                "HP": 999999.0,
                "attack": 15.0,
                "defense": 999999.0,
                "isInvincible": true,
                "canTriggerBullet": true,
                "denyElementStick": true
            },
            "beHit": {
                "hitBloodEffect": "",
                "GKIOKIDJLCA": true,
                "JEPGCKHKDDD": true,
                "muteAllHitText": true
            },
            "combatLock": {
                "lockShape": "CircleLockEnemy",
                "denyLockOn": true,
                "lockType": "Default"
            }
        },
        "attackAttenuation": "",
        "abilities": [
            {
                "abilityID": "",
                "abilityName": "LaSignora_IceCocoon_FrostBlume_Gadget",
                "abilityOverride": ""
            }
        ],
        "BDPGABAMMPP": {
            "lifeTime": 10.0
        }
    },
    "LaSignora_IceCocoon_BaneChisel_Single_Bullet": {
        "$type": "IOHCOOOBCPH",
        "combat": {
            "property": {
                "useCreatorProperty": true,
                "HP": 999999.0,
                "attack": 10.0,
                "defense": 999999.0,
                "isInvincible": true,
                "canTriggerBullet": true,
                "denyElementStick": true
            },
            "beHit": {
                "hitBloodEffect": "",
                "GKIOKIDJLCA": true,
                "JEPGCKHKDDD": true,
                "muteAllHitText": true
            },
            "combatLock": {
                "lockShape": "CircleLockEnemy",
                "denyLockOn": true,
                "lockType": "Default"
            }
        },
        "attackAttenuation": "",
        "abilities": [
            {
                "abilityID": "",
                "abilityName": "LaSignora_IceCocoon_BaneChisel_Single_Bullet",
                "abilityOverride": ""
            }
        ],
        "BDPGABAMMPP": {
            "lifeTime": 10.0
        },
        "move": {
            "$type": "MNCDFIAEMIA",
            "NOFDPFHMFNM": 15.0,
            "maxSpeed": 20.0,
            "minSpeed": 15.0,
            "NDLHJKADBGC": 1080.0,
            "EILJBCHMAIH": 3.0,
            "BLECDCEAOFM": {
                "$type": "HMFDMPDLMCJ"
            },
            "ELPLIOJMJND": 60.0,
            "NNDCMFPMIFK": 0.30000001192092896,
            "JKPFKNHDNKE": 1080.0,
            "NIMNPPDBKIH": 0.5
        },
        "MNNPNOAELLI": {
            "$type": "AFPECAAHDNC",
            "collision": {
                "targetType": "Enemy"
            },
            "HDABNDJLLCO": [
                {
                    "$type": "HLFEAMOONEP",
                    "abilityName": "LaSignora_IceCocoon_BaneChisel_Single_Bullet"
                }
            ]
        }
    },
    "LaSignora_Harbinger_ShatteredDelusion": {
        "$type": "IOHCOOOBCPH",
        "common": {},
        "combat": {
            "property": {
                "useCreatorProperty": true,
                "isLockHP": true,
                "canTriggerBullet": true,
                "ABKGDMJEMJJ": true
            },
            "beHit": {
                "hitBloodEffect": "",
                "hitAutoRedirect": false,
                "muteAllHitText": true
            },
            "combatLock": {
                "lockShape": "CircleLockEnemy",
                "lockType": "Gear_Lv3"
            }
        },
        "attackAttenuation": "",
        "abilities": [
            {
                "abilityID": "",
                "abilityName": "LaSignora_Harbinger_ShatteredDelusion",
                "abilityOverride": ""
            }
        ],
        "billboard": {
            "$type": "HFEGKLAIGGI",
            "IIKEHINGEME": "BillboardAttach",
            "offset": {
                "y": 1.350000023841858
            },
            "HECLHMINJII": 0.5,
            "showDistance": 48.0,
            "DMHOOGGGDKG": true,
            "KAJOCAAOIFN": 48.0,
            "size": "Small",
            "GFHHHAEBHHL": true
        }
    },
    "LaSignora_Harbinger_ShatteredDelusion_01": {
        "$type": "IOHCOOOBCPH",
        "common": {},
        "combat": {
            "property": {
                "useCreatorProperty": true,
                "isLockHP": true,
                "canTriggerBullet": true,
                "ABKGDMJEMJJ": true
            },
            "beHit": {
                "hitBloodEffect": "",
                "hitAutoRedirect": false,
                "muteAllHitText": true
            },
            "combatLock": {
                "lockShape": "CircleLockEnemy",
                "lockType": "Gear_Lv3"
            }
        },
        "attackAttenuation": "",
        "abilities": [
            {
                "abilityID": "",
                "abilityName": "LaSignora_Harbinger_ShatteredDelusion",
                "abilityOverride": ""
            },
            {
                "abilityID": "",
                "abilityName": "LaSignora_Harbinger_ShatteredDelusion_01",
                "abilityOverride": ""
            }
        ],
        "billboard": {
            "$type": "HFEGKLAIGGI",
            "IIKEHINGEME": "BillboardAttach",
            "offset": {
                "y": 1.350000023841858
            },
            "HECLHMINJII": 0.5,
            "showDistance": 48.0,
            "DMHOOGGGDKG": true,
            "KAJOCAAOIFN": 48.0,
            "size": "Small",
            "GFHHHAEBHHL": true
        }
    },
    "LaSignora_Harbinger_ShatteredDelusion_02": {
        "$type": "IOHCOOOBCPH",
        "common": {},
        "combat": {
            "property": {
                "useCreatorProperty": true,
                "isLockHP": true,
                "canTriggerBullet": true,
                "ABKGDMJEMJJ": true
            },
            "beHit": {
                "hitBloodEffect": "",
                "hitAutoRedirect": false,
                "muteAllHitText": true
            },
            "combatLock": {
                "lockShape": "CircleLockEnemy",
                "lockType": "Gear_Lv3"
            }
        },
        "attackAttenuation": "",
        "abilities": [
            {
                "abilityID": "",
                "abilityName": "LaSignora_Harbinger_ShatteredDelusion",
                "abilityOverride": ""
            },
            {
                "abilityID": "",
                "abilityName": "LaSignora_Harbinger_ShatteredDelusion_02",
                "abilityOverride": ""
            }
        ],
        "billboard": {
            "$type": "HFEGKLAIGGI",
            "IIKEHINGEME": "BillboardAttach",
            "offset": {
                "y": 1.350000023841858
            },
            "HECLHMINJII": 0.5,
            "showDistance": 48.0,
            "DMHOOGGGDKG": true,
            "KAJOCAAOIFN": 48.0,
            "size": "Small",
            "GFHHHAEBHHL": true
        }
    },
    "LaSignora_Harbinger_ShatteredDelusion_03": {
        "$type": "IOHCOOOBCPH",
        "common": {},
        "combat": {
            "property": {
                "useCreatorProperty": true,
                "isLockHP": true,
                "canTriggerBullet": true,
                "ABKGDMJEMJJ": true
            },
            "beHit": {
                "hitBloodEffect": "",
                "hitAutoRedirect": false,
                "muteAllHitText": true
            },
            "combatLock": {
                "lockShape": "CircleLockEnemy",
                "lockType": "Gear_Lv3"
            }
        },
        "attackAttenuation": "",
        "abilities": [
            {
                "abilityID": "",
                "abilityName": "LaSignora_Harbinger_ShatteredDelusion",
                "abilityOverride": ""
            },
            {
                "abilityID": "",
                "abilityName": "LaSignora_Harbinger_ShatteredDelusion_03",
                "abilityOverride": ""
            }
        ],
        "billboard": {
            "$type": "HFEGKLAIGGI",
            "IIKEHINGEME": "BillboardAttach",
            "offset": {
                "y": 1.350000023841858
            },
            "HECLHMINJII": 0.5,
            "showDistance": 48.0,
            "DMHOOGGGDKG": true,
            "KAJOCAAOIFN": 48.0,
            "size": "Small",
            "GFHHHAEBHHL": true
        }
    },
    "LaSignora_Harbinger_ShatteredDelusion_04": {
        "$type": "IOHCOOOBCPH",
        "common": {},
        "combat": {
            "property": {
                "useCreatorProperty": true,
                "isLockHP": true,
                "canTriggerBullet": true,
                "ABKGDMJEMJJ": true
            },
            "beHit": {
                "hitBloodEffect": "",
                "hitAutoRedirect": false,
                "muteAllHitText": true
            },
            "combatLock": {
                "lockShape": "CircleLockEnemy",
                "lockType": "Gear_Lv3"
            }
        },
        "attackAttenuation": "",
        "abilities": [
            {
                "abilityID": "",
                "abilityName": "LaSignora_Harbinger_ShatteredDelusion",
                "abilityOverride": ""
            },
            {
                "abilityID": "",
                "abilityName": "LaSignora_Harbinger_ShatteredDelusion_04",
                "abilityOverride": ""
            }
        ],
        "billboard": {
            "$type": "HFEGKLAIGGI",
            "IIKEHINGEME": "BillboardAttach",
            "offset": {
                "y": 1.350000023841858
            },
            "HECLHMINJII": 0.5,
            "showDistance": 48.0,
            "DMHOOGGGDKG": true,
            "KAJOCAAOIFN": 48.0,
            "size": "Small",
            "GFHHHAEBHHL": true
        }
    },
    "LaSignora_Harbinger_FrameWave_Bullet": {
        "$type": "IOHCOOOBCPH",
        "combat": {
            "property": {
                "useCreatorProperty": true,
                "HP": 999999.0,
                "attack": 10.0,
                "defense": 999999.0,
                "isInvincible": true,
                "canTriggerBullet": true,
                "denyElementStick": true
            },
            "beHit": {
                "hitBloodEffect": "",
                "GKIOKIDJLCA": true,
                "JEPGCKHKDDD": true,
                "muteAllHitText": true
            },
            "combatLock": {
                "lockShape": "CircleLockEnemy",
                "denyLockOn": true,
                "lockType": "Default"
            }
        },
        "attackAttenuation": "",
        "abilities": [
            {
                "abilityID": "",
                "abilityName": "LaSignora_Harbinger_FrameWave_Bullet",
                "abilityOverride": ""
            },
            {
                "abilityID": "",
                "abilityName": "LaSignora_Harbinger_FrameWave_Bullet_Damage",
                "abilityOverride": ""
            }
        ],
        "BDPGABAMMPP": {
            "lifeTime": 5.0
        },
        "move": {
            "$type": "EHIGOGOLKOO",
            "NOFDPFHMFNM": 8.0,
            "NDLHJKADBGC": 90.0,
            "BLECDCEAOFM": {
                "$type": "HMFDMPDLMCJ"
            },
            "HFFPPCEMOGJ": true
        },
        "MNNPNOAELLI": {
            "$type": "AFPECAAHDNC",
            "collision": {
                "triggerType": "TriggerAlways",
                "triggerCD": 1.0,
                "targetType": "Enemy",
                "ignoreScene": true
            },
            "HDABNDJLLCO": [
                {
                    "$type": "HLFEAMOONEP",
                    "abilityName": "LaSignora_Harbinger_FrameWave_Bullet_Damage"
                }
            ],
            "MHOEMLCBJOO": [
                {
                    "$type": "HLFEAMOONEP",
                    "abilityName": "LaSignora_Harbinger_FrameWave_Bullet"
                }
            ]
        }
    },
    "LaSignora_Harbinger_EarthShake_Anchor": {
        "$type": "IOHCOOOBCPH",
        "common": {},
        "combat": {
            "property": {
                "useCreatorProperty": true,
                "HP": 999999.0,
                "attack": 15.0,
                "defense": 999999.0,
                "isInvincible": true,
                "canTriggerBullet": true,
                "denyElementStick": true
            },
            "beHit": {
                "hitBloodEffect": "",
                "GKIOKIDJLCA": true,
                "JEPGCKHKDDD": true,
                "muteAllHitText": true
            },
            "combatLock": {
                "lockShape": "CircleLockEnemy",
                "denyLockOn": true,
                "lockType": "Default"
            }
        },
        "attackAttenuation": "",
        "abilities": [
            {
                "abilityID": "",
                "abilityName": "LaSignora_Harbinger_EarthShake_Anchor",
                "abilityOverride": ""
            }
        ],
        "BDPGABAMMPP": {
            "lifeTime": 3.0
        }
    },
    "LaSignora_Harbinger_RushMove_Anchor": {
        "$type": "IOHCOOOBCPH",
        "attackAttenuation": "",
        "BDPGABAMMPP": {
            "lifeTime": 10.0
        }
    },
    "LaSignora_Harbinger_RushMove_Bullet": {
        "$type": "IOHCOOOBCPH",
        "combat": {
            "property": {
                "useCreatorProperty": true,
                "HP": 999999.0,
                "attack": 10.0,
                "defense": 999999.0,
                "isInvincible": true,
                "canTriggerBullet": true,
                "denyElementStick": true
            },
            "beHit": {
                "hitBloodEffect": "",
                "GKIOKIDJLCA": true,
                "JEPGCKHKDDD": true,
                "muteAllHitText": true
            },
            "combatLock": {
                "lockShape": "CircleLockEnemy",
                "denyLockOn": true,
                "lockType": "Default"
            }
        },
        "attackAttenuation": "",
        "abilities": [
            {
                "abilityID": "",
                "abilityName": "LaSignora_Harbinger_RushMove_Bullet",
                "abilityOverride": ""
            }
        ],
        "BDPGABAMMPP": {
            "lifeTime": 8.0
        },
        "move": {
            "$type": "BELFBLEANMG",
            "BGKIHCPJBMO": {
                "muteAll": true
            },
            "target": "TargetEntity",
            "IIKEHINGEME": "",
            "ABIHJGPBBFD": true,
            "IHAJOCLBEOK": ""
        },
        "MNNPNOAELLI": {
            "$type": "AFPECAAHDNC",
            "collision": {
                "triggerType": "TriggerAlways",
                "triggerCD": 1.0,
                "targetType": "Enemy",
                "ignoreScene": true
            },
            "HDABNDJLLCO": [
                {
                    "$type": "HLFEAMOONEP",
                    "abilityName": "LaSignora_Harbinger_RushMove_Bullet"
                }
            ]
        }
    },
    "LaSignora_Harbinger_RushMove_Bullet_Scene": {
        "$type": "IOHCOOOBCPH",
        "combat": {
            "property": {
                "useCreatorProperty": true,
                "HP": 999999.0,
                "attack": 10.0,
                "defense": 999999.0,
                "isInvincible": true,
                "canTriggerBullet": true,
                "denyElementStick": true
            },
            "beHit": {
                "hitBloodEffect": "",
                "GKIOKIDJLCA": true,
                "JEPGCKHKDDD": true,
                "muteAllHitText": true
            },
            "combatLock": {
                "lockShape": "CircleLockEnemy",
                "denyLockOn": true,
                "lockType": "Default"
            }
        },
        "attackAttenuation": "",
        "abilities": [
            {
                "abilityID": "",
                "abilityName": "LaSignora_Harbinger_RushMove_Bullet_Scene",
                "abilityOverride": ""
            }
        ],
        "BDPGABAMMPP": {
            "lifeTime": 8.0
        },
        "move": {
            "$type": "BELFBLEANMG",
            "BGKIHCPJBMO": {
                "muteAll": true
            },
            "target": "TargetEntity",
            "IIKEHINGEME": "",
            "ABIHJGPBBFD": true,
            "IHAJOCLBEOK": ""
        },
        "MNNPNOAELLI": {
            "$type": "AFPECAAHDNC",
            "collision": {
                "triggerType": "TriggerAlways",
                "targetType": "Enemy",
                "ignoreScene": true
            },
            "HDABNDJLLCO": [
                {
                    "$type": "HLFEAMOONEP",
                    "abilityName": "LaSignora_Harbinger_RushMove_Bullet_Scene"
                }
            ]
        }
    },
    "LaSignora_Harbinger_Fury_Bullet_Anchor": {
        "$type": "IOHCOOOBCPH",
        "combat": {
            "property": {
                "useCreatorProperty": true,
                "HP": 999999.0,
                "attack": 10.0,
                "defense": 999999.0,
                "isInvincible": true,
                "canTriggerBullet": true,
                "denyElementStick": true
            },
            "beHit": {
                "hitBloodEffect": "",
                "GKIOKIDJLCA": true,
                "JEPGCKHKDDD": true,
                "muteAllHitText": true
            },
            "combatLock": {
                "lockShape": "CircleLockEnemy",
                "denyLockOn": true,
                "lockType": "Default"
            }
        },
        "attackAttenuation": "",
        "abilities": [
            {
                "abilityID": "",
                "abilityName": "LaSignora_Harbinger_Fury_Bullet_Anchor",
                "abilityOverride": ""
            }
        ],
        "BDPGABAMMPP": {
            "lifeTime": 10.0
        }
    },
    "LaSignora_Harbinger_Fury_Bullet": {
        "$type": "IOHCOOOBCPH",
        "combat": {
            "property": {
                "useCreatorProperty": true,
                "HP": 999999.0,
                "attack": 10.0,
                "defense": 999999.0,
                "isInvincible": true,
                "canTriggerBullet": true,
                "denyElementStick": true
            },
            "beHit": {
                "hitBloodEffect": "",
                "GKIOKIDJLCA": true,
                "JEPGCKHKDDD": true,
                "muteAllHitText": true
            },
            "combatLock": {
                "lockShape": "CircleLockEnemy",
                "denyLockOn": true,
                "lockType": "Default"
            }
        },
        "attackAttenuation": "",
        "abilities": [
            {
                "abilityID": "",
                "abilityName": "LaSignora_Harbinger_Fury_Bullet",
                "abilityOverride": ""
            }
        ],
        "BDPGABAMMPP": {
            "lifeTime": 5.0
        },
        "move": {
            "$type": "CJBKMBOOPHF",
            "BGKIHCPJBMO": {
                "muteAll": true
            },
            "NOFDPFHMFNM": 20.0,
            "EILJBCHMAIH": 10.0,
            "BLECDCEAOFM": {
                "$type": "HMFDMPDLMCJ"
            }
        },
        "MNNPNOAELLI": {
            "$type": "AFPECAAHDNC",
            "collision": {
                "triggerType": "TriggerNoRepeat"
            }
        }
    },
    "LaSignora_Harbinger_MagmaCurtain_Bullet": {
        "$type": "IOHCOOOBCPH",
        "combat": {
            "property": {
                "useCreatorProperty": true,
                "HP": 999999.0,
                "attack": 10.0,
                "defense": 999999.0,
                "isInvincible": true,
                "canTriggerBullet": true,
                "denyElementStick": true
            },
            "beHit": {
                "hitBloodEffect": "",
                "GKIOKIDJLCA": true,
                "JEPGCKHKDDD": true,
                "muteAllHitText": true
            },
            "combatLock": {
                "lockShape": "CircleLockEnemy",
                "denyLockOn": true,
                "lockType": "Default"
            }
        },
        "attackAttenuation": "",
        "abilities": [
            {
                "abilityID": "",
                "abilityName": "LaSignora_Harbinger_MagmaCurtain_Bullet",
                "abilityOverride": ""
            }
        ],
        "BDPGABAMMPP": {
            "lifeTime": 5.0
        },
        "move": {
            "$type": "FEJKPHBAIHP",
            "BGKIHCPJBMO": {
                "muteAll": true
            },
            "NOFDPFHMFNM": 12.0,
            "BLECDCEAOFM": {
                "$type": "HMFDMPDLMCJ"
            },
            "IFJAOJKFNIK": 0.5,
            "EPLFGAAFNIM": 30.0
        },
        "MNNPNOAELLI": {
            "$type": "AFPECAAHDNC",
            "collision": {},
            "HDABNDJLLCO": [
                {
                    "$type": "HLFEAMOONEP",
                    "abilityName": "LaSignora_Harbinger_MagmaCurtain_Bullet"
                }
            ]
        }
    },
    "LaSignora_Harbinger_FrameSeeker_Bullet": {
        "$type": "IOHCOOOBCPH",
        "combat": {
            "property": {
                "useCreatorProperty": true,
                "HP": 999999.0,
                "attack": 10.0,
                "defense": 999999.0,
                "isInvincible": true,
                "canTriggerBullet": true,
                "denyElementStick": true
            },
            "beHit": {
                "hitBloodEffect": "",
                "GKIOKIDJLCA": true,
                "JEPGCKHKDDD": true,
                "muteAllHitText": true
            },
            "combatLock": {
                "lockShape": "CircleLockEnemy",
                "denyLockOn": true,
                "lockType": "Default"
            }
        },
        "attackAttenuation": "",
        "abilities": [
            {
                "abilityID": "",
                "abilityName": "LaSignora_Harbinger_FrameSeeker_Bullet",
                "abilityOverride": ""
            }
        ],
        "BDPGABAMMPP": {
            "lifeTime": 5.0
        },
        "move": {
            "$type": "CJBKMBOOPHF",
            "BGKIHCPJBMO": {
                "muteAll": true
            },
            "NOFDPFHMFNM": 15.0,
            "EILJBCHMAIH": -5.0,
            "BLECDCEAOFM": {
                "$type": "HMFDMPDLMCJ"
            }
        },
        "MNNPNOAELLI": {
            "$type": "AFPECAAHDNC",
            "collision": {
                "triggerType": "TriggerAlways",
                "triggerCD": 1.0,
                "targetType": "Enemy",
                "ignoreScene": true
            },
            "HDABNDJLLCO": [
                {
                    "$type": "HLFEAMOONEP",
                    "abilityName": "LaSignora_Harbinger_FrameSeeker_Bullet"
                }
            ]
        }
    },
    "LaSignora_Harbinger_Tornado_Bullet_Follow": {
        "$type": "IOHCOOOBCPH",
        "combat": {
            "property": {
                "useCreatorProperty": true,
                "HP": 999999.0,
                "attack": 10.0,
                "defense": 999999.0,
                "isInvincible": true,
                "canTriggerBullet": true,
                "denyElementStick": true
            },
            "beHit": {
                "hitBloodEffect": "",
                "GKIOKIDJLCA": true,
                "JEPGCKHKDDD": true,
                "muteAllHitText": true
            },
            "combatLock": {
                "lockShape": "CircleLockEnemy",
                "denyLockOn": true,
                "lockType": "Default"
            }
        },
        "attackAttenuation": "",
        "abilities": [
            {
                "abilityID": "",
                "abilityName": "LaSignora_Harbinger_Tornado_Bullet_Follow",
                "abilityOverride": ""
            }
        ],
        "BDPGABAMMPP": {
            "lifeTime": 15.0
        },
        "move": {
            "$type": "BELFBLEANMG",
            "BGKIHCPJBMO": {
                "muteAll": true
            },
            "target": "TargetEntity",
            "IIKEHINGEME": "RootNode",
            "IHAJOCLBEOK": ""
        },
        "MNNPNOAELLI": {
            "$type": "AFPECAAHDNC",
            "collision": {
                "triggerType": "TriggerAlways",
                "triggerCD": 1.0,
                "targetType": "Enemy",
                "ignoreScene": true
            },
            "HDABNDJLLCO": [
                {
                    "$type": "HLFEAMOONEP",
                    "abilityName": "LaSignora_Harbinger_Tornado_Bullet_Follow"
                }
            ]
        }
    },
    "LaSignora_Harbinger_Tornado_Bullet_Gap": {
        "$type": "IOHCOOOBCPH",
        "combat": {
            "property": {
                "useCreatorProperty": true,
                "HP": 999999.0,
                "attack": 10.0,
                "defense": 999999.0,
                "isInvincible": true,
                "canTriggerBullet": true,
                "denyElementStick": true
            },
            "beHit": {
                "hitBloodEffect": "",
                "GKIOKIDJLCA": true,
                "JEPGCKHKDDD": true,
                "muteAllHitText": true
            },
            "combatLock": {
                "lockShape": "CircleLockEnemy",
                "denyLockOn": true,
                "lockType": "Default"
            }
        },
        "attackAttenuation": "",
        "abilities": [
            {
                "abilityID": "",
                "abilityName": "LaSignora_Harbinger_Tornado_Bullet_Gap",
                "abilityOverride": ""
            },
            {
                "abilityID": "",
                "abilityName": "LaSignora_Harbinger_Tornado_Bullet_Gap_Damage",
                "abilityOverride": ""
            }
        ],
        "BDPGABAMMPP": {
            "lifeTime": 2.0
        },
        "move": {
            "$type": "CJBKMBOOPHF",
            "BGKIHCPJBMO": {
                "muteAll": true
            },
            "NOFDPFHMFNM": 12.0,
            "BLECDCEAOFM": {
                "$type": "HMFDMPDLMCJ"
            }
        },
        "MNNPNOAELLI": {
            "$type": "AFPECAAHDNC",
            "collision": {
                "triggerType": "TriggerAlways",
                "triggerCD": 1.0,
                "targetType": "Enemy",
                "ignoreScene": true
            },
            "HDABNDJLLCO": [
                {
                    "$type": "HLFEAMOONEP",
                    "abilityName": "LaSignora_Harbinger_Tornado_Bullet_Gap_Damage"
                }
            ],
            "MHOEMLCBJOO": [
                {
                    "$type": "HLFEAMOONEP",
                    "abilityName": "LaSignora_Harbinger_Tornado_Bullet_Gap"
                }
            ]
        }
    },
    "LaSignora_Harbinger_Tornado_Bullet_Stay": {
        "$type": "IOHCOOOBCPH",
        "combat": {
            "property": {
                "useCreatorProperty": true,
                "HP": 999999.0,
                "attack": 10.0,
                "defense": 999999.0,
                "isInvincible": true,
                "canTriggerBullet": true,
                "denyElementStick": true
            },
            "beHit": {
                "hitBloodEffect": "",
                "GKIOKIDJLCA": true,
                "JEPGCKHKDDD": true,
                "muteAllHitText": true
            },
            "combatLock": {
                "lockShape": "CircleLockEnemy",
                "denyLockOn": true,
                "lockType": "Default"
            }
        },
        "attackAttenuation": "",
        "abilities": [
            {
                "abilityID": "",
                "abilityName": "LaSignora_Harbinger_Tornado_Bullet_Stay",
                "abilityOverride": ""
            },
            {
                "abilityID": "",
                "abilityName": "LaSignora_Harbinger_Tornado_Bullet_Stay_Damage",
                "abilityOverride": ""
            }
        ],
        "BDPGABAMMPP": {
            "lifeTime": 12.0
        },
        "move": {
            "$type": "DDKFBOMNHAJ",
            "BGKIHCPJBMO": {
                "muteAll": true
            },
            "NOFDPFHMFNM": 7.0,
            "CAMKOAKMJHD": 0.25,
            "radius": 7.0,
            "LOFPGDFOCLJ": true,
            "FHNHGAMGOKE": 0.20000000298023224,
            "HGJFIENGDNH": 0.5
        },
        "MNNPNOAELLI": {
            "$type": "AFPECAAHDNC",
            "collision": {
                "triggerType": "TriggerAlways",
                "triggerCD": 1.0,
                "targetType": "Enemy",
                "ignoreScene": true
            },
            "HDABNDJLLCO": [
                {
                    "$type": "HLFEAMOONEP",
                    "abilityName": "LaSignora_Harbinger_Tornado_Bullet_Stay_Damage"
                }
            ],
            "MHOEMLCBJOO": [
                {
                    "$type": "HLFEAMOONEP",
                    "abilityName": "LaSignora_Harbinger_Tornado_Bullet_Stay"
                }
            ]
        }
    },
    "LaSignora_Harbinger_Tornado_BulletAnchor_Stay": {
        "$type": "IOHCOOOBCPH",
        "combat": {
            "property": {
                "isInvincible": true,
                "canTriggerBullet": true,
                "denyElementStick": true,
                "ignorePurgeRate": false
            },
            "beHit": {
                "hitBloodEffect": "",
                "GKIOKIDJLCA": true,
                "JEPGCKHKDDD": true,
                "muteAllHitText": true
            },
            "combatLock": {
                "lockShape": "CircleLockEnemy",
                "denyLockOn": true,
                "lockType": "Default"
            }
        },
        "attackAttenuation": "",
        "abilities": [
            {
                "abilityID": "",
                "abilityName": "LaSignora_Harbinger_Tornado_BulletAnchor_Stay",
                "abilityOverride": ""
            }
        ],
        "BDPGABAMMPP": {
            "lifeTime": 15.0
        }
    }
}