{
    "1a079d44-5a5d-4bb2-b30b-31192d2a62a9": {
        "Guid": "1a079d44-5a5d-4bb2-b30b-31192d2a62a9",
        "playRate": 1.0,
        "GameTrigger": "Dialog",
        "gameTriggerArgs": 40010309,
        "personalConfig": 2,
        "ParentID": "334c1615-4db4-4c9b-9afa-92b969fc7ac4",
        "SourceNames": [
            {
                "sourceFileName": "VO_AQ\\VO_neuvillette\\vo_FDAQ005_2_neuvillette_06.wem",
                "rate": 1.0,
                "avatarName": "",
                "emotion": ""
            }
        ]
    },
    "1c66926b-c9c2-43ed-a128-5bec56d4ff47": {
        "Guid": "1c66926b-c9c2-43ed-a128-5bec56d4ff47",
        "playRate": 1.0,
        "GameTrigger": "Dialog",
        "gameTriggerArgs": 40010329,
        "personalConfig": 2,
        "ParentID": "334c1615-4db4-4c9b-9afa-92b969fc7ac4",
        "SourceNames": [
            {
                "sourceFileName": "VO_AQ\\VO_navia\\vo_FDAQ005_2_navia_14.wem",
                "rate": 1.0,
                "avatarName": "",
                "emotion": ""
            }
        ]
    },
    "231bc681-c99e-4b84-af23-478082fac26a": {
        "Guid": "231bc681-c99e-4b84-af23-478082fac26a",
        "playRate": 1.0,
        "GameTrigger": "Dialog",
        "gameTriggerArgs": 40010319,
        "personalConfig": 2,
        "ParentID": "334c1615-4db4-4c9b-9afa-92b969fc7ac4",
        "SourceNames": [
            {
                "sourceFileName": "VO_AQ\\VO_navia\\vo_FDAQ005_2_navia_05.wem",
                "rate": 1.0,
                "avatarName": "",
                "emotion": ""
            }
        ]
    },
    "242cc18b-dfc2-4e24-b58e-5c249b9687af": {
        "Guid": "242cc18b-dfc2-4e24-b58e-5c249b9687af",
        "playRate": 1.0,
        "GameTrigger": "Dialog",
        "gameTriggerArgs": 40010305,
        "personalConfig": 2,
        "ParentID": "334c1615-4db4-4c9b-9afa-92b969fc7ac4",
        "SourceNames": [
            {
                "sourceFileName": "VO_AQ\\VO_neuvillette\\vo_FDAQ005_2_neuvillette_03.wem",
                "rate": 1.0,
                "avatarName": "",
                "emotion": ""
            }
        ]
    },
    "244f3982-f076-4afa-9cb2-41caa32c0760": {
        "Guid": "244f3982-f076-4afa-9cb2-41caa32c0760",
        "playRate": 1.0,
        "GameTrigger": "Dialog",
        "gameTriggerArgs": 40010306,
        "personalConfig": 2,
        "ParentID": "334c1615-4db4-4c9b-9afa-92b969fc7ac4",
        "SourceNames": [
            {
                "sourceFileName": "VO_AQ\\VO_paimon\\vo_FDAQ005_2_paimon_03.wem",
                "rate": 1.0,
                "avatarName": "",
                "emotion": ""
            }
        ]
    },
    "248acac9-bb96-4c0c-bb9d-db1432bb2ba3": {
        "Guid": "248acac9-bb96-4c0c-bb9d-db1432bb2ba3",
        "playRate": 1.0,
        "GameTrigger": "Dialog",
        "gameTriggerArgs": 40010304,
        "personalConfig": 2,
        "ParentID": "334c1615-4db4-4c9b-9afa-92b969fc7ac4",
        "SourceNames": [
            {
                "sourceFileName": "VO_AQ\\VO_navia\\vo_FDAQ005_2_navia_01.wem",
                "rate": 1.0,
                "avatarName": "",
                "emotion": ""
            }
        ]
    },
    "27f1d4cd-380c-406e-b53e-7b874cc56162": {
        "Guid": "27f1d4cd-380c-406e-b53e-7b874cc56162",
        "playRate": 1.0,
        "GameTrigger": "Dialog",
        "gameTriggerArgs": 40010335,
        "personalConfig": 2,
        "ParentID": "334c1615-4db4-4c9b-9afa-92b969fc7ac4",
        "SourceNames": [
            {
                "sourceFileName": "VO_AQ\\VO_navia\\vo_FDAQ005_2_navia_18.wem",
                "rate": 1.0,
                "avatarName": "",
                "emotion": ""
            }
        ]
    },
    "28818a2c-2f17-4355-9ded-bb2227c3c883": {
        "Guid": "28818a2c-2f17-4355-9ded-bb2227c3c883",
        "playRate": 1.0,
        "GameTrigger": "Dialog",
        "gameTriggerArgs": 40010326,
        "personalConfig": 2,
        "ParentID": "334c1615-4db4-4c9b-9afa-92b969fc7ac4",
        "SourceNames": [
            {
                "sourceFileName": "VO_AQ\\VO_navia\\vo_FDAQ005_2_navia_11.wem",
                "rate": 1.0,
                "avatarName": "",
                "emotion": ""
            }
        ]
    },
    "3aa9f518-72db-4eae-a691-8bf77c3c8ed6": {
        "Guid": "3aa9f518-72db-4eae-a691-8bf77c3c8ed6",
        "playRate": 1.0,
        "GameTrigger": "Dialog",
        "gameTriggerArgs": 40010321,
        "personalConfig": 2,
        "ParentID": "334c1615-4db4-4c9b-9afa-92b969fc7ac4",
        "SourceNames": [
            {
                "sourceFileName": "VO_AQ\\VO_neuvillette\\vo_FDAQ005_2_neuvillette_10.wem",
                "rate": 1.0,
                "avatarName": "",
                "emotion": ""
            }
        ]
    },
    "421bbaa8-1e94-4bb4-81e7-40e2e489e76a": {
        "Guid": "421bbaa8-1e94-4bb4-81e7-40e2e489e76a",
        "playRate": 1.0,
        "GameTrigger": "Dialog",
        "gameTriggerArgs": 40019903,
        "personalConfig": 2,
        "IsPlayOnTeam": true,
        "ParentID": "334c1615-4db4-4c9b-9afa-92b969fc7ac4",
        "SourceNames": [
            {
                "sourceFileName": "VO_AQ\\VO_neuvillette\\vo_FDAQ005_2_neuvillette_01.wem",
                "rate": 1.0,
                "avatarName": "",
                "emotion": ""
            }
        ]
    },
    "511896a6-1c98-404e-8587-4822ba2deb4d": {
        "Guid": "511896a6-1c98-404e-8587-4822ba2deb4d",
        "playRate": 1.0,
        "GameTrigger": "Dialog",
        "gameTriggerArgs": 40010320,
        "personalConfig": 2,
        "ParentID": "334c1615-4db4-4c9b-9afa-92b969fc7ac4",
        "SourceNames": [
            {
                "sourceFileName": "VO_AQ\\VO_navia\\vo_FDAQ005_2_navia_06.wem",
                "rate": 1.0,
                "avatarName": "",
                "emotion": ""
            }
        ]
    },
    "57f2aee5-993b-4453-9e2f-8adf14767d71": {
        "Guid": "57f2aee5-993b-4453-9e2f-8adf14767d71",
        "playRate": 1.0,
        "GameTrigger": "Dialog",
        "gameTriggerArgs": 40010312,
        "personalConfig": 2,
        "ParentID": "334c1615-4db4-4c9b-9afa-92b969fc7ac4",
        "SourceNames": [
            {
                "sourceFileName": "VO_AQ\\VO_paimon\\vo_FDAQ005_2_paimon_04.wem",
                "rate": 1.0,
                "avatarName": "",
                "emotion": ""
            }
        ]
    },
    "5a1a5922-ce8f-425d-b682-0df3eb5571e3": {
        "Guid": "5a1a5922-ce8f-425d-b682-0df3eb5571e3",
        "playRate": 1.0,
        "GameTrigger": "Dialog",
        "gameTriggerArgs": 40010318,
        "personalConfig": 2,
        "ParentID": "334c1615-4db4-4c9b-9afa-92b969fc7ac4",
        "SourceNames": [
            {
                "sourceFileName": "VO_AQ\\VO_navia\\vo_FDAQ005_2_navia_04.wem",
                "rate": 1.0,
                "avatarName": "",
                "emotion": ""
            }
        ]
    },
    "8315aeba-ddd4-4c21-8c40-576f4d083b90": {
        "Guid": "8315aeba-ddd4-4c21-8c40-576f4d083b90",
        "playRate": 1.0,
        "GameTrigger": "Dialog",
        "gameTriggerArgs": 40010328,
        "personalConfig": 2,
        "ParentID": "334c1615-4db4-4c9b-9afa-92b969fc7ac4",
        "SourceNames": [
            {
                "sourceFileName": "VO_AQ\\VO_navia\\vo_FDAQ005_2_navia_13.wem",
                "rate": 1.0,
                "avatarName": "",
                "emotion": ""
            }
        ]
    },
    "83279f36-af15-4ebb-a87d-54909703cd27": {
        "Guid": "83279f36-af15-4ebb-a87d-54909703cd27",
        "playRate": 1.0,
        "GameTrigger": "Dialog",
        "gameTriggerArgs": 40010303,
        "personalConfig": 2,
        "ParentID": "334c1615-4db4-4c9b-9afa-92b969fc7ac4",
        "SourceNames": [
            {
                "sourceFileName": "VO_AQ\\VO_paimon\\vo_FDAQ005_2_paimon_02.wem",
                "rate": 1.0,
                "avatarName": "",
                "emotion": ""
            }
        ]
    },
    "8f982879-1b97-44a6-aaac-70d27da3258c": {
        "Guid": "8f982879-1b97-44a6-aaac-70d27da3258c",
        "playRate": 1.0,
        "GameTrigger": "Dialog",
        "gameTriggerArgs": 40010317,
        "personalConfig": 2,
        "ParentID": "334c1615-4db4-4c9b-9afa-92b969fc7ac4",
        "SourceNames": [
            {
                "sourceFileName": "VO_AQ\\VO_navia\\vo_FDAQ005_2_navia_03.wem",
                "rate": 1.0,
                "avatarName": "",
                "emotion": ""
            }
        ]
    },
    "9b537fe4-0767-4331-ab05-be0bd4cd22d7": {
        "Guid": "9b537fe4-0767-4331-ab05-be0bd4cd22d7",
        "playRate": 1.0,
        "GameTrigger": "Dialog",
        "gameTriggerArgs": 40010307,
        "personalConfig": 2,
        "ParentID": "334c1615-4db4-4c9b-9afa-92b969fc7ac4",
        "SourceNames": [
            {
                "sourceFileName": "VO_AQ\\VO_neuvillette\\vo_FDAQ005_2_neuvillette_04.wem",
                "rate": 1.0,
                "avatarName": "",
                "emotion": ""
            }
        ]
    },
    "a37cd0d9-b2c4-44d4-869a-9bf9e1bf3ab2": {
        "Guid": "a37cd0d9-b2c4-44d4-869a-9bf9e1bf3ab2",
        "playRate": 1.0,
        "GameTrigger": "Dialog",
        "gameTriggerArgs": 40010325,
        "personalConfig": 2,
        "ParentID": "334c1615-4db4-4c9b-9afa-92b969fc7ac4",
        "SourceNames": [
            {
                "sourceFileName": "VO_AQ\\VO_navia\\vo_FDAQ005_2_navia_10.wem",
                "rate": 1.0,
                "avatarName": "",
                "emotion": ""
            }
        ]
    },
    "b1fdfe00-0733-4780-b131-70449552e008": {
        "Guid": "b1fdfe00-0733-4780-b131-70449552e008",
        "playRate": 1.0,
        "GameTrigger": "Dialog",
        "gameTriggerArgs": 40010302,
        "personalConfig": 2,
        "ParentID": "334c1615-4db4-4c9b-9afa-92b969fc7ac4",
        "SourceNames": [
            {
                "sourceFileName": "VO_AQ\\VO_neuvillette\\vo_FDAQ005_2_neuvillette_02.wem",
                "rate": 1.0,
                "avatarName": "",
                "emotion": ""
            }
        ]
    },
    "b3b770a8-99ce-413f-969f-28736447e81e": {
        "Guid": "b3b770a8-99ce-413f-969f-28736447e81e",
        "playRate": 1.0,
        "GameTrigger": "Dialog",
        "gameTriggerArgs": 40010332,
        "personalConfig": 2,
        "ParentID": "334c1615-4db4-4c9b-9afa-92b969fc7ac4",
        "SourceNames": [
            {
                "sourceFileName": "VO_AQ\\VO_navia\\vo_FDAQ005_2_navia_15.wem",
                "rate": 1.0,
                "avatarName": "",
                "emotion": ""
            }
        ]
    },
    "be2b7a0f-580b-4e80-afa0-470a4ab94c00": {
        "Guid": "be2b7a0f-580b-4e80-afa0-470a4ab94c00",
        "playRate": 1.0,
        "GameTrigger": "Dialog",
        "gameTriggerArgs": 40010301,
        "personalConfig": 2,
        "ParentID": "334c1615-4db4-4c9b-9afa-92b969fc7ac4",
        "SourceNames": [
            {
                "sourceFileName": "VO_AQ\\VO_paimon\\vo_FDAQ005_2_paimon_01.wem",
                "rate": 1.0,
                "avatarName": "",
                "emotion": ""
            }
        ]
    },
    "c0f876e3-28f6-4136-a36d-9ac3b4addaac": {
        "Guid": "c0f876e3-28f6-4136-a36d-9ac3b4addaac",
        "playRate": 1.0,
        "GameTrigger": "Dialog",
        "gameTriggerArgs": 40010316,
        "personalConfig": 2,
        "ParentID": "334c1615-4db4-4c9b-9afa-92b969fc7ac4",
        "SourceNames": [
            {
                "sourceFileName": "VO_AQ\\VO_neuvillette\\vo_FDAQ005_2_neuvillette_09.wem",
                "rate": 1.0,
                "avatarName": "",
                "emotion": ""
            }
        ]
    },
    "c1f5ec15-2b32-4acf-82f0-33fdfc013257": {
        "Guid": "c1f5ec15-2b32-4acf-82f0-33fdfc013257",
        "playRate": 1.0,
        "GameTrigger": "Dialog",
        "gameTriggerArgs": 40010327,
        "personalConfig": 2,
        "ParentID": "334c1615-4db4-4c9b-9afa-92b969fc7ac4",
        "SourceNames": [
            {
                "sourceFileName": "VO_AQ\\VO_navia\\vo_FDAQ005_2_navia_12.wem",
                "rate": 1.0,
                "avatarName": "",
                "emotion": ""
            }
        ]
    },
    "d0463975-5687-493b-9036-51d225d25c16": {
        "Guid": "d0463975-5687-493b-9036-51d225d25c16",
        "playRate": 1.0,
        "GameTrigger": "Dialog",
        "gameTriggerArgs": 40010308,
        "personalConfig": 2,
        "ParentID": "334c1615-4db4-4c9b-9afa-92b969fc7ac4",
        "SourceNames": [
            {
                "sourceFileName": "VO_AQ\\VO_neuvillette\\vo_FDAQ005_2_neuvillette_05.wem",
                "rate": 1.0,
                "avatarName": "",
                "emotion": ""
            }
        ]
    },
    "e43fa72d-468b-4b6d-8e04-c6b31d5a4268": {
        "Guid": "e43fa72d-468b-4b6d-8e04-c6b31d5a4268",
        "playRate": 1.0,
        "GameTrigger": "Dialog",
        "gameTriggerArgs": 40010323,
        "personalConfig": 2,
        "ParentID": "334c1615-4db4-4c9b-9afa-92b969fc7ac4",
        "SourceNames": [
            {
                "sourceFileName": "VO_AQ\\VO_navia\\vo_FDAQ005_2_navia_08.wem",
                "rate": 1.0,
                "avatarName": "",
                "emotion": ""
            }
        ]
    },
    "e518fc42-7069-4eba-9e84-0324b5f98b19": {
        "Guid": "e518fc42-7069-4eba-9e84-0324b5f98b19",
        "playRate": 1.0,
        "GameTrigger": "Dialog",
        "gameTriggerArgs": 40010314,
        "personalConfig": 2,
        "ParentID": "334c1615-4db4-4c9b-9afa-92b969fc7ac4",
        "SourceNames": [
            {
                "sourceFileName": "VO_AQ\\VO_neuvillette\\vo_FDAQ005_2_neuvillette_07.wem",
                "rate": 1.0,
                "avatarName": "",
                "emotion": ""
            }
        ]
    },
    "e69293b3-4b77-4a5b-93dc-19f200e785aa": {
        "Guid": "e69293b3-4b77-4a5b-93dc-19f200e785aa",
        "playRate": 1.0,
        "GameTrigger": "Dialog",
        "gameTriggerArgs": 40010313,
        "personalConfig": 2,
        "ParentID": "334c1615-4db4-4c9b-9afa-92b969fc7ac4",
        "SourceNames": [
            {
                "sourceFileName": "VO_AQ\\VO_navia\\vo_FDAQ005_2_navia_02.wem",
                "rate": 1.0,
                "avatarName": "",
                "emotion": ""
            }
        ]
    },
    "ebbac196-f433-48ed-b65e-a945b0b15a0f": {
        "Guid": "ebbac196-f433-48ed-b65e-a945b0b15a0f",
        "playRate": 1.0,
        "GameTrigger": "Dialog",
        "gameTriggerArgs": 40010330,
        "personalConfig": 2,
        "ParentID": "334c1615-4db4-4c9b-9afa-92b969fc7ac4",
        "SourceNames": [
            {
                "sourceFileName": "VO_AQ\\VO_neuvillette\\vo_FDAQ005_2_neuvillette_11.wem",
                "rate": 1.0,
                "avatarName": "",
                "emotion": ""
            }
        ]
    },
    "f10f53c4-137e-4a5c-af2d-5b378daba42e": {
        "Guid": "f10f53c4-137e-4a5c-af2d-5b378daba42e",
        "playRate": 1.0,
        "GameTrigger": "Dialog",
        "gameTriggerArgs": 40010315,
        "personalConfig": 2,
        "ParentID": "334c1615-4db4-4c9b-9afa-92b969fc7ac4",
        "SourceNames": [
            {
                "sourceFileName": "VO_AQ\\VO_neuvillette\\vo_FDAQ005_2_neuvillette_08.wem",
                "rate": 1.0,
                "avatarName": "",
                "emotion": ""
            }
        ]
    },
    "f22ea927-9e61-4a22-98d8-586d7acc6fb4": {
        "Guid": "f22ea927-9e61-4a22-98d8-586d7acc6fb4",
        "playRate": 1.0,
        "GameTrigger": "Dialog",
        "gameTriggerArgs": 40010331,
        "personalConfig": 2,
        "ParentID": "334c1615-4db4-4c9b-9afa-92b969fc7ac4",
        "SourceNames": [
            {
                "sourceFileName": "VO_AQ\\VO_neuvillette\\vo_FDAQ005_2_neuvillette_12.wem",
                "rate": 1.0,
                "avatarName": "",
                "emotion": ""
            }
        ]
    },
    "f9fc5a43-7d5d-4104-86bb-2219958fdd86": {
        "Guid": "f9fc5a43-7d5d-4104-86bb-2219958fdd86",
        "playRate": 1.0,
        "GameTrigger": "Dialog",
        "gameTriggerArgs": 40010333,
        "personalConfig": 2,
        "ParentID": "334c1615-4db4-4c9b-9afa-92b969fc7ac4",
        "SourceNames": [
            {
                "sourceFileName": "VO_AQ\\VO_navia\\vo_FDAQ005_2_navia_16.wem",
                "rate": 1.0,
                "avatarName": "",
                "emotion": ""
            }
        ]
    },
    "fcadb46a-9791-4c97-8ddd-09ca05fc2b1c": {
        "Guid": "fcadb46a-9791-4c97-8ddd-09ca05fc2b1c",
        "playRate": 1.0,
        "GameTrigger": "Dialog",
        "gameTriggerArgs": 40010324,
        "personalConfig": 2,
        "ParentID": "334c1615-4db4-4c9b-9afa-92b969fc7ac4",
        "SourceNames": [
            {
                "sourceFileName": "VO_AQ\\VO_navia\\vo_FDAQ005_2_navia_09.wem",
                "rate": 1.0,
                "avatarName": "",
                "emotion": ""
            }
        ]
    },
    "fd4b8741-3791-4a8e-8bc7-653c061386f4": {
        "Guid": "fd4b8741-3791-4a8e-8bc7-653c061386f4",
        "playRate": 1.0,
        "GameTrigger": "Dialog",
        "gameTriggerArgs": 40010334,
        "personalConfig": 2,
        "ParentID": "334c1615-4db4-4c9b-9afa-92b969fc7ac4",
        "SourceNames": [
            {
                "sourceFileName": "VO_AQ\\VO_navia\\vo_FDAQ005_2_navia_17.wem",
                "rate": 1.0,
                "avatarName": "",
                "emotion": ""
            }
        ]
    },
    "fee644a2-4140-4ef2-85d1-867bd9f3e607": {
        "Guid": "fee644a2-4140-4ef2-85d1-867bd9f3e607",
        "playRate": 1.0,
        "GameTrigger": "Dialog",
        "gameTriggerArgs": 40010322,
        "personalConfig": 2,
        "ParentID": "334c1615-4db4-4c9b-9afa-92b969fc7ac4",
        "SourceNames": [
            {
                "sourceFileName": "VO_AQ\\VO_navia\\vo_FDAQ005_2_navia_07.wem",
                "rate": 1.0,
                "avatarName": "",
                "emotion": ""
            }
        ]
    }
}