{
    "015e6c8a-3d96-4679-849d-1f4c339ce1e6": {
        "Guid": "015e6c8a-3d96-4679-849d-1f4c339ce1e6",
        "playRate": 1.0,
        "GameTrigger": "Dialog",
        "gameTriggerArgs": 40061608,
        "personalConfig": 2,
        "ParentID": "be0c7c6c-8780-417c-8ba0-06db7576f202",
        "SourceNames": [
            {
                "sourceFileName": "VO_AQ\\VO_navia\\vo_FDAQ003_28_navia_39.wem",
                "rate": 1.0,
                "avatarName": "",
                "emotion": ""
            }
        ]
    },
    "03b99e36-2ff7-4dbe-acea-e6e1787a25c3": {
        "Guid": "03b99e36-2ff7-4dbe-acea-e6e1787a25c3",
        "playRate": 1.0,
        "GameTrigger": "Dialog",
        "gameTriggerArgs": 40061583,
        "personalConfig": 2,
        "ParentID": "be0c7c6c-8780-417c-8ba0-06db7576f202",
        "SourceNames": [
            {
                "sourceFileName": "VO_AQ\\VO_paimon\\vo_FDAQ003_28_paimon_21.wem",
                "rate": 1.0,
                "avatarName": "",
                "emotion": ""
            }
        ]
    },
    "05c9b7fe-0f6f-409f-9c5e-6860f6749c79": {
        "Guid": "05c9b7fe-0f6f-409f-9c5e-6860f6749c79",
        "playRate": 1.0,
        "GameTrigger": "Dialog",
        "gameTriggerArgs": 40061549,
        "personalConfig": 2,
        "ParentID": "be0c7c6c-8780-417c-8ba0-06db7576f202",
        "SourceNames": [
            {
                "sourceFileName": "VO_AQ\\VO_paimon\\vo_FDAQ003_28_paimon_12.wem",
                "rate": 1.0,
                "avatarName": "",
                "emotion": ""
            }
        ]
    },
    "088b87f2-d293-4b60-bbdd-aedf5c78d641": {
        "Guid": "088b87f2-d293-4b60-bbdd-aedf5c78d641",
        "playRate": 1.0,
        "GameTrigger": "Dialog",
        "gameTriggerArgs": 40061535,
        "personalConfig": 2,
        "ParentID": "be0c7c6c-8780-417c-8ba0-06db7576f202",
        "SourceNames": [
            {
                "sourceFileName": "VO_AQ\\VO_paimon\\vo_FDAQ003_28_paimon_06.wem",
                "rate": 1.0,
                "avatarName": "",
                "emotion": ""
            }
        ]
    },
    "0e9897df-5a54-462e-b9e9-337169837a86": {
        "Guid": "0e9897df-5a54-462e-b9e9-337169837a86",
        "playRate": 1.0,
        "GameTrigger": "Dialog",
        "gameTriggerArgs": 40061580,
        "personalConfig": 2,
        "ParentID": "be0c7c6c-8780-417c-8ba0-06db7576f202",
        "SourceNames": [
            {
                "sourceFileName": "VO_AQ\\VO_navia\\vo_FDAQ003_28_navia_31.wem",
                "rate": 1.0,
                "avatarName": "",
                "emotion": ""
            }
        ]
    },
    "19288803-96e9-4563-896c-c4f8307b6cac": {
        "Guid": "19288803-96e9-4563-896c-c4f8307b6cac",
        "playRate": 1.0,
        "GameTrigger": "Dialog",
        "gameTriggerArgs": 40061551,
        "personalConfig": 2,
        "ParentID": "be0c7c6c-8780-417c-8ba0-06db7576f202",
        "SourceNames": [
            {
                "sourceFileName": "VO_AQ\\VO_NPC\\vo_FDAQ003_28_silver_03.wem",
                "rate": 1.0,
                "avatarName": "",
                "emotion": ""
            }
        ]
    },
    "19b4ad04-2847-4f0e-8f22-5d13109368ad": {
        "Guid": "19b4ad04-2847-4f0e-8f22-5d13109368ad",
        "playRate": 1.0,
        "GameTrigger": "Dialog",
        "gameTriggerArgs": 40061601,
        "personalConfig": 2,
        "ParentID": "be0c7c6c-8780-417c-8ba0-06db7576f202",
        "SourceNames": [
            {
                "sourceFileName": "VO_AQ\\VO_paimon\\vo_FDAQ003_28_paimon_29.wem",
                "rate": 1.0,
                "avatarName": "",
                "emotion": ""
            }
        ]
    },
    "1b53c627-9a85-4f18-bbad-9fd3c0d01884": {
        "Guid": "1b53c627-9a85-4f18-bbad-9fd3c0d01884",
        "playRate": 1.0,
        "GameTrigger": "Dialog",
        "gameTriggerArgs": 40061528,
        "personalConfig": 2,
        "ParentID": "be0c7c6c-8780-417c-8ba0-06db7576f202",
        "SourceNames": [
            {
                "sourceFileName": "VO_AQ\\VO_navia\\vo_FDAQ003_28_navia_13.wem",
                "rate": 1.0,
                "avatarName": "",
                "emotion": ""
            }
        ]
    },
    "1ca82c8b-9bb6-4bc6-a023-531d4a067916": {
        "Guid": "1ca82c8b-9bb6-4bc6-a023-531d4a067916",
        "playRate": 1.0,
        "GameTrigger": "Dialog",
        "gameTriggerArgs": 40061579,
        "personalConfig": 2,
        "ParentID": "be0c7c6c-8780-417c-8ba0-06db7576f202",
        "SourceNames": [
            {
                "sourceFileName": "VO_AQ\\VO_navia\\vo_FDAQ003_28_navia_30.wem",
                "rate": 1.0,
                "avatarName": "",
                "emotion": ""
            }
        ]
    },
    "1cfe5ee8-9788-4c1a-b695-0c4ca42e7c86": {
        "Guid": "1cfe5ee8-9788-4c1a-b695-0c4ca42e7c86",
        "playRate": 1.0,
        "GameTrigger": "Dialog",
        "gameTriggerArgs": 40061512,
        "personalConfig": 2,
        "ParentID": "be0c7c6c-8780-417c-8ba0-06db7576f202",
        "SourceNames": [
            {
                "sourceFileName": "VO_AQ\\VO_paimon\\vo_FDAQ003_28_paimon_02.wem",
                "rate": 1.0,
                "avatarName": "",
                "emotion": ""
            }
        ]
    },
    "1e193eb4-8e69-4c91-a90b-38a63646d909": {
        "Guid": "1e193eb4-8e69-4c91-a90b-38a63646d909",
        "playRate": 1.0,
        "GameTrigger": "Dialog",
        "gameTriggerArgs": 40061518,
        "personalConfig": 2,
        "ParentID": "be0c7c6c-8780-417c-8ba0-06db7576f202",
        "SourceNames": [
            {
                "sourceFileName": "VO_AQ\\VO_NPC\\vo_FDAQ003_28_marcillac_05.wem",
                "rate": 1.0,
                "avatarName": "",
                "emotion": ""
            }
        ]
    },
    "1eb13e41-6780-4bf4-9e1a-ae90fdc0c998": {
        "Guid": "1eb13e41-6780-4bf4-9e1a-ae90fdc0c998",
        "playRate": 1.0,
        "GameTrigger": "Dialog",
        "gameTriggerArgs": 40061585,
        "personalConfig": 2,
        "ParentID": "be0c7c6c-8780-417c-8ba0-06db7576f202",
        "SourceNames": [
            {
                "sourceFileName": "VO_AQ\\VO_paimon\\vo_FDAQ003_28_paimon_22.wem",
                "rate": 1.0,
                "avatarName": "",
                "emotion": ""
            }
        ]
    },
    "1fbadfb0-d7b3-4900-bb25-6cd780b193d9": {
        "Guid": "1fbadfb0-d7b3-4900-bb25-6cd780b193d9",
        "playRate": 1.0,
        "GameTrigger": "Dialog",
        "gameTriggerArgs": 40061572,
        "personalConfig": 2,
        "ParentID": "be0c7c6c-8780-417c-8ba0-06db7576f202",
        "SourceNames": [
            {
                "sourceFileName": "VO_AQ\\VO_navia\\vo_FDAQ003_28_navia_27.wem",
                "rate": 1.0,
                "avatarName": "",
                "emotion": ""
            }
        ]
    },
    "1fcf6c94-65b1-42eb-8c75-0e85eb110a8c": {
        "Guid": "1fcf6c94-65b1-42eb-8c75-0e85eb110a8c",
        "playRate": 1.0,
        "GameTrigger": "Dialog",
        "gameTriggerArgs": 40061542,
        "personalConfig": 2,
        "ParentID": "be0c7c6c-8780-417c-8ba0-06db7576f202",
        "SourceNames": [
            {
                "sourceFileName": "VO_AQ\\VO_NPC\\vo_FDAQ003_28_marcillac_11.wem",
                "rate": 1.0,
                "avatarName": "",
                "emotion": ""
            }
        ]
    },
    "205a2c0b-b961-4534-ad0b-4b2f7fbb852a": {
        "Guid": "205a2c0b-b961-4534-ad0b-4b2f7fbb852a",
        "playRate": 1.0,
        "GameTrigger": "Dialog",
        "gameTriggerArgs": 40061540,
        "personalConfig": 2,
        "ParentID": "be0c7c6c-8780-417c-8ba0-06db7576f202",
        "SourceNames": [
            {
                "sourceFileName": "VO_AQ\\VO_NPC\\vo_FDAQ003_28_marcillac_10.wem",
                "rate": 1.0,
                "avatarName": "",
                "emotion": ""
            }
        ]
    },
    "2a766464-7cbd-44ee-af85-a56a4543eaaa": {
        "Guid": "2a766464-7cbd-44ee-af85-a56a4543eaaa",
        "playRate": 1.0,
        "GameTrigger": "Dialog",
        "gameTriggerArgs": 40061517,
        "personalConfig": 2,
        "ParentID": "be0c7c6c-8780-417c-8ba0-06db7576f202",
        "SourceNames": [
            {
                "sourceFileName": "VO_AQ\\VO_navia\\vo_FDAQ003_28_navia_09.wem",
                "rate": 1.0,
                "avatarName": "",
                "emotion": ""
            }
        ]
    },
    "2a836a73-6b02-481c-9ed8-075122f38799": {
        "Guid": "2a836a73-6b02-481c-9ed8-075122f38799",
        "playRate": 1.0,
        "GameTrigger": "Dialog",
        "gameTriggerArgs": 40061586,
        "personalConfig": 2,
        "ParentID": "be0c7c6c-8780-417c-8ba0-06db7576f202",
        "SourceNames": [
            {
                "sourceFileName": "VO_AQ\\VO_NPC\\vo_FDAQ003_28_marcillac_15.wem",
                "rate": 1.0,
                "avatarName": "",
                "emotion": ""
            }
        ]
    },
    "2d805b7c-165d-4fdc-b411-afcd38531667": {
        "Guid": "2d805b7c-165d-4fdc-b411-afcd38531667",
        "playRate": 1.0,
        "GameTrigger": "Dialog",
        "gameTriggerArgs": 40061571,
        "personalConfig": 2,
        "ParentID": "be0c7c6c-8780-417c-8ba0-06db7576f202",
        "SourceNames": [
            {
                "sourceFileName": "VO_AQ\\VO_navia\\vo_FDAQ003_28_navia_26.wem",
                "rate": 1.0,
                "avatarName": "",
                "emotion": ""
            }
        ]
    },
    "2e3496d1-8661-4745-b154-4722e4178c47": {
        "Guid": "2e3496d1-8661-4745-b154-4722e4178c47",
        "playRate": 1.0,
        "GameTrigger": "Dialog",
        "gameTriggerArgs": 40061543,
        "personalConfig": 2,
        "ParentID": "be0c7c6c-8780-417c-8ba0-06db7576f202",
        "SourceNames": [
            {
                "sourceFileName": "VO_AQ\\VO_NPC\\vo_FDAQ003_28_silver_02.wem",
                "rate": 1.0,
                "avatarName": "",
                "emotion": ""
            }
        ]
    },
    "2ee71743-f2b3-4366-9da7-788a8dfbf9a6": {
        "Guid": "2ee71743-f2b3-4366-9da7-788a8dfbf9a6",
        "playRate": 1.0,
        "GameTrigger": "Dialog",
        "gameTriggerArgs": 40061554,
        "personalConfig": 2,
        "ParentID": "be0c7c6c-8780-417c-8ba0-06db7576f202",
        "SourceNames": [
            {
                "sourceFileName": "VO_AQ\\VO_paimon\\vo_FDAQ003_28_paimon_14.wem",
                "rate": 1.0,
                "avatarName": "",
                "emotion": ""
            }
        ]
    },
    "2f9c6b7e-f736-4984-8c79-0317b3815c93": {
        "Guid": "2f9c6b7e-f736-4984-8c79-0317b3815c93",
        "playRate": 1.0,
        "GameTrigger": "Dialog",
        "gameTriggerArgs": 40061566,
        "personalConfig": 2,
        "ParentID": "be0c7c6c-8780-417c-8ba0-06db7576f202",
        "SourceNames": [
            {
                "sourceFileName": "VO_AQ\\VO_navia\\vo_FDAQ003_28_navia_24.wem",
                "rate": 1.0,
                "avatarName": "",
                "emotion": ""
            }
        ]
    },
    "304043c0-ef71-4145-b335-b07b88b4d7fb": {
        "Guid": "304043c0-ef71-4145-b335-b07b88b4d7fb",
        "playRate": 1.0,
        "GameTrigger": "Dialog",
        "gameTriggerArgs": 40061506,
        "personalConfig": 2,
        "ParentID": "be0c7c6c-8780-417c-8ba0-06db7576f202",
        "SourceNames": [
            {
                "sourceFileName": "VO_AQ\\VO_NPC\\vo_FDAQ003_28_marcillac_03.wem",
                "rate": 1.0,
                "avatarName": "",
                "emotion": ""
            }
        ]
    },
    "31773bda-6471-4b80-8e08-80217011f4e1": {
        "Guid": "31773bda-6471-4b80-8e08-80217011f4e1",
        "playRate": 1.0,
        "GameTrigger": "Dialog",
        "gameTriggerArgs": 40061502,
        "personalConfig": 2,
        "ParentID": "be0c7c6c-8780-417c-8ba0-06db7576f202",
        "SourceNames": [
            {
                "sourceFileName": "VO_AQ\\VO_navia\\vo_FDAQ003_28_navia_02.wem",
                "rate": 1.0,
                "avatarName": "",
                "emotion": ""
            }
        ]
    },
    "38951164-9e4f-4fec-9fb2-3a23b767f47a": {
        "Guid": "38951164-9e4f-4fec-9fb2-3a23b767f47a",
        "playRate": 1.0,
        "GameTrigger": "Dialog",
        "gameTriggerArgs": 40061507,
        "personalConfig": 2,
        "ParentID": "be0c7c6c-8780-417c-8ba0-06db7576f202",
        "SourceNames": [
            {
                "sourceFileName": "VO_AQ\\VO_paimon\\vo_FDAQ003_28_paimon_01.wem",
                "rate": 1.0,
                "avatarName": "",
                "emotion": ""
            }
        ]
    },
    "38c44d5c-c85b-4856-8099-0f188ad7fb65": {
        "Guid": "38c44d5c-c85b-4856-8099-0f188ad7fb65",
        "playRate": 1.0,
        "GameTrigger": "Dialog",
        "gameTriggerArgs": 40061591,
        "personalConfig": 2,
        "ParentID": "be0c7c6c-8780-417c-8ba0-06db7576f202",
        "SourceNames": [
            {
                "sourceFileName": "VO_AQ\\VO_paimon\\vo_FDAQ003_28_paimon_25.wem",
                "rate": 1.0,
                "avatarName": "",
                "emotion": ""
            }
        ]
    },
    "429b9a2f-8f0a-4eb7-a960-10f8358eb932": {
        "Guid": "429b9a2f-8f0a-4eb7-a960-10f8358eb932",
        "playRate": 1.0,
        "GameTrigger": "Dialog",
        "gameTriggerArgs": 40061600,
        "personalConfig": 2,
        "ParentID": "be0c7c6c-8780-417c-8ba0-06db7576f202",
        "SourceNames": [
            {
                "sourceFileName": "VO_AQ\\VO_NPC\\vo_FDAQ003_28_silver_04.wem",
                "rate": 1.0,
                "avatarName": "",
                "emotion": ""
            }
        ]
    },
    "42bf2953-ee42-4ba2-b588-1f8bb4f37787": {
        "Guid": "42bf2953-ee42-4ba2-b588-1f8bb4f37787",
        "playRate": 1.0,
        "GameTrigger": "Dialog",
        "gameTriggerArgs": 40061573,
        "personalConfig": 2,
        "ParentID": "be0c7c6c-8780-417c-8ba0-06db7576f202",
        "SourceNames": [
            {
                "sourceFileName": "VO_AQ\\VO_paimon\\vo_FDAQ003_28_paimon_17.wem",
                "rate": 1.0,
                "avatarName": "",
                "emotion": ""
            }
        ]
    },
    "457c9fa9-69ec-4840-aaed-baf1569e4cb7": {
        "Guid": "457c9fa9-69ec-4840-aaed-baf1569e4cb7",
        "playRate": 1.0,
        "GameTrigger": "Dialog",
        "gameTriggerArgs": 40061560,
        "personalConfig": 2,
        "ParentID": "be0c7c6c-8780-417c-8ba0-06db7576f202",
        "SourceNames": [
            {
                "sourceFileName": "VO_AQ\\VO_NPC\\vo_FDAQ003_28_marcillac_13.wem",
                "rate": 1.0,
                "avatarName": "",
                "emotion": ""
            }
        ]
    },
    "45cf3773-dfad-47e5-84c2-1c4ef476a4d7": {
        "Guid": "45cf3773-dfad-47e5-84c2-1c4ef476a4d7",
        "playRate": 1.0,
        "GameTrigger": "Dialog",
        "gameTriggerArgs": 40061545,
        "personalConfig": 2,
        "ParentID": "be0c7c6c-8780-417c-8ba0-06db7576f202",
        "SourceNames": [
            {
                "sourceFileName": "VO_AQ\\VO_paimon\\vo_FDAQ003_28_paimon_10.wem",
                "rate": 1.0,
                "avatarName": "",
                "emotion": ""
            }
        ]
    },
    "461a16b3-40cf-44c4-b770-ba999f29e439": {
        "Guid": "461a16b3-40cf-44c4-b770-ba999f29e439",
        "playRate": 1.0,
        "GameTrigger": "Dialog",
        "gameTriggerArgs": 40061504,
        "personalConfig": 2,
        "ParentID": "be0c7c6c-8780-417c-8ba0-06db7576f202",
        "SourceNames": [
            {
                "sourceFileName": "VO_AQ\\VO_navia\\vo_FDAQ003_28_navia_03.wem",
                "rate": 1.0,
                "avatarName": "",
                "emotion": ""
            }
        ]
    },
    "4826eeb2-49f7-4ba2-b7be-786f602058fb": {
        "Guid": "4826eeb2-49f7-4ba2-b7be-786f602058fb",
        "playRate": 1.0,
        "GameTrigger": "Dialog",
        "gameTriggerArgs": 40061558,
        "personalConfig": 2,
        "ParentID": "be0c7c6c-8780-417c-8ba0-06db7576f202",
        "SourceNames": [
            {
                "sourceFileName": "VO_AQ\\VO_paimon\\vo_FDAQ003_28_paimon_15.wem",
                "rate": 1.0,
                "avatarName": "",
                "emotion": ""
            }
        ]
    },
    "492228b7-8231-4f9d-9ef0-e4a76631159f": {
        "Guid": "492228b7-8231-4f9d-9ef0-e4a76631159f",
        "playRate": 1.0,
        "GameTrigger": "Dialog",
        "gameTriggerArgs": 40061593,
        "personalConfig": 2,
        "ParentID": "be0c7c6c-8780-417c-8ba0-06db7576f202",
        "SourceNames": [
            {
                "sourceFileName": "VO_AQ\\VO_navia\\vo_FDAQ003_28_navia_33.wem",
                "rate": 1.0,
                "avatarName": "",
                "emotion": ""
            }
        ]
    },
    "4d115c77-1127-454b-8635-523e2f17c3a3": {
        "Guid": "4d115c77-1127-454b-8635-523e2f17c3a3",
        "playRate": 1.0,
        "GameTrigger": "Dialog",
        "gameTriggerArgs": 40061520,
        "personalConfig": 2,
        "ParentID": "be0c7c6c-8780-417c-8ba0-06db7576f202",
        "SourceNames": [
            {
                "sourceFileName": "VO_AQ\\VO_navia\\vo_FDAQ003_28_navia_10.wem",
                "rate": 1.0,
                "avatarName": "",
                "emotion": ""
            }
        ]
    },
    "51ee002b-f372-4c2a-a69e-1f77ee263d79": {
        "Guid": "51ee002b-f372-4c2a-a69e-1f77ee263d79",
        "playRate": 1.0,
        "GameTrigger": "Dialog",
        "gameTriggerArgs": 40061516,
        "personalConfig": 2,
        "ParentID": "be0c7c6c-8780-417c-8ba0-06db7576f202",
        "SourceNames": [
            {
                "sourceFileName": "VO_AQ\\VO_navia\\vo_FDAQ003_28_navia_08.wem",
                "rate": 1.0,
                "avatarName": "",
                "emotion": ""
            }
        ]
    },
    "52085cc8-7023-4453-bd58-2b55d8cab123": {
        "Guid": "52085cc8-7023-4453-bd58-2b55d8cab123",
        "playRate": 1.0,
        "GameTrigger": "Dialog",
        "gameTriggerArgs": 40061533,
        "personalConfig": 2,
        "ParentID": "be0c7c6c-8780-417c-8ba0-06db7576f202",
        "SourceNames": [
            {
                "sourceFileName": "VO_AQ\\VO_navia\\vo_FDAQ003_28_navia_14.wem",
                "rate": 1.0,
                "avatarName": "",
                "emotion": ""
            }
        ]
    },
    "57818cdf-2271-4650-9151-c6ff20f2f4f9": {
        "Guid": "57818cdf-2271-4650-9151-c6ff20f2f4f9",
        "playRate": 1.0,
        "GameTrigger": "Dialog",
        "gameTriggerArgs": 40061581,
        "personalConfig": 2,
        "ParentID": "be0c7c6c-8780-417c-8ba0-06db7576f202",
        "SourceNames": [
            {
                "sourceFileName": "VO_AQ\\VO_paimon\\vo_FDAQ003_28_paimon_19.wem",
                "rate": 1.0,
                "avatarName": "",
                "emotion": ""
            }
        ]
    },
    "58d41125-9353-4e49-8692-614efbce5fe9": {
        "Guid": "58d41125-9353-4e49-8692-614efbce5fe9",
        "playRate": 1.0,
        "GameTrigger": "Dialog",
        "gameTriggerArgs": 40061577,
        "personalConfig": 2,
        "ParentID": "be0c7c6c-8780-417c-8ba0-06db7576f202",
        "SourceNames": [
            {
                "sourceFileName": "VO_AQ\\VO_paimon\\vo_FDAQ003_28_paimon_18.wem",
                "rate": 1.0,
                "avatarName": "",
                "emotion": ""
            }
        ]
    },
    "58fd3699-29f4-4998-adfd-3fe082418d68": {
        "Guid": "58fd3699-29f4-4998-adfd-3fe082418d68",
        "playRate": 1.0,
        "GameTrigger": "Dialog",
        "gameTriggerArgs": 40061594,
        "personalConfig": 2,
        "ParentID": "be0c7c6c-8780-417c-8ba0-06db7576f202",
        "SourceNames": [
            {
                "sourceFileName": "VO_AQ\\VO_navia\\vo_FDAQ003_28_navia_34.wem",
                "rate": 1.0,
                "avatarName": "",
                "emotion": ""
            }
        ]
    },
    "5bba9d8f-f871-4425-baf4-239dd4f19c45": {
        "Guid": "5bba9d8f-f871-4425-baf4-239dd4f19c45",
        "playRate": 1.0,
        "GameTrigger": "Dialog",
        "gameTriggerArgs": 40061596,
        "personalConfig": 2,
        "ParentID": "be0c7c6c-8780-417c-8ba0-06db7576f202",
        "SourceNames": [
            {
                "sourceFileName": "VO_AQ\\VO_navia\\vo_FDAQ003_28_navia_35.wem",
                "rate": 1.0,
                "avatarName": "",
                "emotion": ""
            }
        ]
    },
    "64fcfed4-254a-4fc1-960f-a24ebf3252ad": {
        "Guid": "64fcfed4-254a-4fc1-960f-a24ebf3252ad",
        "playRate": 1.0,
        "GameTrigger": "Dialog",
        "gameTriggerArgs": 40061598,
        "personalConfig": 2,
        "ParentID": "be0c7c6c-8780-417c-8ba0-06db7576f202",
        "SourceNames": [
            {
                "sourceFileName": "VO_AQ\\VO_paimon\\vo_FDAQ003_28_paimon_28.wem",
                "rate": 1.0,
                "avatarName": "",
                "emotion": ""
            }
        ]
    },
    "6b788506-805a-4a07-83eb-5aeb9e38299a": {
        "Guid": "6b788506-805a-4a07-83eb-5aeb9e38299a",
        "playRate": 1.0,
        "GameTrigger": "Dialog",
        "gameTriggerArgs": 40061605,
        "personalConfig": 2,
        "ParentID": "be0c7c6c-8780-417c-8ba0-06db7576f202",
        "SourceNames": [
            {
                "sourceFileName": "VO_AQ\\VO_navia\\vo_FDAQ003_28_navia_37.wem",
                "rate": 1.0,
                "avatarName": "",
                "emotion": ""
            }
        ]
    },
    "6f832f8d-6b53-49fa-9fa2-4eb94fc77017": {
        "Guid": "6f832f8d-6b53-49fa-9fa2-4eb94fc77017",
        "playRate": 1.0,
        "GameTrigger": "Dialog",
        "gameTriggerArgs": 40061587,
        "personalConfig": 2,
        "ParentID": "be0c7c6c-8780-417c-8ba0-06db7576f202",
        "SourceNames": [
            {
                "sourceFileName": "VO_AQ\\VO_paimon\\vo_FDAQ003_28_paimon_23.wem",
                "rate": 1.0,
                "avatarName": "",
                "emotion": ""
            }
        ]
    },
    "703584c4-f500-4366-9339-9d726152f9f5": {
        "Guid": "703584c4-f500-4366-9339-9d726152f9f5",
        "playRate": 1.0,
        "GameTrigger": "Dialog",
        "gameTriggerArgs": 40061509,
        "personalConfig": 2,
        "ParentID": "be0c7c6c-8780-417c-8ba0-06db7576f202",
        "SourceNames": [
            {
                "sourceFileName": "VO_AQ\\VO_navia\\vo_FDAQ003_28_navia_04.wem",
                "rate": 1.0,
                "avatarName": "",
                "emotion": ""
            }
        ]
    },
    "70f7cb1c-b9d5-4290-95f2-0ddc8ba1e2b4": {
        "Guid": "70f7cb1c-b9d5-4290-95f2-0ddc8ba1e2b4",
        "playRate": 1.0,
        "GameTrigger": "Dialog",
        "gameTriggerArgs": 40061525,
        "personalConfig": 2,
        "ParentID": "be0c7c6c-8780-417c-8ba0-06db7576f202",
        "SourceNames": [
            {
                "sourceFileName": "VO_AQ\\VO_paimon\\vo_FDAQ003_28_paimon_04.wem",
                "rate": 1.0,
                "avatarName": "",
                "emotion": ""
            }
        ]
    },
    "712ab05d-a662-40a5-b9f8-de7108c0a325": {
        "Guid": "712ab05d-a662-40a5-b9f8-de7108c0a325",
        "playRate": 1.0,
        "GameTrigger": "Dialog",
        "gameTriggerArgs": 40061567,
        "personalConfig": 2,
        "ParentID": "be0c7c6c-8780-417c-8ba0-06db7576f202",
        "SourceNames": [
            {
                "sourceFileName": "VO_AQ\\VO_paimon\\vo_FDAQ003_28_paimon_16.wem",
                "rate": 1.0,
                "avatarName": "",
                "emotion": ""
            }
        ]
    },
    "7386ac3e-faaa-4281-9d8c-f35d24f63f17": {
        "Guid": "7386ac3e-faaa-4281-9d8c-f35d24f63f17",
        "playRate": 1.0,
        "GameTrigger": "Dialog",
        "gameTriggerArgs": 40061559,
        "personalConfig": 2,
        "ParentID": "be0c7c6c-8780-417c-8ba0-06db7576f202",
        "SourceNames": [
            {
                "sourceFileName": "VO_AQ\\VO_navia\\vo_FDAQ003_28_navia_21.wem",
                "rate": 1.0,
                "avatarName": "",
                "emotion": ""
            }
        ]
    },
    "78e6ffb4-267c-41ab-8c9a-05034aa9345d": {
        "Guid": "78e6ffb4-267c-41ab-8c9a-05034aa9345d",
        "playRate": 1.0,
        "GameTrigger": "Dialog",
        "gameTriggerArgs": 40061510,
        "personalConfig": 2,
        "ParentID": "be0c7c6c-8780-417c-8ba0-06db7576f202",
        "SourceNames": [
            {
                "sourceFileName": "VO_AQ\\VO_navia\\vo_FDAQ003_28_navia_05.wem",
                "rate": 1.0,
                "avatarName": "",
                "emotion": ""
            }
        ]
    },
    "7ad1e20a-b42e-4868-8a8d-1519d15e330b": {
        "Guid": "7ad1e20a-b42e-4868-8a8d-1519d15e330b",
        "playRate": 1.0,
        "GameTrigger": "Dialog",
        "gameTriggerArgs": 40061521,
        "personalConfig": 2,
        "ParentID": "be0c7c6c-8780-417c-8ba0-06db7576f202",
        "SourceNames": [
            {
                "sourceFileName": "VO_AQ\\VO_navia\\vo_FDAQ003_28_navia_11.wem",
                "rate": 1.0,
                "avatarName": "",
                "emotion": ""
            }
        ]
    },
    "7ece2e64-1162-4f10-b858-090f519350aa": {
        "Guid": "7ece2e64-1162-4f10-b858-090f519350aa",
        "playRate": 1.0,
        "GameTrigger": "Dialog",
        "gameTriggerArgs": 40061592,
        "personalConfig": 2,
        "ParentID": "be0c7c6c-8780-417c-8ba0-06db7576f202",
        "SourceNames": [
            {
                "sourceFileName": "VO_AQ\\VO_paimon\\vo_FDAQ003_28_paimon_26.wem",
                "rate": 1.0,
                "avatarName": "",
                "emotion": ""
            }
        ]
    },
    "7fd0210d-b9ba-4996-a5ac-be6ab44b2a0e": {
        "Guid": "7fd0210d-b9ba-4996-a5ac-be6ab44b2a0e",
        "playRate": 1.0,
        "GameTrigger": "Dialog",
        "gameTriggerArgs": 40061557,
        "personalConfig": 2,
        "ParentID": "be0c7c6c-8780-417c-8ba0-06db7576f202",
        "SourceNames": [
            {
                "sourceFileName": "VO_AQ\\VO_navia\\vo_FDAQ003_28_navia_20.wem",
                "rate": 1.0,
                "avatarName": "",
                "emotion": ""
            }
        ]
    },
    "874aa721-dd2c-4576-8fdc-90b139852303": {
        "Guid": "874aa721-dd2c-4576-8fdc-90b139852303",
        "playRate": 1.0,
        "GameTrigger": "Dialog",
        "gameTriggerArgs": 40061538,
        "personalConfig": 2,
        "ParentID": "be0c7c6c-8780-417c-8ba0-06db7576f202",
        "SourceNames": [
            {
                "sourceFileName": "VO_AQ\\VO_navia\\vo_FDAQ003_28_navia_16.wem",
                "rate": 1.0,
                "avatarName": "",
                "emotion": ""
            }
        ]
    },
    "883e62e8-4df7-40ee-a4b6-afdcdd88a0a2": {
        "Guid": "883e62e8-4df7-40ee-a4b6-afdcdd88a0a2",
        "playRate": 1.0,
        "GameTrigger": "Dialog",
        "gameTriggerArgs": 40061522,
        "personalConfig": 2,
        "ParentID": "be0c7c6c-8780-417c-8ba0-06db7576f202",
        "SourceNames": [
            {
                "sourceFileName": "VO_AQ\\VO_paimon\\vo_FDAQ003_28_paimon_03.wem",
                "rate": 1.0,
                "avatarName": "",
                "emotion": ""
            }
        ]
    },
    "8abf9c3a-0fe2-4369-9d43-52b59c2ccada": {
        "Guid": "8abf9c3a-0fe2-4369-9d43-52b59c2ccada",
        "playRate": 1.0,
        "GameTrigger": "Dialog",
        "gameTriggerArgs": 40061575,
        "personalConfig": 2,
        "ParentID": "be0c7c6c-8780-417c-8ba0-06db7576f202",
        "SourceNames": [
            {
                "sourceFileName": "VO_AQ\\VO_navia\\vo_FDAQ003_28_navia_28.wem",
                "rate": 1.0,
                "avatarName": "",
                "emotion": ""
            }
        ]
    },
    "8fb3f34e-9e04-4a94-adca-43f25cdca97b": {
        "Guid": "8fb3f34e-9e04-4a94-adca-43f25cdca97b",
        "playRate": 1.0,
        "GameTrigger": "Dialog",
        "gameTriggerArgs": 40061582,
        "personalConfig": 2,
        "ParentID": "be0c7c6c-8780-417c-8ba0-06db7576f202",
        "SourceNames": [
            {
                "sourceFileName": "VO_AQ\\VO_paimon\\vo_FDAQ003_28_paimon_20.wem",
                "rate": 1.0,
                "avatarName": "",
                "emotion": ""
            }
        ]
    },
    "973f1146-9618-4c8e-8cf3-1fe6adb783c0": {
        "Guid": "973f1146-9618-4c8e-8cf3-1fe6adb783c0",
        "playRate": 1.0,
        "GameTrigger": "Dialog",
        "gameTriggerArgs": 40061550,
        "personalConfig": 2,
        "ParentID": "be0c7c6c-8780-417c-8ba0-06db7576f202",
        "SourceNames": [
            {
                "sourceFileName": "VO_AQ\\VO_paimon\\vo_FDAQ003_28_paimon_13.wem",
                "rate": 1.0,
                "avatarName": "",
                "emotion": ""
            }
        ]
    },
    "a15baf48-b695-477d-8572-b49b5f00c36c": {
        "Guid": "a15baf48-b695-477d-8572-b49b5f00c36c",
        "playRate": 1.0,
        "GameTrigger": "Dialog",
        "gameTriggerArgs": 40061537,
        "personalConfig": 2,
        "ParentID": "be0c7c6c-8780-417c-8ba0-06db7576f202",
        "SourceNames": [
            {
                "sourceFileName": "VO_AQ\\VO_paimon\\vo_FDAQ003_28_paimon_07.wem",
                "rate": 1.0,
                "avatarName": "",
                "emotion": ""
            }
        ]
    },
    "a2c0192b-6326-4c81-9261-21f36853041e": {
        "Guid": "a2c0192b-6326-4c81-9261-21f36853041e",
        "playRate": 1.0,
        "GameTrigger": "Dialog",
        "gameTriggerArgs": 40061526,
        "personalConfig": 2,
        "ParentID": "be0c7c6c-8780-417c-8ba0-06db7576f202",
        "SourceNames": [
            {
                "sourceFileName": "VO_AQ\\VO_NPC\\vo_FDAQ003_28_marcillac_08.wem",
                "rate": 1.0,
                "avatarName": "",
                "emotion": ""
            }
        ]
    },
    "a2fc6ab9-8b01-4f01-a9ab-52846a6af680": {
        "Guid": "a2fc6ab9-8b01-4f01-a9ab-52846a6af680",
        "playRate": 1.0,
        "GameTrigger": "Dialog",
        "gameTriggerArgs": 40061595,
        "personalConfig": 2,
        "ParentID": "be0c7c6c-8780-417c-8ba0-06db7576f202",
        "SourceNames": [
            {
                "sourceFileName": "VO_AQ\\VO_paimon\\vo_FDAQ003_28_paimon_27.wem",
                "rate": 1.0,
                "avatarName": "",
                "emotion": ""
            }
        ]
    },
    "a9c9b11b-b68e-487a-b3cf-2eea76990eba": {
        "Guid": "a9c9b11b-b68e-487a-b3cf-2eea76990eba",
        "playRate": 1.0,
        "GameTrigger": "Dialog",
        "gameTriggerArgs": 40061531,
        "personalConfig": 2,
        "ParentID": "be0c7c6c-8780-417c-8ba0-06db7576f202",
        "SourceNames": [
            {
                "sourceFileName": "VO_AQ\\VO_NPC\\vo_FDAQ003_28_marcillac_09.wem",
                "rate": 1.0,
                "avatarName": "",
                "emotion": ""
            }
        ]
    },
    "aa2fa10e-8e61-4a30-8bc7-507061269fa2": {
        "Guid": "aa2fa10e-8e61-4a30-8bc7-507061269fa2",
        "playRate": 1.0,
        "GameTrigger": "Dialog",
        "gameTriggerArgs": 40061511,
        "personalConfig": 2,
        "ParentID": "be0c7c6c-8780-417c-8ba0-06db7576f202",
        "SourceNames": [
            {
                "sourceFileName": "VO_AQ\\VO_NPC\\vo_FDAQ003_28_marcillac_04.wem",
                "rate": 1.0,
                "avatarName": "",
                "emotion": ""
            }
        ]
    },
    "ace74fac-30e0-46c7-adc5-e974a076a29d": {
        "Guid": "ace74fac-30e0-46c7-adc5-e974a076a29d",
        "playRate": 1.0,
        "GameTrigger": "Dialog",
        "gameTriggerArgs": 40061563,
        "personalConfig": 2,
        "ParentID": "be0c7c6c-8780-417c-8ba0-06db7576f202",
        "SourceNames": [
            {
                "sourceFileName": "VO_AQ\\VO_NPC\\vo_FDAQ003_28_marcillac_14.wem",
                "rate": 1.0,
                "avatarName": "",
                "emotion": ""
            }
        ]
    },
    "b1f9a481-98d0-4492-9dee-ded4cbd5c54f": {
        "Guid": "b1f9a481-98d0-4492-9dee-ded4cbd5c54f",
        "playRate": 1.0,
        "GameTrigger": "Dialog",
        "gameTriggerArgs": 40061556,
        "personalConfig": 2,
        "ParentID": "be0c7c6c-8780-417c-8ba0-06db7576f202",
        "SourceNames": [
            {
                "sourceFileName": "VO_AQ\\VO_navia\\vo_FDAQ003_28_navia_19.wem",
                "rate": 1.0,
                "avatarName": "",
                "emotion": ""
            }
        ]
    },
    "b2dea52c-3287-4afd-aedb-0c7f1df76caf": {
        "Guid": "b2dea52c-3287-4afd-aedb-0c7f1df76caf",
        "playRate": 1.0,
        "GameTrigger": "Dialog",
        "gameTriggerArgs": 40061529,
        "personalConfig": 2,
        "ParentID": "be0c7c6c-8780-417c-8ba0-06db7576f202",
        "SourceNames": [
            {
                "sourceFileName": "VO_AQ\\VO_NPC\\vo_FDAQ003_28_silver_01.wem",
                "rate": 1.0,
                "avatarName": "",
                "emotion": ""
            }
        ]
    },
    "b34b3d54-f7f6-4f0a-98a1-5a9333088167": {
        "Guid": "b34b3d54-f7f6-4f0a-98a1-5a9333088167",
        "playRate": 1.0,
        "GameTrigger": "Dialog",
        "gameTriggerArgs": 40061599,
        "personalConfig": 2,
        "ParentID": "be0c7c6c-8780-417c-8ba0-06db7576f202",
        "SourceNames": [
            {
                "sourceFileName": "VO_AQ\\VO_NPC\\vo_FDAQ003_28_marcillac_16.wem",
                "rate": 1.0,
                "avatarName": "",
                "emotion": ""
            }
        ]
    },
    "b3b9ae49-42e4-4c9b-b340-2d17621437b5": {
        "Guid": "b3b9ae49-42e4-4c9b-b340-2d17621437b5",
        "playRate": 1.0,
        "GameTrigger": "Dialog",
        "gameTriggerArgs": 40061609,
        "personalConfig": 2,
        "ParentID": "be0c7c6c-8780-417c-8ba0-06db7576f202",
        "SourceNames": [
            {
                "sourceFileName": "VO_AQ\\VO_navia\\vo_FDAQ003_28_navia_40.wem",
                "rate": 1.0,
                "avatarName": "",
                "emotion": ""
            }
        ]
    },
    "b530c04c-258c-4dba-a888-28b07c0effea": {
        "Guid": "b530c04c-258c-4dba-a888-28b07c0effea",
        "playRate": 1.0,
        "GameTrigger": "Dialog",
        "gameTriggerArgs": 40061606,
        "personalConfig": 2,
        "ParentID": "be0c7c6c-8780-417c-8ba0-06db7576f202",
        "SourceNames": [
            {
                "sourceFileName": "VO_AQ\\VO_navia\\vo_FDAQ003_28_navia_38.wem",
                "rate": 1.0,
                "avatarName": "",
                "emotion": ""
            }
        ]
    },
    "b65ba1f3-c7b9-4b05-be9b-edd21334242b": {
        "Guid": "b65ba1f3-c7b9-4b05-be9b-edd21334242b",
        "playRate": 1.0,
        "GameTrigger": "Dialog",
        "gameTriggerArgs": 40061530,
        "personalConfig": 2,
        "ParentID": "be0c7c6c-8780-417c-8ba0-06db7576f202",
        "SourceNames": [
            {
                "sourceFileName": "VO_AQ\\VO_paimon\\vo_FDAQ003_28_paimon_05.wem",
                "rate": 1.0,
                "avatarName": "",
                "emotion": ""
            }
        ]
    },
    "b68cc3d0-0a77-455d-878c-def115da2a57": {
        "Guid": "b68cc3d0-0a77-455d-878c-def115da2a57",
        "playRate": 1.0,
        "GameTrigger": "Dialog",
        "gameTriggerArgs": 40061527,
        "personalConfig": 2,
        "ParentID": "be0c7c6c-8780-417c-8ba0-06db7576f202",
        "SourceNames": [
            {
                "sourceFileName": "VO_AQ\\VO_navia\\vo_FDAQ003_28_navia_12.wem",
                "rate": 1.0,
                "avatarName": "",
                "emotion": ""
            }
        ]
    },
    "b7020537-fb81-41ed-9f9a-f4d9b163675c": {
        "Guid": "b7020537-fb81-41ed-9f9a-f4d9b163675c",
        "playRate": 1.0,
        "GameTrigger": "Dialog",
        "gameTriggerArgs": 40061588,
        "personalConfig": 2,
        "ParentID": "be0c7c6c-8780-417c-8ba0-06db7576f202",
        "SourceNames": [
            {
                "sourceFileName": "VO_AQ\\VO_paimon\\vo_FDAQ003_28_paimon_24.wem",
                "rate": 1.0,
                "avatarName": "",
                "emotion": ""
            }
        ]
    },
    "b911bd9e-79ef-476b-9bc1-f88ff58fca8c": {
        "Guid": "b911bd9e-79ef-476b-9bc1-f88ff58fca8c",
        "playRate": 1.0,
        "GameTrigger": "Dialog",
        "gameTriggerArgs": 40061555,
        "personalConfig": 2,
        "ParentID": "be0c7c6c-8780-417c-8ba0-06db7576f202",
        "SourceNames": [
            {
                "sourceFileName": "VO_AQ\\VO_navia\\vo_FDAQ003_28_navia_18.wem",
                "rate": 1.0,
                "avatarName": "",
                "emotion": ""
            }
        ]
    },
    "c0622304-7e2e-4ba7-b786-1b0680fa75df": {
        "Guid": "c0622304-7e2e-4ba7-b786-1b0680fa75df",
        "playRate": 1.0,
        "GameTrigger": "Dialog",
        "gameTriggerArgs": 40061552,
        "personalConfig": 2,
        "ParentID": "be0c7c6c-8780-417c-8ba0-06db7576f202",
        "SourceNames": [
            {
                "sourceFileName": "VO_AQ\\VO_NPC\\vo_FDAQ003_28_marcillac_12.wem",
                "rate": 1.0,
                "avatarName": "",
                "emotion": ""
            }
        ]
    },
    "c188f9e3-1c87-4c0f-a52b-a42ad8b2fc77": {
        "Guid": "c188f9e3-1c87-4c0f-a52b-a42ad8b2fc77",
        "playRate": 1.0,
        "GameTrigger": "Dialog",
        "gameTriggerArgs": 40061505,
        "personalConfig": 2,
        "ParentID": "be0c7c6c-8780-417c-8ba0-06db7576f202",
        "SourceNames": [
            {
                "sourceFileName": "VO_AQ\\VO_NPC\\vo_FDAQ003_28_marcillac_02.wem",
                "rate": 1.0,
                "avatarName": "",
                "emotion": ""
            }
        ]
    },
    "c4f8f121-9781-473b-ad19-38cb49a21b10": {
        "Guid": "c4f8f121-9781-473b-ad19-38cb49a21b10",
        "playRate": 1.0,
        "GameTrigger": "Dialog",
        "gameTriggerArgs": 40061524,
        "personalConfig": 2,
        "ParentID": "be0c7c6c-8780-417c-8ba0-06db7576f202",
        "SourceNames": [
            {
                "sourceFileName": "VO_AQ\\VO_NPC\\vo_FDAQ003_28_marcillac_07.wem",
                "rate": 1.0,
                "avatarName": "",
                "emotion": ""
            }
        ]
    },
    "c53fe434-e258-4629-b041-c9ffb789a940": {
        "Guid": "c53fe434-e258-4629-b041-c9ffb789a940",
        "playRate": 1.0,
        "GameTrigger": "Dialog",
        "gameTriggerArgs": 40061584,
        "personalConfig": 2,
        "ParentID": "be0c7c6c-8780-417c-8ba0-06db7576f202",
        "SourceNames": [
            {
                "sourceFileName": "VO_AQ\\VO_navia\\vo_FDAQ003_28_navia_32.wem",
                "rate": 1.0,
                "avatarName": "",
                "emotion": ""
            }
        ]
    },
    "ca0cfbe1-3aa4-40ac-a09e-3f26ad222de2": {
        "Guid": "ca0cfbe1-3aa4-40ac-a09e-3f26ad222de2",
        "playRate": 1.0,
        "GameTrigger": "Dialog",
        "gameTriggerArgs": 40061534,
        "personalConfig": 2,
        "ParentID": "be0c7c6c-8780-417c-8ba0-06db7576f202",
        "SourceNames": [
            {
                "sourceFileName": "VO_AQ\\VO_navia\\vo_FDAQ003_28_navia_15.wem",
                "rate": 1.0,
                "avatarName": "",
                "emotion": ""
            }
        ]
    },
    "cbb92e8e-2d4a-4e94-af49-435f3c527b53": {
        "Guid": "cbb92e8e-2d4a-4e94-af49-435f3c527b53",
        "playRate": 1.0,
        "GameTrigger": "Dialog",
        "gameTriggerArgs": 40061604,
        "personalConfig": 2,
        "ParentID": "be0c7c6c-8780-417c-8ba0-06db7576f202",
        "SourceNames": [
            {
                "sourceFileName": "VO_AQ\\VO_navia\\vo_FDAQ003_28_navia_36.wem",
                "rate": 1.0,
                "avatarName": "",
                "emotion": ""
            }
        ]
    },
    "ce14f937-b2fd-41e5-8ee7-219a86f21a5a": {
        "Guid": "ce14f937-b2fd-41e5-8ee7-219a86f21a5a",
        "playRate": 1.0,
        "GameTrigger": "Dialog",
        "gameTriggerArgs": 40061544,
        "personalConfig": 2,
        "ParentID": "be0c7c6c-8780-417c-8ba0-06db7576f202",
        "SourceNames": [
            {
                "sourceFileName": "VO_AQ\\VO_navia\\vo_FDAQ003_28_navia_17.wem",
                "rate": 1.0,
                "avatarName": "",
                "emotion": ""
            }
        ]
    },
    "d0c2ee0f-61ff-43f5-97ed-2e601b169df8": {
        "Guid": "d0c2ee0f-61ff-43f5-97ed-2e601b169df8",
        "playRate": 1.0,
        "GameTrigger": "Dialog",
        "gameTriggerArgs": 40061576,
        "personalConfig": 2,
        "ParentID": "be0c7c6c-8780-417c-8ba0-06db7576f202",
        "SourceNames": [
            {
                "sourceFileName": "VO_AQ\\VO_navia\\vo_FDAQ003_28_navia_29.wem",
                "rate": 1.0,
                "avatarName": "",
                "emotion": ""
            }
        ]
    },
    "d1dba293-db60-48c1-82b1-0b67efc475e8": {
        "Guid": "d1dba293-db60-48c1-82b1-0b67efc475e8",
        "playRate": 1.0,
        "GameTrigger": "Dialog",
        "gameTriggerArgs": 40061564,
        "personalConfig": 2,
        "ParentID": "be0c7c6c-8780-417c-8ba0-06db7576f202",
        "SourceNames": [
            {
                "sourceFileName": "VO_AQ\\VO_navia\\vo_FDAQ003_28_navia_22.wem",
                "rate": 1.0,
                "avatarName": "",
                "emotion": ""
            }
        ]
    },
    "d2b33a9d-c3eb-4cb7-a73a-d33e316eab99": {
        "Guid": "d2b33a9d-c3eb-4cb7-a73a-d33e316eab99",
        "playRate": 1.0,
        "GameTrigger": "Dialog",
        "gameTriggerArgs": 40061515,
        "personalConfig": 2,
        "ParentID": "be0c7c6c-8780-417c-8ba0-06db7576f202",
        "SourceNames": [
            {
                "sourceFileName": "VO_AQ\\VO_navia\\vo_FDAQ003_28_navia_07.wem",
                "rate": 1.0,
                "avatarName": "",
                "emotion": ""
            }
        ]
    },
    "d48af7ee-270f-4d34-8c60-339a0f4d2095": {
        "Guid": "d48af7ee-270f-4d34-8c60-339a0f4d2095",
        "playRate": 1.0,
        "GameTrigger": "Dialog",
        "gameTriggerArgs": 40061570,
        "personalConfig": 2,
        "ParentID": "be0c7c6c-8780-417c-8ba0-06db7576f202",
        "SourceNames": [
            {
                "sourceFileName": "VO_AQ\\VO_navia\\vo_FDAQ003_28_navia_25.wem",
                "rate": 1.0,
                "avatarName": "",
                "emotion": ""
            }
        ]
    },
    "d7b20f7e-4d54-40b9-9934-dbf86356fb0f": {
        "Guid": "d7b20f7e-4d54-40b9-9934-dbf86356fb0f",
        "playRate": 1.0,
        "GameTrigger": "Dialog",
        "gameTriggerArgs": 40061523,
        "personalConfig": 2,
        "ParentID": "be0c7c6c-8780-417c-8ba0-06db7576f202",
        "SourceNames": [
            {
                "sourceFileName": "VO_AQ\\VO_NPC\\vo_FDAQ003_28_marcillac_06.wem",
                "rate": 1.0,
                "avatarName": "",
                "emotion": ""
            }
        ]
    },
    "e2316ade-83a3-4619-bfab-663c659ce59d": {
        "Guid": "e2316ade-83a3-4619-bfab-663c659ce59d",
        "playRate": 1.0,
        "GameTrigger": "Dialog",
        "gameTriggerArgs": 40061565,
        "personalConfig": 2,
        "ParentID": "be0c7c6c-8780-417c-8ba0-06db7576f202",
        "SourceNames": [
            {
                "sourceFileName": "VO_AQ\\VO_navia\\vo_FDAQ003_28_navia_23.wem",
                "rate": 1.0,
                "avatarName": "",
                "emotion": ""
            }
        ]
    },
    "e2b14442-b3a5-46b7-8dff-e5e698c259da": {
        "Guid": "e2b14442-b3a5-46b7-8dff-e5e698c259da",
        "playRate": 1.0,
        "GameTrigger": "Dialog",
        "gameTriggerArgs": 40061607,
        "personalConfig": 2,
        "ParentID": "be0c7c6c-8780-417c-8ba0-06db7576f202",
        "SourceNames": [
            {
                "sourceFileName": "VO_AQ\\VO_paimon\\vo_FDAQ003_28_paimon_30.wem",
                "rate": 1.0,
                "avatarName": "",
                "emotion": ""
            }
        ]
    },
    "e2e4c6e8-53fd-439e-9be8-4d30aec73047": {
        "Guid": "e2e4c6e8-53fd-439e-9be8-4d30aec73047",
        "playRate": 1.0,
        "GameTrigger": "Dialog",
        "gameTriggerArgs": 40061503,
        "personalConfig": 2,
        "ParentID": "be0c7c6c-8780-417c-8ba0-06db7576f202",
        "SourceNames": [
            {
                "sourceFileName": "VO_AQ\\VO_NPC\\vo_FDAQ003_28_marcillac_01.wem",
                "rate": 1.0,
                "avatarName": "",
                "emotion": ""
            }
        ]
    },
    "e335642d-b00d-47d6-9106-47b3f0cfcf34": {
        "Guid": "e335642d-b00d-47d6-9106-47b3f0cfcf34",
        "playRate": 1.0,
        "GameTrigger": "Dialog",
        "gameTriggerArgs": 40061541,
        "personalConfig": 2,
        "ParentID": "be0c7c6c-8780-417c-8ba0-06db7576f202",
        "SourceNames": [
            {
                "sourceFileName": "VO_AQ\\VO_paimon\\vo_FDAQ003_28_paimon_09.wem",
                "rate": 1.0,
                "avatarName": "",
                "emotion": ""
            }
        ]
    },
    "e40be8d3-ed51-43d8-b50e-017cf8aec5e0": {
        "Guid": "e40be8d3-ed51-43d8-b50e-017cf8aec5e0",
        "playRate": 1.0,
        "GameTrigger": "Dialog",
        "gameTriggerArgs": 40061501,
        "personalConfig": 2,
        "ParentID": "be0c7c6c-8780-417c-8ba0-06db7576f202",
        "SourceNames": [
            {
                "sourceFileName": "VO_AQ\\VO_navia\\vo_FDAQ003_28_navia_01.wem",
                "rate": 1.0,
                "avatarName": "",
                "emotion": ""
            }
        ]
    },
    "e6d5ee69-ba79-4a30-b204-0604385b0923": {
        "Guid": "e6d5ee69-ba79-4a30-b204-0604385b0923",
        "playRate": 1.0,
        "GameTrigger": "Dialog",
        "gameTriggerArgs": 40061539,
        "personalConfig": 2,
        "ParentID": "be0c7c6c-8780-417c-8ba0-06db7576f202",
        "SourceNames": [
            {
                "sourceFileName": "VO_AQ\\VO_paimon\\vo_FDAQ003_28_paimon_08.wem",
                "rate": 1.0,
                "avatarName": "",
                "emotion": ""
            }
        ]
    },
    "f18d45a9-0b4e-41ae-a3b1-f52477f91f17": {
        "Guid": "f18d45a9-0b4e-41ae-a3b1-f52477f91f17",
        "playRate": 1.0,
        "GameTrigger": "Dialog",
        "gameTriggerArgs": 40061548,
        "personalConfig": 2,
        "ParentID": "be0c7c6c-8780-417c-8ba0-06db7576f202",
        "SourceNames": [
            {
                "sourceFileName": "VO_AQ\\VO_paimon\\vo_FDAQ003_28_paimon_11.wem",
                "rate": 1.0,
                "avatarName": "",
                "emotion": ""
            }
        ]
    },
    "f8b325ad-bfd6-4531-9e52-726da2a7f051": {
        "Guid": "f8b325ad-bfd6-4531-9e52-726da2a7f051",
        "playRate": 1.0,
        "GameTrigger": "Dialog",
        "gameTriggerArgs": 40061513,
        "personalConfig": 2,
        "ParentID": "be0c7c6c-8780-417c-8ba0-06db7576f202",
        "SourceNames": [
            {
                "sourceFileName": "VO_AQ\\VO_navia\\vo_FDAQ003_28_navia_06.wem",
                "rate": 1.0,
                "avatarName": "",
                "emotion": ""
            }
        ]
    }
}