{
    "026fb326-2cee-4d91-935b-9b06bc3cab41": {
        "Guid": "026fb326-2cee-4d91-935b-9b06bc3cab41",
        "playRate": 1.0,
        "GameTrigger": "Dialog",
        "gameTriggerArgs": 401075201,
        "personalConfig": 2,
        "ParentID": "1a0bdb96-fa9a-4ed1-9b14-36fd24d52f05",
        "SourceNames": [
            {
                "sourceFileName": "VO_freetalk\\VO_kaeya\\vo_dialog_DPEQ001_kaeya_01.wem",
                "rate": 1.0,
                "avatarName": "",
                "emotion": ""
            }
        ]
    },
    "03f8f8e6-df7f-4d52-8cc6-1aa8a93d1e50": {
        "Guid": "03f8f8e6-df7f-4d52-8cc6-1aa8a93d1e50",
        "playRate": 1.0,
        "GameTrigger": "Dialog",
        "gameTriggerArgs": 101100429,
        "personalConfig": 2,
        "ParentID": "1a0bdb96-fa9a-4ed1-9b14-36fd24d52f05",
        "SourceNames": [
            {
                "sourceFileName": "VO_freetalk\\VO_kaeya\\vo_dialog_WDLQ001_kaeya_02.wem",
                "rate": 1.0,
                "avatarName": "",
                "emotion": ""
            }
        ]
    },
    "14034add-2b4b-4d0a-b616-35676687d588": {
        "Guid": "14034add-2b4b-4d0a-b616-35676687d588",
        "playRate": 1.0,
        "GameTrigger": "Dialog",
        "gameTriggerArgs": 4901405,
        "personalConfig": 2,
        "ParentID": "1a0bdb96-fa9a-4ed1-9b14-36fd24d52f05",
        "SourceNames": [
            {
                "sourceFileName": "VO_freetalk\\VO_kaeya\\vo_dialog_QINLQ005_kaeya_04.wem",
                "rate": 1.0,
                "avatarName": "",
                "emotion": ""
            }
        ]
    },
    "1d261856-2ef9-4860-83a4-99140adcbadd": {
        "Guid": "1d261856-2ef9-4860-83a4-99140adcbadd",
        "playRate": 1.0,
        "GameTrigger": "Dialog",
        "gameTriggerArgs": 705130613,
        "personalConfig": 2,
        "ParentID": "1a0bdb96-fa9a-4ed1-9b14-36fd24d52f05",
        "SourceNames": [
            {
                "sourceFileName": "VO_freetalk\\VO_kaeya\\vo_dialog_HYEQ002_kaeya_07.wem",
                "rate": 1.0,
                "avatarName": "",
                "emotion": ""
            }
        ]
    },
    "1d5e5e72-e48e-4aeb-82fb-226dfe328479": {
        "Guid": "1d5e5e72-e48e-4aeb-82fb-226dfe328479",
        "playRate": 1.0,
        "GameTrigger": "Dialog",
        "gameTriggerArgs": 401133307,
        "personalConfig": 2,
        "ParentID": "1a0bdb96-fa9a-4ed1-9b14-36fd24d52f05",
        "SourceNames": [
            {
                "sourceFileName": "VO_EQ\\VO_kaeya\\vo_dialog_YQEQ202_kaeya_04.wem",
                "rate": 1.0,
                "avatarName": "",
                "emotion": ""
            }
        ]
    },
    "20f73397-47a9-4176-836c-60a97866829e": {
        "Guid": "20f73397-47a9-4176-836c-60a97866829e",
        "playRate": 1.0,
        "GameTrigger": "Dialog",
        "gameTriggerArgs": 101100428,
        "personalConfig": 2,
        "ParentID": "1a0bdb96-fa9a-4ed1-9b14-36fd24d52f05",
        "SourceNames": [
            {
                "sourceFileName": "VO_freetalk\\VO_kaeya\\vo_dialog_WDLQ001_kaeya_01.wem",
                "rate": 1.0,
                "avatarName": "",
                "emotion": ""
            }
        ]
    },
    "220fdbf4-757e-4650-b6a4-7a4d7994aa89": {
        "Guid": "220fdbf4-757e-4650-b6a4-7a4d7994aa89",
        "playRate": 1.0,
        "GameTrigger": "Dialog",
        "gameTriggerArgs": 401111305,
        "personalConfig": 2,
        "ParentID": "1a0bdb96-fa9a-4ed1-9b14-36fd24d52f05",
        "SourceNames": [
            {
                "sourceFileName": "VO_freetalk\\VO_kaeya\\vo_dialog_DPEQ001_kaeya_03a_3.wem",
                "rate": 1.0,
                "avatarName": "",
                "emotion": ""
            }
        ]
    },
    "2364ed58-5661-4897-9d25-c93f7f5e9dfa": {
        "Guid": "2364ed58-5661-4897-9d25-c93f7f5e9dfa",
        "playRate": 1.0,
        "GameTrigger": "Dialog",
        "gameTriggerArgs": 401111304,
        "personalConfig": 2,
        "ParentID": "1a0bdb96-fa9a-4ed1-9b14-36fd24d52f05",
        "SourceNames": [
            {
                "sourceFileName": "VO_freetalk\\VO_kaeya\\vo_dialog_DPEQ001_kaeya_03a_2.wem",
                "rate": 1.0,
                "avatarName": "",
                "emotion": ""
            }
        ]
    },
    "2dd7681c-15a2-41fc-b89c-4f9b30fa553d": {
        "Guid": "2dd7681c-15a2-41fc-b89c-4f9b30fa553d",
        "playRate": 1.0,
        "GameTrigger": "Dialog",
        "gameTriggerArgs": 401111308,
        "personalConfig": 2,
        "ParentID": "1a0bdb96-fa9a-4ed1-9b14-36fd24d52f05",
        "SourceNames": [
            {
                "sourceFileName": "VO_freetalk\\VO_kaeya\\vo_dialog_DPEQ001_kaeya_03b_2.wem",
                "rate": 1.0,
                "avatarName": "",
                "emotion": ""
            }
        ]
    },
    "3035ea69-c533-45c0-b1db-e71baa10cddf": {
        "Guid": "3035ea69-c533-45c0-b1db-e71baa10cddf",
        "playRate": 1.0,
        "GameTrigger": "Dialog",
        "gameTriggerArgs": 705130605,
        "personalConfig": 2,
        "ParentID": "1a0bdb96-fa9a-4ed1-9b14-36fd24d52f05",
        "SourceNames": [
            {
                "sourceFileName": "VO_freetalk\\VO_kaeya\\vo_dialog_HYEQ002_kaeya_03.wem",
                "rate": 1.0,
                "avatarName": "",
                "emotion": ""
            }
        ]
    },
    "3c5d3c28-41a0-4d34-ab1d-55c244987129": {
        "Guid": "3c5d3c28-41a0-4d34-ab1d-55c244987129",
        "playRate": 1.0,
        "GameTrigger": "Dialog",
        "gameTriggerArgs": 4901408,
        "personalConfig": 2,
        "ParentID": "1a0bdb96-fa9a-4ed1-9b14-36fd24d52f05",
        "SourceNames": [
            {
                "sourceFileName": "VO_freetalk\\VO_kaeya\\vo_dialog_QINLQ005_kaeya_05.wem",
                "rate": 1.0,
                "avatarName": "",
                "emotion": ""
            }
        ]
    },
    "3fc0e573-7f22-462d-85c3-3d07b5ae2146": {
        "Guid": "3fc0e573-7f22-462d-85c3-3d07b5ae2146",
        "playRate": 1.0,
        "GameTrigger": "Dialog",
        "gameTriggerArgs": 705130617,
        "personalConfig": 2,
        "ParentID": "1a0bdb96-fa9a-4ed1-9b14-36fd24d52f05",
        "SourceNames": [
            {
                "sourceFileName": "VO_freetalk\\VO_kaeya\\vo_dialog_HYEQ002_kaeya_08.wem",
                "rate": 1.0,
                "avatarName": "",
                "emotion": ""
            }
        ]
    },
    "40a51787-647d-4632-ab2d-3eb1a93dac4e": {
        "Guid": "40a51787-647d-4632-ab2d-3eb1a93dac4e",
        "playRate": 1.0,
        "GameTrigger": "Dialog",
        "gameTriggerArgs": 3070312,
        "personalConfig": 2,
        "ParentID": "1a0bdb96-fa9a-4ed1-9b14-36fd24d52f05",
        "SourceNames": [
            {
                "sourceFileName": "VO_freetalk\\VO_kaeya\\vo_dialog_MDAQ025_kaeya_02b_4.wem",
                "rate": 1.0,
                "avatarName": "",
                "emotion": ""
            }
        ]
    },
    "4c0fd40b-fd54-48a8-b3cb-fa3ed5a5ddb7": {
        "Guid": "4c0fd40b-fd54-48a8-b3cb-fa3ed5a5ddb7",
        "playRate": 1.0,
        "GameTrigger": "Dialog",
        "gameTriggerArgs": 401111303,
        "personalConfig": 2,
        "ParentID": "1a0bdb96-fa9a-4ed1-9b14-36fd24d52f05",
        "SourceNames": [
            {
                "sourceFileName": "VO_freetalk\\VO_kaeya\\vo_dialog_DPEQ001_kaeya_03a_1.wem",
                "rate": 1.0,
                "avatarName": "",
                "emotion": ""
            }
        ]
    },
    "4d92f57d-88a4-4836-b1bc-e11a6c99c30e": {
        "Guid": "4d92f57d-88a4-4836-b1bc-e11a6c99c30e",
        "playRate": 1.0,
        "GameTrigger": "Dialog",
        "gameTriggerArgs": 400785205,
        "personalConfig": 2,
        "ParentID": "1a0bdb96-fa9a-4ed1-9b14-36fd24d52f05",
        "SourceNames": [
            {
                "sourceFileName": "VO_freetalk\\VO_kaeya\\vo_dialog_JNJEQ001_kaeya_01.wem",
                "rate": 1.0,
                "avatarName": "",
                "emotion": ""
            }
        ]
    },
    "4f88dc7b-01db-45c6-9895-5016dccc6965": {
        "Guid": "4f88dc7b-01db-45c6-9895-5016dccc6965",
        "playRate": 1.0,
        "GameTrigger": "Dialog",
        "gameTriggerArgs": 400785213,
        "personalConfig": 2,
        "ParentID": "1a0bdb96-fa9a-4ed1-9b14-36fd24d52f05",
        "SourceNames": [
            {
                "sourceFileName": "VO_freetalk\\VO_kaeya\\vo_dialog_JNJEQ001_kaeya_05.wem",
                "rate": 1.0,
                "avatarName": "",
                "emotion": ""
            }
        ]
    },
    "566ed9b0-eb74-412c-90bb-8ffe6cd83270": {
        "Guid": "566ed9b0-eb74-412c-90bb-8ffe6cd83270",
        "playRate": 1.0,
        "GameTrigger": "Dialog",
        "gameTriggerArgs": 3070306,
        "personalConfig": 2,
        "ParentID": "1a0bdb96-fa9a-4ed1-9b14-36fd24d52f05",
        "SourceNames": [
            {
                "sourceFileName": "VO_freetalk\\VO_kaeya\\vo_dialog_MDAQ025_kaeya_02a_4.wem",
                "rate": 1.0,
                "avatarName": "",
                "emotion": ""
            }
        ]
    },
    "58392f23-0843-46c7-b67f-96642889926e": {
        "Guid": "58392f23-0843-46c7-b67f-96642889926e",
        "playRate": 1.0,
        "GameTrigger": "Dialog",
        "gameTriggerArgs": 400785206,
        "personalConfig": 2,
        "ParentID": "1a0bdb96-fa9a-4ed1-9b14-36fd24d52f05",
        "SourceNames": [
            {
                "sourceFileName": "VO_freetalk\\VO_kaeya\\vo_dialog_JNJEQ001_kaeya_02.wem",
                "rate": 1.0,
                "avatarName": "",
                "emotion": ""
            }
        ]
    },
    "5fa0cb4d-100c-4815-9cd4-c4e300b15b39": {
        "Guid": "5fa0cb4d-100c-4815-9cd4-c4e300b15b39",
        "playRate": 1.0,
        "InterruptedGuids": [
            {
                "guid": "cd761f37-c427-4bf0-9c50-ab45b8344d3f",
                "include": true
            },
            {
                "guid": "689bd61a-3337-4a99-9fcc-4eb94d78845f",
                "include": true
            }
        ],
        "GameTrigger": "Dialog",
        "gameTriggerArgs": 3070301,
        "personalConfig": 2,
        "ParentID": "1a0bdb96-fa9a-4ed1-9b14-36fd24d52f05",
        "SourceNames": [
            {
                "sourceFileName": "VO_freetalk\\VO_kaeya\\vo_dialog_MDAQ025_kaeya_01.wem",
                "rate": 1.0,
                "avatarName": "",
                "emotion": ""
            }
        ]
    },
    "61659612-711b-48b0-80a6-c3372f6359e4": {
        "Guid": "61659612-711b-48b0-80a6-c3372f6359e4",
        "playRate": 1.0,
        "GameTrigger": "Dialog",
        "gameTriggerArgs": 3070309,
        "personalConfig": 2,
        "ParentID": "1a0bdb96-fa9a-4ed1-9b14-36fd24d52f05",
        "SourceNames": [
            {
                "sourceFileName": "VO_freetalk\\VO_kaeya\\vo_dialog_MDAQ025_kaeya_02b_1.wem",
                "rate": 1.0,
                "avatarName": "",
                "emotion": ""
            }
        ]
    },
    "647e28d2-c8d1-4cd2-bb97-a39f2cc291c1": {
        "Guid": "647e28d2-c8d1-4cd2-bb97-a39f2cc291c1",
        "playRate": 1.0,
        "GameTrigger": "Dialog",
        "gameTriggerArgs": 401133303,
        "personalConfig": 2,
        "ParentID": "1a0bdb96-fa9a-4ed1-9b14-36fd24d52f05",
        "SourceNames": [
            {
                "sourceFileName": "VO_EQ\\VO_kaeya\\vo_dialog_YQEQ202_kaeya_02.wem",
                "rate": 1.0,
                "avatarName": "",
                "emotion": ""
            }
        ]
    },
    "6716cafe-416d-4494-8757-c9ca0d3401e7": {
        "Guid": "6716cafe-416d-4494-8757-c9ca0d3401e7",
        "playRate": 1.0,
        "InterruptedGuids": [
            {
                "guid": "cd761f37-c427-4bf0-9c50-ab45b8344d3f",
                "include": true
            },
            {
                "guid": "689bd61a-3337-4a99-9fcc-4eb94d78845f",
                "include": true
            }
        ],
        "GameTrigger": "Dialog",
        "gameTriggerArgs": 4621001,
        "personalConfig": 2,
        "ParentID": "1a0bdb96-fa9a-4ed1-9b14-36fd24d52f05",
        "SourceNames": [
            {
                "sourceFileName": "VO_freetalk\\VO_kaeya\\vo_dialog_KYLQ002_kaeya_02.wem",
                "rate": 1.0,
                "avatarName": "",
                "emotion": ""
            }
        ]
    },
    "6a973540-6e72-4026-977a-adea8e563e0c": {
        "Guid": "6a973540-6e72-4026-977a-adea8e563e0c",
        "playRate": 1.0,
        "GameTrigger": "Dialog",
        "gameTriggerArgs": 3070314,
        "personalConfig": 2,
        "ParentID": "1a0bdb96-fa9a-4ed1-9b14-36fd24d52f05",
        "SourceNames": [
            {
                "sourceFileName": "VO_freetalk\\VO_kaeya\\vo_dialog_MDAQ025_kaeya_02c.wem",
                "rate": 1.0,
                "avatarName": "",
                "emotion": ""
            }
        ]
    },
    "7254e74b-5793-4baa-944c-ece8441869a9": {
        "Guid": "7254e74b-5793-4baa-944c-ece8441869a9",
        "playRate": 1.0,
        "InterruptedGuids": [
            {
                "guid": "cd761f37-c427-4bf0-9c50-ab45b8344d3f",
                "include": true
            },
            {
                "guid": "689bd61a-3337-4a99-9fcc-4eb94d78845f",
                "include": true
            }
        ],
        "GameTrigger": "Dialog",
        "gameTriggerArgs": 4610901,
        "personalConfig": 2,
        "ParentID": "1a0bdb96-fa9a-4ed1-9b14-36fd24d52f05",
        "SourceNames": [
            {
                "sourceFileName": "VO_freetalk\\VO_kaeya\\vo_dialog_KYLQ001_kaeya_01.wem",
                "rate": 1.0,
                "avatarName": "",
                "emotion": ""
            }
        ]
    },
    "729bc153-762f-4a37-a459-dce2401f1406": {
        "Guid": "729bc153-762f-4a37-a459-dce2401f1406",
        "playRate": 1.0,
        "GameTrigger": "Dialog",
        "gameTriggerArgs": 401192501,
        "personalConfig": 2,
        "ParentID": "1a0bdb96-fa9a-4ed1-9b14-36fd24d52f05",
        "SourceNames": [
            {
                "sourceFileName": "VO_freetalk\\VO_kaeya\\vo_dialog_YQEQ206_kaeya_01.wem",
                "rate": 1.0,
                "avatarName": "",
                "emotion": ""
            }
        ]
    },
    "748d24ad-d62f-46cf-8a56-78e21457faa9": {
        "Guid": "748d24ad-d62f-46cf-8a56-78e21457faa9",
        "playRate": 1.0,
        "GameTrigger": "Dialog",
        "gameTriggerArgs": 401192502,
        "personalConfig": 2,
        "ParentID": "1a0bdb96-fa9a-4ed1-9b14-36fd24d52f05",
        "SourceNames": [
            {
                "sourceFileName": "VO_freetalk\\VO_kaeya\\vo_dialog_YQEQ206_kaeya_02.wem",
                "rate": 1.0,
                "avatarName": "",
                "emotion": ""
            }
        ]
    },
    "784b3594-bd0d-403a-a0bb-36e0ab3640d4": {
        "Guid": "784b3594-bd0d-403a-a0bb-36e0ab3640d4",
        "playRate": 1.0,
        "GameTrigger": "Dialog",
        "gameTriggerArgs": 401111301,
        "personalConfig": 2,
        "ParentID": "1a0bdb96-fa9a-4ed1-9b14-36fd24d52f05",
        "SourceNames": [
            {
                "sourceFileName": "VO_freetalk\\VO_kaeya\\vo_dialog_DPEQ001_kaeya_02.wem",
                "rate": 1.0,
                "avatarName": "",
                "emotion": ""
            }
        ]
    },
    "7ee758f3-ab24-4db8-9fa5-2c6b115331d1": {
        "Guid": "7ee758f3-ab24-4db8-9fa5-2c6b115331d1",
        "playRate": 1.0,
        "InterruptedGuids": [
            {
                "guid": "cd761f37-c427-4bf0-9c50-ab45b8344d3f",
                "include": true
            },
            {
                "guid": "689bd61a-3337-4a99-9fcc-4eb94d78845f",
                "include": true
            }
        ],
        "GameTrigger": "Dialog",
        "gameTriggerArgs": 4620801,
        "personalConfig": 2,
        "ParentID": "1a0bdb96-fa9a-4ed1-9b14-36fd24d52f05",
        "SourceNames": [
            {
                "sourceFileName": "VO_freetalk\\VO_kaeya\\vo_dialog_KYLQ001_kaeya_02.wem",
                "rate": 1.0,
                "avatarName": "",
                "emotion": ""
            }
        ]
    },
    "87f28f86-b15c-4445-8725-eee01b6ab3b8": {
        "Guid": "87f28f86-b15c-4445-8725-eee01b6ab3b8",
        "playRate": 1.0,
        "GameTrigger": "Dialog",
        "gameTriggerArgs": 705130608,
        "personalConfig": 2,
        "ParentID": "1a0bdb96-fa9a-4ed1-9b14-36fd24d52f05",
        "SourceNames": [
            {
                "sourceFileName": "VO_freetalk\\VO_kaeya\\vo_dialog_HYEQ002_kaeya_04.wem",
                "rate": 1.0,
                "avatarName": "",
                "emotion": ""
            }
        ]
    },
    "88fb363f-6b58-4a2d-93da-374cf0691287": {
        "Guid": "88fb363f-6b58-4a2d-93da-374cf0691287",
        "playRate": 1.0,
        "InterruptedGuids": [
            {
                "guid": "cd761f37-c427-4bf0-9c50-ab45b8344d3f",
                "include": true
            },
            {
                "guid": "689bd61a-3337-4a99-9fcc-4eb94d78845f",
                "include": true
            }
        ],
        "GameTrigger": "Dialog",
        "gameTriggerArgs": 3071402,
        "personalConfig": 2,
        "ParentID": "1a0bdb96-fa9a-4ed1-9b14-36fd24d52f05",
        "SourceNames": [
            {
                "sourceFileName": "VO_freetalk\\VO_kaeya\\vo_dialog_MDAQ029_kaeya_02.wem",
                "rate": 1.0,
                "avatarName": "",
                "emotion": ""
            }
        ]
    },
    "8e84d716-1a28-4d03-a08d-19b9a3f87a49": {
        "Guid": "8e84d716-1a28-4d03-a08d-19b9a3f87a49",
        "playRate": 1.0,
        "GameTrigger": "Dialog",
        "gameTriggerArgs": 705130604,
        "personalConfig": 2,
        "ParentID": "1a0bdb96-fa9a-4ed1-9b14-36fd24d52f05",
        "SourceNames": [
            {
                "sourceFileName": "VO_freetalk\\VO_kaeya\\vo_dialog_HYEQ002_kaeya_02.wem",
                "rate": 1.0,
                "avatarName": "",
                "emotion": ""
            }
        ]
    },
    "8f01a468-c0f4-496e-a9cb-4992e156e10f": {
        "Guid": "8f01a468-c0f4-496e-a9cb-4992e156e10f",
        "playRate": 1.0,
        "GameTrigger": "Dialog",
        "gameTriggerArgs": 4901401,
        "personalConfig": 2,
        "ParentID": "1a0bdb96-fa9a-4ed1-9b14-36fd24d52f05",
        "SourceNames": [
            {
                "sourceFileName": "VO_freetalk\\VO_kaeya\\vo_dialog_QINLQ005_kaeya_01.wem",
                "rate": 1.0,
                "avatarName": "",
                "emotion": ""
            }
        ]
    },
    "8fc41c9f-e3cf-480e-b362-1be15eb5c62e": {
        "Guid": "8fc41c9f-e3cf-480e-b362-1be15eb5c62e",
        "playRate": 1.0,
        "GameTrigger": "Dialog",
        "gameTriggerArgs": 80090403,
        "personalConfig": 2,
        "ParentID": "1a0bdb96-fa9a-4ed1-9b14-36fd24d52f05",
        "SourceNames": [
            {
                "sourceFileName": "VO_freetalk\\VO_kaeya\\vo_dialog_SZAQ201_kaeya_03.wem",
                "rate": 1.0,
                "avatarName": "",
                "emotion": ""
            }
        ]
    },
    "912106d6-8e37-4ba5-b32f-c6e21e2a2444": {
        "Guid": "912106d6-8e37-4ba5-b32f-c6e21e2a2444",
        "playRate": 1.0,
        "GameTrigger": "Dialog",
        "gameTriggerArgs": 3070305,
        "personalConfig": 2,
        "ParentID": "1a0bdb96-fa9a-4ed1-9b14-36fd24d52f05",
        "SourceNames": [
            {
                "sourceFileName": "VO_freetalk\\VO_kaeya\\vo_dialog_MDAQ025_kaeya_02a_3.wem",
                "rate": 1.0,
                "avatarName": "",
                "emotion": ""
            }
        ]
    },
    "918d0bb8-199a-4dad-a3ab-f3c9d6f29b60": {
        "Guid": "918d0bb8-199a-4dad-a3ab-f3c9d6f29b60",
        "playRate": 1.0,
        "GameTrigger": "Dialog",
        "gameTriggerArgs": 3070311,
        "personalConfig": 2,
        "ParentID": "1a0bdb96-fa9a-4ed1-9b14-36fd24d52f05",
        "SourceNames": [
            {
                "sourceFileName": "VO_freetalk\\VO_kaeya\\vo_dialog_MDAQ025_kaeya_02b_3.wem",
                "rate": 1.0,
                "avatarName": "",
                "emotion": ""
            }
        ]
    },
    "925f2365-2415-48e2-83c0-75f459532221": {
        "Guid": "925f2365-2415-48e2-83c0-75f459532221",
        "playRate": 1.0,
        "GameTrigger": "Dialog",
        "gameTriggerArgs": 401133305,
        "personalConfig": 2,
        "ParentID": "1a0bdb96-fa9a-4ed1-9b14-36fd24d52f05",
        "SourceNames": [
            {
                "sourceFileName": "VO_EQ\\VO_kaeya\\vo_dialog_YQEQ202_kaeya_03.wem",
                "rate": 1.0,
                "avatarName": "",
                "emotion": ""
            }
        ]
    },
    "947ce5fe-272b-4efb-b2e9-ead9b73d27cf": {
        "Guid": "947ce5fe-272b-4efb-b2e9-ead9b73d27cf",
        "playRate": 1.0,
        "GameTrigger": "Dialog",
        "gameTriggerArgs": 400785212,
        "personalConfig": 2,
        "ParentID": "1a0bdb96-fa9a-4ed1-9b14-36fd24d52f05",
        "SourceNames": [
            {
                "sourceFileName": "VO_freetalk\\VO_kaeya\\vo_dialog_JNJEQ001_kaeya_04.wem",
                "rate": 1.0,
                "avatarName": "",
                "emotion": ""
            }
        ]
    },
    "96bb3b4a-86f3-4f4b-8724-39834c841d05": {
        "Guid": "96bb3b4a-86f3-4f4b-8724-39834c841d05",
        "playRate": 1.0,
        "GameTrigger": "Dialog",
        "gameTriggerArgs": 401111309,
        "personalConfig": 2,
        "ParentID": "1a0bdb96-fa9a-4ed1-9b14-36fd24d52f05",
        "SourceNames": [
            {
                "sourceFileName": "VO_freetalk\\VO_kaeya\\vo_dialog_DPEQ001_kaeya_03b_3.wem",
                "rate": 1.0,
                "avatarName": "",
                "emotion": ""
            }
        ]
    },
    "97932686-d3eb-4f80-b9ca-7e8014d6f7b6": {
        "Guid": "97932686-d3eb-4f80-b9ca-7e8014d6f7b6",
        "playRate": 1.0,
        "GameTrigger": "Dialog",
        "gameTriggerArgs": 400785211,
        "personalConfig": 2,
        "ParentID": "1a0bdb96-fa9a-4ed1-9b14-36fd24d52f05",
        "SourceNames": [
            {
                "sourceFileName": "VO_freetalk\\VO_kaeya\\vo_dialog_JNJEQ001_kaeya_03.wem",
                "rate": 1.0,
                "avatarName": "",
                "emotion": ""
            }
        ]
    },
    "9c681ee6-4837-441e-a87e-e0f9ec69c647": {
        "Guid": "9c681ee6-4837-441e-a87e-e0f9ec69c647",
        "playRate": 1.0,
        "GameTrigger": "Dialog",
        "gameTriggerArgs": 400785302,
        "personalConfig": 2,
        "ParentID": "1a0bdb96-fa9a-4ed1-9b14-36fd24d52f05",
        "SourceNames": [
            {
                "sourceFileName": "VO_freetalk\\VO_kaeya\\vo_dialog_JNJEQ001_kaeya_07.wem",
                "rate": 1.0,
                "avatarName": "",
                "emotion": ""
            }
        ]
    },
    "a48d9fc2-ac8d-4fb4-a1de-bf725e647862": {
        "Guid": "a48d9fc2-ac8d-4fb4-a1de-bf725e647862",
        "playRate": 1.0,
        "InterruptedGuids": [
            {
                "guid": "cd761f37-c427-4bf0-9c50-ab45b8344d3f",
                "include": true
            },
            {
                "guid": "689bd61a-3337-4a99-9fcc-4eb94d78845f",
                "include": true
            }
        ],
        "GameTrigger": "Dialog",
        "gameTriggerArgs": 4620901,
        "personalConfig": 2,
        "ParentID": "1a0bdb96-fa9a-4ed1-9b14-36fd24d52f05",
        "SourceNames": [
            {
                "sourceFileName": "VO_freetalk\\VO_kaeya\\vo_dialog_KYLQ002_kaeya_01.wem",
                "rate": 1.0,
                "avatarName": "",
                "emotion": ""
            }
        ]
    },
    "a6f6a3ff-5d03-4489-ac68-8f00f4c072f2": {
        "Guid": "a6f6a3ff-5d03-4489-ac68-8f00f4c072f2",
        "playRate": 1.0,
        "GameTrigger": "Dialog",
        "gameTriggerArgs": 80090402,
        "personalConfig": 2,
        "ParentID": "1a0bdb96-fa9a-4ed1-9b14-36fd24d52f05",
        "SourceNames": [
            {
                "sourceFileName": "VO_freetalk\\VO_kaeya\\vo_dialog_SZAQ201_kaeya_02.wem",
                "rate": 1.0,
                "avatarName": "",
                "emotion": ""
            }
        ]
    },
    "a883707d-1d74-4392-9201-957f798f376b": {
        "Guid": "a883707d-1d74-4392-9201-957f798f376b",
        "playRate": 1.0,
        "GameTrigger": "Dialog",
        "gameTriggerArgs": 400785301,
        "personalConfig": 2,
        "ParentID": "1a0bdb96-fa9a-4ed1-9b14-36fd24d52f05",
        "SourceNames": [
            {
                "sourceFileName": "VO_freetalk\\VO_kaeya\\vo_dialog_JNJEQ001_kaeya_06.wem",
                "rate": 1.0,
                "avatarName": "",
                "emotion": ""
            }
        ]
    },
    "aab16ad8-425f-4858-a1a7-9483ca3fdbc8": {
        "Guid": "aab16ad8-425f-4858-a1a7-9483ca3fdbc8",
        "playRate": 1.0,
        "GameTrigger": "Dialog",
        "gameTriggerArgs": 4901410,
        "personalConfig": 2,
        "ParentID": "1a0bdb96-fa9a-4ed1-9b14-36fd24d52f05",
        "SourceNames": [
            {
                "sourceFileName": "VO_freetalk\\VO_kaeya\\vo_dialog_QINLQ005_kaeya_06.wem",
                "rate": 1.0,
                "avatarName": "",
                "emotion": ""
            }
        ]
    },
    "ae83a901-4a08-4db1-b4da-7bd0d7ab8561": {
        "Guid": "ae83a901-4a08-4db1-b4da-7bd0d7ab8561",
        "playRate": 1.0,
        "GameTrigger": "Dialog",
        "gameTriggerArgs": 3070304,
        "personalConfig": 2,
        "ParentID": "1a0bdb96-fa9a-4ed1-9b14-36fd24d52f05",
        "SourceNames": [
            {
                "sourceFileName": "VO_freetalk\\VO_kaeya\\vo_dialog_MDAQ025_kaeya_02a_2.wem",
                "rate": 1.0,
                "avatarName": "",
                "emotion": ""
            }
        ]
    },
    "b7b87213-e6ce-4352-8cc7-f6ad94640db9": {
        "Guid": "b7b87213-e6ce-4352-8cc7-f6ad94640db9",
        "playRate": 1.0,
        "GameTrigger": "Dialog",
        "gameTriggerArgs": 705130611,
        "personalConfig": 2,
        "ParentID": "1a0bdb96-fa9a-4ed1-9b14-36fd24d52f05",
        "SourceNames": [
            {
                "sourceFileName": "VO_freetalk\\VO_kaeya\\vo_dialog_HYEQ002_kaeya_05.wem",
                "rate": 1.0,
                "avatarName": "",
                "emotion": ""
            }
        ]
    },
    "b81135fe-b1db-4753-a997-d31224f5f127": {
        "Guid": "b81135fe-b1db-4753-a997-d31224f5f127",
        "playRate": 1.0,
        "InterruptedGuids": [
            {
                "guid": "cd761f37-c427-4bf0-9c50-ab45b8344d3f",
                "include": true
            },
            {
                "guid": "689bd61a-3337-4a99-9fcc-4eb94d78845f",
                "include": true
            }
        ],
        "GameTrigger": "Dialog",
        "gameTriggerArgs": 3071401,
        "personalConfig": 2,
        "ParentID": "1a0bdb96-fa9a-4ed1-9b14-36fd24d52f05",
        "SourceNames": [
            {
                "sourceFileName": "VO_freetalk\\VO_kaeya\\vo_dialog_MDAQ029_kaeya_01.wem",
                "rate": 1.0,
                "avatarName": "",
                "emotion": ""
            }
        ]
    },
    "b9be3611-91dd-4df4-8d13-154d06cd8de7": {
        "Guid": "b9be3611-91dd-4df4-8d13-154d06cd8de7",
        "playRate": 1.0,
        "GameTrigger": "Dialog",
        "gameTriggerArgs": 3070310,
        "personalConfig": 2,
        "ParentID": "1a0bdb96-fa9a-4ed1-9b14-36fd24d52f05",
        "SourceNames": [
            {
                "sourceFileName": "VO_freetalk\\VO_kaeya\\vo_dialog_MDAQ025_kaeya_02b_2.wem",
                "rate": 1.0,
                "avatarName": "",
                "emotion": ""
            }
        ]
    },
    "bcb74ae0-1829-47c7-92ab-a7b4d53761ce": {
        "Guid": "bcb74ae0-1829-47c7-92ab-a7b4d53761ce",
        "playRate": 1.0,
        "GameTrigger": "Dialog",
        "gameTriggerArgs": 80090401,
        "personalConfig": 2,
        "ParentID": "1a0bdb96-fa9a-4ed1-9b14-36fd24d52f05",
        "SourceNames": [
            {
                "sourceFileName": "VO_freetalk\\VO_kaeya\\vo_dialog_SZAQ201_kaeya_01.wem",
                "rate": 1.0,
                "avatarName": "",
                "emotion": ""
            }
        ]
    },
    "c0b7e0d7-4dd0-4a63-a182-52839fd9f677": {
        "Guid": "c0b7e0d7-4dd0-4a63-a182-52839fd9f677",
        "playRate": 1.0,
        "GameTrigger": "Dialog",
        "gameTriggerArgs": 705130603,
        "personalConfig": 2,
        "ParentID": "1a0bdb96-fa9a-4ed1-9b14-36fd24d52f05",
        "SourceNames": [
            {
                "sourceFileName": "VO_freetalk\\VO_kaeya\\vo_dialog_HYEQ002_kaeya_01.wem",
                "rate": 1.0,
                "avatarName": "",
                "emotion": ""
            }
        ]
    },
    "c1a6f128-dcf6-4502-a5fb-3d2a4aed1eee": {
        "Guid": "c1a6f128-dcf6-4502-a5fb-3d2a4aed1eee",
        "playRate": 1.0,
        "GameTrigger": "Dialog",
        "gameTriggerArgs": 401111307,
        "personalConfig": 2,
        "ParentID": "1a0bdb96-fa9a-4ed1-9b14-36fd24d52f05",
        "SourceNames": [
            {
                "sourceFileName": "VO_freetalk\\VO_kaeya\\vo_dialog_DPEQ001_kaeya_03b_1.wem",
                "rate": 1.0,
                "avatarName": "",
                "emotion": ""
            }
        ]
    },
    "ce8abc65-1860-42dd-91b4-640425cbe81f": {
        "Guid": "ce8abc65-1860-42dd-91b4-640425cbe81f",
        "playRate": 1.0,
        "GameTrigger": "Dialog",
        "gameTriggerArgs": 401133301,
        "personalConfig": 2,
        "ParentID": "1a0bdb96-fa9a-4ed1-9b14-36fd24d52f05",
        "SourceNames": [
            {
                "sourceFileName": "VO_EQ\\VO_kaeya\\vo_dialog_YQEQ202_kaeya_01.wem",
                "rate": 1.0,
                "avatarName": "",
                "emotion": ""
            }
        ]
    },
    "d118058c-83e8-454b-a472-1559b6ccb4cc": {
        "Guid": "d118058c-83e8-454b-a472-1559b6ccb4cc",
        "playRate": 1.0,
        "GameTrigger": "Dialog",
        "gameTriggerArgs": 3070303,
        "personalConfig": 2,
        "ParentID": "1a0bdb96-fa9a-4ed1-9b14-36fd24d52f05",
        "SourceNames": [
            {
                "sourceFileName": "VO_freetalk\\VO_kaeya\\vo_dialog_MDAQ025_kaeya_02a_1.wem",
                "rate": 1.0,
                "avatarName": "",
                "emotion": ""
            }
        ]
    },
    "d68b89b9-9594-4e19-bf07-b6f6ee0f1f25": {
        "Guid": "d68b89b9-9594-4e19-bf07-b6f6ee0f1f25",
        "playRate": 1.0,
        "GameTrigger": "Dialog",
        "gameTriggerArgs": 705130618,
        "personalConfig": 2,
        "ParentID": "1a0bdb96-fa9a-4ed1-9b14-36fd24d52f05",
        "SourceNames": [
            {
                "sourceFileName": "VO_freetalk\\VO_kaeya\\vo_dialog_HYEQ002_kaeya_09.wem",
                "rate": 1.0,
                "avatarName": "",
                "emotion": ""
            }
        ]
    },
    "da585ba0-0ecb-4a9d-9ea8-29c68a35fe83": {
        "Guid": "da585ba0-0ecb-4a9d-9ea8-29c68a35fe83",
        "playRate": 1.0,
        "GameTrigger": "Dialog",
        "gameTriggerArgs": 414129701,
        "personalConfig": 2,
        "ParentID": "1a0bdb96-fa9a-4ed1-9b14-36fd24d52f05",
        "SourceNames": [
            {
                "sourceFileName": "VO_freetalk\\VO_kaeya\\vo_dialog_EQFH003_kaeya_01.wem",
                "rate": 1.0,
                "avatarName": "",
                "emotion": ""
            }
        ]
    },
    "dac3627e-f012-4d4b-be18-c673eec1147a": {
        "Guid": "dac3627e-f012-4d4b-be18-c673eec1147a",
        "playRate": 1.0,
        "GameTrigger": "Dialog",
        "gameTriggerArgs": 414119901,
        "personalConfig": 2,
        "ParentID": "1a0bdb96-fa9a-4ed1-9b14-36fd24d52f05",
        "SourceNames": [
            {
                "sourceFileName": "VO_freetalk\\VO_kaeya\\vo_dialog_EQFH002_kaeya_01.wem",
                "rate": 1.0,
                "avatarName": "",
                "emotion": ""
            }
        ]
    },
    "e061dc2e-6cb8-44af-a67a-8ea4c0adc820": {
        "Guid": "e061dc2e-6cb8-44af-a67a-8ea4c0adc820",
        "playRate": 1.0,
        "GameTrigger": "Dialog",
        "gameTriggerArgs": 4901403,
        "personalConfig": 2,
        "ParentID": "1a0bdb96-fa9a-4ed1-9b14-36fd24d52f05",
        "SourceNames": [
            {
                "sourceFileName": "VO_freetalk\\VO_kaeya\\vo_dialog_QINLQ005_kaeya_02.wem",
                "rate": 1.0,
                "avatarName": "",
                "emotion": ""
            }
        ]
    },
    "e18b2428-4cb1-4334-b4d3-ec49287ecf43": {
        "Guid": "e18b2428-4cb1-4334-b4d3-ec49287ecf43",
        "playRate": 1.0,
        "GameTrigger": "Dialog",
        "gameTriggerArgs": 401111311,
        "personalConfig": 2,
        "ParentID": "1a0bdb96-fa9a-4ed1-9b14-36fd24d52f05",
        "SourceNames": [
            {
                "sourceFileName": "VO_freetalk\\VO_kaeya\\vo_dialog_DPEQ001_kaeya_03c_1.wem",
                "rate": 1.0,
                "avatarName": "",
                "emotion": ""
            }
        ]
    },
    "ef6a4bd4-6c2c-4765-a844-371df2169acf": {
        "Guid": "ef6a4bd4-6c2c-4765-a844-371df2169acf",
        "playRate": 1.0,
        "GameTrigger": "Dialog",
        "gameTriggerArgs": 3070307,
        "personalConfig": 2,
        "ParentID": "1a0bdb96-fa9a-4ed1-9b14-36fd24d52f05",
        "SourceNames": [
            {
                "sourceFileName": "VO_freetalk\\VO_kaeya\\vo_dialog_MDAQ025_kaeya_02a_5.wem",
                "rate": 1.0,
                "avatarName": "",
                "emotion": ""
            }
        ]
    },
    "f39a2568-3a8c-46f7-8a4e-b028ac73f364": {
        "Guid": "f39a2568-3a8c-46f7-8a4e-b028ac73f364",
        "playRate": 1.0,
        "GameTrigger": "Dialog",
        "gameTriggerArgs": 705130612,
        "personalConfig": 2,
        "ParentID": "1a0bdb96-fa9a-4ed1-9b14-36fd24d52f05",
        "SourceNames": [
            {
                "sourceFileName": "VO_freetalk\\VO_kaeya\\vo_dialog_HYEQ002_kaeya_06.wem",
                "rate": 1.0,
                "avatarName": "",
                "emotion": ""
            }
        ]
    },
    "fa91494e-7018-43af-a5b0-58edb4a4c4d1": {
        "Guid": "fa91494e-7018-43af-a5b0-58edb4a4c4d1",
        "playRate": 1.0,
        "GameTrigger": "Dialog",
        "gameTriggerArgs": 4901404,
        "personalConfig": 2,
        "ParentID": "1a0bdb96-fa9a-4ed1-9b14-36fd24d52f05",
        "SourceNames": [
            {
                "sourceFileName": "VO_freetalk\\VO_kaeya\\vo_dialog_QINLQ005_kaeya_03.wem",
                "rate": 1.0,
                "avatarName": "",
                "emotion": ""
            }
        ]
    }
}