[
    {
        "Default": {
            "$type": "ConfigAbility",
            "abilityName": "Monster_Oceanid_Squirrel_Escape",
            "abilityMixins": [
                {
                    "$type": "AttachToNormalizedTimeMixin",
                    "stateID": "EscapeBS",
                    "modifierName": "Monster_Oceanid_Squirrel_Escape",
                    "normalizeStart": 0.18000000715255737,
                    "normalizeEnd": 0.5
                }
            ],
            "modifiers": {
                "Monster_Oceanid_Squirrel_Escape": {
                    "modifierName": "",
                    "bonusCritical": 100.0,
                    "onAdded": [
                        {
                            "$type": "SetGlobalPos",
                            "key": "_OCEANID_SQUIRREL_ESCAPEPOINT",
                            "born": {
                                "$type": "KDEPFKAAHCG",
                                "offset": {
                                    "HMHIOILIGBF": 0.0,
                                    "DPPJGBOHAAL": 0.0,
                                    "DDOAGBLBCEF": -7.0
                                }
                            }
                        },
                        {
                            "$type": "TurnDirectionToPos",
                            "toPos": {
                                "$type": "LBFHLMJGELJ",
                                "EIHGKLFJFDH": {
                                    "$type": "NEDBFINNHHP",
                                    "MONOAFEICPP": 0.0,
                                    "LEGMDANKMPK": 5.0
                                },
                                "LDPAKEFHAOK": "_OCEANID_SQUIRREL_ESCAPEPOINT",
                                "IDGILJNLJGN": ""
                            }
                        }
                    ]
                }
            }
        }
    },
    {
        "Default": {
            "$type": "ConfigAbility",
            "abilityName": "Monster_Oceanid_Squirrel_RangeAttack",
            "onAbilityStart": [
                {
                    "$type": "TriggerBullet",
                    "bulletID": 42005022,
                    "born": {
                        "$type": "KDEPFKAAHCG",
                        "offset": {
                            "HMHIOILIGBF": 0.0,
                            "DPPJGBOHAAL": 1.5,
                            "DDOAGBLBCEF": 1.5
                        }
                    }
                }
            ]
        }
    },
    {
        "Default": {
            "$type": "ConfigAbility",
            "abilityName": "Oceanid_Squirrel_WaterWaveEffect",
            "onAdded": [
                {
                    "$type": "AttachEffect",
                    "healLimitedByCasterMaxHPRatio": "Eff_Monster_Oceanid_Squirrel_SweepWaterWave",
                    "JAOICKHDAKL": -1.0
                }
            ],
            "onAbilityStart": [
                {
                    "$type": "TriggerAttackEvent",
                    "attackEvent": {
                        "attackPattern": {
                            "$type": "KKMHAMBPOBM",
                            "triggerType": "TriggerNoRepeat",
                            "born": {
                                "$type": "GBFINJHCBPI"
                            },
                            "DFMMIGEMOHH": 1.0
                        },
                        "attackInfo": {
                            "attackTag": "",
                            "attenuationTag": "",
                            "attenuationGroup": "default",
                            "attackProperty": {
                                "PCFAAPMOCGJ": 0.5,
                                "LCCBNOKMNFG": 0.0,
                                "elementType": "Water",
                                "bonusCritical": 50.0,
                                "strikeType": "Blunt",
                                "enBreak": 50.0,
                                "FKGFPFNOJMN": 0.0
                            },
                            "hitPattern": {
                                "onHitEffectName": "default",
                                "hitImpulseType": "LV2",
                                "retreatType": "ByHitDirection"
                            },
                            "canBeModifiedBy": "OriginOwner"
                        }
                    },
                    "targetType": "Enemy"
                }
            ]
        }
    },
    {
        "Default": {
            "$type": "ConfigAbility",
            "abilityName": "Monster_Oceanid_Squirrel_JumpAttack",
            "modifiers": {
                "Monster_Oceanid_Squirrel_JumpAttack": {
                    "modifierName": "",
                    "duration": 1.0,
                    "bonusCritical": 100.0,
                    "onAdded": [
                        {
                            "$type": "FireEffect",
                            "healLimitedByCasterMaxHPRatio": "Eff_Monster_Oceanid_Squirrel_JumpAtkDLCDamage",
                            "JAOICKHDAKL": -1.0
                        }
                    ],
                    "onRemoved": [
                        {
                            "$type": "TriggerAttackEvent",
                            "attackEvent": {
                                "attackPattern": {
                                    "$type": "HBFCINNBDFD",
                                    "triggerType": "TriggerNoRepeat",
                                    "born": {
                                        "$type": "LBFHLMJGELJ",
                                        "LDPAKEFHAOK": "_MONSTER_OCEANID_SQUIRREL_JUMPATTACKPOINT",
                                        "IDGILJNLJGN": ""
                                    },
                                    "height": 3.0,
                                    "DFMMIGEMOHH": 2.5
                                },
                                "attackInfo": {
                                    "attackTag": "",
                                    "attenuationTag": "Squirrel_JumpAttack",
                                    "attenuationGroup": "Skirmisher_Fat_SprayGun_Ice",
                                    "attackProperty": {
                                        "PCFAAPMOCGJ": 0.800000011920929,
                                        "LCCBNOKMNFG": 0.0,
                                        "elementType": "Water",
                                        "bonusCritical": 25.0,
                                        "strikeType": "Blunt",
                                        "enBreak": 101.0,
                                        "FKGFPFNOJMN": 0.0
                                    },
                                    "hitPattern": {
                                        "onHitEffectName": "default",
                                        "hitImpulseY": 800.0,
                                        "hitImpulseType": "LV2"
                                    }
                                }
                            },
                            "targetType": "Enemy"
                        }
                    ]
                }
            },
            "onAdded": [
                {
                    "$type": "AddGlobalValue",
                    "ratio": 1.0,
                    "key": "_OCEANID_ANIMAL_SP",
                    "useLimitRange": true,
                    "maxValue": 1.0,
                    "minValue": 0.0
                }
            ],
            "onAbilityStart": [
                {
                    "$type": "SetGlobalPos",
                    "key": "_MONSTER_OCEANID_SQUIRREL_JUMPATTACKPOINT",
                    "born": {
                        "$type": "KDEPFKAAHCG"
                    }
                },
                {
                    "$type": "ApplyModifier",
                    "modifierName": "Monster_Oceanid_Squirrel_JumpAttack"
                }
            ]
        }
    },
    {
        "Default": {
            "$type": "ConfigAbility",
            "abilityName": "Monster_Oceanid_Squirrel_Steer",
            "abilityMixins": [
                {
                    "$type": "SteerAttackMixin",
                    "steerStateIDs": [
                        "Turn"
                    ],
                    "endNormalizedTime": 0.6000000238418579,
                    "angularSpeed": 150.0,
                    "attackTrigger": "",
                    "attackDistance": 1.5
                },
                {
                    "$type": "SteerAttackMixin",
                    "steerStateIDs": [
                        "Scratch1"
                    ],
                    "endNormalizedTime": 0.47999998927116394,
                    "angularSpeed": 120.0,
                    "attackTrigger": "",
                    "attackDistance": 1.5
                },
                {
                    "$type": "SteerAttackMixin",
                    "steerStateIDs": [
                        "Scratch2"
                    ],
                    "endNormalizedTime": 0.47999998927116394,
                    "angularSpeed": 120.0,
                    "attackTrigger": "",
                    "attackDistance": 1.5
                },
                {
                    "$type": "SteerAttackMixin",
                    "steerStateIDs": [
                        "Sweep1"
                    ],
                    "endNormalizedTime": 0.33000001311302185,
                    "angularSpeed": 120.0,
                    "attackTrigger": "",
                    "attackDistance": 1.5
                },
                {
                    "$type": "SteerAttackMixin",
                    "steerStateIDs": [
                        "Sweep2"
                    ],
                    "endNormalizedTime": 0.33000001311302185,
                    "angularSpeed": 120.0,
                    "attackTrigger": "",
                    "attackDistance": 1.5
                },
                {
                    "$type": "SteerAttackTraceMixin",
                    "steerStateIDs": [
                        "Scratch_Rush"
                    ],
                    "endNormalizedTime": 3.0,
                    "angularSpeed": 90.0,
                    "attackTrigger": "Rush_Stop",
                    "attackDistance": 5.0
                },
                {
                    "$type": "SteerAttackTraceMixin",
                    "steerStateIDs": [
                        "Sweep_Rush"
                    ],
                    "endNormalizedTime": 3.0,
                    "angularSpeed": 90.0,
                    "attackTrigger": "Rush_Stop",
                    "attackDistance": 5.0
                }
            ]
        }
    },
    {
        "Default": {
            "$type": "ConfigAbility",
            "abilityName": "Monster_Oceanid_Squirrel_HealHp",
            "abilityMixins": [
                {
                    "$type": "AttachModifierToSelfGlobalValueMixin",
                    "globalValueKey": "_HEALHP_STATE_",
                    "defaultGlobalValueOnCreate": 1.0,
                    "valueSteps": [
                        -0.5,
                        0.5,
                        1.5
                    ],
                    "modifierNameSteps": [
                        "Empty",
                        "UNIQUE_Oceanid_Water_HealHp"
                    ]
                }
            ],
            "abilitySpecials": {
                "HealHP": 0.03750000149011612,
                "HealHPHigh": 0.15000000596046448
            },
            "modifiers": {
                "UNIQUE_Oceanid_Water_HealHp": {
                    "modifierName": "",
                    "isUnique": true,
                    "bonusCritical": 100.0,
                    "thinkInterval": 1.5,
                    "onBeingHit": [
                        {
                            "$type": "Predicated",
                            "targetPredicates": [
                                {
                                    "$type": "GDCNLCKIJBG",
                                    "key": "SGV_MONSTERAFFIX_OCEANID_02_ANIMALHEAL_UP",
                                    "ratio": 1.0
                                }
                            ],
                            "successActions": [
                                {
                                    "$type": "ApplyModifier",
                                    "predicates": [
                                        {
                                            "$type": "CJHEKFGHCHC",
                                            "predicates": [
                                                {
                                                    "$type": "KGMIBMPKJHG",
                                                    "CLGGFMFPHJE": "Fire"
                                                },
                                                {
                                                    "$type": "GDCNLCKIJBG",
                                                    "key": "_OCEANID_ANIMAL_SP",
                                                    "ratio": 1.0
                                                }
                                            ]
                                        }
                                    ],
                                    "modifierName": "HealHP_Pause_AffixUp"
                                }
                            ],
                            "failActions": [
                                {
                                    "$type": "ApplyModifier",
                                    "predicates": [
                                        {
                                            "$type": "CJHEKFGHCHC",
                                            "predicates": [
                                                {
                                                    "$type": "KGMIBMPKJHG",
                                                    "CLGGFMFPHJE": "Fire"
                                                },
                                                {
                                                    "$type": "GDCNLCKIJBG",
                                                    "key": "_OCEANID_ANIMAL_SP",
                                                    "ratio": 1.0
                                                }
                                            ]
                                        }
                                    ],
                                    "modifierName": "HealHP_Pause"
                                }
                            ]
                        }
                    ],
                    "onThinkInterval": [
                        {
                            "$type": "Predicated",
                            "targetPredicates": [
                                {
                                    "$type": "GDCNLCKIJBG",
                                    "key": "SGV_MONSTERAFFIX_OCEANID_02_ANIMALHEAL_UP",
                                    "ratio": 1.0
                                }
                            ],
                            "successActions": [
                                {
                                    "$type": "HealHP",
                                    "PKPBLCNMPIG": "HealHPHigh"
                                },
                                {
                                    "$type": "FireEffect",
                                    "healLimitedByCasterMaxHPRatio": "Eff_Monster_Oceanid_Squirrel_Heal",
                                    "JAOICKHDAKL": -1.0
                                }
                            ],
                            "failActions": [
                                {
                                    "$type": "HealHP",
                                    "PKPBLCNMPIG": "HealHP"
                                },
                                {
                                    "$type": "FireEffect",
                                    "healLimitedByCasterMaxHPRatio": "Eff_Monster_Oceanid_Squirrel_Heal",
                                    "JAOICKHDAKL": -1.0
                                }
                            ]
                        }
                    ]
                },
                "HealHP_Pause": {
                    "modifierName": "",
                    "duration": 3.0,
                    "bonusCritical": 100.0,
                    "onAdded": [
                        {
                            "$type": "AddGlobalValue",
                            "ratio": 0.0,
                            "key": "_HEALHP_STATE_",
                            "useLimitRange": true,
                            "maxValue": 0.0,
                            "minValue": 0.0
                        }
                    ],
                    "onRemoved": [
                        {
                            "$type": "AddGlobalValue",
                            "ratio": 1.0,
                            "key": "_HEALHP_STATE_",
                            "useLimitRange": true,
                            "maxValue": 1.0,
                            "minValue": 1.0
                        }
                    ]
                },
                "HealHP_Pause_AffixUp": {
                    "modifierName": "",
                    "duration": 1.5,
                    "bonusCritical": 100.0,
                    "onAdded": [
                        {
                            "$type": "AddGlobalValue",
                            "ratio": 0.0,
                            "key": "_HEALHP_STATE_",
                            "useLimitRange": true,
                            "maxValue": 0.0,
                            "minValue": 0.0
                        }
                    ],
                    "onRemoved": [
                        {
                            "$type": "AddGlobalValue",
                            "ratio": 1.0,
                            "key": "_HEALHP_STATE_",
                            "useLimitRange": true,
                            "maxValue": 1.0,
                            "minValue": 1.0
                        }
                    ]
                },
                "Empty": {
                    "modifierName": "",
                    "bonusCritical": 100.0
                }
            }
        }
    },
    {
        "Default": {
            "$type": "ConfigAbility",
            "abilityName": "Monster_Oceanid_Squirrel_ElementState",
            "modifiers": {
                "UNIQUE_ElementState": {
                    "modifierName": "",
                    "isUnique": true,
                    "elementType": "Water",
                    "bonusCritical": 100.0,
                    "isElementDurabilityMutable": false
                },
                "Monster_Oceanid_Squirrel_CommonEffect": {
                    "modifierName": "",
                    "bonusCritical": 100.0,
                    "onAdded": [
                        {
                            "$type": "AttachEffect",
                            "healLimitedByCasterMaxHPRatio": "Eff_Monster_Oceanid_Squirrel_CommonEffectLoop",
                            "JAOICKHDAKL": -1.0
                        }
                    ]
                }
            },
            "onAdded": [
                {
                    "$type": "ApplyModifier",
                    "modifierName": "UNIQUE_ElementState"
                },
                {
                    "$type": "AttachAbilityStateResistance",
                    "resistanceBuffDebuffs": [
                        "ElementWet",
                        "Struggle"
                    ]
                },
                {
                    "$type": "ApplyModifier",
                    "predicates": [
                        {
                            "$type": "KHIEIPGNOHJ",
                            "predicates": [
                                {
                                    "$type": "GDCNLCKIJBG",
                                    "key": "_MONSTERAFFIX_OCEANID_ANIMAL_SPMASK",
                                    "ratio": 1.0
                                }
                            ]
                        },
                        {
                            "$type": "KHIEIPGNOHJ",
                            "predicates": [
                                {
                                    "$type": "GDCNLCKIJBG",
                                    "key": "_MONSTERAFFIX_OCEANID_ANIMAL_FOOTEFFECT_OFF",
                                    "ratio": 1.0
                                }
                            ]
                        }
                    ],
                    "modifierName": "Monster_Oceanid_Squirrel_CommonEffect"
                }
            ]
        }
    }
]