[
    {
        "Default": {
            "$type": "ConfigAbility",
            "abilityName": "Shaman_SpecialsState",
            "abilityMixins": [
                {
                    "$type": "AttachToPoseIDMixin",
                    "poseIDs": [
                        9012
                    ],
                    "modifierName": "SpecialsState"
                }
            ],
            "modifiers": {
                "SpecialsState": {
                    "modifierName": "",
                    "bonusCritical": 100.0,
                    "properties": {
                        "Entity_MassRatio": 9999.0,
                        "Entity_WeightRatio": 5.0
                    },
                    "onBeingHit": [
                        {
                            "$type": "SetPoseBool",
                            "boolID": "Dance"
                        }
                    ]
                }
            }
        }
    },
    {
        "Default": {
            "$type": "ConfigAbility",
            "abilityName": "Monster_Shaman_Water_HealRain",
            "abilityMixins": [
                {
                    "$type": "AttachToAnimatorStateIDMixin",
                    "stateIDs": [
                        "SupportAttack",
                        "SupportAttack2"
                    ],
                    "modifierName": "HealRain_Monitor"
                }
            ],
            "abilitySpecials": {
                "HEAL": 0.20000000298023224
            },
            "modifiers": {
                "HealRain_Monitor": {
                    "modifierName": "",
                    "bonusCritical": 100.0,
                    "onAdded": [
                        {
                            "$type": "AttachModifier",
                            "predicates": [
                                {
                                    "$type": "GDCNLCKIJBG",
                                    "key": "_ELITEAFFIX_SUPPORT_ENHANCE",
                                    "ratio": 0.0,
                                    "AMOLMKMMOME": "NoneOrEqual"
                                }
                            ],
                            "modifierName": "HealRain_CreatGadget"
                        },
                        {
                            "$type": "AttachModifier",
                            "predicates": [
                                {
                                    "$type": "GDCNLCKIJBG",
                                    "key": "_ELITEAFFIX_SUPPORT_ENHANCE",
                                    "ratio": 1.0
                                }
                            ],
                            "modifierName": "HealRain_FollowTarget"
                        }
                    ]
                },
                "HealRain_CreatGadget": {
                    "modifierName": "",
                    "bonusCritical": 100.0,
                    "onAdded": [
                        {
                            "$type": "AddGlobalValue",
                            "ratio": -1.0,
                            "key": "_FINDTAG",
                            "useLimitRange": true,
                            "maxValue": 1.0,
                            "minValue": 0.0
                        },
                        {
                            "$type": "AddGlobalValue",
                            "ratio": 1.0,
                            "key": "_LIFETAG",
                            "useLimitRange": true,
                            "maxValue": 1.0,
                            "minValue": 0.0
                        },
                        {
                            "$type": "Predicated",
                            "otherTargets": {
                                "$type": "OOMOJBAELMP",
                                "shapeName": "CircleR25",
                                "campTargetType": "Alliance",
                                "MAHBNNIIMMA": 1.0
                            },
                            "targetPredicates": [
                                {
                                    "$type": "JAFKEIGFBKO",
                                    "isTarget": false
                                },
                                {
                                    "$type": "HDOFEAAHAKF",
                                    "entityTypes": [
                                        "Monster"
                                    ]
                                }
                            ],
                            "successActions": [
                                {
                                    "$type": "Predicated",
                                    "otherTargets": {
                                        "$type": "OOMOJBAELMP",
                                        "shapeName": "CircleR10",
                                        "MDACHNEPHLE": "SelfAttackTarget",
                                        "campTargetType": "Alliance",
                                        "MAHBNNIIMMA": 1.0
                                    },
                                    "targetPredicates": [
                                        {
                                            "$type": "JAFKEIGFBKO",
                                            "isTarget": false
                                        },
                                        {
                                            "$type": "HDOFEAAHAKF",
                                            "entityTypes": [
                                                "Monster"
                                            ]
                                        }
                                    ],
                                    "successActions": [
                                        {
                                            "$type": "CreateGadget",
                                            "target": "Target",
                                            "predicates": [
                                                {
                                                    "$type": "GDCNLCKIJBG",
                                                    "key": "_FINDTAG",
                                                    "JGEJGOKMCCD": true
                                                }
                                            ],
                                            "born": {
                                                "$type": "EOGLEDIIGHF",
                                                "CJKCLAIPMHH": true
                                            },
                                            "gadgetID": 42103002,
                                            "campID": 4001
                                        },
                                        {
                                            "$type": "AddGlobalValue",
                                            "ratio": 1.0,
                                            "key": "_FINDTAG",
                                            "useLimitRange": true,
                                            "maxValue": 1.0,
                                            "minValue": 0.0
                                        }
                                    ]
                                },
                                {
                                    "$type": "CreateGadget",
                                    "target": "Target",
                                    "predicates": [
                                        {
                                            "$type": "GDCNLCKIJBG",
                                            "key": "_FINDTAG",
                                            "JGEJGOKMCCD": true
                                        }
                                    ],
                                    "born": {
                                        "$type": "EOGLEDIIGHF",
                                        "CJKCLAIPMHH": true
                                    },
                                    "gadgetID": 42103002,
                                    "campID": 4001
                                },
                                {
                                    "$type": "AddGlobalValue",
                                    "ratio": 1.0,
                                    "key": "_FINDTAG",
                                    "useLimitRange": true,
                                    "maxValue": 1.0,
                                    "minValue": 0.0
                                }
                            ]
                        },
                        {
                            "$type": "SetAnimatorTrigger",
                            "predicates": [
                                {
                                    "$type": "GDCNLCKIJBG",
                                    "key": "_FINDTAG",
                                    "JGEJGOKMCCD": true
                                }
                            ],
                            "triggerID": "SupportAttackExit"
                        },
                        {
                            "$type": "SetAnimatorTrigger",
                            "predicates": [
                                {
                                    "$type": "GDCNLCKIJBG",
                                    "key": "_FINDTAG",
                                    "JGEJGOKMCCD": true
                                }
                            ],
                            "triggerID": "SupportAttackExit2"
                        }
                    ],
                    "onRemoved": [
                        {
                            "$type": "AddGlobalValue",
                            "ratio": -1.0,
                            "key": "_LIFETAG",
                            "useLimitRange": true,
                            "maxValue": 1.0,
                            "minValue": 0.0
                        },
                        {
                            "$type": "AddGlobalValue",
                            "ratio": -1.0,
                            "key": "_FINDTAG",
                            "useLimitRange": true,
                            "maxValue": 1.0,
                            "minValue": 0.0
                        }
                    ],
                    "onKill": [
                        {
                            "$type": "AddGlobalValue",
                            "ratio": -1.0,
                            "key": "_LIFETAG",
                            "useLimitRange": true,
                            "maxValue": 1.0,
                            "minValue": 0.0
                        }
                    ]
                },
                "HealRain_FollowTarget": {
                    "modifierName": "",
                    "bonusCritical": 100.0,
                    "onAdded": [
                        {
                            "$type": "AddGlobalValue",
                            "ratio": -1.0,
                            "key": "_FINDTAG",
                            "useLimitRange": true,
                            "maxValue": 1.0,
                            "minValue": 0.0
                        },
                        {
                            "$type": "AddGlobalValue",
                            "ratio": 1.0,
                            "key": "_LIFETAG",
                            "useLimitRange": true,
                            "maxValue": 1.0,
                            "minValue": 0.0
                        },
                        {
                            "$type": "Predicated",
                            "otherTargets": {
                                "$type": "OOMOJBAELMP",
                                "shapeName": "CircleR25",
                                "campTargetType": "Alliance",
                                "MAHBNNIIMMA": 1.0
                            },
                            "targetPredicates": [
                                {
                                    "$type": "JAFKEIGFBKO",
                                    "isTarget": false
                                },
                                {
                                    "$type": "HDOFEAAHAKF",
                                    "entityTypes": [
                                        "Monster"
                                    ]
                                }
                            ],
                            "successActions": [
                                {
                                    "$type": "ApplyModifier",
                                    "target": "Target",
                                    "modifierName": "Shaman_Water_HP_Monitor"
                                }
                            ]
                        },
                        {
                            "$type": "Predicated",
                            "otherTargets": {
                                "$type": "OOMOJBAELMP",
                                "shapeName": "CircleR25",
                                "campTargetType": "Alliance",
                                "MAHBNNIIMMA": 1.0
                            },
                            "targetPredicates": [
                                {
                                    "$type": "JAFKEIGFBKO",
                                    "isTarget": false
                                },
                                {
                                    "$type": "HDOFEAAHAKF",
                                    "entityTypes": [
                                        "Monster"
                                    ]
                                },
                                {
                                    "$type": "GDCNLCKIJBG",
                                    "key": "_SHAMAN_WATER_HP_STAGE",
                                    "ratio": 5.0
                                }
                            ],
                            "successActions": [
                                {
                                    "$type": "ApplyModifier",
                                    "target": "Target",
                                    "predicates": [
                                        {
                                            "$type": "GDCNLCKIJBG",
                                            "key": "_FINDTAG",
                                            "JGEJGOKMCCD": true
                                        }
                                    ],
                                    "modifierName": "Shaman_Water_Follow_HealRain"
                                },
                                {
                                    "$type": "AddGlobalValue",
                                    "ratio": 1.0,
                                    "key": "_FINDTAG",
                                    "useLimitRange": true,
                                    "maxValue": 1.0,
                                    "minValue": 0.0
                                }
                            ]
                        },
                        {
                            "$type": "Predicated",
                            "otherTargets": {
                                "$type": "OOMOJBAELMP",
                                "shapeName": "CircleR25",
                                "campTargetType": "Alliance",
                                "MAHBNNIIMMA": 1.0
                            },
                            "targetPredicates": [
                                {
                                    "$type": "JAFKEIGFBKO",
                                    "isTarget": false
                                },
                                {
                                    "$type": "HDOFEAAHAKF",
                                    "entityTypes": [
                                        "Monster"
                                    ]
                                },
                                {
                                    "$type": "GDCNLCKIJBG",
                                    "key": "_SHAMAN_WATER_HP_STAGE",
                                    "ratio": 4.0
                                }
                            ],
                            "successActions": [
                                {
                                    "$type": "ApplyModifier",
                                    "target": "Target",
                                    "predicates": [
                                        {
                                            "$type": "GDCNLCKIJBG",
                                            "key": "_FINDTAG",
                                            "JGEJGOKMCCD": true
                                        }
                                    ],
                                    "modifierName": "Shaman_Water_Follow_HealRain"
                                },
                                {
                                    "$type": "AddGlobalValue",
                                    "ratio": 1.0,
                                    "key": "_FINDTAG",
                                    "useLimitRange": true,
                                    "maxValue": 1.0,
                                    "minValue": 0.0
                                }
                            ]
                        },
                        {
                            "$type": "Predicated",
                            "otherTargets": {
                                "$type": "OOMOJBAELMP",
                                "shapeName": "CircleR25",
                                "campTargetType": "Alliance",
                                "MAHBNNIIMMA": 1.0
                            },
                            "targetPredicates": [
                                {
                                    "$type": "JAFKEIGFBKO",
                                    "isTarget": false
                                },
                                {
                                    "$type": "HDOFEAAHAKF",
                                    "entityTypes": [
                                        "Monster"
                                    ]
                                },
                                {
                                    "$type": "GDCNLCKIJBG",
                                    "key": "_SHAMAN_WATER_HP_STAGE",
                                    "ratio": 3.0
                                }
                            ],
                            "successActions": [
                                {
                                    "$type": "ApplyModifier",
                                    "target": "Target",
                                    "predicates": [
                                        {
                                            "$type": "GDCNLCKIJBG",
                                            "key": "_FINDTAG",
                                            "JGEJGOKMCCD": true
                                        }
                                    ],
                                    "modifierName": "Shaman_Water_Follow_HealRain"
                                },
                                {
                                    "$type": "AddGlobalValue",
                                    "ratio": 1.0,
                                    "key": "_FINDTAG",
                                    "useLimitRange": true,
                                    "maxValue": 1.0,
                                    "minValue": 0.0
                                }
                            ]
                        },
                        {
                            "$type": "Predicated",
                            "otherTargets": {
                                "$type": "OOMOJBAELMP",
                                "shapeName": "CircleR25",
                                "campTargetType": "Alliance",
                                "MAHBNNIIMMA": 1.0
                            },
                            "targetPredicates": [
                                {
                                    "$type": "JAFKEIGFBKO",
                                    "isTarget": false
                                },
                                {
                                    "$type": "HDOFEAAHAKF",
                                    "entityTypes": [
                                        "Monster"
                                    ]
                                },
                                {
                                    "$type": "GDCNLCKIJBG",
                                    "key": "_SHAMAN_WATER_HP_STAGE",
                                    "ratio": 2.0
                                }
                            ],
                            "successActions": [
                                {
                                    "$type": "ApplyModifier",
                                    "target": "Target",
                                    "predicates": [
                                        {
                                            "$type": "GDCNLCKIJBG",
                                            "key": "_FINDTAG",
                                            "JGEJGOKMCCD": true
                                        }
                                    ],
                                    "modifierName": "Shaman_Water_Follow_HealRain"
                                },
                                {
                                    "$type": "AddGlobalValue",
                                    "ratio": 1.0,
                                    "key": "_FINDTAG",
                                    "useLimitRange": true,
                                    "maxValue": 1.0,
                                    "minValue": 0.0
                                }
                            ]
                        },
                        {
                            "$type": "Predicated",
                            "otherTargets": {
                                "$type": "OOMOJBAELMP",
                                "shapeName": "CircleR25",
                                "campTargetType": "Alliance",
                                "MAHBNNIIMMA": 1.0
                            },
                            "targetPredicates": [
                                {
                                    "$type": "JAFKEIGFBKO",
                                    "isTarget": false
                                },
                                {
                                    "$type": "HDOFEAAHAKF",
                                    "entityTypes": [
                                        "Monster"
                                    ]
                                },
                                {
                                    "$type": "GDCNLCKIJBG",
                                    "key": "_SHAMAN_WATER_HP_STAGE",
                                    "ratio": 1.0
                                }
                            ],
                            "successActions": [
                                {
                                    "$type": "ApplyModifier",
                                    "target": "Target",
                                    "predicates": [
                                        {
                                            "$type": "GDCNLCKIJBG",
                                            "key": "_FINDTAG",
                                            "JGEJGOKMCCD": true
                                        }
                                    ],
                                    "modifierName": "Shaman_Water_Follow_HealRain"
                                },
                                {
                                    "$type": "AddGlobalValue",
                                    "ratio": 1.0,
                                    "key": "_FINDTAG",
                                    "useLimitRange": true,
                                    "maxValue": 1.0,
                                    "minValue": 0.0
                                }
                            ]
                        },
                        {
                            "$type": "Predicated",
                            "otherTargets": {
                                "$type": "OOMOJBAELMP",
                                "shapeName": "CircleR25",
                                "campTargetType": "Alliance",
                                "MAHBNNIIMMA": 1.0
                            },
                            "targetPredicates": [
                                {
                                    "$type": "JAFKEIGFBKO",
                                    "isTarget": false
                                },
                                {
                                    "$type": "HDOFEAAHAKF",
                                    "entityTypes": [
                                        "Monster"
                                    ]
                                }
                            ],
                            "successActions": [
                                {
                                    "$type": "ApplyModifier",
                                    "target": "Target",
                                    "predicates": [
                                        {
                                            "$type": "GDCNLCKIJBG",
                                            "key": "_FINDTAG",
                                            "JGEJGOKMCCD": true
                                        }
                                    ],
                                    "modifierName": "Shaman_Water_Follow_HealRain"
                                },
                                {
                                    "$type": "AddGlobalValue",
                                    "ratio": 1.0,
                                    "key": "_FINDTAG",
                                    "useLimitRange": true,
                                    "maxValue": 1.0,
                                    "minValue": 0.0
                                }
                            ]
                        },
                        {
                            "$type": "SetAnimatorTrigger",
                            "predicates": [
                                {
                                    "$type": "GDCNLCKIJBG",
                                    "key": "_FINDTAG",
                                    "JGEJGOKMCCD": true
                                }
                            ],
                            "triggerID": "SupportAttackExit"
                        },
                        {
                            "$type": "SetAnimatorTrigger",
                            "predicates": [
                                {
                                    "$type": "GDCNLCKIJBG",
                                    "key": "_FINDTAG",
                                    "JGEJGOKMCCD": true
                                }
                            ],
                            "triggerID": "SupportAttackExit2"
                        }
                    ],
                    "onRemoved": [
                        {
                            "$type": "AddGlobalValue",
                            "ratio": -1.0,
                            "key": "_LIFETAG",
                            "useLimitRange": true,
                            "maxValue": 1.0,
                            "minValue": 0.0
                        },
                        {
                            "$type": "AddGlobalValue",
                            "ratio": -1.0,
                            "key": "_FINDTAG",
                            "useLimitRange": true,
                            "maxValue": 1.0,
                            "minValue": 0.0
                        }
                    ],
                    "onKill": [
                        {
                            "$type": "AddGlobalValue",
                            "ratio": -1.0,
                            "key": "_LIFETAG",
                            "useLimitRange": true,
                            "maxValue": 1.0,
                            "minValue": 0.0
                        }
                    ]
                },
                "Shaman_Water_HP_Monitor": {
                    "modifierName": "",
                    "bonusCritical": 100.0,
                    "modifierMixins": [
                        {
                            "$type": "AttachModifierToHPPercentMixin",
                            "valueSteps": [
                                0.800000011920929,
                                0.6000000238418579,
                                0.4000000059604645,
                                0.20000000298023224
                            ],
                            "modifierNameSteps": [
                                "Shaman_Water_HP_Stage1",
                                "Shaman_Water_HP_Stage2",
                                "Shaman_Water_HP_Stage3",
                                "Shaman_Water_HP_Stage4",
                                "Shaman_Water_HP_Stage5"
                            ]
                        }
                    ]
                },
                "Shaman_Water_HP_Stage1": {
                    "modifierName": "",
                    "bonusCritical": 100.0,
                    "onAdded": [
                        {
                            "$type": "AddGlobalValue",
                            "ratio": 1.0,
                            "key": "_SHAMAN_WATER_HP_STAGE",
                            "useLimitRange": true,
                            "maxValue": 1.0,
                            "minValue": 1.0
                        }
                    ],
                    "onRemoved": [
                        {
                            "$type": "AddGlobalValue",
                            "ratio": -1.0,
                            "key": "_SHAMAN_WATER_HP_STAGE",
                            "useLimitRange": true,
                            "maxValue": 1.0,
                            "minValue": 1.0
                        }
                    ]
                },
                "Shaman_Water_HP_Stage2": {
                    "modifierName": "",
                    "bonusCritical": 100.0,
                    "onAdded": [
                        {
                            "$type": "AddGlobalValue",
                            "ratio": 2.0,
                            "key": "_SHAMAN_WATER_HP_STAGE",
                            "useLimitRange": true,
                            "maxValue": 2.0,
                            "minValue": 1.0
                        }
                    ],
                    "onRemoved": [
                        {
                            "$type": "AddGlobalValue",
                            "ratio": -2.0,
                            "key": "_SHAMAN_WATER_HP_STAGE",
                            "useLimitRange": true,
                            "maxValue": 2.0,
                            "minValue": 1.0
                        }
                    ]
                },
                "Shaman_Water_HP_Stage3": {
                    "modifierName": "",
                    "bonusCritical": 100.0,
                    "onAdded": [
                        {
                            "$type": "AddGlobalValue",
                            "ratio": 3.0,
                            "key": "_SHAMAN_WATER_HP_STAGE",
                            "useLimitRange": true,
                            "maxValue": 3.0,
                            "minValue": 1.0
                        }
                    ],
                    "onRemoved": [
                        {
                            "$type": "AddGlobalValue",
                            "ratio": -3.0,
                            "key": "_SHAMAN_WATER_HP_STAGE",
                            "useLimitRange": true,
                            "maxValue": 3.0,
                            "minValue": 1.0
                        }
                    ]
                },
                "Shaman_Water_HP_Stage4": {
                    "modifierName": "",
                    "bonusCritical": 100.0,
                    "onAdded": [
                        {
                            "$type": "AddGlobalValue",
                            "ratio": 4.0,
                            "key": "_SHAMAN_WATER_HP_STAGE",
                            "useLimitRange": true,
                            "maxValue": 4.0,
                            "minValue": 1.0
                        }
                    ],
                    "onRemoved": [
                        {
                            "$type": "AddGlobalValue",
                            "ratio": -4.0,
                            "key": "_SHAMAN_WATER_HP_STAGE",
                            "useLimitRange": true,
                            "maxValue": 4.0,
                            "minValue": 1.0
                        }
                    ]
                },
                "Shaman_Water_HP_Stage5": {
                    "modifierName": "",
                    "bonusCritical": 100.0,
                    "onAdded": [
                        {
                            "$type": "AddGlobalValue",
                            "ratio": 5.0,
                            "key": "_SHAMAN_WATER_HP_STAGE",
                            "useLimitRange": true,
                            "maxValue": 5.0,
                            "minValue": 1.0
                        }
                    ],
                    "onRemoved": [
                        {
                            "$type": "AddGlobalValue",
                            "ratio": -5.0,
                            "key": "_SHAMAN_WATER_HP_STAGE",
                            "useLimitRange": true,
                            "maxValue": 5.0,
                            "minValue": 1.0
                        }
                    ]
                },
                "Shaman_Water_Follow_HealRain": {
                    "modifierName": "",
                    "bonusCritical": 100.0,
                    "onAdded": [
                        {
                            "$type": "ApplyModifier",
                            "modifierName": "HealRain_Feild_LifeTime"
                        },
                        {
                            "$type": "AttachEffect",
                            "healLimitedByCasterMaxHPRatio": "Eff_Monster_Shaman_Water_SupportAttack_HealRain",
                            "JAOICKHDAKL": -1.0
                        },
                        {
                            "$type": "ApplyModifier",
                            "modifierName": "Heal_Buff"
                        }
                    ],
                    "onRemoved": [
                        {
                            "$type": "SendEffectTrigger",
                            "parameter": "HealRainDie",
                            "IIKEHINGEME": "",
                            "healLimitedByCasterMaxHPRatio": "Eff_Monster_Shaman_Water_SupportAttack_HealRain"
                        }
                    ],
                    "onKill": [
                        {
                            "$type": "SendEffectTrigger",
                            "parameter": "HealRainDie",
                            "IIKEHINGEME": "",
                            "healLimitedByCasterMaxHPRatio": "Eff_Monster_Shaman_Water_SupportAttack_HealRain"
                        }
                    ]
                },
                "HealRain_Feild_LifeTime": {
                    "modifierName": "",
                    "bonusCritical": 100.0,
                    "thinkInterval": 0.10000000149011612,
                    "onRemoved": [
                        {
                            "$type": "ApplyModifier",
                            "modifierName": "HealRain_Feild_Kill"
                        },
                        {
                            "$type": "SendEffectTrigger",
                            "parameter": "HealRainDie",
                            "IIKEHINGEME": ""
                        },
                        {
                            "$type": "RemoveModifier",
                            "modifierName": "Heal_Buff"
                        }
                    ],
                    "onThinkInterval": [
                        {
                            "$type": "RemoveModifier",
                            "predicates": [
                                {
                                    "$type": "GDCNLCKIJBG",
                                    "key": "_LIFETAG",
                                    "ratio": 0.0,
                                    "JGEJGOKMCCD": true
                                }
                            ],
                            "modifierName": "HealRain_Feild_LifeTime"
                        }
                    ]
                },
                "Heal_Buff": {
                    "modifierName": "",
                    "bonusCritical": 100.0,
                    "thinkInterval": 1.0,
                    "onThinkInterval": [
                        {
                            "$type": "HealHP",
                            "otherTargets": {
                                "$type": "OOMOJBAELMP",
                                "shapeName": "CircleR5",
                                "campTargetType": "Alliance",
                                "MAHBNNIIMMA": 1.0
                            },
                            "predicates": [
                                {
                                    "$type": "HDOFEAAHAKF",
                                    "entityTypes": [
                                        "Monster"
                                    ]
                                }
                            ],
                            "GGLMMJHNGMO": "HEAL"
                        },
                        {
                            "$type": "HealHP",
                            "GGLMMJHNGMO": "HEAL"
                        },
                        {
                            "$type": "FireEffect",
                            "otherTargets": {
                                "$type": "OOMOJBAELMP",
                                "shapeName": "CircleR5",
                                "campTargetType": "Alliance",
                                "MAHBNNIIMMA": 1.0
                            },
                            "predicates": [
                                {
                                    "$type": "HDOFEAAHAKF",
                                    "entityTypes": [
                                        "Monster"
                                    ]
                                }
                            ],
                            "healLimitedByCasterMaxHPRatio": "Eff_Monster_Shaman_Water_SupportAttack_Heal",
                            "born": {
                                "$type": "IJCOFPNPJPK",
                                "attachPointName": "RootNode"
                            },
                            "JAOICKHDAKL": -1.0
                        },
                        {
                            "$type": "ApplyModifier",
                            "otherTargets": {
                                "$type": "OOMOJBAELMP",
                                "shapeName": "CircleR5",
                                "campTargetType": "All",
                                "MAHBNNIIMMA": 1.0
                            },
                            "predicates": [
                                {
                                    "$type": "HDOFEAAHAKF",
                                    "entityTypes": [
                                        "Equip"
                                    ],
                                    "reject": true
                                }
                            ],
                            "modifierName": "HealRain_WetModifer"
                        }
                    ]
                },
                "HealRain_WetModifer": {
                    "modifierName": "",
                    "duration": 8.0,
                    "elementType": "Water",
                    "bonusCritical": 50.0
                },
                "HealRain_Feild_Kill": {
                    "modifierName": "",
                    "duration": 2.0,
                    "bonusCritical": 100.0,
                    "onRemoved": [
                        {
                            "$type": "RemoveModifier",
                            "modifierName": "Shaman_Water_Follow_HealRain"
                        }
                    ]
                }
            }
        }
    },
    {
        "Default": {
            "$type": "ConfigAbility",
            "abilityName": "Shaman_HealRain",
            "abilitySpecials": {
                "HEAL": 0.10000000149011612,
                "lifetag": 0.0
            },
            "modifiers": {
                "HealRain_Feild_LifeTime": {
                    "modifierName": "",
                    "bonusCritical": 100.0,
                    "thinkInterval": 0.10000000149011612,
                    "onRemoved": [
                        {
                            "$type": "ApplyModifier",
                            "modifierName": "HealRain_Feild_Kill"
                        },
                        {
                            "$type": "SendEffectTrigger",
                            "parameter": "HealRainDie",
                            "IIKEHINGEME": ""
                        },
                        {
                            "$type": "RemoveModifier",
                            "modifierName": "Heal_Buff"
                        }
                    ],
                    "onThinkInterval": [
                        {
                            "$type": "SetGlobalValueToOverrideMap",
                            "isFromOwner": true,
                            "globalValueKey": "_LIFETAG",
                            "overrideMapKey": "lifetag"
                        },
                        {
                            "$type": "RemoveModifier",
                            "predicates": [
                                {
                                    "$type": "ENIPJPPDJPA",
                                    "target": "Self",
                                    "logic": "Equal",
                                    "JGGJHMGBMHJ": "",
                                    "PGPNJKPHKMG": "lifetag",
                                    "NAKHCJOOOOE": 0.0
                                }
                            ],
                            "modifierName": "HealRain_Feild_LifeTime"
                        }
                    ]
                },
                "HealRain_Effect_LifeTime": {
                    "modifierName": "",
                    "bonusCritical": 100.0,
                    "onAdded": [
                        {
                            "$type": "AttachEffect",
                            "healLimitedByCasterMaxHPRatio": "Eff_Monster_Shaman_Water_SupportAttack_HealRain",
                            "JAOICKHDAKL": -1.0
                        }
                    ],
                    "onRemoved": [
                        {
                            "$type": "SendEffectTrigger",
                            "parameter": "HealRainDie",
                            "IIKEHINGEME": "",
                            "healLimitedByCasterMaxHPRatio": "Eff_Monster_Shaman_Water_SupportAttack_HealRain"
                        }
                    ],
                    "onKill": [
                        {
                            "$type": "SendEffectTrigger",
                            "parameter": "HealRainDie",
                            "IIKEHINGEME": "",
                            "healLimitedByCasterMaxHPRatio": "Eff_Monster_Shaman_Water_SupportAttack_HealRain"
                        }
                    ]
                },
                "Heal_Buff": {
                    "modifierName": "",
                    "bonusCritical": 100.0,
                    "thinkInterval": 1.0,
                    "onThinkInterval": [
                        {
                            "$type": "HealHP",
                            "otherTargets": {
                                "$type": "OOMOJBAELMP",
                                "shapeName": "CircleR5",
                                "campTargetType": "Alliance",
                                "MAHBNNIIMMA": 1.0
                            },
                            "predicates": [
                                {
                                    "$type": "HDOFEAAHAKF",
                                    "entityTypes": [
                                        "Monster"
                                    ]
                                }
                            ],
                            "GGLMMJHNGMO": "HEAL"
                        },
                        {
                            "$type": "FireEffect",
                            "otherTargets": {
                                "$type": "OOMOJBAELMP",
                                "shapeName": "CircleR5",
                                "campTargetType": "Alliance",
                                "MAHBNNIIMMA": 1.0
                            },
                            "predicates": [
                                {
                                    "$type": "HDOFEAAHAKF",
                                    "entityTypes": [
                                        "Monster"
                                    ]
                                }
                            ],
                            "healLimitedByCasterMaxHPRatio": "Eff_Monster_Shaman_Water_SupportAttack_Heal",
                            "born": {
                                "$type": "IJCOFPNPJPK",
                                "attachPointName": "RootNode"
                            },
                            "JAOICKHDAKL": -1.0
                        },
                        {
                            "$type": "ApplyModifier",
                            "otherTargets": {
                                "$type": "OOMOJBAELMP",
                                "shapeName": "CircleR5",
                                "campTargetType": "AllExceptSelf",
                                "MAHBNNIIMMA": 1.0
                            },
                            "predicates": [
                                {
                                    "$type": "HDOFEAAHAKF",
                                    "entityTypes": [
                                        "Equip"
                                    ],
                                    "reject": true
                                }
                            ],
                            "modifierName": "HealRain_WetModifer"
                        }
                    ]
                },
                "HealRain_WetModifer": {
                    "modifierName": "",
                    "duration": 8.0,
                    "elementType": "Water",
                    "bonusCritical": 50.0
                },
                "HealRain_Feild_Kill": {
                    "modifierName": "",
                    "duration": 2.0,
                    "bonusCritical": 100.0,
                    "onRemoved": [
                        {
                            "$type": "KillSelf"
                        }
                    ]
                }
            },
            "onAdded": [
                {
                    "$type": "AttachModifier",
                    "modifierName": "HealRain_Feild_LifeTime"
                },
                {
                    "$type": "AttachModifier",
                    "modifierName": "HealRain_Effect_LifeTime"
                },
                {
                    "$type": "AttachModifier",
                    "modifierName": "Heal_Buff"
                }
            ]
        }
    },
    {
        "Default": {
            "$type": "ConfigAbility",
            "abilityName": "Shaman_Water_CreateTorrent",
            "onAbilityStart": [
                {
                    "$type": "CreateGadget",
                    "target": "SelfAttackTarget",
                    "born": {
                        "$type": "LMLEKKECGLN",
                        "CJKCLAIPMHH": true,
                        "JNDJNDJCGGC": true,
                        "OHHICAJELCA": 0.75
                    },
                    "gadgetID": 42103007,
                    "campID": 4001,
                    "campTargetType": "All"
                },
                {
                    "$type": "Predicated",
                    "target": "SelfAttackTarget",
                    "targetPredicates": [
                        {
                            "$type": "JOLJOHDJLNF",
                            "logic": "Lesser",
                            "ratio": 10.0
                        },
                        {
                            "$type": "JOLJOHDJLNF",
                            "ratio": 3.5
                        }
                    ],
                    "successActions": [
                        {
                            "$type": "SetAnimatorTrigger",
                            "triggerID": "NormalAttackWave2"
                        },
                        {
                            "$type": "SetAnimatorTrigger",
                            "triggerID": "NormalAttackWave3"
                        }
                    ]
                }
            ]
        }
    },
    {
        "Default": {
            "$type": "ConfigAbility",
            "abilityName": "Shaman_Torrent_Area_Damage",
            "modifiers": {
                "Torrent_Damage_Timer": {
                    "modifierName": "",
                    "duration": 1.5,
                    "bonusCritical": 100.0,
                    "onRemoved": [
                        {
                            "$type": "ApplyModifier",
                            "modifierName": "Torrent_Damage"
                        }
                    ]
                },
                "Torrent_Damage": {
                    "modifierName": "",
                    "bonusCritical": 100.0,
                    "onAdded": [
                        {
                            "$type": "TriggerAttackEvent",
                            "attackEvent": {
                                "attackPattern": {
                                    "$type": "GGBJACPDDCM",
                                    "triggerType": "TriggerNoRepeat",
                                    "born": {
                                        "$type": "EOGLEDIIGHF",
                                        "offset": {
                                            "HMHIOILIGBF": 0.0,
                                            "DPPJGBOHAAL": 1.25,
                                            "DDOAGBLBCEF": -0.75
                                        }
                                    },
                                    "size": {
                                        "HMHIOILIGBF": 1.25,
                                        "DPPJGBOHAAL": 2.5,
                                        "DDOAGBLBCEF": 1.25
                                    }
                                },
                                "attackInfo": {
                                    "attackTag": "",
                                    "attenuationTag": "",
                                    "attenuationGroup": "default",
                                    "attackProperty": {
                                        "PCFAAPMOCGJ": 0.5,
                                        "LCCBNOKMNFG": 0.0,
                                        "elementType": "Water",
                                        "bonusCritical": 50.0,
                                        "strikeType": "Default",
                                        "enBreak": 50.0,
                                        "FKGFPFNOJMN": 0.0
                                    },
                                    "hitPattern": {
                                        "onHitEffectName": "default",
                                        "hitImpulseType": "LV4",
                                        "hitHaltTimeScale": 0.05000000074505806
                                    },
                                    "forceCameraShake": true,
                                    "cameraShake": {
                                        "shakeType": "CustomVector",
                                        "shakeRange": 0.03999999910593033,
                                        "shakeTime": 0.09000000357627869,
                                        "shakeDir": {
                                            "y": 1.0
                                        }
                                    },
                                    "canBeModifiedBy": "OriginOwner"
                                }
                            },
                            "targetType": "Enemy"
                        }
                    ]
                }
            },
            "onAdded": [
                {
                    "$type": "FireEffect",
                    "healLimitedByCasterMaxHPRatio": "Eff_Monster_Shaman_Water_Torrent",
                    "born": {
                        "$type": "EOGLEDIIGHF",
                        "CJKCLAIPMHH": true,
                        "JNDJNDJCGGC": true
                    },
                    "JAOICKHDAKL": -1.0
                },
                {
                    "$type": "ApplyModifier",
                    "modifierName": "Torrent_Damage_Timer"
                }
            ]
        }
    },
    {
        "Default": {
            "$type": "ConfigAbility",
            "abilityName": "Monster_Shaman_Water_SetPose",
            "modifiers": {
                "Shaman_Water_SetPose": {
                    "modifierName": "",
                    "bonusCritical": 100.0,
                    "thinkInterval": 0.10000000149011612,
                    "onThinkInterval": [
                        {
                            "$type": "AddGlobalValue",
                            "ratio": -10.0,
                            "key": "_ABILITY_SHAMAN_WATER_ALLIANCE_COUNT",
                            "useLimitRange": true,
                            "maxValue": 1.0,
                            "minValue": 0.0
                        },
                        {
                            "$type": "Predicated",
                            "otherTargets": {
                                "$type": "OOMOJBAELMP",
                                "shapeName": "CircleR10",
                                "MDACHNEPHLE": "SelfAttackTarget",
                                "campTargetType": "Alliance",
                                "MAHBNNIIMMA": 1.0
                            },
                            "targetPredicates": [
                                {
                                    "$type": "JAFKEIGFBKO",
                                    "isTarget": false
                                },
                                {
                                    "$type": "HDOFEAAHAKF",
                                    "entityTypes": [
                                        "Monster"
                                    ]
                                }
                            ],
                            "successActions": [
                                {
                                    "$type": "AddGlobalValue",
                                    "ratio": 1.0,
                                    "key": "_ABILITY_SHAMAN_WATER_ALLIANCE_COUNT",
                                    "useLimitRange": true,
                                    "maxValue": 1.0,
                                    "minValue": 0.0
                                }
                            ]
                        },
                        {
                            "$type": "Predicated",
                            "targetPredicates": [
                                {
                                    "$type": "GDCNLCKIJBG",
                                    "key": "_ABILITY_SHAMAN_WATER_ALLIANCE_COUNT",
                                    "ratio": 0.0,
                                    "AMOLMKMMOME": "MoreThan"
                                }
                            ],
                            "successActions": [
                                {
                                    "$type": "SetPoseBool",
                                    "boolID": "HasAllianceState",
                                    "ratio": true
                                }
                            ],
                            "failActions": [
                                {
                                    "$type": "SetPoseBool",
                                    "boolID": "HasAllianceState"
                                }
                            ]
                        }
                    ]
                }
            },
            "onAdded": [
                {
                    "$type": "AttachModifier",
                    "modifierName": "Shaman_Water_SetPose"
                }
            ]
        }
    },
    {
        "Default": {
            "$type": "ConfigAbility",
            "abilityName": "Monster_Shaman_Water_DistanceCharge",
            "abilityMixins": [
                {
                    "$type": "AttachToAnimatorStateIDMixin",
                    "stateIDs": [
                        "SupportAttack",
                        "NormalAttack",
                        "SupportAttack2"
                    ],
                    "modifierName": "Shaman_Water_DistanceCharge"
                }
            ],
            "modifiers": {
                "Shaman_Water_DistanceCharge": {
                    "modifierName": "",
                    "bonusCritical": 100.0,
                    "thinkInterval": 0.20000000298023224,
                    "onThinkInterval": [
                        {
                            "$type": "Predicated",
                            "target": "SelfAttackTarget",
                            "targetPredicates": [
                                {
                                    "$type": "JOLJOHDJLNF",
                                    "logic": "Lesser",
                                    "ratio": 3.5
                                },
                                {
                                    "$type": "GDCNLCKIJBG",
                                    "target": "Self",
                                    "key": "_ELITEAFFIX_SUPPORT_ENHANCE",
                                    "ratio": 0.0,
                                    "AMOLMKMMOME": "NoneOrEqual"
                                }
                            ],
                            "successActions": [
                                {
                                    "$type": "SetAnimatorTrigger",
                                    "triggerID": "SupportAttackExit2"
                                }
                            ]
                        },
                        {
                            "$type": "Predicated",
                            "target": "SelfAttackTarget",
                            "targetPredicates": [
                                {
                                    "$type": "JOLJOHDJLNF",
                                    "logic": "Lesser",
                                    "ratio": 8.5
                                },
                                {
                                    "$type": "GDCNLCKIJBG",
                                    "target": "Self",
                                    "key": "_ELITEAFFIX_SUPPORT_ENHANCE",
                                    "ratio": 0.0,
                                    "AMOLMKMMOME": "NoneOrEqual"
                                }
                            ],
                            "successActions": [
                                {
                                    "$type": "SetAnimatorTrigger",
                                    "triggerID": "SupportAttackExit"
                                }
                            ]
                        }
                    ]
                }
            }
        }
    },
    {
        "Default": {
            "$type": "ConfigAbility",
            "abilityName": "Monster_Shaman_Water_EscapeState",
            "modifiers": {
                "Shaman_Water_EscapeState": {
                    "modifierName": "",
                    "duration": 1.75,
                    "bonusCritical": 100.0,
                    "onAdded": [
                        {
                            "$type": "SetPoseBool",
                            "boolID": "EscapeState",
                            "ratio": true
                        }
                    ],
                    "onRemoved": [
                        {
                            "$type": "SetPoseBool",
                            "canBeHandledOnRecover": true,
                            "boolID": "EscapeState"
                        }
                    ],
                    "onBeingHit": [
                        {
                            "$type": "RemoveModifier",
                            "modifierName": "Shaman_Water_EscapeState"
                        }
                    ]
                }
            },
            "onAbilityStart": [
                {
                    "$type": "ApplyModifier",
                    "predicates": [
                        {
                            "$type": "JOLJOHDJLNF",
                            "logic": "Lesser",
                            "ratio": 5.0
                        }
                    ],
                    "modifierName": "Shaman_Water_EscapeState"
                }
            ]
        }
    },
    {
        "Default": {
            "$type": "ConfigAbility",
            "abilityName": "Shaman_Water_AnimationSteer",
            "abilityMixins": [
                {
                    "$type": "SteerAttackMixin",
                    "steerStateIDs": [
                        "NormalAttack_BS1"
                    ],
                    "angularSpeed": 180.0,
                    "attackTrigger": "",
                    "attackDistance": 12.0
                },
                {
                    "$type": "SteerAttackMixin",
                    "steerStateIDs": [
                        "NormalAttack_BS2"
                    ],
                    "angularSpeed": 180.0,
                    "attackTrigger": "",
                    "attackDistance": 12.0
                },
                {
                    "$type": "SteerAttackMixin",
                    "steerStateIDs": [
                        "NormalAttack_BS3"
                    ],
                    "angularSpeed": 180.0,
                    "attackTrigger": "",
                    "attackDistance": 12.0
                },
                {
                    "$type": "SteerAttackMixin",
                    "steerStateIDs": [
                        "SupportAttack_BS"
                    ],
                    "angularSpeed": 180.0,
                    "attackTrigger": "",
                    "attackDistance": 12.0
                },
                {
                    "$type": "SteerAttackMixin",
                    "steerStateIDs": [
                        "MeleeAttack"
                    ],
                    "endNormalizedTime": 0.15000000596046448,
                    "angularSpeed": 180.0,
                    "attackTrigger": "",
                    "attackDistance": 12.0
                },
                {
                    "$type": "SteerAttackMixin",
                    "steerStateIDs": [
                        "Turn"
                    ],
                    "startNormalizedTime": 0.20000000298023224,
                    "endNormalizedTime": 0.75,
                    "angularSpeed": 120.0,
                    "attackTrigger": "",
                    "attackDistance": 12.0
                }
            ]
        }
    },
    {
        "Default": {
            "$type": "ConfigAbility",
            "abilityName": "Monster_Shaman_Water_WeaponElementEffect",
            "abilityMixins": [
                {
                    "$type": "AttachToStateIDMixin",
                    "stateIDs": [
                        "SupportAttack",
                        "SupportAttack2",
                        "SupportAttack_BS"
                    ],
                    "modifierName": "Effect_SupportAttack"
                },
                {
                    "$type": "AttachToStateIDMixin",
                    "stateIDs": [
                        "NormalAttack",
                        "NormalAttack_BS"
                    ],
                    "modifierName": "WeaponEffect_NormalAttack"
                }
            ],
            "modifiers": {
                "Effect_SupportAttack": {
                    "modifierName": "",
                    "bonusCritical": 100.0,
                    "onAdded": [
                        {
                            "$type": "AttachEffect",
                            "healLimitedByCasterMaxHPRatio": "Eff_Monster_Shaman_Water_WeaponElement_Rain",
                            "JAOICKHDAKL": -1.0
                        },
                        {
                            "$type": "ApplyModifier",
                            "modifierName": "Shaman_SupportAttack_Gather"
                        }
                    ],
                    "onRemoved": [
                        {
                            "$type": "SendEffectTrigger",
                            "parameter": "GatherDie",
                            "IIKEHINGEME": "",
                            "healLimitedByCasterMaxHPRatio": "Eff_Monster_Shaman_Water_SupportAttack_Gather"
                        }
                    ],
                    "onKill": [
                        {
                            "$type": "RemoveModifier",
                            "modifierName": "Effect_SupportAttack"
                        }
                    ]
                },
                "Shaman_SupportAttack_Gather": {
                    "modifierName": "",
                    "duration": 10.0,
                    "bonusCritical": 100.0,
                    "onAdded": [
                        {
                            "$type": "AttachEffect",
                            "healLimitedByCasterMaxHPRatio": "Eff_Monster_Shaman_Water_SupportAttack_Gather",
                            "born": {
                                "$type": "EOGLEDIIGHF",
                                "CJKCLAIPMHH": true,
                                "JNDJNDJCGGC": true
                            },
                            "JAOICKHDAKL": -1.0
                        }
                    ]
                },
                "WeaponEffect_NormalAttack": {
                    "modifierName": "",
                    "bonusCritical": 100.0,
                    "onAdded": [
                        {
                            "$type": "AttachEffect",
                            "healLimitedByCasterMaxHPRatio": "Eff_Monster_Shaman_Water_WeaponElement_Up",
                            "JAOICKHDAKL": -1.0
                        }
                    ],
                    "onKill": [
                        {
                            "$type": "RemoveModifier",
                            "modifierName": "WeaponEffect_NormalAttack"
                        }
                    ]
                }
            }
        }
    },
    {
        "Default": {
            "$type": "ConfigAbility",
            "abilityName": "Monster_Shaman_Water_WeaponInit",
            "onAdded": [
                {
                    "$type": "TriggerAbility",
                    "target": "Owner",
                    "abilityName": "Monster_Shaman_Water_WeaponElementEffect"
                }
            ]
        }
    }
]