{
    "common": {
        "effectAttachShape": {
            "$type": "CMIPFEGOJCH",
            "EJAEFCDBDFB": "EffectMesh"
        },
        "mass": 10.0
    },
    "headControl": {
        "$type": "HLGPLMCNIFB",
        "useHeadControl": true,
        "DPBKDJOPEBK": false
    },
    "equipController": {
        "sheathPoint": "WeaponBackPut",
        "dissolveSheathFadeTime": 0.30000001192092896,
        "attachPoints": {
            "equip01": "WeaponL",
            "equip02": "WeaponL",
            "equip00": "WeaponBackPut"
        }
    },
    "stateLayers": {
        "defaultLayer": {
            "$type": "KFHJINNNDPN",
            "BOPIBFKFKCA": "",
            "stateIDs": {
                "TeamConfig_BS": {
                    "$type": "JOFEAFEBEFL",
                    "HKPCLGHBKFD": {
                        "TeamConfig_BS": [
                            "TeamConfig_BS_Male_Pole_Zhongli",
                            "Emo_Avatar_Zhongli_TeamConfig_01BS",
                            "Audio_Male_Pole_Zhongli_TeamConfig_BS_UI"
                        ]
                    },
                    "MCIPLNJKGIC": "",
                    "OMEJFIGOFJE": true
                },
                "TeamConfig": {
                    "$type": "JOFEAFEBEFL",
                    "HKPCLGHBKFD": {
                        "TeamConfig_Loop": [
                            "TeamConfig_Male_Pole_Zhongli",
                            "Emo_Avatar_Zhongli_TeamConfig_01Loop"
                        ]
                    },
                    "MCIPLNJKGIC": "",
                    "OMEJFIGOFJE": true
                },
                "TeamConfig_AS": {
                    "$type": "JOFEAFEBEFL",
                    "HKPCLGHBKFD": {
                        "TeamConfig_AS": [
                            "TeamConfig_AS_Male_Pole_Zhongli",
                            "Emo_Avatar_Zhongli_TeamConfig_01AS",
                            "Audio_Male_Pole_Zhongli_TeamConfig_AS_UI"
                        ]
                    },
                    "HGDOHKMMGIJ": [
                        {
                            "name": "&GotoAnyState"
                        }
                    ],
                    "MCIPLNJKGIC": "",
                    "OMEJFIGOFJE": true
                },
                "ShowWeapon_BS": {
                    "$type": "JOFEAFEBEFL",
                    "HKPCLGHBKFD": {
                        "ShowWeapon_BS": [
                            "Male_Pole_ShowWeapon_BS",
                            "Emo_Avatar_Common_Male_Pole_UI_ShowWeaponBS"
                        ]
                    },
                    "HGDOHKMMGIJ": [
                        {
                            "name": "&GotoAnyState"
                        }
                    ],
                    "MCIPLNJKGIC": "",
                    "OMEJFIGOFJE": true
                },
                "ShowRelic_BS": {
                    "$type": "JOFEAFEBEFL",
                    "HKPCLGHBKFD": {
                        "ShowRelic_BS": [
                            "Emo_Avatar_Common_Manekin_RelicShowBS"
                        ]
                    },
                    "HGDOHKMMGIJ": [
                        {
                            "name": "&GotoAnyState"
                        }
                    ],
                    "MCIPLNJKGIC": "",
                    "OMEJFIGOFJE": true
                },
                "ShowWeapon": {
                    "$type": "JOFEAFEBEFL",
                    "HKPCLGHBKFD": {
                        "ShowWeapon": [
                            "Emo_Avatar_Common_Male_Pole_UI_ShowWeaponLoop"
                        ],
                        "ShowWeapon_AS": [
                            "Male_Pole_ShowWeapon_AS",
                            "Emo_Avatar_Common_Male_Pole_UI_ShowWeaponAS"
                        ]
                    },
                    "MCIPLNJKGIC": "",
                    "IPNDKLJMCHB": true
                },
                "ShowRelic": {
                    "$type": "JOFEAFEBEFL",
                    "HKPCLGHBKFD": {
                        "ShowRelic": [
                            "Emo_Avatar_Common_Manekin_RelicShowLoop"
                        ],
                        "ShowRelic_AS": [
                            "Emo_Avatar_Common_Manekin_RelicShowAS"
                        ]
                    },
                    "MCIPLNJKGIC": "",
                    "OMEJFIGOFJE": true
                },
                "ShowCharacter": {
                    "$type": "JOFEAFEBEFL",
                    "HKPCLGHBKFD": {
                        "ShowCharacter": [],
                        "Show01": [
                            "Manekin_Zhongli_Show01",
                            "Audio_Male_Zhongli_StandbyShow02_UI"
                        ],
                        "Show02": [
                            "Audio_Male_Zhongli_StandbyShow01_UI",
                            "Manekin_Zhongli_Show02"
                        ]
                    },
                    "HGDOHKMMGIJ": [
                        {
                            "name": "&GotoAnyState"
                        }
                    ],
                    "MCIPLNJKGIC": "",
                    "OMEJFIGOFJE": true
                },
                "Skill_BS": {
                    "$type": "JOFEAFEBEFL",
                    "HKPCLGHBKFD": {
                        "Skill_BS": [
                            "Emo_Avatar_ZhongLi_UI_Talent_HoldArm_01BS"
                        ]
                    },
                    "HGDOHKMMGIJ": [
                        {
                            "name": "&GotoAnyState"
                        }
                    ],
                    "MCIPLNJKGIC": "",
                    "OMEJFIGOFJE": true
                },
                "Skill": {
                    "$type": "JOFEAFEBEFL",
                    "HKPCLGHBKFD": {
                        "Skill": [
                            "Emo_Avatar_ZhongLi_UI_Talent_HoldArm_01Loop"
                        ]
                    },
                    "MCIPLNJKGIC": ""
                },
                "Skill_AS": {
                    "$type": "JOFEAFEBEFL",
                    "HKPCLGHBKFD": {
                        "Skill_AS": [
                            "Emo_Avatar_ZhongLi_UI_Talent_HoldArm_01AS"
                        ]
                    },
                    "MCIPLNJKGIC": ""
                },
                "Story": {
                    "$type": "JOFEAFEBEFL",
                    "HKPCLGHBKFD": {
                        "Story": []
                    },
                    "HGDOHKMMGIJ": [
                        {
                            "name": "&GotoAnyState"
                        }
                    ],
                    "MCIPLNJKGIC": "",
                    "OMEJFIGOFJE": true
                },
                "ShowFlycloak": {
                    "$type": "JOFEAFEBEFL",
                    "HKPCLGHBKFD": {
                        "ShowFlycloak": []
                    },
                    "MCIPLNJKGIC": "",
                    "OMEJFIGOFJE": true
                }
            }
        }
    },
    "audio": {
        "LKJIHNLBIJL": "",
        "animAudio": {
            "onTransitionIn": [
                {
                    "currentStateName": "ShowWeapon_BS",
                    "audioEvent": {
                        "text": "Play_ui_menu_weapon_show_zhongli"
                    }
                },
                {
                    "currentStateName": "ShowRelic_BS",
                    "audioEvent": {
                        "text": "Play_ui_menu_relic_show"
                    }
                }
            ],
            "onTransitionOut": [
                {
                    "currentStateName": "ShowWeapon_BS",
                    "audioEvent": {
                        "text": "Stop_ui_menu_weapon_show_putAway_appear_short"
                    }
                },
                {
                    "currentStateName": "Show01",
                    "audioEvent": {
                        "text": "Stop_ui_standbyShow_zhongli_lock"
                    }
                },
                {
                    "currentStateName": "TeamConfig_BS",
                    "audioEvent": {
                        "text": "Stop_ui_menu_char_teamConfig_show"
                    },
                    "otherStateNames": [
                        "TeamConfig_Loop"
                    ],
                    "usage": "Except"
                },
                {
                    "currentStateName": "TeamConfig_Loop",
                    "audioEvent": {
                        "text": "Stop_ui_menu_char_teamConfig_show"
                    }
                }
            ]
        },
        "listenerLiftup": 1.5,
        "surfaceProberLiftup": 1.5
    }
}