{
    "luaDataPath": "",
    "isSimpleTalk": true,
    "startBlackKeepTime": 1.0,
    "entityBan": "4054_hide",
    "disableNpcLod": true,
    "EKDGNGHMECG": true,
    "startFade": {
        "startFadeInDuration": 0.5,
        "startFadeOutDuration": 0.5
    },
    "endFade": {
        "startFadeOutDuration": 0.0
    },
    "actors": [
        {
            "alias": "Avatar",
            "visible": true,
            "bornPointName": "",
            "relativePosType": "AVATAR_NEW",
            "relativePosNpcAlias": "",
            "bindMovingTargetKey": ""
        },
        {
            "configID": 4003,
            "alias": "4003",
            "visible": true,
            "bornPointName": "",
            "removeActorType": "REMOVE",
            "forceCreateDaily": true,
            "relativePosType": "AVATAR_NEW",
            "relativePosNpcAlias": "",
            "bindMovingTargetKey": ""
        },
        {
            "configID": 4001,
            "alias": "4001",
            "visible": true,
            "bornPointName": "",
            "removeActorType": "REMOVE",
            "forceCreateDaily": true,
            "relativePosType": "AVATAR_NEW",
            "relativePosNpcAlias": "",
            "bindMovingTargetKey": ""
        },
        {
            "configID": 4005,
            "alias": "4005",
            "visible": true,
            "bornPointName": "",
            "removeActorType": "REMOVE",
            "forceCreateDaily": true,
            "relativePosType": "AVATAR_NEW",
            "relativePosNpcAlias": "",
            "bindMovingTargetKey": ""
        },
        {
            "configID": 4004,
            "alias": "4004",
            "visible": true,
            "bornPointName": "",
            "removeActorType": "REMOVE",
            "forceCreateDaily": true,
            "relativePosType": "AVATAR_NEW",
            "relativePosNpcAlias": "",
            "bindMovingTargetKey": ""
        }
    ],
    "group": [
        [
            {
                "$type": "MoleMole.Config.ConfigTimeProtectAction",
                "type": "TIME_PROTECT",
                "duration": 0.5
            },
            {
                "$type": "MoleMole.Config.ConfigTeleportToAction",
                "type": "TELEPORT_TO",
                "delayTime": 0.10000000149011612,
                "aliasList": [
                    "Avatar"
                ],
                "position": {
                    "x": -1.8020000457763672,
                    "y": 0.05000000074505806,
                    "z": 12.048999786376953
                },
                "forward": {
                    "x": -2.4489998817443848,
                    "z": 2.6670000553131104
                },
                "openLongDisTeleport": true,
                "posBindMovingTargetKey": "",
                "forwardBindMovingTargetKey": ""
            },
            {
                "$type": "PBIGHFCHGCA",
                "type": "CAMERA_FOCUS",
                "delayTime": 0.30000001192092896,
                "duration": 0.10000000149011612,
                "JBODIEHINII": "",
                "EJCHLMIMLBO": "",
                "BIMPIKMCIHB": "",
                "MCAOJPLIJGI": ""
            },
            {
                "$type": "NFDDGDIKEAG",
                "type": "STEER_TO",
                "delayTime": 0.30000001192092896,
                "duration": 0.800000011920929,
                "aliasList": [
                    "4003"
                ],
                "GGJHILELIMO": "TO_LOCAL_AVATAR_ADVANCED",
                "PKKKHNGDEEE": true,
                "LGDIOPOBMPH": true,
                "NBNJEKMFIDE": true,
                "JBODIEHINII": "",
                "NNFPFPOJJOJ": ""
            },
            {
                "$type": "NFDDGDIKEAG",
                "type": "STEER_TO",
                "delayTime": 0.5,
                "duration": 0.10000000149011612,
                "aliasList": [
                    "Avatar"
                ],
                "GGJHILELIMO": "TO_TARGET",
                "LGDIOPOBMPH": true,
                "NBNJEKMFIDE": true,
                "JBODIEHINII": "4003",
                "NNFPFPOJJOJ": ""
            }
        ],
        [
            {
                "$type": "KAGAFALAIGP",
                "type": "DIALOG",
                "aliasList": [
                    "4003"
                ],
                "JHEPJOMJJHH": 230001301,
                "OCILKFCPBNC": 0.5
            },
            {
                "$type": "CENEPJCONAG",
                "type": "BODY_LANG",
                "aliasList": [
                    "4003"
                ],
                "OGFPAIKLDGB": 1090,
                "MHDCNDAINCK": true,
                "LHIAJOBFNAK": false,
                "FOEKGLEJBIJ": ""
            },
            {
                "$type": "AAFOOOPNJLB",
                "type": "DIALOG_SELECT",
                "delayTime": 0.4000000059604645,
                "aliasList": [
                    "Avatar"
                ],
                "KFAEOBDAAME": [
                    230001302
                ],
                "ELPFMMBHOLF": [
                    1042948663
                ],
                "OEAAKJDIEFD": true
            }
        ],
        [
            {
                "$type": "KAGAFALAIGP",
                "type": "DIALOG",
                "aliasList": [
                    "4003"
                ],
                "JHEPJOMJJHH": 230001303,
                "OCILKFCPBNC": 0.5
            },
            {
                "$type": "CENEPJCONAG",
                "type": "BODY_LANG",
                "aliasList": [
                    "4003"
                ],
                "OGFPAIKLDGB": 1160,
                "MHDCNDAINCK": true,
                "LHIAJOBFNAK": false,
                "FOEKGLEJBIJ": ""
            }
        ],
        [
            {
                "$type": "KAGAFALAIGP",
                "type": "DIALOG",
                "aliasList": [
                    "4003"
                ],
                "JHEPJOMJJHH": 230001304,
                "OCILKFCPBNC": 0.5
            }
        ],
        [
            {
                "$type": "KAGAFALAIGP",
                "type": "DIALOG",
                "aliasList": [
                    "4003"
                ],
                "JHEPJOMJJHH": 230001305,
                "OCILKFCPBNC": 0.5
            },
            {
                "$type": "CENEPJCONAG",
                "type": "BODY_LANG",
                "aliasList": [
                    "4003"
                ],
                "OGFPAIKLDGB": 1030,
                "MHDCNDAINCK": true,
                "LHIAJOBFNAK": false,
                "FOEKGLEJBIJ": ""
            }
        ],
        [
            {
                "$type": "KAGAFALAIGP",
                "type": "DIALOG",
                "aliasList": [
                    "4003"
                ],
                "JHEPJOMJJHH": 230001306,
                "OCILKFCPBNC": 0.5
            },
            {
                "$type": "CENEPJCONAG",
                "type": "BODY_LANG",
                "aliasList": [
                    "4003"
                ],
                "OGFPAIKLDGB": 1172,
                "MHDCNDAINCK": true,
                "LHIAJOBFNAK": false,
                "FOEKGLEJBIJ": ""
            }
        ],
        [
            {
                "$type": "MoleMole.Config.ConfigTimeProtectAction",
                "type": "TIME_PROTECT",
                "duration": 1.0
            },
            {
                "$type": "MoleMole.Config.ConfigSimpleBlackScreenAction",
                "type": "SIMPLE_BLACK_SCREEN",
                "durationToBlack": 0.5,
                "durationKeepBlack": 1.0,
                "durationFromBlack": 0.5,
                "textMapID": "",
                "useTextFade": true
            },
            {
                "$type": "MoleMole.Config.ConfigSitOrStandAction",
                "type": "SIT_OR_STAND",
                "delayTime": 0.6000000238418579,
                "aliasList": [
                    "4001"
                ]
            },
            {
                "$type": "MoleMole.Config.ConfigSitOrStandAction",
                "type": "SIT_OR_STAND",
                "delayTime": 0.6000000238418579,
                "aliasList": [
                    "4005"
                ]
            }
        ]
    ],
    "groupId": [
        {
            "grpId": 1042948661,
            "nextGrpId": 1042948662
        },
        {
            "index": 1,
            "grpId": 1042948662,
            "nextGrpId": 1042948663
        },
        {
            "index": 2,
            "grpId": 1042948663,
            "nextGrpId": 1042948664
        },
        {
            "index": 3,
            "grpId": 1042948664,
            "nextGrpId": 1042948665
        },
        {
            "index": 4,
            "grpId": 1042948665,
            "nextGrpId": 1042948666
        },
        {
            "index": 5,
            "grpId": 1042948666,
            "nextGrpId": 1042948667
        },
        {
            "index": 6,
            "grpId": 1042948667,
            "nextGrpId": 1042948668
        }
    ],
    "freeStyleDic": {
        "4003": [
            1090,
            1160,
            1030,
            1172
        ],
        "4001": [],
        "4005": [],
        "4004": []
    }
}