{
    "sceneId": 3,
    "gadgets": [
        {
            "groupId": 133402001,
            "mapInstId": 1005,
            "followMoveAttachPoint": "",
            "ACEKBLOJOPC": {
                "2": "UnderWater"
            },
            "uiIndicator": {
                "templateName": "Normal_Chest_Icon"
            },
            "GCPGDLLDDKM": ""
        },
        {
            "groupId": 133402002,
            "mapInstId": 2009,
            "followMoveAttachPoint": "",
            "uiIndicator": {
                "templateName": "Normal_Chest_Icon"
            },
            "GCPGDLLDDKM": ""
        },
        {
            "groupId": 133402002,
            "mapInstId": 2012,
            "followMoveAttachPoint": "",
            "uiIndicator": {
                "templateName": "Normal_Chest_Icon"
            },
            "GCPGDLLDDKM": ""
        },
        {
            "groupId": 133402004,
            "mapInstId": 4004,
            "followMoveAttachPoint": "",
            "ACEKBLOJOPC": {
                "2": "UnderWater"
            },
            "uiIndicator": {
                "templateName": "Normal_Chest_Icon"
            },
            "GCPGDLLDDKM": ""
        },
        {
            "groupId": 133402005,
            "mapInstId": 5001,
            "followMoveAttachPoint": "",
            "ACEKBLOJOPC": {
                "2": "UnderWater"
            },
            "uiIndicator": {
                "templateName": "Normal_Chest_Icon"
            },
            "GCPGDLLDDKM": ""
        },
        {
            "groupId": 133402007,
            "mapInstId": 7001,
            "followMoveAttachPoint": "",
            "ACEKBLOJOPC": {
                "2": "UnderWater"
            },
            "uiIndicator": {
                "templateName": "Normal_Chest_Icon"
            },
            "GCPGDLLDDKM": ""
        },
        {
            "groupId": 133402009,
            "mapInstId": 9001,
            "followMoveAttachPoint": "",
            "ACEKBLOJOPC": {
                "2": "UnderWater"
            },
            "GCPGDLLDDKM": ""
        },
        {
            "groupId": 133402009,
            "mapInstId": 9002,
            "followMoveAttachPoint": "",
            "ACEKBLOJOPC": {
                "2": "UnderWater"
            },
            "GCPGDLLDDKM": ""
        },
        {
            "groupId": 133402009,
            "mapInstId": 9003,
            "followMoveAttachPoint": "",
            "ACEKBLOJOPC": {
                "2": "UnderWaterFloat"
            },
            "GCPGDLLDDKM": ""
        },
        {
            "groupId": 133402009,
            "mapInstId": 9004,
            "followMoveAttachPoint": "",
            "ACEKBLOJOPC": {
                "2": "UnderWater"
            },
            "GCPGDLLDDKM": ""
        },
        {
            "groupId": 133402009,
            "mapInstId": 9005,
            "followMoveAttachPoint": "",
            "ACEKBLOJOPC": {
                "2": "UnderWaterFloat"
            },
            "GCPGDLLDDKM": ""
        },
        {
            "groupId": 133402028,
            "mapInstId": 28003,
            "followMoveAttachPoint": "",
            "uiIndicator": {
                "templateName": "Normal_Chest_Icon"
            },
            "GCPGDLLDDKM": ""
        },
        {
            "groupId": 133402032,
            "mapInstId": 32001,
            "followMoveAttachPoint": "",
            "GCPGDLLDDKM": "",
            "routeID": 340200047
        },
        {
            "groupId": 133402033,
            "mapInstId": 33001,
            "followMoveAttachPoint": "",
            "GCPGDLLDDKM": "",
            "routeID": 340200049
        },
        {
            "groupId": 133402046,
            "mapInstId": 46004,
            "followMoveAttachPoint": "",
            "uiIndicator": {
                "templateName": "Normal_Chest_Icon"
            },
            "GCPGDLLDDKM": ""
        },
        {
            "groupId": 133402055,
            "mapInstId": 55001,
            "followMoveAttachPoint": "",
            "ACEKBLOJOPC": {
                "2": "UnderWaterFloat"
            },
            "uiIndicator": {
                "templateName": "GadgetCreate_Icon"
            },
            "GCPGDLLDDKM": ""
        },
        {
            "groupId": 133402068,
            "mapInstId": 68002,
            "followMoveAttachPoint": "",
            "uiIndicator": {
                "templateName": "Normal_DailyTask_Icon",
                "paramDatas": {
                    "TaskDummy": "Event_32570"
                }
            },
            "GCPGDLLDDKM": ""
        },
        {
            "groupId": 133402068,
            "mapInstId": 68003,
            "followMoveAttachPoint": "",
            "uiIndicator": {
                "templateName": "Normal_DailyTask_Icon",
                "paramDatas": {
                    "TaskDummy": "EVENT_32570"
                }
            },
            "GCPGDLLDDKM": ""
        },
        {
            "groupId": 133402071,
            "mapInstId": 71022,
            "followMoveAttachPoint": "",
            "ACEKBLOJOPC": {
                "2": "UnderWater"
            },
            "uiIndicator": {
                "templateName": "Normal_Chest_Icon"
            },
            "GCPGDLLDDKM": ""
        },
        {
            "groupId": 133402097,
            "mapInstId": 97006,
            "followMoveAttachPoint": "",
            "uiIndicator": {
                "templateName": "Normal_Chest_Icon"
            },
            "GCPGDLLDDKM": ""
        },
        {
            "groupId": 133402108,
            "mapInstId": 108013,
            "followMoveAttachPoint": "",
            "uiIndicator": {
                "templateName": "Normal_Chest_Icon"
            },
            "GCPGDLLDDKM": ""
        },
        {
            "groupId": 133402110,
            "mapInstId": 110018,
            "followMoveAttachPoint": "",
            "uiIndicator": {
                "templateName": "Normal_Chest_Icon"
            },
            "GCPGDLLDDKM": ""
        },
        {
            "groupId": 133402117,
            "mapInstId": 117006,
            "followMoveAttachPoint": "",
            "uiIndicator": {
                "templateName": "Normal_Chest_Icon"
            },
            "GCPGDLLDDKM": ""
        },
        {
            "groupId": 133402119,
            "mapInstId": 119004,
            "followMoveAttachPoint": "",
            "uiIndicator": {
                "templateName": "Normal_Chest_Icon"
            },
            "GCPGDLLDDKM": ""
        },
        {
            "groupId": 133402121,
            "mapInstId": 121012,
            "followMoveAttachPoint": "",
            "ACEKBLOJOPC": {
                "2": "UnderWater"
            },
            "uiIndicator": {
                "templateName": "Normal_Chest_Icon"
            },
            "GCPGDLLDDKM": ""
        },
        {
            "groupId": 133402123,
            "mapInstId": 123004,
            "followMoveAttachPoint": "",
            "ACEKBLOJOPC": {
                "2": "UnderWaterFloat"
            },
            "uiIndicator": {
                "templateName": "Normal_Chest_Icon"
            },
            "GCPGDLLDDKM": ""
        },
        {
            "groupId": 133402128,
            "mapInstId": 128010,
            "followMoveAttachPoint": "",
            "uiIndicator": {
                "templateName": "Normal_Chest_Icon"
            },
            "GCPGDLLDDKM": ""
        },
        {
            "groupId": 133402139,
            "mapInstId": 139001,
            "followMoveAttachPoint": "",
            "ACEKBLOJOPC": {
                "2": "UnderWater"
            },
            "uiIndicator": {
                "templateName": "Normal_Chest_Icon"
            },
            "GCPGDLLDDKM": ""
        },
        {
            "groupId": 133402150,
            "mapInstId": 150013,
            "followMoveAttachPoint": "",
            "ACEKBLOJOPC": {
                "2": "UnderWaterFloat"
            },
            "uiIndicator": {
                "templateName": "Normal_Chest_Icon"
            },
            "GCPGDLLDDKM": ""
        },
        {
            "groupId": 133402152,
            "mapInstId": 152009,
            "followMoveAttachPoint": "",
            "uiIndicator": {
                "templateName": "Normal_DailyTask_Icon",
                "paramDatas": {
                    "TaskDummy": "EVENT_32553"
                }
            },
            "GCPGDLLDDKM": ""
        },
        {
            "groupId": 133402152,
            "mapInstId": 152010,
            "followMoveAttachPoint": "",
            "uiIndicator": {
                "templateName": "Normal_DailyTask_Icon",
                "paramDatas": {
                    "TaskDummy": "EVENT_32553"
                }
            },
            "GCPGDLLDDKM": ""
        },
        {
            "groupId": 133402153,
            "mapInstId": 153011,
            "followMoveAttachPoint": "",
            "ACEKBLOJOPC": {
                "2": "UnderWater"
            },
            "uiIndicator": {
                "templateName": "Normal_Chest_Icon"
            },
            "GCPGDLLDDKM": ""
        },
        {
            "groupId": 133402168,
            "mapInstId": 168006,
            "followMoveAttachPoint": "",
            "ACEKBLOJOPC": {
                "2": "UnderWater"
            },
            "uiIndicator": {
                "templateName": "Normal_Chest_Icon"
            },
            "GCPGDLLDDKM": ""
        },
        {
            "groupId": 133402178,
            "mapInstId": 178001,
            "followMoveAttachPoint": "",
            "ACEKBLOJOPC": {
                "2": "UnderWaterFloat"
            },
            "uiIndicator": {
                "templateName": "Normal_Chest_Icon"
            },
            "GCPGDLLDDKM": ""
        },
        {
            "groupId": 133402229,
            "mapInstId": 229002,
            "followMoveAttachPoint": "",
            "uiIndicator": {
                "templateName": "Normal_Chest_Icon"
            },
            "GCPGDLLDDKM": ""
        },
        {
            "groupId": 133402298,
            "mapInstId": 298001,
            "followMoveAttachPoint": "",
            "ACEKBLOJOPC": {
                "2": "UnderWater"
            },
            "GCPGDLLDDKM": ""
        },
        {
            "groupId": 133402309,
            "mapInstId": 309002,
            "followMoveAttachPoint": "",
            "uiIndicator": {
                "templateName": "Normal_Chest_Icon"
            },
            "GCPGDLLDDKM": ""
        },
        {
            "groupId": 133402333,
            "mapInstId": 333002,
            "followMoveAttachPoint": "",
            "ACEKBLOJOPC": {
                "2": "UnderWater"
            },
            "GCPGDLLDDKM": ""
        },
        {
            "groupId": 133402344,
            "mapInstId": 344003,
            "followMoveAttachPoint": "",
            "ACEKBLOJOPC": {
                "2": "UnderWater"
            },
            "GCPGDLLDDKM": ""
        },
        {
            "groupId": 133402344,
            "mapInstId": 344005,
            "followMoveAttachPoint": "",
            "ACEKBLOJOPC": {
                "2": "UnderWater"
            },
            "GCPGDLLDDKM": ""
        },
        {
            "groupId": 133402354,
            "mapInstId": 354004,
            "followMoveAttachPoint": "",
            "ACEKBLOJOPC": {
                "2": "UnderWaterFloat"
            },
            "uiIndicator": {
                "templateName": "Normal_Chest_Icon"
            },
            "GCPGDLLDDKM": ""
        },
        {
            "groupId": 133402410,
            "mapInstId": 410012,
            "followMoveAttachPoint": "",
            "ACEKBLOJOPC": {
                "2": "UnderWater"
            },
            "uiIndicator": {
                "templateName": "Normal_Chest_Icon"
            },
            "GCPGDLLDDKM": ""
        },
        {
            "groupId": 133402421,
            "mapInstId": 421001,
            "followMoveAttachPoint": "",
            "GCPGDLLDDKM": "",
            "routeID": 340200188
        },
        {
            "groupId": 133402421,
            "mapInstId": 421005,
            "followMoveAttachPoint": "",
            "ACEKBLOJOPC": {
                "2": "UnderWaterFloat"
            },
            "uiIndicator": {
                "templateName": "Normal_Chest_Icon"
            },
            "GCPGDLLDDKM": ""
        },
        {
            "groupId": 133402422,
            "mapInstId": 422001,
            "followMoveAttachPoint": "",
            "GCPGDLLDDKM": "",
            "routeID": 340200189
        },
        {
            "groupId": 133402450,
            "mapInstId": 450006,
            "followMoveAttachPoint": "",
            "ACEKBLOJOPC": {
                "2": "UnderWater"
            },
            "uiIndicator": {
                "templateName": "Normal_Chest_Icon"
            },
            "GCPGDLLDDKM": ""
        },
        {
            "groupId": 133402456,
            "mapInstId": 456002,
            "followMoveAttachPoint": "",
            "ACEKBLOJOPC": {
                "2": "UnderWaterFloat"
            },
            "GCPGDLLDDKM": ""
        },
        {
            "groupId": 133402456,
            "mapInstId": 456007,
            "followMoveAttachPoint": "",
            "uiIndicator": {
                "templateName": "Normal_Chest_Icon"
            },
            "GCPGDLLDDKM": ""
        },
        {
            "groupId": 133402459,
            "mapInstId": 459002,
            "followMoveAttachPoint": "",
            "ACEKBLOJOPC": {
                "2": "UnderWater"
            },
            "GCPGDLLDDKM": ""
        },
        {
            "groupId": 133402466,
            "mapInstId": 466013,
            "followMoveAttachPoint": "",
            "ACEKBLOJOPC": {
                "2": "UnderWater"
            },
            "GCPGDLLDDKM": ""
        },
        {
            "groupId": 133402468,
            "mapInstId": 468001,
            "followMoveAttachPoint": "",
            "uiIndicator": {
                "templateName": "GadgetCreate_Icon"
            },
            "GCPGDLLDDKM": ""
        },
        {
            "groupId": 133402468,
            "mapInstId": 468003,
            "followMoveAttachPoint": "",
            "uiIndicator": {
                "templateName": "GadgetCreate_Icon"
            },
            "GCPGDLLDDKM": ""
        },
        {
            "groupId": 133402468,
            "mapInstId": 468004,
            "followMoveAttachPoint": "",
            "uiIndicator": {
                "templateName": "GadgetCreate_Icon"
            },
            "GCPGDLLDDKM": ""
        },
        {
            "groupId": 133402468,
            "mapInstId": 468005,
            "followMoveAttachPoint": "",
            "uiIndicator": {
                "templateName": "GadgetCreate_Icon"
            },
            "GCPGDLLDDKM": ""
        },
        {
            "groupId": 133402468,
            "mapInstId": 468006,
            "followMoveAttachPoint": "",
            "uiIndicator": {
                "templateName": "GadgetCreate_Icon"
            },
            "GCPGDLLDDKM": ""
        },
        {
            "groupId": 133402468,
            "mapInstId": 468007,
            "followMoveAttachPoint": "",
            "uiIndicator": {
                "templateName": "GadgetCreate_Icon"
            },
            "GCPGDLLDDKM": ""
        },
        {
            "groupId": 133402468,
            "mapInstId": 468008,
            "followMoveAttachPoint": "",
            "uiIndicator": {
                "templateName": "GadgetCreate_Icon"
            },
            "GCPGDLLDDKM": ""
        },
        {
            "groupId": 133402468,
            "mapInstId": 468009,
            "followMoveAttachPoint": "",
            "uiIndicator": {
                "templateName": "GadgetCreate_Icon"
            },
            "GCPGDLLDDKM": ""
        },
        {
            "groupId": 133402468,
            "mapInstId": 468010,
            "followMoveAttachPoint": "",
            "uiIndicator": {
                "templateName": "GadgetCreate_Icon"
            },
            "GCPGDLLDDKM": ""
        },
        {
            "groupId": 133402468,
            "mapInstId": 468011,
            "followMoveAttachPoint": "",
            "uiIndicator": {
                "templateName": "GadgetCreate_Icon"
            },
            "GCPGDLLDDKM": ""
        },
        {
            "groupId": 133402468,
            "mapInstId": 468012,
            "followMoveAttachPoint": "",
            "ACEKBLOJOPC": {
                "2": "UnderWaterFloat"
            },
            "uiIndicator": {
                "templateName": "Normal_Chest_Icon"
            },
            "GCPGDLLDDKM": ""
        },
        {
            "groupId": 133402468,
            "mapInstId": 468013,
            "followMoveAttachPoint": "",
            "uiIndicator": {
                "templateName": "GadgetCreate_Icon"
            },
            "GCPGDLLDDKM": ""
        },
        {
            "groupId": 133402468,
            "mapInstId": 468014,
            "followMoveAttachPoint": "",
            "uiIndicator": {
                "templateName": "GadgetCreate_Icon"
            },
            "GCPGDLLDDKM": ""
        },
        {
            "groupId": 133402468,
            "mapInstId": 468015,
            "followMoveAttachPoint": "",
            "uiIndicator": {
                "templateName": "GadgetCreate_Icon"
            },
            "GCPGDLLDDKM": ""
        },
        {
            "groupId": 133402468,
            "mapInstId": 468016,
            "followMoveAttachPoint": "",
            "uiIndicator": {
                "templateName": "GadgetCreate_Icon"
            },
            "GCPGDLLDDKM": ""
        },
        {
            "groupId": 133402468,
            "mapInstId": 468017,
            "followMoveAttachPoint": "",
            "uiIndicator": {
                "templateName": "GadgetCreate_Icon"
            },
            "GCPGDLLDDKM": ""
        }
    ]
}