{
    "sceneId": 20131,
    "gadgets": [
        {
            "groupId": 220131001,
            "mapInstId": 1009,
            "followMoveAttachPoint": "",
            "uiIndicator": {
                "templateName": "ChestUnlock_Icon"
            },
            "GCPGDLLDDKM": ""
        }
    ]
}