{
    "sceneId": 3,
    "gadgets": [
        {
            "groupId": 133220011,
            "mapInstId": 11002,
            "followMoveAttachPoint": "",
            "uiIndicator": {
                "templateName": "Normal_Chest_Icon"
            },
            "GCPGDLLDDKM": ""
        },
        {
            "groupId": 133220013,
            "mapInstId": 13009,
            "followMoveAttachPoint": "",
            "uiIndicator": {
                "templateName": "Normal_DailyTask_Icon",
                "paramDatas": {
                    "TaskDummy": "EVENT_31080"
                }
            },
            "GCPGDLLDDKM": ""
        },
        {
            "groupId": 133220013,
            "mapInstId": 13010,
            "followMoveAttachPoint": "",
            "uiIndicator": {
                "templateName": "Normal_DailyTask_Icon",
                "paramDatas": {
                    "TaskDummy": "EVENT_31080"
                }
            },
            "GCPGDLLDDKM": ""
        },
        {
            "groupId": 133220017,
            "mapInstId": 17013,
            "followMoveAttachPoint": "",
            "uiIndicator": {
                "templateName": "ChestUnlock_Icon"
            },
            "GCPGDLLDDKM": ""
        },
        {
            "groupId": 133220018,
            "mapInstId": 18026,
            "followMoveAttachPoint": "",
            "uiIndicator": {
                "templateName": "Normal_Chest_Icon"
            },
            "GCPGDLLDDKM": ""
        },
        {
            "groupId": 133220019,
            "mapInstId": 19008,
            "followMoveAttachPoint": "",
            "billboardShowUIBarDis": 39.0,
            "billboardHideUIBarDis": 40.0,
            "uiIndicator": {
                "templateName": "Normal_DailyTask_Icon_HillCart"
            },
            "GCPGDLLDDKM": ""
        },
        {
            "groupId": 133220021,
            "mapInstId": 21004,
            "followMoveAttachPoint": "",
            "uiIndicator": {
                "templateName": "Normal_Chest_Icon"
            },
            "GCPGDLLDDKM": ""
        },
        {
            "groupId": 133220023,
            "mapInstId": 23002,
            "followMoveAttachPoint": "",
            "uiIndicator": {
                "templateName": "Normal_Chest_Icon"
            },
            "GCPGDLLDDKM": ""
        },
        {
            "groupId": 133220024,
            "mapInstId": 24002,
            "followMoveAttachPoint": "",
            "uiIndicator": {
                "templateName": "Normal_Chest_Icon"
            },
            "GCPGDLLDDKM": ""
        },
        {
            "groupId": 133220025,
            "mapInstId": 25002,
            "followMoveAttachPoint": "",
            "uiIndicator": {
                "templateName": "Normal_Chest_Icon"
            },
            "GCPGDLLDDKM": ""
        },
        {
            "groupId": 133220029,
            "mapInstId": 29001,
            "followMoveAttachPoint": "",
            "uiIndicator": {
                "templateName": "Normal_Chest_Icon"
            },
            "GCPGDLLDDKM": ""
        },
        {
            "groupId": 133220034,
            "mapInstId": 34002,
            "followMoveAttachPoint": "",
            "uiIndicator": {
                "templateName": "Normal_Chest_Icon"
            },
            "GCPGDLLDDKM": ""
        },
        {
            "groupId": 133220036,
            "mapInstId": 36019,
            "followMoveAttachPoint": "",
            "uiIndicator": {
                "templateName": "Normal_Chest_Icon"
            },
            "GCPGDLLDDKM": ""
        },
        {
            "groupId": 133220036,
            "mapInstId": 36024,
            "followMoveAttachPoint": "",
            "uiIndicator": {
                "templateName": "Normal_Chest_Icon"
            },
            "GCPGDLLDDKM": ""
        },
        {
            "groupId": 133220036,
            "mapInstId": 36025,
            "followMoveAttachPoint": "",
            "uiIndicator": {
                "templateName": "Normal_Chest_Icon"
            },
            "GCPGDLLDDKM": ""
        },
        {
            "groupId": 133220037,
            "mapInstId": 37004,
            "followMoveAttachPoint": "",
            "uiIndicator": {
                "templateName": "Normal_Chest_Icon"
            },
            "GCPGDLLDDKM": ""
        },
        {
            "groupId": 133220039,
            "mapInstId": 39002,
            "followMoveAttachPoint": "",
            "uiIndicator": {
                "templateName": "Normal_Chest_Icon"
            },
            "GCPGDLLDDKM": ""
        },
        {
            "groupId": 133220043,
            "mapInstId": 43002,
            "followMoveAttachPoint": "",
            "uiIndicator": {
                "templateName": "Normal_Chest_Icon"
            },
            "GCPGDLLDDKM": ""
        },
        {
            "groupId": 133220046,
            "mapInstId": 46002,
            "followMoveAttachPoint": "",
            "uiIndicator": {
                "templateName": "Normal_Chest_Icon"
            },
            "GCPGDLLDDKM": ""
        },
        {
            "groupId": 133220047,
            "mapInstId": 47002,
            "followMoveAttachPoint": "",
            "uiIndicator": {
                "templateName": "Normal_Chest_Icon"
            },
            "GCPGDLLDDKM": ""
        },
        {
            "groupId": 133220048,
            "mapInstId": 48002,
            "followMoveAttachPoint": "",
            "uiIndicator": {
                "templateName": "Normal_Chest_Icon"
            },
            "GCPGDLLDDKM": ""
        },
        {
            "groupId": 133220050,
            "mapInstId": 50002,
            "followMoveAttachPoint": "",
            "uiIndicator": {
                "templateName": "Normal_Chest_Icon"
            },
            "GCPGDLLDDKM": ""
        },
        {
            "groupId": 133220053,
            "mapInstId": 53016,
            "followMoveAttachPoint": "",
            "uiIndicator": {
                "templateName": "Normal_WorldTask_Icon_Platform"
            },
            "GCPGDLLDDKM": ""
        },
        {
            "groupId": 133220053,
            "mapInstId": 53019,
            "followMoveAttachPoint": "",
            "uiIndicator": {
                "templateName": "Normal_WorldTask_Icon_Platform"
            },
            "GCPGDLLDDKM": ""
        },
        {
            "groupId": 133220053,
            "mapInstId": 53022,
            "followMoveAttachPoint": "",
            "uiIndicator": {
                "templateName": "Normal_WorldTask_Icon_Platform"
            },
            "GCPGDLLDDKM": ""
        },
        {
            "groupId": 133220053,
            "mapInstId": 53025,
            "followMoveAttachPoint": "",
            "uiIndicator": {
                "templateName": "BlitzRush01_Icon"
            },
            "GCPGDLLDDKM": ""
        },
        {
            "groupId": 133220063,
            "mapInstId": 63002,
            "followMoveAttachPoint": "",
            "uiIndicator": {
                "templateName": "Normal_Chest_Icon"
            },
            "GCPGDLLDDKM": ""
        },
        {
            "groupId": 133220066,
            "mapInstId": 66002,
            "followMoveAttachPoint": "",
            "uiIndicator": {
                "templateName": "Normal_Chest_Icon"
            },
            "GCPGDLLDDKM": ""
        },
        {
            "groupId": 133220082,
            "mapInstId": 82002,
            "followMoveAttachPoint": "",
            "uiIndicator": {
                "templateName": "Normal_Chest_Icon"
            },
            "GCPGDLLDDKM": ""
        },
        {
            "groupId": 133220083,
            "mapInstId": 83002,
            "followMoveAttachPoint": "",
            "uiIndicator": {
                "templateName": "Normal_Chest_Icon"
            },
            "GCPGDLLDDKM": ""
        },
        {
            "groupId": 133220087,
            "mapInstId": 87004,
            "followMoveAttachPoint": "",
            "uiIndicator": {
                "templateName": "Normal_Chest_Icon"
            },
            "GCPGDLLDDKM": ""
        },
        {
            "groupId": 133220092,
            "mapInstId": 92005,
            "followMoveAttachPoint": "",
            "uiIndicator": {
                "templateName": "Normal_Chest_Icon"
            },
            "GCPGDLLDDKM": ""
        },
        {
            "groupId": 133220099,
            "mapInstId": 99004,
            "followMoveAttachPoint": "",
            "uiIndicator": {
                "templateName": "Normal_Chest_Icon"
            },
            "GCPGDLLDDKM": ""
        },
        {
            "groupId": 133220101,
            "mapInstId": 101002,
            "followMoveAttachPoint": "",
            "uiIndicator": {
                "templateName": "Normal_Chest_Icon"
            },
            "GCPGDLLDDKM": ""
        },
        {
            "groupId": 133220102,
            "mapInstId": 102004,
            "followMoveAttachPoint": "",
            "uiIndicator": {
                "templateName": "Normal_Chest_Icon"
            },
            "GCPGDLLDDKM": ""
        },
        {
            "groupId": 133220112,
            "mapInstId": 112006,
            "followMoveAttachPoint": "",
            "uiIndicator": {
                "templateName": "ChestUnlock_Icon"
            },
            "GCPGDLLDDKM": ""
        },
        {
            "groupId": 133220114,
            "mapInstId": 114006,
            "followMoveAttachPoint": "",
            "uiIndicator": {
                "templateName": "ChestUnlock_Icon"
            },
            "GCPGDLLDDKM": ""
        },
        {
            "groupId": 133220146,
            "mapInstId": 146008,
            "followMoveAttachPoint": "",
            "uiIndicator": {
                "templateName": "Normal_DailyTask_Icon_StateChange"
            },
            "GCPGDLLDDKM": ""
        },
        {
            "groupId": 133220156,
            "mapInstId": 156011,
            "followMoveAttachPoint": "",
            "uiIndicator": {
                "templateName": "Normal_DailyTask_Icon_GuidePoint"
            },
            "GCPGDLLDDKM": ""
        },
        {
            "groupId": 133220157,
            "mapInstId": 157009,
            "followMoveAttachPoint": "",
            "uiIndicator": {
                "templateName": "Normal_DailyTask_Icon_GuidePoint"
            },
            "GCPGDLLDDKM": ""
        },
        {
            "groupId": 133220167,
            "mapInstId": 167031,
            "followMoveAttachPoint": "",
            "uiIndicator": {
                "templateName": "Normal_Chest_Icon"
            },
            "GCPGDLLDDKM": ""
        },
        {
            "groupId": 133220169,
            "mapInstId": 169019,
            "followMoveAttachPoint": "",
            "uiIndicator": {
                "templateName": "Normal_Chest_Icon"
            },
            "GCPGDLLDDKM": ""
        },
        {
            "groupId": 133220170,
            "mapInstId": 170017,
            "followMoveAttachPoint": "",
            "uiIndicator": {
                "templateName": "ChestUnlock_Icon"
            },
            "GCPGDLLDDKM": ""
        },
        {
            "groupId": 133220171,
            "mapInstId": 171014,
            "followMoveAttachPoint": "",
            "uiIndicator": {
                "templateName": "ChestUnlock_Icon"
            },
            "GCPGDLLDDKM": ""
        },
        {
            "groupId": 133220172,
            "mapInstId": 172045,
            "followMoveAttachPoint": "",
            "uiIndicator": {
                "templateName": "Normal_WorldTask_Icon_Platform"
            },
            "GCPGDLLDDKM": ""
        },
        {
            "groupId": 133220172,
            "mapInstId": 172048,
            "followMoveAttachPoint": "",
            "uiIndicator": {
                "templateName": "Normal_WorldTask_Icon_Platform"
            },
            "GCPGDLLDDKM": ""
        },
        {
            "groupId": 133220172,
            "mapInstId": 172050,
            "followMoveAttachPoint": "",
            "uiIndicator": {
                "templateName": "Normal_WorldTask_Icon_Platform"
            },
            "GCPGDLLDDKM": ""
        },
        {
            "groupId": 133220172,
            "mapInstId": 172053,
            "followMoveAttachPoint": "",
            "uiIndicator": {
                "templateName": "BlitzRush01_Icon"
            },
            "GCPGDLLDDKM": ""
        },
        {
            "groupId": 133220172,
            "mapInstId": 172094,
            "followMoveAttachPoint": "",
            "uiIndicator": {
                "templateName": "Normal_WorldTask_Icon_Platform"
            },
            "GCPGDLLDDKM": ""
        },
        {
            "groupId": 133220172,
            "mapInstId": 172114,
            "followMoveAttachPoint": "",
            "uiIndicator": {
                "templateName": "Normal_WorldTask_Icon_Platform"
            },
            "GCPGDLLDDKM": ""
        },
        {
            "groupId": 133220173,
            "mapInstId": 173026,
            "followMoveAttachPoint": "",
            "uiIndicator": {
                "templateName": "BlitzRush03_Icon"
            },
            "GCPGDLLDDKM": ""
        },
        {
            "groupId": 133220174,
            "mapInstId": 174004,
            "followMoveAttachPoint": "",
            "billboardHasUIBar": true,
            "billboardShowUIBarDis": 39.0,
            "billboardHideUIBarDis": 40.0,
            "uiIndicator": {
                "templateName": "Normal_DailyTask_Icon_Platform"
            },
            "GCPGDLLDDKM": ""
        },
        {
            "groupId": 133220180,
            "mapInstId": 180018,
            "followMoveAttachPoint": "",
            "billboardHasUIBar": true,
            "billboardShowUIBarDis": 39.0,
            "billboardHideUIBarDis": 40.0,
            "uiIndicator": {
                "templateName": "Normal_DailyTask_Icon_Platform"
            },
            "GCPGDLLDDKM": ""
        },
        {
            "groupId": 133220181,
            "mapInstId": 181001,
            "followMoveAttachPoint": "",
            "billboardHasUIBar": true,
            "billboardHpBarStyle": "Boss",
            "GCPGDLLDDKM": ""
        },
        {
            "groupId": 133220181,
            "mapInstId": 181036,
            "followMoveAttachPoint": "",
            "billboardHasUIBar": true,
            "billboardUIBarNeedEnterCombat": true,
            "GCPGDLLDDKM": ""
        },
        {
            "groupId": 133220184,
            "mapInstId": 184006,
            "followMoveAttachPoint": "",
            "uiIndicator": {
                "templateName": "Normal_Chest_Icon"
            },
            "GCPGDLLDDKM": ""
        },
        {
            "groupId": 133220189,
            "mapInstId": 189006,
            "followMoveAttachPoint": "",
            "uiIndicator": {
                "templateName": "Normal_DailyTask_Icon_GuidePoint"
            },
            "GCPGDLLDDKM": ""
        },
        {
            "groupId": 133220189,
            "mapInstId": 189007,
            "followMoveAttachPoint": "",
            "uiIndicator": {
                "templateName": "Normal_DailyTask_Icon_GravityBoard"
            },
            "GCPGDLLDDKM": ""
        },
        {
            "groupId": 133220192,
            "mapInstId": 192002,
            "followMoveAttachPoint": "",
            "uiIndicator": {
                "templateName": "Normal_DailyTask_Icon_GuidePoint"
            },
            "GCPGDLLDDKM": ""
        },
        {
            "groupId": 133220192,
            "mapInstId": 192006,
            "followMoveAttachPoint": "",
            "uiIndicator": {
                "templateName": "Normal_DailyTask_Icon_GuidePoint"
            },
            "GCPGDLLDDKM": ""
        },
        {
            "groupId": 133220192,
            "mapInstId": 192007,
            "followMoveAttachPoint": "",
            "uiIndicator": {
                "templateName": "Normal_DailyTask_Icon_GravityBoard"
            },
            "GCPGDLLDDKM": ""
        },
        {
            "groupId": 133220192,
            "mapInstId": 192013,
            "followMoveAttachPoint": "",
            "uiIndicator": {
                "templateName": "Normal_DailyTask_Icon_GuidePoint"
            },
            "GCPGDLLDDKM": ""
        },
        {
            "groupId": 133220192,
            "mapInstId": 192016,
            "followMoveAttachPoint": "",
            "uiIndicator": {
                "templateName": "Normal_DailyTask_Icon_GuidePoint"
            },
            "GCPGDLLDDKM": ""
        },
        {
            "groupId": 133220193,
            "mapInstId": 193044,
            "followMoveAttachPoint": "",
            "uiIndicator": {
                "templateName": "BlitzRush03_Icon"
            },
            "GCPGDLLDDKM": ""
        },
        {
            "groupId": 133220194,
            "mapInstId": 194044,
            "followMoveAttachPoint": "",
            "uiIndicator": {
                "templateName": "BlitzRush02_Icon"
            },
            "GCPGDLLDDKM": ""
        },
        {
            "groupId": 133220199,
            "mapInstId": 199002,
            "followMoveAttachPoint": "",
            "uiIndicator": {
                "templateName": "Normal_Chest_Icon"
            },
            "GCPGDLLDDKM": ""
        },
        {
            "groupId": 133220201,
            "mapInstId": 201002,
            "followMoveAttachPoint": "",
            "uiIndicator": {
                "templateName": "Normal_Chest_Icon"
            },
            "GCPGDLLDDKM": ""
        },
        {
            "groupId": 133220204,
            "mapInstId": 204044,
            "followMoveAttachPoint": "",
            "uiIndicator": {
                "templateName": "BlitzRush02_Icon"
            },
            "GCPGDLLDDKM": ""
        },
        {
            "groupId": 133220205,
            "mapInstId": 205044,
            "followMoveAttachPoint": "",
            "uiIndicator": {
                "templateName": "BlitzRush03_Icon"
            },
            "GCPGDLLDDKM": ""
        },
        {
            "groupId": 133220209,
            "mapInstId": 209006,
            "followMoveAttachPoint": "",
            "uiIndicator": {
                "templateName": "Normal_Chest_Icon"
            },
            "GCPGDLLDDKM": ""
        },
        {
            "groupId": 133220210,
            "mapInstId": 210008,
            "followMoveAttachPoint": "",
            "billboardShowUIBarDis": 39.0,
            "billboardHideUIBarDis": 40.0,
            "uiIndicator": {
                "templateName": "Normal_DailyTask_Icon_HillCart"
            },
            "GCPGDLLDDKM": ""
        },
        {
            "groupId": 133220213,
            "mapInstId": 213011,
            "followMoveAttachPoint": "",
            "uiIndicator": {
                "templateName": "Normal_DailyTask_Icon_GuidePoint"
            },
            "GCPGDLLDDKM": ""
        },
        {
            "groupId": 133220214,
            "mapInstId": 214011,
            "followMoveAttachPoint": "",
            "uiIndicator": {
                "templateName": "Normal_DailyTask_Icon_GuidePoint"
            },
            "GCPGDLLDDKM": ""
        },
        {
            "groupId": 133220217,
            "mapInstId": 217002,
            "followMoveAttachPoint": "",
            "uiIndicator": {
                "templateName": "Normal_Chest_Icon"
            },
            "GCPGDLLDDKM": ""
        },
        {
            "groupId": 133220262,
            "mapInstId": 262006,
            "followMoveAttachPoint": "",
            "uiIndicator": {
                "templateName": "Normal_Chest_Icon"
            },
            "GCPGDLLDDKM": ""
        },
        {
            "groupId": 133220271,
            "mapInstId": 271006,
            "followMoveAttachPoint": "",
            "uiIndicator": {
                "templateName": "Normal_Chest_Icon"
            },
            "GCPGDLLDDKM": ""
        },
        {
            "groupId": 133220273,
            "mapInstId": 273005,
            "followMoveAttachPoint": "",
            "uiIndicator": {
                "templateName": "Normal_Chest_Icon"
            },
            "GCPGDLLDDKM": ""
        },
        {
            "groupId": 133220276,
            "mapInstId": 276001,
            "followMoveAttachPoint": "",
            "uiIndicator": {
                "templateName": "Normal_Chest_Icon"
            },
            "GCPGDLLDDKM": ""
        },
        {
            "groupId": 133220281,
            "mapInstId": 281002,
            "followMoveAttachPoint": "",
            "uiIndicator": {
                "templateName": "Normal_Chest_Icon"
            },
            "GCPGDLLDDKM": ""
        },
        {
            "groupId": 133220285,
            "mapInstId": 285001,
            "followMoveAttachPoint": "",
            "uiIndicator": {
                "templateName": "Normal_Chest_Icon"
            },
            "GCPGDLLDDKM": ""
        },
        {
            "groupId": 133220287,
            "mapInstId": 287005,
            "followMoveAttachPoint": "",
            "uiIndicator": {
                "templateName": "Normal_Chest_Icon"
            },
            "GCPGDLLDDKM": ""
        },
        {
            "groupId": 133220325,
            "mapInstId": 325002,
            "followMoveAttachPoint": "",
            "uiIndicator": {
                "templateName": "Normal_Chest_Icon"
            },
            "GCPGDLLDDKM": ""
        },
        {
            "groupId": 133220342,
            "mapInstId": 342006,
            "followMoveAttachPoint": "",
            "uiIndicator": {
                "templateName": "Normal_Chest_Icon"
            },
            "GCPGDLLDDKM": ""
        },
        {
            "groupId": 133220351,
            "mapInstId": 351004,
            "followMoveAttachPoint": "",
            "uiIndicator": {
                "templateName": "Normal_Chest_Icon"
            },
            "GCPGDLLDDKM": ""
        },
        {
            "groupId": 133220352,
            "mapInstId": 352004,
            "followMoveAttachPoint": "",
            "uiIndicator": {
                "templateName": "Normal_Chest_Icon"
            },
            "GCPGDLLDDKM": ""
        },
        {
            "groupId": 133220361,
            "mapInstId": 361002,
            "followMoveAttachPoint": "",
            "uiIndicator": {
                "templateName": "Normal_Chest_Icon"
            },
            "GCPGDLLDDKM": ""
        },
        {
            "groupId": 133220363,
            "mapInstId": 363001,
            "followMoveAttachPoint": "",
            "uiIndicator": {
                "templateName": "Normal_Chest_Icon"
            },
            "GCPGDLLDDKM": ""
        },
        {
            "groupId": 133220364,
            "mapInstId": 364002,
            "followMoveAttachPoint": "",
            "uiIndicator": {
                "templateName": "Normal_Chest_Icon"
            },
            "GCPGDLLDDKM": ""
        },
        {
            "groupId": 133220368,
            "mapInstId": 368005,
            "followMoveAttachPoint": "",
            "uiIndicator": {
                "templateName": "Normal_Chest_Icon"
            },
            "GCPGDLLDDKM": ""
        },
        {
            "groupId": 133220369,
            "mapInstId": 369001,
            "followMoveAttachPoint": "",
            "uiIndicator": {
                "templateName": "Normal_Chest_Icon"
            },
            "GCPGDLLDDKM": ""
        },
        {
            "groupId": 133220379,
            "mapInstId": 379004,
            "followMoveAttachPoint": "",
            "uiIndicator": {
                "templateName": "Normal_Chest_Icon"
            },
            "GCPGDLLDDKM": ""
        },
        {
            "groupId": 133220382,
            "mapInstId": 382005,
            "followMoveAttachPoint": "",
            "uiIndicator": {
                "templateName": "Normal_Chest_Icon"
            },
            "GCPGDLLDDKM": ""
        },
        {
            "groupId": 133220394,
            "mapInstId": 394001,
            "followMoveAttachPoint": "",
            "uiIndicator": {
                "templateName": "Normal_Chest_Icon"
            },
            "GCPGDLLDDKM": ""
        },
        {
            "groupId": 133220395,
            "mapInstId": 395002,
            "followMoveAttachPoint": "",
            "uiIndicator": {
                "templateName": "Normal_Chest_Icon"
            },
            "GCPGDLLDDKM": ""
        },
        {
            "groupId": 133220403,
            "mapInstId": 403006,
            "followMoveAttachPoint": "",
            "uiIndicator": {
                "templateName": "Normal_Chest_Icon"
            },
            "GCPGDLLDDKM": ""
        },
        {
            "groupId": 133220405,
            "mapInstId": 405013,
            "followMoveAttachPoint": "",
            "uiIndicator": {
                "templateName": "BlitzRush03_Icon"
            },
            "GCPGDLLDDKM": ""
        },
        {
            "groupId": 133220412,
            "mapInstId": 412003,
            "followMoveAttachPoint": "",
            "uiIndicator": {
                "templateName": "Normal_Chest_Icon"
            },
            "GCPGDLLDDKM": ""
        },
        {
            "groupId": 133220413,
            "mapInstId": 413044,
            "followMoveAttachPoint": "",
            "uiIndicator": {
                "templateName": "BlitzRush02_Icon"
            },
            "GCPGDLLDDKM": ""
        },
        {
            "groupId": 133220417,
            "mapInstId": 417001,
            "followMoveAttachPoint": "",
            "uiIndicator": {
                "templateName": "ChestUnlock_Icon"
            },
            "GCPGDLLDDKM": ""
        },
        {
            "groupId": 133220418,
            "mapInstId": 418001,
            "followMoveAttachPoint": "",
            "uiIndicator": {
                "templateName": "UI_NPCTopIcon_Blessing"
            },
            "GCPGDLLDDKM": ""
        },
        {
            "groupId": 133220419,
            "mapInstId": 419003,
            "followMoveAttachPoint": "",
            "uiIndicator": {
                "templateName": "Normal_Chest_Icon"
            },
            "GCPGDLLDDKM": ""
        },
        {
            "groupId": 133220426,
            "mapInstId": 426002,
            "followMoveAttachPoint": "",
            "uiIndicator": {
                "templateName": "Normal_Chest_Icon"
            },
            "GCPGDLLDDKM": ""
        },
        {
            "groupId": 133220437,
            "mapInstId": 437002,
            "followMoveAttachPoint": "",
            "uiIndicator": {
                "templateName": "Normal_Chest_Icon"
            },
            "GCPGDLLDDKM": ""
        },
        {
            "groupId": 133220447,
            "mapInstId": 447002,
            "followMoveAttachPoint": "",
            "uiIndicator": {
                "templateName": "Normal_Chest_Icon"
            },
            "GCPGDLLDDKM": ""
        },
        {
            "groupId": 133220449,
            "mapInstId": 449003,
            "followMoveAttachPoint": "",
            "uiIndicator": {
                "templateName": "Normal_Chest_Icon"
            },
            "GCPGDLLDDKM": ""
        },
        {
            "groupId": 133220457,
            "mapInstId": 457002,
            "followMoveAttachPoint": "",
            "uiIndicator": {
                "templateName": "Normal_Chest_Icon"
            },
            "GCPGDLLDDKM": ""
        },
        {
            "groupId": 133220459,
            "mapInstId": 459002,
            "followMoveAttachPoint": "",
            "uiIndicator": {
                "templateName": "Normal_Chest_Icon"
            },
            "GCPGDLLDDKM": ""
        },
        {
            "groupId": 133220464,
            "mapInstId": 464026,
            "followMoveAttachPoint": "",
            "uiIndicator": {
                "templateName": "Normal_Chest_Icon"
            },
            "GCPGDLLDDKM": ""
        },
        {
            "groupId": 133220472,
            "mapInstId": 472002,
            "followMoveAttachPoint": "",
            "uiIndicator": {
                "templateName": "Normal_Chest_Icon"
            },
            "GCPGDLLDDKM": ""
        },
        {
            "groupId": 133220475,
            "mapInstId": 475009,
            "followMoveAttachPoint": "",
            "uiIndicator": {
                "templateName": "Blossom_Chest_Icon"
            },
            "GCPGDLLDDKM": ""
        },
        {
            "groupId": 133220476,
            "mapInstId": 476009,
            "followMoveAttachPoint": "",
            "uiIndicator": {
                "templateName": "Blossom_Chest_Icon"
            },
            "GCPGDLLDDKM": ""
        },
        {
            "groupId": 133220478,
            "mapInstId": 478009,
            "followMoveAttachPoint": "",
            "uiIndicator": {
                "templateName": "Blossom_Chest_Icon"
            },
            "GCPGDLLDDKM": ""
        },
        {
            "groupId": 133220479,
            "mapInstId": 479009,
            "followMoveAttachPoint": "",
            "uiIndicator": {
                "templateName": "Blossom_Chest_Icon"
            },
            "GCPGDLLDDKM": ""
        },
        {
            "groupId": 133220480,
            "mapInstId": 480006,
            "followMoveAttachPoint": "",
            "uiIndicator": {
                "templateName": "Normal_Chest_Icon"
            },
            "GCPGDLLDDKM": ""
        },
        {
            "groupId": 133220483,
            "mapInstId": 483001,
            "followMoveAttachPoint": "",
            "uiIndicator": {
                "templateName": "UI_NPCTopIcon_Blessing"
            },
            "GCPGDLLDDKM": ""
        },
        {
            "groupId": 133220486,
            "mapInstId": 486004,
            "followMoveAttachPoint": "",
            "uiIndicator": {
                "templateName": "Normal_Chest_Icon"
            },
            "GCPGDLLDDKM": ""
        },
        {
            "groupId": 133220487,
            "mapInstId": 487004,
            "followMoveAttachPoint": "",
            "uiIndicator": {
                "templateName": "Normal_Chest_Icon"
            },
            "GCPGDLLDDKM": ""
        },
        {
            "groupId": 133220489,
            "mapInstId": 489004,
            "followMoveAttachPoint": "",
            "uiIndicator": {
                "templateName": "Normal_Chest_Icon"
            },
            "GCPGDLLDDKM": ""
        },
        {
            "groupId": 133220491,
            "mapInstId": 491006,
            "followMoveAttachPoint": "",
            "uiIndicator": {
                "templateName": "Normal_Chest_Icon"
            },
            "GCPGDLLDDKM": ""
        },
        {
            "groupId": 133220492,
            "mapInstId": 492002,
            "followMoveAttachPoint": "",
            "uiIndicator": {
                "templateName": "Normal_Chest_Icon"
            },
            "GCPGDLLDDKM": ""
        },
        {
            "groupId": 133220503,
            "mapInstId": 503004,
            "followMoveAttachPoint": "",
            "uiIndicator": {
                "templateName": "Normal_Chest_Icon"
            },
            "GCPGDLLDDKM": ""
        },
        {
            "groupId": 133220505,
            "mapInstId": 505002,
            "followMoveAttachPoint": "",
            "uiIndicator": {
                "templateName": "Normal_Chest_Icon"
            },
            "GCPGDLLDDKM": ""
        },
        {
            "groupId": 133220509,
            "mapInstId": 509002,
            "followMoveAttachPoint": "",
            "uiIndicator": {
                "templateName": "Normal_Chest_Icon"
            },
            "GCPGDLLDDKM": ""
        },
        {
            "groupId": 133220514,
            "mapInstId": 514002,
            "followMoveAttachPoint": "",
            "uiIndicator": {
                "templateName": "Normal_Chest_Icon"
            },
            "GCPGDLLDDKM": ""
        },
        {
            "groupId": 133220515,
            "mapInstId": 515006,
            "followMoveAttachPoint": "",
            "uiIndicator": {
                "templateName": "Normal_Chest_Icon"
            },
            "GCPGDLLDDKM": ""
        },
        {
            "groupId": 133220521,
            "mapInstId": 521003,
            "followMoveAttachPoint": "",
            "uiIndicator": {
                "templateName": "Normal_Chest_Icon"
            },
            "GCPGDLLDDKM": ""
        },
        {
            "groupId": 133220525,
            "mapInstId": 525002,
            "followMoveAttachPoint": "",
            "uiIndicator": {
                "templateName": "Normal_Chest_Icon"
            },
            "GCPGDLLDDKM": ""
        },
        {
            "groupId": 133220526,
            "mapInstId": 526002,
            "followMoveAttachPoint": "",
            "uiIndicator": {
                "templateName": "Normal_Chest_Icon"
            },
            "GCPGDLLDDKM": ""
        },
        {
            "groupId": 133220528,
            "mapInstId": 528002,
            "followMoveAttachPoint": "",
            "uiIndicator": {
                "templateName": "Normal_Chest_Icon"
            },
            "GCPGDLLDDKM": ""
        },
        {
            "groupId": 133220531,
            "mapInstId": 531006,
            "followMoveAttachPoint": "",
            "uiIndicator": {
                "templateName": "Normal_Chest_Icon"
            },
            "GCPGDLLDDKM": ""
        },
        {
            "groupId": 133220539,
            "mapInstId": 539002,
            "followMoveAttachPoint": "",
            "uiIndicator": {
                "templateName": "Normal_Chest_Icon"
            },
            "GCPGDLLDDKM": ""
        },
        {
            "groupId": 133220552,
            "mapInstId": 552001,
            "followMoveAttachPoint": "",
            "uiIndicator": {
                "templateName": "GadgetCreate_Icon"
            },
            "GCPGDLLDDKM": ""
        },
        {
            "groupId": 133220552,
            "mapInstId": 552003,
            "followMoveAttachPoint": "",
            "uiIndicator": {
                "templateName": "Normal_Chest_Icon"
            },
            "GCPGDLLDDKM": ""
        },
        {
            "groupId": 133220552,
            "mapInstId": 552004,
            "followMoveAttachPoint": "",
            "uiIndicator": {
                "templateName": "GadgetCreate_Icon"
            },
            "GCPGDLLDDKM": ""
        },
        {
            "groupId": 133220552,
            "mapInstId": 552012,
            "followMoveAttachPoint": "",
            "uiIndicator": {
                "templateName": "GadgetCreate_Icon"
            },
            "GCPGDLLDDKM": ""
        },
        {
            "groupId": 133220552,
            "mapInstId": 552013,
            "followMoveAttachPoint": "",
            "uiIndicator": {
                "templateName": "GadgetCreate_Icon"
            },
            "GCPGDLLDDKM": ""
        },
        {
            "groupId": 133220553,
            "mapInstId": 553004,
            "followMoveAttachPoint": "",
            "uiIndicator": {
                "templateName": "Normal_Chest_Icon"
            },
            "GCPGDLLDDKM": ""
        },
        {
            "groupId": 133220555,
            "mapInstId": 555004,
            "followMoveAttachPoint": "",
            "uiIndicator": {
                "templateName": "Normal_Chest_Icon"
            },
            "GCPGDLLDDKM": ""
        },
        {
            "groupId": 133220557,
            "mapInstId": 557004,
            "followMoveAttachPoint": "",
            "uiIndicator": {
                "templateName": "Normal_Chest_Icon"
            },
            "GCPGDLLDDKM": ""
        },
        {
            "groupId": 133220559,
            "mapInstId": 559006,
            "followMoveAttachPoint": "",
            "uiIndicator": {
                "templateName": "Normal_Chest_Icon"
            },
            "GCPGDLLDDKM": ""
        },
        {
            "groupId": 133220562,
            "mapInstId": 562006,
            "followMoveAttachPoint": "",
            "uiIndicator": {
                "templateName": "Normal_Chest_Icon"
            },
            "GCPGDLLDDKM": ""
        },
        {
            "groupId": 133220566,
            "mapInstId": 566006,
            "followMoveAttachPoint": "",
            "uiIndicator": {
                "templateName": "Normal_Chest_Icon"
            },
            "GCPGDLLDDKM": ""
        },
        {
            "groupId": 133220577,
            "mapInstId": 577002,
            "followMoveAttachPoint": "",
            "uiIndicator": {
                "templateName": "Normal_Chest_Icon"
            },
            "GCPGDLLDDKM": ""
        },
        {
            "groupId": 133220585,
            "mapInstId": 585004,
            "followMoveAttachPoint": "",
            "uiIndicator": {
                "templateName": "Normal_Chest_Icon"
            },
            "GCPGDLLDDKM": ""
        },
        {
            "groupId": 133220588,
            "mapInstId": 588001,
            "followMoveAttachPoint": "",
            "uiIndicator": {
                "templateName": "Normal_Chest_Icon"
            },
            "GCPGDLLDDKM": ""
        },
        {
            "groupId": 133220592,
            "mapInstId": 592002,
            "followMoveAttachPoint": "",
            "uiIndicator": {
                "templateName": "Normal_Chest_Icon"
            },
            "GCPGDLLDDKM": ""
        },
        {
            "groupId": 133220593,
            "mapInstId": 593002,
            "followMoveAttachPoint": "",
            "uiIndicator": {
                "templateName": "Normal_Chest_Icon"
            },
            "GCPGDLLDDKM": ""
        },
        {
            "groupId": 133220594,
            "mapInstId": 594006,
            "followMoveAttachPoint": "",
            "uiIndicator": {
                "templateName": "Normal_Chest_Icon"
            },
            "GCPGDLLDDKM": ""
        },
        {
            "groupId": 133220595,
            "mapInstId": 595002,
            "followMoveAttachPoint": "",
            "uiIndicator": {
                "templateName": "Normal_Chest_Icon"
            },
            "GCPGDLLDDKM": ""
        },
        {
            "groupId": 133220599,
            "mapInstId": 599015,
            "followMoveAttachPoint": "",
            "uiIndicator": {
                "templateName": "Normal_Chest_Icon"
            },
            "GCPGDLLDDKM": ""
        },
        {
            "groupId": 133220604,
            "mapInstId": 604004,
            "followMoveAttachPoint": "",
            "uiIndicator": {
                "templateName": "Normal_Chest_Icon"
            },
            "GCPGDLLDDKM": ""
        },
        {
            "groupId": 133220609,
            "mapInstId": 609001,
            "followMoveAttachPoint": "",
            "uiIndicator": {
                "templateName": "Normal_Chest_Icon"
            },
            "GCPGDLLDDKM": ""
        },
        {
            "groupId": 133220611,
            "mapInstId": 611004,
            "followMoveAttachPoint": "",
            "uiIndicator": {
                "templateName": "Normal_Chest_Icon"
            },
            "GCPGDLLDDKM": ""
        },
        {
            "groupId": 133220614,
            "mapInstId": 614002,
            "followMoveAttachPoint": "",
            "uiIndicator": {
                "templateName": "Normal_Chest_Icon"
            },
            "GCPGDLLDDKM": ""
        },
        {
            "groupId": 133220616,
            "mapInstId": 616002,
            "followMoveAttachPoint": "",
            "uiIndicator": {
                "templateName": "Normal_Chest_Icon"
            },
            "GCPGDLLDDKM": ""
        },
        {
            "groupId": 133220617,
            "mapInstId": 617006,
            "followMoveAttachPoint": "",
            "uiIndicator": {
                "templateName": "Normal_Chest_Icon"
            },
            "GCPGDLLDDKM": ""
        },
        {
            "groupId": 133220620,
            "mapInstId": 620004,
            "followMoveAttachPoint": "",
            "uiIndicator": {
                "templateName": "Normal_Chest_Icon"
            },
            "GCPGDLLDDKM": ""
        },
        {
            "groupId": 133220675,
            "mapInstId": 675001,
            "followMoveAttachPoint": "",
            "uiIndicator": {
                "templateName": "Normal_Chest_Icon"
            },
            "GCPGDLLDDKM": ""
        },
        {
            "groupId": 133220684,
            "mapInstId": 684017,
            "followMoveAttachPoint": "",
            "billboardHasUIBar": true,
            "GCPGDLLDDKM": ""
        },
        {
            "groupId": 133220780,
            "mapInstId": 780001,
            "followMoveAttachPoint": "",
            "uiIndicator": {
                "templateName": "UI_NPCTopIcon_Activity_BrickBreaker"
            },
            "GCPGDLLDDKM": ""
        },
        {
            "groupId": 133220802,
            "mapInstId": 802001,
            "followMoveAttachPoint": "",
            "uiIndicator": {
                "templateName": "ActivityJourney_MarkStand_Icon"
            },
            "GCPGDLLDDKM": ""
        },
        {
            "groupId": 133220803,
            "mapInstId": 803001,
            "followMoveAttachPoint": "",
            "uiIndicator": {
                "templateName": "ActivityJourney_ChallengeStand_Icon"
            },
            "GCPGDLLDDKM": ""
        }
    ]
}