{
    "sceneId": 40019,
    "gadgets": [
        {
            "groupId": 240019001,
            "mapInstId": 1005,
            "followMoveAttachPoint": "",
            "uiIndicator": {
                "templateName": "ChestUnlock_Icon"
            },
            "GCPGDLLDDKM": ""
        }
    ]
}