{
    "luaDataPath": "",
    "entityBan": "",
    "disableNpcLod": true,
    "EKDGNGHMECG": true,
    "GMFELEKFHNC": 5,
    "startFade": {
        "startFadeOutDuration": 0.0
    },
    "endFade": {
        "startFadeOutDuration": 0.0
    },
    "actors": [
        {
            "alias": "Avatar",
            "visible": true,
            "bornPointName": "",
            "relativePosType": "AVATAR_NEW",
            "relativePosNpcAlias": "",
            "bindMovingTargetKey": ""
        },
        {
            "configID": 30402,
            "alias": "30402",
            "visible": true,
            "bornPointName": "",
            "relativePosType": "AVATAR_NEW",
            "relativePosNpcAlias": "",
            "bindMovingTargetKey": ""
        },
        {
            "configID": 1005,
            "alias": "1005",
            "visible": true,
            "bornPointName": "",
            "useRelativePos": true,
            "relativePos": {
                "x": -0.699999988079071,
                "z": 0.4000000059604645
            },
            "removeActorType": "NEW_REMOVE_WITH_DISAPPEAR",
            "relativePosType": "AVATAR_NEW",
            "relativePosNpcAlias": "",
            "bindMovingTargetKey": ""
        }
    ],
    "group": [
        [
            {
                "$type": "PBIGHFCHGCA",
                "type": "CAMERA_FOCUS",
                "duration": 0.10000000149011612,
                "actionId": 103,
                "JBODIEHINII": "",
                "EJCHLMIMLBO": "",
                "BIMPIKMCIHB": "",
                "MCAOJPLIJGI": ""
            },
            {
                "$type": "MoleMole.Config.ConfigTimeProtectAction",
                "type": "TIME_PROTECT",
                "duration": 1.5,
                "actionId": 104
            },
            {
                "$type": "FNPNDPFBBDD",
                "type": "LOOK_AT",
                "delayTime": 0.13300000131130219,
                "aliasList": [
                    "1005"
                ],
                "actionId": 199,
                "flag": 64,
                "NKGFDJDHOBD": true,
                "MNOPLOBEFLB": 0.5,
                "JBODIEHINII": "30402",
                "MDNPCOHCCLM": true,
                "CAJDMFBMGNG": 60.0,
                "LPCACGGCDLI": "",
                "NNFPFPOJJOJ": ""
            },
            {
                "$type": "FNPNDPFBBDD",
                "type": "LOOK_AT",
                "delayTime": 0.15000000596046448,
                "aliasList": [
                    "Avatar"
                ],
                "actionId": 198,
                "flag": 64,
                "NKGFDJDHOBD": true,
                "MNOPLOBEFLB": 0.5,
                "JBODIEHINII": "30402",
                "MDNPCOHCCLM": true,
                "CAJDMFBMGNG": 60.0,
                "LPCACGGCDLI": "",
                "NNFPFPOJJOJ": ""
            },
            {
                "$type": "NFDDGDIKEAG",
                "type": "STEER_TO",
                "delayTime": 0.30000001192092896,
                "duration": 1.0,
                "aliasList": [
                    "1005"
                ],
                "actionId": 194,
                "flag": 32,
                "GGJHILELIMO": "TO_TARGET_ADVANCED",
                "PKKKHNGDEEE": true,
                "LGDIOPOBMPH": true,
                "NBNJEKMFIDE": true,
                "JBODIEHINII": "30402",
                "DMPFMDNFEHA": true,
                "OJJKHFPNNKJ": true,
                "NNFPFPOJJOJ": ""
            },
            {
                "$type": "NFDDGDIKEAG",
                "type": "STEER_TO",
                "delayTime": 0.382999986410141,
                "duration": 1.0,
                "aliasList": [
                    "Avatar"
                ],
                "actionId": 232,
                "flag": 32,
                "GGJHILELIMO": "TO_TARGET_ADVANCED",
                "PKKKHNGDEEE": true,
                "LGDIOPOBMPH": true,
                "NBNJEKMFIDE": true,
                "JBODIEHINII": "30402",
                "DMPFMDNFEHA": true,
                "OJJKHFPNNKJ": true,
                "NNFPFPOJJOJ": ""
            }
        ],
        [
            {
                "$type": "KAGAFALAIGP",
                "type": "DIALOG",
                "aliasList": [
                    "30402"
                ],
                "actionId": 107,
                "JHEPJOMJJHH": 735250101,
                "OCILKFCPBNC": 0.5
            }
        ],
        [
            {
                "$type": "KAGAFALAIGP",
                "type": "DIALOG",
                "aliasList": [
                    "30402"
                ],
                "actionId": 109,
                "JHEPJOMJJHH": 735250102,
                "OCILKFCPBNC": 0.5
            },
            {
                "$type": "CENEPJCONAG",
                "type": "BODY_LANG",
                "aliasList": [
                    "30402"
                ],
                "actionId": 236,
                "OGFPAIKLDGB": 1160,
                "MHDCNDAINCK": true,
                "LHIAJOBFNAK": false,
                "GJGPNLJEIFP": true,
                "FOEKGLEJBIJ": ""
            }
        ],
        [
            {
                "$type": "KAGAFALAIGP",
                "type": "DIALOG",
                "aliasList": [
                    "30402"
                ],
                "actionId": 111,
                "JHEPJOMJJHH": 735250103,
                "OCILKFCPBNC": 0.5
            },
            {
                "$type": "CENEPJCONAG",
                "type": "BODY_LANG",
                "aliasList": [
                    "30402"
                ],
                "actionId": 196,
                "OGFPAIKLDGB": 1240,
                "MHDCNDAINCK": true,
                "LHIAJOBFNAK": false,
                "GJGPNLJEIFP": true,
                "FOEKGLEJBIJ": ""
            }
        ],
        [
            {
                "$type": "KAGAFALAIGP",
                "type": "DIALOG",
                "aliasList": [
                    "1005"
                ],
                "actionId": 113,
                "JHEPJOMJJHH": 735250104,
                "OCILKFCPBNC": 0.5
            }
        ],
        [
            {
                "$type": "KAGAFALAIGP",
                "type": "DIALOG",
                "aliasList": [
                    "1005"
                ],
                "actionId": 115,
                "JHEPJOMJJHH": 735250105,
                "OCILKFCPBNC": 0.5
            },
            {
                "$type": "CENEPJCONAG",
                "type": "BODY_LANG",
                "aliasList": [
                    "1005"
                ],
                "actionId": 197,
                "OGFPAIKLDGB": 1200,
                "MHDCNDAINCK": true,
                "LHIAJOBFNAK": false,
                "GJGPNLJEIFP": true,
                "FOEKGLEJBIJ": ""
            }
        ],
        [
            {
                "$type": "KAGAFALAIGP",
                "type": "DIALOG",
                "aliasList": [
                    "30402"
                ],
                "actionId": 117,
                "JHEPJOMJJHH": 735250106,
                "OCILKFCPBNC": 1.0609999895095825
            },
            {
                "$type": "FNPNDPFBBDD",
                "type": "LOOK_AT",
                "delayTime": 0.010999999940395355,
                "aliasList": [
                    "30402"
                ],
                "actionId": 201,
                "flag": 64,
                "NKGFDJDHOBD": true,
                "MNOPLOBEFLB": 0.5,
                "JBODIEHINII": "1005",
                "MDNPCOHCCLM": true,
                "CAJDMFBMGNG": 60.0,
                "LPCACGGCDLI": "",
                "NNFPFPOJJOJ": ""
            },
            {
                "$type": "NFDDGDIKEAG",
                "type": "STEER_TO",
                "delayTime": 0.061000000685453415,
                "duration": 1.0,
                "aliasList": [
                    "30402"
                ],
                "actionId": 200,
                "flag": 32,
                "GGJHILELIMO": "TO_TARGET_ADVANCED",
                "PKKKHNGDEEE": true,
                "LGDIOPOBMPH": true,
                "NBNJEKMFIDE": true,
                "JBODIEHINII": "1005",
                "DMPFMDNFEHA": true,
                "OJJKHFPNNKJ": true,
                "NNFPFPOJJOJ": ""
            }
        ],
        [
            {
                "$type": "KAGAFALAIGP",
                "type": "DIALOG",
                "aliasList": [
                    "1005"
                ],
                "actionId": 119,
                "JHEPJOMJJHH": 735250107,
                "OCILKFCPBNC": 0.5
            },
            {
                "$type": "AAFOOOPNJLB",
                "type": "DIALOG_SELECT",
                "delayTime": 0.4000000059604645,
                "aliasList": [
                    "Avatar"
                ],
                "actionId": 120,
                "KFAEOBDAAME": [
                    735250108
                ],
                "ELPFMMBHOLF": [
                    507394414
                ],
                "OEAAKJDIEFD": true,
                "ONFBGDHPCEO": 507394405
            }
        ],
        [
            {
                "$type": "KAGAFALAIGP",
                "type": "DIALOG",
                "aliasList": [
                    "1005"
                ],
                "actionId": 122,
                "JHEPJOMJJHH": 735250109,
                "OCILKFCPBNC": 0.5
            },
            {
                "$type": "CENEPJCONAG",
                "type": "BODY_LANG",
                "delayTime": 0.13699999451637268,
                "aliasList": [
                    "1005"
                ],
                "actionId": 202,
                "OGFPAIKLDGB": 1230,
                "MHDCNDAINCK": true,
                "LHIAJOBFNAK": false,
                "GJGPNLJEIFP": true,
                "FOEKGLEJBIJ": ""
            }
        ],
        [
            {
                "$type": "KAGAFALAIGP",
                "type": "DIALOG",
                "aliasList": [
                    "30402"
                ],
                "actionId": 124,
                "JHEPJOMJJHH": 735250110,
                "OCILKFCPBNC": 0.5
            },
            {
                "$type": "CENEPJCONAG",
                "type": "BODY_LANG",
                "delayTime": 0.15000000596046448,
                "aliasList": [
                    "30402"
                ],
                "actionId": 203,
                "OGFPAIKLDGB": 1171,
                "MHDCNDAINCK": true,
                "LHIAJOBFNAK": false,
                "GJGPNLJEIFP": true,
                "FOEKGLEJBIJ": ""
            }
        ],
        [
            {
                "$type": "KAGAFALAIGP",
                "type": "DIALOG",
                "aliasList": [
                    "1005"
                ],
                "actionId": 126,
                "JHEPJOMJJHH": 735250111,
                "OCILKFCPBNC": 0.699999988079071
            },
            {
                "$type": "CENEPJCONAG",
                "type": "BODY_LANG",
                "delayTime": 0.5009999871253967,
                "aliasList": [
                    "1005"
                ],
                "actionId": 204,
                "OGFPAIKLDGB": 1190,
                "MHDCNDAINCK": true,
                "LHIAJOBFNAK": false,
                "GJGPNLJEIFP": true,
                "FOEKGLEJBIJ": ""
            }
        ],
        [
            {
                "$type": "KAGAFALAIGP",
                "type": "DIALOG",
                "aliasList": [
                    "30402"
                ],
                "actionId": 128,
                "JHEPJOMJJHH": 735250112,
                "OCILKFCPBNC": 0.5
            },
            {
                "$type": "CENEPJCONAG",
                "type": "BODY_LANG",
                "delayTime": 0.13099999725818634,
                "aliasList": [
                    "30402"
                ],
                "actionId": 205,
                "MHDCNDAINCK": true,
                "LHIAJOBFNAK": false,
                "GJGPNLJEIFP": true,
                "FOEKGLEJBIJ": ""
            }
        ],
        [
            {
                "$type": "KAGAFALAIGP",
                "type": "DIALOG",
                "aliasList": [
                    "1005"
                ],
                "actionId": 130,
                "JHEPJOMJJHH": 735250113,
                "OCILKFCPBNC": 1.3200000524520874
            },
            {
                "$type": "CENEPJCONAG",
                "type": "BODY_LANG",
                "delayTime": 0.20499999821186066,
                "aliasList": [
                    "1005"
                ],
                "actionId": 206,
                "OGFPAIKLDGB": 1230,
                "MHDCNDAINCK": true,
                "LHIAJOBFNAK": false,
                "GJGPNLJEIFP": true,
                "FOEKGLEJBIJ": ""
            },
            {
                "$type": "FNPNDPFBBDD",
                "type": "LOOK_AT",
                "delayTime": 0.2879999876022339,
                "aliasList": [
                    "Avatar"
                ],
                "actionId": 207,
                "flag": 64,
                "NKGFDJDHOBD": true,
                "MNOPLOBEFLB": 0.5,
                "JBODIEHINII": "1005",
                "MDNPCOHCCLM": true,
                "CAJDMFBMGNG": 60.0,
                "LPCACGGCDLI": "",
                "NNFPFPOJJOJ": ""
            },
            {
                "$type": "FNPNDPFBBDD",
                "type": "LOOK_AT",
                "delayTime": 0.3140000104904175,
                "aliasList": [
                    "30402"
                ],
                "actionId": 211,
                "flag": 64,
                "NKGFDJDHOBD": true,
                "MNOPLOBEFLB": 0.5,
                "JBODIEHINII": "Avatar",
                "MDNPCOHCCLM": true,
                "CAJDMFBMGNG": 60.0,
                "LPCACGGCDLI": "",
                "NNFPFPOJJOJ": ""
            },
            {
                "$type": "AAFOOOPNJLB",
                "type": "DIALOG_SELECT",
                "delayTime": 0.4000000059604645,
                "aliasList": [
                    "Avatar"
                ],
                "actionId": 131,
                "KFAEOBDAAME": [
                    735250114,
                    735250115
                ],
                "ELPFMMBHOLF": [
                    2844324750,
                    2844324750
                ],
                "OEAAKJDIEFD": true,
                "ONFBGDHPCEO": 507394405
            }
        ],
        [
            {
                "$type": "FNPNDPFBBDD",
                "type": "LOOK_AT",
                "aliasList": [
                    "Avatar"
                ],
                "actionId": 208,
                "flag": 64,
                "NKGFDJDHOBD": true,
                "MNOPLOBEFLB": 0.5,
                "JBODIEHINII": "30402",
                "MDNPCOHCCLM": true,
                "CAJDMFBMGNG": 60.0,
                "LPCACGGCDLI": "",
                "NNFPFPOJJOJ": ""
            },
            {
                "$type": "KAGAFALAIGP",
                "type": "DIALOG",
                "aliasList": [
                    "30402"
                ],
                "actionId": 133,
                "JHEPJOMJJHH": 735250116,
                "OCILKFCPBNC": 1.3580000400543213
            },
            {
                "$type": "CENEPJCONAG",
                "type": "BODY_LANG",
                "delayTime": 0.032999999821186066,
                "aliasList": [
                    "1005"
                ],
                "actionId": 209,
                "NNKEOHJCPOF": true,
                "MHDCNDAINCK": true,
                "LHIAJOBFNAK": false,
                "GJGPNLJEIFP": true,
                "FOEKGLEJBIJ": ""
            }
        ],
        [
            {
                "$type": "KAGAFALAIGP",
                "type": "DIALOG",
                "aliasList": [
                    "1005"
                ],
                "actionId": 135,
                "JHEPJOMJJHH": 735250117,
                "OCILKFCPBNC": 0.5
            },
            {
                "$type": "FNPNDPFBBDD",
                "type": "LOOK_AT",
                "delayTime": 0.21799999475479126,
                "aliasList": [
                    "30402"
                ],
                "actionId": 212,
                "flag": 64,
                "NKGFDJDHOBD": true,
                "MNOPLOBEFLB": 0.5,
                "JBODIEHINII": "1005",
                "MDNPCOHCCLM": true,
                "CAJDMFBMGNG": 60.0,
                "LPCACGGCDLI": "",
                "NNFPFPOJJOJ": ""
            }
        ],
        [
            {
                "$type": "KAGAFALAIGP",
                "type": "DIALOG",
                "aliasList": [
                    "30402"
                ],
                "actionId": 137,
                "JHEPJOMJJHH": 735250118,
                "OCILKFCPBNC": 0.5
            },
            {
                "$type": "CENEPJCONAG",
                "type": "BODY_LANG",
                "delayTime": 0.22599999606609344,
                "aliasList": [
                    "30402"
                ],
                "actionId": 210,
                "OGFPAIKLDGB": 1172,
                "MHDCNDAINCK": true,
                "LHIAJOBFNAK": false,
                "GJGPNLJEIFP": true,
                "FOEKGLEJBIJ": ""
            }
        ],
        [
            {
                "$type": "KAGAFALAIGP",
                "type": "DIALOG",
                "aliasList": [
                    "30402"
                ],
                "actionId": 139,
                "JHEPJOMJJHH": 735250119,
                "OCILKFCPBNC": 0.5
            }
        ],
        [
            {
                "$type": "KAGAFALAIGP",
                "type": "DIALOG",
                "aliasList": [
                    "1005"
                ],
                "actionId": 141,
                "JHEPJOMJJHH": 735250120,
                "OCILKFCPBNC": 0.5
            }
        ],
        [
            {
                "$type": "KAGAFALAIGP",
                "type": "DIALOG",
                "aliasList": [
                    "30402"
                ],
                "actionId": 143,
                "JHEPJOMJJHH": 735250121,
                "OCILKFCPBNC": 0.5
            }
        ],
        [
            {
                "$type": "KAGAFALAIGP",
                "type": "DIALOG",
                "aliasList": [
                    "30402"
                ],
                "actionId": 145,
                "JHEPJOMJJHH": 735250122,
                "OCILKFCPBNC": 0.5
            },
            {
                "$type": "CENEPJCONAG",
                "type": "BODY_LANG",
                "delayTime": 0.12999999523162842,
                "aliasList": [
                    "30402"
                ],
                "actionId": 213,
                "OGFPAIKLDGB": 1050,
                "MHDCNDAINCK": true,
                "LHIAJOBFNAK": false,
                "GJGPNLJEIFP": true,
                "FOEKGLEJBIJ": ""
            }
        ],
        [
            {
                "$type": "KAGAFALAIGP",
                "type": "DIALOG",
                "aliasList": [
                    "30402"
                ],
                "actionId": 147,
                "JHEPJOMJJHH": 735250123,
                "OCILKFCPBNC": 0.5
            },
            {
                "$type": "CENEPJCONAG",
                "type": "BODY_LANG",
                "delayTime": 0.4309999942779541,
                "aliasList": [
                    "30402"
                ],
                "actionId": 214,
                "NNKEOHJCPOF": true,
                "MHDCNDAINCK": true,
                "LHIAJOBFNAK": false,
                "GJGPNLJEIFP": true,
                "FOEKGLEJBIJ": ""
            }
        ],
        [
            {
                "$type": "KAGAFALAIGP",
                "type": "DIALOG",
                "aliasList": [
                    "1005"
                ],
                "actionId": 149,
                "JHEPJOMJJHH": 735250124,
                "OCILKFCPBNC": 0.5
            },
            {
                "$type": "CENEPJCONAG",
                "type": "BODY_LANG",
                "delayTime": 0.21699999272823334,
                "aliasList": [
                    "1005"
                ],
                "actionId": 215,
                "OGFPAIKLDGB": 1190,
                "MHDCNDAINCK": true,
                "LHIAJOBFNAK": false,
                "GJGPNLJEIFP": true,
                "FOEKGLEJBIJ": ""
            }
        ],
        [
            {
                "$type": "KAGAFALAIGP",
                "type": "DIALOG",
                "aliasList": [
                    "30402"
                ],
                "actionId": 151,
                "JHEPJOMJJHH": 735250125,
                "OCILKFCPBNC": 0.5
            },
            {
                "$type": "CENEPJCONAG",
                "type": "BODY_LANG",
                "delayTime": 0.23600000143051147,
                "aliasList": [
                    "1005"
                ],
                "actionId": 216,
                "NNKEOHJCPOF": true,
                "MHDCNDAINCK": true,
                "LHIAJOBFNAK": false,
                "GJGPNLJEIFP": true,
                "FOEKGLEJBIJ": ""
            }
        ],
        [
            {
                "$type": "KAGAFALAIGP",
                "type": "DIALOG",
                "aliasList": [
                    "30402"
                ],
                "actionId": 153,
                "JHEPJOMJJHH": 735250126,
                "OCILKFCPBNC": 0.5
            }
        ],
        [
            {
                "$type": "KAGAFALAIGP",
                "type": "DIALOG",
                "aliasList": [
                    "30402"
                ],
                "actionId": 155,
                "JHEPJOMJJHH": 735250127,
                "OCILKFCPBNC": 0.5
            },
            {
                "$type": "CENEPJCONAG",
                "type": "BODY_LANG",
                "delayTime": 0.24799999594688416,
                "aliasList": [
                    "30402"
                ],
                "actionId": 217,
                "OGFPAIKLDGB": 1171,
                "MHDCNDAINCK": true,
                "LHIAJOBFNAK": false,
                "GJGPNLJEIFP": true,
                "FOEKGLEJBIJ": ""
            }
        ],
        [
            {
                "$type": "KAGAFALAIGP",
                "type": "DIALOG",
                "aliasList": [
                    "30402"
                ],
                "actionId": 157,
                "JHEPJOMJJHH": 735250128,
                "OCILKFCPBNC": 0.5
            }
        ],
        [
            {
                "$type": "KAGAFALAIGP",
                "type": "DIALOG",
                "aliasList": [
                    "30402"
                ],
                "actionId": 159,
                "JHEPJOMJJHH": 735250129,
                "OCILKFCPBNC": 0.5
            }
        ],
        [
            {
                "$type": "KAGAFALAIGP",
                "type": "DIALOG",
                "aliasList": [
                    "30402"
                ],
                "actionId": 161,
                "JHEPJOMJJHH": 735250130,
                "OCILKFCPBNC": 0.5
            },
            {
                "$type": "CENEPJCONAG",
                "type": "BODY_LANG",
                "delayTime": 0.18799999356269836,
                "aliasList": [
                    "30402"
                ],
                "actionId": 218,
                "OGFPAIKLDGB": 1173,
                "MHDCNDAINCK": true,
                "LHIAJOBFNAK": false,
                "GJGPNLJEIFP": true,
                "FOEKGLEJBIJ": ""
            }
        ],
        [
            {
                "$type": "KAGAFALAIGP",
                "type": "DIALOG",
                "aliasList": [
                    "30402"
                ],
                "actionId": 163,
                "JHEPJOMJJHH": 735250131,
                "OCILKFCPBNC": 0.5
            }
        ],
        [
            {
                "$type": "KAGAFALAIGP",
                "type": "DIALOG",
                "aliasList": [
                    "1005"
                ],
                "actionId": 165,
                "JHEPJOMJJHH": 735250132,
                "OCILKFCPBNC": 0.5
            }
        ],
        [
            {
                "$type": "KAGAFALAIGP",
                "type": "DIALOG",
                "aliasList": [
                    "1005"
                ],
                "actionId": 167,
                "JHEPJOMJJHH": 735250133,
                "OCILKFCPBNC": 0.5
            }
        ],
        [
            {
                "$type": "KAGAFALAIGP",
                "type": "DIALOG",
                "aliasList": [
                    "30402"
                ],
                "actionId": 169,
                "JHEPJOMJJHH": 735250134,
                "OCILKFCPBNC": 0.5
            }
        ],
        [
            {
                "$type": "KAGAFALAIGP",
                "type": "DIALOG",
                "aliasList": [
                    "30402"
                ],
                "actionId": 171,
                "JHEPJOMJJHH": 735250135,
                "OCILKFCPBNC": 0.5
            }
        ],
        [
            {
                "$type": "KAGAFALAIGP",
                "type": "DIALOG",
                "aliasList": [
                    "30402"
                ],
                "actionId": 173,
                "JHEPJOMJJHH": 735250136,
                "OCILKFCPBNC": 0.5
            },
            {
                "$type": "CENEPJCONAG",
                "type": "BODY_LANG",
                "delayTime": 0.08299999684095383,
                "aliasList": [
                    "30402"
                ],
                "actionId": 219,
                "OGFPAIKLDGB": 1172,
                "MHDCNDAINCK": true,
                "LHIAJOBFNAK": false,
                "GJGPNLJEIFP": true,
                "FOEKGLEJBIJ": ""
            }
        ],
        [
            {
                "$type": "KAGAFALAIGP",
                "type": "DIALOG",
                "aliasList": [
                    "1005"
                ],
                "actionId": 175,
                "JHEPJOMJJHH": 735250137,
                "OCILKFCPBNC": 1.562000036239624
            },
            {
                "$type": "FNPNDPFBBDD",
                "type": "LOOK_AT",
                "delayTime": 0.10100000351667404,
                "aliasList": [
                    "1005"
                ],
                "actionId": 220,
                "flag": 64,
                "NKGFDJDHOBD": true,
                "MNOPLOBEFLB": 0.5,
                "JBODIEHINII": "Avatar",
                "MDNPCOHCCLM": true,
                "CAJDMFBMGNG": 60.0,
                "LPCACGGCDLI": "",
                "NNFPFPOJJOJ": ""
            },
            {
                "$type": "NFDDGDIKEAG",
                "type": "STEER_TO",
                "delayTime": 0.13699999451637268,
                "duration": 1.0,
                "aliasList": [
                    "1005"
                ],
                "actionId": 225,
                "flag": 32,
                "GGJHILELIMO": "TO_TARGET_ADVANCED",
                "PKKKHNGDEEE": true,
                "LGDIOPOBMPH": true,
                "NBNJEKMFIDE": true,
                "JBODIEHINII": "Avatar",
                "DMPFMDNFEHA": true,
                "OJJKHFPNNKJ": true,
                "NNFPFPOJJOJ": ""
            },
            {
                "$type": "FNPNDPFBBDD",
                "type": "LOOK_AT",
                "delayTime": 0.14300000667572021,
                "aliasList": [
                    "Avatar"
                ],
                "actionId": 222,
                "flag": 64,
                "NKGFDJDHOBD": true,
                "MNOPLOBEFLB": 0.5,
                "JBODIEHINII": "1005",
                "MDNPCOHCCLM": true,
                "CAJDMFBMGNG": 60.0,
                "LPCACGGCDLI": "",
                "NNFPFPOJJOJ": ""
            },
            {
                "$type": "CENEPJCONAG",
                "type": "BODY_LANG",
                "delayTime": 0.24300000071525574,
                "aliasList": [
                    "1005"
                ],
                "actionId": 221,
                "OGFPAIKLDGB": 1190,
                "MHDCNDAINCK": true,
                "LHIAJOBFNAK": false,
                "GJGPNLJEIFP": true,
                "FOEKGLEJBIJ": ""
            },
            {
                "$type": "AAFOOOPNJLB",
                "type": "DIALOG_SELECT",
                "delayTime": 0.4000000059604645,
                "aliasList": [
                    "Avatar"
                ],
                "actionId": 176,
                "KFAEOBDAAME": [
                    735250138
                ],
                "ELPFMMBHOLF": [
                    2844324814
                ],
                "OEAAKJDIEFD": true,
                "ONFBGDHPCEO": 507394405
            }
        ],
        [
            {
                "$type": "KAGAFALAIGP",
                "type": "DIALOG",
                "aliasList": [
                    "1005"
                ],
                "actionId": 178,
                "JHEPJOMJJHH": 735250139,
                "OCILKFCPBNC": 1.4110000133514404
            },
            {
                "$type": "FNPNDPFBBDD",
                "type": "LOOK_AT",
                "delayTime": 0.26100000739097595,
                "aliasList": [
                    "1005"
                ],
                "actionId": 224,
                "flag": 64,
                "NKGFDJDHOBD": true,
                "MNOPLOBEFLB": 0.5,
                "JBODIEHINII": "30402",
                "MDNPCOHCCLM": true,
                "CAJDMFBMGNG": 60.0,
                "LPCACGGCDLI": "",
                "NNFPFPOJJOJ": ""
            },
            {
                "$type": "NFDDGDIKEAG",
                "type": "STEER_TO",
                "delayTime": 0.41100001335144043,
                "duration": 1.0,
                "aliasList": [
                    "1005"
                ],
                "actionId": 226,
                "flag": 32,
                "GGJHILELIMO": "TO_TARGET_ADVANCED",
                "PKKKHNGDEEE": true,
                "LGDIOPOBMPH": true,
                "NBNJEKMFIDE": true,
                "JBODIEHINII": "30402",
                "DMPFMDNFEHA": true,
                "OJJKHFPNNKJ": true,
                "NNFPFPOJJOJ": ""
            }
        ],
        [
            {
                "$type": "KAGAFALAIGP",
                "type": "DIALOG",
                "aliasList": [
                    "30402"
                ],
                "actionId": 180,
                "JHEPJOMJJHH": 735250140,
                "OCILKFCPBNC": 1.093000054359436
            },
            {
                "$type": "FNPNDPFBBDD",
                "type": "LOOK_AT",
                "delayTime": 0.07699999958276749,
                "aliasList": [
                    "Avatar"
                ],
                "actionId": 231,
                "flag": 64,
                "NKGFDJDHOBD": true,
                "MNOPLOBEFLB": 0.5,
                "JBODIEHINII": "30402",
                "MDNPCOHCCLM": true,
                "CAJDMFBMGNG": 60.0,
                "LPCACGGCDLI": "",
                "NNFPFPOJJOJ": ""
            }
        ],
        [
            {
                "$type": "KAGAFALAIGP",
                "type": "DIALOG",
                "aliasList": [
                    "1005"
                ],
                "actionId": 182,
                "JHEPJOMJJHH": 735250141,
                "OCILKFCPBNC": 0.5
            },
            {
                "$type": "CENEPJCONAG",
                "type": "BODY_LANG",
                "delayTime": 0.2280000001192093,
                "aliasList": [
                    "1005"
                ],
                "actionId": 227,
                "OGFPAIKLDGB": 1230,
                "MHDCNDAINCK": true,
                "LHIAJOBFNAK": false,
                "GJGPNLJEIFP": true,
                "FOEKGLEJBIJ": ""
            }
        ],
        [
            {
                "$type": "KAGAFALAIGP",
                "type": "DIALOG",
                "aliasList": [
                    "30402"
                ],
                "actionId": 184,
                "JHEPJOMJJHH": 735250142,
                "OCILKFCPBNC": 0.5
            },
            {
                "$type": "CENEPJCONAG",
                "type": "BODY_LANG",
                "delayTime": 0.05000000074505806,
                "aliasList": [
                    "1005"
                ],
                "actionId": 228,
                "NNKEOHJCPOF": true,
                "MHDCNDAINCK": true,
                "LHIAJOBFNAK": false,
                "GJGPNLJEIFP": true,
                "FOEKGLEJBIJ": ""
            }
        ],
        [
            {
                "$type": "KAGAFALAIGP",
                "type": "DIALOG",
                "aliasList": [
                    "30402"
                ],
                "actionId": 186,
                "JHEPJOMJJHH": 735250143,
                "OCILKFCPBNC": 0.5
            }
        ],
        [
            {
                "$type": "KAGAFALAIGP",
                "type": "DIALOG",
                "aliasList": [
                    "1005"
                ],
                "actionId": 188,
                "JHEPJOMJJHH": 735250144,
                "OCILKFCPBNC": 0.5
            }
        ],
        [
            {
                "$type": "KAGAFALAIGP",
                "type": "DIALOG",
                "aliasList": [
                    "30402"
                ],
                "actionId": 190,
                "JHEPJOMJJHH": 735250145,
                "OCILKFCPBNC": 0.5
            },
            {
                "$type": "CENEPJCONAG",
                "type": "BODY_LANG",
                "delayTime": 0.20000000298023224,
                "aliasList": [
                    "30402"
                ],
                "actionId": 229,
                "OGFPAIKLDGB": 1171,
                "MHDCNDAINCK": true,
                "LHIAJOBFNAK": false,
                "GJGPNLJEIFP": true,
                "FOEKGLEJBIJ": ""
            }
        ],
        [
            {
                "$type": "MoleMole.Config.ConfigTimeProtectAction",
                "type": "TIME_PROTECT",
                "duration": 0.10000000149011612,
                "actionId": 105
            },
            {
                "$type": "NFDDGDIKEAG",
                "type": "STEER_TO",
                "duration": 1.0,
                "aliasList": [
                    "30402"
                ],
                "actionId": 193,
                "flag": 32,
                "GGJHILELIMO": "RETURN",
                "PKKKHNGDEEE": true,
                "LGDIOPOBMPH": true,
                "NBNJEKMFIDE": true,
                "JBODIEHINII": "",
                "DMPFMDNFEHA": true,
                "OJJKHFPNNKJ": true,
                "NNFPFPOJJOJ": ""
            }
        ]
    ],
    "groupId": [
        {
            "grpId": 507394406,
            "nextGrpId": 507394407
        },
        {
            "index": 1,
            "grpId": 507394407,
            "nextGrpId": 507394408
        },
        {
            "index": 2,
            "grpId": 507394408,
            "nextGrpId": 507394409
        },
        {
            "index": 3,
            "grpId": 507394409,
            "nextGrpId": 507394410
        },
        {
            "index": 4,
            "grpId": 507394410,
            "nextGrpId": 507394411
        },
        {
            "index": 5,
            "grpId": 507394411,
            "nextGrpId": 507394412
        },
        {
            "index": 6,
            "grpId": 507394412,
            "nextGrpId": 507394413
        },
        {
            "index": 7,
            "grpId": 507394413,
            "nextGrpId": 507394414
        },
        {
            "index": 8,
            "grpId": 507394414,
            "nextGrpId": 2844324746
        },
        {
            "index": 9,
            "grpId": 2844324746,
            "nextGrpId": 2844324747
        },
        {
            "index": 10,
            "grpId": 2844324747,
            "nextGrpId": 2844324748
        },
        {
            "index": 11,
            "grpId": 2844324748,
            "nextGrpId": 2844324749
        },
        {
            "index": 12,
            "grpId": 2844324749,
            "nextGrpId": 2844324750
        },
        {
            "index": 13,
            "grpId": 2844324750,
            "nextGrpId": 2844324751
        },
        {
            "index": 14,
            "grpId": 2844324751,
            "nextGrpId": 2844324752
        },
        {
            "index": 15,
            "grpId": 2844324752,
            "nextGrpId": 2844324753
        },
        {
            "index": 16,
            "grpId": 2844324753,
            "nextGrpId": 2844324754
        },
        {
            "index": 17,
            "grpId": 2844324754,
            "nextGrpId": 2844324755
        },
        {
            "index": 18,
            "grpId": 2844324755,
            "nextGrpId": 2844324777
        },
        {
            "index": 19,
            "grpId": 2844324777,
            "nextGrpId": 2844324778
        },
        {
            "index": 20,
            "grpId": 2844324778,
            "nextGrpId": 2844324779
        },
        {
            "index": 21,
            "grpId": 2844324779,
            "nextGrpId": 2844324780
        },
        {
            "index": 22,
            "grpId": 2844324780,
            "nextGrpId": 2844324781
        },
        {
            "index": 23,
            "grpId": 2844324781,
            "nextGrpId": 2844324782
        },
        {
            "index": 24,
            "grpId": 2844324782,
            "nextGrpId": 2844324783
        },
        {
            "index": 25,
            "grpId": 2844324783,
            "nextGrpId": 2844324784
        },
        {
            "index": 26,
            "grpId": 2844324784,
            "nextGrpId": 2844324785
        },
        {
            "index": 27,
            "grpId": 2844324785,
            "nextGrpId": 2844324786
        },
        {
            "index": 28,
            "grpId": 2844324786,
            "nextGrpId": 2844324808
        },
        {
            "index": 29,
            "grpId": 2844324808,
            "nextGrpId": 2844324809
        },
        {
            "index": 30,
            "grpId": 2844324809,
            "nextGrpId": 2844324810
        },
        {
            "index": 31,
            "grpId": 2844324810,
            "nextGrpId": 2844324811
        },
        {
            "index": 32,
            "grpId": 2844324811,
            "nextGrpId": 2844324812
        },
        {
            "index": 33,
            "grpId": 2844324812,
            "nextGrpId": 2844324813
        },
        {
            "index": 34,
            "grpId": 2844324813,
            "nextGrpId": 2844324814
        },
        {
            "index": 35,
            "grpId": 2844324814,
            "nextGrpId": 2844324815
        },
        {
            "index": 36,
            "grpId": 2844324815,
            "nextGrpId": 2844324816
        },
        {
            "index": 37,
            "grpId": 2844324816,
            "nextGrpId": 2844324817
        },
        {
            "index": 38,
            "grpId": 2844324817,
            "nextGrpId": 2844324839
        },
        {
            "index": 39,
            "grpId": 2844324839,
            "nextGrpId": 2844324840
        },
        {
            "index": 40,
            "grpId": 2844324840,
            "nextGrpId": 2844324841
        },
        {
            "index": 41,
            "grpId": 2844324841,
            "nextGrpId": 2844324842
        },
        {
            "index": 42,
            "grpId": 2844324842,
            "nextGrpId": 2844324843
        }
    ],
    "freeStyleDic": {
        "30402": [
            1160,
            1240,
            1171,
            1172,
            1050,
            1173
        ]
    },
    "EGOADMBCKDB": {
        "30402": [
            "SitChat01AS",
            "SitHoldArm01AS",
            "SitPutArm01AS",
            "SitRaiseHand01AS",
            "SitRead01AS"
        ]
    }
}