{
    "mainQuestId": 1024,
    "mainQuestTitle": {
        "textId": 4062148249,
        "textType": "MainQuestTitle"
    },
    "mainQuestDesp": {
        "textId": 821672999,
        "textType": "MainQuestDesp"
    },
    "chapterTitle": {
        "textId": 2560408425,
        "textType": "ChapterTitle"
    },
    "chapterNum": {
        "textId": 4237882338,
        "textType": "ChapterNum"
    },
    "subQuests": [
        {
            "subQuestTitle": {
                "textId": 2273117606,
                "textType": "SubQuestTitle"
            },
            "items": [
                {
                    "CJPJEIEKMAE": 2,
                    "itemType": "SingleDialog",
                    "nextItemId": 3,
                    "speakerText": {
                        "textId": 1356475093,
                        "textType": "SpeakerKnown"
                    },
                    "dialogs": [
                        {
                            "text": {
                                "textId": 2283884937,
                                "textType": "DialogNormal"
                            },
                            "soundId": 10240201,
                            "nextItemId": 3
                        }
                    ]
                },
                {
                    "CJPJEIEKMAE": 3,
                    "itemType": "SingleDialog",
                    "nextItemId": 4,
                    "speakerText": {
                        "textId": 1356475093,
                        "textType": "SpeakerKnown"
                    },
                    "dialogs": [
                        {
                            "text": {
                                "textId": 4033217,
                                "textType": "DialogNormal"
                            },
                            "soundId": 10240202,
                            "nextItemId": 4
                        }
                    ]
                },
                {
                    "CJPJEIEKMAE": 4,
                    "itemType": "SingleDialog",
                    "nextItemId": 5,
                    "speakerText": {
                        "textId": 1356475093,
                        "textType": "SpeakerKnown"
                    },
                    "dialogs": [
                        {
                            "text": {
                                "textId": 226078713,
                                "textType": "DialogNormal"
                            },
                            "soundId": 10240203,
                            "nextItemId": 5
                        }
                    ]
                },
                {
                    "CJPJEIEKMAE": 5,
                    "itemType": "SingleDialog",
                    "nextItemId": 6,
                    "speakerText": {
                        "textId": 2764026605,
                        "textType": "SpeakerKnown"
                    },
                    "dialogs": [
                        {
                            "text": {
                                "textId": 4273043145,
                                "textType": "DialogNormal"
                            },
                            "soundId": 10240204,
                            "nextItemId": 6
                        }
                    ]
                },
                {
                    "CJPJEIEKMAE": 6,
                    "itemType": "SingleDialog",
                    "nextItemId": 7,
                    "speakerText": {
                        "textId": 1356475093,
                        "textType": "SpeakerKnown"
                    },
                    "dialogs": [
                        {
                            "text": {
                                "textId": 594275457,
                                "textType": "DialogNormal"
                            },
                            "soundId": 10240205,
                            "nextItemId": 7
                        }
                    ]
                },
                {
                    "CJPJEIEKMAE": 7,
                    "itemType": "SingleDialog",
                    "nextItemId": 8,
                    "speakerText": {
                        "textId": 3410614789,
                        "textType": "SpeakerKnown"
                    },
                    "dialogs": [
                        {
                            "text": {
                                "textId": 1224927977,
                                "textType": "DialogNormal"
                            },
                            "soundId": 10240206,
                            "nextItemId": 8
                        }
                    ]
                },
                {
                    "CJPJEIEKMAE": 8,
                    "itemType": "SingleDialog",
                    "nextItemId": 9,
                    "speakerText": {
                        "textId": 786671029,
                        "textType": "SpeakerKnown"
                    },
                    "dialogs": [
                        {
                            "text": {
                                "textId": 925460249,
                                "textType": "DialogNormal"
                            },
                            "soundId": 10240207,
                            "nextItemId": 9
                        }
                    ]
                },
                {
                    "CJPJEIEKMAE": 9,
                    "itemType": "SingleDialog",
                    "nextItemId": 10,
                    "speakerText": {
                        "textId": 1356475093,
                        "textType": "SpeakerKnown"
                    },
                    "dialogs": [
                        {
                            "text": {
                                "textId": 4063022977,
                                "textType": "DialogNormal"
                            },
                            "soundId": 10240208,
                            "nextItemId": 10
                        }
                    ]
                },
                {
                    "CJPJEIEKMAE": 10,
                    "itemType": "SingleDialog",
                    "nextItemId": 11,
                    "speakerText": {
                        "textId": 1356475093,
                        "textType": "SpeakerKnown"
                    },
                    "dialogs": [
                        {
                            "text": {
                                "textId": 170895561,
                                "textType": "DialogNormal"
                            },
                            "soundId": 10240209,
                            "nextItemId": 11
                        }
                    ]
                },
                {
                    "CJPJEIEKMAE": 11,
                    "itemType": "SingleDialog",
                    "nextItemId": 12,
                    "speakerText": {
                        "textId": 3125955461,
                        "textType": "SpeakerKnown"
                    },
                    "dialogs": [
                        {
                            "text": {
                                "textId": 2829937913,
                                "textType": "DialogNormal"
                            },
                            "soundId": 10240210,
                            "nextItemId": 12
                        }
                    ]
                },
                {
                    "CJPJEIEKMAE": 12,
                    "itemType": "SingleDialog",
                    "nextItemId": 13,
                    "speakerText": {
                        "textId": 3125955461,
                        "textType": "SpeakerKnown"
                    },
                    "dialogs": [
                        {
                            "text": {
                                "textId": 1156026385,
                                "textType": "DialogNormal"
                            },
                            "soundId": 10240211,
                            "nextItemId": 13
                        }
                    ]
                },
                {
                    "CJPJEIEKMAE": 13,
                    "itemType": "SingleDialog",
                    "nextItemId": 14,
                    "speakerText": {
                        "textId": 1356475093,
                        "textType": "SpeakerKnown"
                    },
                    "dialogs": [
                        {
                            "text": {
                                "textId": 3544794329,
                                "textType": "DialogNormal"
                            },
                            "soundId": 10240212,
                            "nextItemId": 14
                        }
                    ]
                },
                {
                    "CJPJEIEKMAE": 14,
                    "itemType": "SingleDialog",
                    "nextItemId": 15,
                    "speakerText": {
                        "textId": 2764026605,
                        "textType": "SpeakerKnown"
                    },
                    "dialogs": [
                        {
                            "text": {
                                "textId": 4120296649,
                                "textType": "DialogNormal"
                            },
                            "soundId": 10240213,
                            "nextItemId": 15
                        }
                    ]
                },
                {
                    "CJPJEIEKMAE": 15,
                    "itemType": "SingleDialog",
                    "nextItemId": 16,
                    "speakerText": {
                        "textId": 1356475093,
                        "textType": "SpeakerKnown"
                    },
                    "dialogs": [
                        {
                            "text": {
                                "textId": 1608711929,
                                "textType": "DialogNormal"
                            },
                            "soundId": 10240214,
                            "nextItemId": 16
                        }
                    ]
                },
                {
                    "CJPJEIEKMAE": 16,
                    "itemType": "SingleDialog",
                    "nextItemId": 17,
                    "speakerText": {
                        "textId": 3410614789,
                        "textType": "SpeakerKnown"
                    },
                    "dialogs": [
                        {
                            "text": {
                                "textId": 4205043465,
                                "textType": "DialogNormal"
                            },
                            "soundId": 10240215,
                            "nextItemId": 17
                        }
                    ]
                },
                {
                    "CJPJEIEKMAE": 17,
                    "itemType": "SingleDialog",
                    "nextItemId": 18,
                    "speakerText": {
                        "textId": 1356475093,
                        "textType": "SpeakerKnown"
                    },
                    "dialogs": [
                        {
                            "text": {
                                "textId": 3326458241,
                                "textType": "DialogNormal"
                            },
                            "soundId": 10240216,
                            "nextItemId": 18
                        }
                    ]
                },
                {
                    "CJPJEIEKMAE": 18,
                    "itemType": "SingleDialog",
                    "nextItemId": 19,
                    "speakerText": {
                        "textId": 605557365,
                        "textType": "SpeakerKnown"
                    },
                    "dialogs": [
                        {
                            "text": {
                                "textId": 1448063137,
                                "textType": "DialogNormal"
                            },
                            "soundId": 10240217,
                            "nextItemId": 19
                        }
                    ]
                },
                {
                    "CJPJEIEKMAE": 19,
                    "itemType": "SingleDialog",
                    "nextItemId": 20,
                    "speakerText": {
                        "textId": 1356475093,
                        "textType": "SpeakerKnown"
                    },
                    "dialogs": [
                        {
                            "text": {
                                "textId": 3066519809,
                                "textType": "DialogNormal"
                            },
                            "soundId": 10240218,
                            "nextItemId": 20
                        }
                    ]
                },
                {
                    "CJPJEIEKMAE": 20,
                    "itemType": "SingleDialog",
                    "nextItemId": 21,
                    "speakerText": {
                        "textId": 605557365,
                        "textType": "SpeakerKnown"
                    },
                    "dialogs": [
                        {
                            "text": {
                                "textId": 2225030633,
                                "textType": "DialogNormal"
                            },
                            "soundId": 10240219,
                            "nextItemId": 21
                        }
                    ]
                },
                {
                    "CJPJEIEKMAE": 21,
                    "itemType": "SingleDialog",
                    "nextItemId": 22,
                    "speakerText": {
                        "textId": 605557365,
                        "textType": "SpeakerKnown"
                    },
                    "dialogs": [
                        {
                            "text": {
                                "textId": 4181553945,
                                "textType": "DialogNormal"
                            },
                            "soundId": 10240220,
                            "nextItemId": 22
                        }
                    ]
                },
                {
                    "CJPJEIEKMAE": 22,
                    "itemType": "SingleDialog",
                    "nextItemId": 23,
                    "speakerText": {
                        "textId": 605557365,
                        "textType": "SpeakerKnown"
                    },
                    "dialogs": [
                        {
                            "text": {
                                "textId": 1978507649,
                                "textType": "DialogNormal"
                            },
                            "soundId": 10240221,
                            "nextItemId": 23
                        }
                    ]
                },
                {
                    "CJPJEIEKMAE": 23,
                    "itemType": "SingleDialog",
                    "nextItemId": 24,
                    "speakerText": {
                        "textId": 3410614789,
                        "textType": "SpeakerKnown"
                    },
                    "dialogs": [
                        {
                            "text": {
                                "textId": 3736675977,
                                "textType": "DialogNormal"
                            },
                            "soundId": 10240222,
                            "nextItemId": 24
                        }
                    ]
                },
                {
                    "CJPJEIEKMAE": 24,
                    "itemType": "SingleDialog",
                    "nextItemId": 25,
                    "speakerText": {
                        "textId": 3410614789,
                        "textType": "SpeakerKnown"
                    },
                    "dialogs": [
                        {
                            "text": {
                                "textId": 718489849,
                                "textType": "DialogNormal"
                            },
                            "soundId": 10240223,
                            "nextItemId": 25
                        }
                    ]
                },
                {
                    "CJPJEIEKMAE": 25,
                    "itemType": "SingleDialog",
                    "nextItemId": 26,
                    "speakerText": {
                        "textId": 3410614789,
                        "textType": "SpeakerKnown"
                    },
                    "dialogs": [
                        {
                            "text": {
                                "textId": 51559729,
                                "textType": "DialogNormal"
                            },
                            "soundId": 10240224,
                            "nextItemId": 26
                        }
                    ]
                },
                {
                    "CJPJEIEKMAE": 26,
                    "itemType": "TextLeft",
                    "texts": [
                        {
                            "textId": 2793987533,
                            "textType": "Narratage"
                        }
                    ]
                }
            ]
        }
    ]
}