{
    "sceneId": 20104,
    "CFFJNELNLDP": [
        {
            "name": "room_global",
            "BNEEJGGIODL": {
                "text": "aux_scene_dungeon_default"
            },
            "ELDOBAFIBLA": true
        }
    ],
    "EMFMBENPJDB": "room_global"
}