{
    "sceneId": 31004,
    "CFFJNELNLDP": [
        {
            "name": "room_global",
            "BNEEJGGIODL": {
                "text": "aux_scene_tower_default"
            },
            "ELDOBAFIBLA": true
        },
        {
            "name": "room_tower_huge_close_room",
            "BNEEJGGIODL": {
                "text": "aux_scene_tower_close_huge"
            },
            "ELDOBAFIBLA": true,
            "KAKOHPHCEIL": [
                {
                    "position": {
                        "y": 10.0
                    },
                    "size": {
                        "x": 55.0,
                        "y": 40.0,
                        "z": 50.0
                    }
                }
            ]
        }
    ],
    "OILCOOCNILH": [
        {
            "name": "portal_tower_huge_close_room_to_outdoor_f",
            "position": {
                "y": 10.0,
                "z": 25.0
            },
            "size": {
                "x": 20.0,
                "y": 40.0,
                "z": 10.0
            },
            "CPPKCEFIIKH": "room_global",
            "ONPMOLBJMFA": "room_tower_huge_close_room"
        },
        {
            "name": "portal_tower_huge_close_room_to_outdoor_b",
            "position": {
                "y": 10.0,
                "z": -25.0
            },
            "size": {
                "x": 20.0,
                "y": 40.0,
                "z": 10.0
            },
            "CPPKCEFIIKH": "room_tower_huge_close_room",
            "ONPMOLBJMFA": "room_global"
        }
    ],
    "EMFMBENPJDB": "room_global"
}