{
    "sceneId": 47202,
    "CFFJNELNLDP": [
        {
            "name": "room_global",
            "BNEEJGGIODL": {
                "text": "aux_scene_dungeon_close_small"
            },
            "ELDOBAFIBLA": true
        }
    ],
    "EMFMBENPJDB": "room_global"
}