{
    "luaDataPath": "",
    "isSimpleTalk": true,
    "startBlackKeepTime": 1.0,
    "entityBan": "",
    "disableNpcLod": true,
    "startFade": {
        "startFadeInDuration": 0.5,
        "startFadeOutDuration": 0.5
    },
    "endFade": {
        "startFadeOutDuration": 0.0
    },
    "actors": [
        {
            "alias": "Avatar",
            "visible": true,
            "bornPointName": "Q22034CampB",
            "relativePosNpcAlias": "",
            "bindMovingTargetKey": ""
        },
        {
            "configID": 3042,
            "alias": "3042",
            "visible": true,
            "bornPointName": "Q22034TalkB",
            "relativePosNpcAlias": "",
            "bindMovingTargetKey": ""
        }
    ],
    "group": [
        [
            {
                "$type": "PBIGHFCHGCA",
                "type": "CAMERA_FOCUS",
                "delayTime": 0.30000001192092896,
                "duration": 0.10000000149011612,
                "JBODIEHINII": "",
                "EJCHLMIMLBO": "",
                "BIMPIKMCIHB": "",
                "MCAOJPLIJGI": ""
            },
            {
                "$type": "MoleMole.Config.ConfigTimeProtectAction",
                "type": "TIME_PROTECT",
                "duration": 0.4000000059604645
            }
        ],
        [
            {
                "$type": "KAGAFALAIGP",
                "type": "DIALOG",
                "aliasList": [
                    "3042"
                ],
                "JHEPJOMJJHH": 220340203,
                "OCILKFCPBNC": 0.5
            }
        ],
        [
            {
                "$type": "KAGAFALAIGP",
                "type": "DIALOG",
                "aliasList": [
                    "3042"
                ],
                "JHEPJOMJJHH": 220340204,
                "OCILKFCPBNC": 0.5
            },
            {
                "$type": "CENEPJCONAG",
                "type": "BODY_LANG",
                "aliasList": [
                    "3042"
                ],
                "OGFPAIKLDGB": 1130,
                "MHDCNDAINCK": true,
                "LHIAJOBFNAK": false,
                "FOEKGLEJBIJ": ""
            }
        ],
        [
            {
                "$type": "KAGAFALAIGP",
                "type": "DIALOG",
                "aliasList": [
                    "3042"
                ],
                "JHEPJOMJJHH": 220340205,
                "OCILKFCPBNC": 0.5
            }
        ],
        [
            {
                "$type": "KAGAFALAIGP",
                "type": "DIALOG",
                "aliasList": [
                    "3042"
                ],
                "JHEPJOMJJHH": 220340206,
                "OCILKFCPBNC": 0.5
            }
        ],
        [
            {
                "$type": "KAGAFALAIGP",
                "type": "DIALOG",
                "aliasList": [
                    "3042"
                ],
                "JHEPJOMJJHH": 220340207,
                "OCILKFCPBNC": 0.5
            }
        ],
        [
            {
                "$type": "MoleMole.Config.ConfigTimeProtectAction",
                "type": "TIME_PROTECT",
                "duration": 0.10000000149011612
            }
        ]
    ],
    "groupId": [
        {
            "grpId": 7492021,
            "nextGrpId": 7492022
        },
        {
            "index": 1,
            "grpId": 7492022,
            "nextGrpId": 7492023
        },
        {
            "index": 2,
            "grpId": 7492023,
            "nextGrpId": 7492024
        },
        {
            "index": 3,
            "grpId": 7492024,
            "nextGrpId": 7492025
        },
        {
            "index": 4,
            "grpId": 7492025,
            "nextGrpId": 7492026
        },
        {
            "index": 5,
            "grpId": 7492026,
            "nextGrpId": 7492027
        },
        {
            "index": 6,
            "grpId": 7492027,
            "nextGrpId": 7492028
        }
    ],
    "freeStyleDic": {
        "3042": [
            1130
        ]
    }
}