{
    "luaDataPath": "",
    "isSimpleTalk": true,
    "entityBan": "",
    "disableNpcLod": true,
    "JJFIGGKCCCF": true,
    "EKDGNGHMECG": true,
    "GMFELEKFHNC": 5,
    "startFade": {
        "startFadeOutDuration": 0.0
    },
    "endFade": {
        "startFadeOutDuration": 0.0
    },
    "actors": [
        {
            "alias": "Avatar",
            "visible": true,
            "bornPointName": "N10000005_T7331003",
            "relativePosType": "AVATAR_NEW",
            "relativePosNpcAlias": "",
            "bindMovingTargetKey": ""
        },
        {
            "configID": 20987,
            "alias": "20987",
            "visible": true,
            "bornPointName": "",
            "removeActorType": "NEW_REMOVE_WITH_DISAPPEAR",
            "relativePosType": "AVATAR_NEW",
            "relativePosNpcAlias": "",
            "bindMovingTargetKey": ""
        },
        {
            "configID": 1005,
            "alias": "1005",
            "visible": true,
            "bornPointName": "",
            "useRelativePos": true,
            "relativePos": {
                "x": -0.6000000238418579,
                "z": -0.20000000298023224
            },
            "removeActorType": "NEW_REMOVE_WITH_DISAPPEAR",
            "relativePosType": "AVATAR_NEW",
            "relativePosNpcAlias": "",
            "bindMovingTargetKey": ""
        }
    ],
    "group": [
        [
            {
                "$type": "PBIGHFCHGCA",
                "type": "CAMERA_FOCUS",
                "duration": 0.10000000149011612,
                "actionId": 103,
                "JBODIEHINII": "",
                "EJCHLMIMLBO": "",
                "BIMPIKMCIHB": "",
                "MCAOJPLIJGI": ""
            },
            {
                "$type": "MoleMole.Config.ConfigTimeProtectAction",
                "type": "TIME_PROTECT",
                "duration": 0.10000000149011612,
                "actionId": 104
            },
            {
                "$type": "NFDDGDIKEAG",
                "type": "STEER_TO",
                "delayTime": 0.30000001192092896,
                "duration": 0.800000011920929,
                "aliasList": [
                    "Avatar"
                ],
                "actionId": 162,
                "GGJHILELIMO": "TO_TARGET_ADVANCED",
                "PKKKHNGDEEE": true,
                "LGDIOPOBMPH": true,
                "NBNJEKMFIDE": true,
                "JBODIEHINII": "20987",
                "OJJKHFPNNKJ": true,
                "NNFPFPOJJOJ": ""
            }
        ],
        [
            {
                "$type": "KAGAFALAIGP",
                "type": "DIALOG",
                "aliasList": [
                    "20987"
                ],
                "actionId": 107,
                "JHEPJOMJJHH": 733100301,
                "OCILKFCPBNC": 0.5
            }
        ],
        [
            {
                "$type": "KAGAFALAIGP",
                "type": "DIALOG",
                "aliasList": [
                    "1005"
                ],
                "actionId": 109,
                "JHEPJOMJJHH": 733100302,
                "OCILKFCPBNC": 0.5
            }
        ],
        [
            {
                "$type": "KAGAFALAIGP",
                "type": "DIALOG",
                "aliasList": [
                    "20987"
                ],
                "actionId": 111,
                "JHEPJOMJJHH": 733100303,
                "OCILKFCPBNC": 0.5
            }
        ],
        [
            {
                "$type": "KAGAFALAIGP",
                "type": "DIALOG",
                "aliasList": [
                    "1005"
                ],
                "actionId": 113,
                "JHEPJOMJJHH": 733100304,
                "OCILKFCPBNC": 0.5
            }
        ],
        [
            {
                "$type": "KAGAFALAIGP",
                "type": "DIALOG",
                "aliasList": [
                    "1005"
                ],
                "actionId": 115,
                "JHEPJOMJJHH": 733100305,
                "OCILKFCPBNC": 0.5
            },
            {
                "$type": "AAFOOOPNJLB",
                "type": "DIALOG_SELECT",
                "delayTime": 0.4000000059604645,
                "aliasList": [
                    "Avatar"
                ],
                "actionId": 116,
                "KFAEOBDAAME": [
                    733100306,
                    733100307
                ],
                "ELPFMMBHOLF": [
                    3653216174,
                    3653216174
                ],
                "OEAAKJDIEFD": true,
                "ONFBGDHPCEO": 3653216167
            }
        ],
        [
            {
                "$type": "KAGAFALAIGP",
                "type": "DIALOG",
                "aliasList": [
                    "1005"
                ],
                "actionId": 118,
                "JHEPJOMJJHH": 733100308,
                "OCILKFCPBNC": 0.5
            }
        ],
        [
            {
                "$type": "KAGAFALAIGP",
                "type": "DIALOG",
                "aliasList": [
                    "20987"
                ],
                "actionId": 120,
                "JHEPJOMJJHH": 733100309,
                "OCILKFCPBNC": 0.5
            }
        ],
        [
            {
                "$type": "KAGAFALAIGP",
                "type": "DIALOG",
                "aliasList": [
                    "1005"
                ],
                "actionId": 122,
                "JHEPJOMJJHH": 733100310,
                "OCILKFCPBNC": 0.5
            }
        ],
        [
            {
                "$type": "KAGAFALAIGP",
                "type": "DIALOG",
                "aliasList": [
                    "20987"
                ],
                "actionId": 124,
                "JHEPJOMJJHH": 733100311,
                "OCILKFCPBNC": 0.5
            }
        ],
        [
            {
                "$type": "KAGAFALAIGP",
                "type": "DIALOG",
                "aliasList": [
                    "20987"
                ],
                "actionId": 126,
                "JHEPJOMJJHH": 733100312,
                "OCILKFCPBNC": 0.5
            }
        ],
        [
            {
                "$type": "KAGAFALAIGP",
                "type": "DIALOG",
                "aliasList": [
                    "1005"
                ],
                "actionId": 128,
                "JHEPJOMJJHH": 733100313,
                "OCILKFCPBNC": 0.5
            }
        ],
        [
            {
                "$type": "KAGAFALAIGP",
                "type": "DIALOG",
                "aliasList": [
                    "1005"
                ],
                "actionId": 130,
                "JHEPJOMJJHH": 733100314,
                "OCILKFCPBNC": 0.5
            }
        ],
        [
            {
                "$type": "KAGAFALAIGP",
                "type": "DIALOG",
                "aliasList": [
                    "20987"
                ],
                "actionId": 132,
                "JHEPJOMJJHH": 733100315,
                "OCILKFCPBNC": 0.5
            }
        ],
        [
            {
                "$type": "KAGAFALAIGP",
                "type": "DIALOG",
                "aliasList": [
                    "20987"
                ],
                "actionId": 134,
                "JHEPJOMJJHH": 733100316,
                "OCILKFCPBNC": 0.5
            }
        ],
        [
            {
                "$type": "KAGAFALAIGP",
                "type": "DIALOG",
                "aliasList": [
                    "20987"
                ],
                "actionId": 136,
                "JHEPJOMJJHH": 733100317,
                "OCILKFCPBNC": 0.5
            }
        ],
        [
            {
                "$type": "KAGAFALAIGP",
                "type": "DIALOG",
                "aliasList": [
                    "20987"
                ],
                "actionId": 138,
                "JHEPJOMJJHH": 733100318,
                "OCILKFCPBNC": 0.5
            }
        ],
        [
            {
                "$type": "KAGAFALAIGP",
                "type": "DIALOG",
                "aliasList": [
                    "20987"
                ],
                "actionId": 140,
                "JHEPJOMJJHH": 733100319,
                "OCILKFCPBNC": 0.5
            }
        ],
        [
            {
                "$type": "KAGAFALAIGP",
                "type": "DIALOG",
                "aliasList": [
                    "20987"
                ],
                "actionId": 142,
                "JHEPJOMJJHH": 733100320,
                "OCILKFCPBNC": 0.5
            }
        ],
        [
            {
                "$type": "KAGAFALAIGP",
                "type": "DIALOG",
                "aliasList": [
                    "20987"
                ],
                "actionId": 144,
                "JHEPJOMJJHH": 733100321,
                "OCILKFCPBNC": 0.5
            }
        ],
        [
            {
                "$type": "KAGAFALAIGP",
                "type": "DIALOG",
                "aliasList": [
                    "20987"
                ],
                "actionId": 146,
                "JHEPJOMJJHH": 733100322,
                "OCILKFCPBNC": 0.5
            },
            {
                "$type": "AAFOOOPNJLB",
                "type": "DIALOG_SELECT",
                "delayTime": 0.4000000059604645,
                "aliasList": [
                    "Avatar"
                ],
                "actionId": 147,
                "KFAEOBDAAME": [
                    733100323,
                    733100324
                ],
                "ELPFMMBHOLF": [
                    1580551593,
                    1580551593
                ],
                "OEAAKJDIEFD": true,
                "ONFBGDHPCEO": 3653216167
            }
        ],
        [
            {
                "$type": "KAGAFALAIGP",
                "type": "DIALOG",
                "aliasList": [
                    "1005"
                ],
                "actionId": 149,
                "JHEPJOMJJHH": 733100325,
                "OCILKFCPBNC": 0.5
            }
        ],
        [
            {
                "$type": "KAGAFALAIGP",
                "type": "DIALOG",
                "aliasList": [
                    "20987"
                ],
                "actionId": 151,
                "JHEPJOMJJHH": 733100326,
                "OCILKFCPBNC": 0.5
            }
        ],
        [
            {
                "$type": "KAGAFALAIGP",
                "type": "DIALOG",
                "aliasList": [
                    "20987"
                ],
                "actionId": 153,
                "JHEPJOMJJHH": 733100327,
                "OCILKFCPBNC": 0.5
            }
        ],
        [
            {
                "$type": "KAGAFALAIGP",
                "type": "DIALOG",
                "aliasList": [
                    "1005"
                ],
                "actionId": 155,
                "JHEPJOMJJHH": 733100328,
                "OCILKFCPBNC": 0.5
            }
        ],
        [
            {
                "$type": "KAGAFALAIGP",
                "type": "DIALOG",
                "aliasList": [
                    "1005"
                ],
                "actionId": 157,
                "JHEPJOMJJHH": 733100329,
                "OCILKFCPBNC": 0.5
            }
        ],
        [
            {
                "$type": "KAGAFALAIGP",
                "type": "DIALOG",
                "aliasList": [
                    "20987"
                ],
                "actionId": 159,
                "JHEPJOMJJHH": 733100330,
                "OCILKFCPBNC": 0.5
            }
        ],
        [
            {
                "$type": "KAGAFALAIGP",
                "type": "DIALOG",
                "aliasList": [
                    "20987"
                ],
                "actionId": 161,
                "JHEPJOMJJHH": 733100331,
                "OCILKFCPBNC": 0.5
            }
        ],
        [
            {
                "$type": "MoleMole.Config.ConfigTimeProtectAction",
                "type": "TIME_PROTECT",
                "duration": 0.10000000149011612,
                "actionId": 105
            }
        ]
    ],
    "groupId": [
        {
            "grpId": 3653216168,
            "nextGrpId": 3653216169
        },
        {
            "index": 1,
            "grpId": 3653216169,
            "nextGrpId": 3653216170
        },
        {
            "index": 2,
            "grpId": 3653216170,
            "nextGrpId": 3653216171
        },
        {
            "index": 3,
            "grpId": 3653216171,
            "nextGrpId": 3653216172
        },
        {
            "index": 4,
            "grpId": 3653216172,
            "nextGrpId": 3653216173
        },
        {
            "index": 5,
            "grpId": 3653216173,
            "nextGrpId": 3653216174
        },
        {
            "index": 6,
            "grpId": 3653216174,
            "nextGrpId": 3653216175
        },
        {
            "index": 7,
            "grpId": 3653216175,
            "nextGrpId": 3653216176
        },
        {
            "index": 8,
            "grpId": 3653216176,
            "nextGrpId": 1580551560
        },
        {
            "index": 9,
            "grpId": 1580551560,
            "nextGrpId": 1580551561
        },
        {
            "index": 10,
            "grpId": 1580551561,
            "nextGrpId": 1580551562
        },
        {
            "index": 11,
            "grpId": 1580551562,
            "nextGrpId": 1580551563
        },
        {
            "index": 12,
            "grpId": 1580551563,
            "nextGrpId": 1580551564
        },
        {
            "index": 13,
            "grpId": 1580551564,
            "nextGrpId": 1580551565
        },
        {
            "index": 14,
            "grpId": 1580551565,
            "nextGrpId": 1580551566
        },
        {
            "index": 15,
            "grpId": 1580551566,
            "nextGrpId": 1580551567
        },
        {
            "index": 16,
            "grpId": 1580551567,
            "nextGrpId": 1580551568
        },
        {
            "index": 17,
            "grpId": 1580551568,
            "nextGrpId": 1580551569
        },
        {
            "index": 18,
            "grpId": 1580551569,
            "nextGrpId": 1580551591
        },
        {
            "index": 19,
            "grpId": 1580551591,
            "nextGrpId": 1580551592
        },
        {
            "index": 20,
            "grpId": 1580551592,
            "nextGrpId": 1580551593
        },
        {
            "index": 21,
            "grpId": 1580551593,
            "nextGrpId": 1580551594
        },
        {
            "index": 22,
            "grpId": 1580551594,
            "nextGrpId": 1580551595
        },
        {
            "index": 23,
            "grpId": 1580551595,
            "nextGrpId": 1580551596
        },
        {
            "index": 24,
            "grpId": 1580551596,
            "nextGrpId": 1580551597
        },
        {
            "index": 25,
            "grpId": 1580551597,
            "nextGrpId": 1580551598
        },
        {
            "index": 26,
            "grpId": 1580551598,
            "nextGrpId": 1580551599
        },
        {
            "index": 27,
            "grpId": 1580551599,
            "nextGrpId": 1580551600
        },
        {
            "index": 28,
            "grpId": 1580551600,
            "nextGrpId": 1580551622
        }
    ],
    "freeStyleDic": {
        "20987": []
    }
}