{
    "luaDataPath": "",
    "isSimpleTalk": true,
    "entityBan": "",
    "disableNpcLod": true,
    "startFade": {
        "startFadeOutDuration": 0.0
    },
    "endFade": {
        "startFadeOutDuration": 0.0
    },
    "actors": [
        {
            "alias": "Avatar",
            "visible": true,
            "bornPointName": "",
            "relativePosNpcAlias": "",
            "bindMovingTargetKey": ""
        },
        {
            "configID": 20240,
            "alias": "20240",
            "visible": true,
            "bornPointName": "",
            "relativePosNpcAlias": "",
            "bindMovingTargetKey": ""
        },
        {
            "configID": 1005,
            "alias": "1005",
            "visible": true,
            "bornPointName": "",
            "useRelativePos": true,
            "relativePos": {
                "x": -0.5,
                "z": 0.5
            },
            "removeActorType": "REMOVE_WITH_DISAPPEAR",
            "relativePosNpcAlias": "",
            "bindMovingTargetKey": ""
        }
    ],
    "group": [
        [
            {
                "$type": "PBIGHFCHGCA",
                "type": "CAMERA_FOCUS",
                "delayTime": 0.30000001192092896,
                "duration": 0.10000000149011612,
                "JBODIEHINII": "",
                "EJCHLMIMLBO": "",
                "BIMPIKMCIHB": "",
                "MCAOJPLIJGI": ""
            },
            {
                "$type": "MoleMole.Config.ConfigTimeProtectAction",
                "type": "TIME_PROTECT",
                "duration": 0.4000000059604645
            }
        ],
        [
            {
                "$type": "NFDDGDIKEAG",
                "type": "STEER_TO",
                "duration": 0.800000011920929,
                "aliasList": [
                    "Avatar"
                ],
                "GGJHILELIMO": "TO_TARGET",
                "PKKKHNGDEEE": true,
                "JBODIEHINII": "20240",
                "NNFPFPOJJOJ": ""
            },
            {
                "$type": "KAGAFALAIGP",
                "type": "DIALOG",
                "aliasList": [
                    "20240"
                ],
                "JHEPJOMJJHH": 721401001,
                "OCILKFCPBNC": 0.5
            },
            {
                "$type": "NFDDGDIKEAG",
                "type": "STEER_TO",
                "duration": 0.800000011920929,
                "aliasList": [
                    "20240"
                ],
                "GGJHILELIMO": "TO_TARGET",
                "PKKKHNGDEEE": true,
                "JBODIEHINII": "Avatar",
                "NNFPFPOJJOJ": ""
            }
        ],
        [
            {
                "$type": "KAGAFALAIGP",
                "type": "DIALOG",
                "aliasList": [
                    "20240"
                ],
                "JHEPJOMJJHH": 721401002,
                "OCILKFCPBNC": 0.5
            }
        ],
        [
            {
                "$type": "AAFOOOPNJLB",
                "type": "DIALOG_SELECT",
                "delayTime": 0.4000000059604645,
                "aliasList": [
                    "Avatar"
                ],
                "KFAEOBDAAME": [
                    721401004
                ],
                "ELPFMMBHOLF": [
                    2375335892
                ],
                "OEAAKJDIEFD": true
            },
            {
                "$type": "KAGAFALAIGP",
                "type": "DIALOG",
                "aliasList": [
                    "1005"
                ],
                "JHEPJOMJJHH": 721401003,
                "OCILKFCPBNC": 0.5
            }
        ],
        [
            {
                "$type": "KAGAFALAIGP",
                "type": "DIALOG",
                "aliasList": [
                    "20240"
                ],
                "JHEPJOMJJHH": 721401005,
                "OCILKFCPBNC": 0.5
            }
        ],
        [
            {
                "$type": "AAFOOOPNJLB",
                "type": "DIALOG_SELECT",
                "delayTime": 0.4000000059604645,
                "aliasList": [
                    "Avatar"
                ],
                "KFAEOBDAAME": [
                    721401025,
                    721401026
                ],
                "ELPFMMBHOLF": [
                    620968550,
                    2375335894
                ],
                "OEAAKJDIEFD": true
            },
            {
                "$type": "KAGAFALAIGP",
                "type": "DIALOG",
                "aliasList": [
                    "20240"
                ],
                "JHEPJOMJJHH": 721401006,
                "OCILKFCPBNC": 0.5
            }
        ],
        [
            {
                "$type": "KAGAFALAIGP",
                "type": "DIALOG",
                "aliasList": [
                    "20240"
                ],
                "JHEPJOMJJHH": 721401007,
                "OCILKFCPBNC": 0.5
            }
        ],
        [
            {
                "$type": "KAGAFALAIGP",
                "type": "DIALOG",
                "aliasList": [
                    "20240"
                ],
                "JHEPJOMJJHH": 721401008,
                "OCILKFCPBNC": 0.5
            }
        ],
        [
            {
                "$type": "KAGAFALAIGP",
                "type": "DIALOG",
                "aliasList": [
                    "20240"
                ],
                "JHEPJOMJJHH": 721401009,
                "OCILKFCPBNC": 0.5
            }
        ],
        [
            {
                "$type": "KAGAFALAIGP",
                "type": "DIALOG",
                "aliasList": [
                    "20240"
                ],
                "JHEPJOMJJHH": 721401010,
                "OCILKFCPBNC": 0.5
            }
        ],
        [
            {
                "$type": "KAGAFALAIGP",
                "type": "DIALOG",
                "aliasList": [
                    "20240"
                ],
                "JHEPJOMJJHH": 721401011,
                "OCILKFCPBNC": 0.5
            }
        ],
        [
            {
                "$type": "KAGAFALAIGP",
                "type": "DIALOG",
                "aliasList": [
                    "20240"
                ],
                "JHEPJOMJJHH": 721401012,
                "OCILKFCPBNC": 0.5
            }
        ],
        [
            {
                "$type": "KAGAFALAIGP",
                "type": "DIALOG",
                "aliasList": [
                    "20240"
                ],
                "JHEPJOMJJHH": 721401013,
                "OCILKFCPBNC": 0.5
            }
        ],
        [
            {
                "$type": "KAGAFALAIGP",
                "type": "DIALOG",
                "aliasList": [
                    "20240"
                ],
                "JHEPJOMJJHH": 721401014,
                "OCILKFCPBNC": 0.5
            }
        ],
        [
            {
                "$type": "KAGAFALAIGP",
                "type": "DIALOG",
                "aliasList": [
                    "20240"
                ],
                "JHEPJOMJJHH": 721401015,
                "OCILKFCPBNC": 0.5
            }
        ],
        [
            {
                "$type": "AAFOOOPNJLB",
                "type": "DIALOG_SELECT",
                "delayTime": 0.4000000059604645,
                "aliasList": [
                    "Avatar"
                ],
                "KFAEOBDAAME": [
                    721401017
                ],
                "ELPFMMBHOLF": [
                    620968551
                ],
                "OEAAKJDIEFD": true
            },
            {
                "$type": "KAGAFALAIGP",
                "type": "DIALOG",
                "aliasList": [
                    "20240"
                ],
                "JHEPJOMJJHH": 721401016,
                "OCILKFCPBNC": 0.5
            }
        ],
        [
            {
                "$type": "KAGAFALAIGP",
                "type": "DIALOG",
                "aliasList": [
                    "1005"
                ],
                "JHEPJOMJJHH": 721401018,
                "OCILKFCPBNC": 0.5
            }
        ],
        [
            {
                "$type": "KAGAFALAIGP",
                "type": "DIALOG",
                "aliasList": [
                    "20240"
                ],
                "JHEPJOMJJHH": 721401019,
                "OCILKFCPBNC": 0.5
            }
        ],
        [
            {
                "$type": "KAGAFALAIGP",
                "type": "DIALOG",
                "aliasList": [
                    "20240"
                ],
                "JHEPJOMJJHH": 721401020,
                "OCILKFCPBNC": 0.5
            }
        ],
        [
            {
                "$type": "KAGAFALAIGP",
                "type": "DIALOG",
                "aliasList": [
                    "20240"
                ],
                "JHEPJOMJJHH": 721401021,
                "OCILKFCPBNC": 0.5
            }
        ],
        [
            {
                "$type": "KAGAFALAIGP",
                "type": "DIALOG",
                "aliasList": [
                    "20240"
                ],
                "JHEPJOMJJHH": 721401022,
                "OCILKFCPBNC": 0.5
            }
        ],
        [
            {
                "$type": "KAGAFALAIGP",
                "type": "DIALOG",
                "aliasList": [
                    "1005"
                ],
                "JHEPJOMJJHH": 721401023,
                "OCILKFCPBNC": 0.5
            }
        ],
        [
            {
                "$type": "KAGAFALAIGP",
                "type": "DIALOG",
                "aliasList": [
                    "1005"
                ],
                "JHEPJOMJJHH": 721401024,
                "OCILKFCPBNC": 0.5
            }
        ],
        [
            {
                "$type": "MoleMole.Config.ConfigTimeProtectAction",
                "type": "TIME_PROTECT",
                "duration": 0.10000000149011612
            },
            {
                "$type": "NFDDGDIKEAG",
                "type": "STEER_TO",
                "duration": 0.800000011920929,
                "aliasList": [
                    "20240"
                ],
                "GGJHILELIMO": "RETURN",
                "PKKKHNGDEEE": true,
                "JBODIEHINII": "",
                "NNFPFPOJJOJ": ""
            }
        ]
    ],
    "groupId": [
        {
            "grpId": 2375335888,
            "nextGrpId": 2375335889
        },
        {
            "index": 1,
            "grpId": 2375335889,
            "nextGrpId": 2375335890
        },
        {
            "index": 2,
            "grpId": 2375335890,
            "nextGrpId": 2375335891
        },
        {
            "index": 3,
            "grpId": 2375335891,
            "nextGrpId": 2375335892
        },
        {
            "index": 4,
            "grpId": 2375335892,
            "nextGrpId": 2375335893
        },
        {
            "index": 5,
            "grpId": 2375335893,
            "nextGrpId": 2375335894
        },
        {
            "index": 6,
            "grpId": 2375335894,
            "nextGrpId": 2375335895
        },
        {
            "index": 7,
            "grpId": 2375335895,
            "nextGrpId": 2375335896
        },
        {
            "index": 8,
            "grpId": 2375335896,
            "nextGrpId": 620968544
        },
        {
            "index": 9,
            "grpId": 620968544,
            "nextGrpId": 620968545
        },
        {
            "index": 10,
            "grpId": 620968545,
            "nextGrpId": 620968546
        },
        {
            "index": 11,
            "grpId": 620968546,
            "nextGrpId": 620968547
        },
        {
            "index": 12,
            "grpId": 620968547,
            "nextGrpId": 620968548
        },
        {
            "index": 13,
            "grpId": 620968548,
            "nextGrpId": 620968549
        },
        {
            "index": 14,
            "grpId": 620968549,
            "nextGrpId": 620968550
        },
        {
            "index": 15,
            "grpId": 620968550,
            "nextGrpId": 620968551
        },
        {
            "index": 16,
            "grpId": 620968551,
            "nextGrpId": 620968552
        },
        {
            "index": 17,
            "grpId": 620968552,
            "nextGrpId": 620968553
        },
        {
            "index": 18,
            "grpId": 620968553,
            "nextGrpId": 620968575
        },
        {
            "index": 19,
            "grpId": 620968575,
            "nextGrpId": 620968576
        },
        {
            "index": 20,
            "grpId": 620968576,
            "nextGrpId": 620968577
        },
        {
            "index": 21,
            "grpId": 620968577,
            "nextGrpId": 620968578
        },
        {
            "index": 22,
            "grpId": 620968578,
            "nextGrpId": 620968579
        },
        {
            "index": 23,
            "grpId": 620968579,
            "nextGrpId": 620968580
        }
    ],
    "freeStyleDic": {
        "20240": []
    }
}