{
    "luaDataPath": "",
    "entityBan": "",
    "disableNpcLod": true,
    "startFade": {
        "startFadeOutDuration": 0.0
    },
    "endFade": {
        "startFadeOutDuration": 0.0
    },
    "actors": [
        {
            "alias": "Avatar",
            "visible": true,
            "bornPointName": "",
            "relativePosNpcAlias": "",
            "bindMovingTargetKey": ""
        },
        {
            "configID": 9024,
            "alias": "9024",
            "visible": true,
            "bornPointName": "",
            "relativePosNpcAlias": "",
            "bindMovingTargetKey": ""
        }
    ],
    "group": [
        [
            {
                "$type": "PBIGHFCHGCA",
                "type": "CAMERA_FOCUS",
                "duration": 0.10000000149011612,
                "JBODIEHINII": "",
                "EJCHLMIMLBO": "",
                "BIMPIKMCIHB": "",
                "MCAOJPLIJGI": ""
            },
            {
                "$type": "FNPNDPFBBDD",
                "type": "LOOK_AT",
                "aliasList": [
                    "9024"
                ],
                "NKGFDJDHOBD": true,
                "MNOPLOBEFLB": 0.5,
                "JBODIEHINII": "Avatar",
                "LPCACGGCDLI": "",
                "NNFPFPOJJOJ": ""
            },
            {
                "$type": "NFDDGDIKEAG",
                "type": "STEER_TO",
                "duration": 1.0,
                "aliasList": [
                    "9024"
                ],
                "GGJHILELIMO": "TO_LOCAL_AVATAR_ADVANCED",
                "PKKKHNGDEEE": true,
                "LGDIOPOBMPH": true,
                "NBNJEKMFIDE": true,
                "JBODIEHINII": "",
                "NNFPFPOJJOJ": ""
            },
            {
                "$type": "PCKGCMJKAFG",
                "type": "LOOK_AT_EYECTRL",
                "aliasList": [
                    "9024"
                ],
                "useTargetPos": false,
                "KIIEOLGDJKJ": {
                    "z": 2.0
                },
                "JMJDEGALFIP": {
                    "z": 2.0
                },
                "OEJLBIFJKEL": 1.0,
                "JBODIEHINII": "",
                "FEHKBOLJIOO": "Face"
            }
        ],
        [
            {
                "$type": "FNPNDPFBBDD",
                "type": "LOOK_AT",
                "aliasList": [
                    "Avatar"
                ],
                "NKGFDJDHOBD": true,
                "MNOPLOBEFLB": 0.5,
                "JBODIEHINII": "9024",
                "LPCACGGCDLI": "",
                "NNFPFPOJJOJ": ""
            },
            {
                "$type": "NFDDGDIKEAG",
                "type": "STEER_TO",
                "delayTime": 0.5,
                "duration": 1.0,
                "aliasList": [
                    "Avatar"
                ],
                "GGJHILELIMO": "TO_TARGET_ADVANCED",
                "PKKKHNGDEEE": true,
                "LGDIOPOBMPH": true,
                "NBNJEKMFIDE": true,
                "JBODIEHINII": "9024",
                "NNFPFPOJJOJ": ""
            },
            {
                "$type": "PCKGCMJKAFG",
                "type": "LOOK_AT_EYECTRL",
                "aliasList": [
                    "Avatar"
                ],
                "useTargetPos": false,
                "KIIEOLGDJKJ": {
                    "z": -2.0
                },
                "JMJDEGALFIP": {
                    "z": -2.0
                },
                "OEJLBIFJKEL": 1.0,
                "JBODIEHINII": "",
                "FEHKBOLJIOO": "Face"
            },
            {
                "$type": "KAGAFALAIGP",
                "type": "DIALOG",
                "aliasList": [
                    "9024"
                ],
                "JHEPJOMJJHH": 690240302,
                "OCILKFCPBNC": 0.5
            },
            {
                "$type": "CENEPJCONAG",
                "type": "BODY_LANG",
                "aliasList": [
                    "9024"
                ],
                "OGFPAIKLDGB": 1120,
                "MHDCNDAINCK": true,
                "LHIAJOBFNAK": false,
                "FOEKGLEJBIJ": ""
            },
            {
                "$type": "LNLLGCOBDFC",
                "type": "EMO_SYNC",
                "aliasList": [
                    "9024"
                ],
                "LKHHGAGNMKM": "Cs_Emo_Avatar_Simple_Common_Set/Cs_Emo_Avatar_Talk/Cs_Emo_HomeWorld/Cs_Emo_Avatar_Beidou/Cs_Emo_690240302",
                "AIMKGPFAAAD": "",
                "IPEKOEDCGGF": "",
                "EJNFMNJKDAH": "",
                "LOOOCOLIHFA": "",
                "KJDLMAPPPMG": "",
                "EKJHPKFBONG": [
                    5172473933350136713,
                    10180804663391483068,
                    8976870712477009928,
                    12842223661508515623
                ]
            }
        ],
        [
            {
                "$type": "KAGAFALAIGP",
                "type": "DIALOG",
                "aliasList": [
                    "9024"
                ],
                "JHEPJOMJJHH": 690240303,
                "OCILKFCPBNC": 0.5
            },
            {
                "$type": "CENEPJCONAG",
                "type": "BODY_LANG",
                "delayTime": 1.2999999523162842,
                "aliasList": [
                    "9024"
                ],
                "OGFPAIKLDGB": 1190,
                "MHDCNDAINCK": true,
                "LHIAJOBFNAK": false,
                "FOEKGLEJBIJ": ""
            },
            {
                "$type": "LNLLGCOBDFC",
                "type": "EMO_SYNC",
                "aliasList": [
                    "9024"
                ],
                "LKHHGAGNMKM": "Cs_Emo_Avatar_Simple_Common_Set/Cs_Emo_Avatar_Talk/Cs_Emo_HomeWorld/Cs_Emo_Avatar_Beidou/Cs_Emo_690240303",
                "AIMKGPFAAAD": "",
                "IPEKOEDCGGF": "",
                "EJNFMNJKDAH": "",
                "LOOOCOLIHFA": "",
                "KJDLMAPPPMG": "",
                "EKJHPKFBONG": [
                    14332819005447034861,
                    10499651653080598755,
                    6897629304587943072,
                    14656302749467031897
                ]
            },
            {
                "$type": "CENEPJCONAG",
                "type": "BODY_LANG",
                "aliasList": [
                    "9024"
                ],
                "NNKEOHJCPOF": true,
                "MHDCNDAINCK": true,
                "LHIAJOBFNAK": false,
                "FOEKGLEJBIJ": ""
            }
        ],
        [
            {
                "$type": "AAFOOOPNJLB",
                "type": "DIALOG_SELECT",
                "delayTime": 0.4000000059604645,
                "aliasList": [
                    "Avatar"
                ],
                "KFAEOBDAAME": [
                    690240305,
                    690240311
                ],
                "ELPFMMBHOLF": [
                    3212259013,
                    3212259017
                ],
                "OEAAKJDIEFD": true
            },
            {
                "$type": "KAGAFALAIGP",
                "type": "DIALOG",
                "aliasList": [
                    "9024"
                ],
                "JHEPJOMJJHH": 690240304,
                "OCILKFCPBNC": 0.5
            },
            {
                "$type": "LNLLGCOBDFC",
                "type": "EMO_SYNC",
                "aliasList": [
                    "9024"
                ],
                "LKHHGAGNMKM": "Cs_Emo_Avatar_Simple_Common_Set/Cs_Emo_Avatar_Talk/Cs_Emo_HomeWorld/Cs_Emo_Avatar_Beidou/Cs_Emo_690240304",
                "AIMKGPFAAAD": "",
                "IPEKOEDCGGF": "",
                "EJNFMNJKDAH": "",
                "LOOOCOLIHFA": "",
                "KJDLMAPPPMG": "",
                "EKJHPKFBONG": [
                    5156522946988172894,
                    4532338980018134449,
                    1643938794831803009,
                    8509693445690196169
                ]
            }
        ],
        [
            {
                "$type": "AAFOOOPNJLB",
                "type": "DIALOG_SELECT",
                "delayTime": 0.8999999761581421,
                "aliasList": [
                    "Avatar"
                ],
                "KFAEOBDAAME": [
                    690240307
                ],
                "ELPFMMBHOLF": [
                    3212259014
                ],
                "OEAAKJDIEFD": true
            },
            {
                "$type": "KAGAFALAIGP",
                "type": "DIALOG",
                "aliasList": [
                    "9024"
                ],
                "JHEPJOMJJHH": 690240306,
                "OCILKFCPBNC": 1.0
            },
            {
                "$type": "CENEPJCONAG",
                "type": "BODY_LANG",
                "delayTime": 1.0,
                "aliasList": [
                    "9024"
                ],
                "OGFPAIKLDGB": 1120,
                "MHDCNDAINCK": true,
                "LHIAJOBFNAK": false,
                "FOEKGLEJBIJ": ""
            },
            {
                "$type": "LNLLGCOBDFC",
                "type": "EMO_SYNC",
                "aliasList": [
                    "9024"
                ],
                "LKHHGAGNMKM": "Cs_Emo_Avatar_Simple_Common_Set/Cs_Emo_Avatar_Talk/Cs_Emo_HomeWorld/Cs_Emo_Avatar_Beidou/Cs_Emo_690240306",
                "AIMKGPFAAAD": "",
                "IPEKOEDCGGF": "",
                "EJNFMNJKDAH": "",
                "LOOOCOLIHFA": "",
                "KJDLMAPPPMG": "",
                "EKJHPKFBONG": [
                    16401406729782196444,
                    4446954940432017811,
                    12312430736943919414,
                    13078711016757871369
                ]
            },
            {
                "$type": "CENEPJCONAG",
                "type": "BODY_LANG",
                "aliasList": [
                    "9024"
                ],
                "NNKEOHJCPOF": true,
                "MHDCNDAINCK": true,
                "LHIAJOBFNAK": false,
                "FOEKGLEJBIJ": ""
            }
        ],
        [
            {
                "$type": "KAGAFALAIGP",
                "type": "DIALOG",
                "aliasList": [
                    "9024"
                ],
                "JHEPJOMJJHH": 690240308,
                "OCILKFCPBNC": 0.5
            },
            {
                "$type": "LNLLGCOBDFC",
                "type": "EMO_SYNC",
                "aliasList": [
                    "9024"
                ],
                "LKHHGAGNMKM": "Cs_Emo_Avatar_Simple_Common_Set/Cs_Emo_Avatar_Talk/Cs_Emo_HomeWorld/Cs_Emo_Avatar_Beidou/Cs_Emo_690240308",
                "AIMKGPFAAAD": "",
                "IPEKOEDCGGF": "",
                "EJNFMNJKDAH": "",
                "LOOOCOLIHFA": "",
                "KJDLMAPPPMG": "",
                "EKJHPKFBONG": [
                    12940805867798202661,
                    12682248966772868277,
                    13877878035104448134,
                    11501394929797683670
                ]
            },
            {
                "$type": "CENEPJCONAG",
                "type": "BODY_LANG",
                "aliasList": [
                    "9024"
                ],
                "OGFPAIKLDGB": 4031,
                "MHDCNDAINCK": true,
                "LHIAJOBFNAK": false,
                "FOEKGLEJBIJ": ""
            }
        ],
        [
            {
                "$type": "KAGAFALAIGP",
                "type": "DIALOG",
                "aliasList": [
                    "9024"
                ],
                "JHEPJOMJJHH": 690240309,
                "OCILKFCPBNC": 0.5
            },
            {
                "$type": "LNLLGCOBDFC",
                "type": "EMO_SYNC",
                "aliasList": [
                    "9024"
                ],
                "LKHHGAGNMKM": "Cs_Emo_Avatar_Simple_Common_Set/Cs_Emo_Avatar_Talk/Cs_Emo_HomeWorld/Cs_Emo_Avatar_Beidou/Cs_Emo_690240309",
                "AIMKGPFAAAD": "",
                "IPEKOEDCGGF": "",
                "EJNFMNJKDAH": "",
                "LOOOCOLIHFA": "",
                "KJDLMAPPPMG": "",
                "HCOIDDGKHJC": false,
                "EKJHPKFBONG": [
                    278589691828851847,
                    8395678230516874716,
                    7364709726983504895,
                    8818698486757120523
                ]
            }
        ],
        [
            {
                "$type": "KAGAFALAIGP",
                "type": "DIALOG",
                "aliasList": [
                    "9024"
                ],
                "JHEPJOMJJHH": 690240310,
                "OCILKFCPBNC": 0.5
            },
            {
                "$type": "LNLLGCOBDFC",
                "type": "EMO_SYNC",
                "aliasList": [
                    "9024"
                ],
                "LKHHGAGNMKM": "Cs_Emo_Avatar_Simple_Common_Set/Cs_Emo_Avatar_Talk/Cs_Emo_HomeWorld/Cs_Emo_Avatar_Beidou/Cs_Emo_690240310",
                "AIMKGPFAAAD": "",
                "IPEKOEDCGGF": "",
                "EJNFMNJKDAH": "",
                "LOOOCOLIHFA": "",
                "KJDLMAPPPMG": "",
                "HCOIDDGKHJC": false,
                "EKJHPKFBONG": [
                    4726484267492197106,
                    18035479611809909133,
                    3559604755023715243,
                    895870753448393576
                ]
            },
            {
                "$type": "CENEPJCONAG",
                "type": "BODY_LANG",
                "aliasList": [
                    "9024"
                ],
                "OGFPAIKLDGB": 1121,
                "MHDCNDAINCK": true,
                "LHIAJOBFNAK": false,
                "FOEKGLEJBIJ": ""
            },
            {
                "$type": "CENEPJCONAG",
                "type": "BODY_LANG",
                "delayTime": 2.5,
                "aliasList": [
                    "9024"
                ],
                "NNKEOHJCPOF": true,
                "MHDCNDAINCK": true,
                "LHIAJOBFNAK": false,
                "FOEKGLEJBIJ": ""
            }
        ],
        [
            {
                "$type": "KAGAFALAIGP",
                "type": "DIALOG",
                "aliasList": [
                    "9024"
                ],
                "JHEPJOMJJHH": 690240312,
                "OCILKFCPBNC": 0.5
            },
            {
                "$type": "LNLLGCOBDFC",
                "type": "EMO_SYNC",
                "aliasList": [
                    "9024"
                ],
                "LKHHGAGNMKM": "Cs_Emo_Avatar_Simple_Common_Set/Cs_Emo_Avatar_Talk/Cs_Emo_HomeWorld/Cs_Emo_Avatar_Beidou/Cs_Emo_690240312",
                "AIMKGPFAAAD": "",
                "IPEKOEDCGGF": "",
                "EJNFMNJKDAH": "",
                "LOOOCOLIHFA": "",
                "KJDLMAPPPMG": "",
                "EKJHPKFBONG": [
                    1792806945661513060,
                    4940296573569243587,
                    11095841193001464278,
                    7137536583094724202
                ]
            },
            {
                "$type": "CENEPJCONAG",
                "type": "BODY_LANG",
                "aliasList": [
                    "9024"
                ],
                "NNKEOHJCPOF": true,
                "MHDCNDAINCK": true,
                "LHIAJOBFNAK": false,
                "FOEKGLEJBIJ": ""
            },
            {
                "$type": "CENEPJCONAG",
                "type": "BODY_LANG",
                "delayTime": 1.2999999523162842,
                "aliasList": [
                    "9024"
                ],
                "OGFPAIKLDGB": 1172,
                "MHDCNDAINCK": true,
                "LHIAJOBFNAK": false,
                "FOEKGLEJBIJ": ""
            }
        ],
        [
            {
                "$type": "KAGAFALAIGP",
                "type": "DIALOG",
                "aliasList": [
                    "9024"
                ],
                "JHEPJOMJJHH": 690240313,
                "OCILKFCPBNC": 0.5
            },
            {
                "$type": "LNLLGCOBDFC",
                "type": "EMO_SYNC",
                "aliasList": [
                    "9024"
                ],
                "LKHHGAGNMKM": "Cs_Emo_Avatar_Simple_Common_Set/Cs_Emo_Avatar_Talk/Cs_Emo_HomeWorld/Cs_Emo_Avatar_Beidou/Cs_Emo_690240313",
                "AIMKGPFAAAD": "",
                "IPEKOEDCGGF": "",
                "EJNFMNJKDAH": "",
                "LOOOCOLIHFA": "",
                "KJDLMAPPPMG": "",
                "EKJHPKFBONG": [
                    13639063256286614135,
                    8186251703214498963,
                    6805260834206181181,
                    13528171866400430767
                ]
            },
            {
                "$type": "CENEPJCONAG",
                "type": "BODY_LANG",
                "delayTime": 2.4000000953674316,
                "aliasList": [
                    "9024"
                ],
                "OGFPAIKLDGB": 1110,
                "MHDCNDAINCK": true,
                "LHIAJOBFNAK": false,
                "FOEKGLEJBIJ": ""
            },
            {
                "$type": "CENEPJCONAG",
                "type": "BODY_LANG",
                "delayTime": 5.199999809265137,
                "aliasList": [
                    "9024"
                ],
                "NNKEOHJCPOF": true,
                "MHDCNDAINCK": true,
                "LHIAJOBFNAK": false,
                "FOEKGLEJBIJ": ""
            }
        ],
        [
            {
                "$type": "KAGAFALAIGP",
                "type": "DIALOG",
                "aliasList": [
                    "9024"
                ],
                "JHEPJOMJJHH": 690240314,
                "OCILKFCPBNC": 0.5
            },
            {
                "$type": "LNLLGCOBDFC",
                "type": "EMO_SYNC",
                "aliasList": [
                    "9024"
                ],
                "LKHHGAGNMKM": "Cs_Emo_Avatar_Simple_Common_Set/Cs_Emo_Avatar_Talk/Cs_Emo_HomeWorld/Cs_Emo_Avatar_Beidou/Cs_Emo_690240314",
                "AIMKGPFAAAD": "",
                "IPEKOEDCGGF": "",
                "EJNFMNJKDAH": "",
                "LOOOCOLIHFA": "",
                "KJDLMAPPPMG": "",
                "EKJHPKFBONG": [
                    11292657133572906934,
                    12852369443309002854,
                    15860761291497190031,
                    17268604855119239755
                ]
            },
            {
                "$type": "CENEPJCONAG",
                "type": "BODY_LANG",
                "delayTime": 1.0,
                "aliasList": [
                    "9024"
                ],
                "OGFPAIKLDGB": 1190,
                "MHDCNDAINCK": true,
                "LHIAJOBFNAK": false,
                "FOEKGLEJBIJ": ""
            },
            {
                "$type": "CENEPJCONAG",
                "type": "BODY_LANG",
                "aliasList": [
                    "9024"
                ],
                "NNKEOHJCPOF": true,
                "MHDCNDAINCK": true,
                "LHIAJOBFNAK": false,
                "FOEKGLEJBIJ": ""
            }
        ],
        [
            {
                "$type": "KAGAFALAIGP",
                "type": "DIALOG",
                "aliasList": [
                    "9024"
                ],
                "JHEPJOMJJHH": 690240315,
                "OCILKFCPBNC": 0.5
            },
            {
                "$type": "CENEPJCONAG",
                "type": "BODY_LANG",
                "delayTime": 1.0,
                "aliasList": [
                    "9024"
                ],
                "OGFPAIKLDGB": 1230,
                "MHDCNDAINCK": true,
                "LHIAJOBFNAK": false,
                "FOEKGLEJBIJ": ""
            },
            {
                "$type": "LNLLGCOBDFC",
                "type": "EMO_SYNC",
                "aliasList": [
                    "9024"
                ],
                "LKHHGAGNMKM": "Cs_Emo_Avatar_Simple_Common_Set/Cs_Emo_Avatar_Talk/Cs_Emo_HomeWorld/Cs_Emo_Avatar_Beidou/Cs_Emo_690240315",
                "AIMKGPFAAAD": "",
                "IPEKOEDCGGF": "",
                "EJNFMNJKDAH": "",
                "LOOOCOLIHFA": "",
                "KJDLMAPPPMG": "",
                "HCOIDDGKHJC": false,
                "EKJHPKFBONG": [
                    818029318496552982,
                    2067745279712078899,
                    9962523172923305586,
                    2496440460227036807
                ]
            },
            {
                "$type": "CENEPJCONAG",
                "type": "BODY_LANG",
                "aliasList": [
                    "9024"
                ],
                "NNKEOHJCPOF": true,
                "MHDCNDAINCK": true,
                "LHIAJOBFNAK": false,
                "FOEKGLEJBIJ": ""
            }
        ],
        [
            {
                "$type": "MoleMole.Config.ConfigTimeProtectAction",
                "type": "TIME_PROTECT",
                "duration": 0.10000000149011612
            }
        ]
    ],
    "groupId": [
        {
            "grpId": 3212259009,
            "nextGrpId": 3212259010
        },
        {
            "index": 1,
            "grpId": 3212259010,
            "nextGrpId": 3212259011
        },
        {
            "index": 2,
            "grpId": 3212259011,
            "nextGrpId": 3212259012
        },
        {
            "index": 3,
            "grpId": 3212259012,
            "nextGrpId": 3212259013
        },
        {
            "index": 4,
            "grpId": 3212259013,
            "nextGrpId": 3212259014
        },
        {
            "index": 5,
            "grpId": 3212259014,
            "nextGrpId": 3212259015
        },
        {
            "index": 6,
            "grpId": 3212259015,
            "nextGrpId": 3212259016
        },
        {
            "index": 7,
            "grpId": 3212259016,
            "nextGrpId": 795781521
        },
        {
            "index": 8,
            "grpId": 3212259017,
            "nextGrpId": 795781519
        },
        {
            "index": 9,
            "grpId": 795781519,
            "nextGrpId": 795781520
        },
        {
            "index": 10,
            "grpId": 795781520,
            "nextGrpId": 795781521
        },
        {
            "index": 11,
            "grpId": 795781521,
            "nextGrpId": 795781522
        },
        {
            "index": 12,
            "grpId": 795781522,
            "nextGrpId": 795781523
        }
    ],
    "freeStyleDic": {
        "9024": [
            1120,
            1190,
            4031,
            1121,
            1172,
            1110,
            1230
        ]
    }
}