{
    "id": 1015,
    "KHGONCANKFN": 1005,
    "series": 1101,
    "titleTextMapHash": 2212320145,
    "descTextMapHash": 1687965807,
    "luaPath": "Actor/Quest/MQ1015",
    "suggestTrackMainQuestList": [
        1016
    ],
    "rewardIdList": [
        101015
    ],
    "chapterId": 1102,
    "subQuests": [
        {
            "subId": 101501,
            "mainId": 1015,
            "order": 1,
            "isMpBlock": true,
            "descTextMapHash": 976056246,
            "finishCond": [
                {
                    "type": "QUEST_CONTENT_FINISH_PLOT",
                    "param": [
                        101501,
                        0
                    ]
                }
            ],
            "guide": {
                "type": "QUEST_GUIDE_NPC",
                "param": [
                    "10233"
                ],
                "guideScene": 3,
                "guideStyle": "QUEST_GUIDE_STYLE_TARGET",
                "guideLayer": "QUEST_GUIDE_LAYER_SCENE"
            },
            "acceptCondComb": {
                "FDPBPIHKEGH": ""
            },
            "isRewind": true,
            "versionBegin": "",
            "versionEnd": ""
        },
        {
            "subId": 101502,
            "mainId": 1015,
            "order": 4,
            "descTextMapHash": 2007285246,
            "finishCond": [
                {
                    "type": "QUEST_CONTENT_FINISH_PLOT",
                    "param": [
                        101502,
                        0
                    ]
                }
            ],
            "guide": {
                "type": "QUEST_GUIDE_LOCATION",
                "param": [
                    "Q101503Trigger",
                    "40"
                ],
                "guideScene": 3,
                "guideStyle": "QUEST_GUIDE_STYLE_TARGET",
                "guideLayer": "QUEST_GUIDE_LAYER_SCENE"
            },
            "acceptCondComb": {
                "FDPBPIHKEGH": ""
            },
            "isRewind": true,
            "versionBegin": "",
            "versionEnd": ""
        },
        {
            "subId": 101503,
            "mainId": 1015,
            "order": 6,
            "isMpBlock": true,
            "descTextMapHash": 3544986846,
            "showType": "QUEST_HIDDEN",
            "finishCond": [
                {
                    "type": "QUEST_CONTENT_COMPLETE_TALK",
                    "param": [
                        101503,
                        0
                    ]
                }
            ],
            "guide": {},
            "acceptCondComb": {
                "FDPBPIHKEGH": ""
            },
            "versionBegin": "",
            "versionEnd": ""
        },
        {
            "subId": 101504,
            "mainId": 1015,
            "order": 7,
            "descTextMapHash": 1264572870,
            "finishCond": [
                {
                    "type": "QUEST_CONTENT_INTERACT_GADGET",
                    "param": [
                        71700102,
                        0
                    ]
                }
            ],
            "guide": {
                "type": "QUEST_GUIDE_LOCATION",
                "param": [
                    "Q101504Pos",
                    "35"
                ],
                "guideScene": 3,
                "guideStyle": "QUEST_GUIDE_STYLE_TARGET",
                "guideLayer": "QUEST_GUIDE_LAYER_SCENE"
            },
            "acceptCondComb": {
                "FDPBPIHKEGH": ""
            },
            "isRewind": true,
            "finishExec": [
                {
                    "type": "QUEST_EXEC_REFRESH_GROUP_SUITE",
                    "param": [
                        "3",
                        "133107079,1"
                    ]
                }
            ],
            "versionBegin": "",
            "versionEnd": ""
        },
        {
            "subId": 101505,
            "mainId": 1015,
            "order": 8,
            "descTextMapHash": 724698414,
            "finishCond": [
                {
                    "type": "QUEST_CONTENT_INTERACT_GADGET",
                    "param": [
                        71700107,
                        0
                    ]
                }
            ],
            "guide": {
                "type": "QUEST_GUIDE_LOCATION",
                "param": [
                    "Q101402Machine",
                    "25"
                ],
                "guideScene": 3,
                "guideStyle": "QUEST_GUIDE_STYLE_TARGET",
                "guideLayer": "QUEST_GUIDE_LAYER_SCENE"
            },
            "acceptCondComb": {
                "FDPBPIHKEGH": ""
            },
            "isRewind": true,
            "finishExec": [
                {
                    "type": "QUEST_EXEC_REFRESH_GROUP_SUITE",
                    "param": [
                        "3",
                        "133107080,1"
                    ]
                },
                {
                    "type": "QUEST_EXEC_DEL_PACK_ITEM",
                    "param": [
                        "100502",
                        "1"
                    ]
                },
                {
                    "type": "QUEST_EXEC_DEL_PACK_ITEM",
                    "param": [
                        "100523",
                        "1"
                    ]
                }
            ],
            "versionBegin": "",
            "versionEnd": ""
        },
        {
            "subId": 101506,
            "mainId": 1015,
            "order": 9,
            "isMpBlock": true,
            "descTextMapHash": 751769294,
            "showType": "QUEST_HIDDEN",
            "finishCond": [
                {
                    "type": "QUEST_CONTENT_FINISH_PLOT",
                    "param": [
                        101506,
                        0
                    ]
                }
            ],
            "guide": {
                "type": "QUEST_GUIDE_LOCATION",
                "param": [
                    "Q101402Machine"
                ],
                "guideScene": 3,
                "guideStyle": "QUEST_GUIDE_STYLE_TARGET",
                "guideLayer": "QUEST_GUIDE_LAYER_SCENE"
            },
            "acceptCondComb": {
                "FDPBPIHKEGH": ""
            },
            "finishExec": [
                {
                    "type": "QUEST_EXEC_REFRESH_GROUP_SUITE",
                    "param": [
                        "3",
                        "133107092,2"
                    ]
                }
            ],
            "versionBegin": "",
            "versionEnd": ""
        },
        {
            "subId": 101507,
            "mainId": 1015,
            "order": 13,
            "descTextMapHash": 506653846,
            "finishCond": [
                {
                    "type": "QUEST_CONTENT_COMPLETE_TALK",
                    "param": [
                        101507,
                        0
                    ]
                }
            ],
            "guide": {
                "type": "QUEST_GUIDE_NPC",
                "param": [
                    "10233"
                ],
                "guideScene": 3,
                "guideStyle": "QUEST_GUIDE_STYLE_TARGET",
                "guideLayer": "QUEST_GUIDE_LAYER_SCENE"
            },
            "acceptCondComb": {
                "FDPBPIHKEGH": ""
            },
            "isRewind": true,
            "versionBegin": "",
            "versionEnd": ""
        },
        {
            "subId": 101508,
            "mainId": 1015,
            "order": 5,
            "isMpBlock": true,
            "descTextMapHash": 593902134,
            "finishCond": [
                {
                    "type": "QUEST_CONTENT_INTERACT_GADGET",
                    "param": [
                        71700100,
                        0
                    ]
                }
            ],
            "guide": {
                "type": "QUEST_GUIDE_LOCATION",
                "param": [
                    "Q101402Machine",
                    "25"
                ],
                "guideScene": 3,
                "guideStyle": "QUEST_GUIDE_STYLE_TARGET",
                "guideLayer": "QUEST_GUIDE_LAYER_SCENE"
            },
            "acceptCondComb": {
                "FDPBPIHKEGH": ""
            },
            "isRewind": true,
            "versionBegin": "",
            "versionEnd": ""
        },
        {
            "subId": 101509,
            "mainId": 1015,
            "order": 3,
            "descTextMapHash": 3277953846,
            "finishCond": [
                {
                    "type": "QUEST_CONTENT_COMPLETE_TALK",
                    "param": [
                        101509,
                        0
                    ]
                }
            ],
            "guide": {
                "type": "QUEST_GUIDE_NPC",
                "param": [
                    "10233"
                ],
                "guideScene": 3,
                "guideStyle": "QUEST_GUIDE_STYLE_TARGET",
                "guideLayer": "QUEST_GUIDE_LAYER_SCENE"
            },
            "acceptCondComb": {
                "FDPBPIHKEGH": ""
            },
            "isRewind": true,
            "versionBegin": "",
            "versionEnd": ""
        },
        {
            "subId": 101510,
            "mainId": 1015,
            "order": 11,
            "isMpBlock": true,
            "descTextMapHash": 1679616238,
            "finishCond": [
                {
                    "type": "QUEST_CONTENT_LUA_NOTIFY",
                    "param": [
                        0,
                        0
                    ],
                    "count": 1
                }
            ],
            "failCond": [
                {
                    "type": "QUEST_CONTENT_NOT_FINISH_PLOT",
                    "param": [
                        101510,
                        0
                    ]
                },
                {
                    "type": "QUEST_CONTENT_TEAM_DEAD",
                    "param": [
                        0,
                        0
                    ]
                }
            ],
            "guide": {
                "type": "QUEST_GUIDE_LOCATION",
                "param": [
                    "Q101504Guild",
                    "35"
                ],
                "guideScene": 3,
                "guideStyle": "QUEST_GUIDE_STYLE_TARGET",
                "guideLayer": "QUEST_GUIDE_LAYER_SCENE"
            },
            "acceptCondComb": {
                "FDPBPIHKEGH": ""
            },
            "isRewind": true,
            "finishExec": [
                {
                    "type": "QUEST_EXEC_REFRESH_GROUP_SUITE",
                    "param": [
                        "3",
                        "133107080,1"
                    ]
                }
            ],
            "failExec": [
                {
                    "type": "QUEST_EXEC_REFRESH_GROUP_SUITE",
                    "param": [
                        "3",
                        "133107080,1"
                    ]
                },
                {
                    "type": "QUEST_EXEC_ROLLBACK_QUEST",
                    "param": [
                        "101505"
                    ]
                }
            ],
            "versionBegin": "",
            "versionEnd": ""
        },
        {
            "subId": 101511,
            "mainId": 1015,
            "order": 14,
            "isMpBlock": true,
            "descTextMapHash": 3172241982,
            "finishCond": [
                {
                    "type": "QUEST_CONTENT_FINISH_PLOT",
                    "param": [
                        101511,
                        0
                    ]
                }
            ],
            "guide": {
                "type": "QUEST_GUIDE_NPC",
                "param": [
                    "10232"
                ],
                "guideScene": 3,
                "guideStyle": "QUEST_GUIDE_STYLE_TARGET",
                "guideLayer": "QUEST_GUIDE_LAYER_SCENE"
            },
            "acceptCondComb": {
                "FDPBPIHKEGH": ""
            },
            "isRewind": true,
            "finishExec": [
                {
                    "type": "QUEST_EXEC_NOTIFY_GROUP_LUA",
                    "param": [
                        "3",
                        "133107089"
                    ]
                }
            ],
            "versionBegin": "",
            "versionEnd": ""
        },
        {
            "subId": 101512,
            "mainId": 1015,
            "order": 15,
            "isMpBlock": true,
            "descTextMapHash": 1631857854,
            "showType": "QUEST_HIDDEN",
            "finishCond": [
                {
                    "type": "QUEST_CONTENT_COMPLETE_TALK",
                    "param": [
                        101511,
                        0
                    ]
                }
            ],
            "guide": {
                "type": "QUEST_GUIDE_NPC",
                "param": [
                    "10232"
                ],
                "guideScene": 3,
                "guideStyle": "QUEST_GUIDE_STYLE_TARGET",
                "guideLayer": "QUEST_GUIDE_LAYER_SCENE"
            },
            "acceptCondComb": {
                "FDPBPIHKEGH": ""
            },
            "finishParent": true,
            "finishExec": [
                {
                    "type": "QUEST_EXEC_DEL_PACK_ITEM",
                    "param": [
                        "100522",
                        "1"
                    ]
                }
            ],
            "versionBegin": "",
            "versionEnd": ""
        },
        {
            "subId": 101513,
            "mainId": 1015,
            "order": 2,
            "isMpBlock": true,
            "descTextMapHash": 202009230,
            "showType": "QUEST_HIDDEN",
            "finishCond": [
                {
                    "type": "QUEST_CONTENT_COMPLETE_TALK",
                    "param": [
                        101513,
                        0
                    ]
                }
            ],
            "guide": {
                "type": "QUEST_GUIDE_NPC",
                "param": [
                    "10233"
                ],
                "guideScene": 3,
                "guideStyle": "QUEST_GUIDE_STYLE_TARGET",
                "guideLayer": "QUEST_GUIDE_LAYER_SCENE"
            },
            "acceptCondComb": {
                "FDPBPIHKEGH": ""
            },
            "versionBegin": "",
            "versionEnd": ""
        },
        {
            "subId": 101514,
            "mainId": 1015,
            "order": 12,
            "isMpBlock": true,
            "descTextMapHash": 2111547382,
            "showType": "QUEST_HIDDEN",
            "finishCond": [
                {
                    "type": "QUEST_CONTENT_COMPLETE_TALK",
                    "param": [
                        101514,
                        0
                    ]
                }
            ],
            "guide": {
                "type": "QUEST_GUIDE_NPC",
                "param": [
                    "10233"
                ],
                "guideScene": 3,
                "guideStyle": "QUEST_GUIDE_STYLE_TARGET",
                "guideLayer": "QUEST_GUIDE_LAYER_SCENE"
            },
            "acceptCondComb": {
                "FDPBPIHKEGH": ""
            },
            "isRewind": true,
            "versionBegin": "",
            "versionEnd": ""
        },
        {
            "subId": 101515,
            "mainId": 1015,
            "order": 10,
            "isMpBlock": true,
            "descTextMapHash": 706394454,
            "showType": "QUEST_HIDDEN",
            "finishCond": [
                {
                    "type": "QUEST_CONTENT_COMPLETE_TALK",
                    "param": [
                        101506,
                        0
                    ]
                }
            ],
            "guide": {
                "type": "QUEST_GUIDE_LOCATION",
                "param": [
                    "Q101402Machine"
                ],
                "guideScene": 3,
                "guideStyle": "QUEST_GUIDE_STYLE_TARGET",
                "guideLayer": "QUEST_GUIDE_LAYER_SCENE"
            },
            "acceptCondComb": {
                "FDPBPIHKEGH": ""
            },
            "versionBegin": "",
            "versionEnd": ""
        },
        {
            "subId": 101516,
            "mainId": 1015,
            "order": 3,
            "isMpBlock": true,
            "descTextMapHash": 2630094158,
            "showType": "QUEST_HIDDEN",
            "finishCond": [
                {
                    "type": "QUEST_CONTENT_FINISH_PLOT",
                    "param": [
                        101516,
                        0
                    ]
                }
            ],
            "guide": {
                "type": "QUEST_GUIDE_NPC",
                "param": [
                    "10233"
                ],
                "guideScene": 3,
                "guideStyle": "QUEST_GUIDE_STYLE_TARGET",
                "guideLayer": "QUEST_GUIDE_LAYER_SCENE"
            },
            "acceptCondComb": {
                "FDPBPIHKEGH": ""
            },
            "isRewind": true,
            "versionBegin": "",
            "versionEnd": ""
        }
    ],
    "talks": [
        {
            "id": 101503,
            "beginWay": "TALK_BEGIN_AUTO",
            "beginCond": [
                {
                    "type": "QUEST_COND_STATE_EQUAL",
                    "param": [
                        "101503",
                        "2"
                    ]
                }
            ],
            "priority": 6,
            "initDialog": 10150301,
            "npcId": [
                1005
            ],
            "performCfg": "QuestDialogue/AQ/Liyue1_1015/Q101503",
            "questId": 1015,
            "assetIndex": 16767088202343054381,
            "prePerformCfg": ""
        },
        {
            "id": 101506,
            "beginWay": "TALK_BEGIN_AUTO",
            "beginCond": [
                {
                    "type": "QUEST_COND_STATE_EQUAL",
                    "param": [
                        "101506",
                        "2"
                    ]
                }
            ],
            "priority": 6,
            "initDialog": 10150601,
            "npcId": [
                1005
            ],
            "performCfg": "QuestDialogue/AQ/Liyue1_1015/Q101506",
            "questId": 1015,
            "assetIndex": 11931629650663474936,
            "prePerformCfg": ""
        },
        {
            "id": 101507,
            "beginWay": "TALK_BEGIN_MANUAL",
            "beginCond": [
                {
                    "type": "QUEST_COND_STATE_EQUAL",
                    "param": [
                        "101507",
                        "2"
                    ]
                }
            ],
            "priority": 6,
            "initDialog": 10150701,
            "npcId": [
                10233
            ],
            "performCfg": "QuestDialogue/AQ/Liyue1_1015/Q101507",
            "questId": 1015,
            "assetIndex": 2027950239520452142,
            "prePerformCfg": ""
        },
        {
            "id": 101509,
            "beginWay": "TALK_BEGIN_AUTO",
            "beginCond": [
                {
                    "type": "QUEST_COND_STATE_EQUAL",
                    "param": [
                        "101509",
                        "2"
                    ]
                }
            ],
            "priority": 6,
            "initDialog": 10150901,
            "npcId": [
                10233
            ],
            "performCfg": "QuestDialogue/AQ/Liyue1_1015/Q101509",
            "questId": 1015,
            "assetIndex": 7905232409915213952,
            "prePerformCfg": ""
        },
        {
            "id": 101511,
            "beginWay": "TALK_BEGIN_MANUAL",
            "beginCond": [
                {
                    "type": "QUEST_COND_STATE_EQUAL",
                    "param": [
                        "101511",
                        "2"
                    ]
                }
            ],
            "priority": 6,
            "initDialog": 10151101,
            "npcId": [
                10232
            ],
            "performCfg": "QuestDialogue/AQ/Liyue1_1015/Q101511",
            "questId": 1015,
            "assetIndex": 7961375423953132287,
            "prePerformCfg": ""
        },
        {
            "id": 101513,
            "beginWay": "TALK_BEGIN_AUTO",
            "beginCond": [
                {
                    "type": "QUEST_COND_STATE_EQUAL",
                    "param": [
                        "101513",
                        "2"
                    ]
                }
            ],
            "priority": 6,
            "initDialog": 10151301,
            "npcId": [
                1005
            ],
            "performCfg": "QuestDialogue/AQ/Liyue1_1015/Q101513",
            "questId": 1015,
            "assetIndex": 18265677175060452293,
            "prePerformCfg": ""
        },
        {
            "id": 101514,
            "beginWay": "TALK_BEGIN_AUTO",
            "beginCond": [
                {
                    "type": "QUEST_COND_STATE_EQUAL",
                    "param": [
                        "101514",
                        "2"
                    ]
                }
            ],
            "priority": 6,
            "initDialog": 10151401,
            "npcId": [
                1005
            ],
            "performCfg": "QuestDialogue/AQ/Liyue1_1015/Q101514",
            "questId": 1015,
            "assetIndex": 1576017511572422768,
            "prePerformCfg": ""
        },
        {
            "id": 10150701,
            "beginWay": "TALK_BEGIN_MANUAL",
            "beginCond": [
                {
                    "type": "QUEST_COND_STATE_EQUAL",
                    "param": [
                        "101511",
                        "2"
                    ]
                }
            ],
            "priority": 5,
            "initDialog": 1015070101,
            "npcId": [
                10233
            ],
            "performCfg": "",
            "heroTalk": "TALK_HERO_MAIN",
            "questId": 1015,
            "assetIndex": 15847209808696799289,
            "prePerformCfg": ""
        },
        {
            "id": 10150702,
            "beginWay": "TALK_BEGIN_MANUAL",
            "beginCond": [
                {
                    "type": "QUEST_COND_STATE_EQUAL",
                    "param": [
                        "101511",
                        "2"
                    ]
                }
            ],
            "priority": 5,
            "initDialog": 1015070201,
            "npcId": [
                10234
            ],
            "performCfg": "QuestDialogue/AQ/Liyue1_1015/Q10150702",
            "heroTalk": "TALK_HERO_MAIN",
            "questId": 1015,
            "assetIndex": 4947749528876386438,
            "prePerformCfg": ""
        },
        {
            "id": 10150901,
            "beginWay": "TALK_BEGIN_MANUAL",
            "beginCond": [
                {
                    "type": "QUEST_COND_STATE_EQUAL",
                    "param": [
                        "101509",
                        "3"
                    ]
                }
            ],
            "priority": 4,
            "initDialog": 1015090101,
            "npcId": [
                10233
            ],
            "performCfg": "",
            "heroTalk": "TALK_HERO_MAIN",
            "questId": 1015,
            "assetIndex": 17812610381920255504,
            "prePerformCfg": ""
        }
    ],
    "FFDPMMFBDAE": [
        4543246233805805157,
        14457059026087496718,
        6039479343307849609,
        1607179325740664159,
        5360953982388795657,
        2092883341959037339
    ],
    "IGKJEKALOKN": [
        8985844612221926239,
        15540213080997503925
    ],
    "freeStyleDic": {
        "1005": [
            4260
        ],
        "10232": [
            4260
        ],
        "10233": [
            4260
        ],
        "10238": [
            4260
        ],
        "10247": [
            4260
        ],
        "10255": [
            4260
        ]
    }
}