{
    "id": 1028,
    "KHGONCANKFN": 1014,
    "series": 1207,
    "titleTextMapHash": 497481909,
    "descTextMapHash": 3440538462,
    "luaPath": "Actor/Quest/AQ1028",
    "suggestTrackMainQuestList": [
        1029
    ],
    "rewardIdList": [
        101028
    ],
    "chapterId": 1207,
    "subQuests": [
        {
            "subId": 102801,
            "mainId": 1028,
            "order": 1,
            "descTextMapHash": 2475799548,
            "finishCond": [
                {
                    "type": "QUEST_CONTENT_ENTER_DUNGEON",
                    "param": [
                        1131,
                        1
                    ]
                }
            ],
            "guide": {
                "type": "QUEST_GUIDE_LOCATION",
                "param": [
                    "Q102801_guide"
                ],
                "guideScene": 20130,
                "guideStyle": "QUEST_GUIDE_STYLE_TARGET",
                "guideLayer": "QUEST_GUIDE_LAYER_SCENE"
            },
            "showGuide": "QUEST_GUIDE_ITEM_DISABLE",
            "acceptCondComb": {
                "FDPBPIHKEGH": ""
            },
            "isRewind": true,
            "finishExec": [
                {
                    "type": "QUEST_EXEC_REFRESH_GROUP_SUITE",
                    "param": [
                        "20130",
                        "220130006,2"
                    ]
                }
            ],
            "versionBegin": "",
            "versionEnd": ""
        },
        {
            "subId": 102802,
            "mainId": 1028,
            "order": 7,
            "subIdSet": 102801,
            "descTextMapHash": 1591030452,
            "finishCond": [
                {
                    "type": "QUEST_CONTENT_COMPLETE_TALK",
                    "param": [
                        102807,
                        0
                    ]
                }
            ],
            "guide": {
                "type": "QUEST_GUIDE_NPC",
                "param": [
                    "1048"
                ],
                "guideScene": 20130,
                "guideStyle": "QUEST_GUIDE_STYLE_TARGET",
                "guideLayer": "QUEST_GUIDE_LAYER_SCENE"
            },
            "acceptCondComb": {
                "FDPBPIHKEGH": ""
            },
            "versionBegin": "",
            "versionEnd": ""
        },
        {
            "subId": 102803,
            "mainId": 1028,
            "order": 3,
            "descTextMapHash": 3634810508,
            "finishCond": [
                {
                    "type": "QUEST_CONTENT_LEAVE_SCENE",
                    "param": [
                        20127,
                        0
                    ]
                }
            ],
            "guide": {
                "guideStyle": "QUEST_GUIDE_STYLE_POINT",
                "guideLayer": "QUEST_GUIDE_LAYER_SCENE"
            },
            "showGuide": "QUEST_GUIDE_ITEM_DISABLE",
            "acceptCondComb": {
                "FDPBPIHKEGH": ""
            },
            "isRewind": true,
            "finishExec": [
                {
                    "type": "QUEST_EXEC_LOCK_POINT",
                    "param": [
                        "20130",
                        "1"
                    ]
                }
            ],
            "versionBegin": "",
            "versionEnd": ""
        },
        {
            "subId": 102804,
            "mainId": 1028,
            "order": 4,
            "descTextMapHash": 2628846756,
            "finishCond": [
                {
                    "type": "QUEST_CONTENT_COMPLETE_TALK",
                    "param": [
                        102804,
                        0
                    ]
                }
            ],
            "guide": {
                "type": "QUEST_GUIDE_NPC",
                "param": [
                    "1030"
                ],
                "guideScene": 20130,
                "guideStyle": "QUEST_GUIDE_STYLE_TARGET",
                "guideLayer": "QUEST_GUIDE_LAYER_SCENE"
            },
            "acceptCondComb": {
                "FDPBPIHKEGH": ""
            },
            "isRewind": true,
            "finishExec": [
                {
                    "type": "QUEST_EXEC_REFRESH_GROUP_SUITE",
                    "param": [
                        "20130",
                        "220130041,2"
                    ]
                }
            ],
            "versionBegin": "",
            "versionEnd": ""
        },
        {
            "subId": 102805,
            "mainId": 1028,
            "order": 6,
            "subIdSet": 102801,
            "descTextMapHash": 717726932,
            "stepDescTextMapHash": 2668109581,
            "finishCond": [
                {
                    "type": "QUEST_CONTENT_COMPLETE_TALK",
                    "param": [
                        102806,
                        0
                    ]
                }
            ],
            "guide": {
                "type": "QUEST_GUIDE_NPC",
                "param": [
                    "1030"
                ],
                "guideScene": 20130,
                "guideStyle": "QUEST_GUIDE_STYLE_TARGET",
                "guideLayer": "QUEST_GUIDE_LAYER_SCENE"
            },
            "acceptCondComb": {
                "FDPBPIHKEGH": ""
            },
            "isRewind": true,
            "versionBegin": "",
            "versionEnd": ""
        },
        {
            "subId": 102806,
            "mainId": 1028,
            "order": 8,
            "subIdSet": 102801,
            "descTextMapHash": 1007045420,
            "finishCond": [
                {
                    "type": "QUEST_CONTENT_COMPLETE_TALK",
                    "param": [
                        102808,
                        0
                    ]
                }
            ],
            "guide": {
                "type": "QUEST_GUIDE_NPC",
                "param": [
                    "1044"
                ],
                "guideScene": 20130,
                "guideStyle": "QUEST_GUIDE_STYLE_TARGET",
                "guideLayer": "QUEST_GUIDE_LAYER_SCENE"
            },
            "acceptCondComb": {
                "FDPBPIHKEGH": ""
            },
            "versionBegin": "",
            "versionEnd": ""
        },
        {
            "subId": 102807,
            "mainId": 1028,
            "order": 9,
            "descTextMapHash": 3371022764,
            "showType": "QUEST_HIDDEN",
            "finishCond": [
                {
                    "type": "QUEST_CONTENT_COMPLETE_TALK",
                    "param": [
                        102808,
                        0
                    ]
                },
                {
                    "type": "QUEST_CONTENT_COMPLETE_TALK",
                    "param": [
                        102806,
                        0
                    ]
                },
                {
                    "type": "QUEST_CONTENT_COMPLETE_TALK",
                    "param": [
                        102807,
                        0
                    ]
                }
            ],
            "guide": {
                "guideScene": 20130,
                "guideLayer": "QUEST_GUIDE_LAYER_SCENE"
            },
            "showGuide": "QUEST_GUIDE_ITEM_DISABLE",
            "acceptCondComb": {
                "FDPBPIHKEGH": ""
            },
            "finishParent": true,
            "versionBegin": "",
            "versionEnd": ""
        },
        {
            "subId": 102808,
            "mainId": 1028,
            "order": 2,
            "descTextMapHash": 2704484764,
            "finishCond": [
                {
                    "type": "QUEST_CONTENT_LUA_NOTIFY",
                    "param": [
                        0,
                        0
                    ],
                    "count": 1
                }
            ],
            "failCond": [
                {
                    "type": "QUEST_CONTENT_LEAVE_SCENE",
                    "param": [
                        20127,
                        0
                    ]
                }
            ],
            "guide": {},
            "acceptCondComb": {
                "FDPBPIHKEGH": ""
            },
            "isRewind": true,
            "failExec": [
                {
                    "type": "QUEST_EXEC_ROLLBACK_QUEST",
                    "param": [
                        "102801"
                    ]
                }
            ],
            "versionBegin": "",
            "versionEnd": ""
        },
        {
            "subId": 102809,
            "mainId": 1028,
            "order": 5,
            "descTextMapHash": 2189082540,
            "showType": "QUEST_HIDDEN",
            "finishCond": [
                {
                    "type": "QUEST_CONTENT_FINISH_PLOT",
                    "param": [
                        102809,
                        0
                    ]
                }
            ],
            "guide": {},
            "acceptCondComb": {
                "FDPBPIHKEGH": ""
            },
            "finishExec": [
                {
                    "type": "QUEST_EXEC_REFRESH_GROUP_SUITE",
                    "param": [
                        "20130",
                        "220130041,2"
                    ]
                }
            ],
            "versionBegin": "",
            "versionEnd": ""
        }
    ],
    "talks": [
        {
            "id": 102804,
            "beginWay": "TALK_BEGIN_MANUAL",
            "beginCond": [
                {
                    "type": "QUEST_COND_STATE_EQUAL",
                    "param": [
                        "102804",
                        "2"
                    ]
                }
            ],
            "priority": 5,
            "initDialog": 10280401,
            "npcId": [
                1030
            ],
            "performCfg": "QuestDialogue/AQ/Liyue5_1028/Q102804",
            "heroTalk": "TALK_HERO_MAIN",
            "questId": 1028,
            "assetIndex": 4824066924344796737,
            "prePerformCfg": ""
        },
        {
            "id": 102806,
            "beginWay": "TALK_BEGIN_MANUAL",
            "beginCond": [
                {
                    "type": "QUEST_COND_STATE_EQUAL",
                    "param": [
                        "102807",
                        "2"
                    ]
                }
            ],
            "priority": 5,
            "initDialog": 10280601,
            "npcId": [
                1030
            ],
            "performCfg": "QuestDialogue/AQ/Liyue5_1028/Q102806",
            "heroTalk": "TALK_HERO_MAIN",
            "questId": 1028,
            "assetIndex": 2293807422929259109,
            "prePerformCfg": "",
            "stayFreeStyle": true
        },
        {
            "id": 102807,
            "beginWay": "TALK_BEGIN_MANUAL",
            "beginCond": [
                {
                    "type": "QUEST_COND_STATE_EQUAL",
                    "param": [
                        "102807",
                        "2"
                    ]
                }
            ],
            "priority": 5,
            "initDialog": 10280701,
            "npcId": [
                1048
            ],
            "performCfg": "QuestDialogue/AQ/Liyue5_1028/Q102807",
            "heroTalk": "TALK_HERO_MAIN",
            "questId": 1028,
            "assetIndex": 16875502725984477742,
            "prePerformCfg": "",
            "stayFreeStyle": true
        },
        {
            "id": 102808,
            "beginWay": "TALK_BEGIN_MANUAL",
            "beginCond": [
                {
                    "type": "QUEST_COND_STATE_EQUAL",
                    "param": [
                        "102807",
                        "2"
                    ]
                }
            ],
            "priority": 5,
            "initDialog": 10280801,
            "npcId": [
                1044
            ],
            "performCfg": "QuestDialogue/AQ/Liyue5_1028/Q102808",
            "heroTalk": "TALK_HERO_MAIN",
            "questId": 1028,
            "assetIndex": 9773787108493237455,
            "prePerformCfg": "",
            "stayFreeStyle": true
        }
    ],
    "freeStyleDic": {
        "1030": [
            1230
        ],
        "1048": [
            1120
        ],
        "1049": [
            1170
        ]
    }
}