{
    "id": 11014,
    "KHGONCANKFN": 1013,
    "series": 1205,
    "titleTextMapHash": 3024777143,
    "descTextMapHash": 199536966,
    "luaPath": "Actor/Quest/AQ11014",
    "suggestTrackMainQuestList": [
        11015
    ],
    "rewardIdList": [
        111014
    ],
    "chapterId": 1205,
    "subQuests": [
        {
            "subId": 1101401,
            "mainId": 11014,
            "order": 3,
            "descTextMapHash": 382905332,
            "exclusivePlaceList": [
                1100901
            ],
            "finishCond": [
                {
                    "type": "QUEST_CONTENT_COMPLETE_TALK",
                    "param": [
                        1101401,
                        0
                    ]
                },
                {
                    "type": "QUEST_CONTENT_COMPLETE_TALK",
                    "param": [
                        1101438,
                        0
                    ]
                }
            ],
            "guide": {
                "type": "QUEST_GUIDE_NPC",
                "autoGuide": "QUEST_GUIDE_AUTO_ENABLE",
                "param": [
                    "2143"
                ],
                "guideScene": 3,
                "guideStyle": "QUEST_GUIDE_STYLE_TARGET",
                "guideLayer": "QUEST_GUIDE_LAYER_SCENE"
            },
            "acceptCondComb": {
                "FDPBPIHKEGH": ""
            },
            "isRewind": true,
            "versionBegin": "",
            "versionEnd": ""
        },
        {
            "subId": 1101402,
            "mainId": 11014,
            "order": 4,
            "descTextMapHash": 3257040452,
            "stepDescTextMapHash": 3479164357,
            "exclusivePlaceList": [
                11014,
                1100901,
                1101499
            ],
            "finishCond": [
                {
                    "type": "QUEST_CONTENT_COMPLETE_TALK",
                    "param": [
                        1101402,
                        0
                    ]
                }
            ],
            "guide": {
                "type": "QUEST_GUIDE_NPC",
                "autoGuide": "QUEST_GUIDE_AUTO_ENABLE",
                "param": [
                    "2048"
                ],
                "guideScene": 3,
                "guideStyle": "QUEST_GUIDE_STYLE_TARGET",
                "guideLayer": "QUEST_GUIDE_LAYER_SCENE"
            },
            "acceptCondComb": {
                "FDPBPIHKEGH": ""
            },
            "isRewind": true,
            "versionBegin": "",
            "versionEnd": ""
        },
        {
            "subId": 1101403,
            "mainId": 11014,
            "order": 7,
            "subIdSet": 1,
            "descTextMapHash": 2684810484,
            "exclusivePlaceList": [
                1100901,
                1101499
            ],
            "finishCond": [
                {
                    "type": "QUEST_CONTENT_LUA_NOTIFY",
                    "param": [
                        0,
                        0
                    ],
                    "count": 2
                }
            ],
            "guide": {
                "type": "QUEST_GUIDE_LOCATION",
                "autoGuide": "QUEST_GUIDE_AUTO_ENABLE",
                "param": [
                    "Q11014SearchArea",
                    "55"
                ],
                "guideScene": 3,
                "guideStyle": "QUEST_GUIDE_STYLE_TARGET",
                "guideLayer": "QUEST_GUIDE_LAYER_SCENE"
            },
            "acceptCondComb": {
                "FDPBPIHKEGH": ""
            },
            "isRewind": true,
            "versionBegin": "",
            "versionEnd": ""
        },
        {
            "subId": 1101404,
            "mainId": 11014,
            "order": 8,
            "descTextMapHash": 1263839260,
            "stepDescTextMapHash": 1870580461,
            "exclusivePlaceList": [
                1100901,
                1101499
            ],
            "finishCond": [
                {
                    "type": "QUEST_CONTENT_COMPLETE_TALK",
                    "param": [
                        1101403,
                        0
                    ]
                }
            ],
            "guide": {
                "type": "QUEST_GUIDE_NPC",
                "autoGuide": "QUEST_GUIDE_AUTO_ENABLE",
                "param": [
                    "12333"
                ],
                "guideScene": 3,
                "guideStyle": "QUEST_GUIDE_STYLE_TARGET",
                "guideLayer": "QUEST_GUIDE_LAYER_SCENE"
            },
            "acceptCondComb": {
                "FDPBPIHKEGH": ""
            },
            "isRewind": true,
            "finishExec": [
                {
                    "type": "QUEST_EXEC_UNREGISTER_DYNAMIC_GROUP",
                    "param": [
                        "133107205"
                    ]
                }
            ],
            "versionBegin": "",
            "versionEnd": ""
        },
        {
            "subId": 1101405,
            "mainId": 11014,
            "order": 9,
            "descTextMapHash": 2193949396,
            "showType": "QUEST_HIDDEN",
            "finishCond": [
                {
                    "type": "QUEST_CONTENT_LUA_NOTIFY",
                    "param": [
                        0,
                        0
                    ],
                    "count": 1
                }
            ],
            "guide": {
                "guideScene": 3,
                "guideLayer": "QUEST_GUIDE_LAYER_SCENE"
            },
            "showGuide": "QUEST_GUIDE_ITEM_DISABLE",
            "acceptCondComb": {
                "FDPBPIHKEGH": ""
            },
            "failParentShow": "QUEST_HIDDEN",
            "versionBegin": "",
            "versionEnd": ""
        },
        {
            "subId": 1101406,
            "mainId": 11014,
            "order": 16,
            "descTextMapHash": 198450124,
            "exclusivePlaceList": [
                1100901,
                1101499
            ],
            "finishCond": [
                {
                    "type": "QUEST_CONTENT_COMPLETE_TALK",
                    "param": [
                        1101407,
                        0
                    ]
                }
            ],
            "guide": {
                "type": "QUEST_GUIDE_NPC",
                "autoGuide": "QUEST_GUIDE_AUTO_ENABLE",
                "param": [
                    "1045"
                ],
                "guideScene": 3,
                "guideStyle": "QUEST_GUIDE_STYLE_TARGET",
                "guideLayer": "QUEST_GUIDE_LAYER_SCENE"
            },
            "acceptCondComb": {
                "FDPBPIHKEGH": ""
            },
            "isRewind": true,
            "finishExec": [
                {
                    "type": "QUEST_EXEC_DEL_SCENE_TAG",
                    "param": [
                        "3",
                        "130"
                    ]
                },
                {
                    "type": "QUEST_EXEC_ADD_SCENE_TAG",
                    "param": [
                        "3",
                        "131"
                    ]
                }
            ],
            "versionBegin": "",
            "versionEnd": ""
        },
        {
            "subId": 1101407,
            "mainId": 11014,
            "order": 22,
            "descTextMapHash": 1861506700,
            "exclusivePlaceList": [
                1100901,
                1101499
            ],
            "finishCond": [
                {
                    "type": "QUEST_CONTENT_LUA_NOTIFY",
                    "param": [
                        0,
                        0
                    ],
                    "count": 1
                }
            ],
            "guide": {
                "type": "QUEST_GUIDE_LOCATION",
                "autoGuide": "QUEST_GUIDE_AUTO_ENABLE",
                "param": [
                    "Q11014SearchAnswerPoint",
                    "40"
                ],
                "guideScene": 3,
                "guideStyle": "QUEST_GUIDE_STYLE_TARGET",
                "guideLayer": "QUEST_GUIDE_LAYER_SCENE"
            },
            "acceptCondComb": {
                "FDPBPIHKEGH": ""
            },
            "isRewind": true,
            "finishExec": [
                {
                    "type": "QUEST_EXEC_UNREGISTER_DYNAMIC_GROUP",
                    "param": [
                        "133107240"
                    ]
                }
            ],
            "versionBegin": "",
            "versionEnd": ""
        },
        {
            "subId": 1101408,
            "mainId": 11014,
            "order": 94,
            "descTextMapHash": 916756828,
            "finishCond": [
                {
                    "type": "QUEST_CONTENT_COMPLETE_TALK",
                    "param": [
                        1101408,
                        0
                    ]
                }
            ],
            "guide": {
                "type": "QUEST_GUIDE_NPC",
                "autoGuide": "QUEST_GUIDE_AUTO_ENABLE",
                "param": [
                    "1045"
                ],
                "guideScene": 3,
                "guideStyle": "QUEST_GUIDE_STYLE_TARGET",
                "guideLayer": "QUEST_GUIDE_LAYER_SCENE"
            },
            "acceptCondComb": {
                "FDPBPIHKEGH": ""
            },
            "isRewind": true,
            "finishExec": [
                {
                    "type": "QUEST_EXEC_UNREGISTER_DYNAMIC_GROUP",
                    "param": [
                        "133107208"
                    ]
                }
            ],
            "versionBegin": "",
            "versionEnd": ""
        },
        {
            "subId": 1101409,
            "mainId": 11014,
            "order": 95,
            "descTextMapHash": 48070852,
            "finishCond": [
                {
                    "type": "QUEST_CONTENT_COMPLETE_TALK",
                    "param": [
                        1101406,
                        0
                    ]
                }
            ],
            "guide": {
                "guideScene": 3,
                "guideLayer": "QUEST_GUIDE_LAYER_SCENE"
            },
            "showGuide": "QUEST_GUIDE_ITEM_DISABLE",
            "acceptCondComb": {
                "FDPBPIHKEGH": ""
            },
            "versionBegin": "",
            "versionEnd": ""
        },
        {
            "subId": 1101410,
            "mainId": 11014,
            "order": 23,
            "descTextMapHash": 1694315164,
            "stepDescTextMapHash": 2096327309,
            "exclusivePlaceList": [
                11014,
                1100901,
                1101499
            ],
            "finishCond": [
                {
                    "type": "QUEST_CONTENT_COMPLETE_TALK",
                    "param": [
                        1101408,
                        0
                    ]
                }
            ],
            "guide": {
                "type": "QUEST_GUIDE_NPC",
                "autoGuide": "QUEST_GUIDE_AUTO_ENABLE",
                "param": [
                    "2048"
                ],
                "guideScene": 3,
                "guideStyle": "QUEST_GUIDE_STYLE_TARGET",
                "guideLayer": "QUEST_GUIDE_LAYER_SCENE"
            },
            "acceptCondComb": {
                "FDPBPIHKEGH": ""
            },
            "finishParent": true,
            "isRewind": true,
            "finishExec": [
                {
                    "type": "QUEST_EXEC_DEL_ALL_SPECIFIC_PACK_ITEM",
                    "param": [
                        "101610"
                    ]
                },
                {
                    "type": "QUEST_EXEC_UNREGISTER_DYNAMIC_GROUP",
                    "param": [
                        "133107208"
                    ]
                },
                {
                    "type": "QUEST_EXEC_DEL_ALL_SPECIFIC_PACK_ITEM",
                    "param": [
                        "101609"
                    ]
                }
            ],
            "versionBegin": "",
            "versionEnd": ""
        },
        {
            "subId": 1101411,
            "mainId": 11014,
            "order": 10,
            "descTextMapHash": 645586516,
            "showType": "QUEST_HIDDEN",
            "finishCond": [
                {
                    "type": "QUEST_CONTENT_COMPLETE_TALK",
                    "param": [
                        1101404,
                        0
                    ]
                },
                {
                    "type": "QUEST_CONTENT_COMPLETE_TALK",
                    "param": [
                        1101410,
                        0
                    ]
                }
            ],
            "guide": {
                "guideScene": 3,
                "guideLayer": "QUEST_GUIDE_LAYER_SCENE"
            },
            "showGuide": "QUEST_GUIDE_ITEM_DISABLE",
            "acceptCondComb": {
                "FDPBPIHKEGH": ""
            },
            "failParentShow": "QUEST_HIDDEN",
            "finishExec": [
                {
                    "type": "QUEST_EXEC_INC_QUEST_VAR",
                    "param": [
                        "1",
                        "1"
                    ]
                }
            ],
            "versionBegin": "",
            "versionEnd": ""
        },
        {
            "subId": 1101412,
            "mainId": 11014,
            "order": 11,
            "descTextMapHash": 167666156,
            "showType": "QUEST_HIDDEN",
            "finishCond": [
                {
                    "type": "QUEST_CONTENT_LUA_NOTIFY",
                    "param": [
                        0,
                        0
                    ],
                    "count": 1
                }
            ],
            "guide": {
                "guideScene": 3,
                "guideLayer": "QUEST_GUIDE_LAYER_SCENE"
            },
            "showGuide": "QUEST_GUIDE_ITEM_DISABLE",
            "acceptCondComb": {
                "FDPBPIHKEGH": ""
            },
            "failParentShow": "QUEST_HIDDEN",
            "versionBegin": "",
            "versionEnd": ""
        },
        {
            "subId": 1101413,
            "mainId": 11014,
            "order": 12,
            "descTextMapHash": 2500961588,
            "showType": "QUEST_HIDDEN",
            "finishCond": [
                {
                    "type": "QUEST_CONTENT_COMPLETE_TALK",
                    "param": [
                        1101405,
                        0
                    ]
                }
            ],
            "guide": {
                "guideScene": 3,
                "guideLayer": "QUEST_GUIDE_LAYER_SCENE"
            },
            "showGuide": "QUEST_GUIDE_ITEM_DISABLE",
            "acceptCondComb": {
                "FDPBPIHKEGH": ""
            },
            "failParentShow": "QUEST_HIDDEN",
            "finishExec": [
                {
                    "type": "QUEST_EXEC_INC_QUEST_VAR",
                    "param": [
                        "1",
                        "1"
                    ]
                }
            ],
            "versionBegin": "",
            "versionEnd": ""
        },
        {
            "subId": 1101414,
            "mainId": 11014,
            "order": 13,
            "isMpBlock": true,
            "descTextMapHash": 3262310956,
            "exclusivePlaceList": [
                1100901,
                1101499
            ],
            "finishCond": [
                {
                    "type": "QUEST_CONTENT_QUEST_STATE_EQUAL",
                    "param": [
                        1101411,
                        3
                    ]
                },
                {
                    "type": "QUEST_CONTENT_QUEST_STATE_EQUAL",
                    "param": [
                        1101413,
                        3
                    ]
                }
            ],
            "guide": {
                "type": "QUEST_GUIDE_LOCATION",
                "autoGuide": "QUEST_GUIDE_AUTO_ENABLE",
                "param": [
                    "Q11014ShenheSearch3",
                    "18"
                ],
                "guideScene": 3,
                "guideStyle": "QUEST_GUIDE_STYLE_TARGET",
                "guideLayer": "QUEST_GUIDE_LAYER_SCENE"
            },
            "acceptCondComb": {
                "FDPBPIHKEGH": ""
            },
            "isRewind": true,
            "finishExec": [
                {
                    "type": "QUEST_EXEC_UNREGISTER_DYNAMIC_GROUP",
                    "param": [
                        "133107206"
                    ]
                }
            ],
            "versionBegin": "",
            "versionEnd": ""
        },
        {
            "subId": 1101415,
            "mainId": 11014,
            "order": 14,
            "isMpBlock": true,
            "descTextMapHash": 3219146884,
            "exclusivePlaceList": [
                1100901,
                1101499
            ],
            "finishCond": [
                {
                    "type": "QUEST_CONTENT_LUA_NOTIFY",
                    "param": [
                        0,
                        0
                    ],
                    "count": 1
                }
            ],
            "guide": {
                "type": "QUEST_GUIDE_LOCATION",
                "autoGuide": "QUEST_GUIDE_AUTO_ENABLE",
                "param": [
                    "Q11014PlayerSearch4",
                    "10"
                ],
                "guideScene": 3,
                "guideStyle": "QUEST_GUIDE_STYLE_TARGET",
                "guideLayer": "QUEST_GUIDE_LAYER_SCENE"
            },
            "acceptCondComb": {
                "FDPBPIHKEGH": ""
            },
            "isRewind": true,
            "versionBegin": "",
            "versionEnd": ""
        },
        {
            "subId": 1101416,
            "mainId": 11014,
            "order": 15,
            "descTextMapHash": 1251042716,
            "exclusivePlaceList": [
                1100901,
                1101499
            ],
            "finishCond": [
                {
                    "type": "QUEST_CONTENT_COMPLETE_TALK",
                    "param": [
                        1101406,
                        0
                    ]
                }
            ],
            "guide": {
                "type": "QUEST_GUIDE_NPC",
                "autoGuide": "QUEST_GUIDE_AUTO_ENABLE",
                "param": [
                    "1046"
                ],
                "guideScene": 3,
                "guideStyle": "QUEST_GUIDE_STYLE_TARGET",
                "guideLayer": "QUEST_GUIDE_LAYER_SCENE"
            },
            "acceptCondComb": {
                "FDPBPIHKEGH": ""
            },
            "finishExec": [
                {
                    "type": "QUEST_EXEC_UNREGISTER_DYNAMIC_GROUP",
                    "param": [
                        "133107207"
                    ]
                }
            ],
            "versionBegin": "",
            "versionEnd": ""
        },
        {
            "subId": 1101417,
            "mainId": 11014,
            "order": 5,
            "descTextMapHash": 2844527876,
            "stepDescTextMapHash": 3318077277,
            "exclusivePlaceList": [
                1100901,
                1101499
            ],
            "finishCond": [
                {
                    "type": "QUEST_CONTENT_FINISH_PLOT",
                    "param": [
                        1101417,
                        0
                    ]
                }
            ],
            "guide": {
                "type": "QUEST_GUIDE_LOCATION",
                "autoGuide": "QUEST_GUIDE_AUTO_ENABLE",
                "param": [
                    "Q11014ShenheSearch2"
                ],
                "guideScene": 3,
                "guideStyle": "QUEST_GUIDE_STYLE_POINT",
                "guideLayer": "QUEST_GUIDE_LAYER_SCENE"
            },
            "acceptCondComb": {
                "FDPBPIHKEGH": ""
            },
            "isRewind": true,
            "versionBegin": "",
            "versionEnd": ""
        },
        {
            "subId": 1101418,
            "mainId": 11014,
            "order": 6,
            "descTextMapHash": 3375820684,
            "exclusivePlaceList": [
                1100901,
                1101499
            ],
            "finishCond": [
                {
                    "type": "QUEST_CONTENT_COMPLETE_TALK",
                    "param": [
                        1101409,
                        0
                    ]
                }
            ],
            "guide": {
                "type": "QUEST_GUIDE_NPC",
                "autoGuide": "QUEST_GUIDE_AUTO_ENABLE",
                "param": [
                    "1046"
                ],
                "guideScene": 3,
                "guideStyle": "QUEST_GUIDE_STYLE_TARGET",
                "guideLayer": "QUEST_GUIDE_LAYER_SCENE"
            },
            "acceptCondComb": {
                "FDPBPIHKEGH": ""
            },
            "isRewind": true,
            "versionBegin": "",
            "versionEnd": ""
        },
        {
            "subId": 1101419,
            "mainId": 11014,
            "order": 99,
            "descTextMapHash": 3343126324,
            "showType": "QUEST_HIDDEN",
            "finishCond": [
                {
                    "type": "QUEST_CONTENT_COMPLETE_TALK",
                    "param": [
                        1101408,
                        0
                    ]
                }
            ],
            "guide": {
                "guideScene": 3,
                "guideLayer": "QUEST_GUIDE_LAYER_SCENE"
            },
            "showGuide": "QUEST_GUIDE_ITEM_DISABLE",
            "acceptCondComb": {
                "FDPBPIHKEGH": ""
            },
            "failParentShow": "QUEST_HIDDEN",
            "versionBegin": "",
            "versionEnd": ""
        },
        {
            "subId": 1101420,
            "mainId": 11014,
            "order": 1,
            "descTextMapHash": 458635708,
            "showType": "QUEST_HIDDEN",
            "finishCond": [
                {
                    "type": "QUEST_CONTENT_COMPLETE_TALK",
                    "param": [
                        1101430,
                        0
                    ]
                },
                {
                    "type": "QUEST_CONTENT_COMPLETE_TALK",
                    "param": [
                        1101431,
                        0
                    ]
                },
                {
                    "type": "QUEST_CONTENT_COMPLETE_TALK",
                    "param": [
                        1101432,
                        0
                    ]
                }
            ],
            "guide": {
                "guideScene": 3,
                "guideLayer": "QUEST_GUIDE_LAYER_SCENE"
            },
            "showGuide": "QUEST_GUIDE_ITEM_DISABLE",
            "acceptCondComb": {
                "FDPBPIHKEGH": ""
            },
            "failParentShow": "QUEST_HIDDEN",
            "versionBegin": "",
            "versionEnd": ""
        },
        {
            "subId": 1101421,
            "mainId": 11014,
            "order": 2,
            "descTextMapHash": 1663282652,
            "showType": "QUEST_HIDDEN",
            "finishCond": [
                {
                    "type": "QUEST_CONTENT_FINISH_PLOT",
                    "param": [
                        1101421,
                        0
                    ]
                }
            ],
            "guide": {
                "guideScene": 3,
                "guideLayer": "QUEST_GUIDE_LAYER_SCENE"
            },
            "showGuide": "QUEST_GUIDE_ITEM_DISABLE",
            "acceptCondComb": {
                "FDPBPIHKEGH": ""
            },
            "failParentShow": "QUEST_HIDDEN",
            "versionBegin": "",
            "versionEnd": ""
        },
        {
            "subId": 1101422,
            "mainId": 11014,
            "order": 18,
            "descTextMapHash": 308676828,
            "exclusivePlaceList": [
                1100901,
                1101499
            ],
            "finishCond": [
                {
                    "type": "QUEST_CONTENT_GAME_TIME_TICK",
                    "param": [
                        0,
                        0
                    ]
                },
                {
                    "type": "QUEST_CONTENT_GAME_TIME_TICK",
                    "param": [
                        1,
                        0
                    ]
                }
            ],
            "guide": {
                "type": "QUEST_GUIDE_LOCATION",
                "autoGuide": "QUEST_GUIDE_AUTO_ENABLE",
                "param": [
                    "Q11014SearchFinArea"
                ],
                "guideScene": 3,
                "guideStyle": "QUEST_GUIDE_STYLE_POINT",
                "guideLayer": "QUEST_GUIDE_LAYER_SCENE"
            },
            "acceptCondComb": {
                "FDPBPIHKEGH": ""
            },
            "versionBegin": "",
            "versionEnd": ""
        },
        {
            "subId": 1101423,
            "mainId": 11014,
            "order": 17,
            "descTextMapHash": 2230898716,
            "stepDescTextMapHash": 3091670669,
            "exclusivePlaceList": [
                1100901,
                1101499
            ],
            "finishCond": [
                {
                    "type": "QUEST_CONTENT_LUA_NOTIFY",
                    "param": [
                        0,
                        0
                    ],
                    "count": 1
                }
            ],
            "guide": {
                "type": "QUEST_GUIDE_LOCATION",
                "autoGuide": "QUEST_GUIDE_AUTO_ENABLE",
                "param": [
                    "Q11014SearchFinArea"
                ],
                "guideScene": 3,
                "guideStyle": "QUEST_GUIDE_STYLE_POINT",
                "guideLayer": "QUEST_GUIDE_LAYER_SCENE"
            },
            "acceptCondComb": {
                "FDPBPIHKEGH": ""
            },
            "isRewind": true,
            "finishExec": [
                {
                    "type": "QUEST_EXEC_UNREGISTER_DYNAMIC_GROUP",
                    "param": [
                        "133107243"
                    ]
                }
            ],
            "versionBegin": "",
            "versionEnd": ""
        },
        {
            "subId": 1101424,
            "mainId": 11014,
            "order": 19,
            "descTextMapHash": 534940524,
            "exclusivePlaceList": [
                1100901,
                1101499
            ],
            "finishCond": [
                {
                    "type": "QUEST_CONTENT_COMPLETE_TALK",
                    "param": [
                        1101437,
                        0
                    ]
                }
            ],
            "guide": {
                "type": "QUEST_GUIDE_NPC",
                "autoGuide": "QUEST_GUIDE_AUTO_ENABLE",
                "param": [
                    "1005"
                ],
                "guideScene": 3,
                "guideStyle": "QUEST_GUIDE_STYLE_TARGET",
                "guideLayer": "QUEST_GUIDE_LAYER_SCENE"
            },
            "acceptCondComb": {
                "FDPBPIHKEGH": ""
            },
            "versionBegin": "",
            "versionEnd": ""
        },
        {
            "subId": 1101425,
            "mainId": 11014,
            "order": 20,
            "descTextMapHash": 2955798292,
            "showType": "QUEST_HIDDEN",
            "finishCond": [
                {
                    "type": "QUEST_CONTENT_FINISH_PLOT",
                    "param": [
                        1101425,
                        0
                    ]
                }
            ],
            "guide": {
                "guideScene": 3,
                "guideLayer": "QUEST_GUIDE_LAYER_SCENE"
            },
            "showGuide": "QUEST_GUIDE_ITEM_DISABLE",
            "acceptCondComb": {
                "FDPBPIHKEGH": ""
            },
            "failParentShow": "QUEST_HIDDEN",
            "finishExec": [
                {
                    "type": "QUEST_EXEC_SET_GAME_TIME",
                    "param": [
                        "17.45"
                    ]
                }
            ],
            "versionBegin": "",
            "versionEnd": ""
        },
        {
            "subId": 1101426,
            "mainId": 11014,
            "order": 21,
            "descTextMapHash": 574170236,
            "showType": "QUEST_HIDDEN",
            "finishCond": [
                {
                    "type": "QUEST_CONTENT_COMPLETE_TALK",
                    "param": [
                        1101437,
                        0
                    ]
                }
            ],
            "failCond": [
                {
                    "type": "QUEST_CONTENT_LEAVE_SCENE_RANGE",
                    "param": [
                        3,
                        45
                    ]
                }
            ],
            "guide": {
                "guideScene": 3,
                "guideLayer": "QUEST_GUIDE_LAYER_SCENE"
            },
            "showGuide": "QUEST_GUIDE_ITEM_DISABLE",
            "acceptCondComb": {
                "FDPBPIHKEGH": ""
            },
            "failParentShow": "QUEST_HIDDEN",
            "failExec": [
                {
                    "type": "QUEST_EXEC_ROLLBACK_QUEST",
                    "param": [
                        "1101423"
                    ]
                }
            ],
            "versionBegin": "",
            "versionEnd": ""
        }
    ],
    "talks": [
        {
            "id": 1101401,
            "beginWay": "TALK_BEGIN_MANUAL",
            "beginCondComb": "LOGIC_AND",
            "beginCond": [
                {
                    "type": "QUEST_COND_STATE_EQUAL",
                    "param": [
                        "1101401",
                        "2"
                    ]
                },
                {
                    "type": "QUEST_COND_STATE_EQUAL",
                    "param": [
                        "200004",
                        "3"
                    ]
                }
            ],
            "priority": 5,
            "initDialog": 110140101,
            "npcId": [
                1031,
                2143
            ],
            "performCfg": "QuestDialogue/AQ/Liyue4_11014/Q1101401",
            "heroTalk": "TALK_HERO_MAIN",
            "questId": 11014,
            "assetIndex": 10247296731907921722,
            "prePerformCfg": ""
        },
        {
            "id": 1101402,
            "beginWay": "TALK_BEGIN_MANUAL",
            "beginCond": [
                {
                    "type": "QUEST_COND_STATE_EQUAL",
                    "param": [
                        "1101402",
                        "2"
                    ]
                }
            ],
            "priority": 5,
            "initDialog": 110140201,
            "npcId": [
                12441
            ],
            "performCfg": "QuestDialogue/AQ/Liyue4_11014/Q1101402",
            "heroTalk": "TALK_HERO_MAIN",
            "questId": 11014,
            "assetIndex": 7913694295005715038,
            "prePerformCfg": ""
        },
        {
            "id": 1101403,
            "beginWay": "TALK_BEGIN_MANUAL",
            "beginCond": [
                {
                    "type": "QUEST_COND_STATE_EQUAL",
                    "param": [
                        "1101404",
                        "2"
                    ]
                }
            ],
            "priority": 5,
            "initDialog": 110140301,
            "npcId": [
                12333
            ],
            "performCfg": "QuestDialogue/AQ/Liyue4_11014/Q1101403",
            "heroTalk": "TALK_HERO_MAIN",
            "questId": 11014,
            "assetIndex": 13154577604770550310,
            "prePerformCfg": ""
        },
        {
            "id": 1101404,
            "beginWay": "TALK_BEGIN_MANUAL",
            "beginCondComb": "LOGIC_A_AND_ETCOR",
            "beginCond": [
                {
                    "type": "QUEST_COND_STATE_EQUAL",
                    "param": [
                        "1101411",
                        "2"
                    ]
                },
                {
                    "type": "QUEST_COND_STATE_EQUAL",
                    "param": [
                        "1101412",
                        "2"
                    ]
                },
                {
                    "type": "QUEST_COND_STATE_EQUAL",
                    "param": [
                        "1101413",
                        "2"
                    ]
                }
            ],
            "priority": 5,
            "initDialog": 110140401,
            "npcId": [
                1046
            ],
            "performCfg": "QuestDialogue/AQ/Liyue4_11014/Q1101404",
            "heroTalk": "TALK_HERO_MAIN",
            "questId": 11014,
            "assetIndex": 13485846934793745268,
            "prePerformCfg": ""
        },
        {
            "id": 1101405,
            "beginWay": "TALK_BEGIN_MANUAL",
            "beginCond": [
                {
                    "type": "QUEST_COND_STATE_EQUAL",
                    "param": [
                        "1101413",
                        "2"
                    ]
                }
            ],
            "priority": 5,
            "initDialog": 110140501,
            "npcId": [
                1046
            ],
            "performCfg": "QuestDialogue/AQ/Liyue4_11014/Q1101405",
            "heroTalk": "TALK_HERO_MAIN",
            "questId": 11014,
            "assetIndex": 2809435290499641328,
            "prePerformCfg": ""
        },
        {
            "id": 1101406,
            "beginWay": "TALK_BEGIN_MANUAL",
            "beginCond": [
                {
                    "type": "QUEST_COND_STATE_EQUAL",
                    "param": [
                        "1101416",
                        "2"
                    ]
                }
            ],
            "priority": 5,
            "initDialog": 110140601,
            "npcId": [
                1046
            ],
            "performCfg": "QuestDialogue/AQ/Liyue4_11014/Q1101406",
            "heroTalk": "TALK_HERO_MAIN",
            "questId": 11014,
            "assetIndex": 18276828511917132102,
            "prePerformCfg": ""
        },
        {
            "id": 1101407,
            "beginWay": "TALK_BEGIN_MANUAL",
            "beginCond": [
                {
                    "type": "QUEST_COND_STATE_EQUAL",
                    "param": [
                        "1101406",
                        "2"
                    ]
                }
            ],
            "priority": 5,
            "initDialog": 110140701,
            "npcId": [
                12333,
                1045
            ],
            "performCfg": "QuestDialogue/AQ/Liyue4_11014/Q1101407",
            "heroTalk": "TALK_HERO_MAIN",
            "questId": 11014,
            "assetIndex": 7673089652613532348,
            "prePerformCfg": ""
        },
        {
            "id": 1101408,
            "beginWay": "TALK_BEGIN_MANUAL",
            "beginCond": [
                {
                    "type": "QUEST_COND_STATE_EQUAL",
                    "param": [
                        "1101410",
                        "2"
                    ]
                }
            ],
            "priority": 5,
            "initDialog": 110140801,
            "npcId": [
                12441
            ],
            "performCfg": "QuestDialogue/AQ/Liyue4_11014/Q1101408",
            "heroTalk": "TALK_HERO_MAIN",
            "questId": 11014,
            "assetIndex": 13252902385898558116,
            "prePerformCfg": ""
        },
        {
            "id": 1101409,
            "beginWay": "TALK_BEGIN_MANUAL",
            "beginCond": [
                {
                    "type": "QUEST_COND_STATE_EQUAL",
                    "param": [
                        "1101418",
                        "2"
                    ]
                }
            ],
            "priority": 5,
            "initDialog": 110140901,
            "npcId": [
                1046
            ],
            "performCfg": "QuestDialogue/AQ/Liyue4_11014/Q1101409",
            "heroTalk": "TALK_HERO_MAIN",
            "questId": 11014,
            "assetIndex": 11185954362972285251,
            "prePerformCfg": ""
        },
        {
            "id": 1101410,
            "beginWay": "TALK_BEGIN_MANUAL",
            "beginCondComb": "LOGIC_A_AND_ETCOR",
            "beginCond": [
                {
                    "type": "QUEST_COND_STATE_EQUAL",
                    "param": [
                        "1101411",
                        "2"
                    ]
                },
                {
                    "type": "QUEST_COND_STATE_EQUAL",
                    "param": [
                        "1101412",
                        "3"
                    ]
                },
                {
                    "type": "QUEST_COND_STATE_EQUAL",
                    "param": [
                        "1101413",
                        "3"
                    ]
                }
            ],
            "priority": 5,
            "initDialog": 110141001,
            "npcId": [
                1046
            ],
            "performCfg": "QuestDialogue/AQ/Liyue4_11014/Q1101410",
            "heroTalk": "TALK_HERO_MAIN",
            "questId": 11014,
            "assetIndex": 14221055406556652972,
            "prePerformCfg": ""
        },
        {
            "id": 1101411,
            "beginWay": "TALK_BEGIN_MANUAL",
            "beginCondComb": "LOGIC_OR",
            "beginCond": [
                {
                    "type": "QUEST_COND_STATE_EQUAL",
                    "param": [
                        "1101414",
                        "2"
                    ]
                },
                {
                    "type": "QUEST_COND_STATE_EQUAL",
                    "param": [
                        "1101415",
                        "2"
                    ]
                },
                {
                    "type": "QUEST_COND_STATE_EQUAL",
                    "param": [
                        "1101416",
                        "2"
                    ]
                }
            ],
            "priority": 5,
            "initDialog": 110141101,
            "npcId": [
                1045,
                12333
            ],
            "performCfg": "QuestDialogue/AQ/Liyue4_11014/Q1101411",
            "heroTalk": "TALK_HERO_MAIN",
            "questId": 11014,
            "assetIndex": 8216006189548626900,
            "prePerformCfg": "",
            "lowPriority": true
        },
        {
            "id": 1101412,
            "beginWay": "TALK_BEGIN_MANUAL",
            "beginCondComb": "LOGIC_OR",
            "beginCond": [
                {
                    "type": "QUEST_COND_STATE_EQUAL",
                    "param": [
                        "1101401",
                        "2"
                    ]
                },
                {
                    "type": "QUEST_COND_STATE_EQUAL",
                    "param": [
                        "1101402",
                        "2"
                    ]
                },
                {
                    "type": "QUEST_COND_STATE_EQUAL",
                    "param": [
                        "1101417",
                        "2"
                    ]
                },
                {
                    "type": "QUEST_COND_STATE_EQUAL",
                    "param": [
                        "1101418",
                        "2"
                    ]
                },
                {
                    "type": "QUEST_COND_STATE_EQUAL",
                    "param": [
                        "1101403",
                        "2"
                    ]
                }
            ],
            "priority": 5,
            "initDialog": 110141201,
            "npcId": [
                12344
            ],
            "performCfg": "QuestDialogue/AQ/Liyue4_11014/Q1101412",
            "heroTalk": "TALK_HERO_MAIN",
            "questId": 11014,
            "assetIndex": 16848464290108500507,
            "prePerformCfg": "",
            "lowPriority": true
        },
        {
            "id": 1101413,
            "beginWay": "TALK_BEGIN_MANUAL",
            "beginCondComb": "LOGIC_OR",
            "beginCond": [
                {
                    "type": "QUEST_COND_STATE_EQUAL",
                    "param": [
                        "1101404",
                        "2"
                    ]
                },
                {
                    "type": "QUEST_COND_STATE_EQUAL",
                    "param": [
                        "1101414",
                        "2"
                    ]
                },
                {
                    "type": "QUEST_COND_STATE_EQUAL",
                    "param": [
                        "1101415",
                        "2"
                    ]
                },
                {
                    "type": "QUEST_COND_STATE_EQUAL",
                    "param": [
                        "1101416",
                        "2"
                    ]
                },
                {
                    "type": "QUEST_COND_STATE_EQUAL",
                    "param": [
                        "1101406",
                        "2"
                    ]
                }
            ],
            "priority": 5,
            "initDialog": 110141201,
            "npcId": [
                12344
            ],
            "performCfg": "QuestDialogue/AQ/Liyue4_11014/Q1101412",
            "heroTalk": "TALK_HERO_MAIN",
            "questId": 11014,
            "assetIndex": 4223946514518446405,
            "prePerformCfg": "",
            "lowPriority": true
        },
        {
            "id": 1101414,
            "beginWay": "TALK_BEGIN_MANUAL",
            "beginCondComb": "LOGIC_OR",
            "beginCond": [
                {
                    "type": "QUEST_COND_STATE_EQUAL",
                    "param": [
                        "1101401",
                        "2"
                    ]
                },
                {
                    "type": "QUEST_COND_STATE_EQUAL",
                    "param": [
                        "1101402",
                        "2"
                    ]
                },
                {
                    "type": "QUEST_COND_STATE_EQUAL",
                    "param": [
                        "1101417",
                        "2"
                    ]
                },
                {
                    "type": "QUEST_COND_STATE_EQUAL",
                    "param": [
                        "1101418",
                        "2"
                    ]
                },
                {
                    "type": "QUEST_COND_STATE_EQUAL",
                    "param": [
                        "1101403",
                        "2"
                    ]
                }
            ],
            "priority": 5,
            "initDialog": 110141401,
            "npcId": [
                12345
            ],
            "performCfg": "QuestDialogue/AQ/Liyue4_11014/Q1101414",
            "heroTalk": "TALK_HERO_MAIN",
            "questId": 11014,
            "assetIndex": 1595709359221132275,
            "prePerformCfg": "",
            "lowPriority": true
        },
        {
            "id": 1101415,
            "beginWay": "TALK_BEGIN_MANUAL",
            "beginCondComb": "LOGIC_OR",
            "beginCond": [
                {
                    "type": "QUEST_COND_STATE_EQUAL",
                    "param": [
                        "1101404",
                        "2"
                    ]
                },
                {
                    "type": "QUEST_COND_STATE_EQUAL",
                    "param": [
                        "1101414",
                        "2"
                    ]
                },
                {
                    "type": "QUEST_COND_STATE_EQUAL",
                    "param": [
                        "1101415",
                        "2"
                    ]
                },
                {
                    "type": "QUEST_COND_STATE_EQUAL",
                    "param": [
                        "1101416",
                        "2"
                    ]
                },
                {
                    "type": "QUEST_COND_STATE_EQUAL",
                    "param": [
                        "1101406",
                        "2"
                    ]
                }
            ],
            "priority": 5,
            "initDialog": 110141401,
            "npcId": [
                12345
            ],
            "performCfg": "QuestDialogue/AQ/Liyue4_11014/Q1101414",
            "heroTalk": "TALK_HERO_MAIN",
            "questId": 11014,
            "assetIndex": 15530083091186295468,
            "prePerformCfg": "",
            "lowPriority": true
        },
        {
            "id": 1101416,
            "beginWay": "TALK_BEGIN_MANUAL",
            "beginCondComb": "LOGIC_OR",
            "beginCond": [
                {
                    "type": "QUEST_COND_STATE_EQUAL",
                    "param": [
                        "1101401",
                        "2"
                    ]
                },
                {
                    "type": "QUEST_COND_STATE_EQUAL",
                    "param": [
                        "1101402",
                        "2"
                    ]
                },
                {
                    "type": "QUEST_COND_STATE_EQUAL",
                    "param": [
                        "1101417",
                        "2"
                    ]
                },
                {
                    "type": "QUEST_COND_STATE_EQUAL",
                    "param": [
                        "1101418",
                        "2"
                    ]
                },
                {
                    "type": "QUEST_COND_STATE_EQUAL",
                    "param": [
                        "1101403",
                        "2"
                    ]
                }
            ],
            "priority": 5,
            "initDialog": 110141601,
            "npcId": [
                12346
            ],
            "performCfg": "QuestDialogue/AQ/Liyue4_11014/Q1101416",
            "heroTalk": "TALK_HERO_MAIN",
            "questId": 11014,
            "assetIndex": 9368743695571467123,
            "prePerformCfg": "",
            "lowPriority": true
        },
        {
            "id": 1101417,
            "beginWay": "TALK_BEGIN_MANUAL",
            "beginCondComb": "LOGIC_OR",
            "beginCond": [
                {
                    "type": "QUEST_COND_STATE_EQUAL",
                    "param": [
                        "1101404",
                        "2"
                    ]
                },
                {
                    "type": "QUEST_COND_STATE_EQUAL",
                    "param": [
                        "1101414",
                        "2"
                    ]
                },
                {
                    "type": "QUEST_COND_STATE_EQUAL",
                    "param": [
                        "1101415",
                        "2"
                    ]
                },
                {
                    "type": "QUEST_COND_STATE_EQUAL",
                    "param": [
                        "1101416",
                        "2"
                    ]
                },
                {
                    "type": "QUEST_COND_STATE_EQUAL",
                    "param": [
                        "1101406",
                        "2"
                    ]
                }
            ],
            "priority": 5,
            "initDialog": 110141601,
            "npcId": [
                12346
            ],
            "performCfg": "QuestDialogue/AQ/Liyue4_11014/Q1101416",
            "heroTalk": "TALK_HERO_MAIN",
            "questId": 11014,
            "assetIndex": 3002429545872643891,
            "prePerformCfg": "",
            "lowPriority": true
        },
        {
            "id": 1101418,
            "beginWay": "TALK_BEGIN_MANUAL",
            "beginCondComb": "LOGIC_OR",
            "beginCond": [
                {
                    "type": "QUEST_COND_STATE_EQUAL",
                    "param": [
                        "1101401",
                        "2"
                    ]
                },
                {
                    "type": "QUEST_COND_STATE_EQUAL",
                    "param": [
                        "1101402",
                        "2"
                    ]
                },
                {
                    "type": "QUEST_COND_STATE_EQUAL",
                    "param": [
                        "1101417",
                        "2"
                    ]
                },
                {
                    "type": "QUEST_COND_STATE_EQUAL",
                    "param": [
                        "1101418",
                        "2"
                    ]
                },
                {
                    "type": "QUEST_COND_STATE_EQUAL",
                    "param": [
                        "1101403",
                        "2"
                    ]
                }
            ],
            "priority": 5,
            "initDialog": 110141801,
            "npcId": [
                12371
            ],
            "performCfg": "QuestDialogue/AQ/Liyue4_11014/Q1101418",
            "heroTalk": "TALK_HERO_MAIN",
            "questId": 11014,
            "assetIndex": 17066624178416968427,
            "prePerformCfg": "",
            "lowPriority": true
        },
        {
            "id": 1101419,
            "beginWay": "TALK_BEGIN_MANUAL",
            "beginCondComb": "LOGIC_OR",
            "beginCond": [
                {
                    "type": "QUEST_COND_STATE_EQUAL",
                    "param": [
                        "1101404",
                        "2"
                    ]
                },
                {
                    "type": "QUEST_COND_STATE_EQUAL",
                    "param": [
                        "1101414",
                        "2"
                    ]
                },
                {
                    "type": "QUEST_COND_STATE_EQUAL",
                    "param": [
                        "1101415",
                        "2"
                    ]
                },
                {
                    "type": "QUEST_COND_STATE_EQUAL",
                    "param": [
                        "1101416",
                        "2"
                    ]
                },
                {
                    "type": "QUEST_COND_STATE_EQUAL",
                    "param": [
                        "1101406",
                        "2"
                    ]
                }
            ],
            "priority": 5,
            "initDialog": 110141801,
            "npcId": [
                12371
            ],
            "performCfg": "QuestDialogue/AQ/Liyue4_11014/Q1101418",
            "heroTalk": "TALK_HERO_MAIN",
            "questId": 11014,
            "assetIndex": 6064313862135000109,
            "prePerformCfg": "",
            "lowPriority": true
        },
        {
            "id": 1101420,
            "beginWay": "TALK_BEGIN_MANUAL",
            "beginCondComb": "LOGIC_OR",
            "beginCond": [
                {
                    "type": "QUEST_COND_STATE_EQUAL",
                    "param": [
                        "1101401",
                        "2"
                    ]
                },
                {
                    "type": "QUEST_COND_STATE_EQUAL",
                    "param": [
                        "1101402",
                        "2"
                    ]
                },
                {
                    "type": "QUEST_COND_STATE_EQUAL",
                    "param": [
                        "1101417",
                        "2"
                    ]
                },
                {
                    "type": "QUEST_COND_STATE_EQUAL",
                    "param": [
                        "1101418",
                        "2"
                    ]
                },
                {
                    "type": "QUEST_COND_STATE_EQUAL",
                    "param": [
                        "1101403",
                        "2"
                    ]
                }
            ],
            "priority": 5,
            "initDialog": 110142001,
            "npcId": [
                12372
            ],
            "performCfg": "QuestDialogue/AQ/Liyue4_11014/Q1101420",
            "heroTalk": "TALK_HERO_MAIN",
            "questId": 11014,
            "assetIndex": 7990208639509908177,
            "prePerformCfg": "",
            "lowPriority": true
        },
        {
            "id": 1101421,
            "beginWay": "TALK_BEGIN_MANUAL",
            "beginCondComb": "LOGIC_OR",
            "beginCond": [
                {
                    "type": "QUEST_COND_STATE_EQUAL",
                    "param": [
                        "1101404",
                        "2"
                    ]
                },
                {
                    "type": "QUEST_COND_STATE_EQUAL",
                    "param": [
                        "1101414",
                        "2"
                    ]
                },
                {
                    "type": "QUEST_COND_STATE_EQUAL",
                    "param": [
                        "1101415",
                        "2"
                    ]
                },
                {
                    "type": "QUEST_COND_STATE_EQUAL",
                    "param": [
                        "1101416",
                        "2"
                    ]
                },
                {
                    "type": "QUEST_COND_STATE_EQUAL",
                    "param": [
                        "1101406",
                        "2"
                    ]
                }
            ],
            "priority": 5,
            "initDialog": 110142001,
            "npcId": [
                12372
            ],
            "performCfg": "QuestDialogue/AQ/Liyue4_11014/Q1101420",
            "heroTalk": "TALK_HERO_MAIN",
            "questId": 11014,
            "assetIndex": 2956462742528911781,
            "prePerformCfg": "",
            "lowPriority": true
        },
        {
            "id": 1101422,
            "beginWay": "TALK_BEGIN_MANUAL",
            "beginCondComb": "LOGIC_OR",
            "beginCond": [
                {
                    "type": "QUEST_COND_STATE_EQUAL",
                    "param": [
                        "1101401",
                        "2"
                    ]
                },
                {
                    "type": "QUEST_COND_STATE_EQUAL",
                    "param": [
                        "1101402",
                        "2"
                    ]
                },
                {
                    "type": "QUEST_COND_STATE_EQUAL",
                    "param": [
                        "1101417",
                        "2"
                    ]
                },
                {
                    "type": "QUEST_COND_STATE_EQUAL",
                    "param": [
                        "1101418",
                        "2"
                    ]
                },
                {
                    "type": "QUEST_COND_STATE_EQUAL",
                    "param": [
                        "1101403",
                        "2"
                    ]
                }
            ],
            "priority": 5,
            "initDialog": 110142201,
            "npcId": [
                12348
            ],
            "performCfg": "QuestDialogue/AQ/Liyue4_11014/Q1101422",
            "heroTalk": "TALK_HERO_MAIN",
            "questId": 11014,
            "assetIndex": 14274432225000524483,
            "prePerformCfg": "",
            "lowPriority": true
        },
        {
            "id": 1101423,
            "beginWay": "TALK_BEGIN_MANUAL",
            "beginCondComb": "LOGIC_OR",
            "beginCond": [
                {
                    "type": "QUEST_COND_STATE_EQUAL",
                    "param": [
                        "1101404",
                        "2"
                    ]
                },
                {
                    "type": "QUEST_COND_STATE_EQUAL",
                    "param": [
                        "1101414",
                        "2"
                    ]
                },
                {
                    "type": "QUEST_COND_STATE_EQUAL",
                    "param": [
                        "1101415",
                        "2"
                    ]
                },
                {
                    "type": "QUEST_COND_STATE_EQUAL",
                    "param": [
                        "1101416",
                        "2"
                    ]
                },
                {
                    "type": "QUEST_COND_STATE_EQUAL",
                    "param": [
                        "1101406",
                        "2"
                    ]
                }
            ],
            "priority": 5,
            "initDialog": 110142201,
            "npcId": [
                12348
            ],
            "performCfg": "QuestDialogue/AQ/Liyue4_11014/Q1101422",
            "heroTalk": "TALK_HERO_MAIN",
            "questId": 11014,
            "assetIndex": 15653940100655143258,
            "prePerformCfg": "",
            "lowPriority": true
        },
        {
            "id": 1101424,
            "beginWay": "TALK_BEGIN_MANUAL",
            "beginCondComb": "LOGIC_OR",
            "beginCond": [
                {
                    "type": "QUEST_COND_STATE_EQUAL",
                    "param": [
                        "1101407",
                        "2"
                    ]
                },
                {
                    "type": "QUEST_COND_STATE_EQUAL",
                    "param": [
                        "1101410",
                        "2"
                    ]
                },
                {
                    "type": "QUEST_COND_STATE_EQUAL",
                    "param": [
                        "1101422",
                        "2"
                    ]
                },
                {
                    "type": "QUEST_COND_STATE_EQUAL",
                    "param": [
                        "1101423",
                        "2"
                    ]
                },
                {
                    "type": "QUEST_COND_STATE_EQUAL",
                    "param": [
                        "1101424",
                        "2"
                    ]
                }
            ],
            "priority": 5,
            "initDialog": 110142401,
            "npcId": [
                12344
            ],
            "performCfg": "QuestDialogue/AQ/Liyue4_11014/Q1101424",
            "heroTalk": "TALK_HERO_MAIN",
            "questId": 11014,
            "assetIndex": 3350297232199683073,
            "prePerformCfg": "",
            "lowPriority": true
        },
        {
            "id": 1101425,
            "beginWay": "TALK_BEGIN_MANUAL",
            "beginCondComb": "LOGIC_OR",
            "beginCond": [
                {
                    "type": "QUEST_COND_STATE_EQUAL",
                    "param": [
                        "1101407",
                        "2"
                    ]
                },
                {
                    "type": "QUEST_COND_STATE_EQUAL",
                    "param": [
                        "1101410",
                        "2"
                    ]
                },
                {
                    "type": "QUEST_COND_STATE_EQUAL",
                    "param": [
                        "1101422",
                        "2"
                    ]
                },
                {
                    "type": "QUEST_COND_STATE_EQUAL",
                    "param": [
                        "1101423",
                        "2"
                    ]
                },
                {
                    "type": "QUEST_COND_STATE_EQUAL",
                    "param": [
                        "1101424",
                        "2"
                    ]
                }
            ],
            "priority": 5,
            "initDialog": 110142501,
            "npcId": [
                12345
            ],
            "performCfg": "QuestDialogue/AQ/Liyue4_11014/Q1101425",
            "heroTalk": "TALK_HERO_MAIN",
            "questId": 11014,
            "assetIndex": 8425091090210105508,
            "prePerformCfg": "",
            "lowPriority": true
        },
        {
            "id": 1101426,
            "beginWay": "TALK_BEGIN_MANUAL",
            "beginCondComb": "LOGIC_OR",
            "beginCond": [
                {
                    "type": "QUEST_COND_STATE_EQUAL",
                    "param": [
                        "1101407",
                        "2"
                    ]
                },
                {
                    "type": "QUEST_COND_STATE_EQUAL",
                    "param": [
                        "1101410",
                        "2"
                    ]
                },
                {
                    "type": "QUEST_COND_STATE_EQUAL",
                    "param": [
                        "1101422",
                        "2"
                    ]
                },
                {
                    "type": "QUEST_COND_STATE_EQUAL",
                    "param": [
                        "1101423",
                        "2"
                    ]
                },
                {
                    "type": "QUEST_COND_STATE_EQUAL",
                    "param": [
                        "1101424",
                        "2"
                    ]
                }
            ],
            "priority": 5,
            "initDialog": 110142601,
            "npcId": [
                12346
            ],
            "performCfg": "QuestDialogue/AQ/Liyue4_11014/Q1101426",
            "heroTalk": "TALK_HERO_MAIN",
            "questId": 11014,
            "assetIndex": 11416166149862063324,
            "prePerformCfg": "",
            "lowPriority": true
        },
        {
            "id": 1101427,
            "beginWay": "TALK_BEGIN_MANUAL",
            "beginCondComb": "LOGIC_OR",
            "beginCond": [
                {
                    "type": "QUEST_COND_STATE_EQUAL",
                    "param": [
                        "1101407",
                        "2"
                    ]
                },
                {
                    "type": "QUEST_COND_STATE_EQUAL",
                    "param": [
                        "1101410",
                        "2"
                    ]
                },
                {
                    "type": "QUEST_COND_STATE_EQUAL",
                    "param": [
                        "1101422",
                        "2"
                    ]
                },
                {
                    "type": "QUEST_COND_STATE_EQUAL",
                    "param": [
                        "1101423",
                        "2"
                    ]
                },
                {
                    "type": "QUEST_COND_STATE_EQUAL",
                    "param": [
                        "1101424",
                        "2"
                    ]
                }
            ],
            "priority": 5,
            "initDialog": 110142701,
            "npcId": [
                12371
            ],
            "performCfg": "QuestDialogue/AQ/Liyue4_11014/Q1101427",
            "heroTalk": "TALK_HERO_MAIN",
            "questId": 11014,
            "assetIndex": 14836117575342181718,
            "prePerformCfg": "",
            "lowPriority": true
        },
        {
            "id": 1101428,
            "beginWay": "TALK_BEGIN_MANUAL",
            "beginCondComb": "LOGIC_OR",
            "beginCond": [
                {
                    "type": "QUEST_COND_STATE_EQUAL",
                    "param": [
                        "1101407",
                        "2"
                    ]
                },
                {
                    "type": "QUEST_COND_STATE_EQUAL",
                    "param": [
                        "1101410",
                        "2"
                    ]
                },
                {
                    "type": "QUEST_COND_STATE_EQUAL",
                    "param": [
                        "1101422",
                        "2"
                    ]
                },
                {
                    "type": "QUEST_COND_STATE_EQUAL",
                    "param": [
                        "1101423",
                        "2"
                    ]
                },
                {
                    "type": "QUEST_COND_STATE_EQUAL",
                    "param": [
                        "1101424",
                        "2"
                    ]
                }
            ],
            "priority": 5,
            "initDialog": 110142801,
            "npcId": [
                12372
            ],
            "performCfg": "QuestDialogue/AQ/Liyue4_11014/Q1101428",
            "heroTalk": "TALK_HERO_MAIN",
            "questId": 11014,
            "assetIndex": 12534524009731404157,
            "prePerformCfg": "",
            "lowPriority": true
        },
        {
            "id": 1101429,
            "beginWay": "TALK_BEGIN_MANUAL",
            "beginCondComb": "LOGIC_OR",
            "beginCond": [
                {
                    "type": "QUEST_COND_STATE_EQUAL",
                    "param": [
                        "1101407",
                        "2"
                    ]
                },
                {
                    "type": "QUEST_COND_STATE_EQUAL",
                    "param": [
                        "1101410",
                        "2"
                    ]
                },
                {
                    "type": "QUEST_COND_STATE_EQUAL",
                    "param": [
                        "1101422",
                        "2"
                    ]
                },
                {
                    "type": "QUEST_COND_STATE_EQUAL",
                    "param": [
                        "1101423",
                        "2"
                    ]
                },
                {
                    "type": "QUEST_COND_STATE_EQUAL",
                    "param": [
                        "1101424",
                        "2"
                    ]
                }
            ],
            "priority": 5,
            "initDialog": 110142901,
            "npcId": [
                12348
            ],
            "performCfg": "QuestDialogue/AQ/Liyue4_11014/Q1101429",
            "heroTalk": "TALK_HERO_MAIN",
            "questId": 11014,
            "assetIndex": 4370436205711695023,
            "prePerformCfg": "",
            "lowPriority": true
        },
        {
            "id": 1101430,
            "beginWay": "TALK_BEGIN_MANUAL",
            "beginCondComb": "LOGIC_OR",
            "beginCond": [
                {
                    "type": "QUEST_COND_STATE_EQUAL",
                    "param": [
                        "1101401",
                        "2"
                    ]
                },
                {
                    "type": "QUEST_COND_STATE_EQUAL",
                    "param": [
                        "1101402",
                        "2"
                    ]
                },
                {
                    "type": "QUEST_COND_STATE_EQUAL",
                    "param": [
                        "1101417",
                        "2"
                    ]
                },
                {
                    "type": "QUEST_COND_STATE_EQUAL",
                    "param": [
                        "1101418",
                        "2"
                    ]
                },
                {
                    "type": "QUEST_COND_STATE_EQUAL",
                    "param": [
                        "1101403",
                        "2"
                    ]
                }
            ],
            "priority": 5,
            "initDialog": 110143001,
            "npcId": [
                10233
            ],
            "performCfg": "QuestDialogue/AQ/Liyue4_11014/Q1101430",
            "heroTalk": "TALK_HERO_MAIN",
            "questId": 11014,
            "assetIndex": 1120715535837016178,
            "prePerformCfg": "",
            "lowPriority": true
        },
        {
            "id": 1101431,
            "beginWay": "TALK_BEGIN_MANUAL",
            "beginCondComb": "LOGIC_OR",
            "beginCond": [
                {
                    "type": "QUEST_COND_STATE_EQUAL",
                    "param": [
                        "1101404",
                        "2"
                    ]
                },
                {
                    "type": "QUEST_COND_STATE_EQUAL",
                    "param": [
                        "1101414",
                        "2"
                    ]
                },
                {
                    "type": "QUEST_COND_STATE_EQUAL",
                    "param": [
                        "1101415",
                        "2"
                    ]
                },
                {
                    "type": "QUEST_COND_STATE_EQUAL",
                    "param": [
                        "1101416",
                        "2"
                    ]
                },
                {
                    "type": "QUEST_COND_STATE_EQUAL",
                    "param": [
                        "1101406",
                        "2"
                    ]
                }
            ],
            "priority": 5,
            "initDialog": 110143001,
            "npcId": [
                10233
            ],
            "performCfg": "QuestDialogue/AQ/Liyue4_11014/Q1101430",
            "heroTalk": "TALK_HERO_MAIN",
            "questId": 11014,
            "assetIndex": 6155556677770240047,
            "prePerformCfg": "",
            "lowPriority": true
        },
        {
            "id": 1101432,
            "beginWay": "TALK_BEGIN_MANUAL",
            "beginCondComb": "LOGIC_OR",
            "beginCond": [
                {
                    "type": "QUEST_COND_STATE_EQUAL",
                    "param": [
                        "1101407",
                        "2"
                    ]
                },
                {
                    "type": "QUEST_COND_STATE_EQUAL",
                    "param": [
                        "1101410",
                        "2"
                    ]
                },
                {
                    "type": "QUEST_COND_STATE_EQUAL",
                    "param": [
                        "1101422",
                        "2"
                    ]
                },
                {
                    "type": "QUEST_COND_STATE_EQUAL",
                    "param": [
                        "1101423",
                        "2"
                    ]
                },
                {
                    "type": "QUEST_COND_STATE_EQUAL",
                    "param": [
                        "1101424",
                        "2"
                    ]
                }
            ],
            "priority": 5,
            "initDialog": 110143001,
            "npcId": [
                10233
            ],
            "performCfg": "QuestDialogue/AQ/Liyue4_11014/Q1101430",
            "heroTalk": "TALK_HERO_MAIN",
            "questId": 11014,
            "assetIndex": 12226421315749767737,
            "prePerformCfg": "",
            "lowPriority": true
        },
        {
            "id": 1101433,
            "beginWay": "TALK_BEGIN_MANUAL",
            "beginCondComb": "LOGIC_OR",
            "beginCond": [
                {
                    "type": "QUEST_COND_STATE_EQUAL",
                    "param": [
                        "1101407",
                        "2"
                    ]
                },
                {
                    "type": "QUEST_COND_STATE_EQUAL",
                    "param": [
                        "1101410",
                        "2"
                    ]
                },
                {
                    "type": "QUEST_COND_STATE_EQUAL",
                    "param": [
                        "1101422",
                        "2"
                    ]
                },
                {
                    "type": "QUEST_COND_STATE_EQUAL",
                    "param": [
                        "1101423",
                        "2"
                    ]
                },
                {
                    "type": "QUEST_COND_STATE_EQUAL",
                    "param": [
                        "1101424",
                        "2"
                    ]
                }
            ],
            "priority": 5,
            "initDialog": 110143301,
            "npcId": [
                10204
            ],
            "performCfg": "QuestDialogue/AQ/Liyue4_11014/Q1101433",
            "heroTalk": "TALK_HERO_MAIN",
            "questId": 11014,
            "assetIndex": 5397116741109989907,
            "prePerformCfg": "",
            "questIdleTalk": true,
            "lowPriority": true
        },
        {
            "id": 1101434,
            "beginWay": "TALK_BEGIN_MANUAL",
            "beginCondComb": "LOGIC_OR",
            "beginCond": [
                {
                    "type": "QUEST_COND_STATE_EQUAL",
                    "param": [
                        "1101401",
                        "2"
                    ]
                },
                {
                    "type": "QUEST_COND_STATE_EQUAL",
                    "param": [
                        "1101402",
                        "2"
                    ]
                },
                {
                    "type": "QUEST_COND_STATE_EQUAL",
                    "param": [
                        "1101417",
                        "2"
                    ]
                },
                {
                    "type": "QUEST_COND_STATE_EQUAL",
                    "param": [
                        "1101418",
                        "2"
                    ]
                },
                {
                    "type": "QUEST_COND_STATE_EQUAL",
                    "param": [
                        "1101403",
                        "2"
                    ]
                }
            ],
            "priority": 5,
            "initDialog": 110133001,
            "npcId": [
                1016
            ],
            "performCfg": "QuestDialogue/AQ/Liyue4_11013/Q1101330",
            "heroTalk": "TALK_HERO_MAIN",
            "questId": 11014,
            "assetIndex": 14555871868444623490,
            "prePerformCfg": "",
            "lowPriority": true
        },
        {
            "id": 1101435,
            "beginWay": "TALK_BEGIN_MANUAL",
            "beginCondComb": "LOGIC_OR",
            "beginCond": [
                {
                    "type": "QUEST_COND_STATE_EQUAL",
                    "param": [
                        "1101404",
                        "2"
                    ]
                },
                {
                    "type": "QUEST_COND_STATE_EQUAL",
                    "param": [
                        "1101414",
                        "2"
                    ]
                },
                {
                    "type": "QUEST_COND_STATE_EQUAL",
                    "param": [
                        "1101415",
                        "2"
                    ]
                },
                {
                    "type": "QUEST_COND_STATE_EQUAL",
                    "param": [
                        "1101416",
                        "2"
                    ]
                },
                {
                    "type": "QUEST_COND_STATE_EQUAL",
                    "param": [
                        "1101406",
                        "2"
                    ]
                }
            ],
            "priority": 5,
            "initDialog": 110133001,
            "npcId": [
                1016
            ],
            "performCfg": "QuestDialogue/AQ/Liyue4_11013/Q1101330",
            "heroTalk": "TALK_HERO_MAIN",
            "questId": 11014,
            "assetIndex": 6543489307506466242,
            "prePerformCfg": "",
            "lowPriority": true
        },
        {
            "id": 1101436,
            "beginWay": "TALK_BEGIN_MANUAL",
            "beginCondComb": "LOGIC_OR",
            "beginCond": [
                {
                    "type": "QUEST_COND_STATE_EQUAL",
                    "param": [
                        "1101407",
                        "2"
                    ]
                },
                {
                    "type": "QUEST_COND_STATE_EQUAL",
                    "param": [
                        "1101410",
                        "2"
                    ]
                },
                {
                    "type": "QUEST_COND_STATE_EQUAL",
                    "param": [
                        "1101422",
                        "2"
                    ]
                },
                {
                    "type": "QUEST_COND_STATE_EQUAL",
                    "param": [
                        "1101423",
                        "2"
                    ]
                },
                {
                    "type": "QUEST_COND_STATE_EQUAL",
                    "param": [
                        "1101424",
                        "2"
                    ]
                }
            ],
            "priority": 5,
            "initDialog": 110133001,
            "npcId": [
                1016
            ],
            "performCfg": "QuestDialogue/AQ/Liyue4_11013/Q1101330",
            "heroTalk": "TALK_HERO_MAIN",
            "questId": 11014,
            "assetIndex": 1815566813438775837,
            "prePerformCfg": "",
            "lowPriority": true
        },
        {
            "id": 1101437,
            "beginWay": "TALK_BEGIN_MANUAL",
            "beginCond": [
                {
                    "type": "QUEST_COND_STATE_EQUAL",
                    "param": [
                        "1101424",
                        "2"
                    ]
                }
            ],
            "priority": 5,
            "initDialog": 110143701,
            "npcId": [
                1005
            ],
            "performCfg": "QuestDialogue/AQ/Liyue4_11014/Q1101437",
            "heroTalk": "TALK_HERO_MAIN",
            "questId": 11014,
            "assetIndex": 10296400025634454519,
            "prePerformCfg": "",
            "lockGameTime": true
        },
        {
            "id": 1101438,
            "beginWay": "TALK_BEGIN_MANUAL",
            "beginCondComb": "LOGIC_A_AND_ETCOR",
            "beginCond": [
                {
                    "type": "QUEST_COND_STATE_EQUAL",
                    "param": [
                        "1101401",
                        "2"
                    ]
                },
                {
                    "type": "QUEST_COND_STATE_EQUAL",
                    "param": [
                        "200004"
                    ]
                },
                {
                    "type": "QUEST_COND_STATE_EQUAL",
                    "param": [
                        "200004",
                        "1"
                    ]
                },
                {
                    "type": "QUEST_COND_STATE_EQUAL",
                    "param": [
                        "200004",
                        "2"
                    ]
                }
            ],
            "priority": 5,
            "initDialog": 110143801,
            "npcId": [
                2143,
                1031
            ],
            "performCfg": "QuestDialogue/AQ/Liyue4_11014/Q1101438",
            "heroTalk": "TALK_HERO_MAIN",
            "questId": 11014,
            "assetIndex": 9158854904259157680,
            "prePerformCfg": ""
        }
    ],
    "FFDPMMFBDAE": [
        14457059026087496718,
        15641351978228131294,
        4750788243262287702,
        9168873511193616930,
        13779783841844079325,
        11867880325788853186
    ],
    "IGKJEKALOKN": [
        12109711727265977894
    ]
}