{
    "id": 11032,
    "KHGONCANKFN": 2016,
    "series": 2016,
    "type": "LQ",
    "titleTextMapHash": 4052363791,
    "descTextMapHash": 1403988958,
    "luaPath": "Actor/Quest/LQ11032",
    "rewardIdList": [
        111032
    ],
    "chapterId": 2016,
    "subQuests": [
        {
            "subId": 1103201,
            "mainId": 11032,
            "order": 1,
            "descTextMapHash": 3614690492,
            "finishCond": [
                {
                    "type": "QUEST_CONTENT_ENTER_ROOM",
                    "param": [
                        1035,
                        0
                    ]
                }
            ],
            "guide": {
                "type": "QUEST_GUIDE_LOCATION",
                "param": [
                    "Q11032XinyuexuanEntrance"
                ],
                "guideScene": 3,
                "guideStyle": "QUEST_GUIDE_STYLE_TARGET",
                "guideLayer": "QUEST_GUIDE_LAYER_SCENE"
            },
            "acceptCondComb": {
                "FDPBPIHKEGH": ""
            },
            "isRewind": true,
            "versionBegin": "",
            "versionEnd": ""
        },
        {
            "subId": 1103202,
            "mainId": 11032,
            "order": 2,
            "descTextMapHash": 1476070964,
            "finishCond": [
                {
                    "type": "QUEST_CONTENT_LUA_NOTIFY",
                    "param": [
                        0,
                        0
                    ],
                    "count": 1
                }
            ],
            "guide": {
                "type": "QUEST_GUIDE_NPC",
                "param": [
                    "202901"
                ],
                "guideScene": 1035,
                "guideStyle": "QUEST_GUIDE_STYLE_TARGET",
                "guideLayer": "QUEST_GUIDE_LAYER_SCENE"
            },
            "acceptCondComb": {
                "FDPBPIHKEGH": ""
            },
            "failParentShow": "QUEST_HIDDEN",
            "isRewind": true,
            "versionBegin": "",
            "versionEnd": ""
        },
        {
            "subId": 1103203,
            "mainId": 11032,
            "order": 3,
            "descTextMapHash": 2491118332,
            "finishCond": [
                {
                    "type": "QUEST_CONTENT_COMPLETE_TALK",
                    "param": [
                        1103202,
                        0
                    ]
                }
            ],
            "guide": {
                "type": "QUEST_GUIDE_NPC",
                "param": [
                    "202901"
                ],
                "guideScene": 1035,
                "guideStyle": "QUEST_GUIDE_STYLE_TARGET",
                "guideLayer": "QUEST_GUIDE_LAYER_SCENE"
            },
            "acceptCondComb": {
                "FDPBPIHKEGH": ""
            },
            "finishExec": [
                {
                    "type": "QUEST_EXEC_REFRESH_GROUP_SUITE",
                    "param": [
                        "1035",
                        "201035001,1"
                    ]
                }
            ],
            "versionBegin": "",
            "versionEnd": ""
        },
        {
            "subId": 1103204,
            "mainId": 11032,
            "order": 5,
            "descTextMapHash": 4270380676,
            "exclusivePlaceList": [
                1100902
            ],
            "finishCond": [
                {
                    "type": "QUEST_CONTENT_COMPLETE_TALK",
                    "param": [
                        1103203,
                        0
                    ]
                }
            ],
            "guide": {
                "type": "QUEST_GUIDE_NPC",
                "param": [
                    "214001"
                ],
                "guideScene": 3,
                "guideStyle": "QUEST_GUIDE_STYLE_TARGET",
                "guideLayer": "QUEST_GUIDE_LAYER_SCENE"
            },
            "acceptCondComb": {
                "FDPBPIHKEGH": ""
            },
            "finishParent": true,
            "finishExec": [
                {
                    "type": "QUEST_EXEC_SET_QUEST_GLOBAL_VAR",
                    "param": [
                        "20015",
                        "1"
                    ]
                },
                {
                    "type": "QUEST_EXEC_REFRESH_GROUP_SUITE",
                    "param": [
                        "3",
                        "133107154,1"
                    ]
                }
            ],
            "versionBegin": "",
            "versionEnd": ""
        },
        {
            "subId": 1103205,
            "mainId": 11032,
            "order": 4,
            "descTextMapHash": 3797916844,
            "exclusivePlaceList": [
                1100902
            ],
            "finishCond": [
                {
                    "type": "QUEST_CONTENT_LUA_NOTIFY",
                    "param": [
                        0,
                        0
                    ],
                    "count": 1
                }
            ],
            "guide": {
                "type": "QUEST_GUIDE_NPC",
                "param": [
                    "214001"
                ],
                "guideScene": 3,
                "guideStyle": "QUEST_GUIDE_STYLE_TARGET",
                "guideLayer": "QUEST_GUIDE_LAYER_SCENE"
            },
            "acceptCondComb": {
                "FDPBPIHKEGH": ""
            },
            "isRewind": true,
            "versionBegin": "",
            "versionEnd": ""
        }
    ],
    "talks": [
        {
            "id": 1103202,
            "beginWay": "TALK_BEGIN_MANUAL",
            "beginCond": [
                {
                    "type": "QUEST_COND_STATE_EQUAL",
                    "param": [
                        "1103203",
                        "2"
                    ]
                }
            ],
            "priority": 5,
            "initDialog": 110320201,
            "npcId": [
                202901,
                1015
            ],
            "performCfg": "QuestDialogue/LQ/Ganyu1_11032/Q1103203",
            "heroTalk": "TALK_HERO_MAIN",
            "questId": 11032,
            "assetIndex": 446430997886929342,
            "prePerformCfg": ""
        },
        {
            "id": 1103203,
            "beginWay": "TALK_BEGIN_MANUAL",
            "beginCond": [
                {
                    "type": "QUEST_COND_STATE_EQUAL",
                    "param": [
                        "1103204",
                        "2"
                    ]
                }
            ],
            "priority": 5,
            "initDialog": 110320301,
            "npcId": [
                214001,
                214201,
                214301
            ],
            "performCfg": "QuestDialogue/LQ/Ganyu1_11032/Q1103204",
            "heroTalk": "TALK_HERO_MAIN",
            "questId": 11032,
            "assetIndex": 16682757136329164827,
            "prePerformCfg": ""
        }
    ],
    "FFDPMMFBDAE": [
        14457059026087496718
    ],
    "freeStyleDic": {
        "1015": [
            8010
        ],
        "202901": [
            8010
        ],
        "214001": [
            1240
        ],
        "214201": [
            1170
        ],
        "214301": [
            1170
        ]
    }
}