{
    "id": 13002,
    "KHGONCANKFN": 2031,
    "series": 13000,
    "type": "LQ",
    "titleTextMapHash": 2055258439,
    "descTextMapHash": 972043750,
    "luaPath": "Actor/Quest/LQ13002",
    "suggestTrackMainQuestList": [
        13003
    ],
    "rewardIdList": [
        113002
    ],
    "chapterId": 2030,
    "subQuests": [
        {
            "subId": 1300201,
            "mainId": 13002,
            "order": 1,
            "descTextMapHash": 2606885780,
            "stepDescTextMapHash": 2876685453,
            "finishCond": [
                {
                    "type": "QUEST_CONTENT_COMPLETE_TALK",
                    "param": [
                        1300201,
                        0
                    ]
                }
            ],
            "guide": {
                "type": "QUEST_GUIDE_LOCATION",
                "param": [
                    "Q1300201_guide",
                    "30"
                ],
                "guideScene": 3,
                "guideStyle": "QUEST_GUIDE_STYLE_TARGET",
                "guideLayer": "QUEST_GUIDE_LAYER_SCENE"
            },
            "acceptCondComb": {
                "FDPBPIHKEGH": ""
            },
            "isRewind": true,
            "versionBegin": "",
            "versionEnd": ""
        },
        {
            "subId": 1300202,
            "mainId": 13002,
            "order": 2,
            "descTextMapHash": 2400479308,
            "finishCond": [
                {
                    "type": "QUEST_CONTENT_ENTER_DUNGEON",
                    "param": [
                        1150,
                        609
                    ]
                }
            ],
            "guide": {
                "type": "QUEST_GUIDE_LOCATION",
                "param": [
                    "Q1300202_guide"
                ],
                "guideScene": 3,
                "guideStyle": "QUEST_GUIDE_STYLE_POINT",
                "guideLayer": "QUEST_GUIDE_LAYER_SCENE"
            },
            "acceptCondComb": {
                "FDPBPIHKEGH": ""
            },
            "isRewind": true,
            "finishExec": [
                {
                    "type": "QUEST_EXEC_GRANT_TRIAL_AVATAR",
                    "param": [
                        "49"
                    ]
                }
            ],
            "versionBegin": "",
            "versionEnd": ""
        },
        {
            "subId": 1300203,
            "mainId": 13002,
            "order": 3,
            "descTextMapHash": 2937205580,
            "finishCond": [
                {
                    "type": "QUEST_CONTENT_LUA_NOTIFY",
                    "param": [
                        0,
                        0
                    ],
                    "count": 1
                }
            ],
            "failCond": [
                {
                    "type": "QUEST_CONTENT_FAIL_DUNGEON",
                    "param": [
                        1150,
                        0
                    ]
                },
                {
                    "type": "QUEST_CONTENT_ENTER_MY_WORLD",
                    "param": [
                        3,
                        0
                    ]
                },
                {
                    "type": "QUEST_CONTENT_LEAVE_SCENE",
                    "param": [
                        20149,
                        0
                    ]
                }
            ],
            "guide": {},
            "showGuide": "QUEST_GUIDE_ITEM_DISABLE",
            "acceptCondComb": {
                "FDPBPIHKEGH": ""
            },
            "isRewind": true,
            "failExec": [
                {
                    "type": "QUEST_EXEC_ROLLBACK_QUEST",
                    "param": [
                        "1300202"
                    ]
                },
                {
                    "type": "QUEST_EXEC_REMOVE_TRIAL_AVATAR",
                    "param": [
                        "49"
                    ]
                }
            ],
            "versionBegin": "",
            "versionEnd": ""
        },
        {
            "subId": 1300204,
            "mainId": 13002,
            "order": 4,
            "descTextMapHash": 4065912284,
            "stepDescTextMapHash": 779440165,
            "finishCond": [
                {
                    "type": "QUEST_CONTENT_COMPLETE_TALK",
                    "param": [
                        1300204,
                        0
                    ]
                }
            ],
            "failCond": [
                {
                    "type": "QUEST_CONTENT_FAIL_DUNGEON",
                    "param": [
                        1150,
                        0
                    ]
                },
                {
                    "type": "QUEST_CONTENT_ENTER_MY_WORLD",
                    "param": [
                        3,
                        0
                    ]
                },
                {
                    "type": "QUEST_CONTENT_LEAVE_SCENE",
                    "param": [
                        20149,
                        0
                    ]
                }
            ],
            "guide": {},
            "showGuide": "QUEST_GUIDE_ITEM_DISABLE",
            "acceptCondComb": {
                "FDPBPIHKEGH": ""
            },
            "isRewind": true,
            "failExec": [
                {
                    "type": "QUEST_EXEC_ROLLBACK_QUEST",
                    "param": [
                        "1300202"
                    ]
                },
                {
                    "type": "QUEST_EXEC_REMOVE_TRIAL_AVATAR",
                    "param": [
                        "49"
                    ]
                }
            ],
            "versionBegin": "",
            "versionEnd": ""
        },
        {
            "subId": 1300205,
            "mainId": 13002,
            "order": 7,
            "descTextMapHash": 4160619092,
            "stepDescTextMapHash": 1731961181,
            "finishCond": [
                {
                    "type": "QUEST_CONTENT_COMPLETE_TALK",
                    "param": [
                        1300205,
                        0
                    ]
                }
            ],
            "failCond": [
                {
                    "type": "QUEST_CONTENT_FAIL_DUNGEON",
                    "param": [
                        1150,
                        0
                    ]
                },
                {
                    "type": "QUEST_CONTENT_ENTER_MY_WORLD",
                    "param": [
                        3,
                        0
                    ]
                },
                {
                    "type": "QUEST_CONTENT_LEAVE_SCENE",
                    "param": [
                        20149,
                        0
                    ]
                }
            ],
            "guide": {},
            "showGuide": "QUEST_GUIDE_ITEM_DISABLE",
            "acceptCondComb": {
                "FDPBPIHKEGH": ""
            },
            "isRewind": true,
            "finishExec": [
                {
                    "type": "QUEST_EXEC_NOTIFY_GROUP_LUA",
                    "param": [
                        "20149",
                        "220149003"
                    ]
                },
                {
                    "type": "QUEST_EXEC_REFRESH_GROUP_SUITE",
                    "param": [
                        "20149",
                        "220149016,2"
                    ]
                }
            ],
            "failExec": [
                {
                    "type": "QUEST_EXEC_ROLLBACK_QUEST",
                    "param": [
                        "1300202"
                    ]
                },
                {
                    "type": "QUEST_EXEC_REMOVE_TRIAL_AVATAR",
                    "param": [
                        "49"
                    ]
                }
            ],
            "versionBegin": "",
            "versionEnd": ""
        },
        {
            "subId": 1300206,
            "mainId": 13002,
            "order": 8,
            "descTextMapHash": 634844644,
            "finishCond": [
                {
                    "type": "QUEST_CONTENT_COMPLETE_TALK",
                    "param": [
                        1300207,
                        0
                    ]
                }
            ],
            "failCond": [
                {
                    "type": "QUEST_CONTENT_FAIL_DUNGEON",
                    "param": [
                        1150,
                        0
                    ]
                },
                {
                    "type": "QUEST_CONTENT_ENTER_MY_WORLD",
                    "param": [
                        3,
                        0
                    ]
                },
                {
                    "type": "QUEST_CONTENT_LEAVE_SCENE",
                    "param": [
                        20149,
                        0
                    ]
                }
            ],
            "guide": {},
            "showGuide": "QUEST_GUIDE_ITEM_DISABLE",
            "acceptCondComb": {
                "FDPBPIHKEGH": ""
            },
            "isRewind": true,
            "finishExec": [
                {
                    "type": "QUEST_EXEC_REFRESH_GROUP_SUITE",
                    "param": [
                        "20149",
                        "220149009,2"
                    ]
                },
                {
                    "type": "QUEST_EXEC_REFRESH_GROUP_SUITE",
                    "param": [
                        "20149",
                        "220149006,3"
                    ]
                },
                {
                    "type": "QUEST_EXEC_NOTIFY_GROUP_LUA",
                    "param": [
                        "20149",
                        "220149003"
                    ]
                }
            ],
            "failExec": [
                {
                    "type": "QUEST_EXEC_ROLLBACK_QUEST",
                    "param": [
                        "1300202"
                    ]
                },
                {
                    "type": "QUEST_EXEC_REMOVE_TRIAL_AVATAR",
                    "param": [
                        "49"
                    ]
                }
            ],
            "versionBegin": "",
            "versionEnd": ""
        },
        {
            "subId": 1300207,
            "mainId": 13002,
            "order": 9,
            "descTextMapHash": 2034182108,
            "finishCond": [
                {
                    "type": "QUEST_CONTENT_COMPLETE_TALK",
                    "param": [
                        1300208,
                        0
                    ]
                }
            ],
            "failCond": [
                {
                    "type": "QUEST_CONTENT_FAIL_DUNGEON",
                    "param": [
                        1150,
                        0
                    ]
                },
                {
                    "type": "QUEST_CONTENT_ENTER_MY_WORLD",
                    "param": [
                        3,
                        0
                    ]
                },
                {
                    "type": "QUEST_CONTENT_LEAVE_SCENE",
                    "param": [
                        20149,
                        0
                    ]
                }
            ],
            "guide": {},
            "showGuide": "QUEST_GUIDE_ITEM_DISABLE",
            "acceptCondComb": {
                "FDPBPIHKEGH": ""
            },
            "isRewind": true,
            "finishExec": [
                {
                    "type": "QUEST_EXEC_REFRESH_GROUP_SUITE",
                    "param": [
                        "20149",
                        "220149007,3"
                    ]
                },
                {
                    "type": "QUEST_EXEC_NOTIFY_GROUP_LUA",
                    "param": [
                        "20149",
                        "220149003"
                    ]
                }
            ],
            "failExec": [
                {
                    "type": "QUEST_EXEC_ROLLBACK_QUEST",
                    "param": [
                        "1300202"
                    ]
                },
                {
                    "type": "QUEST_EXEC_REMOVE_TRIAL_AVATAR",
                    "param": [
                        "49"
                    ]
                }
            ],
            "versionBegin": "",
            "versionEnd": ""
        },
        {
            "subId": 1300208,
            "mainId": 13002,
            "order": 10,
            "descTextMapHash": 736162212,
            "stepDescTextMapHash": 1907414021,
            "finishCond": [
                {
                    "type": "QUEST_CONTENT_COMPLETE_TALK",
                    "param": [
                        1300209,
                        0
                    ]
                }
            ],
            "failCond": [
                {
                    "type": "QUEST_CONTENT_FAIL_DUNGEON",
                    "param": [
                        1150,
                        0
                    ]
                },
                {
                    "type": "QUEST_CONTENT_ENTER_MY_WORLD",
                    "param": [
                        3,
                        0
                    ]
                },
                {
                    "type": "QUEST_CONTENT_LEAVE_SCENE",
                    "param": [
                        20149,
                        0
                    ]
                }
            ],
            "guide": {},
            "showGuide": "QUEST_GUIDE_ITEM_DISABLE",
            "acceptCondComb": {
                "FDPBPIHKEGH": ""
            },
            "isRewind": true,
            "finishExec": [
                {
                    "type": "QUEST_EXEC_NOTIFY_GROUP_LUA",
                    "param": [
                        "20149",
                        "220149004"
                    ]
                },
                {
                    "type": "QUEST_EXEC_REFRESH_GROUP_SUITE",
                    "param": [
                        "20149",
                        "220149008,3"
                    ]
                },
                {
                    "type": "QUEST_EXEC_NOTIFY_GROUP_LUA",
                    "param": [
                        "20149",
                        "220149005"
                    ]
                },
                {
                    "type": "QUEST_EXEC_NOTIFY_GROUP_LUA",
                    "param": [
                        "20149",
                        "220149003"
                    ]
                }
            ],
            "failExec": [
                {
                    "type": "QUEST_EXEC_ROLLBACK_QUEST",
                    "param": [
                        "1300202"
                    ]
                },
                {
                    "type": "QUEST_EXEC_REMOVE_TRIAL_AVATAR",
                    "param": [
                        "49"
                    ]
                }
            ],
            "versionBegin": "",
            "versionEnd": ""
        },
        {
            "subId": 1300209,
            "mainId": 13002,
            "order": 11,
            "descTextMapHash": 3332276740,
            "finishCond": [
                {
                    "type": "QUEST_CONTENT_LUA_NOTIFY",
                    "param": [
                        0,
                        0
                    ],
                    "count": 1
                }
            ],
            "failCond": [
                {
                    "type": "QUEST_CONTENT_FAIL_DUNGEON",
                    "param": [
                        1150,
                        0
                    ]
                },
                {
                    "type": "QUEST_CONTENT_ENTER_MY_WORLD",
                    "param": [
                        3,
                        0
                    ]
                },
                {
                    "type": "QUEST_CONTENT_LEAVE_SCENE",
                    "param": [
                        20149,
                        0
                    ]
                }
            ],
            "guide": {},
            "showGuide": "QUEST_GUIDE_ITEM_DISABLE",
            "acceptCondComb": {
                "FDPBPIHKEGH": ""
            },
            "isRewind": true,
            "finishExec": [
                {
                    "type": "QUEST_EXEC_NOTIFY_GROUP_LUA",
                    "param": [
                        "20149",
                        "220149003"
                    ]
                },
                {
                    "type": "QUEST_EXEC_REFRESH_GROUP_SUITE",
                    "param": [
                        "20149",
                        "220149001,2"
                    ]
                },
                {
                    "type": "QUEST_EXEC_REFRESH_GROUP_SUITE",
                    "param": [
                        "20149",
                        "220149011,2"
                    ]
                }
            ],
            "failExec": [
                {
                    "type": "QUEST_EXEC_ROLLBACK_QUEST",
                    "param": [
                        "1300202"
                    ]
                },
                {
                    "type": "QUEST_EXEC_REMOVE_TRIAL_AVATAR",
                    "param": [
                        "49"
                    ]
                }
            ],
            "versionBegin": "",
            "versionEnd": ""
        },
        {
            "subId": 1300210,
            "mainId": 13002,
            "order": 12,
            "descTextMapHash": 3930170372,
            "stepDescTextMapHash": 206911885,
            "finishCond": [
                {
                    "type": "QUEST_CONTENT_COMPLETE_TALK",
                    "param": [
                        1300210,
                        0
                    ]
                }
            ],
            "failCond": [
                {
                    "type": "QUEST_CONTENT_FAIL_DUNGEON",
                    "param": [
                        1150,
                        0
                    ]
                },
                {
                    "type": "QUEST_CONTENT_ENTER_MY_WORLD",
                    "param": [
                        3,
                        0
                    ]
                },
                {
                    "type": "QUEST_CONTENT_LEAVE_SCENE",
                    "param": [
                        20149,
                        0
                    ]
                }
            ],
            "guide": {},
            "showGuide": "QUEST_GUIDE_ITEM_DISABLE",
            "acceptCondComb": {
                "FDPBPIHKEGH": ""
            },
            "isRewind": true,
            "finishExec": [
                {
                    "type": "QUEST_EXEC_NOTIFY_GROUP_LUA",
                    "param": [
                        "20149",
                        "220149005"
                    ]
                },
                {
                    "type": "QUEST_EXEC_NOTIFY_GROUP_LUA",
                    "param": [
                        "20149",
                        "220149003"
                    ]
                },
                {
                    "type": "QUEST_EXEC_REFRESH_GROUP_SUITE",
                    "param": [
                        "20149",
                        "220149016,3"
                    ]
                }
            ],
            "failExec": [
                {
                    "type": "QUEST_EXEC_ROLLBACK_QUEST",
                    "param": [
                        "1300202"
                    ]
                },
                {
                    "type": "QUEST_EXEC_REMOVE_TRIAL_AVATAR",
                    "param": [
                        "49"
                    ]
                }
            ],
            "versionBegin": "",
            "versionEnd": ""
        },
        {
            "subId": 1300211,
            "mainId": 13002,
            "order": 14,
            "descTextMapHash": 1001126484,
            "finishCond": [
                {
                    "type": "QUEST_CONTENT_COMPLETE_TALK",
                    "param": [
                        1300211,
                        0
                    ]
                }
            ],
            "failCond": [
                {
                    "type": "QUEST_CONTENT_FAIL_DUNGEON",
                    "param": [
                        1150,
                        0
                    ]
                },
                {
                    "type": "QUEST_CONTENT_ENTER_MY_WORLD",
                    "param": [
                        3,
                        0
                    ]
                },
                {
                    "type": "QUEST_CONTENT_LEAVE_SCENE",
                    "param": [
                        20149,
                        0
                    ]
                }
            ],
            "guide": {},
            "showGuide": "QUEST_GUIDE_ITEM_DISABLE",
            "acceptCondComb": {
                "FDPBPIHKEGH": ""
            },
            "isRewind": true,
            "finishExec": [
                {
                    "type": "QUEST_EXEC_REFRESH_GROUP_SUITE",
                    "param": [
                        "20149",
                        "220149010,2"
                    ]
                },
                {
                    "type": "QUEST_EXEC_REFRESH_GROUP_SUITE",
                    "param": [
                        "20149",
                        "220149012,2"
                    ]
                },
                {
                    "type": "QUEST_EXEC_NOTIFY_GROUP_LUA",
                    "param": [
                        "20149",
                        "220149003"
                    ]
                }
            ],
            "failExec": [
                {
                    "type": "QUEST_EXEC_ROLLBACK_QUEST",
                    "param": [
                        "1300202"
                    ]
                },
                {
                    "type": "QUEST_EXEC_REMOVE_TRIAL_AVATAR",
                    "param": [
                        "49"
                    ]
                }
            ],
            "versionBegin": "",
            "versionEnd": ""
        },
        {
            "subId": 1300212,
            "mainId": 13002,
            "order": 5,
            "showType": "QUEST_HIDDEN",
            "finishCond": [
                {
                    "type": "QUEST_CONTENT_FINISH_PLOT",
                    "param": [
                        1300212,
                        0
                    ]
                }
            ],
            "failCond": [
                {
                    "type": "QUEST_CONTENT_FAIL_DUNGEON",
                    "param": [
                        1150,
                        0
                    ]
                },
                {
                    "type": "QUEST_CONTENT_ENTER_MY_WORLD",
                    "param": [
                        3,
                        0
                    ]
                },
                {
                    "type": "QUEST_CONTENT_QUEST_STATE_EQUAL",
                    "param": [
                        1300204,
                        3
                    ]
                }
            ],
            "guide": {
                "guideScene": 3,
                "guideStyle": "QUEST_GUIDE_STYLE_POINT",
                "guideLayer": "QUEST_GUIDE_LAYER_SCENE"
            },
            "showGuide": "QUEST_GUIDE_ITEM_DISABLE",
            "acceptCondComb": {
                "FDPBPIHKEGH": ""
            },
            "failParentShow": "QUEST_HIDDEN",
            "finishExec": [
                {
                    "type": "QUEST_EXEC_NOTIFY_GROUP_LUA",
                    "param": [
                        "20149",
                        "220149003"
                    ]
                }
            ],
            "versionBegin": "",
            "versionEnd": ""
        },
        {
            "subId": 1300213,
            "mainId": 13002,
            "order": 15,
            "descTextMapHash": 1188929796,
            "stepDescTextMapHash": 1336217349,
            "finishCond": [
                {
                    "type": "QUEST_CONTENT_COMPLETE_TALK",
                    "param": [
                        1300213,
                        0
                    ]
                }
            ],
            "failCond": [
                {
                    "type": "QUEST_CONTENT_FAIL_DUNGEON",
                    "param": [
                        1150,
                        0
                    ]
                },
                {
                    "type": "QUEST_CONTENT_ENTER_MY_WORLD",
                    "param": [
                        3,
                        0
                    ]
                },
                {
                    "type": "QUEST_CONTENT_LEAVE_SCENE",
                    "param": [
                        20149,
                        0
                    ]
                }
            ],
            "guide": {},
            "showGuide": "QUEST_GUIDE_ITEM_DISABLE",
            "acceptCondComb": {
                "FDPBPIHKEGH": ""
            },
            "isRewind": true,
            "finishExec": [
                {
                    "type": "QUEST_EXEC_LOCK_POINT",
                    "param": [
                        "3",
                        "609"
                    ]
                },
                {
                    "type": "QUEST_EXEC_SET_WEATHER_GADGET",
                    "param": [
                        "4047",
                        "0"
                    ]
                },
                {
                    "type": "QUEST_EXEC_UNREGISTER_DYNAMIC_GROUP",
                    "param": [
                        "133302033"
                    ]
                },
                {
                    "type": "QUEST_EXEC_REMOVE_TRIAL_AVATAR",
                    "param": [
                        "49"
                    ]
                }
            ],
            "failExec": [
                {
                    "type": "QUEST_EXEC_ROLLBACK_QUEST",
                    "param": [
                        "1300202"
                    ]
                },
                {
                    "type": "QUEST_EXEC_REMOVE_TRIAL_AVATAR",
                    "param": [
                        "49"
                    ]
                }
            ],
            "versionBegin": "",
            "versionEnd": ""
        },
        {
            "subId": 1300214,
            "mainId": 13002,
            "order": 16,
            "descTextMapHash": 3567320860,
            "finishCond": [
                {
                    "type": "QUEST_CONTENT_ENTER_MY_WORLD",
                    "param": [
                        3,
                        0
                    ]
                },
                {
                    "type": "QUEST_CONTENT_LEAVE_SCENE",
                    "param": [
                        20149,
                        0
                    ]
                }
            ],
            "guide": {},
            "showGuide": "QUEST_GUIDE_ITEM_DISABLE",
            "acceptCondComb": {
                "FDPBPIHKEGH": ""
            },
            "finishParent": true,
            "isRewind": true,
            "versionBegin": "",
            "versionEnd": ""
        },
        {
            "subId": 1300215,
            "mainId": 13002,
            "order": 13,
            "showType": "QUEST_HIDDEN",
            "finishCond": [
                {
                    "type": "QUEST_CONTENT_FINISH_PLOT",
                    "param": [
                        1300215,
                        0
                    ]
                }
            ],
            "failCond": [
                {
                    "type": "QUEST_CONTENT_FAIL_DUNGEON",
                    "param": [
                        1150,
                        0
                    ]
                },
                {
                    "type": "QUEST_CONTENT_ENTER_MY_WORLD",
                    "param": [
                        3,
                        0
                    ]
                },
                {
                    "type": "QUEST_CONTENT_QUEST_STATE_EQUAL",
                    "param": [
                        1300210,
                        3
                    ]
                }
            ],
            "guide": {},
            "showGuide": "QUEST_GUIDE_ITEM_DISABLE",
            "acceptCondComb": {
                "FDPBPIHKEGH": ""
            },
            "finishExec": [
                {
                    "type": "QUEST_EXEC_NOTIFY_GROUP_LUA",
                    "param": [
                        "20149",
                        "220149003"
                    ]
                }
            ],
            "versionBegin": "",
            "versionEnd": ""
        },
        {
            "subId": 1300216,
            "mainId": 13002,
            "order": 6,
            "descTextMapHash": 73246500,
            "finishCond": [
                {
                    "type": "QUEST_CONTENT_FINISH_PLOT",
                    "param": [
                        1300216,
                        0
                    ]
                }
            ],
            "failCond": [
                {
                    "type": "QUEST_CONTENT_FAIL_DUNGEON",
                    "param": [
                        1150,
                        0
                    ]
                },
                {
                    "type": "QUEST_CONTENT_ENTER_MY_WORLD",
                    "param": [
                        3,
                        0
                    ]
                },
                {
                    "type": "QUEST_CONTENT_LEAVE_SCENE",
                    "param": [
                        20149,
                        0
                    ]
                }
            ],
            "guide": {},
            "showGuide": "QUEST_GUIDE_ITEM_DISABLE",
            "acceptCondComb": {
                "FDPBPIHKEGH": ""
            },
            "isRewind": true,
            "finishExec": [
                {
                    "type": "QUEST_EXEC_NOTIFY_GROUP_LUA",
                    "param": [
                        "20149",
                        "220149003"
                    ]
                }
            ],
            "failExec": [
                {
                    "type": "QUEST_EXEC_ROLLBACK_QUEST",
                    "param": [
                        "1300202"
                    ]
                },
                {
                    "type": "QUEST_EXEC_REMOVE_TRIAL_AVATAR",
                    "param": [
                        "49"
                    ]
                }
            ],
            "versionBegin": "",
            "versionEnd": ""
        }
    ],
    "talks": [
        {
            "id": 1300201,
            "beginWay": "TALK_BEGIN_MANUAL",
            "beginCond": [
                {
                    "type": "QUEST_COND_STATE_EQUAL",
                    "param": [
                        "1300201",
                        "2"
                    ]
                }
            ],
            "priority": 5,
            "initDialog": 130020101,
            "npcId": [
                12603,
                1050
            ],
            "performCfg": "QuestDialogue/LQ/Tighnari1_13002/Q1300201",
            "heroTalk": "TALK_HERO_MAIN",
            "questId": 13002,
            "assetIndex": 11288564373626627114,
            "prePerformCfg": ""
        },
        {
            "id": 1300204,
            "beginWay": "TALK_BEGIN_MANUAL",
            "beginCond": [
                {
                    "type": "QUEST_COND_STATE_EQUAL",
                    "param": [
                        "1300204",
                        "2"
                    ]
                }
            ],
            "priority": 5,
            "initDialog": 130020401,
            "npcId": [
                1050,
                12603,
                12615
            ],
            "performCfg": "QuestDialogue/LQ/Tighnari1_13002/Q1300204",
            "heroTalk": "TALK_HERO_MAIN",
            "questId": 13002,
            "assetIndex": 954189874903267872,
            "prePerformCfg": ""
        },
        {
            "id": 1300205,
            "beginWay": "TALK_BEGIN_MANUAL",
            "beginCond": [
                {
                    "type": "QUEST_COND_STATE_EQUAL",
                    "param": [
                        "1300205",
                        "2"
                    ]
                }
            ],
            "priority": 5,
            "initDialog": 130020501,
            "npcId": [
                1050,
                12603
            ],
            "performCfg": "QuestDialogue/LQ/Tighnari1_13002/Q1300205",
            "heroTalk": "TALK_HERO_MAIN",
            "questId": 13002,
            "assetIndex": 7029033428952308335,
            "prePerformCfg": ""
        },
        {
            "id": 1300207,
            "beginWay": "TALK_BEGIN_MANUAL",
            "beginCond": [
                {
                    "type": "QUEST_COND_STATE_EQUAL",
                    "param": [
                        "1300206",
                        "2"
                    ]
                }
            ],
            "priority": 5,
            "initDialog": 130020701,
            "npcId": [
                1050,
                12639,
                12686
            ],
            "performCfg": "QuestDialogue/LQ/Tighnari1_13002/Q1300207",
            "heroTalk": "TALK_HERO_MAIN",
            "questId": 13002,
            "assetIndex": 3745856043027377984,
            "prePerformCfg": ""
        },
        {
            "id": 1300208,
            "beginWay": "TALK_BEGIN_MANUAL",
            "beginCond": [
                {
                    "type": "QUEST_COND_STATE_EQUAL",
                    "param": [
                        "1300207",
                        "2"
                    ]
                }
            ],
            "priority": 5,
            "initDialog": 130020801,
            "npcId": [
                1050,
                12639,
                12686
            ],
            "performCfg": "QuestDialogue/LQ/Tighnari1_13002/Q1300208",
            "heroTalk": "TALK_HERO_MAIN",
            "questId": 13002,
            "assetIndex": 17099524094226287257,
            "prePerformCfg": ""
        },
        {
            "id": 1300209,
            "beginWay": "TALK_BEGIN_MANUAL",
            "beginCond": [
                {
                    "type": "QUEST_COND_STATE_EQUAL",
                    "param": [
                        "1300208",
                        "2"
                    ]
                }
            ],
            "priority": 5,
            "initDialog": 130020901,
            "npcId": [
                1050,
                12686,
                12639
            ],
            "performCfg": "QuestDialogue/LQ/Tighnari1_13002/Q1300209",
            "heroTalk": "TALK_HERO_MAIN",
            "questId": 13002,
            "assetIndex": 15330432984744355079,
            "prePerformCfg": ""
        },
        {
            "id": 1300210,
            "beginWay": "TALK_BEGIN_MANUAL",
            "beginCond": [
                {
                    "type": "QUEST_COND_STATE_EQUAL",
                    "param": [
                        "1300210",
                        "2"
                    ]
                }
            ],
            "priority": 5,
            "initDialog": 130021001,
            "npcId": [
                1050
            ],
            "performCfg": "QuestDialogue/LQ/Tighnari1_13002/Q1300210",
            "heroTalk": "TALK_HERO_MAIN",
            "questId": 13002,
            "assetIndex": 12840894740900619116,
            "prePerformCfg": ""
        },
        {
            "id": 1300211,
            "beginWay": "TALK_BEGIN_MANUAL",
            "beginCond": [
                {
                    "type": "QUEST_COND_STATE_EQUAL",
                    "param": [
                        "1300211",
                        "2"
                    ]
                }
            ],
            "priority": 5,
            "initDialog": 130021101,
            "npcId": [
                1050
            ],
            "performCfg": "QuestDialogue/LQ/Tighnari1_13002/Q1300211",
            "heroTalk": "TALK_HERO_MAIN",
            "questId": 13002,
            "assetIndex": 2436800000479424063,
            "prePerformCfg": ""
        },
        {
            "id": 1300213,
            "beginWay": "TALK_BEGIN_MANUAL",
            "beginCond": [
                {
                    "type": "QUEST_COND_STATE_EQUAL",
                    "param": [
                        "1300213",
                        "2"
                    ]
                }
            ],
            "priority": 5,
            "initDialog": 130021301,
            "npcId": [
                1050
            ],
            "performCfg": "QuestDialogue/LQ/Tighnari1_13002/Q1300213",
            "heroTalk": "TALK_HERO_MAIN",
            "questId": 13002,
            "assetIndex": 4162886655226984194,
            "prePerformCfg": ""
        },
        {
            "id": 1300214,
            "beginWay": "TALK_BEGIN_MANUAL",
            "beginCond": [
                {
                    "type": "QUEST_COND_STATE_EQUAL",
                    "param": [
                        "1300214",
                        "2"
                    ]
                }
            ],
            "priority": 5,
            "initDialog": 130021401,
            "npcId": [
                1050
            ],
            "performCfg": "QuestDialogue/LQ/Tighnari1_13002/Q1300214",
            "heroTalk": "TALK_HERO_MAIN",
            "questId": 13002,
            "assetIndex": 7389721163571984887,
            "prePerformCfg": ""
        },
        {
            "id": 1300215,
            "beginWay": "TALK_BEGIN_MANUAL",
            "beginCondComb": "LOGIC_OR",
            "beginCond": [
                {
                    "type": "QUEST_COND_STATE_EQUAL",
                    "param": [
                        "1300213",
                        "2"
                    ]
                },
                {
                    "type": "QUEST_COND_STATE_EQUAL",
                    "param": [
                        "1300214",
                        "2"
                    ]
                }
            ],
            "priority": 5,
            "initDialog": 130021501,
            "npcId": [
                12665
            ],
            "performCfg": "QuestDialogue/LQ/Tighnari1_13002/Q1300215",
            "heroTalk": "TALK_HERO_MAIN",
            "questId": 13002,
            "assetIndex": 2388864867865519049,
            "prePerformCfg": ""
        },
        {
            "id": 1300216,
            "activeMode": "PLAY_MODE_ALL",
            "priority": 5,
            "initDialog": 130021601,
            "npcId": [
                1050,
                1005
            ],
            "performCfg": "",
            "questId": 13002,
            "assetIndex": 9721795419569716840,
            "prePerformCfg": ""
        },
        {
            "id": 1300217,
            "beginWay": "TALK_BEGIN_MANUAL",
            "activeMode": "PLAY_MODE_ALL",
            "beginCondComb": "LOGIC_OR",
            "beginCond": [
                {
                    "type": "QUEST_COND_STATE_EQUAL",
                    "param": [
                        "1300207",
                        "2"
                    ]
                },
                {
                    "type": "QUEST_COND_STATE_EQUAL",
                    "param": [
                        "1300208",
                        "2"
                    ]
                },
                {
                    "type": "QUEST_COND_STATE_EQUAL",
                    "param": [
                        "1300209",
                        "2"
                    ]
                },
                {
                    "type": "QUEST_COND_STATE_EQUAL",
                    "param": [
                        "1300210",
                        "2"
                    ]
                }
            ],
            "priority": 5,
            "initDialog": 130021701,
            "npcId": [
                12603
            ],
            "performCfg": "QuestDialogue/LQ/Tighnari1_13002/Q1300217",
            "heroTalk": "TALK_HERO_MAIN",
            "questId": 13002,
            "assetIndex": 4309233415265453581,
            "prePerformCfg": ""
        },
        {
            "id": 1300218,
            "beginWay": "TALK_BEGIN_MANUAL",
            "activeMode": "PLAY_MODE_ALL",
            "beginCond": [
                {
                    "type": "QUEST_COND_STATE_EQUAL",
                    "param": [
                        "1300206",
                        "2"
                    ]
                }
            ],
            "priority": 5,
            "initDialog": 130021801,
            "npcId": [
                12603
            ],
            "performCfg": "QuestDialogue/LQ/Tighnari1_13002/Q1300218",
            "heroTalk": "TALK_HERO_MAIN",
            "questId": 13002,
            "assetIndex": 5056986183921183351,
            "prePerformCfg": ""
        }
    ],
    "FFDPMMFBDAE": [
        4021969640750956733,
        8159279031182242186,
        4846442867041494019,
        9599494499748567290,
        8553012417222542682,
        17010864578524853131,
        12777898234443702124,
        5820330728570301228,
        8916890829657153740,
        15207083488920846973,
        12042501442671690251,
        10716496990144510893
    ],
    "IGKJEKALOKN": [
        12807790258976597430
    ],
    "freeStyleDic": {
        "12603": [
            1030
        ]
    }
}