{
    "id": 19050,
    "KHGONCANKFN": 3007,
    "series": 102401,
    "type": "LQ",
    "titleTextMapHash": 3936481175,
    "descTextMapHash": 2843127278,
    "luaPath": "Actor/Quest/LQ19050",
    "suggestTrackMainQuestList": [
        19051,
        19052,
        19053,
        19054
    ],
    "suggestTrackOutOfOrder": true,
    "chapterId": 102401,
    "subQuests": [
        {
            "subId": 1905001,
            "mainId": 19050,
            "order": 1,
            "descTextMapHash": 920693532,
            "finishCond": [
                {
                    "type": "QUEST_CONTENT_MAIN_COOP_ENTER_SAVE_POINT",
                    "param": [
                        102401,
                        190500101
                    ]
                }
            ],
            "guide": {
                "type": "QUEST_GUIDE_LOCATION",
                "autoGuide": "QUEST_GUIDE_AUTO_ENABLE",
                "param": [
                    "COOP10240101Beidou01"
                ],
                "guideScene": 3,
                "guideStyle": "QUEST_GUIDE_STYLE_POINT",
                "guideLayer": "QUEST_GUIDE_LAYER_SCENE"
            },
            "acceptCondComb": {
                "FDPBPIHKEGH": ""
            },
            "isRewind": true,
            "versionBegin": "",
            "versionEnd": ""
        },
        {
            "subId": 1905002,
            "mainId": 19050,
            "order": 2,
            "descTextMapHash": 2993473228,
            "finishCond": [
                {
                    "type": "QUEST_CONTENT_MAIN_COOP_ENTER_SAVE_POINT",
                    "param": [
                        102401,
                        190500401
                    ]
                },
                {
                    "type": "QUEST_CONTENT_MAIN_COOP_ENTER_SAVE_POINT",
                    "param": [
                        102401,
                        190500402
                    ]
                }
            ],
            "guide": {
                "type": "QUEST_GUIDE_NPC",
                "autoGuide": "QUEST_GUIDE_AUTO_ENABLE",
                "param": [
                    "506"
                ],
                "guideScene": 3,
                "guideStyle": "QUEST_GUIDE_STYLE_TARGET",
                "guideLayer": "QUEST_GUIDE_LAYER_SCENE"
            },
            "acceptCondComb": {
                "FDPBPIHKEGH": ""
            },
            "isRewind": true,
            "finishExec": [
                {
                    "type": "QUEST_EXEC_UNREGISTER_DYNAMIC_GROUP",
                    "param": [
                        "133113006"
                    ]
                }
            ],
            "versionBegin": "",
            "versionEnd": ""
        },
        {
            "subId": 1905003,
            "mainId": 19050,
            "order": 3,
            "descTextMapHash": 2141439748,
            "stepDescTextMapHash": 3429222533,
            "finishCond": [
                {
                    "type": "QUEST_CONTENT_MAIN_COOP_ENTER_SAVE_POINT",
                    "param": [
                        102401,
                        190500201
                    ]
                },
                {
                    "type": "QUEST_CONTENT_MAIN_COOP_ENTER_SAVE_POINT",
                    "param": [
                        102401,
                        190500202
                    ]
                }
            ],
            "guide": {
                "type": "QUEST_GUIDE_NPC",
                "autoGuide": "QUEST_GUIDE_AUTO_ENABLE",
                "param": [
                    "2433"
                ],
                "guideScene": 3,
                "guideStyle": "QUEST_GUIDE_STYLE_TARGET",
                "guideLayer": "QUEST_GUIDE_LAYER_SCENE"
            },
            "acceptCondComb": {
                "FDPBPIHKEGH": ""
            },
            "finishParent": true,
            "isRewind": true,
            "versionBegin": "",
            "versionEnd": ""
        },
        {
            "subId": 1905004,
            "mainId": 19050,
            "order": 4,
            "descTextMapHash": 281491236,
            "finishCond": [
                {
                    "type": "QUEST_CONTENT_MAIN_COOP_ENTER_SAVE_POINT",
                    "param": [
                        102401,
                        190500301
                    ]
                },
                {
                    "type": "QUEST_CONTENT_MAIN_COOP_ENTER_SAVE_POINT",
                    "param": [
                        102401,
                        190500302
                    ]
                }
            ],
            "guide": {
                "type": "QUEST_GUIDE_NPC",
                "autoGuide": "QUEST_GUIDE_AUTO_ENABLE",
                "param": [
                    "506"
                ],
                "guideScene": 3,
                "guideStyle": "QUEST_GUIDE_STYLE_TARGET",
                "guideLayer": "QUEST_GUIDE_LAYER_SCENE"
            },
            "acceptCondComb": {
                "FDPBPIHKEGH": ""
            },
            "finishParent": true,
            "isRewind": true,
            "versionBegin": "",
            "versionEnd": ""
        }
    ],
    "FFDPMMFBDAE": [
        9040496386801062997,
        8145582320018737290,
        14806483781305114470
    ],
    "IGKJEKALOKN": [
        10290753689223915123
    ]
}