{
    "id": 19057,
    "KHGONCANKFN": 3014,
    "series": 105901,
    "type": "LQ",
    "titleTextMapHash": 444750495,
    "descTextMapHash": 3245384550,
    "luaPath": "Actor/Quest/LQ19057",
    "suggestTrackOutOfOrder": true,
    "chapterId": 105901,
    "subQuests": [
        {
            "subId": 1905701,
            "mainId": 19057,
            "order": 1,
            "descTextMapHash": 3122489340,
            "finishCond": [
                {
                    "type": "QUEST_CONTENT_FINISH_PLOT",
                    "param": [
                        1905701,
                        0
                    ]
                }
            ],
            "guide": {
                "type": "QUEST_GUIDE_LOCATION",
                "param": [
                    "Q1905701_N3002",
                    "10"
                ],
                "guideScene": 3,
                "guideStyle": "QUEST_GUIDE_STYLE_TARGET",
                "guideLayer": "QUEST_GUIDE_LAYER_SCENE"
            },
            "acceptCondComb": {
                "FDPBPIHKEGH": ""
            },
            "isRewind": true,
            "versionBegin": "",
            "versionEnd": ""
        },
        {
            "subId": 1905702,
            "mainId": 19057,
            "order": 3,
            "descTextMapHash": 33116220,
            "finishCond": [
                {
                    "type": "QUEST_CONTENT_MAIN_COOP_ENTER_SAVE_POINT",
                    "param": [
                        105901,
                        190570201
                    ]
                }
            ],
            "guide": {
                "type": "QUEST_GUIDE_NPC",
                "param": [
                    "12553"
                ],
                "guideScene": 3,
                "guideStyle": "QUEST_GUIDE_STYLE_TARGET",
                "guideLayer": "QUEST_GUIDE_LAYER_SCENE"
            },
            "acceptCondComb": {
                "FDPBPIHKEGH": ""
            },
            "isRewind": true,
            "versionBegin": "",
            "versionEnd": ""
        },
        {
            "subId": 1905703,
            "mainId": 19057,
            "order": 5,
            "descTextMapHash": 767862436,
            "finishCond": [
                {
                    "type": "QUEST_CONTENT_MAIN_COOP_ENTER_SAVE_POINT",
                    "param": [
                        105901,
                        190570301
                    ]
                }
            ],
            "guide": {
                "type": "QUEST_GUIDE_NPC",
                "param": [
                    "1044"
                ],
                "guideScene": 3,
                "guideStyle": "QUEST_GUIDE_STYLE_TARGET",
                "guideLayer": "QUEST_GUIDE_LAYER_SCENE"
            },
            "acceptCondComb": {
                "FDPBPIHKEGH": ""
            },
            "isRewind": true,
            "finishExec": [
                {
                    "type": "QUEST_EXEC_SET_QUEST_GLOBAL_VAR",
                    "param": [
                        "19057",
                        "1"
                    ]
                }
            ],
            "versionBegin": "",
            "versionEnd": ""
        },
        {
            "subId": 1905704,
            "mainId": 19057,
            "order": 6,
            "descTextMapHash": 2006497956,
            "finishCond": [
                {
                    "type": "QUEST_CONTENT_GAME_TIME_TICK",
                    "param": [
                        1,
                        0
                    ]
                }
            ],
            "guide": {},
            "showGuide": "QUEST_GUIDE_ITEM_DISABLE",
            "acceptCondComb": {
                "FDPBPIHKEGH": ""
            },
            "isRewind": true,
            "finishExec": [
                {
                    "type": "QUEST_EXEC_UNREGISTER_DYNAMIC_GROUP",
                    "param": [
                        "133220768",
                        "1"
                    ]
                }
            ],
            "versionBegin": "",
            "versionEnd": ""
        },
        {
            "subId": 1905705,
            "mainId": 19057,
            "order": 7,
            "descTextMapHash": 4172374956,
            "exclusivePlaceList": [
                1202910
            ],
            "finishCond": [
                {
                    "type": "QUEST_CONTENT_MAIN_COOP_ENTER_SAVE_POINT",
                    "param": [
                        105901,
                        190570401
                    ]
                }
            ],
            "guide": {
                "type": "QUEST_GUIDE_LOCATION",
                "param": [
                    "Q1905802_guide"
                ],
                "guideScene": 3,
                "guideStyle": "QUEST_GUIDE_STYLE_POINT",
                "guideLayer": "QUEST_GUIDE_LAYER_SCENE"
            },
            "acceptCondComb": {
                "FDPBPIHKEGH": ""
            },
            "finishParent": true,
            "isRewind": true,
            "finishExec": [
                {
                    "type": "QUEST_EXEC_UNREGISTER_DYNAMIC_GROUP",
                    "param": [
                        "133220777"
                    ]
                },
                {
                    "type": "QUEST_EXEC_DEL_ALL_SPECIFIC_PACK_ITEM",
                    "param": [
                        "101916"
                    ]
                }
            ],
            "versionBegin": "",
            "versionEnd": ""
        },
        {
            "subId": 1905706,
            "mainId": 19057,
            "order": 8,
            "showType": "QUEST_HIDDEN",
            "exclusivePlaceList": [
                1202910
            ],
            "finishCond": [
                {
                    "type": "QUEST_CONTENT_MAIN_COOP_ENTER_SAVE_POINT",
                    "param": [
                        105901,
                        190570402
                    ]
                }
            ],
            "guide": {
                "guideScene": 3,
                "guideLayer": "QUEST_GUIDE_LAYER_SCENE"
            },
            "showGuide": "QUEST_GUIDE_ITEM_DISABLE",
            "acceptCondComb": {
                "FDPBPIHKEGH": ""
            },
            "finishParent": true,
            "finishExec": [
                {
                    "type": "QUEST_EXEC_UNREGISTER_DYNAMIC_GROUP",
                    "param": [
                        "133220777"
                    ]
                },
                {
                    "type": "QUEST_EXEC_DEL_ALL_SPECIFIC_PACK_ITEM",
                    "param": [
                        "101916"
                    ]
                }
            ],
            "versionBegin": "",
            "versionEnd": ""
        },
        {
            "subId": 1905707,
            "mainId": 19057,
            "order": 2,
            "descTextMapHash": 1488216604,
            "finishCond": [
                {
                    "type": "QUEST_CONTENT_MAIN_COOP_ENTER_SAVE_POINT",
                    "param": [
                        105901,
                        190570101
                    ]
                }
            ],
            "guide": {
                "type": "QUEST_GUIDE_NPC",
                "param": [
                    "3106"
                ],
                "guideScene": 3,
                "guideStyle": "QUEST_GUIDE_STYLE_TARGET",
                "guideLayer": "QUEST_GUIDE_LAYER_SCENE"
            },
            "acceptCondComb": {
                "FDPBPIHKEGH": ""
            },
            "isRewind": true,
            "versionBegin": "",
            "versionEnd": ""
        },
        {
            "subId": 1905708,
            "mainId": 19057,
            "order": 4,
            "descTextMapHash": 2966663668,
            "finishCond": [
                {
                    "type": "QUEST_CONTENT_FINISH_PLOT",
                    "param": [
                        1905708,
                        0
                    ]
                }
            ],
            "guide": {
                "type": "QUEST_GUIDE_LOCATION",
                "param": [
                    "Q1905703_N1044",
                    "20"
                ],
                "guideScene": 3,
                "guideStyle": "QUEST_GUIDE_STYLE_TARGET",
                "guideLayer": "QUEST_GUIDE_LAYER_SCENE"
            },
            "acceptCondComb": {
                "FDPBPIHKEGH": ""
            },
            "isRewind": true,
            "versionBegin": "",
            "versionEnd": ""
        }
    ],
    "talks": [
        {
            "id": 1905707,
            "beginWay": "TALK_BEGIN_MANUAL",
            "beginCond": [
                {
                    "type": "QUEST_COND_STATE_EQUAL",
                    "param": [
                        "1905702",
                        "2"
                    ]
                }
            ],
            "priority": 5,
            "initDialog": 190570701,
            "npcId": [
                12552
            ],
            "performCfg": "QuestDialogue/COOP/Coop105901SimpleTalk/Q1905707",
            "heroTalk": "TALK_HERO_MAIN",
            "questId": 19057,
            "assetIndex": 5355325282030173752,
            "prePerformCfg": ""
        },
        {
            "id": 1905708,
            "beginWay": "TALK_BEGIN_MANUAL",
            "beginCond": [
                {
                    "type": "QUEST_COND_STATE_EQUAL",
                    "param": [
                        "1905702",
                        "2"
                    ]
                }
            ],
            "priority": 5,
            "initDialog": 190570801,
            "npcId": [
                3106
            ],
            "performCfg": "QuestDialogue/COOP/Coop105901SimpleTalk/Q1905708",
            "heroTalk": "TALK_HERO_MAIN",
            "questId": 19057,
            "assetIndex": 902113417966800495,
            "prePerformCfg": ""
        },
        {
            "id": 1905709,
            "beginWay": "TALK_BEGIN_MANUAL",
            "beginCondComb": "LOGIC_OR",
            "beginCond": [
                {
                    "type": "QUEST_COND_STATE_EQUAL",
                    "param": [
                        "1905703",
                        "2"
                    ]
                },
                {
                    "type": "QUEST_COND_STATE_EQUAL",
                    "param": [
                        "1905708",
                        "2"
                    ]
                }
            ],
            "priority": 5,
            "initDialog": 190570901,
            "npcId": [
                12553
            ],
            "performCfg": "QuestDialogue/COOP/Coop105901SimpleTalk/Q1905709",
            "heroTalk": "TALK_HERO_MAIN",
            "questId": 19057,
            "assetIndex": 3874317438736690218,
            "prePerformCfg": ""
        }
    ],
    "FFDPMMFBDAE": [
        10781125964306988617,
        13713648339710352989,
        14488218489756342087,
        3324408358969952753
    ],
    "IGKJEKALOKN": [
        2679507097587920347
    ],
    "freeStyleDic": {
        "12549": [
            1060
        ],
        "1044": [
            1120,
            1170
        ],
        "3045": [
            5010
        ],
        "12276": [
            1230
        ],
        "12552": [
            1170
        ],
        "12278": [
            1120
        ]
    }
}