{
    "id": 19075,
    "KHGONCANKFN": 3018,
    "series": 108101,
    "type": "LQ",
    "titleTextMapHash": 3207588239,
    "descTextMapHash": 2917083022,
    "luaPath": "Actor/Quest/LQ19075",
    "suggestTrackMainQuestList": [
        19076,
        19077
    ],
    "suggestTrackOutOfOrder": true,
    "chapterId": 108101,
    "subQuests": [
        {
            "subId": 1907501,
            "mainId": 19075,
            "order": 1,
            "descTextMapHash": 1608669652,
            "exclusivePlaceList": [
                107901
            ],
            "finishCond": [
                {
                    "type": "QUEST_CONTENT_MAIN_COOP_ENTER_SAVE_POINT",
                    "param": [
                        108101,
                        190750101
                    ]
                },
                {
                    "type": "QUEST_CONTENT_MAIN_COOP_ENTER_SAVE_POINT",
                    "param": [
                        108101,
                        190750102
                    ]
                }
            ],
            "guide": {
                "type": "QUEST_GUIDE_LOCATION",
                "param": [
                    "Q1907501_N515"
                ],
                "guideScene": 1079,
                "guideStyle": "QUEST_GUIDE_STYLE_POINT",
                "guideLayer": "QUEST_GUIDE_LAYER_SCENE"
            },
            "acceptCondComb": {
                "FDPBPIHKEGH": ""
            },
            "finishParent": true,
            "isRewind": true,
            "finishExec": [
                {
                    "type": "QUEST_EXEC_LOCK_POINT",
                    "param": [
                        "3",
                        "741"
                    ]
                }
            ],
            "versionBegin": "",
            "versionEnd": ""
        }
    ],
    "dialogList": [
        {
            "id": 190750188,
            "talkRole": {
                "type": "TALK_ROLE_PLAYER",
                "id": ""
            },
            "talkContentTextMapHash": 1492087258,
            "talkAssetPath": "",
            "talkAssetPathAlter": "",
            "talkAudioName": "",
            "actionBefore": "",
            "actionWhile": "",
            "actionAfter": "",
            "optionIcon": ""
        },
        {
            "id": 190750189,
            "talkRole": {
                "type": "TALK_ROLE_PLAYER",
                "id": ""
            },
            "talkContentTextMapHash": 1454939978,
            "talkAssetPath": "",
            "talkAssetPathAlter": "",
            "talkAudioName": "",
            "actionBefore": "",
            "actionWhile": "",
            "actionAfter": "",
            "optionIcon": ""
        }
    ]
}