{
    "id": 19089,
    "KHGONCANKFN": 8001,
    "type": "LQ",
    "titleTextMapHash": 410782095,
    "luaPath": "Actor/Quest/LQ19089",
    "subQuests": [
        {
            "subId": 1908901,
            "mainId": 19089,
            "order": 1,
            "showType": "QUEST_HIDDEN",
            "guide": {
                "type": "QUEST_GUIDE_NPC",
                "param": [
                    "SELECT_NPC_NONE"
                ],
                "guideStyle": "QUEST_GUIDE_STYLE_TARGET",
                "guideLayer": "QUEST_GUIDE_LAYER_SCENE"
            },
            "showGuide": "QUEST_GUIDE_ITEM_DISABLE",
            "acceptCondComb": {
                "FDPBPIHKEGH": ""
            },
            "versionBegin": "",
            "versionEnd": ""
        },
        {
            "subId": 1908902,
            "mainId": 19089,
            "order": 2,
            "showType": "QUEST_HIDDEN",
            "guide": {
                "type": "QUEST_GUIDE_NPC",
                "param": [
                    "SELECT_NPC_NONE"
                ],
                "guideStyle": "QUEST_GUIDE_STYLE_TARGET",
                "guideLayer": "QUEST_GUIDE_LAYER_SCENE"
            },
            "showGuide": "QUEST_GUIDE_ITEM_DISABLE",
            "acceptCondComb": {
                "FDPBPIHKEGH": ""
            },
            "versionBegin": "",
            "versionEnd": ""
        },
        {
            "subId": 1908903,
            "mainId": 19089,
            "order": 3,
            "showType": "QUEST_HIDDEN",
            "guide": {
                "type": "QUEST_GUIDE_NPC",
                "param": [
                    "SELECT_NPC_NONE"
                ],
                "guideStyle": "QUEST_GUIDE_STYLE_TARGET",
                "guideLayer": "QUEST_GUIDE_LAYER_SCENE"
            },
            "showGuide": "QUEST_GUIDE_ITEM_DISABLE",
            "acceptCondComb": {
                "FDPBPIHKEGH": ""
            },
            "versionBegin": "",
            "versionEnd": ""
        }
    ]
}