{
    "id": 2018,
    "KHGONCANKFN": 1011,
    "series": 1210,
    "titleTextMapHash": 2536531223,
    "descTextMapHash": 1656142070,
    "luaPath": "Actor/Quest/AQ2018",
    "suggestTrackMainQuestList": [
        2019
    ],
    "rewardIdList": [
        102018
    ],
    "chapterId": 1204,
    "subQuests": [
        {
            "subId": 201801,
            "mainId": 2018,
            "order": 1,
            "descTextMapHash": 1172020132,
            "finishCond": [
                {
                    "type": "QUEST_CONTENT_GAME_TIME_TICK",
                    "param": [
                        1,
                        0
                    ]
                }
            ],
            "guide": {},
            "acceptCondComb": {
                "FDPBPIHKEGH": ""
            },
            "isRewind": true,
            "versionBegin": "",
            "versionEnd": ""
        },
        {
            "subId": 201802,
            "mainId": 2018,
            "order": 2,
            "descTextMapHash": 3891407444,
            "finishCond": [
                {
                    "type": "QUEST_CONTENT_COMPLETE_TALK",
                    "param": [
                        201802,
                        0
                    ]
                }
            ],
            "guide": {
                "type": "QUEST_GUIDE_NPC",
                "param": [
                    "1034"
                ],
                "guideScene": 3,
                "guideStyle": "QUEST_GUIDE_STYLE_TARGET",
                "guideLayer": "QUEST_GUIDE_LAYER_SCENE"
            },
            "acceptCondComb": {
                "FDPBPIHKEGH": ""
            },
            "isRewind": true,
            "finishExec": [
                {
                    "type": "QUEST_EXEC_DEL_ALL_SPECIFIC_PACK_ITEM",
                    "param": [
                        "101543,101544"
                    ]
                }
            ],
            "versionBegin": "",
            "versionEnd": ""
        },
        {
            "subId": 201803,
            "mainId": 2018,
            "order": 3,
            "descTextMapHash": 1578558140,
            "finishCond": [
                {
                    "type": "QUEST_CONTENT_FINISH_PLOT",
                    "param": [
                        201803,
                        0
                    ]
                }
            ],
            "guide": {
                "type": "QUEST_GUIDE_NPC",
                "param": [
                    "1038"
                ],
                "guideScene": 3,
                "guideStyle": "QUEST_GUIDE_STYLE_TARGET",
                "guideLayer": "QUEST_GUIDE_LAYER_SCENE"
            },
            "acceptCondComb": {
                "FDPBPIHKEGH": ""
            },
            "isRewind": true,
            "versionBegin": "",
            "versionEnd": ""
        },
        {
            "subId": 201804,
            "mainId": 2018,
            "order": 7,
            "isMpBlock": true,
            "descTextMapHash": 2698377516,
            "finishCond": [
                {
                    "type": "QUEST_CONTENT_COMPLETE_TALK",
                    "param": [
                        201804,
                        0
                    ]
                }
            ],
            "failCond": [
                {
                    "type": "QUEST_CONTENT_FAIL_DUNGEON",
                    "param": [
                        1123,
                        0
                    ]
                },
                {
                    "type": "QUEST_CONTENT_ENTER_MY_WORLD",
                    "param": [
                        3,
                        0
                    ]
                }
            ],
            "guide": {
                "type": "QUEST_GUIDE_NPC",
                "param": [
                    "3053"
                ],
                "guideScene": 3,
                "guideStyle": "QUEST_GUIDE_STYLE_TARGET",
                "guideLayer": "QUEST_GUIDE_LAYER_SCENE"
            },
            "acceptCondComb": {
                "FDPBPIHKEGH": ""
            },
            "finishParent": true,
            "isRewind": true,
            "finishExec": [
                {
                    "type": "QUEST_EXEC_REMOVE_TRIAL_AVATAR",
                    "param": [
                        "31"
                    ]
                },
                {
                    "type": "QUEST_EXEC_LOCK_POINT",
                    "param": [
                        "3",
                        "403"
                    ]
                },
                {
                    "type": "QUEST_EXEC_NOTIFY_GROUP_LUA",
                    "param": [
                        "1065",
                        "201065001"
                    ]
                }
            ],
            "failExec": [
                {
                    "type": "QUEST_EXEC_ROLLBACK_QUEST",
                    "param": [
                        "201806"
                    ]
                }
            ],
            "versionBegin": "",
            "versionEnd": ""
        },
        {
            "subId": 201805,
            "mainId": 2018,
            "order": 4,
            "descTextMapHash": 3526525748,
            "finishCond": [
                {
                    "type": "QUEST_CONTENT_COMPLETE_TALK",
                    "param": [
                        201803,
                        0
                    ]
                }
            ],
            "guide": {
                "type": "QUEST_GUIDE_NPC",
                "param": [
                    "1038"
                ],
                "guideScene": 3,
                "guideStyle": "QUEST_GUIDE_STYLE_POINT",
                "guideLayer": "QUEST_GUIDE_LAYER_SCENE"
            },
            "acceptCondComb": {
                "FDPBPIHKEGH": ""
            },
            "versionBegin": "",
            "versionEnd": ""
        },
        {
            "subId": 201806,
            "mainId": 2018,
            "order": 5,
            "descTextMapHash": 3601511908,
            "finishCond": [
                {
                    "type": "QUEST_CONTENT_ENTER_DUNGEON",
                    "param": [
                        1123,
                        403
                    ]
                }
            ],
            "guide": {
                "type": "QUEST_GUIDE_LOCATION",
                "param": [
                    "Q201806_Target"
                ],
                "guideScene": 1064,
                "guideStyle": "QUEST_GUIDE_STYLE_POINT",
                "guideLayer": "QUEST_GUIDE_LAYER_SCENE"
            },
            "acceptCondComb": {
                "FDPBPIHKEGH": ""
            },
            "failParentShow": "QUEST_HIDDEN",
            "isRewind": true,
            "versionBegin": "",
            "versionEnd": ""
        },
        {
            "subId": 201807,
            "mainId": 2018,
            "order": 6,
            "isMpBlock": true,
            "descTextMapHash": 3037213412,
            "finishCond": [
                {
                    "type": "QUEST_CONTENT_LUA_NOTIFY",
                    "param": [
                        0,
                        0
                    ],
                    "count": 1
                }
            ],
            "failCond": [
                {
                    "type": "QUEST_CONTENT_FAIL_DUNGEON",
                    "param": [
                        1123,
                        0
                    ]
                },
                {
                    "type": "QUEST_CONTENT_ENTER_MY_WORLD",
                    "param": [
                        3,
                        0
                    ]
                }
            ],
            "guide": {},
            "acceptCondComb": {
                "FDPBPIHKEGH": ""
            },
            "isRewind": true,
            "failExec": [
                {
                    "type": "QUEST_EXEC_ROLLBACK_QUEST",
                    "param": [
                        "201806"
                    ]
                }
            ],
            "versionBegin": "",
            "versionEnd": ""
        }
    ],
    "talks": [
        {
            "id": 201802,
            "beginWay": "TALK_BEGIN_MANUAL",
            "beginCond": [
                {
                    "type": "QUEST_COND_STATE_EQUAL",
                    "param": [
                        "201802",
                        "2"
                    ]
                }
            ],
            "priority": 5,
            "initDialog": 20180201,
            "npcId": [
                1038,
                1034,
                1005
            ],
            "performCfg": "QuestDialogue/AQ/Inazuma2_2018/Q201802",
            "heroTalk": "TALK_HERO_MAIN",
            "questId": 2018,
            "assetIndex": 11419333092971688978,
            "prePerformCfg": ""
        },
        {
            "id": 201803,
            "beginWay": "TALK_BEGIN_MANUAL",
            "beginCond": [
                {
                    "type": "QUEST_COND_STATE_EQUAL",
                    "param": [
                        "201805",
                        "2"
                    ]
                }
            ],
            "priority": 5,
            "initDialog": 20180301,
            "npcId": [
                1038
            ],
            "performCfg": "QuestDialogue/AQ/Inazuma2_2018/Q201803",
            "heroTalk": "TALK_HERO_MAIN",
            "questId": 2018,
            "assetIndex": 7428461633056888173,
            "prePerformCfg": ""
        },
        {
            "id": 201804,
            "beginWay": "TALK_BEGIN_MANUAL",
            "beginCond": [
                {
                    "type": "QUEST_COND_STATE_EQUAL",
                    "param": [
                        "201804",
                        "2"
                    ]
                }
            ],
            "priority": 5,
            "initDialog": 20180403,
            "npcId": [
                3053,
                1038,
                1005
            ],
            "performCfg": "QuestDialogue/AQ/Inazuma2_2018/Q201804",
            "heroTalk": "TALK_HERO_MAIN",
            "questId": 2018,
            "assetIndex": 2444881673833607536,
            "prePerformCfg": ""
        },
        {
            "id": 201850,
            "beginWay": "TALK_BEGIN_MANUAL",
            "beginCond": [
                {
                    "type": "QUEST_COND_STATE_EQUAL",
                    "param": [
                        "201802",
                        "2"
                    ]
                }
            ],
            "priority": 5,
            "initDialog": 20185001,
            "npcId": [
                1033
            ],
            "performCfg": "QuestDialogue/AQ/Inazuma2_2017/Q201850",
            "heroTalk": "TALK_HERO_MAIN",
            "questId": 2018,
            "assetIndex": 8766070189581050024,
            "prePerformCfg": ""
        },
        {
            "id": 201851,
            "beginWay": "TALK_BEGIN_MANUAL",
            "beginCond": [
                {
                    "type": "QUEST_COND_STATE_EQUAL",
                    "param": [
                        "201802",
                        "2"
                    ]
                }
            ],
            "priority": 5,
            "initDialog": 20185101,
            "npcId": [
                1013
            ],
            "performCfg": "QuestDialogue/AQ/Inazuma2_2017/Q201851",
            "heroTalk": "TALK_HERO_MAIN",
            "questId": 2018,
            "assetIndex": 8214339825819951807,
            "prePerformCfg": ""
        },
        {
            "id": 201852,
            "beginWay": "TALK_BEGIN_MANUAL",
            "beginCond": [
                {
                    "type": "QUEST_COND_STATE_EQUAL",
                    "param": [
                        "201803",
                        "2"
                    ]
                }
            ],
            "priority": 5,
            "initDialog": 20185201,
            "npcId": [
                1034
            ],
            "performCfg": "QuestDialogue/AQ/Inazuma2_2018/Q201852",
            "heroTalk": "TALK_HERO_MAIN",
            "questId": 2018,
            "assetIndex": 8954879497453720417,
            "prePerformCfg": ""
        }
    ],
    "FFDPMMFBDAE": [
        17577097413810157127,
        1830088417247133165
    ],
    "IGKJEKALOKN": [
        16258268988803247365
    ]
}