{
    "id": 2019,
    "KHGONCANKFN": 1011,
    "series": 1210,
    "titleTextMapHash": 172874215,
    "descTextMapHash": 662672838,
    "luaPath": "Actor/Quest/AQ2019",
    "suggestTrackMainQuestList": [
        2020
    ],
    "rewardIdList": [
        102019
    ],
    "chapterId": 1204,
    "subQuests": [
        {
            "subId": 201901,
            "mainId": 2019,
            "order": 3,
            "isMpBlock": true,
            "descTextMapHash": 4239877732,
            "finishCond": [
                {
                    "type": "QUEST_CONTENT_COMPLETE_TALK",
                    "param": [
                        201901,
                        0
                    ]
                }
            ],
            "failCond": [
                {
                    "type": "QUEST_CONTENT_FAIL_DUNGEON",
                    "param": [
                        126,
                        0
                    ]
                },
                {
                    "type": "QUEST_CONTENT_ENTER_MY_WORLD",
                    "param": [
                        3,
                        0
                    ]
                }
            ],
            "guide": {},
            "acceptCondComb": {
                "FDPBPIHKEGH": ""
            },
            "isRewind": true,
            "finishExec": [
                {
                    "type": "QUEST_EXEC_NOTIFY_GROUP_LUA",
                    "param": [
                        "20114",
                        "220114001"
                    ]
                }
            ],
            "failExec": [
                {
                    "type": "QUEST_EXEC_ROLLBACK_QUEST",
                    "param": [
                        "201905"
                    ]
                }
            ],
            "versionBegin": "",
            "versionEnd": ""
        },
        {
            "subId": 201902,
            "mainId": 2019,
            "order": 4,
            "isMpBlock": true,
            "descTextMapHash": 256933484,
            "finishCond": [
                {
                    "type": "QUEST_CONTENT_LUA_NOTIFY",
                    "param": [
                        0,
                        0
                    ],
                    "count": 1
                }
            ],
            "failCond": [
                {
                    "type": "QUEST_CONTENT_FAIL_DUNGEON",
                    "param": [
                        126,
                        0
                    ]
                },
                {
                    "type": "QUEST_CONTENT_ENTER_MY_WORLD",
                    "param": [
                        3,
                        0
                    ]
                }
            ],
            "guide": {},
            "acceptCondComb": {
                "FDPBPIHKEGH": ""
            },
            "isRewind": true,
            "failExec": [
                {
                    "type": "QUEST_EXEC_ROLLBACK_QUEST",
                    "param": [
                        "201905"
                    ]
                }
            ],
            "versionBegin": "",
            "versionEnd": ""
        },
        {
            "subId": 201903,
            "mainId": 2019,
            "order": 5,
            "isMpBlock": true,
            "descTextMapHash": 4013488724,
            "showType": "QUEST_HIDDEN",
            "finishCond": [
                {
                    "type": "QUEST_CONTENT_FINISH_PLOT",
                    "param": [
                        201903,
                        0
                    ]
                }
            ],
            "failCond": [
                {
                    "type": "QUEST_CONTENT_FAIL_DUNGEON",
                    "param": [
                        126,
                        0
                    ]
                },
                {
                    "type": "QUEST_CONTENT_ENTER_MY_WORLD",
                    "param": [
                        3,
                        0
                    ]
                }
            ],
            "guide": {},
            "acceptCondComb": {
                "FDPBPIHKEGH": ""
            },
            "isRewind": true,
            "failExec": [
                {
                    "type": "QUEST_EXEC_ROLLBACK_QUEST",
                    "param": [
                        "201905"
                    ]
                }
            ],
            "versionBegin": "",
            "versionEnd": ""
        },
        {
            "subId": 201904,
            "mainId": 2019,
            "order": 6,
            "isMpBlock": true,
            "descTextMapHash": 548436668,
            "finishCond": [
                {
                    "type": "QUEST_CONTENT_ENTER_MY_WORLD",
                    "param": [
                        3,
                        0
                    ]
                }
            ],
            "guide": {},
            "acceptCondComb": {
                "FDPBPIHKEGH": ""
            },
            "finishParent": true,
            "isRewind": true,
            "finishExec": [
                {
                    "type": "QUEST_EXEC_LOCK_POINT",
                    "param": [
                        "3",
                        "394"
                    ]
                }
            ],
            "versionBegin": "",
            "versionEnd": ""
        },
        {
            "subId": 201905,
            "mainId": 2019,
            "order": 2,
            "descTextMapHash": 1998491692,
            "finishCond": [
                {
                    "type": "QUEST_CONTENT_ENTER_DUNGEON",
                    "param": [
                        126,
                        394
                    ]
                }
            ],
            "guide": {
                "type": "QUEST_GUIDE_LOCATION",
                "param": [
                    "Q201805Target"
                ],
                "guideScene": 3,
                "guideStyle": "QUEST_GUIDE_STYLE_POINT",
                "guideLayer": "QUEST_GUIDE_LAYER_SCENE"
            },
            "acceptCondComb": {
                "FDPBPIHKEGH": ""
            },
            "isRewind": true,
            "versionBegin": "",
            "versionEnd": ""
        }
    ],
    "talks": [
        {
            "id": 201853,
            "beginWay": "TALK_BEGIN_MANUAL",
            "beginCond": [
                {
                    "type": "QUEST_COND_STATE_EQUAL",
                    "param": [
                        "201905",
                        "2"
                    ]
                }
            ],
            "priority": 5,
            "initDialog": 20185301,
            "npcId": [
                3053
            ],
            "performCfg": "QuestDialogue/AQ/Inazuma2_2018/Q201853",
            "heroTalk": "TALK_HERO_MAIN",
            "questId": 2019,
            "assetIndex": 13632927291569986544,
            "prePerformCfg": ""
        },
        {
            "id": 201901,
            "beginWay": "TALK_BEGIN_MANUAL",
            "beginCond": [
                {
                    "type": "QUEST_COND_STATE_EQUAL",
                    "param": [
                        "201901",
                        "2"
                    ]
                }
            ],
            "priority": 5,
            "initDialog": 20190101,
            "npcId": [
                1017,
                1005,
                1036
            ],
            "performCfg": "QuestDialogue/AQ/Inazuma2_2019/Q201901",
            "heroTalk": "TALK_HERO_MAIN",
            "questId": 2019,
            "assetIndex": 12093862777403278399,
            "prePerformCfg": ""
        }
    ],
    "FFDPMMFBDAE": [
        9991800542956312760
    ],
    "IGKJEKALOKN": [
        14759698342105341113
    ],
    "freeStyleDic": {
        "12145": [
            4110
        ],
        "3056": [
            1240
        ],
        "1038": [
            4121
        ],
        "1036": [
            1120
        ]
    }
}