{
    "id": 20742,
    "type": "WQ",
    "titleTextMapHash": 104174959,
    "descTextMapHash": 948300886,
    "luaPath": "Actor/Quest/WQ20742",
    "showType": "QUEST_HIDDEN",
    "subQuests": [
        {
            "subId": 2074201,
            "mainId": 20742,
            "order": 1,
            "descTextMapHash": 3516594900,
            "showType": "QUEST_HIDDEN",
            "finishCond": [
                {
                    "type": "QUEST_CONTENT_GAME_TIME_TICK",
                    "param": [
                        0,
                        0
                    ]
                }
            ],
            "guide": {
                "type": "QUEST_GUIDE_NPC",
                "param": [
                    "2211"
                ],
                "guideScene": 3,
                "guideStyle": "QUEST_GUIDE_STYLE_START",
                "guideLayer": "QUEST_GUIDE_LAYER_SCENE"
            },
            "showGuide": "QUEST_GUIDE_ITEM_DISABLE",
            "acceptCondComb": {
                "FDPBPIHKEGH": ""
            },
            "isRewind": true,
            "versionBegin": "",
            "versionEnd": ""
        },
        {
            "subId": 2074202,
            "mainId": 20742,
            "order": 2,
            "descTextMapHash": 1765840468,
            "stepDescTextMapHash": 2141601477,
            "finishCond": [
                {
                    "type": "QUEST_CONTENT_COMPLETE_TALK",
                    "param": [
                        2074204,
                        0
                    ]
                }
            ],
            "guide": {
                "type": "QUEST_GUIDE_NPC",
                "param": [
                    "1425"
                ],
                "guideScene": 3,
                "guideStyle": "QUEST_GUIDE_STYLE_START",
                "guideLayer": "QUEST_GUIDE_LAYER_SCENE"
            },
            "acceptCondComb": {
                "FDPBPIHKEGH": ""
            },
            "isRewind": true,
            "versionBegin": "",
            "versionEnd": ""
        },
        {
            "subId": 2074203,
            "mainId": 20742,
            "order": 3,
            "descTextMapHash": 1081021308,
            "stepDescTextMapHash": 3426611165,
            "finishCond": [
                {
                    "type": "QUEST_CONTENT_OBTAIN_ITEM",
                    "param": [
                        100057,
                        0
                    ],
                    "count": 1
                }
            ],
            "guide": {
                "type": "QUEST_GUIDE_NPC",
                "param": [
                    "1425"
                ],
                "guideScene": 3,
                "guideStyle": "QUEST_GUIDE_STYLE_START",
                "guideLayer": "QUEST_GUIDE_LAYER_SCENE"
            },
            "showGuide": "QUEST_GUIDE_ITEM_DISABLE",
            "acceptCondComb": {
                "FDPBPIHKEGH": ""
            },
            "isRewind": true,
            "versionBegin": "",
            "versionEnd": ""
        },
        {
            "subId": 2074204,
            "mainId": 20742,
            "order": 4,
            "descTextMapHash": 695989828,
            "stepDescTextMapHash": 4140776637,
            "finishCond": [
                {
                    "type": "QUEST_CONTENT_COMPLETE_TALK",
                    "param": [
                        2074205,
                        0
                    ]
                }
            ],
            "guide": {
                "type": "QUEST_GUIDE_NPC",
                "param": [
                    "1425"
                ],
                "guideScene": 3,
                "guideStyle": "QUEST_GUIDE_STYLE_FINISH",
                "guideLayer": "QUEST_GUIDE_LAYER_SCENE"
            },
            "acceptCondComb": {
                "FDPBPIHKEGH": ""
            },
            "finishParent": true,
            "isRewind": true,
            "finishExec": [
                {
                    "type": "QUEST_EXEC_DEL_PACK_ITEM",
                    "param": [
                        "100057",
                        "1"
                    ]
                },
                {
                    "type": "QUEST_EXEC_REFRESH_GROUP_SUITE",
                    "param": [
                        "3",
                        "133004350,1"
                    ]
                }
            ],
            "versionBegin": "",
            "versionEnd": ""
        },
        {
            "subId": 2074205,
            "mainId": 20742,
            "order": 5,
            "descTextMapHash": 592524724,
            "showType": "QUEST_HIDDEN",
            "guide": {
                "type": "QUEST_GUIDE_NPC",
                "param": [
                    "2211"
                ],
                "guideScene": 3,
                "guideStyle": "QUEST_GUIDE_STYLE_START",
                "guideLayer": "QUEST_GUIDE_LAYER_SCENE"
            },
            "showGuide": "QUEST_GUIDE_ITEM_DISABLE",
            "acceptCondComb": {
                "FDPBPIHKEGH": ""
            },
            "isRewind": true,
            "versionBegin": "",
            "versionEnd": ""
        },
        {
            "subId": 2074206,
            "mainId": 20742,
            "order": 2,
            "descTextMapHash": 2314190156,
            "stepDescTextMapHash": 2448879269,
            "finishCond": [
                {
                    "type": "QUEST_CONTENT_COMPLETE_TALK",
                    "param": [
                        2074207,
                        0
                    ]
                }
            ],
            "guide": {
                "type": "QUEST_GUIDE_NPC",
                "param": [
                    "1425"
                ],
                "guideScene": 3,
                "guideStyle": "QUEST_GUIDE_STYLE_START",
                "guideLayer": "QUEST_GUIDE_LAYER_SCENE"
            },
            "acceptCondComb": {
                "FDPBPIHKEGH": ""
            },
            "isRewind": true,
            "versionBegin": "",
            "versionEnd": ""
        },
        {
            "subId": 2074207,
            "mainId": 20742,
            "order": 7,
            "descTextMapHash": 4250207892,
            "showType": "QUEST_HIDDEN",
            "finishCond": [
                {
                    "type": "QUEST_CONTENT_GAME_TIME_TICK",
                    "param": [
                        1,
                        0
                    ],
                    "count": 1
                }
            ],
            "guide": {
                "type": "QUEST_GUIDE_NPC",
                "param": [
                    "2211"
                ],
                "guideScene": 3,
                "guideStyle": "QUEST_GUIDE_STYLE_START",
                "guideLayer": "QUEST_GUIDE_LAYER_SCENE"
            },
            "showGuide": "QUEST_GUIDE_ITEM_DISABLE",
            "acceptCondComb": {
                "FDPBPIHKEGH": ""
            },
            "isRewind": true,
            "finishExec": [
                {
                    "type": "QUEST_EXEC_REFRESH_GROUP_SUITE",
                    "param": [
                        "3",
                        "133004344,2"
                    ]
                }
            ],
            "versionBegin": "",
            "versionEnd": ""
        },
        {
            "subId": 2074208,
            "mainId": 20742,
            "order": 8,
            "descTextMapHash": 3590711388,
            "showType": "QUEST_HIDDEN",
            "finishCond": [
                {
                    "type": "QUEST_CONTENT_LUA_NOTIFY",
                    "param": [
                        1,
                        0
                    ],
                    "count": 1
                }
            ],
            "guide": {
                "type": "QUEST_GUIDE_NPC",
                "param": [
                    "2211"
                ],
                "guideScene": 3,
                "guideStyle": "QUEST_GUIDE_STYLE_START",
                "guideLayer": "QUEST_GUIDE_LAYER_SCENE"
            },
            "showGuide": "QUEST_GUIDE_ITEM_DISABLE",
            "acceptCondComb": {
                "FDPBPIHKEGH": ""
            },
            "isRewind": true,
            "versionBegin": "",
            "versionEnd": ""
        }
    ],
    "talks": [
        {
            "id": 2074201,
            "beginCondComb": "LOGIC_AND",
            "beginCond": [
                {
                    "type": "QUEST_COND_STATE_EQUAL",
                    "param": [
                        "2074202",
                        "2"
                    ]
                }
            ],
            "priority": 5,
            "nextTalks": [
                2074202,
                2074203
            ],
            "initDialog": 207420101,
            "npcId": [
                1425
            ],
            "performCfg": "",
            "heroTalk": "TALK_HERO_MAIN",
            "questId": 20742,
            "assetIndex": 16582918469598648742,
            "dontBlockDaily": true,
            "prePerformCfg": ""
        },
        {
            "id": 2074202,
            "beginCondComb": "LOGIC_AND",
            "beginCond": [
                {
                    "type": "QUEST_COND_STATE_EQUAL",
                    "param": [
                        "2074202",
                        "2"
                    ]
                }
            ],
            "priority": 5,
            "nextTalks": [
                2074204
            ],
            "initDialog": 207420201,
            "npcId": [
                1425
            ],
            "performCfg": "",
            "heroTalk": "TALK_HERO_MAIN",
            "questId": 20742,
            "assetIndex": 12262027627327092084,
            "prePerformCfg": ""
        },
        {
            "id": 2074203,
            "beginCondComb": "LOGIC_AND",
            "beginCond": [
                {
                    "type": "QUEST_COND_STATE_EQUAL",
                    "param": [
                        "2074202",
                        "2"
                    ]
                }
            ],
            "priority": 5,
            "nextTalks": [
                2074204
            ],
            "initDialog": 207420301,
            "npcId": [
                1425
            ],
            "performCfg": "",
            "heroTalk": "TALK_HERO_MAIN",
            "questId": 20742,
            "assetIndex": 3676266326455376491,
            "prePerformCfg": ""
        },
        {
            "id": 2074204,
            "beginCondComb": "LOGIC_AND",
            "beginCond": [
                {
                    "type": "QUEST_COND_STATE_EQUAL",
                    "param": [
                        "2074202",
                        "2"
                    ]
                }
            ],
            "priority": 5,
            "initDialog": 207420401,
            "npcId": [
                1425
            ],
            "performCfg": "",
            "heroTalk": "TALK_HERO_MAIN",
            "questId": 20742,
            "assetIndex": 5452261451942167924,
            "prePerformCfg": ""
        },
        {
            "id": 2074205,
            "beginCondComb": "LOGIC_AND",
            "beginCond": [
                {
                    "type": "QUEST_COND_STATE_EQUAL",
                    "param": [
                        "2074204",
                        "2"
                    ]
                }
            ],
            "priority": 5,
            "initDialog": 207420501,
            "npcId": [
                1425
            ],
            "performCfg": "",
            "heroTalk": "TALK_HERO_MAIN",
            "questId": 20742,
            "assetIndex": 16928273468764603399,
            "dontBlockDaily": true,
            "prePerformCfg": ""
        },
        {
            "id": 2074206,
            "beginCondComb": "LOGIC_AND",
            "beginCond": [
                {
                    "type": "QUEST_COND_STATE_EQUAL",
                    "param": [
                        "2074203",
                        "2"
                    ]
                }
            ],
            "priority": 5,
            "initDialog": 207420601,
            "npcId": [
                1425
            ],
            "performCfg": "",
            "heroTalk": "TALK_HERO_MAIN",
            "questId": 20742,
            "assetIndex": 14019304180786411105,
            "dontBlockDaily": true,
            "prePerformCfg": ""
        },
        {
            "id": 2074207,
            "beginWay": "TALK_BEGIN_MANUAL",
            "beginCondComb": "LOGIC_AND",
            "beginCond": [
                {
                    "type": "QUEST_COND_STATE_EQUAL",
                    "param": [
                        "2074206",
                        "2"
                    ]
                }
            ],
            "priority": 5,
            "nextTalks": [
                2074202,
                2074203
            ],
            "initDialog": 207420701,
            "npcId": [
                1425
            ],
            "performCfg": "",
            "questId": 20742,
            "assetIndex": 15115995510815671048,
            "prePerformCfg": ""
        }
    ]
}