{
    "id": 21010,
    "type": "WQ",
    "titleTextMapHash": 1849409745,
    "descTextMapHash": 872889143,
    "luaPath": "",
    "showType": "QUEST_HIDDEN",
    "subQuests": [
        {
            "subId": 2101001,
            "mainId": 21010,
            "order": 1,
            "descTextMapHash": 2119918762,
            "showType": "QUEST_HIDDEN",
            "finishCond": [
                {
                    "type": "QUEST_CONTENT_LUA_NOTIFY",
                    "param": [
                        0,
                        0
                    ],
                    "count": 1
                }
            ],
            "guide": {},
            "acceptCondComb": {
                "FDPBPIHKEGH": ""
            },
            "finishParent": true,
            "isRewind": true,
            "finishExec": [
                {
                    "type": "QUEST_EXEC_SET_WEATHER_GADGET",
                    "param": [
                        "2006",
                        "0"
                    ]
                },
                {
                    "type": "QUEST_EXEC_SET_WEATHER_GADGET",
                    "param": [
                        "2009",
                        "1"
                    ]
                }
            ],
            "versionBegin": "",
            "versionEnd": ""
        }
    ],
    "talks": [
        {
            "id": 2101000,
            "beginWay": "TALK_BEGIN_MANUAL",
            "beginCond": [
                {
                    "type": "QUEST_COND_STATE_EQUAL",
                    "param": [
                        "2101201",
                        "3"
                    ]
                }
            ],
            "priority": 8,
            "initDialog": 210100001,
            "npcId": [
                20029
            ],
            "performCfg": "",
            "questId": 21010,
            "assetIndex": 4230655749741116790,
            "prePerformCfg": ""
        },
        {
            "id": 2101001,
            "beginWay": "TALK_BEGIN_MANUAL",
            "beginCond": [
                {
                    "type": "QUEST_COND_STATE_EQUAL",
                    "param": [
                        "2101202",
                        "3"
                    ]
                }
            ],
            "priority": 7,
            "initDialog": 210100101,
            "npcId": [
                20029
            ],
            "performCfg": "",
            "questId": 21010,
            "assetIndex": 7753883661378514111,
            "prePerformCfg": ""
        },
        {
            "id": 2101002,
            "beginWay": "TALK_BEGIN_MANUAL",
            "beginCond": [
                {
                    "type": "QUEST_COND_STATE_EQUAL",
                    "param": [
                        "2101209",
                        "3"
                    ]
                }
            ],
            "priority": 6,
            "initDialog": 210100201,
            "npcId": [
                20029
            ],
            "performCfg": "",
            "questId": 21010,
            "assetIndex": 17826291563473383686,
            "prePerformCfg": ""
        }
    ]
}