{
    "id": 21021,
    "type": "WQ",
    "activeMode": "PLAY_MODE_ALL",
    "titleTextMapHash": 3161260833,
    "descTextMapHash": 468734239,
    "luaPath": "Actor/Quest/WQ21021",
    "rewardIdList": [
        121021
    ],
    "subQuests": [
        {
            "subId": 2102101,
            "mainId": 21021,
            "order": 1,
            "descTextMapHash": 894247705,
            "showType": "QUEST_HIDDEN",
            "finishCond": [
                {
                    "type": "QUEST_CONTENT_OBTAIN_ITEM",
                    "param": [
                        100457,
                        0
                    ],
                    "count": 1
                },
                {
                    "type": "QUEST_CONTENT_OBTAIN_ITEM",
                    "param": [
                        100458,
                        0
                    ],
                    "count": 1
                },
                {
                    "type": "QUEST_CONTENT_OBTAIN_ITEM",
                    "param": [
                        100459,
                        0
                    ],
                    "count": 1
                }
            ],
            "guide": {},
            "acceptCondComb": {
                "FDPBPIHKEGH": ""
            },
            "versionBegin": "",
            "versionEnd": ""
        },
        {
            "subId": 2102102,
            "mainId": 21021,
            "order": 2,
            "descTextMapHash": 1014996785,
            "showType": "QUEST_HIDDEN",
            "finishCond": [
                {
                    "type": "QUEST_CONTENT_ADD_QUEST_PROGRESS",
                    "param": [
                        2102102,
                        0
                    ],
                    "count": 3
                }
            ],
            "guide": {},
            "acceptCondComb": {
                "FDPBPIHKEGH": ""
            },
            "isRewind": true,
            "finishExec": [
                {
                    "type": "QUEST_EXEC_ADD_QUEST_PROGRESS",
                    "param": [
                        "2102116",
                        "1"
                    ]
                }
            ],
            "versionBegin": "",
            "versionEnd": ""
        },
        {
            "subId": 2102103,
            "mainId": 21021,
            "order": 3,
            "descTextMapHash": 198573177,
            "showType": "QUEST_HIDDEN",
            "finishCond": [
                {
                    "type": "QUEST_CONTENT_OBTAIN_ITEM",
                    "param": [
                        100457,
                        0
                    ],
                    "count": 1
                }
            ],
            "guide": {},
            "acceptCondComb": {
                "FDPBPIHKEGH": ""
            },
            "isRewind": true,
            "finishExec": [
                {
                    "type": "QUEST_EXEC_ADD_QUEST_PROGRESS",
                    "param": [
                        "2102102",
                        "1"
                    ]
                }
            ],
            "versionBegin": "",
            "versionEnd": ""
        },
        {
            "subId": 2102104,
            "mainId": 21021,
            "order": 4,
            "descTextMapHash": 130567961,
            "showType": "QUEST_HIDDEN",
            "finishCond": [
                {
                    "type": "QUEST_CONTENT_OBTAIN_ITEM",
                    "param": [
                        100458,
                        0
                    ],
                    "count": 1
                }
            ],
            "guide": {},
            "acceptCondComb": {
                "FDPBPIHKEGH": ""
            },
            "isRewind": true,
            "finishExec": [
                {
                    "type": "QUEST_EXEC_ADD_QUEST_PROGRESS",
                    "param": [
                        "2102102",
                        "1"
                    ]
                }
            ],
            "versionBegin": "",
            "versionEnd": ""
        },
        {
            "subId": 2102105,
            "mainId": 21021,
            "order": 5,
            "descTextMapHash": 2086376313,
            "showType": "QUEST_HIDDEN",
            "finishCond": [
                {
                    "type": "QUEST_CONTENT_OBTAIN_ITEM",
                    "param": [
                        100459,
                        0
                    ],
                    "count": 1
                }
            ],
            "guide": {},
            "acceptCondComb": {
                "FDPBPIHKEGH": ""
            },
            "isRewind": true,
            "finishExec": [
                {
                    "type": "QUEST_EXEC_ADD_QUEST_PROGRESS",
                    "param": [
                        "2102102",
                        "1"
                    ]
                }
            ],
            "versionBegin": "",
            "versionEnd": ""
        },
        {
            "subId": 2102106,
            "mainId": 21021,
            "order": 7,
            "descTextMapHash": 4106254393,
            "showType": "QUEST_HIDDEN",
            "finishCond": [
                {
                    "type": "QUEST_CONTENT_COMPLETE_TALK",
                    "param": [
                        2102106,
                        0
                    ]
                },
                {
                    "type": "QUEST_CONTENT_OBTAIN_ITEM",
                    "param": [
                        100457,
                        0
                    ]
                }
            ],
            "guide": {},
            "acceptCondComb": {
                "FDPBPIHKEGH": ""
            },
            "versionBegin": "",
            "versionEnd": ""
        },
        {
            "subId": 2102107,
            "mainId": 21021,
            "order": 8,
            "descTextMapHash": 722817465,
            "finishCond": [
                {
                    "type": "QUEST_CONTENT_OBTAIN_ITEM",
                    "param": [
                        100457,
                        0
                    ]
                }
            ],
            "guide": {
                "type": "QUEST_GUIDE_LOCATION",
                "param": [
                    "WQ2102106",
                    "70"
                ],
                "guideScene": 3,
                "guideLayer": "QUEST_GUIDE_LAYER_SCENE"
            },
            "acceptCondComb": {
                "FDPBPIHKEGH": ""
            },
            "isRewind": true,
            "versionBegin": "",
            "versionEnd": ""
        },
        {
            "subId": 2102108,
            "mainId": 21021,
            "order": 9,
            "descTextMapHash": 3845853705,
            "finishCond": [
                {
                    "type": "QUEST_CONTENT_COMPLETE_ANY_TALK",
                    "param": [
                        0,
                        0
                    ]
                },
                {
                    "type": "QUEST_CONTENT_ADD_QUEST_PROGRESS",
                    "param": [
                        2102102,
                        0
                    ],
                    "count": 3
                },
                {
                    "type": "QUEST_CONTENT_FINISH_ITEM_GIVING",
                    "param": [
                        2102113,
                        0
                    ]
                }
            ],
            "guide": {
                "type": "QUEST_GUIDE_LOCATION",
                "param": [
                    "WQ2102108",
                    "130"
                ],
                "guideScene": 3,
                "guideLayer": "QUEST_GUIDE_LAYER_SCENE"
            },
            "acceptCondComb": {
                "FDPBPIHKEGH": ""
            },
            "isRewind": true,
            "versionBegin": "",
            "versionEnd": ""
        },
        {
            "subId": 2102109,
            "mainId": 21021,
            "order": 10,
            "descTextMapHash": 3253049761,
            "finishCond": [
                {
                    "type": "QUEST_CONTENT_COMPLETE_ANY_TALK",
                    "param": [
                        0,
                        0
                    ]
                },
                {
                    "type": "QUEST_CONTENT_FINISH_ITEM_GIVING",
                    "param": [
                        2102113,
                        0
                    ]
                }
            ],
            "guide": {
                "type": "QUEST_GUIDE_NPC",
                "param": [
                    "2306"
                ],
                "guideScene": 3,
                "guideStyle": "QUEST_GUIDE_STYLE_TARGET",
                "guideLayer": "QUEST_GUIDE_LAYER_UI"
            },
            "acceptCondComb": {
                "FDPBPIHKEGH": ""
            },
            "isRewind": true,
            "versionBegin": "",
            "versionEnd": ""
        },
        {
            "subId": 2102110,
            "mainId": 21021,
            "order": 21,
            "descTextMapHash": 559793321,
            "showType": "QUEST_HIDDEN",
            "finishCond": [
                {
                    "type": "QUEST_CONTENT_FINISH_ITEM_GIVING",
                    "param": [
                        2102113,
                        0
                    ]
                }
            ],
            "guide": {},
            "acceptCondComb": {
                "FDPBPIHKEGH": ""
            },
            "isRewind": true,
            "finishExec": [
                {
                    "type": "QUEST_EXEC_NOTIFY_GROUP_LUA",
                    "param": [
                        "3",
                        "133102621"
                    ]
                }
            ],
            "versionBegin": "",
            "versionEnd": ""
        },
        {
            "subId": 2102111,
            "mainId": 21021,
            "order": 18,
            "descTextMapHash": 281866585,
            "stepDescTextMapHash": 319742345,
            "finishCond": [
                {
                    "type": "QUEST_CONTENT_COMPLETE_TALK",
                    "param": [
                        2102111,
                        0
                    ]
                },
                {
                    "type": "QUEST_CONTENT_FINISH_ITEM_GIVING",
                    "param": [
                        2102113,
                        0
                    ]
                }
            ],
            "guide": {
                "type": "QUEST_GUIDE_NPC",
                "param": [
                    "2306"
                ],
                "guideScene": 3,
                "guideStyle": "QUEST_GUIDE_STYLE_TARGET",
                "guideLayer": "QUEST_GUIDE_LAYER_UI"
            },
            "acceptCondComb": {
                "FDPBPIHKEGH": ""
            },
            "isRewind": true,
            "versionBegin": "",
            "versionEnd": ""
        },
        {
            "subId": 2102112,
            "mainId": 21021,
            "order": 19,
            "descTextMapHash": 3892625737,
            "stepDescTextMapHash": 2770394721,
            "finishCond": [
                {
                    "type": "QUEST_CONTENT_LUA_NOTIFY",
                    "param": [
                        0,
                        0
                    ],
                    "count": 1
                }
            ],
            "guide": {
                "type": "QUEST_GUIDE_LOCATION",
                "param": [
                    "WQ2102112",
                    "30"
                ],
                "guideScene": 3,
                "guideLayer": "QUEST_GUIDE_LAYER_SCENE"
            },
            "acceptCondComb": {
                "FDPBPIHKEGH": ""
            },
            "isRewind": true,
            "versionBegin": "",
            "versionEnd": ""
        },
        {
            "subId": 2102113,
            "mainId": 21021,
            "order": 20,
            "descTextMapHash": 1074484161,
            "showType": "QUEST_HIDDEN",
            "finishCond": [
                {
                    "type": "QUEST_CONTENT_FINISH_ITEM_GIVING",
                    "param": [
                        2102113,
                        0
                    ]
                }
            ],
            "guide": {},
            "acceptCondComb": {
                "FDPBPIHKEGH": ""
            },
            "isRewind": true,
            "finishExec": [
                {
                    "type": "QUEST_EXEC_NOTIFY_GROUP_LUA",
                    "param": [
                        "3",
                        "133102621"
                    ]
                }
            ],
            "versionBegin": "",
            "versionEnd": ""
        },
        {
            "subId": 2102114,
            "mainId": 21021,
            "order": 22,
            "descTextMapHash": 2364840321,
            "finishCond": [
                {
                    "type": "QUEST_CONTENT_LUA_NOTIFY",
                    "param": [
                        0,
                        0
                    ],
                    "count": 1
                }
            ],
            "guide": {
                "type": "QUEST_GUIDE_LOCATION",
                "param": [
                    "WQ2102114"
                ],
                "guideScene": 3,
                "guideLayer": "QUEST_GUIDE_LAYER_SCENE"
            },
            "acceptCondComb": {
                "FDPBPIHKEGH": ""
            },
            "isRewind": true,
            "finishExec": [
                {
                    "type": "QUEST_EXEC_NOTIFY_GROUP_LUA",
                    "param": [
                        "3",
                        "133102761"
                    ]
                }
            ],
            "versionBegin": "",
            "versionEnd": ""
        },
        {
            "subId": 2102115,
            "mainId": 21021,
            "order": 25,
            "descTextMapHash": 1648247905,
            "finishCond": [
                {
                    "type": "QUEST_CONTENT_COMPLETE_TALK",
                    "param": [
                        2102114,
                        0
                    ]
                }
            ],
            "guide": {
                "type": "QUEST_GUIDE_NPC",
                "param": [
                    "2306"
                ],
                "guideScene": 3,
                "guideStyle": "QUEST_GUIDE_STYLE_TARGET",
                "guideLayer": "QUEST_GUIDE_LAYER_UI"
            },
            "acceptCondComb": {
                "FDPBPIHKEGH": ""
            },
            "finishParent": true,
            "isRewind": true,
            "finishExec": [
                {
                    "type": "QUEST_EXEC_INC_DAILY_TASK_VAR",
                    "param": [
                        "28100",
                        "4"
                    ]
                }
            ],
            "versionBegin": "",
            "versionEnd": ""
        },
        {
            "subId": 2102116,
            "mainId": 21021,
            "order": 6,
            "descTextMapHash": 1657451409,
            "showType": "QUEST_HIDDEN",
            "finishCond": [
                {
                    "type": "QUEST_CONTENT_FINISH_PLOT",
                    "param": [
                        2102116,
                        0
                    ]
                }
            ],
            "guide": {},
            "acceptCondComb": {
                "FDPBPIHKEGH": ""
            },
            "isRewind": true,
            "versionBegin": "",
            "versionEnd": ""
        },
        {
            "subId": 2102117,
            "mainId": 21021,
            "order": 15,
            "descTextMapHash": 1689908209,
            "showType": "QUEST_HIDDEN",
            "finishCond": [
                {
                    "type": "QUEST_CONTENT_FINISH_PLOT",
                    "param": [
                        2102117,
                        0
                    ]
                }
            ],
            "guide": {
                "type": "QUEST_GUIDE_LOCATION",
                "param": [
                    "WQ2102117",
                    "45"
                ],
                "guideScene": 3,
                "guideLayer": "QUEST_GUIDE_LAYER_SCENE"
            },
            "acceptCondComb": {
                "FDPBPIHKEGH": ""
            },
            "isRewind": true,
            "finishExec": [
                {
                    "type": "QUEST_EXEC_ADD_QUEST_PROGRESS",
                    "param": [
                        "2102102",
                        "1"
                    ]
                }
            ],
            "versionBegin": "",
            "versionEnd": ""
        },
        {
            "subId": 2102118,
            "mainId": 21021,
            "order": 16,
            "descTextMapHash": 3119316441,
            "showType": "QUEST_HIDDEN",
            "finishCond": [
                {
                    "type": "QUEST_CONTENT_FINISH_PLOT",
                    "param": [
                        2102118,
                        0
                    ]
                }
            ],
            "guide": {
                "type": "QUEST_GUIDE_LOCATION",
                "param": [
                    "WQ2102118",
                    "45"
                ],
                "guideScene": 3,
                "guideLayer": "QUEST_GUIDE_LAYER_SCENE"
            },
            "acceptCondComb": {
                "FDPBPIHKEGH": ""
            },
            "isRewind": true,
            "finishExec": [
                {
                    "type": "QUEST_EXEC_ADD_QUEST_PROGRESS",
                    "param": [
                        "2102102",
                        "1"
                    ]
                }
            ],
            "versionBegin": "",
            "versionEnd": ""
        },
        {
            "subId": 2102119,
            "mainId": 21021,
            "order": 17,
            "descTextMapHash": 2398837721,
            "showType": "QUEST_HIDDEN",
            "finishCond": [
                {
                    "type": "QUEST_CONTENT_FINISH_PLOT",
                    "param": [
                        2102119,
                        0
                    ]
                }
            ],
            "guide": {
                "type": "QUEST_GUIDE_LOCATION",
                "param": [
                    "WQ2102119",
                    "45"
                ],
                "guideScene": 3,
                "guideLayer": "QUEST_GUIDE_LAYER_SCENE"
            },
            "acceptCondComb": {
                "FDPBPIHKEGH": ""
            },
            "isRewind": true,
            "finishExec": [
                {
                    "type": "QUEST_EXEC_ADD_QUEST_PROGRESS",
                    "param": [
                        "2102102",
                        "1"
                    ]
                }
            ],
            "versionBegin": "",
            "versionEnd": ""
        },
        {
            "subId": 2102120,
            "mainId": 21021,
            "order": 12,
            "descTextMapHash": 22173033,
            "stepDescTextMapHash": 1929149473,
            "finishCond": [
                {
                    "type": "QUEST_CONTENT_OBTAIN_ITEM",
                    "param": [
                        100457,
                        0
                    ],
                    "count": 1
                }
            ],
            "guide": {},
            "acceptCondComb": {
                "FDPBPIHKEGH": ""
            },
            "isRewind": true,
            "versionBegin": "",
            "versionEnd": ""
        },
        {
            "subId": 2102121,
            "mainId": 21021,
            "order": 13,
            "descTextMapHash": 1012625481,
            "stepDescTextMapHash": 3242571809,
            "finishCond": [
                {
                    "type": "QUEST_CONTENT_OBTAIN_ITEM",
                    "param": [
                        100458,
                        0
                    ],
                    "count": 1
                }
            ],
            "guide": {},
            "acceptCondComb": {
                "FDPBPIHKEGH": ""
            },
            "isRewind": true,
            "versionBegin": "",
            "versionEnd": ""
        },
        {
            "subId": 2102122,
            "mainId": 21021,
            "order": 14,
            "descTextMapHash": 2021922697,
            "stepDescTextMapHash": 384585257,
            "finishCond": [
                {
                    "type": "QUEST_CONTENT_OBTAIN_ITEM",
                    "param": [
                        100459,
                        0
                    ],
                    "count": 1
                }
            ],
            "guide": {},
            "acceptCondComb": {
                "FDPBPIHKEGH": ""
            },
            "isRewind": true,
            "versionBegin": "",
            "versionEnd": ""
        },
        {
            "subId": 2102123,
            "mainId": 21021,
            "order": 27,
            "descTextMapHash": 2732599457,
            "finishCond": [
                {
                    "type": "QUEST_CONTENT_LUA_NOTIFY",
                    "param": [
                        0,
                        0
                    ],
                    "count": 1
                }
            ],
            "guide": {
                "type": "QUEST_GUIDE_LOCATION",
                "param": [
                    "WQ2102114"
                ],
                "guideScene": 3,
                "guideLayer": "QUEST_GUIDE_LAYER_SCENE"
            },
            "acceptCondComb": {
                "FDPBPIHKEGH": ""
            },
            "isRewind": true,
            "finishExec": [
                {
                    "type": "QUEST_EXEC_NOTIFY_GROUP_LUA",
                    "param": [
                        "3",
                        "133102761"
                    ]
                }
            ],
            "versionBegin": "",
            "versionEnd": ""
        },
        {
            "subId": 2102124,
            "mainId": 21021,
            "order": 30,
            "descTextMapHash": 2972767633,
            "finishCond": [
                {
                    "type": "QUEST_CONTENT_COMPLETE_TALK",
                    "param": [
                        2102124,
                        0
                    ]
                }
            ],
            "guide": {
                "type": "QUEST_GUIDE_NPC",
                "param": [
                    "2306"
                ],
                "guideScene": 3,
                "guideStyle": "QUEST_GUIDE_STYLE_TARGET",
                "guideLayer": "QUEST_GUIDE_LAYER_UI"
            },
            "acceptCondComb": {
                "FDPBPIHKEGH": ""
            },
            "finishParent": true,
            "isRewind": true,
            "finishExec": [
                {
                    "type": "QUEST_EXEC_INC_DAILY_TASK_VAR",
                    "param": [
                        "28100",
                        "4"
                    ]
                }
            ],
            "versionBegin": "",
            "versionEnd": ""
        },
        {
            "subId": 2102125,
            "mainId": 21021,
            "order": 11,
            "descTextMapHash": 2793918801,
            "finishCond": [
                {
                    "type": "QUEST_CONTENT_FINISH_ITEM_GIVING",
                    "param": [
                        2102113,
                        0
                    ]
                },
                {
                    "type": "QUEST_CONTENT_COMPLETE_ANY_TALK",
                    "param": [
                        0,
                        0
                    ]
                }
            ],
            "guide": {},
            "acceptCondComb": {
                "FDPBPIHKEGH": ""
            },
            "versionBegin": "",
            "versionEnd": ""
        },
        {
            "subId": 2102126,
            "mainId": 21021,
            "order": 24,
            "descTextMapHash": 4150964977,
            "stepDescTextMapHash": 3141380577,
            "finishCond": [
                {
                    "type": "QUEST_CONTENT_LUA_NOTIFY",
                    "param": [
                        0,
                        0
                    ],
                    "count": 1
                }
            ],
            "guide": {
                "type": "QUEST_GUIDE_LOCATION",
                "param": [
                    "WQ21021_final",
                    "18"
                ],
                "guideScene": 3,
                "guideLayer": "QUEST_GUIDE_LAYER_SCENE"
            },
            "acceptCondComb": {
                "FDPBPIHKEGH": ""
            },
            "isRewind": true,
            "versionBegin": "",
            "versionEnd": ""
        },
        {
            "subId": 2102127,
            "mainId": 21021,
            "order": 28,
            "descTextMapHash": 258755681,
            "finishCond": [
                {
                    "type": "QUEST_CONTENT_LUA_NOTIFY",
                    "param": [
                        0,
                        0
                    ],
                    "count": 1
                }
            ],
            "guide": {
                "type": "QUEST_GUIDE_LOCATION",
                "param": [
                    "WQ21021_final",
                    "18"
                ],
                "guideScene": 3,
                "guideLayer": "QUEST_GUIDE_LAYER_SCENE"
            },
            "acceptCondComb": {
                "FDPBPIHKEGH": ""
            },
            "isRewind": true,
            "versionBegin": "",
            "versionEnd": ""
        },
        {
            "subId": 2102128,
            "mainId": 21021,
            "order": 23,
            "showType": "QUEST_HIDDEN",
            "finishCond": [
                {
                    "type": "QUEST_CONTENT_COMPLETE_TALK",
                    "param": [
                        2102122,
                        0
                    ]
                }
            ],
            "guide": {},
            "acceptCondComb": {
                "FDPBPIHKEGH": ""
            },
            "isRewind": true,
            "finishExec": [
                {
                    "type": "QUEST_EXEC_NOTIFY_GROUP_LUA",
                    "param": [
                        "3",
                        "133102621"
                    ]
                }
            ],
            "versionBegin": "",
            "versionEnd": ""
        },
        {
            "subId": 2102129,
            "mainId": 21021,
            "order": 26,
            "descTextMapHash": 3897292753,
            "showType": "QUEST_HIDDEN",
            "finishCond": [
                {
                    "type": "QUEST_CONTENT_COMPLETE_ANY_TALK",
                    "param": [
                        0,
                        0
                    ]
                }
            ],
            "guide": {},
            "acceptCondComb": {
                "FDPBPIHKEGH": ""
            },
            "isRewind": true,
            "versionBegin": "",
            "versionEnd": ""
        },
        {
            "subId": 2102130,
            "mainId": 21021,
            "order": 29,
            "showType": "QUEST_HIDDEN",
            "finishCond": [
                {
                    "type": "QUEST_CONTENT_COMPLETE_TALK",
                    "param": [
                        2102125,
                        0
                    ]
                }
            ],
            "guide": {},
            "acceptCondComb": {
                "FDPBPIHKEGH": ""
            },
            "isRewind": true,
            "finishExec": [
                {
                    "type": "QUEST_EXEC_NOTIFY_GROUP_LUA",
                    "param": [
                        "3",
                        "133102621"
                    ]
                }
            ],
            "versionBegin": "",
            "versionEnd": ""
        }
    ],
    "talks": [
        {
            "id": 2100601,
            "beginWay": "TALK_BEGIN_MANUAL",
            "activeMode": "PLAY_MODE_ALL",
            "priority": 3,
            "initDialog": 210060101,
            "npcId": [
                20027
            ],
            "performCfg": "",
            "questId": 21021,
            "assetIndex": 17995824731301932972,
            "prePerformCfg": ""
        },
        {
            "id": 2100602,
            "beginWay": "TALK_BEGIN_MANUAL",
            "activeMode": "PLAY_MODE_ALL",
            "priority": 3,
            "initDialog": 210060201,
            "npcId": [
                20047
            ],
            "performCfg": "",
            "questId": 21021,
            "assetIndex": 10314180035418705145,
            "prePerformCfg": ""
        },
        {
            "id": 2102104,
            "beginWay": "TALK_BEGIN_MANUAL",
            "activeMode": "PLAY_MODE_ALL",
            "priority": 3,
            "initDialog": 210210401,
            "npcId": [
                20074
            ],
            "performCfg": "",
            "questId": 21021,
            "assetIndex": 10286563534272846434,
            "prePerformCfg": ""
        },
        {
            "id": 2102105,
            "beginWay": "TALK_BEGIN_MANUAL",
            "activeMode": "PLAY_MODE_ALL",
            "priority": 3,
            "initDialog": 210210501,
            "npcId": [
                20075
            ],
            "performCfg": "",
            "questId": 21021,
            "assetIndex": 6163177745005914552,
            "prePerformCfg": ""
        },
        {
            "id": 2102106,
            "beginWay": "TALK_BEGIN_MANUAL",
            "activeMode": "PLAY_MODE_ALL",
            "priority": 5,
            "initDialog": 210210601,
            "npcId": [
                20082
            ],
            "performCfg": "",
            "questId": 21021,
            "assetIndex": 1540079596257090013,
            "prePerformCfg": ""
        },
        {
            "id": 2102107,
            "beginWay": "TALK_BEGIN_MANUAL",
            "activeMode": "PLAY_MODE_ALL",
            "beginCondComb": "LOGIC_AND",
            "beginCond": [
                {
                    "type": "QUEST_COND_STATE_EQUAL",
                    "param": [
                        "2102107",
                        "2"
                    ]
                },
                {
                    "type": "QUEST_COND_STATE_EQUAL",
                    "param": [
                        "2102106",
                        "3"
                    ]
                }
            ],
            "priority": 6,
            "initDialog": 210210701,
            "npcId": [
                20082
            ],
            "performCfg": "",
            "questId": 21021,
            "assetIndex": 2293673656529833345,
            "prePerformCfg": ""
        },
        {
            "id": 2102108,
            "activeMode": "PLAY_MODE_ALL",
            "beginCondComb": "LOGIC_AND",
            "beginCond": [
                {
                    "type": "QUEST_COND_STATE_EQUAL",
                    "param": [
                        "2102109",
                        "2"
                    ]
                },
                {
                    "type": "QUEST_COND_STATE_EQUAL",
                    "param": [
                        "2102108",
                        "3"
                    ]
                },
                {
                    "type": "QUEST_COND_STATE_EQUAL",
                    "param": [
                        "2102102",
                        "2"
                    ]
                }
            ],
            "priority": 7,
            "initDialog": 210210801,
            "npcId": [
                2306
            ],
            "performCfg": "",
            "questId": 21021,
            "assetIndex": 148490901848581943,
            "dontBlockDaily": true,
            "prePerformCfg": ""
        },
        {
            "id": 2102111,
            "activeMode": "PLAY_MODE_ALL",
            "beginCond": [
                {
                    "type": "QUEST_COND_STATE_EQUAL",
                    "param": [
                        "2102111",
                        "2"
                    ]
                }
            ],
            "priority": 8,
            "initDialog": 210211101,
            "npcId": [
                2306
            ],
            "performCfg": "",
            "questId": 21021,
            "assetIndex": 10486144634051384147,
            "dontBlockDaily": true,
            "prePerformCfg": ""
        },
        {
            "id": 2102114,
            "beginWay": "TALK_BEGIN_MANUAL",
            "activeMode": "PLAY_MODE_ALL",
            "beginCondComb": "LOGIC_AND",
            "beginCond": [
                {
                    "type": "QUEST_COND_STATE_EQUAL",
                    "param": [
                        "2102126",
                        "3"
                    ]
                },
                {
                    "type": "QUEST_COND_STATE_EQUAL",
                    "param": [
                        "2102115",
                        "2"
                    ]
                }
            ],
            "priority": 10,
            "initDialog": 210211401,
            "npcId": [
                2306
            ],
            "performCfg": "",
            "questId": 21021,
            "assetIndex": 5207076725457807629,
            "dontBlockDaily": true,
            "prePerformCfg": ""
        },
        {
            "id": 2102115,
            "activeMode": "PLAY_MODE_ALL",
            "priority": 4,
            "initDialog": 210211501,
            "performCfg": "",
            "questId": 21021,
            "assetIndex": 14326135353293417832,
            "dontBlockDaily": true,
            "prePerformCfg": ""
        },
        {
            "id": 2102120,
            "beginWay": "TALK_BEGIN_MANUAL",
            "activeMode": "PLAY_MODE_ALL",
            "beginCondComb": "LOGIC_AND",
            "beginCond": [
                {
                    "type": "QUEST_COND_STATE_EQUAL",
                    "param": [
                        "2102108",
                        "2"
                    ]
                },
                {
                    "type": "QUEST_COND_STATE_EQUAL",
                    "param": [
                        "2102101",
                        "3"
                    ]
                }
            ],
            "priority": 7,
            "initDialog": 210212001,
            "npcId": [
                1005
            ],
            "performCfg": "",
            "questId": 21021,
            "assetIndex": 11304716315165922610,
            "prePerformCfg": ""
        },
        {
            "id": 2102121,
            "beginWay": "TALK_BEGIN_MANUAL",
            "activeMode": "PLAY_MODE_ALL",
            "beginCondComb": "LOGIC_AND",
            "beginCond": [
                {
                    "type": "QUEST_COND_STATE_EQUAL",
                    "param": [
                        "2102111",
                        "2"
                    ]
                },
                {
                    "type": "QUEST_COND_STATE_EQUAL",
                    "param": [
                        "2102102",
                        "3"
                    ]
                }
            ],
            "priority": 7,
            "initDialog": 210212101,
            "npcId": [
                1005
            ],
            "performCfg": "",
            "questId": 21021,
            "assetIndex": 9492369726846978655,
            "prePerformCfg": ""
        },
        {
            "id": 2102122,
            "beginWay": "TALK_BEGIN_MANUAL",
            "activeMode": "PLAY_MODE_ALL",
            "beginCondComb": "LOGIC_AND",
            "beginCond": [
                {
                    "type": "QUEST_COND_STATE_EQUAL",
                    "param": [
                        "2102126",
                        "2"
                    ]
                },
                {
                    "type": "QUEST_COND_STATE_EQUAL",
                    "param": [
                        "2102114",
                        "3"
                    ]
                }
            ],
            "priority": 9,
            "initDialog": 210212201,
            "npcId": [
                1005
            ],
            "performCfg": "",
            "questId": 21021,
            "assetIndex": 8909483572199856031,
            "prePerformCfg": ""
        },
        {
            "id": 2102123,
            "beginWay": "TALK_BEGIN_MANUAL",
            "activeMode": "PLAY_MODE_ALL",
            "beginCondComb": "LOGIC_AND",
            "beginCond": [
                {
                    "type": "QUEST_COND_STATE_EQUAL",
                    "param": [
                        "2102112",
                        "2"
                    ]
                },
                {
                    "type": "QUEST_COND_STATE_EQUAL",
                    "param": [
                        "2102111",
                        "3"
                    ]
                }
            ],
            "priority": 7,
            "initDialog": 210212301,
            "npcId": [
                2306
            ],
            "performCfg": "",
            "questId": 21021,
            "assetIndex": 14595770953350437151,
            "prePerformCfg": ""
        },
        {
            "id": 2102124,
            "beginWay": "TALK_BEGIN_MANUAL",
            "activeMode": "PLAY_MODE_ALL",
            "beginCondComb": "LOGIC_AND",
            "beginCond": [
                {
                    "type": "QUEST_COND_STATE_EQUAL",
                    "param": [
                        "2102124",
                        "2"
                    ]
                },
                {
                    "type": "QUEST_COND_STATE_EQUAL",
                    "param": [
                        "2102127",
                        "3"
                    ]
                }
            ],
            "priority": 9,
            "initDialog": 210212501,
            "npcId": [
                2306
            ],
            "performCfg": "",
            "questId": 21021,
            "assetIndex": 5525647186069106213,
            "dontBlockDaily": true,
            "prePerformCfg": ""
        },
        {
            "id": 2102125,
            "beginWay": "TALK_BEGIN_MANUAL",
            "activeMode": "PLAY_MODE_ALL",
            "beginCondComb": "LOGIC_AND",
            "beginCond": [
                {
                    "type": "QUEST_COND_STATE_EQUAL",
                    "param": [
                        "2102127",
                        "2"
                    ]
                },
                {
                    "type": "QUEST_COND_STATE_EQUAL",
                    "param": [
                        "2102123",
                        "3"
                    ]
                }
            ],
            "priority": 8,
            "initDialog": 210212205,
            "npcId": [
                1005
            ],
            "performCfg": "",
            "questId": 21021,
            "assetIndex": 3695947772195669926,
            "prePerformCfg": ""
        },
        {
            "id": 2102126,
            "beginWay": "TALK_BEGIN_MANUAL",
            "activeMode": "PLAY_MODE_ALL",
            "beginCondComb": "LOGIC_AND",
            "beginCond": [
                {
                    "type": "QUEST_COND_STATE_EQUAL",
                    "param": [
                        "2102107",
                        "2"
                    ]
                },
                {
                    "type": "QUEST_COND_STATE_EQUAL",
                    "param": [
                        "2102106",
                        "3"
                    ]
                }
            ],
            "priority": 7,
            "initDialog": 210212601,
            "npcId": [
                1005
            ],
            "performCfg": "",
            "questId": 21021,
            "assetIndex": 13104251428294562830,
            "prePerformCfg": ""
        },
        {
            "id": 2102127,
            "beginWay": "TALK_BEGIN_MANUAL",
            "activeMode": "PLAY_MODE_ALL",
            "beginCond": [
                {
                    "type": "QUEST_COND_STATE_EQUAL",
                    "param": [
                        "2102115",
                        "3"
                    ]
                }
            ],
            "priority": 7,
            "initDialog": 210212701,
            "npcId": [
                1005
            ],
            "performCfg": "",
            "questId": 21021,
            "assetIndex": 9475874398509645596,
            "prePerformCfg": ""
        },
        {
            "id": 2102128,
            "beginWay": "TALK_BEGIN_MANUAL",
            "activeMode": "PLAY_MODE_ALL",
            "beginCond": [
                {
                    "type": "QUEST_COND_STATE_EQUAL",
                    "param": [
                        "2102124",
                        "3"
                    ]
                }
            ],
            "priority": 8,
            "initDialog": 210212801,
            "npcId": [
                1005
            ],
            "performCfg": "",
            "questId": 21021,
            "assetIndex": 12314856382700544627,
            "prePerformCfg": ""
        },
        {
            "id": 2102133,
            "activeMode": "PLAY_MODE_ALL",
            "beginCondComb": "LOGIC_OR",
            "beginCond": [
                {
                    "type": "QUEST_COND_STATE_EQUAL",
                    "param": [
                        "2102109",
                        "2"
                    ]
                },
                {
                    "type": "QUEST_COND_STATE_EQUAL",
                    "param": [
                        "2102108",
                        "2"
                    ]
                }
            ],
            "priority": 7,
            "initDialog": 210213301,
            "npcId": [
                2310
            ],
            "performCfg": "",
            "questId": 21021,
            "assetIndex": 12770687105978832176,
            "dontBlockDaily": true,
            "prePerformCfg": ""
        },
        {
            "id": 2102144,
            "activeMode": "PLAY_MODE_ALL",
            "beginCondComb": "LOGIC_OR",
            "beginCond": [
                {
                    "type": "QUEST_COND_STATE_EQUAL",
                    "param": [
                        "2102109",
                        "2"
                    ]
                },
                {
                    "type": "QUEST_COND_STATE_EQUAL",
                    "param": [
                        "2102108",
                        "2"
                    ]
                }
            ],
            "priority": 7,
            "initDialog": 210214401,
            "npcId": [
                2305
            ],
            "performCfg": "",
            "questId": 21021,
            "assetIndex": 12276420441462355786,
            "dontBlockDaily": true,
            "prePerformCfg": ""
        },
        {
            "id": 2102145,
            "activeMode": "PLAY_MODE_ALL",
            "beginCondComb": "LOGIC_OR",
            "beginCond": [
                {
                    "type": "QUEST_COND_STATE_EQUAL",
                    "param": [
                        "2102109",
                        "2"
                    ]
                },
                {
                    "type": "QUEST_COND_STATE_EQUAL",
                    "param": [
                        "2102108",
                        "2"
                    ]
                }
            ],
            "priority": 7,
            "initDialog": 210214501,
            "npcId": [
                2139
            ],
            "performCfg": "",
            "questId": 21021,
            "assetIndex": 13531032422166607576,
            "dontBlockDaily": true,
            "prePerformCfg": ""
        },
        {
            "id": 2102155,
            "activeMode": "PLAY_MODE_ALL",
            "beginCondComb": "LOGIC_OR",
            "beginCond": [
                {
                    "type": "QUEST_COND_STATE_EQUAL",
                    "param": [
                        "2102109",
                        "2"
                    ]
                },
                {
                    "type": "QUEST_COND_STATE_EQUAL",
                    "param": [
                        "2102108",
                        "2"
                    ]
                }
            ],
            "priority": 7,
            "initDialog": 210215501,
            "npcId": [
                2303
            ],
            "performCfg": "",
            "questId": 21021,
            "assetIndex": 5054738367365833673,
            "dontBlockDaily": true,
            "prePerformCfg": ""
        },
        {
            "id": 2102166,
            "activeMode": "PLAY_MODE_ALL",
            "beginCondComb": "LOGIC_OR",
            "beginCond": [
                {
                    "type": "QUEST_COND_STATE_EQUAL",
                    "param": [
                        "2102109",
                        "2"
                    ]
                },
                {
                    "type": "QUEST_COND_STATE_EQUAL",
                    "param": [
                        "2102108",
                        "2"
                    ]
                }
            ],
            "priority": 7,
            "initDialog": 210216601,
            "npcId": [
                2308
            ],
            "performCfg": "",
            "questId": 21021,
            "assetIndex": 17122147592883571213,
            "dontBlockDaily": true,
            "prePerformCfg": ""
        },
        {
            "id": 2102177,
            "activeMode": "PLAY_MODE_ALL",
            "beginCondComb": "LOGIC_OR",
            "beginCond": [
                {
                    "type": "QUEST_COND_STATE_EQUAL",
                    "param": [
                        "2102109",
                        "2"
                    ]
                },
                {
                    "type": "QUEST_COND_STATE_EQUAL",
                    "param": [
                        "2102108",
                        "2"
                    ]
                }
            ],
            "priority": 7,
            "initDialog": 210217701,
            "npcId": [
                2309
            ],
            "performCfg": "",
            "questId": 21021,
            "assetIndex": 12618320770702715368,
            "dontBlockDaily": true,
            "prePerformCfg": ""
        },
        {
            "id": 2102188,
            "activeMode": "PLAY_MODE_ALL",
            "beginCondComb": "LOGIC_OR",
            "beginCond": [
                {
                    "type": "QUEST_COND_STATE_EQUAL",
                    "param": [
                        "2102109",
                        "2"
                    ]
                },
                {
                    "type": "QUEST_COND_STATE_EQUAL",
                    "param": [
                        "2102108",
                        "2"
                    ]
                }
            ],
            "priority": 7,
            "initDialog": 210218801,
            "npcId": [
                2300
            ],
            "performCfg": "",
            "questId": 21021,
            "assetIndex": 15305494642229708918,
            "dontBlockDaily": true,
            "prePerformCfg": ""
        },
        {
            "id": 2102199,
            "beginWay": "TALK_BEGIN_MANUAL",
            "activeMode": "PLAY_MODE_ALL",
            "beginCondComb": "LOGIC_AND",
            "beginCond": [
                {
                    "type": "QUEST_COND_STATE_EQUAL",
                    "param": [
                        "2102102",
                        "2"
                    ]
                },
                {
                    "type": "QUEST_COND_STATE_EQUAL",
                    "param": [
                        "2102109",
                        "3"
                    ]
                }
            ],
            "priority": 7,
            "initDialog": 210219901,
            "npcId": [
                2306
            ],
            "performCfg": "",
            "questId": 21021,
            "assetIndex": 12965194110330181951,
            "dontBlockDaily": true,
            "prePerformCfg": ""
        }
    ],
    "FFDPMMFBDAE": [
        14457059026087496718
    ],
    "freeStyleDic": {
        "1005": [
            1160
        ],
        "20082": [
            1160
        ]
    }
}