{
    "id": 22019,
    "type": "IQ",
    "activeMode": "PLAY_MODE_ALL",
    "titleTextMapHash": 693365767,
    "descTextMapHash": 1040292638,
    "luaPath": "Actor/Quest/IQ22019",
    "repeatable": true,
    "taskID": 41090,
    "subQuests": [
        {
            "subId": 2201901,
            "mainId": 22019,
            "order": 1,
            "descTextMapHash": 4134004140,
            "finishCond": [
                {
                    "type": "QUEST_CONTENT_COMPLETE_TALK",
                    "param": [
                        2201901,
                        0
                    ]
                }
            ],
            "guide": {
                "type": "QUEST_GUIDE_NPC",
                "param": [
                    "3041",
                    "SELECT_NPC_NONE"
                ],
                "guideScene": 3,
                "guideStyle": "QUEST_GUIDE_STYLE_TARGET"
            },
            "acceptCondComb": {
                "FDPBPIHKEGH": ""
            },
            "isRewind": true,
            "versionBegin": "",
            "versionEnd": ""
        },
        {
            "subId": 2201902,
            "mainId": 22019,
            "order": 2,
            "descTextMapHash": 131936732,
            "finishCond": [
                {
                    "type": "QUEST_CONTENT_LUA_NOTIFY",
                    "param": [
                        0,
                        0
                    ],
                    "count": 1
                }
            ],
            "guide": {
                "type": "QUEST_GUIDE_LOCATION",
                "param": [
                    "Q22019TalkA"
                ],
                "guideScene": 3,
                "guideStyle": "QUEST_GUIDE_STYLE_POINT"
            },
            "acceptCondComb": {
                "FDPBPIHKEGH": ""
            },
            "isRewind": true,
            "versionBegin": "",
            "versionEnd": ""
        },
        {
            "subId": 2201903,
            "mainId": 22019,
            "order": 3,
            "descTextMapHash": 1082587020,
            "finishCond": [
                {
                    "type": "QUEST_CONTENT_COMPLETE_TALK",
                    "param": [
                        2201902,
                        0
                    ]
                }
            ],
            "guide": {
                "type": "QUEST_GUIDE_NPC",
                "param": [
                    "3042",
                    "SELECT_NPC_NONE"
                ],
                "guideScene": 3,
                "guideStyle": "QUEST_GUIDE_STYLE_TARGET"
            },
            "acceptCondComb": {
                "FDPBPIHKEGH": ""
            },
            "versionBegin": "",
            "versionEnd": ""
        },
        {
            "subId": 2201904,
            "mainId": 22019,
            "order": 4,
            "descTextMapHash": 177455492,
            "finishCond": [
                {
                    "type": "QUEST_CONTENT_LUA_NOTIFY",
                    "param": [
                        0,
                        0
                    ],
                    "count": 1
                }
            ],
            "guide": {
                "type": "QUEST_GUIDE_LOCATION",
                "param": [
                    "Q22019daobaotuanA",
                    "20"
                ],
                "guideScene": 3,
                "guideStyle": "QUEST_GUIDE_STYLE_TARGET"
            },
            "acceptCondComb": {
                "FDPBPIHKEGH": ""
            },
            "isRewind": true,
            "versionBegin": "",
            "versionEnd": ""
        },
        {
            "subId": 2201905,
            "mainId": 22019,
            "order": 5,
            "descTextMapHash": 1912254668,
            "finishCond": [
                {
                    "type": "QUEST_CONTENT_COMPLETE_TALK",
                    "param": [
                        2201903,
                        0
                    ]
                }
            ],
            "guide": {
                "type": "QUEST_GUIDE_NPC",
                "param": [
                    "3042",
                    "SELECT_NPC_NONE"
                ],
                "guideScene": 3,
                "guideStyle": "QUEST_GUIDE_STYLE_TARGET"
            },
            "acceptCondComb": {
                "FDPBPIHKEGH": ""
            },
            "versionBegin": "",
            "versionEnd": ""
        },
        {
            "subId": 2201906,
            "mainId": 22019,
            "order": 6,
            "descTextMapHash": 2112978708,
            "finishCond": [
                {
                    "type": "QUEST_CONTENT_COMPLETE_TALK",
                    "param": [
                        2201904,
                        0
                    ]
                }
            ],
            "guide": {
                "type": "QUEST_GUIDE_NPC",
                "param": [
                    "3041",
                    "SELECT_NPC_NONE"
                ],
                "guideScene": 3,
                "guideStyle": "QUEST_GUIDE_STYLE_TARGET"
            },
            "acceptCondComb": {
                "FDPBPIHKEGH": ""
            },
            "finishParent": true,
            "isRewind": true,
            "finishExec": [
                {
                    "type": "QUEST_EXEC_UNREGISTER_DYNAMIC_GROUP",
                    "param": [
                        "133220151",
                        "0"
                    ]
                },
                {
                    "type": "QUEST_EXEC_UNREGISTER_DYNAMIC_GROUP",
                    "param": [
                        "133220152",
                        "0"
                    ]
                },
                {
                    "type": "QUEST_EXEC_NOTIFY_DAILY_TASK",
                    "param": [
                        "41090"
                    ]
                }
            ],
            "versionBegin": "",
            "versionEnd": ""
        }
    ],
    "talks": [
        {
            "id": 2201901,
            "beginWay": "TALK_BEGIN_MANUAL",
            "activeMode": "PLAY_MODE_HOST",
            "beginCond": [
                {
                    "type": "QUEST_COND_STATE_EQUAL",
                    "param": [
                        "2201901",
                        "2"
                    ]
                }
            ],
            "priority": 5,
            "initDialog": 220190101,
            "npcId": [
                3041
            ],
            "performCfg": "QuestDialogue/WQ/Daoqi_22019/Q2201901",
            "heroTalk": "TALK_HERO_MAIN",
            "questId": 22019,
            "assetIndex": 10593446850922112783,
            "prePerformCfg": "",
            "MFGJDPNMDPB": [
                1130,
                1171,
                1172,
                1173,
                1190
            ]
        },
        {
            "id": 2201902,
            "beginWay": "TALK_BEGIN_MANUAL",
            "activeMode": "PLAY_MODE_HOST",
            "beginCond": [
                {
                    "type": "QUEST_COND_STATE_EQUAL",
                    "param": [
                        "2201903",
                        "2"
                    ]
                }
            ],
            "priority": 5,
            "initDialog": 220190201,
            "npcId": [
                3042
            ],
            "performCfg": "QuestDialogue/WQ/Daoqi_22019/Q2201902",
            "heroTalk": "TALK_HERO_MAIN",
            "questId": 22019,
            "assetIndex": 6156792070474303335,
            "prePerformCfg": ""
        },
        {
            "id": 2201903,
            "beginWay": "TALK_BEGIN_MANUAL",
            "activeMode": "PLAY_MODE_HOST",
            "beginCond": [
                {
                    "type": "QUEST_COND_STATE_EQUAL",
                    "param": [
                        "2201905",
                        "2"
                    ]
                }
            ],
            "priority": 5,
            "initDialog": 220190301,
            "npcId": [
                3042
            ],
            "performCfg": "QuestDialogue/WQ/Daoqi_22019/Q2201903",
            "heroTalk": "TALK_HERO_MAIN",
            "questId": 22019,
            "assetIndex": 906480315627218291,
            "prePerformCfg": "",
            "MFGJDPNMDPB": [
                1171,
                1172,
                1173
            ]
        },
        {
            "id": 2201904,
            "beginWay": "TALK_BEGIN_MANUAL",
            "activeMode": "PLAY_MODE_HOST",
            "beginCond": [
                {
                    "type": "QUEST_COND_STATE_EQUAL",
                    "param": [
                        "2201906",
                        "2"
                    ]
                }
            ],
            "priority": 5,
            "initDialog": 220190401,
            "npcId": [
                3041
            ],
            "performCfg": "QuestDialogue/WQ/Daoqi_22019/Q2201904",
            "heroTalk": "TALK_HERO_MAIN",
            "questId": 22019,
            "assetIndex": 6441021017069774086,
            "prePerformCfg": "",
            "MFGJDPNMDPB": [
                1130,
                1171,
                1172,
                1173,
                1120,
                1160,
                1190
            ]
        },
        {
            "id": 2201906,
            "beginWay": "TALK_BEGIN_MANUAL",
            "activeMode": "PLAY_MODE_HOST",
            "beginCondComb": "LOGIC_OR",
            "beginCond": [
                {
                    "type": "QUEST_COND_STATE_EQUAL",
                    "param": [
                        "2201902",
                        "2"
                    ]
                },
                {
                    "type": "QUEST_COND_STATE_EQUAL",
                    "param": [
                        "2201903",
                        "2"
                    ]
                },
                {
                    "type": "QUEST_COND_STATE_EQUAL",
                    "param": [
                        "2201904",
                        "2"
                    ]
                },
                {
                    "type": "QUEST_COND_STATE_EQUAL",
                    "param": [
                        "2201905",
                        "2"
                    ]
                }
            ],
            "priority": 5,
            "initDialog": 220190601,
            "npcId": [
                3041
            ],
            "performCfg": "",
            "heroTalk": "TALK_HERO_MAIN",
            "questId": 22019,
            "assetIndex": 2342420129613146905,
            "prePerformCfg": "",
            "MFGJDPNMDPB": [
                1171,
                1172,
                1173
            ]
        }
    ],
    "FFDPMMFBDAE": [
        10076325063262517122
    ],
    "IGKJEKALOKN": [
        3856661503498419180
    ]
}