{
    "id": 23033,
    "type": "IQ",
    "activeMode": "PLAY_MODE_ALL",
    "titleTextMapHash": 3759440751,
    "descTextMapHash": 2767953758,
    "luaPath": "Actor/Quest/IQ23033",
    "repeatable": true,
    "taskID": 42140,
    "subQuests": [
        {
            "subId": 2303301,
            "mainId": 23033,
            "order": 2,
            "descTextMapHash": 757676900,
            "finishCond": [
                {
                    "type": "QUEST_CONTENT_COMPLETE_TALK",
                    "param": [
                        2303301,
                        0
                    ]
                },
                {
                    "type": "QUEST_CONTENT_COMPLETE_TALK",
                    "param": [
                        2303385,
                        0
                    ]
                }
            ],
            "guide": {
                "type": "QUEST_GUIDE_NPC",
                "autoGuide": "QUEST_GUIDE_AUTO_ENABLE",
                "param": [
                    "12717"
                ],
                "guideScene": 3,
                "guideStyle": "QUEST_GUIDE_STYLE_TARGET",
                "guideLayer": "QUEST_GUIDE_LAYER_SCENE"
            },
            "acceptCondComb": {
                "FDPBPIHKEGH": ""
            },
            "isRewind": true,
            "versionBegin": "",
            "versionEnd": ""
        },
        {
            "subId": 2303302,
            "mainId": 23033,
            "order": 3,
            "descTextMapHash": 858010100,
            "finishCond": [
                {
                    "type": "QUEST_CONTENT_FINISH_PLOT",
                    "param": [
                        2303302,
                        0
                    ]
                }
            ],
            "guide": {
                "type": "QUEST_GUIDE_LOCATION",
                "param": [
                    "Q2303302_guide_1749"
                ],
                "guideScene": 3,
                "guideStyle": "QUEST_GUIDE_STYLE_POINT",
                "guideLayer": "QUEST_GUIDE_LAYER_SCENE"
            },
            "acceptCondComb": {
                "FDPBPIHKEGH": ""
            },
            "isRewind": true,
            "versionBegin": "",
            "versionEnd": ""
        },
        {
            "subId": 2303303,
            "mainId": 23033,
            "order": 4,
            "descTextMapHash": 761058268,
            "finishCond": [
                {
                    "type": "QUEST_CONTENT_COMPLETE_TALK",
                    "param": [
                        2303303,
                        0
                    ]
                }
            ],
            "guide": {
                "type": "QUEST_GUIDE_NPC",
                "autoGuide": "QUEST_GUIDE_AUTO_ENABLE",
                "param": [
                    "12717"
                ],
                "guideScene": 3,
                "guideStyle": "QUEST_GUIDE_STYLE_TARGET",
                "guideLayer": "QUEST_GUIDE_LAYER_SCENE"
            },
            "acceptCondComb": {
                "FDPBPIHKEGH": ""
            },
            "versionBegin": "",
            "versionEnd": ""
        },
        {
            "subId": 2303304,
            "mainId": 23033,
            "order": 5,
            "descTextMapHash": 3640040580,
            "finishCond": [
                {
                    "type": "QUEST_CONTENT_LUA_NOTIFY",
                    "param": [
                        0,
                        0
                    ],
                    "count": 1
                }
            ],
            "guide": {
                "type": "QUEST_GUIDE_LOCATION",
                "autoGuide": "QUEST_GUIDE_AUTO_ENABLE",
                "param": [
                    "Q2303304_guide",
                    "30"
                ],
                "guideScene": 3,
                "guideStyle": "QUEST_GUIDE_STYLE_POINT",
                "guideLayer": "QUEST_GUIDE_LAYER_SCENE"
            },
            "acceptCondComb": {
                "FDPBPIHKEGH": ""
            },
            "isRewind": true,
            "versionBegin": "",
            "versionEnd": ""
        },
        {
            "subId": 2303305,
            "mainId": 23033,
            "order": 6,
            "descTextMapHash": 3761851956,
            "finishCond": [
                {
                    "type": "QUEST_CONTENT_COMPLETE_TALK",
                    "param": [
                        2303305,
                        0
                    ]
                },
                {
                    "type": "QUEST_CONTENT_COMPLETE_TALK",
                    "param": [
                        2303386,
                        0
                    ]
                }
            ],
            "guide": {
                "type": "QUEST_GUIDE_NPC",
                "autoGuide": "QUEST_GUIDE_AUTO_ENABLE",
                "param": [
                    "12717"
                ],
                "guideScene": 3,
                "guideStyle": "QUEST_GUIDE_STYLE_TARGET",
                "guideLayer": "QUEST_GUIDE_LAYER_SCENE"
            },
            "acceptCondComb": {
                "FDPBPIHKEGH": ""
            },
            "finishParent": true,
            "isRewind": true,
            "finishExec": [
                {
                    "type": "QUEST_EXEC_UNREGISTER_DYNAMIC_GROUP",
                    "param": [
                        "133302228",
                        "0"
                    ]
                },
                {
                    "type": "QUEST_EXEC_NOTIFY_DAILY_TASK",
                    "param": [
                        "42140"
                    ]
                }
            ],
            "versionBegin": "",
            "versionEnd": ""
        },
        {
            "subId": 2303306,
            "mainId": 23033,
            "order": 7,
            "descTextMapHash": 3893106076,
            "finishCond": [
                {
                    "type": "QUEST_CONTENT_COMPLETE_TALK",
                    "param": [
                        2303306,
                        0
                    ]
                },
                {
                    "type": "QUEST_CONTENT_COMPLETE_TALK",
                    "param": [
                        2303380,
                        0
                    ]
                },
                {
                    "type": "QUEST_CONTENT_COMPLETE_TALK",
                    "param": [
                        2303381,
                        0
                    ]
                },
                {
                    "type": "QUEST_CONTENT_COMPLETE_TALK",
                    "param": [
                        2303383,
                        0
                    ]
                },
                {
                    "type": "QUEST_CONTENT_COMPLETE_TALK",
                    "param": [
                        2303384,
                        0
                    ]
                }
            ],
            "guide": {
                "type": "QUEST_GUIDE_NPC",
                "autoGuide": "QUEST_GUIDE_AUTO_ENABLE",
                "param": [
                    "12717"
                ],
                "guideScene": 3,
                "guideStyle": "QUEST_GUIDE_STYLE_TARGET",
                "guideLayer": "QUEST_GUIDE_LAYER_SCENE"
            },
            "acceptCondComb": {
                "FDPBPIHKEGH": ""
            },
            "isRewind": true,
            "versionBegin": "",
            "versionEnd": ""
        },
        {
            "subId": 2303307,
            "mainId": 23033,
            "order": 8,
            "descTextMapHash": 1410686844,
            "finishCond": [
                {
                    "type": "QUEST_CONTENT_FINISH_PLOT",
                    "param": [
                        2303307,
                        0
                    ]
                }
            ],
            "guide": {
                "type": "QUEST_GUIDE_LOCATION",
                "param": [
                    "Q2303307_guide_1805"
                ],
                "guideScene": 3,
                "guideStyle": "QUEST_GUIDE_STYLE_POINT",
                "guideLayer": "QUEST_GUIDE_LAYER_SCENE"
            },
            "acceptCondComb": {
                "FDPBPIHKEGH": ""
            },
            "isRewind": true,
            "versionBegin": "",
            "versionEnd": ""
        },
        {
            "subId": 2303308,
            "mainId": 23033,
            "order": 9,
            "descTextMapHash": 3277370076,
            "finishCond": [
                {
                    "type": "QUEST_CONTENT_COMPLETE_TALK",
                    "param": [
                        2303308,
                        0
                    ]
                }
            ],
            "guide": {
                "type": "QUEST_GUIDE_NPC",
                "autoGuide": "QUEST_GUIDE_AUTO_ENABLE",
                "param": [
                    "12717"
                ],
                "guideScene": 3,
                "guideStyle": "QUEST_GUIDE_STYLE_TARGET",
                "guideLayer": "QUEST_GUIDE_LAYER_SCENE"
            },
            "acceptCondComb": {
                "FDPBPIHKEGH": ""
            },
            "versionBegin": "",
            "versionEnd": ""
        },
        {
            "subId": 2303309,
            "mainId": 23033,
            "order": 10,
            "descTextMapHash": 1175460924,
            "finishCond": [
                {
                    "type": "QUEST_CONTENT_FINISH_PLOT",
                    "param": [
                        2303309,
                        0
                    ]
                }
            ],
            "guide": {
                "type": "QUEST_GUIDE_LOCATION",
                "param": [
                    "Q2303309_guide"
                ],
                "guideScene": 3,
                "guideStyle": "QUEST_GUIDE_STYLE_POINT",
                "guideLayer": "QUEST_GUIDE_LAYER_SCENE"
            },
            "showGuide": "QUEST_GUIDE_ITEM_DISABLE",
            "acceptCondComb": {
                "FDPBPIHKEGH": ""
            },
            "isRewind": true,
            "versionBegin": "",
            "versionEnd": ""
        },
        {
            "subId": 2303310,
            "mainId": 23033,
            "order": 11,
            "descTextMapHash": 2691979444,
            "finishCond": [
                {
                    "type": "QUEST_CONTENT_COMPLETE_TALK",
                    "param": [
                        2303310,
                        0
                    ]
                },
                {
                    "type": "QUEST_CONTENT_COMPLETE_TALK",
                    "param": [
                        2303382,
                        0
                    ]
                }
            ],
            "guide": {
                "type": "QUEST_GUIDE_NPC",
                "autoGuide": "QUEST_GUIDE_AUTO_ENABLE",
                "param": [
                    "12717"
                ],
                "guideScene": 3,
                "guideStyle": "QUEST_GUIDE_STYLE_TARGET",
                "guideLayer": "QUEST_GUIDE_LAYER_SCENE"
            },
            "acceptCondComb": {
                "FDPBPIHKEGH": ""
            },
            "finishParent": true,
            "isRewind": true,
            "finishExec": [
                {
                    "type": "QUEST_EXEC_SET_DAILY_TASK_VAR",
                    "param": [
                        "42140",
                        "1",
                        "1"
                    ]
                },
                {
                    "type": "QUEST_EXEC_NOTIFY_DAILY_TASK",
                    "param": [
                        "42140"
                    ]
                }
            ],
            "versionBegin": "",
            "versionEnd": ""
        },
        {
            "subId": 2303311,
            "mainId": 23033,
            "order": 1,
            "showType": "QUEST_HIDDEN",
            "finishCond": [
                {
                    "type": "QUEST_CONTENT_GAME_TIME_TICK",
                    "param": [
                        0,
                        0
                    ]
                }
            ],
            "guide": {
                "guideScene": 3
            },
            "acceptCondComb": {
                "FDPBPIHKEGH": ""
            },
            "failParentShow": "QUEST_HIDDEN",
            "versionBegin": "",
            "versionEnd": ""
        }
    ],
    "talks": [
        {
            "id": 2303301,
            "beginWay": "TALK_BEGIN_MANUAL",
            "activeMode": "PLAY_MODE_HOST",
            "beginCondComb": "LOGIC_AND",
            "beginCond": [
                {
                    "type": "QUEST_COND_STATE_EQUAL",
                    "param": [
                        "2303301",
                        "2"
                    ]
                },
                {
                    "type": "QUEST_COND_QUEST_GLOBAL_VAR_EQUAL",
                    "param": [
                        "7066502",
                        "0"
                    ]
                }
            ],
            "priority": 5,
            "initDialog": 230330101,
            "npcId": [
                12717
            ],
            "performCfg": "",
            "heroTalk": "TALK_HERO_MAIN",
            "questId": 23033,
            "assetIndex": 4426731007490456172,
            "prePerformCfg": ""
        },
        {
            "id": 2303303,
            "beginWay": "TALK_BEGIN_MANUAL",
            "activeMode": "PLAY_MODE_HOST",
            "beginCond": [
                {
                    "type": "QUEST_COND_STATE_EQUAL",
                    "param": [
                        "2303303",
                        "2"
                    ]
                }
            ],
            "priority": 5,
            "initDialog": 230330301,
            "npcId": [
                12717
            ],
            "performCfg": "QuestDialogue/IQ/Xumi_23033/Q2303303",
            "heroTalk": "TALK_HERO_MAIN",
            "questId": 23033,
            "assetIndex": 14092267619293810623,
            "prePerformCfg": ""
        },
        {
            "id": 2303305,
            "beginWay": "TALK_BEGIN_MANUAL",
            "activeMode": "PLAY_MODE_HOST",
            "beginCondComb": "LOGIC_AND",
            "beginCond": [
                {
                    "type": "QUEST_COND_STATE_EQUAL",
                    "param": [
                        "2303305",
                        "2"
                    ]
                },
                {
                    "type": "QUEST_COND_QUEST_GLOBAL_VAR_EQUAL",
                    "param": [
                        "7066502",
                        "0"
                    ]
                }
            ],
            "priority": 5,
            "initDialog": 230330501,
            "npcId": [
                12717
            ],
            "performCfg": "",
            "heroTalk": "TALK_HERO_MAIN",
            "questId": 23033,
            "assetIndex": 7056409799131287516,
            "prePerformCfg": ""
        },
        {
            "id": 2303306,
            "beginWay": "TALK_BEGIN_MANUAL",
            "activeMode": "PLAY_MODE_HOST",
            "beginCondComb": "LOGIC_AND",
            "beginCond": [
                {
                    "type": "QUEST_COND_STATE_EQUAL",
                    "param": [
                        "2303306",
                        "2"
                    ]
                },
                {
                    "type": "QUEST_COND_DAILY_TASK_VAR_EQ",
                    "param": [
                        "42140",
                        "1",
                        "0"
                    ]
                },
                {
                    "type": "QUEST_COND_QUEST_GLOBAL_VAR_EQUAL",
                    "param": [
                        "2303501",
                        "0"
                    ]
                },
                {
                    "type": "QUEST_COND_QUEST_GLOBAL_VAR_EQUAL",
                    "param": [
                        "7066502",
                        "0"
                    ]
                }
            ],
            "priority": 5,
            "initDialog": 230330601,
            "npcId": [
                12717
            ],
            "performCfg": "",
            "heroTalk": "TALK_HERO_MAIN",
            "questId": 23033,
            "assetIndex": 5234044981526584952,
            "prePerformCfg": ""
        },
        {
            "id": 2303308,
            "beginWay": "TALK_BEGIN_MANUAL",
            "activeMode": "PLAY_MODE_HOST",
            "beginCond": [
                {
                    "type": "QUEST_COND_STATE_EQUAL",
                    "param": [
                        "2303308",
                        "2"
                    ]
                }
            ],
            "priority": 5,
            "initDialog": 230330801,
            "npcId": [
                12717
            ],
            "performCfg": "QuestDialogue/IQ/Xumi_23033/Q2303308",
            "heroTalk": "TALK_HERO_MAIN",
            "questId": 23033,
            "assetIndex": 9719728710834260013,
            "prePerformCfg": ""
        },
        {
            "id": 2303310,
            "beginWay": "TALK_BEGIN_MANUAL",
            "activeMode": "PLAY_MODE_HOST",
            "beginCondComb": "LOGIC_AND",
            "beginCond": [
                {
                    "type": "QUEST_COND_STATE_EQUAL",
                    "param": [
                        "2303310",
                        "2"
                    ]
                },
                {
                    "type": "QUEST_COND_QUEST_GLOBAL_VAR_EQUAL",
                    "param": [
                        "2303501",
                        "0"
                    ]
                }
            ],
            "priority": 5,
            "initDialog": 230331001,
            "npcId": [
                12717
            ],
            "performCfg": "",
            "heroTalk": "TALK_HERO_MAIN",
            "questId": 23033,
            "assetIndex": 2026380188298649857,
            "prePerformCfg": ""
        },
        {
            "id": 2303311,
            "beginWay": "TALK_BEGIN_MANUAL",
            "activeMode": "PLAY_MODE_HOST",
            "beginCond": [
                {
                    "type": "QUEST_COND_STATE_EQUAL",
                    "param": [
                        "2303309",
                        "2"
                    ]
                }
            ],
            "priority": 5,
            "npcId": [
                13476
            ],
            "performCfg": "QuestDialogue/IQ/Xumi_23033/Q2303311",
            "heroTalk": "TALK_HERO_MAIN",
            "questId": 23033,
            "assetIndex": 9299166047988872803,
            "prePerformCfg": ""
        },
        {
            "id": 2303380,
            "beginWay": "TALK_BEGIN_MANUAL",
            "activeMode": "PLAY_MODE_HOST",
            "beginCondComb": "LOGIC_AND",
            "beginCond": [
                {
                    "type": "QUEST_COND_STATE_EQUAL",
                    "param": [
                        "2303306",
                        "2"
                    ]
                },
                {
                    "type": "QUEST_COND_DAILY_TASK_VAR_EQ",
                    "param": [
                        "42140",
                        "1",
                        "1"
                    ]
                },
                {
                    "type": "QUEST_COND_QUEST_GLOBAL_VAR_EQUAL",
                    "param": [
                        "2303501",
                        "0"
                    ]
                },
                {
                    "type": "QUEST_COND_QUEST_GLOBAL_VAR_EQUAL",
                    "param": [
                        "7066502",
                        "0"
                    ]
                }
            ],
            "priority": 5,
            "initDialog": 230338001,
            "npcId": [
                12717
            ],
            "performCfg": "",
            "heroTalk": "TALK_HERO_MAIN",
            "questId": 23033,
            "assetIndex": 408144372223434136,
            "prePerformCfg": ""
        },
        {
            "id": 2303381,
            "beginWay": "TALK_BEGIN_MANUAL",
            "activeMode": "PLAY_MODE_HOST",
            "beginCondComb": "LOGIC_AND",
            "beginCond": [
                {
                    "type": "QUEST_COND_STATE_EQUAL",
                    "param": [
                        "2303306",
                        "2"
                    ]
                },
                {
                    "type": "QUEST_COND_QUEST_GLOBAL_VAR_EQUAL",
                    "param": [
                        "2303501",
                        "1"
                    ]
                },
                {
                    "type": "QUEST_COND_QUEST_GLOBAL_VAR_EQUAL",
                    "param": [
                        "7066502",
                        "0"
                    ]
                }
            ],
            "priority": 5,
            "initDialog": 230338101,
            "npcId": [
                12717
            ],
            "performCfg": "",
            "heroTalk": "TALK_HERO_MAIN",
            "questId": 23033,
            "assetIndex": 9514066396461137095,
            "prePerformCfg": ""
        },
        {
            "id": 2303382,
            "beginWay": "TALK_BEGIN_MANUAL",
            "activeMode": "PLAY_MODE_HOST",
            "beginCondComb": "LOGIC_AND",
            "beginCond": [
                {
                    "type": "QUEST_COND_STATE_EQUAL",
                    "param": [
                        "2303310",
                        "2"
                    ]
                },
                {
                    "type": "QUEST_COND_QUEST_GLOBAL_VAR_EQUAL",
                    "param": [
                        "2303501",
                        "1"
                    ]
                }
            ],
            "priority": 5,
            "initDialog": 230338201,
            "npcId": [
                12717
            ],
            "performCfg": "",
            "heroTalk": "TALK_HERO_MAIN",
            "questId": 23033,
            "assetIndex": 8177119428767619417,
            "prePerformCfg": ""
        },
        {
            "id": 2303383,
            "beginWay": "TALK_BEGIN_MANUAL",
            "activeMode": "PLAY_MODE_HOST",
            "beginCondComb": "LOGIC_AND",
            "beginCond": [
                {
                    "type": "QUEST_COND_STATE_EQUAL",
                    "param": [
                        "2303306",
                        "2"
                    ]
                },
                {
                    "type": "QUEST_COND_DAILY_TASK_VAR_EQ",
                    "param": [
                        "42140",
                        "1",
                        "0"
                    ]
                },
                {
                    "type": "QUEST_COND_QUEST_GLOBAL_VAR_EQUAL",
                    "param": [
                        "7066502",
                        "1"
                    ]
                }
            ],
            "priority": 5,
            "initDialog": 230338301,
            "npcId": [
                12717
            ],
            "performCfg": "",
            "heroTalk": "TALK_HERO_MAIN",
            "questId": 23033,
            "assetIndex": 14840482301713770782,
            "prePerformCfg": ""
        },
        {
            "id": 2303384,
            "beginWay": "TALK_BEGIN_MANUAL",
            "activeMode": "PLAY_MODE_HOST",
            "beginCondComb": "LOGIC_AND",
            "beginCond": [
                {
                    "type": "QUEST_COND_STATE_EQUAL",
                    "param": [
                        "2303306",
                        "2"
                    ]
                },
                {
                    "type": "QUEST_COND_DAILY_TASK_VAR_EQ",
                    "param": [
                        "42140",
                        "1",
                        "1"
                    ]
                },
                {
                    "type": "QUEST_COND_QUEST_GLOBAL_VAR_EQUAL",
                    "param": [
                        "7066502",
                        "1"
                    ]
                }
            ],
            "priority": 5,
            "initDialog": 230338401,
            "npcId": [
                12717
            ],
            "performCfg": "",
            "heroTalk": "TALK_HERO_MAIN",
            "questId": 23033,
            "assetIndex": 3726587193202774087,
            "prePerformCfg": ""
        },
        {
            "id": 2303385,
            "beginWay": "TALK_BEGIN_MANUAL",
            "activeMode": "PLAY_MODE_HOST",
            "beginCondComb": "LOGIC_AND",
            "beginCond": [
                {
                    "type": "QUEST_COND_STATE_EQUAL",
                    "param": [
                        "2303301",
                        "2"
                    ]
                },
                {
                    "type": "QUEST_COND_QUEST_GLOBAL_VAR_EQUAL",
                    "param": [
                        "7066502",
                        "1"
                    ]
                }
            ],
            "priority": 5,
            "initDialog": 230338501,
            "npcId": [
                12717
            ],
            "performCfg": "",
            "heroTalk": "TALK_HERO_MAIN",
            "questId": 23033,
            "assetIndex": 6580250150446108813,
            "prePerformCfg": ""
        },
        {
            "id": 2303386,
            "beginWay": "TALK_BEGIN_MANUAL",
            "activeMode": "PLAY_MODE_HOST",
            "beginCondComb": "LOGIC_AND",
            "beginCond": [
                {
                    "type": "QUEST_COND_STATE_EQUAL",
                    "param": [
                        "2303305",
                        "2"
                    ]
                },
                {
                    "type": "QUEST_COND_QUEST_GLOBAL_VAR_EQUAL",
                    "param": [
                        "7066502",
                        "1"
                    ]
                }
            ],
            "priority": 5,
            "initDialog": 230338601,
            "npcId": [
                12717
            ],
            "performCfg": "",
            "heroTalk": "TALK_HERO_MAIN",
            "questId": 23033,
            "assetIndex": 3780288194357945973,
            "prePerformCfg": ""
        }
    ],
    "FFDPMMFBDAE": [
        4401931150447232336,
        16115495947072150504
    ],
    "IGKJEKALOKN": [
        5039688701499221899
    ]
}