{
    "id": 23041,
    "type": "IQ",
    "activeMode": "PLAY_MODE_ALL",
    "titleTextMapHash": 4283590703,
    "descTextMapHash": 3119247062,
    "luaPath": "Actor/Quest/IQ23041",
    "repeatable": true,
    "taskID": 42360,
    "subQuests": [
        {
            "subId": 2304101,
            "mainId": 23041,
            "order": 1,
            "descTextMapHash": 4243580572,
            "finishCond": [
                {
                    "type": "QUEST_CONTENT_COMPLETE_TALK",
                    "param": [
                        2304101,
                        0
                    ]
                },
                {
                    "type": "QUEST_CONTENT_COMPLETE_TALK",
                    "param": [
                        2304102,
                        0
                    ]
                },
                {
                    "type": "QUEST_CONTENT_COMPLETE_TALK",
                    "param": [
                        2304103,
                        0
                    ]
                }
            ],
            "guide": {
                "type": "QUEST_GUIDE_NPC",
                "param": [
                    "4405"
                ],
                "guideScene": 3,
                "guideStyle": "QUEST_GUIDE_STYLE_TARGET",
                "guideLayer": "QUEST_GUIDE_LAYER_SCENE"
            },
            "acceptCondComb": {
                "FDPBPIHKEGH": ""
            },
            "isRewind": true,
            "versionBegin": "",
            "versionEnd": ""
        },
        {
            "subId": 2304102,
            "mainId": 23041,
            "order": 3,
            "descTextMapHash": 2496795932,
            "finishCond": [
                {
                    "type": "QUEST_CONTENT_LUA_NOTIFY",
                    "param": [
                        0,
                        0
                    ],
                    "count": 1
                }
            ],
            "guide": {
                "type": "QUEST_GUIDE_GADGET",
                "param": [
                    "133308068",
                    "68005",
                    "-1981.453:271.0883:4079.538"
                ],
                "guideScene": 3
            },
            "acceptCondComb": {
                "FDPBPIHKEGH": ""
            },
            "isRewind": true,
            "versionBegin": "",
            "versionEnd": ""
        },
        {
            "subId": 2304103,
            "mainId": 23041,
            "order": 4,
            "descTextMapHash": 438682732,
            "finishCond": [
                {
                    "type": "QUEST_CONTENT_LUA_NOTIFY",
                    "param": [
                        0,
                        0
                    ],
                    "count": 1
                }
            ],
            "guide": {
                "type": "QUEST_GUIDE_LOCATION",
                "param": [
                    "Q7323303_GUIDE",
                    "25"
                ],
                "guideScene": 3
            },
            "acceptCondComb": {
                "FDPBPIHKEGH": ""
            },
            "isRewind": true,
            "finishExec": [
                {
                    "type": "QUEST_EXEC_UNREGISTER_DYNAMIC_GROUP",
                    "param": [
                        "133308068"
                    ]
                }
            ],
            "versionBegin": "",
            "versionEnd": ""
        },
        {
            "subId": 2304105,
            "mainId": 23041,
            "order": 5,
            "descTextMapHash": 4074912068,
            "finishCond": [
                {
                    "type": "QUEST_CONTENT_COMPLETE_TALK",
                    "param": [
                        2304105,
                        0
                    ]
                }
            ],
            "guide": {
                "type": "QUEST_GUIDE_NPC",
                "param": [
                    "4405"
                ],
                "guideScene": 3,
                "guideStyle": "QUEST_GUIDE_STYLE_TARGET",
                "guideLayer": "QUEST_GUIDE_LAYER_SCENE"
            },
            "acceptCondComb": {
                "FDPBPIHKEGH": ""
            },
            "finishParent": true,
            "isRewind": true,
            "finishExec": [
                {
                    "type": "QUEST_EXEC_SET_QUEST_GLOBAL_VAR",
                    "param": [
                        "2304101",
                        "1"
                    ]
                },
                {
                    "type": "QUEST_EXEC_NOTIFY_DAILY_TASK",
                    "param": [
                        "42360"
                    ]
                }
            ],
            "versionBegin": "",
            "versionEnd": ""
        },
        {
            "subId": 2304106,
            "mainId": 23041,
            "order": 11,
            "descTextMapHash": 3993570316,
            "finishCond": [
                {
                    "type": "QUEST_CONTENT_COMPLETE_TALK",
                    "param": [
                        2304106,
                        0
                    ]
                }
            ],
            "guide": {
                "type": "QUEST_GUIDE_LOCATION",
                "param": [
                    "Q2304112_GUIDE_3",
                    "20"
                ],
                "guideScene": 3,
                "guideStyle": "QUEST_GUIDE_STYLE_TARGET",
                "guideLayer": "QUEST_GUIDE_LAYER_SCENE"
            },
            "acceptCondComb": {
                "FDPBPIHKEGH": ""
            },
            "isRewind": true,
            "versionBegin": "",
            "versionEnd": ""
        },
        {
            "subId": 2304107,
            "mainId": 23041,
            "order": 12,
            "descTextMapHash": 3444272268,
            "finishCond": [
                {
                    "type": "QUEST_CONTENT_COMPLETE_TALK",
                    "param": [
                        2304107,
                        0
                    ]
                }
            ],
            "guide": {
                "type": "QUEST_GUIDE_NPC",
                "param": [
                    "4405"
                ],
                "guideScene": 3,
                "guideStyle": "QUEST_GUIDE_STYLE_TARGET",
                "guideLayer": "QUEST_GUIDE_LAYER_SCENE"
            },
            "acceptCondComb": {
                "FDPBPIHKEGH": ""
            },
            "finishParent": true,
            "isRewind": true,
            "finishExec": [
                {
                    "type": "QUEST_EXEC_UNREGISTER_DYNAMIC_GROUP",
                    "param": [
                        "133308082"
                    ]
                },
                {
                    "type": "QUEST_EXEC_SET_QUEST_GLOBAL_VAR",
                    "param": [
                        "2304102",
                        "1"
                    ]
                },
                {
                    "type": "QUEST_EXEC_NOTIFY_DAILY_TASK",
                    "param": [
                        "42360"
                    ]
                }
            ],
            "versionBegin": "",
            "versionEnd": ""
        },
        {
            "subId": 2304109,
            "mainId": 23041,
            "order": 14,
            "descTextMapHash": 3369257972,
            "finishCond": [
                {
                    "type": "QUEST_CONTENT_FINISH_ITEM_GIVING",
                    "param": [
                        2304109,
                        0
                    ]
                }
            ],
            "guide": {
                "type": "QUEST_GUIDE_NPC",
                "param": [
                    "4405"
                ],
                "guideScene": 3,
                "guideStyle": "QUEST_GUIDE_STYLE_TARGET",
                "guideLayer": "QUEST_GUIDE_LAYER_SCENE"
            },
            "acceptCondComb": {
                "FDPBPIHKEGH": ""
            },
            "isRewind": true,
            "versionBegin": "",
            "versionEnd": ""
        },
        {
            "subId": 2304110,
            "mainId": 23041,
            "order": 15,
            "descTextMapHash": 2172465012,
            "finishCond": [
                {
                    "type": "QUEST_CONTENT_COMPLETE_TALK",
                    "param": [
                        2304109,
                        0
                    ]
                }
            ],
            "guide": {
                "type": "QUEST_GUIDE_NPC",
                "param": [
                    "4405"
                ],
                "guideScene": 3,
                "guideStyle": "QUEST_GUIDE_STYLE_TARGET",
                "guideLayer": "QUEST_GUIDE_LAYER_SCENE"
            },
            "acceptCondComb": {
                "FDPBPIHKEGH": ""
            },
            "isRewind": true,
            "versionBegin": "",
            "versionEnd": ""
        },
        {
            "subId": 2304111,
            "mainId": 23041,
            "order": 8,
            "descTextMapHash": 4012117172,
            "showType": "QUEST_HIDDEN",
            "finishCond": [
                {
                    "type": "QUEST_CONTENT_COMPLETE_TALK",
                    "param": [
                        2304101,
                        0
                    ]
                },
                {
                    "type": "QUEST_CONTENT_COMPLETE_TALK",
                    "param": [
                        2304102,
                        0
                    ]
                },
                {
                    "type": "QUEST_CONTENT_COMPLETE_TALK",
                    "param": [
                        2304103,
                        0
                    ]
                }
            ],
            "guide": {},
            "showGuide": "QUEST_GUIDE_ITEM_DISABLE",
            "acceptCondComb": {
                "FDPBPIHKEGH": ""
            },
            "versionBegin": "",
            "versionEnd": ""
        },
        {
            "subId": 2304112,
            "mainId": 23041,
            "order": 10,
            "descTextMapHash": 392256724,
            "finishCond": [
                {
                    "type": "QUEST_CONTENT_COMPLETE_TALK",
                    "param": [
                        2304106,
                        0
                    ]
                }
            ],
            "guide": {
                "type": "QUEST_GUIDE_LOCATION",
                "param": [
                    "Q2304112_GUIDE_3",
                    "20"
                ],
                "guideScene": 3,
                "guideStyle": "QUEST_GUIDE_STYLE_TARGET",
                "guideLayer": "QUEST_GUIDE_LAYER_SCENE"
            },
            "acceptCondComb": {
                "FDPBPIHKEGH": ""
            },
            "isRewind": true,
            "versionBegin": "",
            "versionEnd": ""
        },
        {
            "subId": 2304113,
            "mainId": 23041,
            "order": 9,
            "descTextMapHash": 2558238124,
            "finishCond": [
                {
                    "type": "QUEST_CONTENT_COMPLETE_TALK",
                    "param": [
                        2304106,
                        0
                    ]
                }
            ],
            "guide": {
                "type": "QUEST_GUIDE_LOCATION",
                "param": [
                    "Q2304112_GUIDE_3",
                    "20"
                ],
                "guideScene": 3,
                "guideStyle": "QUEST_GUIDE_STYLE_TARGET",
                "guideLayer": "QUEST_GUIDE_LAYER_SCENE"
            },
            "acceptCondComb": {
                "FDPBPIHKEGH": ""
            },
            "isRewind": true,
            "versionBegin": "",
            "versionEnd": ""
        },
        {
            "subId": 2304114,
            "mainId": 23041,
            "order": 16,
            "descTextMapHash": 3455005892,
            "finishCond": [
                {
                    "type": "QUEST_CONTENT_FINISH_ITEM_GIVING",
                    "param": [
                        2304114,
                        0
                    ]
                }
            ],
            "guide": {
                "type": "QUEST_GUIDE_NPC",
                "param": [
                    "4404"
                ],
                "guideScene": 3,
                "guideStyle": "QUEST_GUIDE_STYLE_TARGET",
                "guideLayer": "QUEST_GUIDE_LAYER_SCENE"
            },
            "acceptCondComb": {
                "FDPBPIHKEGH": ""
            },
            "isRewind": true,
            "versionBegin": "",
            "versionEnd": ""
        },
        {
            "subId": 2304115,
            "mainId": 23041,
            "order": 17,
            "descTextMapHash": 1927834556,
            "finishCond": [
                {
                    "type": "QUEST_CONTENT_COMPLETE_TALK",
                    "param": [
                        2304110,
                        0
                    ]
                }
            ],
            "guide": {
                "type": "QUEST_GUIDE_NPC",
                "param": [
                    "4404"
                ],
                "guideScene": 3,
                "guideStyle": "QUEST_GUIDE_STYLE_TARGET",
                "guideLayer": "QUEST_GUIDE_LAYER_SCENE"
            },
            "acceptCondComb": {
                "FDPBPIHKEGH": ""
            },
            "finishParent": true,
            "isRewind": true,
            "finishExec": [
                {
                    "type": "QUEST_EXEC_SET_QUEST_GLOBAL_VAR",
                    "param": [
                        "2304103",
                        "1"
                    ]
                },
                {
                    "type": "QUEST_EXEC_NOTIFY_DAILY_TASK",
                    "param": [
                        "42360"
                    ]
                }
            ],
            "versionBegin": "",
            "versionEnd": ""
        },
        {
            "subId": 2304116,
            "mainId": 23041,
            "order": 7,
            "descTextMapHash": 2936798316,
            "showType": "QUEST_HIDDEN",
            "finishCond": [
                {
                    "type": "QUEST_CONTENT_COMPLETE_TALK",
                    "param": [
                        2304101,
                        0
                    ]
                },
                {
                    "type": "QUEST_CONTENT_COMPLETE_TALK",
                    "param": [
                        2304102,
                        0
                    ]
                },
                {
                    "type": "QUEST_CONTENT_COMPLETE_TALK",
                    "param": [
                        2304103,
                        0
                    ]
                }
            ],
            "guide": {},
            "showGuide": "QUEST_GUIDE_ITEM_DISABLE",
            "acceptCondComb": {
                "FDPBPIHKEGH": ""
            },
            "versionBegin": "",
            "versionEnd": ""
        },
        {
            "subId": 2304117,
            "mainId": 23041,
            "order": 6,
            "descTextMapHash": 1855451244,
            "showType": "QUEST_HIDDEN",
            "finishCond": [
                {
                    "type": "QUEST_CONTENT_COMPLETE_TALK",
                    "param": [
                        2304101,
                        0
                    ]
                },
                {
                    "type": "QUEST_CONTENT_COMPLETE_TALK",
                    "param": [
                        2304102,
                        0
                    ]
                },
                {
                    "type": "QUEST_CONTENT_COMPLETE_TALK",
                    "param": [
                        2304103,
                        0
                    ]
                }
            ],
            "guide": {},
            "showGuide": "QUEST_GUIDE_ITEM_DISABLE",
            "acceptCondComb": {
                "FDPBPIHKEGH": ""
            },
            "versionBegin": "",
            "versionEnd": ""
        },
        {
            "subId": 2304118,
            "mainId": 23041,
            "order": 2,
            "descTextMapHash": 1466704740,
            "showType": "QUEST_HIDDEN",
            "finishCond": [
                {
                    "type": "QUEST_CONTENT_QUEST_STATE_EQUAL",
                    "param": [
                        2304101,
                        3
                    ]
                }
            ],
            "guide": {},
            "acceptCondComb": {
                "FDPBPIHKEGH": ""
            },
            "versionBegin": "",
            "versionEnd": ""
        }
    ],
    "talks": [
        {
            "id": 2304101,
            "beginWay": "TALK_BEGIN_MANUAL",
            "activeMode": "PLAY_MODE_HOST",
            "beginCondComb": "LOGIC_AND",
            "beginCond": [
                {
                    "type": "QUEST_COND_STATE_EQUAL",
                    "param": [
                        "2304101",
                        "2"
                    ]
                },
                {
                    "type": "QUEST_COND_QUEST_VAR_EQUAL",
                    "param": [
                        "1",
                        "1",
                        "23041"
                    ]
                }
            ],
            "priority": 5,
            "initDialog": 230410101,
            "npcId": [
                4405
            ],
            "performCfg": "",
            "heroTalk": "TALK_HERO_MAIN",
            "questId": 23041,
            "assetIndex": 8331079530967531927,
            "prePerformCfg": ""
        },
        {
            "id": 2304102,
            "beginWay": "TALK_BEGIN_MANUAL",
            "activeMode": "PLAY_MODE_HOST",
            "beginCondComb": "LOGIC_AND",
            "beginCond": [
                {
                    "type": "QUEST_COND_STATE_EQUAL",
                    "param": [
                        "2304101",
                        "2"
                    ]
                },
                {
                    "type": "QUEST_COND_QUEST_VAR_EQUAL",
                    "param": [
                        "1",
                        "2",
                        "23041"
                    ]
                }
            ],
            "priority": 5,
            "initDialog": 230410201,
            "npcId": [
                4405
            ],
            "performCfg": "",
            "heroTalk": "TALK_HERO_MAIN",
            "questId": 23041,
            "assetIndex": 9437282939040953523,
            "prePerformCfg": ""
        },
        {
            "id": 2304103,
            "beginWay": "TALK_BEGIN_MANUAL",
            "activeMode": "PLAY_MODE_HOST",
            "beginCondComb": "LOGIC_AND",
            "beginCond": [
                {
                    "type": "QUEST_COND_STATE_EQUAL",
                    "param": [
                        "2304101",
                        "2"
                    ]
                },
                {
                    "type": "QUEST_COND_QUEST_VAR_EQUAL",
                    "param": [
                        "1",
                        "3",
                        "23041"
                    ]
                }
            ],
            "priority": 5,
            "initDialog": 230410301,
            "npcId": [
                4405
            ],
            "performCfg": "",
            "heroTalk": "TALK_HERO_MAIN",
            "questId": 23041,
            "assetIndex": 10872735861098964379,
            "prePerformCfg": ""
        },
        {
            "id": 2304105,
            "beginWay": "TALK_BEGIN_MANUAL",
            "activeMode": "PLAY_MODE_HOST",
            "beginCond": [
                {
                    "type": "QUEST_COND_STATE_EQUAL",
                    "param": [
                        "2304105",
                        "2"
                    ]
                }
            ],
            "priority": 5,
            "initDialog": 230410501,
            "npcId": [
                4405
            ],
            "performCfg": "",
            "heroTalk": "TALK_HERO_MAIN",
            "questId": 23041,
            "assetIndex": 5160012664901955742,
            "prePerformCfg": ""
        },
        {
            "id": 2304106,
            "beginWay": "TALK_BEGIN_MANUAL",
            "activeMode": "PLAY_MODE_HOST",
            "beginCondComb": "LOGIC_OR",
            "beginCond": [
                {
                    "type": "QUEST_COND_STATE_EQUAL",
                    "param": [
                        "2304106",
                        "2"
                    ]
                },
                {
                    "type": "QUEST_COND_STATE_EQUAL",
                    "param": [
                        "2304112",
                        "2"
                    ]
                },
                {
                    "type": "QUEST_COND_STATE_EQUAL",
                    "param": [
                        "2304113",
                        "2"
                    ]
                }
            ],
            "priority": 5,
            "initDialog": 230410602,
            "npcId": [
                12899
            ],
            "performCfg": "QuestDialogue/IQ/Sumeru_23041/Q2304106",
            "heroTalk": "TALK_HERO_MAIN",
            "questId": 23041,
            "assetIndex": 5853636577096191321,
            "prePerformCfg": ""
        },
        {
            "id": 2304107,
            "beginWay": "TALK_BEGIN_MANUAL",
            "activeMode": "PLAY_MODE_HOST",
            "beginCond": [
                {
                    "type": "QUEST_COND_STATE_EQUAL",
                    "param": [
                        "2304107",
                        "2"
                    ]
                }
            ],
            "priority": 5,
            "initDialog": 230410701,
            "npcId": [
                4405
            ],
            "performCfg": "",
            "heroTalk": "TALK_HERO_MAIN",
            "questId": 23041,
            "assetIndex": 6426282084689755709,
            "prePerformCfg": ""
        },
        {
            "id": 2304108,
            "beginWay": "TALK_BEGIN_MANUAL",
            "activeMode": "PLAY_MODE_HOST",
            "beginCond": [
                {
                    "type": "QUEST_COND_ITEM_GIVING_ACTIVED",
                    "param": [
                        "2304109"
                    ]
                }
            ],
            "priority": 5,
            "initDialog": 230410801,
            "npcId": [
                4405
            ],
            "performCfg": "",
            "heroTalk": "TALK_HERO_MAIN",
            "questId": 23041,
            "assetIndex": 13639495614817486079,
            "prePerformCfg": ""
        },
        {
            "id": 2304109,
            "beginWay": "TALK_BEGIN_AUTO",
            "activeMode": "PLAY_MODE_HOST",
            "beginCond": [
                {
                    "type": "QUEST_COND_STATE_EQUAL",
                    "param": [
                        "2304110",
                        "2"
                    ]
                }
            ],
            "priority": 5,
            "initDialog": 230410901,
            "npcId": [
                4405
            ],
            "performCfg": "",
            "heroTalk": "TALK_HERO_MAIN",
            "questId": 23041,
            "assetIndex": 12436186450806114280,
            "prePerformCfg": ""
        },
        {
            "id": 2304110,
            "beginWay": "TALK_BEGIN_AUTO",
            "activeMode": "PLAY_MODE_HOST",
            "beginCond": [
                {
                    "type": "QUEST_COND_STATE_EQUAL",
                    "param": [
                        "2304115",
                        "2"
                    ]
                }
            ],
            "priority": 5,
            "initDialog": 230411001,
            "npcId": [
                4404
            ],
            "performCfg": "",
            "heroTalk": "TALK_HERO_MAIN",
            "questId": 23041,
            "assetIndex": 12425960947410269564,
            "prePerformCfg": ""
        },
        {
            "id": 2304111,
            "beginWay": "TALK_BEGIN_MANUAL",
            "activeMode": "PLAY_MODE_HOST",
            "beginCondComb": "LOGIC_A_AND_ETCOR",
            "beginCond": [
                {
                    "type": "QUEST_COND_QUEST_VAR_EQUAL",
                    "param": [
                        "1",
                        "1",
                        "23041"
                    ]
                },
                {
                    "type": "QUEST_COND_STATE_EQUAL",
                    "param": [
                        "2304102",
                        "2"
                    ]
                },
                {
                    "type": "QUEST_COND_STATE_EQUAL",
                    "param": [
                        "2304103",
                        "2"
                    ]
                }
            ],
            "priority": 5,
            "initDialog": 230411101,
            "npcId": [
                4405
            ],
            "performCfg": "",
            "heroTalk": "TALK_HERO_MAIN",
            "questId": 23041,
            "assetIndex": 9811092462445210034,
            "prePerformCfg": ""
        },
        {
            "id": 2304112,
            "beginWay": "TALK_BEGIN_MANUAL",
            "activeMode": "PLAY_MODE_HOST",
            "beginCondComb": "LOGIC_A_AND_ETCOR",
            "beginCond": [
                {
                    "type": "QUEST_COND_QUEST_VAR_EQUAL",
                    "param": [
                        "1",
                        "2",
                        "23041"
                    ]
                },
                {
                    "type": "QUEST_COND_STATE_EQUAL",
                    "param": [
                        "2304112",
                        "2"
                    ]
                },
                {
                    "type": "QUEST_COND_STATE_EQUAL",
                    "param": [
                        "2304113",
                        "2"
                    ]
                },
                {
                    "type": "QUEST_COND_STATE_EQUAL",
                    "param": [
                        "2304106",
                        "2"
                    ]
                }
            ],
            "priority": 5,
            "initDialog": 230411201,
            "npcId": [
                4405
            ],
            "performCfg": "",
            "heroTalk": "TALK_HERO_MAIN",
            "questId": 23041,
            "assetIndex": 8792511064072275113,
            "prePerformCfg": ""
        },
        {
            "id": 2304114,
            "beginWay": "TALK_BEGIN_MANUAL",
            "activeMode": "PLAY_MODE_HOST",
            "beginCondComb": "LOGIC_A_AND_ETCOR",
            "beginCond": [
                {
                    "type": "QUEST_COND_QUEST_VAR_EQUAL",
                    "param": [
                        "1",
                        "3",
                        "23041"
                    ]
                },
                {
                    "type": "QUEST_COND_STATE_EQUAL",
                    "param": [
                        "2304114",
                        "2"
                    ]
                },
                {
                    "type": "QUEST_COND_STATE_EQUAL",
                    "param": [
                        "2304115",
                        "2"
                    ]
                }
            ],
            "priority": 5,
            "initDialog": 230411401,
            "npcId": [
                4405
            ],
            "performCfg": "",
            "heroTalk": "TALK_HERO_MAIN",
            "questId": 23041,
            "assetIndex": 17259810035493113096,
            "prePerformCfg": ""
        },
        {
            "id": 2304115,
            "beginWay": "TALK_BEGIN_MANUAL",
            "activeMode": "PLAY_MODE_HOST",
            "beginCond": [
                {
                    "type": "QUEST_COND_ITEM_GIVING_ACTIVED",
                    "param": [
                        "2304114"
                    ]
                }
            ],
            "priority": 5,
            "initDialog": 230411501,
            "npcId": [
                4404
            ],
            "performCfg": "",
            "heroTalk": "TALK_HERO_MAIN",
            "questId": 23041,
            "assetIndex": 2774757570872159518,
            "prePerformCfg": ""
        },
        {
            "id": 2304116,
            "beginWay": "TALK_BEGIN_MANUAL",
            "activeMode": "PLAY_MODE_HOST",
            "beginCondComb": "LOGIC_A_AND_ETCOR",
            "beginCond": [
                {
                    "type": "QUEST_COND_QUEST_NOT_RECEIVE",
                    "param": [
                        "2304114",
                        "1"
                    ]
                },
                {
                    "type": "QUEST_COND_STATE_EQUAL",
                    "param": [
                        "2304101",
                        "2"
                    ]
                },
                {
                    "type": "QUEST_COND_STATE_EQUAL",
                    "param": [
                        "2304101",
                        "3"
                    ]
                }
            ],
            "priority": 5,
            "initDialog": 230411601,
            "npcId": [
                4404
            ],
            "performCfg": "",
            "heroTalk": "TALK_HERO_MAIN",
            "questId": 23041,
            "assetIndex": 8493108378313579829,
            "prePerformCfg": "",
            "lowPriority": true
        }
    ],
    "FFDPMMFBDAE": [
        15322395675690501493,
        6175125315318007720,
        11833994288724337936
    ],
    "IGKJEKALOKN": [
        14316019047920107727
    ]
}