{
    "id": 40025,
    "KHGONCANKFN": 4007,
    "series": 10045,
    "type": "EQ",
    "mainQuestTag": "MAINQUEST_TAG_ACTIVITY",
    "titleTextMapHash": 4015995351,
    "descTextMapHash": 4135724734,
    "luaPath": "Actor/Quest/EQ40025",
    "suggestTrackMainQuestList": [
        40026
    ],
    "rewardIdList": [
        140025
    ],
    "chapterId": 10045,
    "showRedPoint": true,
    "activityId": 2009,
    "subQuests": [
        {
            "subId": 4002501,
            "mainId": 40025,
            "order": 1,
            "descTextMapHash": 3030185204,
            "finishCond": [
                {
                    "type": "QUEST_CONTENT_FINISH_PLOT",
                    "param": [
                        4002501,
                        0
                    ]
                }
            ],
            "guide": {
                "type": "QUEST_GUIDE_LOCATION",
                "autoGuide": "QUEST_GUIDE_AUTO_ENABLE",
                "param": [
                    "DUMMY_POS_40025_Quest01",
                    "0"
                ],
                "guideScene": 3,
                "guideStyle": "QUEST_GUIDE_STYLE_POINT",
                "guideLayer": "QUEST_GUIDE_LAYER_SCENE"
            },
            "acceptCondComb": {
                "FDPBPIHKEGH": ""
            },
            "isRewind": true,
            "versionBegin": "",
            "versionEnd": ""
        },
        {
            "subId": 4002502,
            "mainId": 40025,
            "order": 2,
            "descTextMapHash": 73509892,
            "finishCond": [
                {
                    "type": "QUEST_CONTENT_COMPLETE_TALK",
                    "param": [
                        4002501,
                        0
                    ]
                }
            ],
            "guide": {
                "type": "QUEST_GUIDE_NPC",
                "autoGuide": "QUEST_GUIDE_AUTO_ENABLE",
                "param": [
                    "1587"
                ],
                "guideScene": 3,
                "guideStyle": "QUEST_GUIDE_STYLE_TARGET",
                "guideLayer": "QUEST_GUIDE_LAYER_SCENE"
            },
            "acceptCondComb": {
                "FDPBPIHKEGH": ""
            },
            "isRewind": true,
            "versionBegin": "",
            "versionEnd": ""
        },
        {
            "subId": 4002503,
            "mainId": 40025,
            "order": 3,
            "descTextMapHash": 2471993972,
            "stepDescTextMapHash": 2880812965,
            "finishCond": [
                {
                    "type": "QUEST_CONTENT_COMPLETE_TALK",
                    "param": [
                        4002502,
                        0
                    ]
                }
            ],
            "guide": {
                "type": "QUEST_GUIDE_LOCATION",
                "autoGuide": "QUEST_GUIDE_AUTO_ENABLE",
                "param": [
                    "Q4002503_track_AdventurerCamp",
                    "0"
                ],
                "guideScene": 3,
                "guideStyle": "QUEST_GUIDE_STYLE_POINT",
                "guideLayer": "QUEST_GUIDE_LAYER_SCENE"
            },
            "acceptCondComb": {
                "FDPBPIHKEGH": ""
            },
            "isRewind": true,
            "versionBegin": "",
            "versionEnd": ""
        },
        {
            "subId": 4002504,
            "mainId": 40025,
            "order": 4,
            "descTextMapHash": 3214332972,
            "finishCond": [
                {
                    "type": "QUEST_CONTENT_COMPLETE_TALK",
                    "param": [
                        4002503,
                        0
                    ]
                }
            ],
            "guide": {
                "type": "QUEST_GUIDE_NPC",
                "autoGuide": "QUEST_GUIDE_AUTO_ENABLE",
                "param": [
                    "1668"
                ],
                "guideScene": 3,
                "guideStyle": "QUEST_GUIDE_STYLE_TARGET",
                "guideLayer": "QUEST_GUIDE_LAYER_SCENE"
            },
            "acceptCondComb": {
                "FDPBPIHKEGH": ""
            },
            "isRewind": true,
            "versionBegin": "",
            "versionEnd": ""
        },
        {
            "subId": 4002505,
            "mainId": 40025,
            "order": 5,
            "descTextMapHash": 2926247668,
            "finishCond": [
                {
                    "type": "QUEST_CONTENT_FINISH_PLOT",
                    "param": [
                        4002505,
                        0
                    ]
                }
            ],
            "guide": {
                "type": "QUEST_GUIDE_LOCATION",
                "autoGuide": "QUEST_GUIDE_AUTO_ENABLE",
                "param": [
                    "Q4002505_track",
                    "0"
                ],
                "guideScene": 3,
                "guideStyle": "QUEST_GUIDE_STYLE_POINT",
                "guideLayer": "QUEST_GUIDE_LAYER_SCENE"
            },
            "acceptCondComb": {
                "FDPBPIHKEGH": ""
            },
            "isRewind": true,
            "versionBegin": "",
            "versionEnd": ""
        },
        {
            "subId": 4002506,
            "mainId": 40025,
            "order": 6,
            "descTextMapHash": 1606526276,
            "finishCond": [
                {
                    "type": "QUEST_CONTENT_COMPLETE_TALK",
                    "param": [
                        4002505,
                        0
                    ]
                }
            ],
            "guide": {
                "type": "QUEST_GUIDE_NPC",
                "autoGuide": "QUEST_GUIDE_AUTO_ENABLE",
                "param": [
                    "1005"
                ],
                "guideScene": 3,
                "guideStyle": "QUEST_GUIDE_STYLE_TARGET",
                "guideLayer": "QUEST_GUIDE_LAYER_SCENE"
            },
            "acceptCondComb": {
                "FDPBPIHKEGH": ""
            },
            "isRewind": true,
            "versionBegin": "",
            "versionEnd": ""
        },
        {
            "subId": 4002507,
            "mainId": 40025,
            "order": 9,
            "descTextMapHash": 2232076004,
            "finishCond": [
                {
                    "type": "QUEST_CONTENT_COMPLETE_TALK",
                    "param": [
                        4002504,
                        0
                    ]
                }
            ],
            "guide": {
                "type": "QUEST_GUIDE_LOCATION",
                "autoGuide": "QUEST_GUIDE_AUTO_ENABLE",
                "param": [
                    "Q4002507_track",
                    "30"
                ],
                "guideScene": 3,
                "guideStyle": "QUEST_GUIDE_STYLE_TARGET",
                "guideLayer": "QUEST_GUIDE_LAYER_SCENE"
            },
            "acceptCondComb": {
                "FDPBPIHKEGH": ""
            },
            "isRewind": true,
            "versionBegin": "",
            "versionEnd": ""
        },
        {
            "subId": 4002508,
            "mainId": 40025,
            "order": 10,
            "isMpBlock": true,
            "descTextMapHash": 260117916,
            "finishCond": [
                {
                    "type": "QUEST_CONTENT_COMPLETE_TALK",
                    "param": [
                        4002506,
                        0
                    ]
                }
            ],
            "guide": {
                "type": "QUEST_GUIDE_LOCATION",
                "autoGuide": "QUEST_GUIDE_AUTO_ENABLE",
                "param": [
                    "Q40027_quest_home01"
                ],
                "guideScene": 3,
                "guideStyle": "QUEST_GUIDE_STYLE_POINT",
                "guideLayer": "QUEST_GUIDE_LAYER_SCENE"
            },
            "acceptCondComb": {
                "FDPBPIHKEGH": ""
            },
            "finishParent": true,
            "isRewind": true,
            "finishExec": [
                {
                    "type": "QUEST_EXEC_UNREGISTER_DYNAMIC_GROUP",
                    "param": [
                        "133004054"
                    ]
                },
                {
                    "type": "QUEST_EXEC_REFRESH_GROUP_SUITE",
                    "param": [
                        "3",
                        "133002927,1"
                    ]
                },
                {
                    "type": "QUEST_EXEC_REFRESH_GROUP_SUITE",
                    "param": [
                        "3",
                        "133002928,2"
                    ]
                },
                {
                    "type": "QUEST_EXEC_UNREGISTER_DYNAMIC_GROUP",
                    "param": [
                        "133002071"
                    ]
                },
                {
                    "type": "QUEST_EXEC_UNREGISTER_DYNAMIC_GROUP",
                    "param": [
                        "133002063"
                    ]
                }
            ],
            "versionBegin": "",
            "versionEnd": ""
        },
        {
            "subId": 4002509,
            "mainId": 40025,
            "order": 8,
            "descTextMapHash": 763359364,
            "finishCond": [
                {
                    "type": "QUEST_CONTENT_FINISH_PLOT",
                    "param": [
                        4002509,
                        0
                    ]
                }
            ],
            "guide": {
                "type": "QUEST_GUIDE_LOCATION",
                "autoGuide": "QUEST_GUIDE_AUTO_ENABLE",
                "param": [
                    "Q4002509_track",
                    "30"
                ],
                "guideScene": 3,
                "guideStyle": "QUEST_GUIDE_STYLE_TARGET",
                "guideLayer": "QUEST_GUIDE_LAYER_SCENE"
            },
            "acceptCondComb": {
                "FDPBPIHKEGH": ""
            },
            "isRewind": true,
            "versionBegin": "",
            "versionEnd": ""
        },
        {
            "subId": 4002510,
            "mainId": 40025,
            "order": 7,
            "descTextMapHash": 1126377228,
            "finishCond": [
                {
                    "type": "QUEST_CONTENT_FINISH_PLOT",
                    "param": [
                        4002510,
                        0
                    ]
                }
            ],
            "guide": {
                "type": "QUEST_GUIDE_LOCATION",
                "autoGuide": "QUEST_GUIDE_AUTO_ENABLE",
                "param": [
                    "Q4002510_track",
                    "30"
                ],
                "guideScene": 3,
                "guideStyle": "QUEST_GUIDE_STYLE_TARGET",
                "guideLayer": "QUEST_GUIDE_LAYER_SCENE"
            },
            "acceptCondComb": {
                "FDPBPIHKEGH": ""
            },
            "isRewind": true,
            "versionBegin": "",
            "versionEnd": ""
        }
    ],
    "talks": [
        {
            "id": 4002501,
            "beginWay": "TALK_BEGIN_MANUAL",
            "beginCond": [
                {
                    "type": "QUEST_COND_STATE_EQUAL",
                    "param": [
                        "4002502",
                        "2"
                    ]
                }
            ],
            "priority": 5,
            "initDialog": 400250101,
            "npcId": [
                1587,
                1019
            ],
            "performCfg": "QuestDialogue/EQ/WinterCamp_40025/Q4002501",
            "heroTalk": "TALK_HERO_MAIN",
            "questId": 40025,
            "assetIndex": 14920419595794163143,
            "prePerformCfg": "",
            "lockGameTime": true
        },
        {
            "id": 4002502,
            "beginWay": "TALK_BEGIN_MANUAL",
            "beginCond": [
                {
                    "type": "QUEST_COND_STATE_EQUAL",
                    "param": [
                        "4002503",
                        "2"
                    ]
                }
            ],
            "priority": 5,
            "initDialog": 400250201,
            "npcId": [
                1002,
                1409,
                1577
            ],
            "performCfg": "QuestDialogue/EQ/WinterCamp_40025/Q4002502",
            "heroTalk": "TALK_HERO_MAIN",
            "questId": 40025,
            "assetIndex": 14257520729768507233,
            "prePerformCfg": "",
            "lockGameTime": true
        },
        {
            "id": 4002503,
            "beginWay": "TALK_BEGIN_MANUAL",
            "beginCond": [
                {
                    "type": "QUEST_COND_STATE_EQUAL",
                    "param": [
                        "4002504",
                        "2"
                    ]
                }
            ],
            "priority": 5,
            "initDialog": 400250301,
            "npcId": [
                1002,
                1668,
                1029,
                12253
            ],
            "performCfg": "QuestDialogue/EQ/WinterCamp_40025/Q4002503",
            "heroTalk": "TALK_HERO_MAIN",
            "questId": 40025,
            "assetIndex": 18013325939416855139,
            "prePerformCfg": "",
            "lockGameTime": true
        },
        {
            "id": 4002504,
            "beginWay": "TALK_BEGIN_MANUAL",
            "beginCond": [
                {
                    "type": "QUEST_COND_STATE_EQUAL",
                    "param": [
                        "4002507",
                        "2"
                    ]
                }
            ],
            "priority": 5,
            "initDialog": 400250401,
            "npcId": [
                1018
            ],
            "performCfg": "QuestDialogue/EQ/WinterCamp_40025/Q4002504",
            "heroTalk": "TALK_HERO_MAIN",
            "questId": 40025,
            "assetIndex": 10746993436834131342,
            "prePerformCfg": "",
            "lockGameTime": true
        },
        {
            "id": 4002505,
            "beginWay": "TALK_BEGIN_MANUAL",
            "beginCond": [
                {
                    "type": "QUEST_COND_STATE_EQUAL",
                    "param": [
                        "4002506",
                        "2"
                    ]
                }
            ],
            "priority": 5,
            "initDialog": 400250501,
            "npcId": [
                1005
            ],
            "performCfg": "QuestDialogue/EQ/WinterCamp_40025/Q4002505",
            "heroTalk": "TALK_HERO_MAIN",
            "questId": 40025,
            "assetIndex": 6159813153820413590,
            "prePerformCfg": "",
            "lockGameTime": true
        },
        {
            "id": 4002506,
            "beginWay": "TALK_BEGIN_MANUAL",
            "beginCond": [
                {
                    "type": "QUEST_COND_STATE_EQUAL",
                    "param": [
                        "4002508",
                        "2"
                    ]
                }
            ],
            "priority": 5,
            "initDialog": 400250601,
            "npcId": [
                1005,
                1018
            ],
            "performCfg": "QuestDialogue/EQ/WinterCamp_40025/Q4002506",
            "heroTalk": "TALK_HERO_MAIN",
            "questId": 40025,
            "assetIndex": 1059698481873486771,
            "prePerformCfg": "",
            "lockGameTime": true
        },
        {
            "id": 4002507,
            "beginWay": "TALK_BEGIN_MANUAL",
            "beginCond": [
                {
                    "type": "QUEST_COND_STATE_EQUAL",
                    "param": [
                        "4002504",
                        "2"
                    ]
                }
            ],
            "priority": 5,
            "initDialog": 400250701,
            "npcId": [
                1409,
                1577
            ],
            "performCfg": "QuestDialogue/EQ/WinterCamp_40025/Q4002507",
            "heroTalk": "TALK_HERO_MAIN",
            "questId": 40025,
            "assetIndex": 14977522347469747007,
            "prePerformCfg": "",
            "lockGameTime": true,
            "lowPriority": true
        },
        {
            "id": 4002508,
            "beginWay": "TALK_BEGIN_MANUAL",
            "beginCond": [
                {
                    "type": "QUEST_COND_STATE_EQUAL",
                    "param": [
                        "4002503",
                        "2"
                    ]
                }
            ],
            "priority": 5,
            "initDialog": 400250801,
            "npcId": [
                1587,
                1019
            ],
            "performCfg": "QuestDialogue/EQ/WinterCamp_40025/Q4002508",
            "heroTalk": "TALK_HERO_MAIN",
            "questId": 40025,
            "assetIndex": 6586891941015474701,
            "prePerformCfg": "",
            "lockGameTime": true,
            "lowPriority": true
        }
    ],
    "FFDPMMFBDAE": [
        5909385756826696338,
        14457059026087496718,
        9251670513368536263,
        13153498663060906467,
        3646958201946382409,
        14567210420788466249,
        4159601475255533455,
        5257801993509038576,
        5284071153752051845,
        3099523875020947376,
        7295894396989009631,
        10961436585812603910
    ],
    "IGKJEKALOKN": [
        13668205924210321528
    ]
}