{
    "id": 40037,
    "KHGONCANKFN": 4008,
    "type": "EQ",
    "titleTextMapHash": 2104484543,
    "descTextMapHash": 3335847190,
    "luaPath": "Actor/Quest/EQ40037",
    "rewardIdList": [
        140037
    ],
    "chapterId": 10054,
    "showRedPoint": true,
    "activityId": 2010,
    "subQuests": [
        {
            "subId": 4003701,
            "mainId": 40037,
            "order": 1,
            "descTextMapHash": 4207916212,
            "finishCond": [
                {
                    "type": "QUEST_CONTENT_GAME_TIME_TICK",
                    "param": [
                        1,
                        0
                    ]
                }
            ],
            "guide": {},
            "acceptCondComb": {
                "FDPBPIHKEGH": ""
            },
            "isRewind": true,
            "versionBegin": "",
            "versionEnd": ""
        },
        {
            "subId": 4003702,
            "mainId": 40037,
            "order": 2,
            "descTextMapHash": 2748199252,
            "finishCond": [
                {
                    "type": "QUEST_CONTENT_COMPLETE_TALK",
                    "param": [
                        4003702,
                        0
                    ]
                }
            ],
            "guide": {
                "type": "QUEST_GUIDE_NPC",
                "param": [
                    "1016"
                ],
                "guideScene": 3,
                "guideStyle": "QUEST_GUIDE_STYLE_TARGET",
                "guideLayer": "QUEST_GUIDE_LAYER_SCENE"
            },
            "acceptCondComb": {
                "FDPBPIHKEGH": ""
            },
            "isRewind": true,
            "versionBegin": "",
            "versionEnd": ""
        },
        {
            "subId": 4003703,
            "mainId": 40037,
            "order": 3,
            "descTextMapHash": 3774126588,
            "finishCond": [
                {
                    "type": "QUEST_CONTENT_FINISH_PLOT",
                    "param": [
                        4003703,
                        0
                    ]
                }
            ],
            "guide": {
                "type": "QUEST_GUIDE_LOCATION",
                "param": [
                    "T4003710_N1016"
                ],
                "guideScene": 3,
                "guideStyle": "QUEST_GUIDE_STYLE_POINT",
                "guideLayer": "QUEST_GUIDE_LAYER_SCENE"
            },
            "acceptCondComb": {
                "FDPBPIHKEGH": ""
            },
            "isRewind": true,
            "versionBegin": "",
            "versionEnd": ""
        },
        {
            "subId": 4003704,
            "mainId": 40037,
            "order": 6,
            "isMpBlock": true,
            "descTextMapHash": 1523270140,
            "finishCond": [
                {
                    "type": "QUEST_CONTENT_LUA_NOTIFY",
                    "param": [
                        0,
                        0
                    ],
                    "count": 1
                }
            ],
            "failCond": [
                {
                    "type": "QUEST_CONTENT_TEAM_DEAD",
                    "param": [
                        0,
                        0
                    ]
                },
                {
                    "type": "QUEST_CONTENT_LEAVE_SCENE_RANGE",
                    "param": [
                        3,
                        80
                    ]
                },
                {
                    "type": "QUEST_CONTENT_ANY_MANUAL_TRANSPORT",
                    "param": [
                        0,
                        0
                    ]
                }
            ],
            "guide": {
                "type": "QUEST_GUIDE_LOCATION",
                "param": [
                    "T4003705_N10000005",
                    "10"
                ],
                "guideScene": 3,
                "guideStyle": "QUEST_GUIDE_STYLE_TARGET",
                "guideLayer": "QUEST_GUIDE_LAYER_SCENE"
            },
            "acceptCondComb": {
                "FDPBPIHKEGH": ""
            },
            "finishExec": [
                {
                    "type": "QUEST_EXEC_REMOVE_TRIAL_AVATAR",
                    "param": [
                        "33"
                    ]
                }
            ],
            "failExec": [
                {
                    "type": "QUEST_EXEC_REMOVE_TRIAL_AVATAR",
                    "param": [
                        "33"
                    ]
                },
                {
                    "type": "QUEST_EXEC_ROLLBACK_QUEST",
                    "param": [
                        "4003703"
                    ]
                }
            ],
            "versionBegin": "",
            "versionEnd": ""
        },
        {
            "subId": 4003705,
            "mainId": 40037,
            "order": 7,
            "descTextMapHash": 2322307228,
            "finishCond": [
                {
                    "type": "QUEST_CONTENT_COMPLETE_TALK",
                    "param": [
                        4003705,
                        0
                    ]
                }
            ],
            "guide": {
                "type": "QUEST_GUIDE_NPC",
                "param": [
                    "30091"
                ],
                "guideScene": 3,
                "guideStyle": "QUEST_GUIDE_STYLE_TARGET",
                "guideLayer": "QUEST_GUIDE_LAYER_SCENE"
            },
            "acceptCondComb": {
                "FDPBPIHKEGH": ""
            },
            "isRewind": true,
            "finishExec": [
                {
                    "type": "QUEST_EXEC_UNREGISTER_DYNAMIC_GROUP",
                    "param": [
                        "133102177"
                    ]
                }
            ],
            "versionBegin": "",
            "versionEnd": ""
        },
        {
            "subId": 4003706,
            "mainId": 40037,
            "order": 8,
            "descTextMapHash": 3371790108,
            "finishCond": [
                {
                    "type": "QUEST_CONTENT_COMPLETE_TALK",
                    "param": [
                        4003706,
                        0
                    ]
                }
            ],
            "guide": {
                "type": "QUEST_GUIDE_NPC",
                "param": [
                    "30092"
                ],
                "guideScene": 3,
                "guideStyle": "QUEST_GUIDE_STYLE_TARGET",
                "guideLayer": "QUEST_GUIDE_LAYER_SCENE"
            },
            "acceptCondComb": {
                "FDPBPIHKEGH": ""
            },
            "isRewind": true,
            "versionBegin": "",
            "versionEnd": ""
        },
        {
            "subId": 4003707,
            "mainId": 40037,
            "order": 9,
            "descTextMapHash": 3991998484,
            "finishCond": [
                {
                    "type": "QUEST_CONTENT_FINISH_PLOT",
                    "param": [
                        4003707,
                        0
                    ]
                }
            ],
            "guide": {
                "type": "QUEST_GUIDE_LOCATION",
                "param": [
                    "Q4003707_N1016_310200477",
                    "20"
                ],
                "guideScene": 3,
                "guideStyle": "QUEST_GUIDE_STYLE_TARGET",
                "guideLayer": "QUEST_GUIDE_LAYER_SCENE"
            },
            "acceptCondComb": {
                "FDPBPIHKEGH": ""
            },
            "isRewind": true,
            "versionBegin": "",
            "versionEnd": ""
        },
        {
            "subId": 4003708,
            "mainId": 40037,
            "order": 10,
            "descTextMapHash": 1868103428,
            "finishCond": [
                {
                    "type": "QUEST_CONTENT_COMPLETE_TALK",
                    "param": [
                        4003708,
                        0
                    ]
                }
            ],
            "guide": {
                "type": "QUEST_GUIDE_NPC",
                "param": [
                    "1016"
                ],
                "guideScene": 3,
                "guideStyle": "QUEST_GUIDE_STYLE_TARGET",
                "guideLayer": "QUEST_GUIDE_LAYER_SCENE"
            },
            "acceptCondComb": {
                "FDPBPIHKEGH": ""
            },
            "finishExec": [
                {
                    "type": "QUEST_EXEC_UNREGISTER_DYNAMIC_GROUP",
                    "param": [
                        "133102218"
                    ]
                }
            ],
            "versionBegin": "",
            "versionEnd": ""
        },
        {
            "subId": 4003709,
            "mainId": 40037,
            "order": 11,
            "descTextMapHash": 1550369284,
            "stepDescTextMapHash": 2502974725,
            "exclusivePlaceList": [
                302
            ],
            "finishCond": [
                {
                    "type": "QUEST_CONTENT_COMPLETE_TALK",
                    "param": [
                        4003709,
                        0
                    ]
                }
            ],
            "guide": {
                "type": "QUEST_GUIDE_NPC",
                "param": [
                    "10232"
                ],
                "guideScene": 3,
                "guideStyle": "QUEST_GUIDE_STYLE_TARGET",
                "guideLayer": "QUEST_GUIDE_LAYER_SCENE"
            },
            "acceptCondComb": {
                "FDPBPIHKEGH": ""
            },
            "isRewind": true,
            "finishExec": [
                {
                    "type": "QUEST_EXEC_UNREGISTER_DYNAMIC_GROUP",
                    "param": [
                        "133102210"
                    ]
                },
                {
                    "type": "QUEST_EXEC_UNREGISTER_DYNAMIC_GROUP",
                    "param": [
                        "133107209",
                        "1"
                    ]
                },
                {
                    "type": "QUEST_EXEC_UNREGISTER_DYNAMIC_GROUP",
                    "param": [
                        "133102211"
                    ]
                }
            ],
            "versionBegin": "",
            "versionEnd": ""
        },
        {
            "subId": 4003710,
            "mainId": 40037,
            "order": 5,
            "descTextMapHash": 1659686292,
            "finishCond": [
                {
                    "type": "QUEST_CONTENT_COMPLETE_TALK",
                    "param": [
                        4003710,
                        0
                    ]
                }
            ],
            "guide": {
                "type": "QUEST_GUIDE_NPC",
                "param": [
                    "1016"
                ],
                "guideScene": 3,
                "guideStyle": "QUEST_GUIDE_STYLE_TARGET",
                "guideLayer": "QUEST_GUIDE_LAYER_SCENE"
            },
            "acceptCondComb": {
                "FDPBPIHKEGH": ""
            },
            "finishExec": [
                {
                    "type": "QUEST_EXEC_GRANT_TRIAL_AVATAR",
                    "param": [
                        "33"
                    ]
                }
            ],
            "versionBegin": "",
            "versionEnd": ""
        },
        {
            "subId": 4003711,
            "mainId": 40037,
            "order": 12,
            "descTextMapHash": 657138356,
            "exclusivePlaceList": [
                40036
            ],
            "finishCond": [
                {
                    "type": "QUEST_CONTENT_COMPLETE_TALK",
                    "param": [
                        4003711,
                        0
                    ]
                }
            ],
            "guide": {
                "type": "QUEST_GUIDE_NPC",
                "param": [
                    "1016"
                ],
                "guideScene": 3,
                "guideStyle": "QUEST_GUIDE_STYLE_TARGET",
                "guideLayer": "QUEST_GUIDE_LAYER_SCENE"
            },
            "acceptCondComb": {
                "FDPBPIHKEGH": ""
            },
            "isRewind": true,
            "versionBegin": "",
            "versionEnd": ""
        },
        {
            "subId": 4003712,
            "mainId": 40037,
            "order": 13,
            "descTextMapHash": 68839220,
            "exclusivePlaceList": [
                40036
            ],
            "finishCond": [
                {
                    "type": "QUEST_CONTENT_COMPLETE_TALK",
                    "param": [
                        4003712,
                        0
                    ]
                }
            ],
            "guide": {
                "type": "QUEST_GUIDE_LOCATION",
                "param": [
                    "Q4003602_N1016"
                ],
                "guideScene": 3,
                "guideStyle": "QUEST_GUIDE_STYLE_POINT",
                "guideLayer": "QUEST_GUIDE_LAYER_SCENE"
            },
            "acceptCondComb": {
                "FDPBPIHKEGH": ""
            },
            "finishParent": true,
            "isRewind": true,
            "finishExec": [
                {
                    "type": "QUEST_EXEC_SET_QUEST_GLOBAL_VAR",
                    "param": [
                        "40038",
                        "1"
                    ]
                },
                {
                    "type": "QUEST_EXEC_NOTIFY_GROUP_LUA",
                    "param": [
                        "3",
                        "133107221,133107222,133107223,133104819,133104820,133102217"
                    ]
                }
            ],
            "versionBegin": "",
            "versionEnd": ""
        }
    ],
    "talks": [
        {
            "id": 4003702,
            "beginWay": "TALK_BEGIN_MANUAL",
            "beginCond": [
                {
                    "type": "QUEST_COND_STATE_EQUAL",
                    "param": [
                        "4003702",
                        "2"
                    ]
                }
            ],
            "priority": 5,
            "initDialog": 400370201,
            "npcId": [
                10045,
                1016
            ],
            "performCfg": "QuestDialogue/EQ/Ver2.4Sealamp_40037/Q4003702",
            "questId": 40037,
            "assetIndex": 12086896464285389775,
            "prePerformCfg": ""
        },
        {
            "id": 4003703,
            "beginWay": "TALK_BEGIN_MANUAL",
            "beginCond": [
                {
                    "type": "QUEST_COND_STATE_EQUAL",
                    "param": [
                        "4003703",
                        "2"
                    ]
                }
            ],
            "priority": 5,
            "initDialog": 400370301,
            "npcId": [
                10045
            ],
            "performCfg": "QuestDialogue/EQ/Ver2.4Sealamp_40037/Q4003703",
            "questId": 40037,
            "assetIndex": 408663656037994760,
            "prePerformCfg": ""
        },
        {
            "id": 4003705,
            "beginWay": "TALK_BEGIN_MANUAL",
            "beginCond": [
                {
                    "type": "QUEST_COND_STATE_EQUAL",
                    "param": [
                        "4003705",
                        "2"
                    ]
                }
            ],
            "priority": 5,
            "initDialog": 400370501,
            "npcId": [
                30091
            ],
            "performCfg": "QuestDialogue/EQ/Ver2.4Sealamp_40037/Q4003705",
            "questId": 40037,
            "assetIndex": 2581931048743178986,
            "prePerformCfg": ""
        },
        {
            "id": 4003706,
            "beginWay": "TALK_BEGIN_MANUAL",
            "beginCond": [
                {
                    "type": "QUEST_COND_STATE_EQUAL",
                    "param": [
                        "4003706",
                        "2"
                    ]
                }
            ],
            "priority": 5,
            "initDialog": 400370601,
            "npcId": [
                30092
            ],
            "performCfg": "QuestDialogue/EQ/Ver2.4Sealamp_40037/Q4003706",
            "questId": 40037,
            "assetIndex": 16325030606522272569,
            "prePerformCfg": ""
        },
        {
            "id": 4003708,
            "beginWay": "TALK_BEGIN_MANUAL",
            "beginCond": [
                {
                    "type": "QUEST_COND_STATE_EQUAL",
                    "param": [
                        "4003708",
                        "2"
                    ]
                }
            ],
            "priority": 5,
            "initDialog": 400370801,
            "npcId": [
                1016
            ],
            "performCfg": "QuestDialogue/EQ/Ver2.4Sealamp_40037/Q4003708",
            "questId": 40037,
            "assetIndex": 11216108733399231777,
            "prePerformCfg": ""
        },
        {
            "id": 4003709,
            "beginWay": "TALK_BEGIN_MANUAL",
            "beginCond": [
                {
                    "type": "QUEST_COND_STATE_EQUAL",
                    "param": [
                        "4003709",
                        "2"
                    ]
                }
            ],
            "priority": 5,
            "initDialog": 400370955,
            "npcId": [
                10232,
                1046
            ],
            "performCfg": "QuestDialogue/EQ/Ver2.4Sealamp_40037/Q4003709",
            "questId": 40037,
            "assetIndex": 5287475593119599993,
            "prePerformCfg": ""
        },
        {
            "id": 4003710,
            "beginWay": "TALK_BEGIN_MANUAL",
            "beginCond": [
                {
                    "type": "QUEST_COND_STATE_EQUAL",
                    "param": [
                        "4003710",
                        "2"
                    ]
                }
            ],
            "priority": 5,
            "initDialog": 400371001,
            "npcId": [
                1016
            ],
            "performCfg": "QuestDialogue/EQ/Ver2.4Sealamp_40037/Q4003710",
            "questId": 40037,
            "assetIndex": 16943496274304508228,
            "prePerformCfg": ""
        },
        {
            "id": 4003711,
            "beginWay": "TALK_BEGIN_MANUAL",
            "beginCond": [
                {
                    "type": "QUEST_COND_STATE_EQUAL",
                    "param": [
                        "4003711",
                        "2"
                    ]
                }
            ],
            "priority": 5,
            "initDialog": 400371101,
            "npcId": [
                1016,
                30092
            ],
            "performCfg": "QuestDialogue/EQ/Ver2.4Sealamp_40037/Q4003711",
            "questId": 40037,
            "assetIndex": 936815227130344257,
            "prePerformCfg": ""
        },
        {
            "id": 4003712,
            "beginWay": "TALK_BEGIN_MANUAL",
            "beginCond": [
                {
                    "type": "QUEST_COND_STATE_EQUAL",
                    "param": [
                        "4003712",
                        "2"
                    ]
                }
            ],
            "priority": 5,
            "initDialog": 400371201,
            "npcId": [
                1016
            ],
            "performCfg": "QuestDialogue/EQ/Ver2.4Sealamp_40037/Q4003712",
            "questId": 40037,
            "assetIndex": 7771740196060801786,
            "prePerformCfg": "",
            "lockGameTime": true
        },
        {
            "id": 4003713,
            "beginWay": "TALK_BEGIN_MANUAL",
            "beginCondComb": "LOGIC_OR",
            "beginCond": [
                {
                    "type": "QUEST_COND_STATE_EQUAL",
                    "param": [
                        "4003707",
                        "2"
                    ]
                },
                {
                    "type": "QUEST_COND_STATE_EQUAL",
                    "param": [
                        "4003708",
                        "2"
                    ]
                }
            ],
            "priority": 5,
            "initDialog": 400371301,
            "npcId": [
                30090
            ],
            "performCfg": "QuestDialogue/EQ/Ver2.4Sealamp_40037/Q4003713",
            "questId": 40037,
            "assetIndex": 4751209808204189582,
            "prePerformCfg": ""
        },
        {
            "id": 4003714,
            "beginWay": "TALK_BEGIN_MANUAL",
            "beginCondComb": "LOGIC_OR",
            "beginCond": [
                {
                    "type": "QUEST_COND_STATE_EQUAL",
                    "param": [
                        "4003707",
                        "2"
                    ]
                },
                {
                    "type": "QUEST_COND_STATE_EQUAL",
                    "param": [
                        "4003708",
                        "2"
                    ]
                }
            ],
            "priority": 5,
            "initDialog": 400371401,
            "npcId": [
                30092
            ],
            "performCfg": "QuestDialogue/EQ/Ver2.4Sealamp_40037/Q4003714",
            "questId": 40037,
            "assetIndex": 8985852122885418265,
            "prePerformCfg": ""
        },
        {
            "id": 4003715,
            "beginWay": "TALK_BEGIN_MANUAL",
            "beginCondComb": "LOGIC_OR",
            "beginCond": [
                {
                    "type": "QUEST_COND_STATE_EQUAL",
                    "param": [
                        "4003707",
                        "2"
                    ]
                },
                {
                    "type": "QUEST_COND_STATE_EQUAL",
                    "param": [
                        "4003708",
                        "2"
                    ]
                }
            ],
            "priority": 5,
            "initDialog": 400371501,
            "npcId": [
                30091
            ],
            "performCfg": "QuestDialogue/EQ/Ver2.4Sealamp_40037/Q4003715",
            "questId": 40037,
            "assetIndex": 1352873517102057977,
            "prePerformCfg": ""
        },
        {
            "id": 4003716,
            "beginWay": "TALK_BEGIN_MANUAL",
            "beginCondComb": "LOGIC_OR",
            "beginCond": [
                {
                    "type": "QUEST_COND_STATE_EQUAL",
                    "param": [
                        "4003707",
                        "2"
                    ]
                },
                {
                    "type": "QUEST_COND_STATE_EQUAL",
                    "param": [
                        "4003708",
                        "2"
                    ]
                }
            ],
            "priority": 5,
            "initDialog": 400371601,
            "npcId": [
                30099
            ],
            "performCfg": "QuestDialogue/EQ/Ver2.4Sealamp_40037/Q4003716",
            "questId": 40037,
            "assetIndex": 3231858515569792157,
            "prePerformCfg": ""
        },
        {
            "id": 4003717,
            "beginWay": "TALK_BEGIN_MANUAL",
            "beginCond": [
                {
                    "type": "QUEST_COND_STATE_EQUAL",
                    "param": [
                        "4003711",
                        "2"
                    ]
                }
            ],
            "priority": 5,
            "initDialog": 400371701,
            "npcId": [
                10232
            ],
            "performCfg": "QuestDialogue/EQ/Ver2.4Sealamp_40037/Q4003717",
            "questId": 40037,
            "assetIndex": 7159170098889340493,
            "prePerformCfg": ""
        },
        {
            "id": 4003718,
            "beginWay": "TALK_BEGIN_MANUAL",
            "beginCond": [
                {
                    "type": "QUEST_COND_STATE_EQUAL",
                    "param": [
                        "4003712",
                        "2"
                    ]
                }
            ],
            "priority": 5,
            "initDialog": 400371801,
            "npcId": [
                30092
            ],
            "performCfg": "QuestDialogue/EQ/Ver2.4Sealamp_40037/Q4003718",
            "questId": 40037,
            "assetIndex": 13708804104517883817,
            "prePerformCfg": ""
        }
    ],
    "FFDPMMFBDAE": [
        18096463694805131341,
        16925796924575044753,
        15712267282704472983,
        8166814195205728238,
        1464915925199484803,
        18425267683189456014,
        12657556268518129155,
        17158698946600631812,
        13390632014093867821,
        3867004332015528465,
        13717990195923757754
    ],
    "IGKJEKALOKN": [
        1295936527813084266
    ],
    "freeStyleDic": {
        "10045": [
            1170,
            1120
        ],
        "30091": [
            1120,
            1230
        ],
        "30097": [
            1120
        ],
        "1041": [
            1190
        ],
        "10232": [
            0
        ],
        "1046": [
            0
        ],
        "1016": [
            1170
        ]
    }
}