{
    "id": 40036,
    "KHGONCANKFN": 4008,
    "type": "EQ",
    "titleTextMapHash": 422024279,
    "descTextMapHash": 3973488086,
    "luaPath": "Actor/Quest/EQ40036",
    "suggestTrackMainQuestList": [
        40037
    ],
    "rewardIdList": [
        140036
    ],
    "chapterId": 10053,
    "showRedPoint": true,
    "activityId": 2010,
    "subQuests": [
        {
            "subId": 4003601,
            "mainId": 40036,
            "order": 1,
            "descTextMapHash": 4003340620,
            "finishCond": [
                {
                    "type": "QUEST_CONTENT_GAME_TIME_TICK",
                    "param": [
                        1,
                        0
                    ]
                }
            ],
            "guide": {},
            "acceptCondComb": {
                "FDPBPIHKEGH": ""
            },
            "isRewind": true,
            "finishExec": [
                {
                    "type": "QUEST_EXEC_UNREGISTER_DYNAMIC_GROUP",
                    "param": [
                        "133107209"
                    ]
                }
            ],
            "versionBegin": "",
            "versionEnd": ""
        },
        {
            "subId": 4003602,
            "mainId": 40036,
            "order": 2,
            "descTextMapHash": 3402259236,
            "exclusivePlaceList": [
                40036
            ],
            "finishCond": [
                {
                    "type": "QUEST_CONTENT_COMPLETE_TALK",
                    "param": [
                        4003602,
                        0
                    ]
                }
            ],
            "guide": {
                "type": "QUEST_GUIDE_NPC",
                "param": [
                    "1016"
                ],
                "guideScene": 3,
                "guideStyle": "QUEST_GUIDE_STYLE_TARGET",
                "guideLayer": "QUEST_GUIDE_LAYER_SCENE"
            },
            "acceptCondComb": {
                "FDPBPIHKEGH": ""
            },
            "isRewind": true,
            "finishExec": [
                {
                    "type": "QUEST_EXEC_UNREGISTER_DYNAMIC_GROUP",
                    "param": [
                        "133107217"
                    ]
                }
            ],
            "versionBegin": "",
            "versionEnd": ""
        },
        {
            "subId": 4003603,
            "mainId": 40036,
            "order": 3,
            "descTextMapHash": 2496155948,
            "stepDescTextMapHash": 1339517789,
            "finishCond": [
                {
                    "type": "QUEST_CONTENT_COMPLETE_TALK",
                    "param": [
                        4003603,
                        0
                    ]
                }
            ],
            "guide": {
                "type": "QUEST_GUIDE_NPC",
                "param": [
                    "2093"
                ],
                "guideScene": 3,
                "guideStyle": "QUEST_GUIDE_STYLE_TARGET",
                "guideLayer": "QUEST_GUIDE_LAYER_SCENE"
            },
            "acceptCondComb": {
                "FDPBPIHKEGH": ""
            },
            "isRewind": true,
            "finishExec": [
                {
                    "type": "QUEST_EXEC_UNREGISTER_DYNAMIC_GROUP",
                    "param": [
                        "133107216",
                        "1"
                    ]
                }
            ],
            "versionBegin": "",
            "versionEnd": ""
        },
        {
            "subId": 4003604,
            "mainId": 40036,
            "order": 5,
            "descTextMapHash": 137512436,
            "exclusivePlaceList": [
                308
            ],
            "finishCond": [
                {
                    "type": "QUEST_CONTENT_COMPLETE_TALK",
                    "param": [
                        4003604,
                        0
                    ]
                }
            ],
            "guide": {
                "type": "QUEST_GUIDE_NPC",
                "param": [
                    "10285"
                ],
                "guideScene": 3,
                "guideStyle": "QUEST_GUIDE_STYLE_TARGET",
                "guideLayer": "QUEST_GUIDE_LAYER_SCENE"
            },
            "acceptCondComb": {
                "FDPBPIHKEGH": ""
            },
            "isRewind": true,
            "versionBegin": "",
            "versionEnd": ""
        },
        {
            "subId": 4003605,
            "mainId": 40036,
            "order": 9,
            "descTextMapHash": 2085111564,
            "finishCond": [
                {
                    "type": "QUEST_CONTENT_FINISH_PLOT",
                    "param": [
                        4003605,
                        0
                    ]
                }
            ],
            "guide": {
                "type": "QUEST_GUIDE_LOCATION",
                "param": [
                    "Q4003606_N10233_310400419",
                    "10"
                ],
                "guideScene": 3,
                "guideStyle": "QUEST_GUIDE_STYLE_TARGET",
                "guideLayer": "QUEST_GUIDE_LAYER_SCENE"
            },
            "acceptCondComb": {
                "FDPBPIHKEGH": ""
            },
            "isRewind": true,
            "versionBegin": "",
            "versionEnd": ""
        },
        {
            "subId": 4003606,
            "mainId": 40036,
            "order": 10,
            "descTextMapHash": 1157992380,
            "finishCond": [
                {
                    "type": "QUEST_CONTENT_COMPLETE_TALK",
                    "param": [
                        4003606,
                        0
                    ]
                }
            ],
            "guide": {
                "type": "QUEST_GUIDE_NPC",
                "param": [
                    "10233"
                ],
                "guideScene": 3,
                "guideStyle": "QUEST_GUIDE_STYLE_TARGET",
                "guideLayer": "QUEST_GUIDE_LAYER_SCENE"
            },
            "acceptCondComb": {
                "FDPBPIHKEGH": ""
            },
            "isRewind": true,
            "versionBegin": "",
            "versionEnd": ""
        },
        {
            "subId": 4003607,
            "mainId": 40036,
            "order": 12,
            "descTextMapHash": 1856055860,
            "finishCond": [
                {
                    "type": "QUEST_CONTENT_COMPLETE_TALK",
                    "param": [
                        4003607,
                        0
                    ]
                }
            ],
            "guide": {
                "type": "QUEST_GUIDE_LOCATION",
                "param": [
                    "T4003607_N1016"
                ],
                "guideScene": 3,
                "guideStyle": "QUEST_GUIDE_STYLE_POINT",
                "guideLayer": "QUEST_GUIDE_LAYER_SCENE"
            },
            "acceptCondComb": {
                "FDPBPIHKEGH": ""
            },
            "isRewind": true,
            "versionBegin": "",
            "versionEnd": ""
        },
        {
            "subId": 4003608,
            "mainId": 40036,
            "order": 15,
            "descTextMapHash": 840008172,
            "finishCond": [
                {
                    "type": "QUEST_CONTENT_COMPLETE_TALK",
                    "param": [
                        4003608,
                        0
                    ]
                }
            ],
            "guide": {
                "type": "QUEST_GUIDE_NPC",
                "param": [
                    "2306"
                ],
                "guideScene": 3,
                "guideStyle": "QUEST_GUIDE_STYLE_TARGET",
                "guideLayer": "QUEST_GUIDE_LAYER_SCENE"
            },
            "acceptCondComb": {
                "FDPBPIHKEGH": ""
            },
            "isRewind": true,
            "finishExec": [
                {
                    "type": "QUEST_EXEC_UNREGISTER_DYNAMIC_GROUP",
                    "param": [
                        "133104815"
                    ]
                }
            ],
            "versionBegin": "",
            "versionEnd": ""
        },
        {
            "subId": 4003609,
            "mainId": 40036,
            "order": 16,
            "descTextMapHash": 376128460,
            "finishCond": [
                {
                    "type": "QUEST_CONTENT_COMPLETE_TALK",
                    "param": [
                        4003612,
                        0
                    ]
                }
            ],
            "guide": {
                "type": "QUEST_GUIDE_LOCATION",
                "param": [
                    "T4003610_N1005"
                ],
                "guideScene": 3,
                "guideStyle": "QUEST_GUIDE_STYLE_POINT",
                "guideLayer": "QUEST_GUIDE_LAYER_SCENE"
            },
            "acceptCondComb": {
                "FDPBPIHKEGH": ""
            },
            "isRewind": true,
            "versionBegin": "",
            "versionEnd": ""
        },
        {
            "subId": 4003610,
            "mainId": 40036,
            "order": 17,
            "descTextMapHash": 1412917860,
            "finishCond": [
                {
                    "type": "QUEST_CONTENT_INTERACT_GADGET",
                    "param": [
                        70710560,
                        0
                    ],
                    "count": 1
                }
            ],
            "guide": {
                "type": "QUEST_GUIDE_LOCATION",
                "param": [
                    "Q4003609_guide_310200468",
                    "40"
                ],
                "guideScene": 3,
                "guideStyle": "QUEST_GUIDE_STYLE_TARGET",
                "guideLayer": "QUEST_GUIDE_LAYER_SCENE"
            },
            "acceptCondComb": {
                "FDPBPIHKEGH": ""
            },
            "isRewind": true,
            "versionBegin": "",
            "versionEnd": ""
        },
        {
            "subId": 4003611,
            "mainId": 40036,
            "order": 18,
            "descTextMapHash": 4183272412,
            "finishCond": [
                {
                    "type": "QUEST_CONTENT_INTERACT_GADGET",
                    "param": [
                        70710560,
                        0
                    ],
                    "count": 1
                }
            ],
            "guide": {
                "type": "QUEST_GUIDE_LOCATION",
                "param": [
                    "Q4003611_guide_310200470",
                    "40"
                ],
                "guideScene": 3,
                "guideStyle": "QUEST_GUIDE_STYLE_TARGET",
                "guideLayer": "QUEST_GUIDE_LAYER_SCENE"
            },
            "acceptCondComb": {
                "FDPBPIHKEGH": ""
            },
            "isRewind": true,
            "versionBegin": "",
            "versionEnd": ""
        },
        {
            "subId": 4003612,
            "mainId": 40036,
            "order": 19,
            "descTextMapHash": 1681167476,
            "finishCond": [
                {
                    "type": "QUEST_CONTENT_INTERACT_GADGET",
                    "param": [
                        70710560,
                        0
                    ],
                    "count": 1
                }
            ],
            "guide": {
                "type": "QUEST_GUIDE_LOCATION",
                "param": [
                    "Q4003612_guide_310200471",
                    "40"
                ],
                "guideScene": 3,
                "guideStyle": "QUEST_GUIDE_STYLE_TARGET",
                "guideLayer": "QUEST_GUIDE_LAYER_SCENE"
            },
            "acceptCondComb": {
                "FDPBPIHKEGH": ""
            },
            "isRewind": true,
            "versionBegin": "",
            "versionEnd": ""
        },
        {
            "subId": 4003613,
            "mainId": 40036,
            "order": 20,
            "descTextMapHash": 2803337836,
            "finishCond": [
                {
                    "type": "QUEST_CONTENT_FINISH_PLOT",
                    "param": [
                        4003613,
                        0
                    ]
                }
            ],
            "guide": {
                "type": "QUEST_GUIDE_LOCATION",
                "param": [
                    "Q4003614_N10045_310200472",
                    "20"
                ],
                "guideScene": 3,
                "guideStyle": "QUEST_GUIDE_STYLE_TARGET",
                "guideLayer": "QUEST_GUIDE_LAYER_SCENE"
            },
            "acceptCondComb": {
                "FDPBPIHKEGH": ""
            },
            "isRewind": true,
            "versionBegin": "",
            "versionEnd": ""
        },
        {
            "subId": 4003614,
            "mainId": 40036,
            "order": 21,
            "descTextMapHash": 3429928428,
            "finishCond": [
                {
                    "type": "QUEST_CONTENT_COMPLETE_TALK",
                    "param": [
                        4003614,
                        0
                    ]
                }
            ],
            "guide": {
                "type": "QUEST_GUIDE_NPC",
                "param": [
                    "10045"
                ],
                "guideScene": 3,
                "guideStyle": "QUEST_GUIDE_STYLE_TARGET",
                "guideLayer": "QUEST_GUIDE_LAYER_SCENE"
            },
            "acceptCondComb": {
                "FDPBPIHKEGH": ""
            },
            "finishParent": true,
            "finishExec": [
                {
                    "type": "QUEST_EXEC_SET_QUEST_GLOBAL_VAR",
                    "param": [
                        "40036",
                        "1"
                    ]
                },
                {
                    "type": "QUEST_EXEC_UNREGISTER_DYNAMIC_GROUP",
                    "param": [
                        "133102202",
                        "1"
                    ]
                },
                {
                    "type": "QUEST_EXEC_UNREGISTER_DYNAMIC_GROUP",
                    "param": [
                        "133102203",
                        "1"
                    ]
                },
                {
                    "type": "QUEST_EXEC_UNREGISTER_DYNAMIC_GROUP",
                    "param": [
                        "133102205",
                        "1"
                    ]
                }
            ],
            "versionBegin": "",
            "versionEnd": ""
        },
        {
            "subId": 4003615,
            "mainId": 40036,
            "order": 11,
            "descTextMapHash": 1372593972,
            "finishCond": [
                {
                    "type": "QUEST_CONTENT_COMPLETE_TALK",
                    "param": [
                        4003615,
                        0
                    ]
                }
            ],
            "guide": {
                "type": "QUEST_GUIDE_NPC",
                "param": [
                    "2208"
                ],
                "guideScene": 3,
                "guideStyle": "QUEST_GUIDE_STYLE_TARGET",
                "guideLayer": "QUEST_GUIDE_LAYER_SCENE"
            },
            "acceptCondComb": {
                "FDPBPIHKEGH": ""
            },
            "isRewind": true,
            "versionBegin": "",
            "versionEnd": ""
        },
        {
            "subId": 4003616,
            "mainId": 40036,
            "order": 6,
            "showType": "QUEST_HIDDEN",
            "finishCond": [
                {
                    "type": "QUEST_CONTENT_FINISH_PLOT",
                    "param": [
                        4003616,
                        0
                    ]
                }
            ],
            "guide": {},
            "showGuide": "QUEST_GUIDE_ITEM_DISABLE",
            "acceptCondComb": {
                "FDPBPIHKEGH": ""
            },
            "finishExec": [
                {
                    "type": "QUEST_EXEC_REGISTER_DYNAMIC_GROUP",
                    "param": [
                        "3",
                        "133101018"
                    ]
                }
            ],
            "versionBegin": "",
            "versionEnd": ""
        },
        {
            "subId": 4003617,
            "mainId": 40036,
            "order": 7,
            "showType": "QUEST_HIDDEN",
            "finishCond": [
                {
                    "type": "QUEST_CONTENT_FINISH_PLOT",
                    "param": [
                        4003617,
                        0
                    ]
                }
            ],
            "guide": {},
            "showGuide": "QUEST_GUIDE_ITEM_DISABLE",
            "acceptCondComb": {
                "FDPBPIHKEGH": ""
            },
            "finishExec": [
                {
                    "type": "QUEST_EXEC_NOTIFY_GROUP_LUA",
                    "param": [
                        "3",
                        "133101018"
                    ]
                }
            ],
            "versionBegin": "",
            "versionEnd": ""
        },
        {
            "subId": 4003618,
            "mainId": 40036,
            "order": 8,
            "showType": "QUEST_HIDDEN",
            "finishCond": [
                {
                    "type": "QUEST_CONTENT_FINISH_PLOT",
                    "param": [
                        4003618,
                        0
                    ]
                }
            ],
            "guide": {},
            "showGuide": "QUEST_GUIDE_ITEM_DISABLE",
            "acceptCondComb": {
                "FDPBPIHKEGH": ""
            },
            "finishExec": [
                {
                    "type": "QUEST_EXEC_UNREGISTER_DYNAMIC_GROUP",
                    "param": [
                        "133101018"
                    ]
                }
            ],
            "versionBegin": "",
            "versionEnd": ""
        },
        {
            "subId": 4003619,
            "mainId": 40036,
            "order": 22,
            "showType": "QUEST_HIDDEN",
            "finishCond": [
                {
                    "type": "QUEST_CONTENT_FINISH_PLOT",
                    "param": [
                        4003619,
                        0
                    ]
                }
            ],
            "guide": {
                "guideScene": 3,
                "guideStyle": "QUEST_GUIDE_STYLE_TARGET",
                "guideLayer": "QUEST_GUIDE_LAYER_SCENE"
            },
            "showGuide": "QUEST_GUIDE_ITEM_DISABLE",
            "acceptCondComb": {
                "FDPBPIHKEGH": ""
            },
            "versionBegin": "",
            "versionEnd": ""
        },
        {
            "subId": 4003620,
            "mainId": 40036,
            "order": 4,
            "showType": "QUEST_HIDDEN",
            "finishCond": [
                {
                    "type": "QUEST_CONTENT_FINISH_PLOT",
                    "param": [
                        4003620,
                        0
                    ]
                }
            ],
            "guide": {},
            "showGuide": "QUEST_GUIDE_ITEM_DISABLE",
            "acceptCondComb": {
                "FDPBPIHKEGH": ""
            },
            "finishExec": [
                {
                    "type": "QUEST_EXEC_REGISTER_DYNAMIC_GROUP",
                    "param": [
                        "3",
                        "133107216"
                    ]
                }
            ],
            "versionBegin": "",
            "versionEnd": ""
        },
        {
            "subId": 4003621,
            "mainId": 40036,
            "order": 14,
            "showType": "QUEST_HIDDEN",
            "finishCond": [
                {
                    "type": "QUEST_CONTENT_FINISH_PLOT",
                    "param": [
                        4003621,
                        0
                    ]
                }
            ],
            "guide": {},
            "showGuide": "QUEST_GUIDE_ITEM_DISABLE",
            "acceptCondComb": {
                "FDPBPIHKEGH": ""
            },
            "versionBegin": "",
            "versionEnd": ""
        },
        {
            "subId": 4003622,
            "mainId": 40036,
            "order": 13,
            "showType": "QUEST_HIDDEN",
            "finishCond": [
                {
                    "type": "QUEST_CONTENT_FINISH_PLOT",
                    "param": [
                        4003622,
                        0
                    ]
                }
            ],
            "guide": {},
            "showGuide": "QUEST_GUIDE_ITEM_DISABLE",
            "acceptCondComb": {
                "FDPBPIHKEGH": ""
            },
            "versionBegin": "",
            "versionEnd": ""
        }
    ],
    "talks": [
        {
            "id": 4003601,
            "beginWay": "TALK_BEGIN_MANUAL",
            "beginCond": [
                {
                    "type": "QUEST_COND_STATE_EQUAL",
                    "param": [
                        "4003604",
                        "2"
                    ]
                }
            ],
            "priority": 5,
            "initDialog": 400360101,
            "npcId": [
                2093
            ],
            "performCfg": "QuestDialogue/EQ/Ver2.4Sealamp_40036/Q4003601",
            "questId": 40036,
            "assetIndex": 821883419296084048,
            "prePerformCfg": ""
        },
        {
            "id": 4003602,
            "beginWay": "TALK_BEGIN_MANUAL",
            "beginCond": [
                {
                    "type": "QUEST_COND_STATE_EQUAL",
                    "param": [
                        "4003602",
                        "2"
                    ]
                }
            ],
            "priority": 5,
            "initDialog": 400360201,
            "npcId": [
                1016
            ],
            "performCfg": "QuestDialogue/EQ/Ver2.4Sealamp_40036/Q4003602",
            "questId": 40036,
            "assetIndex": 13791334401350899959,
            "prePerformCfg": ""
        },
        {
            "id": 4003603,
            "beginWay": "TALK_BEGIN_MANUAL",
            "beginCond": [
                {
                    "type": "QUEST_COND_STATE_EQUAL",
                    "param": [
                        "4003603",
                        "2"
                    ]
                }
            ],
            "priority": 5,
            "initDialog": 400360301,
            "npcId": [
                2093,
                1030
            ],
            "performCfg": "QuestDialogue/EQ/Ver2.4Sealamp_40036/Q4003603",
            "questId": 40036,
            "assetIndex": 16349496882870749327,
            "prePerformCfg": ""
        },
        {
            "id": 4003604,
            "beginWay": "TALK_BEGIN_MANUAL",
            "beginCond": [
                {
                    "type": "QUEST_COND_STATE_EQUAL",
                    "param": [
                        "4003604",
                        "2"
                    ]
                }
            ],
            "priority": 5,
            "initDialog": 400360401,
            "npcId": [
                10285,
                1015
            ],
            "performCfg": "QuestDialogue/EQ/Ver2.4Sealamp_40036/Q4003604",
            "questId": 40036,
            "assetIndex": 8874803834124373801,
            "prePerformCfg": ""
        },
        {
            "id": 4003606,
            "beginWay": "TALK_BEGIN_MANUAL",
            "beginCond": [
                {
                    "type": "QUEST_COND_STATE_EQUAL",
                    "param": [
                        "4003606",
                        "2"
                    ]
                }
            ],
            "priority": 5,
            "initDialog": 400360601,
            "npcId": [
                10233,
                10234
            ],
            "performCfg": "QuestDialogue/EQ/Ver2.4Sealamp_40036/Q4003606",
            "questId": 40036,
            "assetIndex": 15126405663463249453,
            "prePerformCfg": ""
        },
        {
            "id": 4003607,
            "beginWay": "TALK_BEGIN_MANUAL",
            "beginCond": [
                {
                    "type": "QUEST_COND_STATE_EQUAL",
                    "param": [
                        "4003607",
                        "2"
                    ]
                }
            ],
            "priority": 5,
            "initDialog": 400360701,
            "npcId": [
                1016
            ],
            "performCfg": "QuestDialogue/EQ/Ver2.4Sealamp_40036/Q4003607",
            "questId": 40036,
            "assetIndex": 13576996875098263927,
            "prePerformCfg": ""
        },
        {
            "id": 4003608,
            "beginWay": "TALK_BEGIN_MANUAL",
            "beginCond": [
                {
                    "type": "QUEST_COND_STATE_EQUAL",
                    "param": [
                        "4003608",
                        "2"
                    ]
                }
            ],
            "priority": 5,
            "initDialog": 400360801,
            "npcId": [
                2306
            ],
            "performCfg": "QuestDialogue/EQ/Ver2.4Sealamp_40036/Q4003608",
            "questId": 40036,
            "assetIndex": 12089674991851702306,
            "prePerformCfg": ""
        },
        {
            "id": 4003609,
            "beginWay": "TALK_BEGIN_MANUAL",
            "beginCondComb": "LOGIC_OR",
            "beginCond": [
                {
                    "type": "QUEST_COND_STATE_EQUAL",
                    "param": [
                        "4003615",
                        "2"
                    ]
                },
                {
                    "type": "QUEST_COND_STATE_EQUAL",
                    "param": [
                        "4003607",
                        "2"
                    ]
                },
                {
                    "type": "QUEST_COND_STATE_EQUAL",
                    "param": [
                        "4003608",
                        "2"
                    ]
                }
            ],
            "priority": 5,
            "initDialog": 400360901,
            "npcId": [
                10233,
                10234
            ],
            "performCfg": "QuestDialogue/EQ/Ver2.4Sealamp_40036/Q4003609",
            "questId": 40036,
            "assetIndex": 6479355623109961479,
            "prePerformCfg": ""
        },
        {
            "id": 4003610,
            "beginWay": "TALK_BEGIN_MANUAL",
            "beginCond": [
                {
                    "type": "QUEST_COND_STATE_EQUAL",
                    "param": [
                        "4003609",
                        "2"
                    ]
                }
            ],
            "priority": 5,
            "initDialog": 400361001,
            "npcId": [
                2306
            ],
            "performCfg": "QuestDialogue/EQ/Ver2.4Sealamp_40036/Q4003610",
            "questId": 40036,
            "assetIndex": 1886104486836952646,
            "prePerformCfg": ""
        },
        {
            "id": 4003611,
            "beginWay": "TALK_BEGIN_MANUAL",
            "beginCond": [
                {
                    "type": "QUEST_COND_STATE_EQUAL",
                    "param": [
                        "4003604",
                        "2"
                    ]
                }
            ],
            "priority": 5,
            "initDialog": 400361101,
            "npcId": [
                1030
            ],
            "performCfg": "QuestDialogue/EQ/Ver2.4Sealamp_40036/Q4003611",
            "questId": 40036,
            "assetIndex": 11345118401661422911,
            "prePerformCfg": ""
        },
        {
            "id": 4003612,
            "beginWay": "TALK_BEGIN_MANUAL",
            "beginCond": [
                {
                    "type": "QUEST_COND_STATE_EQUAL",
                    "param": [
                        "4003609",
                        "2"
                    ]
                }
            ],
            "priority": 5,
            "initDialog": 400361201,
            "npcId": [
                1016
            ],
            "performCfg": "QuestDialogue/EQ/Ver2.4Sealamp_40036/Q4003612",
            "questId": 40036,
            "assetIndex": 11091405488335659199,
            "prePerformCfg": ""
        },
        {
            "id": 4003614,
            "beginWay": "TALK_BEGIN_MANUAL",
            "beginCond": [
                {
                    "type": "QUEST_COND_STATE_EQUAL",
                    "param": [
                        "4003614",
                        "2"
                    ]
                }
            ],
            "priority": 5,
            "initDialog": 400361401,
            "npcId": [
                10045,
                1041
            ],
            "performCfg": "QuestDialogue/EQ/Ver2.4Sealamp_40036/Q4003614",
            "questId": 40036,
            "assetIndex": 18247812786313727718,
            "prePerformCfg": ""
        },
        {
            "id": 4003615,
            "beginWay": "TALK_BEGIN_MANUAL",
            "beginCond": [
                {
                    "type": "QUEST_COND_STATE_EQUAL",
                    "param": [
                        "4003615",
                        "2"
                    ]
                }
            ],
            "priority": 5,
            "initDialog": 400361501,
            "npcId": [
                2208
            ],
            "performCfg": "QuestDialogue/EQ/Ver2.4Sealamp_40036/Q4003615",
            "questId": 40036,
            "assetIndex": 7377475435976249042,
            "prePerformCfg": ""
        },
        {
            "id": 4003616,
            "beginWay": "TALK_BEGIN_MANUAL",
            "beginCond": [
                {
                    "type": "QUEST_COND_STATE_EQUAL",
                    "param": [
                        "4003607",
                        "2"
                    ]
                }
            ],
            "priority": 5,
            "initDialog": 400361601,
            "npcId": [
                2208
            ],
            "performCfg": "QuestDialogue/EQ/Ver2.4Sealamp_40036/Q4003616",
            "questId": 40036,
            "assetIndex": 10101522140840894595,
            "prePerformCfg": ""
        }
    ],
    "FFDPMMFBDAE": [
        8200271890970913746,
        9308371361097051452,
        1867825277679988739,
        17758753208260763021,
        17645915761645685875,
        16778307681958791203,
        189777187023744629,
        13242423575920636221
    ],
    "IGKJEKALOKN": [
        5058608037611688339
    ],
    "freeStyleDic": {
        "1016": [
            1120
        ],
        "1030": [
            1180
        ],
        "10234": [
            1170
        ],
        "30097": [
            4180
        ],
        "10045": [
            1220
        ],
        "1041": [
            1120
        ],
        "30098": [
            4060
        ],
        "30100": [
            4060
        ]
    }
}