{
    "id": 40040,
    "KHGONCANKFN": 4008,
    "type": "EQ",
    "titleTextMapHash": 1954704119,
    "descTextMapHash": 237518238,
    "luaPath": "Actor/Quest/EQ40040",
    "rewardIdList": [
        140040
    ],
    "chapterId": 10057,
    "showRedPoint": true,
    "activityId": 2010,
    "subQuests": [
        {
            "subId": 4004001,
            "mainId": 40040,
            "order": 1,
            "descTextMapHash": 492666844,
            "finishCond": [
                {
                    "type": "QUEST_CONTENT_COMPLETE_TALK",
                    "param": [
                        4004001,
                        0
                    ]
                }
            ],
            "guide": {
                "type": "QUEST_GUIDE_NPC",
                "param": [
                    "30085"
                ],
                "guideScene": 3,
                "guideStyle": "QUEST_GUIDE_STYLE_TARGET",
                "guideLayer": "QUEST_GUIDE_LAYER_SCENE"
            },
            "acceptCondComb": {
                "FDPBPIHKEGH": ""
            },
            "finishParent": true,
            "isRewind": true,
            "finishExec": [
                {
                    "type": "QUEST_EXEC_SET_QUEST_GLOBAL_VAR",
                    "param": [
                        "40040",
                        "1"
                    ]
                }
            ],
            "versionBegin": "",
            "versionEnd": ""
        },
        {
            "subId": 4004002,
            "mainId": 40040,
            "order": 2,
            "showType": "QUEST_HIDDEN",
            "guide": {
                "guideScene": 3,
                "guideStyle": "QUEST_GUIDE_STYLE_TARGET",
                "guideLayer": "QUEST_GUIDE_LAYER_SCENE"
            },
            "showGuide": "QUEST_GUIDE_ITEM_DISABLE",
            "acceptCondComb": {
                "FDPBPIHKEGH": ""
            },
            "versionBegin": "",
            "versionEnd": ""
        },
        {
            "subId": 4004003,
            "mainId": 40040,
            "order": 3,
            "showType": "QUEST_HIDDEN",
            "guide": {
                "guideScene": 3,
                "guideStyle": "QUEST_GUIDE_STYLE_TARGET",
                "guideLayer": "QUEST_GUIDE_LAYER_SCENE"
            },
            "showGuide": "QUEST_GUIDE_ITEM_DISABLE",
            "acceptCondComb": {
                "FDPBPIHKEGH": ""
            },
            "versionBegin": "",
            "versionEnd": ""
        }
    ],
    "talks": [
        {
            "id": 4004001,
            "beginWay": "TALK_BEGIN_MANUAL",
            "beginCond": [
                {
                    "type": "QUEST_COND_STATE_EQUAL",
                    "param": [
                        "4004001",
                        "2"
                    ]
                }
            ],
            "priority": 5,
            "initDialog": 400400101,
            "npcId": [
                30085
            ],
            "performCfg": "QuestDialogue/EQ/Ver2.4Sealamp_40040/Q4004001",
            "questId": 40040,
            "assetIndex": 12009016929495016371,
            "prePerformCfg": ""
        }
    ],
    "FFDPMMFBDAE": [
        6982774599425410737
    ],
    "IGKJEKALOKN": [
        12255469195830325122
    ],
    "freeStyleDic": {
        "30085": [
            4010
        ]
    }
}