{
    "id": 40102,
    "series": 40100,
    "type": "EQ",
    "titleTextMapHash": 1614928759,
    "descTextMapHash": 111913326,
    "luaPath": "Actor/Quest/EQ40102",
    "suggestTrackMainQuestList": [
        40103
    ],
    "rewardIdList": [
        140102
    ],
    "chapterId": 10140,
    "activityId": 2021,
    "subQuests": [
        {
            "subId": 4010201,
            "mainId": 40102,
            "order": 1,
            "descTextMapHash": 1669811796,
            "exclusivePlaceList": [
                300701,
                330235,
                330258,
                107901,
                107401
            ],
            "finishCond": [
                {
                    "type": "QUEST_CONTENT_COMPLETE_TALK",
                    "param": [
                        4010201,
                        0
                    ]
                }
            ],
            "guide": {
                "type": "QUEST_GUIDE_LOCATION",
                "param": [
                    "Q4010201_N10000005"
                ],
                "guideScene": 3,
                "guideStyle": "QUEST_GUIDE_STYLE_POINT",
                "guideLayer": "QUEST_GUIDE_LAYER_SCENE"
            },
            "acceptCondComb": {
                "FDPBPIHKEGH": ""
            },
            "isRewind": true,
            "versionBegin": "",
            "versionEnd": ""
        },
        {
            "subId": 4010202,
            "mainId": 40102,
            "order": 3,
            "descTextMapHash": 4149744932,
            "exclusivePlaceList": [
                300701,
                330235,
                107901,
                107401
            ],
            "finishCond": [
                {
                    "type": "QUEST_CONTENT_COMPLETE_TALK",
                    "param": [
                        4010202,
                        0
                    ]
                }
            ],
            "guide": {
                "type": "QUEST_GUIDE_NPC",
                "param": [
                    "13091"
                ],
                "guideScene": 3,
                "guideStyle": "QUEST_GUIDE_STYLE_TARGET",
                "guideLayer": "QUEST_GUIDE_LAYER_SCENE"
            },
            "acceptCondComb": {
                "FDPBPIHKEGH": ""
            },
            "isRewind": true,
            "versionBegin": "",
            "versionEnd": ""
        },
        {
            "subId": 4010203,
            "mainId": 40102,
            "order": 4,
            "descTextMapHash": 2095338156,
            "stepDescTextMapHash": 2648976653,
            "exclusivePlaceList": [
                300701,
                330235,
                107901,
                107401
            ],
            "finishCond": [
                {
                    "type": "QUEST_CONTENT_COMPLETE_TALK",
                    "param": [
                        4010203,
                        0
                    ]
                }
            ],
            "guide": {
                "type": "QUEST_GUIDE_LOCATION",
                "param": [
                    "Q4010029_guide",
                    "20"
                ],
                "guideScene": 3,
                "guideStyle": "QUEST_GUIDE_STYLE_TARGET",
                "guideLayer": "QUEST_GUIDE_LAYER_SCENE"
            },
            "acceptCondComb": {
                "FDPBPIHKEGH": ""
            },
            "isRewind": true,
            "versionBegin": "",
            "versionEnd": ""
        },
        {
            "subId": 4010204,
            "mainId": 40102,
            "order": 5,
            "descTextMapHash": 3669098156,
            "stepDescTextMapHash": 3445801565,
            "exclusivePlaceList": [
                300701,
                107901,
                107401
            ],
            "finishCond": [
                {
                    "type": "QUEST_CONTENT_COMPLETE_TALK",
                    "param": [
                        4010204,
                        0
                    ]
                }
            ],
            "guide": {
                "type": "QUEST_GUIDE_LOCATION",
                "param": [
                    "Q4010204_guide"
                ],
                "guideScene": 3,
                "guideStyle": "QUEST_GUIDE_STYLE_TARGET",
                "guideLayer": "QUEST_GUIDE_LAYER_SCENE"
            },
            "acceptCondComb": {
                "FDPBPIHKEGH": ""
            },
            "isRewind": true,
            "versionBegin": "",
            "versionEnd": ""
        },
        {
            "subId": 4010205,
            "mainId": 40102,
            "order": 7,
            "descTextMapHash": 2034964972,
            "stepDescTextMapHash": 3551540461,
            "exclusivePlaceList": [
                107901,
                107401
            ],
            "finishCond": [
                {
                    "type": "QUEST_CONTENT_COMPLETE_TALK",
                    "param": [
                        4010205,
                        0
                    ]
                }
            ],
            "guide": {
                "type": "QUEST_GUIDE_LOCATION",
                "param": [
                    "Q4010205_guide"
                ],
                "guideScene": 1079,
                "guideStyle": "QUEST_GUIDE_STYLE_TARGET",
                "guideLayer": "QUEST_GUIDE_LAYER_SCENE"
            },
            "acceptCondComb": {
                "FDPBPIHKEGH": ""
            },
            "finishParent": true,
            "isRewind": true,
            "finishExec": [
                {
                    "type": "QUEST_EXEC_LOCK_POINT",
                    "param": [
                        "3",
                        "932"
                    ]
                }
            ],
            "versionBegin": "",
            "versionEnd": ""
        },
        {
            "subId": 4010206,
            "mainId": 40102,
            "order": 6,
            "descTextMapHash": 1789968260,
            "exclusivePlaceList": [
                107901,
                107401
            ],
            "finishCond": [
                {
                    "type": "QUEST_CONTENT_COMPLETE_TALK",
                    "param": [
                        4010206,
                        0
                    ]
                }
            ],
            "guide": {
                "type": "QUEST_GUIDE_LOCATION",
                "param": [
                    "Q1302217_Q1302218_N1053"
                ],
                "guideScene": 1079,
                "guideStyle": "QUEST_GUIDE_STYLE_POINT",
                "guideLayer": "QUEST_GUIDE_LAYER_SCENE"
            },
            "acceptCondComb": {
                "FDPBPIHKEGH": ""
            },
            "isRewind": true,
            "versionBegin": "",
            "versionEnd": ""
        },
        {
            "subId": 4010207,
            "mainId": 40102,
            "order": 2,
            "descTextMapHash": 3884622076,
            "stepDescTextMapHash": 1254325237,
            "exclusivePlaceList": [
                300701,
                330235,
                107901,
                107401
            ],
            "finishCond": [
                {
                    "type": "QUEST_CONTENT_FINISH_PLOT",
                    "param": [
                        4010207,
                        0
                    ]
                }
            ],
            "guide": {
                "type": "QUEST_GUIDE_LOCATION",
                "param": [
                    "Q302203_guide",
                    "20"
                ],
                "guideScene": 3,
                "guideStyle": "QUEST_GUIDE_STYLE_TARGET",
                "guideLayer": "QUEST_GUIDE_LAYER_SCENE"
            },
            "acceptCondComb": {
                "FDPBPIHKEGH": ""
            },
            "isRewind": true,
            "versionBegin": "",
            "versionEnd": ""
        }
    ],
    "talks": [
        {
            "id": 4010201,
            "beginWay": "TALK_BEGIN_MANUAL",
            "beginCond": [
                {
                    "type": "QUEST_COND_STATE_EQUAL",
                    "param": [
                        "4010201",
                        "2"
                    ]
                }
            ],
            "priority": 5,
            "initDialog": 401020101,
            "npcId": [
                13161
            ],
            "performCfg": "QuestDialogue/EQ/AkaFes_40102/Q4010201",
            "heroTalk": "TALK_HERO_MAIN",
            "questId": 40102,
            "assetIndex": 16510213450398121317,
            "prePerformCfg": "",
            "lockGameTime": true
        },
        {
            "id": 4010202,
            "beginWay": "TALK_BEGIN_MANUAL",
            "beginCond": [
                {
                    "type": "QUEST_COND_STATE_EQUAL",
                    "param": [
                        "4010202",
                        "2"
                    ]
                }
            ],
            "priority": 5,
            "initDialog": 401020201,
            "npcId": [
                13091
            ],
            "performCfg": "QuestDialogue/EQ/AkaFes_40102/Q4010202",
            "heroTalk": "TALK_HERO_MAIN",
            "questId": 40102,
            "assetIndex": 11304913119842445981,
            "prePerformCfg": "",
            "lockGameTime": true,
            "JPAECIANEML": [
                "[3_330201419:-418.417,281.227,2771.899,0.000,286.189,0.000]",
                "[3_330201420:-418.421,281.227,2772.651,0.000,252.549,0.000]"
            ]
        },
        {
            "id": 4010203,
            "beginWay": "TALK_BEGIN_MANUAL",
            "beginCond": [
                {
                    "type": "QUEST_COND_STATE_EQUAL",
                    "param": [
                        "4010203",
                        "2"
                    ]
                }
            ],
            "priority": 5,
            "initDialog": 401020301,
            "npcId": [
                13161
            ],
            "performCfg": "QuestDialogue/EQ/AkaFes_40102/Q4010203",
            "heroTalk": "TALK_HERO_MAIN",
            "questId": 40102,
            "assetIndex": 13855197955680513779,
            "prePerformCfg": "",
            "JPAECIANEML": [
                "[3_330201421:-387.602,244.752,2660.609,0.000,228.422,0.000]",
                "[3_330201422:-388.526,244.750,2659.697,0.000,49.478,0.000]",
                "[3_330201423:-387.838,244.751,2659.268,0.000,14.615,0.000]"
            ]
        },
        {
            "id": 4010204,
            "beginWay": "TALK_BEGIN_AUTO",
            "beginCond": [
                {
                    "type": "QUEST_COND_STATE_EQUAL",
                    "param": [
                        "4010204",
                        "2"
                    ]
                }
            ],
            "priority": 5,
            "initDialog": 401020401,
            "npcId": [
                13259
            ],
            "performCfg": "QuestDialogue/EQ/AkaFes_40102/Q4010204",
            "heroTalk": "TALK_HERO_MAIN",
            "questId": 40102,
            "assetIndex": 2684714084248146106,
            "prePerformCfg": "",
            "JPAECIANEML": [
                "[3_330201424:-374.451,254.484,2742.431,0.000,329.453,0.000]",
                "[3_330201425:-373.599,254.484,2743.007,0.000,318.307,0.000]"
            ]
        },
        {
            "id": 4010205,
            "beginWay": "TALK_BEGIN_MANUAL",
            "beginCond": [
                {
                    "type": "QUEST_COND_STATE_EQUAL",
                    "param": [
                        "4010205",
                        "2"
                    ]
                }
            ],
            "priority": 5,
            "initDialog": 401020501,
            "npcId": [
                13161
            ],
            "performCfg": "QuestDialogue/EQ/AkaFes_40102/Q4010205",
            "heroTalk": "TALK_HERO_MAIN",
            "questId": 40102,
            "assetIndex": 13976508651261820841,
            "prePerformCfg": "",
            "JPAECIANEML": [
                "[1079_14:-0.333,0.061,9.470,0.000,9.326,0.000]",
                "[1079_15:0.354,0.061,9.478,0.000,345.158,0.000]",
                "[1079_16:2.593,0.047,10.170,0.000,260.437,0.000]"
            ]
        },
        {
            "id": 4010206,
            "beginWay": "TALK_BEGIN_MANUAL",
            "beginCond": [
                {
                    "type": "QUEST_COND_STATE_EQUAL",
                    "param": [
                        "4010206",
                        "2"
                    ]
                }
            ],
            "priority": 5,
            "initDialog": 401020601,
            "npcId": [
                13161,
                1064
            ],
            "performCfg": "QuestDialogue/EQ/AkaFes_40102/Q4010206",
            "heroTalk": "TALK_HERO_MAIN",
            "questId": 40102,
            "assetIndex": 4713250898081212347,
            "prePerformCfg": ""
        },
        {
            "id": 4010250,
            "beginWay": "TALK_BEGIN_MANUAL",
            "beginCondComb": "LOGIC_OR",
            "beginCond": [
                {
                    "type": "QUEST_COND_STATE_EQUAL",
                    "param": [
                        "4010202",
                        "2"
                    ]
                },
                {
                    "type": "QUEST_COND_STATE_EQUAL",
                    "param": [
                        "4010203",
                        "2"
                    ]
                },
                {
                    "type": "QUEST_COND_STATE_EQUAL",
                    "param": [
                        "4010204",
                        "2"
                    ]
                },
                {
                    "type": "QUEST_COND_STATE_EQUAL",
                    "param": [
                        "4010206",
                        "2"
                    ]
                },
                {
                    "type": "QUEST_COND_STATE_EQUAL",
                    "param": [
                        "4010205",
                        "2"
                    ]
                },
                {
                    "type": "QUEST_COND_STATE_EQUAL",
                    "param": [
                        "4010207",
                        "2"
                    ]
                }
            ],
            "priority": 5,
            "initDialog": 401025001,
            "npcId": [
                1052,
                1059
            ],
            "performCfg": "QuestDialogue/EQ/AkaFes_40102/Q4010250",
            "heroTalk": "TALK_HERO_MAIN",
            "questId": 40102,
            "assetIndex": 2998082610968950216,
            "prePerformCfg": ""
        },
        {
            "id": 4010251,
            "beginWay": "TALK_BEGIN_MANUAL",
            "beginCond": [
                {
                    "type": "QUEST_COND_STATE_EQUAL",
                    "param": [
                        "4010203",
                        "2"
                    ]
                }
            ],
            "priority": 5,
            "initDialog": 401025101,
            "npcId": [
                13091
            ],
            "performCfg": "QuestDialogue/EQ/AkaFes_40102/Q4010251",
            "heroTalk": "TALK_HERO_MAIN",
            "questId": 40102,
            "assetIndex": 2464391892979800968,
            "prePerformCfg": ""
        },
        {
            "id": 4010253,
            "beginWay": "TALK_BEGIN_MANUAL",
            "beginCond": [
                {
                    "type": "QUEST_COND_STATE_EQUAL",
                    "param": [
                        "4010205",
                        "2"
                    ]
                }
            ],
            "priority": 5,
            "initDialog": 401025301,
            "npcId": [
                1064
            ],
            "performCfg": "QuestDialogue/EQ/AkaFes_40102/Q4010253",
            "heroTalk": "TALK_HERO_MAIN",
            "questId": 40102,
            "assetIndex": 4402272076392788407,
            "prePerformCfg": ""
        },
        {
            "id": 4010254,
            "beginWay": "TALK_BEGIN_MANUAL",
            "beginCondComb": "LOGIC_OR",
            "beginCond": [
                {
                    "type": "QUEST_COND_STATE_EQUAL",
                    "param": [
                        "4010204",
                        "2"
                    ]
                },
                {
                    "type": "QUEST_COND_STATE_EQUAL",
                    "param": [
                        "4010206",
                        "2"
                    ]
                },
                {
                    "type": "QUEST_COND_STATE_EQUAL",
                    "param": [
                        "4010205",
                        "2"
                    ]
                }
            ],
            "priority": 5,
            "initDialog": 401025401,
            "npcId": [
                1054
            ],
            "performCfg": "QuestDialogue/EQ/AkaFes_40102/Q4010254",
            "heroTalk": "TALK_HERO_MAIN",
            "questId": 40102,
            "assetIndex": 14716170023836465367,
            "prePerformCfg": ""
        }
    ],
    "FFDPMMFBDAE": [
        10055990769392125102,
        15748500408422341541,
        12011024979715959902
    ],
    "IGKJEKALOKN": [
        4660390846277074356
    ],
    "freeStyleDic": {
        "1059": [
            8010
        ],
        "1052": [
            8010
        ]
    },
    "dialogList": [
        {
            "id": 401029903,
            "talkRole": {
                "type": "TALK_ROLE_NPC",
                "id": "1052"
            },
            "talkContentTextMapHash": 127788482,
            "talkAssetPath": "",
            "talkAssetPathAlter": "",
            "talkAudioName": "",
            "actionBefore": "",
            "actionWhile": "",
            "actionAfter": "",
            "optionIcon": ""
        },
        {
            "id": 401029904,
            "talkRole": {
                "type": "TALK_ROLE_NPC",
                "id": "1059"
            },
            "talkContentTextMapHash": 2302222554,
            "talkAssetPath": "",
            "talkAssetPathAlter": "",
            "talkAudioName": "",
            "actionBefore": "",
            "actionWhile": "",
            "actionAfter": "",
            "optionIcon": ""
        },
        {
            "id": 401029905,
            "talkRole": {
                "type": "TALK_ROLE_NPC",
                "id": "1064"
            },
            "talkContentTextMapHash": 3934631714,
            "talkAssetPath": "",
            "talkAssetPathAlter": "",
            "talkAudioName": "",
            "actionBefore": "",
            "actionWhile": "",
            "actionAfter": "",
            "optionIcon": ""
        },
        {
            "id": 401029906,
            "talkRole": {
                "type": "TALK_ROLE_BLACK_SCREEN",
                "id": ""
            },
            "talkAssetPath": "",
            "talkAssetPathAlter": "",
            "talkAudioName": "",
            "actionBefore": "",
            "actionWhile": "",
            "actionAfter": "",
            "optionIcon": ""
        }
    ]
}