{
    "id": 41126,
    "type": "WQ",
    "titleTextMapHash": 4121280471,
    "descTextMapHash": 2646068166,
    "luaPath": "Actor/Quest/WQ41126",
    "rewardIdList": [
        141126
    ],
    "activityId": 2001,
    "subQuests": [
        {
            "subId": 4112601,
            "mainId": 41126,
            "order": 1,
            "descTextMapHash": 2201282804,
            "showType": "QUEST_HIDDEN",
            "finishCond": [
                {
                    "type": "QUEST_CONTENT_FINISH_PLOT",
                    "param": [
                        4112601,
                        0
                    ]
                }
            ],
            "guide": {
                "guideScene": 1004,
                "guideStyle": "QUEST_GUIDE_STYLE_TARGET",
                "guideLayer": "QUEST_GUIDE_LAYER_SCENE"
            },
            "showGuide": "QUEST_GUIDE_ITEM_DISABLE",
            "acceptCondComb": {
                "FDPBPIHKEGH": ""
            },
            "isRewind": true,
            "versionBegin": "",
            "versionEnd": ""
        },
        {
            "subId": 4112602,
            "mainId": 41126,
            "order": 2,
            "descTextMapHash": 2283766900,
            "finishCond": [
                {
                    "type": "QUEST_CONTENT_COMPLETE_TALK",
                    "param": [
                        4112601,
                        0
                    ]
                }
            ],
            "guide": {
                "type": "QUEST_GUIDE_NPC",
                "param": [
                    "205601"
                ],
                "guideScene": 3,
                "guideStyle": "QUEST_GUIDE_STYLE_START",
                "guideLayer": "QUEST_GUIDE_LAYER_SCENE"
            },
            "acceptCondComb": {
                "FDPBPIHKEGH": ""
            },
            "isRewind": true,
            "versionBegin": "",
            "versionEnd": ""
        },
        {
            "subId": 4112603,
            "mainId": 41126,
            "order": 4,
            "descTextMapHash": 2645170540,
            "finishCond": [
                {
                    "type": "QUEST_CONTENT_LUA_NOTIFY",
                    "param": [
                        0,
                        0
                    ],
                    "count": 1
                }
            ],
            "guide": {
                "type": "QUEST_GUIDE_LOCATION",
                "param": [
                    "Q4112612zhiyin",
                    "40"
                ],
                "guideScene": 3,
                "guideStyle": "QUEST_GUIDE_STYLE_TARGET",
                "guideLayer": "QUEST_GUIDE_LAYER_SCENE"
            },
            "acceptCondComb": {
                "FDPBPIHKEGH": ""
            },
            "versionBegin": "",
            "versionEnd": ""
        },
        {
            "subId": 4112604,
            "mainId": 41126,
            "order": 5,
            "descTextMapHash": 2940233548,
            "finishCond": [
                {
                    "type": "QUEST_CONTENT_FINISH_PLOT",
                    "param": [
                        4112604,
                        0
                    ]
                }
            ],
            "guide": {
                "type": "QUEST_GUIDE_LOCATION",
                "param": [
                    "Q4112604zhiyin"
                ],
                "guideScene": 3,
                "guideStyle": "QUEST_GUIDE_STYLE_POINT",
                "guideLayer": "QUEST_GUIDE_LAYER_SCENE"
            },
            "showGuide": "QUEST_GUIDE_ITEM_DISABLE",
            "acceptCondComb": {
                "FDPBPIHKEGH": ""
            },
            "isRewind": true,
            "versionBegin": "",
            "versionEnd": ""
        },
        {
            "subId": 4112605,
            "mainId": 41126,
            "order": 6,
            "subIdSet": 2,
            "descTextMapHash": 4062260868,
            "finishCond": [
                {
                    "type": "QUEST_CONTENT_COMPLETE_TALK",
                    "param": [
                        4112605,
                        0
                    ]
                }
            ],
            "guide": {
                "type": "QUEST_GUIDE_NPC",
                "param": [
                    "2307"
                ],
                "guideScene": 3,
                "guideStyle": "QUEST_GUIDE_STYLE_TARGET",
                "guideLayer": "QUEST_GUIDE_LAYER_SCENE"
            },
            "acceptCondComb": {
                "FDPBPIHKEGH": ""
            },
            "finishExec": [
                {
                    "type": "QUEST_EXEC_ADD_QUEST_PROGRESS",
                    "param": [
                        "4112605",
                        "1"
                    ]
                }
            ],
            "versionBegin": "",
            "versionEnd": ""
        },
        {
            "subId": 4112606,
            "mainId": 41126,
            "order": 7,
            "subIdSet": 2,
            "descTextMapHash": 3524747196,
            "finishCond": [
                {
                    "type": "QUEST_CONTENT_ADD_QUEST_PROGRESS",
                    "param": [
                        4112605,
                        0
                    ],
                    "count": 1
                },
                {
                    "type": "QUEST_CONTENT_COMPLETE_TALK",
                    "param": [
                        4112606,
                        0
                    ]
                }
            ],
            "guide": {
                "type": "QUEST_GUIDE_NPC",
                "param": [
                    "2304"
                ],
                "guideScene": 3,
                "guideStyle": "QUEST_GUIDE_STYLE_TARGET",
                "guideLayer": "QUEST_GUIDE_LAYER_SCENE"
            },
            "acceptCondComb": {
                "FDPBPIHKEGH": ""
            },
            "versionBegin": "",
            "versionEnd": ""
        },
        {
            "subId": 4112607,
            "mainId": 41126,
            "order": 8,
            "subIdSet": 2,
            "descTextMapHash": 3645337164,
            "finishCond": [
                {
                    "type": "QUEST_CONTENT_QUEST_VAR_EQUAL",
                    "param": [
                        1,
                        1
                    ]
                },
                {
                    "type": "QUEST_CONTENT_COMPLETE_TALK",
                    "param": [
                        4112607,
                        0
                    ]
                }
            ],
            "guide": {
                "type": "QUEST_GUIDE_NPC",
                "param": [
                    "2135"
                ],
                "guideScene": 3,
                "guideStyle": "QUEST_GUIDE_STYLE_TARGET",
                "guideLayer": "QUEST_GUIDE_LAYER_SCENE"
            },
            "acceptCondComb": {
                "FDPBPIHKEGH": ""
            },
            "versionBegin": "",
            "versionEnd": ""
        },
        {
            "subId": 4112608,
            "mainId": 41126,
            "order": 9,
            "descTextMapHash": 2977446708,
            "showType": "QUEST_HIDDEN",
            "finishCond": [
                {
                    "type": "QUEST_CONTENT_GAME_TIME_TICK",
                    "param": [
                        0,
                        0
                    ]
                }
            ],
            "guide": {
                "guideScene": 3,
                "guideStyle": "QUEST_GUIDE_STYLE_TARGET",
                "guideLayer": "QUEST_GUIDE_LAYER_SCENE"
            },
            "showGuide": "QUEST_GUIDE_ITEM_DISABLE",
            "acceptCondComb": {
                "FDPBPIHKEGH": ""
            },
            "isRewind": true,
            "versionBegin": "",
            "versionEnd": ""
        },
        {
            "subId": 4112609,
            "mainId": 41126,
            "order": 10,
            "descTextMapHash": 1839402588,
            "finishCond": [
                {
                    "type": "QUEST_CONTENT_COMPLETE_TALK",
                    "param": [
                        4112608,
                        0
                    ]
                }
            ],
            "guide": {
                "type": "QUEST_GUIDE_NPC",
                "param": [
                    "230801"
                ],
                "guideScene": 3,
                "guideStyle": "QUEST_GUIDE_STYLE_TARGET",
                "guideLayer": "QUEST_GUIDE_LAYER_SCENE"
            },
            "showGuide": "QUEST_GUIDE_ITEM_DISABLE",
            "acceptCondComb": {
                "FDPBPIHKEGH": ""
            },
            "isRewind": true,
            "finishExec": [
                {
                    "type": "QUEST_EXEC_ACTIVE_ITEM_GIVING",
                    "param": [
                        "4112609"
                    ]
                },
                {
                    "type": "QUEST_EXEC_DEL_PACK_ITEM",
                    "param": [
                        "100681",
                        "1"
                    ]
                }
            ],
            "versionBegin": "",
            "versionEnd": ""
        },
        {
            "subId": 4112610,
            "mainId": 41126,
            "order": 11,
            "descTextMapHash": 2507555548,
            "finishCond": [
                {
                    "type": "QUEST_CONTENT_FINISH_ITEM_GIVING",
                    "param": [
                        4112609,
                        0
                    ]
                }
            ],
            "guide": {
                "type": "QUEST_GUIDE_NPC",
                "param": [
                    "205601"
                ],
                "guideScene": 3,
                "guideStyle": "QUEST_GUIDE_STYLE_TARGET",
                "guideLayer": "QUEST_GUIDE_LAYER_SCENE"
            },
            "acceptCondComb": {
                "FDPBPIHKEGH": ""
            },
            "isRewind": true,
            "versionBegin": "",
            "versionEnd": ""
        },
        {
            "subId": 4112611,
            "mainId": 41126,
            "order": 12,
            "descTextMapHash": 3825121644,
            "finishCond": [
                {
                    "type": "QUEST_CONTENT_COMPLETE_TALK",
                    "param": [
                        4112610,
                        0
                    ]
                }
            ],
            "guide": {
                "type": "QUEST_GUIDE_NPC",
                "param": [
                    "205601"
                ],
                "guideScene": 3,
                "guideStyle": "QUEST_GUIDE_STYLE_FINISH",
                "guideLayer": "QUEST_GUIDE_LAYER_SCENE"
            },
            "acceptCondComb": {
                "FDPBPIHKEGH": ""
            },
            "finishParent": true,
            "isRewind": true,
            "versionBegin": "",
            "versionEnd": ""
        },
        {
            "subId": 4112612,
            "mainId": 41126,
            "order": 3,
            "descTextMapHash": 95105652,
            "finishCond": [
                {
                    "type": "QUEST_CONTENT_FINISH_PLOT",
                    "param": [
                        4112612,
                        0
                    ]
                }
            ],
            "guide": {
                "type": "QUEST_GUIDE_LOCATION",
                "param": [
                    "Q4112612zhiyin",
                    "40"
                ],
                "guideScene": 3,
                "guideStyle": "QUEST_GUIDE_STYLE_TARGET",
                "guideLayer": "QUEST_GUIDE_LAYER_SCENE"
            },
            "acceptCondComb": {
                "FDPBPIHKEGH": ""
            },
            "isRewind": true,
            "versionBegin": "",
            "versionEnd": ""
        }
    ],
    "talks": [
        {
            "id": 4112601,
            "beginWay": "TALK_BEGIN_MANUAL",
            "beginCond": [
                {
                    "type": "QUEST_COND_STATE_EQUAL",
                    "param": [
                        "4112601",
                        "3"
                    ]
                },
                {
                    "type": "QUEST_COND_STATE_EQUAL",
                    "param": [
                        "4112602",
                        "2"
                    ]
                }
            ],
            "priority": 5,
            "initDialog": 411260101,
            "npcId": [
                205601
            ],
            "performCfg": "",
            "heroTalk": "TALK_HERO_MAIN",
            "questId": 41126,
            "assetIndex": 11758336333100436440,
            "prePerformCfg": ""
        },
        {
            "id": 4112602,
            "beginWay": "TALK_BEGIN_MANUAL",
            "beginCondComb": "LOGIC_AND",
            "beginCond": [
                {
                    "type": "QUEST_COND_STATE_EQUAL",
                    "param": [
                        "4112612",
                        "2"
                    ]
                },
                {
                    "type": "QUEST_COND_STATE_EQUAL",
                    "param": [
                        "4112602",
                        "3"
                    ]
                }
            ],
            "priority": 5,
            "initDialog": 411260201,
            "npcId": [
                205601
            ],
            "performCfg": "",
            "heroTalk": "TALK_HERO_MAIN",
            "questId": 41126,
            "assetIndex": 16478488613585310582,
            "prePerformCfg": ""
        },
        {
            "id": 4112603,
            "beginWay": "TALK_BEGIN_MANUAL",
            "beginCond": [
                {
                    "type": "QUEST_COND_STATE_EQUAL",
                    "param": [
                        "4112609",
                        "3"
                    ]
                },
                {
                    "type": "QUEST_COND_STATE_EQUAL",
                    "param": [
                        "4112610",
                        "2"
                    ]
                }
            ],
            "priority": 5,
            "initDialog": 411260301,
            "npcId": [
                230801
            ],
            "performCfg": "",
            "heroTalk": "TALK_HERO_MAIN",
            "questId": 41126,
            "assetIndex": 17539590889696592524,
            "prePerformCfg": ""
        },
        {
            "id": 4112605,
            "beginWay": "TALK_BEGIN_MANUAL",
            "beginCondComb": "LOGIC_AND",
            "beginCond": [
                {
                    "type": "QUEST_COND_STATE_EQUAL",
                    "param": [
                        "4112605",
                        "2"
                    ]
                },
                {
                    "type": "QUEST_COND_STATE_EQUAL",
                    "param": [
                        "4112604",
                        "3"
                    ]
                }
            ],
            "priority": 1,
            "initDialog": 411260501,
            "npcId": [
                2307
            ],
            "performCfg": "",
            "heroTalk": "TALK_HERO_MAIN",
            "questId": 41126,
            "assetIndex": 4782981811576213875,
            "dontBlockDaily": true,
            "prePerformCfg": ""
        },
        {
            "id": 4112606,
            "beginWay": "TALK_BEGIN_MANUAL",
            "beginCondComb": "LOGIC_AND",
            "beginCond": [
                {
                    "type": "QUEST_COND_STATE_EQUAL",
                    "param": [
                        "4112605",
                        "2"
                    ]
                },
                {
                    "type": "QUEST_COND_STATE_EQUAL",
                    "param": [
                        "4112604",
                        "3"
                    ]
                }
            ],
            "priority": 1,
            "initDialog": 411260601,
            "npcId": [
                2304
            ],
            "performCfg": "",
            "heroTalk": "TALK_HERO_MAIN",
            "questId": 41126,
            "assetIndex": 8815517155709171860,
            "dontBlockDaily": true,
            "prePerformCfg": ""
        },
        {
            "id": 4112607,
            "beginWay": "TALK_BEGIN_MANUAL",
            "beginCondComb": "LOGIC_AND",
            "beginCond": [
                {
                    "type": "QUEST_COND_STATE_EQUAL",
                    "param": [
                        "4112604",
                        "3"
                    ]
                },
                {
                    "type": "QUEST_COND_STATE_EQUAL",
                    "param": [
                        "4112605",
                        "2"
                    ]
                }
            ],
            "priority": 1,
            "initDialog": 411260701,
            "npcId": [
                2135
            ],
            "performCfg": "",
            "heroTalk": "TALK_HERO_MAIN",
            "questId": 41126,
            "assetIndex": 9098018844073518237,
            "dontBlockDaily": true,
            "prePerformCfg": ""
        },
        {
            "id": 4112608,
            "beginWay": "TALK_BEGIN_MANUAL",
            "beginCond": [
                {
                    "type": "QUEST_COND_STATE_EQUAL",
                    "param": [
                        "4112608",
                        "3"
                    ]
                },
                {
                    "type": "QUEST_COND_STATE_EQUAL",
                    "param": [
                        "4112609",
                        "2"
                    ]
                }
            ],
            "priority": 5,
            "initDialog": 411260801,
            "npcId": [
                230801
            ],
            "performCfg": "",
            "heroTalk": "TALK_HERO_MAIN",
            "questId": 41126,
            "assetIndex": 7029807846395309916,
            "prePerformCfg": ""
        },
        {
            "id": 4112609,
            "beginWay": "TALK_BEGIN_MANUAL",
            "beginCond": [
                {
                    "type": "QUEST_COND_STATE_EQUAL",
                    "param": [
                        "4112609",
                        "3"
                    ]
                },
                {
                    "type": "QUEST_COND_ITEM_GIVING_ACTIVED",
                    "param": [
                        "4112609"
                    ]
                }
            ],
            "priority": 5,
            "initDialog": 411260901,
            "npcId": [
                205601
            ],
            "performCfg": "",
            "heroTalk": "TALK_HERO_MAIN",
            "questId": 41126,
            "assetIndex": 18192851875668602452,
            "prePerformCfg": ""
        },
        {
            "id": 4112610,
            "beginWay": "TALK_BEGIN_MANUAL",
            "beginCond": [
                {
                    "type": "QUEST_COND_STATE_EQUAL",
                    "param": [
                        "4112610",
                        "3"
                    ]
                },
                {
                    "type": "QUEST_COND_STATE_EQUAL",
                    "param": [
                        "4112611",
                        "2"
                    ]
                }
            ],
            "priority": 5,
            "initDialog": 411261001,
            "npcId": [
                205601
            ],
            "performCfg": "",
            "heroTalk": "TALK_HERO_MAIN",
            "questId": 41126,
            "assetIndex": 10047445377215591750,
            "prePerformCfg": ""
        }
    ],
    "FFDPMMFBDAE": [
        13381132312055020433,
        13746347751327437873,
        17933493144041056996
    ],
    "IGKJEKALOKN": [
        12083777588451643445
    ]
}