{
    "id": 462,
    "KHGONCANKFN": 2001,
    "series": 2001,
    "type": "LQ",
    "titleTextMapHash": 1127843489,
    "descTextMapHash": 895147711,
    "luaPath": "Actor/Quest/LQ462",
    "suggestTrackMainQuestList": [
        463
    ],
    "rewardIdList": [
        100462
    ],
    "chapterId": 2001,
    "subQuests": [
        {
            "subId": 46201,
            "mainId": 462,
            "order": 1,
            "descTextMapHash": 2897854543,
            "finishCond": [
                {
                    "type": "QUEST_CONTENT_TRIGGER_FIRE",
                    "param": [
                        1063,
                        0
                    ]
                }
            ],
            "guide": {
                "type": "QUEST_GUIDE_LOCATION",
                "param": [
                    "Q462NPC"
                ],
                "guideScene": 3,
                "guideStyle": "QUEST_GUIDE_STYLE_POINT",
                "guideLayer": "QUEST_GUIDE_LAYER_SCENE"
            },
            "acceptCondComb": {
                "FDPBPIHKEGH": ""
            },
            "isRewind": true,
            "finishExec": [
                {
                    "type": "QUEST_EXEC_REFRESH_GROUP_MONSTER",
                    "param": [
                        "133003204"
                    ]
                }
            ],
            "versionBegin": "",
            "versionEnd": ""
        },
        {
            "subId": 46202,
            "mainId": 462,
            "order": 2,
            "descTextMapHash": 2817638999,
            "finishCond": [
                {
                    "type": "QUEST_CONTENT_CLEAR_GROUP_MONSTER",
                    "param": [
                        133003204,
                        0
                    ]
                }
            ],
            "guide": {
                "type": "QUEST_GUIDE_LOCATION",
                "param": [
                    "Q462NPC",
                    "30"
                ],
                "guideScene": 3
            },
            "acceptCondComb": {
                "FDPBPIHKEGH": ""
            },
            "versionBegin": "",
            "versionEnd": ""
        },
        {
            "subId": 46203,
            "mainId": 462,
            "order": 3,
            "descTextMapHash": 2877653055,
            "finishCond": [
                {
                    "type": "QUEST_CONTENT_COMPLETE_TALK",
                    "param": [
                        46203,
                        0
                    ]
                }
            ],
            "guide": {
                "type": "QUEST_GUIDE_NPC",
                "param": [
                    "1213"
                ],
                "guideScene": 3
            },
            "acceptCondComb": {
                "FDPBPIHKEGH": ""
            },
            "isRewind": true,
            "versionBegin": "",
            "versionEnd": ""
        },
        {
            "subId": 46204,
            "mainId": 462,
            "order": 4,
            "isMpBlock": true,
            "descTextMapHash": 3252908895,
            "showType": "QUEST_HIDDEN",
            "finishCond": [
                {
                    "type": "QUEST_CONTENT_OBTAIN_ITEM",
                    "param": [
                        100172,
                        0
                    ]
                }
            ],
            "guide": {},
            "acceptCondComb": {
                "FDPBPIHKEGH": ""
            },
            "isRewind": true,
            "finishExec": [
                {
                    "type": "QUEST_EXEC_NOTIFY_GROUP_LUA",
                    "param": [
                        "3",
                        "133002202"
                    ]
                },
                {
                    "type": "QUEST_EXEC_REFRESH_GROUP_SUITE",
                    "param": [
                        "3",
                        "133004902,1"
                    ]
                }
            ],
            "versionBegin": "",
            "versionEnd": ""
        },
        {
            "subId": 46205,
            "mainId": 462,
            "order": 6,
            "descTextMapHash": 4164179863,
            "finishCond": [
                {
                    "type": "QUEST_CONTENT_COMPLETE_TALK",
                    "param": [
                        46205,
                        0
                    ]
                },
                {
                    "type": "QUEST_CONTENT_OBTAIN_ITEM",
                    "param": [
                        100172,
                        0
                    ]
                }
            ],
            "guide": {
                "type": "QUEST_GUIDE_NPC",
                "param": [
                    "1004"
                ],
                "guideScene": 1004,
                "guideStyle": "QUEST_GUIDE_STYLE_TARGET",
                "guideLayer": "QUEST_GUIDE_LAYER_SCENE"
            },
            "acceptCondComb": {
                "FDPBPIHKEGH": ""
            },
            "versionBegin": "",
            "versionEnd": ""
        },
        {
            "subId": 46206,
            "mainId": 462,
            "order": 8,
            "isMpBlock": true,
            "descTextMapHash": 4045182879,
            "showType": "QUEST_HIDDEN",
            "finishCond": [
                {
                    "type": "QUEST_CONTENT_OBTAIN_ITEM",
                    "param": [
                        100173,
                        0
                    ]
                }
            ],
            "guide": {},
            "acceptCondComb": {
                "FDPBPIHKEGH": ""
            },
            "finishParent": true,
            "isRewind": true,
            "versionBegin": "",
            "versionEnd": ""
        },
        {
            "subId": 46207,
            "mainId": 462,
            "order": 9,
            "descTextMapHash": 3320595623,
            "finishCond": [
                {
                    "type": "QUEST_CONTENT_COMPLETE_TALK",
                    "param": [
                        46207,
                        0
                    ]
                },
                {
                    "type": "QUEST_CONTENT_OBTAIN_ITEM",
                    "param": [
                        100173,
                        0
                    ]
                }
            ],
            "guide": {
                "type": "QUEST_GUIDE_NPC",
                "param": [
                    "1004"
                ],
                "guideScene": 1004,
                "guideStyle": "QUEST_GUIDE_STYLE_TARGET",
                "guideLayer": "QUEST_GUIDE_LAYER_SCENE"
            },
            "acceptCondComb": {
                "FDPBPIHKEGH": ""
            },
            "versionBegin": "",
            "versionEnd": ""
        },
        {
            "subId": 46208,
            "mainId": 462,
            "order": 7,
            "descTextMapHash": 4049784311,
            "finishCond": [
                {
                    "type": "QUEST_CONTENT_OBTAIN_ITEM",
                    "param": [
                        100172,
                        0
                    ]
                }
            ],
            "guide": {
                "type": "QUEST_GUIDE_LOCATION",
                "param": [
                    "Q462Treasure1"
                ],
                "guideScene": 3,
                "guideStyle": "QUEST_GUIDE_STYLE_POINT",
                "guideLayer": "QUEST_GUIDE_LAYER_SCENE"
            },
            "acceptCondComb": {
                "FDPBPIHKEGH": ""
            },
            "isRewind": true,
            "versionBegin": "",
            "versionEnd": ""
        },
        {
            "subId": 46209,
            "mainId": 462,
            "order": 10,
            "descTextMapHash": 805821951,
            "finishCond": [
                {
                    "type": "QUEST_CONTENT_OBTAIN_ITEM",
                    "param": [
                        100173,
                        0
                    ]
                }
            ],
            "guide": {
                "type": "QUEST_GUIDE_LOCATION",
                "param": [
                    "Q462PuzzleEnd"
                ],
                "guideScene": 3,
                "guideStyle": "QUEST_GUIDE_STYLE_POINT",
                "guideLayer": "QUEST_GUIDE_LAYER_SCENE"
            },
            "acceptCondComb": {
                "FDPBPIHKEGH": ""
            },
            "isRewind": true,
            "finishExec": [
                {
                    "type": "QUEST_EXEC_UNREGISTER_DYNAMIC_GROUP",
                    "param": [
                        "133002039",
                        "0"
                    ]
                }
            ],
            "versionBegin": "",
            "versionEnd": ""
        },
        {
            "subId": 46210,
            "mainId": 462,
            "order": 5,
            "descTextMapHash": 1882401175,
            "showType": "QUEST_HIDDEN",
            "finishCond": [
                {
                    "type": "QUEST_CONTENT_COMPLETE_TALK",
                    "param": [
                        46204,
                        0
                    ]
                }
            ],
            "guide": {},
            "acceptCondComb": {
                "FDPBPIHKEGH": ""
            },
            "isRewind": true,
            "versionBegin": "",
            "versionEnd": ""
        }
    ],
    "talks": [
        {
            "id": 46202,
            "beginCond": [
                {
                    "type": "QUEST_COND_STATE_EQUAL",
                    "param": [
                        "46202",
                        "2"
                    ]
                }
            ],
            "priority": 5,
            "initDialog": 4620201,
            "npcId": [
                1213
            ],
            "performCfg": "",
            "heroTalk": "TALK_HERO_MAIN",
            "questId": 462,
            "assetIndex": 10007665768211986787,
            "prePerformCfg": ""
        },
        {
            "id": 46203,
            "beginWay": "TALK_BEGIN_MANUAL",
            "beginCond": [
                {
                    "type": "QUEST_COND_STATE_EQUAL",
                    "param": [
                        "46203",
                        "2"
                    ]
                }
            ],
            "priority": 5,
            "initDialog": 4620301,
            "npcId": [
                1213
            ],
            "performCfg": "QuestDialogue/LQ/Kaeya1_462/Q46203",
            "heroTalk": "TALK_HERO_MAIN",
            "questId": 462,
            "assetIndex": 12668840631979455411,
            "prePerformCfg": "",
            "MFGJDPNMDPB": [
                9000
            ]
        },
        {
            "id": 46204,
            "beginWay": "TALK_BEGIN_MANUAL",
            "beginCondComb": "LOGIC_AND",
            "beginCond": [
                {
                    "type": "QUEST_COND_STATE_EQUAL",
                    "param": [
                        "46210",
                        "2"
                    ]
                },
                {
                    "type": "QUEST_COND_STATE_EQUAL",
                    "param": [
                        "46204",
                        "3"
                    ]
                },
                {
                    "type": "QUEST_COND_STATE_NOT_EQUAL",
                    "param": [
                        "46206",
                        "3"
                    ]
                }
            ],
            "priority": 3,
            "initDialog": 4620401,
            "npcId": [
                1005
            ],
            "performCfg": "QuestDialogue/LQ/Kaeya1_462/Q46204",
            "heroTalk": "TALK_HERO_MAIN",
            "questId": 462,
            "assetIndex": 3070645448979510692,
            "prePerformCfg": ""
        },
        {
            "id": 46205,
            "beginWay": "TALK_BEGIN_MANUAL",
            "beginCondComb": "LOGIC_AND",
            "beginCond": [
                {
                    "type": "QUEST_COND_STATE_EQUAL",
                    "param": [
                        "46205",
                        "2"
                    ]
                },
                {
                    "type": "QUEST_COND_STATE_NOT_EQUAL",
                    "param": [
                        "46204",
                        "3"
                    ]
                }
            ],
            "priority": 5,
            "initDialog": 4620501,
            "npcId": [
                1004
            ],
            "performCfg": "QuestDialogue/LQ/Kaeya1_462/Q46205",
            "heroTalk": "TALK_HERO_MAIN",
            "questId": 462,
            "assetIndex": 1167420956158964919,
            "prePerformCfg": ""
        },
        {
            "id": 46207,
            "beginWay": "TALK_BEGIN_MANUAL",
            "beginCondComb": "LOGIC_AND",
            "beginCond": [
                {
                    "type": "QUEST_COND_STATE_EQUAL",
                    "param": [
                        "46207",
                        "2"
                    ]
                },
                {
                    "type": "QUEST_COND_STATE_NOT_EQUAL",
                    "param": [
                        "46206",
                        "3"
                    ]
                }
            ],
            "priority": 5,
            "initDialog": 4620701,
            "npcId": [
                1004
            ],
            "performCfg": "QuestDialogue/LQ/Kaeya1_462/Q46207",
            "heroTalk": "TALK_HERO_MAIN",
            "questId": 462,
            "assetIndex": 4425042994021525039,
            "prePerformCfg": ""
        },
        {
            "id": 46208,
            "beginWay": "TALK_BEGIN_MANUAL",
            "beginCondComb": "LOGIC_AND",
            "beginCond": [
                {
                    "type": "QUEST_COND_STATE_EQUAL",
                    "param": [
                        "46107",
                        "3"
                    ]
                },
                {
                    "type": "QUEST_COND_STATE_NOT_EQUAL",
                    "param": [
                        "46203",
                        "3"
                    ]
                }
            ],
            "priority": 4,
            "initDialog": 4620801,
            "npcId": [
                1004
            ],
            "performCfg": "",
            "heroTalk": "TALK_HERO_MAIN",
            "questId": 462,
            "assetIndex": 9054586906835634119,
            "prePerformCfg": ""
        },
        {
            "id": 46209,
            "beginWay": "TALK_BEGIN_MANUAL",
            "beginCond": [
                {
                    "type": "QUEST_COND_STATE_EQUAL",
                    "param": [
                        "46208",
                        "2"
                    ]
                }
            ],
            "priority": 4,
            "initDialog": 4620901,
            "npcId": [
                1004
            ],
            "performCfg": "",
            "heroTalk": "TALK_HERO_MAIN",
            "questId": 462,
            "assetIndex": 1425712878051617636,
            "prePerformCfg": ""
        },
        {
            "id": 46210,
            "beginWay": "TALK_BEGIN_MANUAL",
            "beginCond": [
                {
                    "type": "QUEST_COND_STATE_EQUAL",
                    "param": [
                        "46209",
                        "2"
                    ]
                }
            ],
            "priority": 4,
            "initDialog": 4621001,
            "npcId": [
                1004
            ],
            "performCfg": "",
            "heroTalk": "TALK_HERO_MAIN",
            "questId": 462,
            "assetIndex": 5092836445688800366,
            "prePerformCfg": ""
        },
        {
            "id": 46211,
            "beginWay": "TALK_BEGIN_MANUAL",
            "beginCond": [
                {
                    "type": "QUEST_COND_STATE_EQUAL",
                    "param": [
                        "46203",
                        "3"
                    ]
                }
            ],
            "priority": 4,
            "initDialog": 4621101,
            "npcId": [
                1213
            ],
            "performCfg": "",
            "questId": 462,
            "assetIndex": 4345876591397588510,
            "prePerformCfg": ""
        }
    ],
    "FFDPMMFBDAE": [
        14457059026087496718,
        5575916732172504491
    ],
    "freeStyleDic": {
        "1004": [
            1070
        ],
        "1005": [
            1070
        ],
        "1213": [
            1070
        ]
    }
}