{
    "id": 70524,
    "type": "WQ",
    "mainQuestTag": "MAINQUEST_TAG_GUIDE",
    "activeMode": "PLAY_MODE_ALL",
    "luaPath": "Actor/Quest/WQ70524",
    "showType": "QUEST_HIDDEN",
    "subQuests": [
        {
            "subId": 7052401,
            "mainId": 70524,
            "order": 1,
            "showType": "QUEST_HIDDEN",
            "finishCond": [
                {
                    "type": "QUEST_CONTENT_QUEST_STATE_EQUAL",
                    "param": [
                        7066518,
                        3
                    ]
                }
            ],
            "guide": {},
            "showGuide": "QUEST_GUIDE_ITEM_DISABLE",
            "acceptCondComb": {
                "FDPBPIHKEGH": ""
            },
            "finishParent": true,
            "isRewind": true,
            "versionBegin": "",
            "versionEnd": ""
        }
    ],
    "talks": [
        {
            "id": 7052401,
            "beginWay": "TALK_BEGIN_MANUAL",
            "activeMode": "PLAY_MODE_HOST",
            "beginCond": [
                {
                    "type": "QUEST_COND_STATE_EQUAL",
                    "param": [
                        "7052401",
                        "2"
                    ]
                }
            ],
            "priority": 5,
            "initDialog": 705240101,
            "npcId": [
                10011,
                1019
            ],
            "performCfg": "",
            "heroTalk": "TALK_HERO_MAIN",
            "questId": 70524,
            "assetIndex": 8958236776688369154,
            "prePerformCfg": ""
        }
    ],
    "FFDPMMFBDAE": [
        16884370460767590672
    ],
    "IGKJEKALOKN": [
        13145413501705122695
    ],
    "freeStyleDic": {
        "1019": [
            0
        ],
        "10011": [
            0
        ]
    }
}