{
    "id": 70935,
    "type": "WQ",
    "titleTextMapHash": 2386697847,
    "descTextMapHash": 839680998,
    "luaPath": "",
    "rewardIdList": [
        551033
    ],
    "showType": "QUEST_HIDDEN",
    "subQuests": [
        {
            "subId": 7093501,
            "mainId": 70935,
            "order": 1,
            "showType": "QUEST_HIDDEN",
            "finishCond": [
                {
                    "type": "QUEST_CONTENT_COMPLETE_TALK",
                    "param": [
                        7093501,
                        0
                    ]
                }
            ],
            "guide": {},
            "acceptCondComb": {
                "FDPBPIHKEGH": ""
            },
            "finishParent": true,
            "versionBegin": "",
            "versionEnd": ""
        }
    ]
}