{
    "id": 71038,
    "type": "WQ",
    "activeMode": "PLAY_MODE_ALL",
    "titleTextMapHash": 2792934391,
    "descTextMapHash": 818519070,
    "luaPath": "Actor/Quest/WQ71038",
    "rewardIdList": [
        171038
    ],
    "subQuests": [
        {
            "subId": 7103801,
            "mainId": 71038,
            "order": 1,
            "descTextMapHash": 2381502940,
            "showType": "QUEST_HIDDEN",
            "finishCond": [
                {
                    "type": "QUEST_CONTENT_TIME_VAR_PASS_DAY",
                    "param": [
                        71036,
                        0
                    ]
                }
            ],
            "guide": {},
            "acceptCondComb": {
                "FDPBPIHKEGH": ""
            },
            "isRewind": true,
            "versionBegin": "",
            "versionEnd": ""
        },
        {
            "subId": 7103802,
            "mainId": 71038,
            "order": 2,
            "descTextMapHash": 2917217516,
            "finishCond": [
                {
                    "type": "QUEST_CONTENT_COMPLETE_TALK",
                    "param": [
                        7103802,
                        0
                    ]
                }
            ],
            "guide": {
                "type": "QUEST_GUIDE_NPC",
                "autoGuide": "QUEST_GUIDE_AUTO_ENABLE",
                "param": [
                    "2616"
                ],
                "guideScene": 6,
                "guideStyle": "QUEST_GUIDE_STYLE_TARGET",
                "guideLayer": "QUEST_GUIDE_LAYER_UI"
            },
            "acceptCondComb": {
                "FDPBPIHKEGH": ""
            },
            "isRewind": true,
            "versionBegin": "",
            "versionEnd": ""
        },
        {
            "subId": 7103803,
            "mainId": 71038,
            "order": 4,
            "subIdSet": 1,
            "descTextMapHash": 1584633716,
            "finishCond": [
                {
                    "type": "QUEST_CONTENT_LUA_NOTIFY",
                    "param": [
                        0,
                        0
                    ],
                    "count": 1
                },
                {
                    "type": "QUEST_CONTENT_QUEST_STATE_EQUAL",
                    "param": [
                        7103807,
                        3
                    ]
                }
            ],
            "guide": {
                "type": "QUEST_GUIDE_LOCATION",
                "autoGuide": "QUEST_GUIDE_AUTO_ENABLE",
                "param": [
                    "Q7103803_guide_94",
                    "30"
                ],
                "guideScene": 6,
                "guideStyle": "QUEST_GUIDE_STYLE_POINT",
                "guideLayer": "QUEST_GUIDE_LAYER_SCENE"
            },
            "showGuide": "QUEST_GUIDE_ITEM_DISABLE",
            "acceptCondComb": {
                "FDPBPIHKEGH": ""
            },
            "isRewind": true,
            "finishExec": [
                {
                    "type": "QUEST_EXEC_REFRESH_GROUP_SUITE",
                    "param": [
                        "6",
                        "166001030,2"
                    ]
                }
            ],
            "versionBegin": "",
            "versionEnd": ""
        },
        {
            "subId": 7103804,
            "mainId": 71038,
            "order": 5,
            "subIdSet": 1,
            "descTextMapHash": 1474945436,
            "finishCond": [
                {
                    "type": "QUEST_CONTENT_LUA_NOTIFY",
                    "param": [
                        0,
                        0
                    ],
                    "count": 1
                },
                {
                    "type": "QUEST_CONTENT_QUEST_STATE_EQUAL",
                    "param": [
                        7103807,
                        3
                    ]
                }
            ],
            "guide": {
                "type": "QUEST_GUIDE_LOCATION",
                "autoGuide": "QUEST_GUIDE_AUTO_ENABLE",
                "param": [
                    "Q7103804_guide",
                    "30"
                ],
                "guideScene": 6,
                "guideStyle": "QUEST_GUIDE_STYLE_POINT",
                "guideLayer": "QUEST_GUIDE_LAYER_SCENE"
            },
            "showGuide": "QUEST_GUIDE_ITEM_DISABLE",
            "acceptCondComb": {
                "FDPBPIHKEGH": ""
            },
            "isRewind": true,
            "finishExec": [
                {
                    "type": "QUEST_EXEC_REFRESH_GROUP_SUITE",
                    "param": [
                        "6",
                        "166001031,2"
                    ]
                }
            ],
            "versionBegin": "",
            "versionEnd": ""
        },
        {
            "subId": 7103805,
            "mainId": 71038,
            "order": 6,
            "subIdSet": 1,
            "descTextMapHash": 1611802180,
            "finishCond": [
                {
                    "type": "QUEST_CONTENT_LUA_NOTIFY",
                    "param": [
                        0,
                        0
                    ],
                    "count": 1
                },
                {
                    "type": "QUEST_CONTENT_QUEST_STATE_EQUAL",
                    "param": [
                        7103807,
                        3
                    ]
                }
            ],
            "guide": {
                "type": "QUEST_GUIDE_LOCATION",
                "autoGuide": "QUEST_GUIDE_AUTO_ENABLE",
                "param": [
                    "Q7103805_guide",
                    "30"
                ],
                "guideScene": 6,
                "guideStyle": "QUEST_GUIDE_STYLE_POINT",
                "guideLayer": "QUEST_GUIDE_LAYER_SCENE"
            },
            "showGuide": "QUEST_GUIDE_ITEM_DISABLE",
            "acceptCondComb": {
                "FDPBPIHKEGH": ""
            },
            "isRewind": true,
            "finishExec": [
                {
                    "type": "QUEST_EXEC_REFRESH_GROUP_SUITE",
                    "param": [
                        "6",
                        "166001032,2"
                    ]
                }
            ],
            "versionBegin": "",
            "versionEnd": ""
        },
        {
            "subId": 7103806,
            "mainId": 71038,
            "order": 7,
            "subIdSet": 1,
            "descTextMapHash": 3285613732,
            "finishCond": [
                {
                    "type": "QUEST_CONTENT_LUA_NOTIFY",
                    "param": [
                        0,
                        0
                    ],
                    "count": 1
                },
                {
                    "type": "QUEST_CONTENT_QUEST_STATE_EQUAL",
                    "param": [
                        7103807,
                        3
                    ]
                }
            ],
            "guide": {
                "type": "QUEST_GUIDE_LOCATION",
                "autoGuide": "QUEST_GUIDE_AUTO_ENABLE",
                "param": [
                    "Q7103806_guide",
                    "30"
                ],
                "guideScene": 6,
                "guideStyle": "QUEST_GUIDE_STYLE_POINT",
                "guideLayer": "QUEST_GUIDE_LAYER_SCENE"
            },
            "showGuide": "QUEST_GUIDE_ITEM_DISABLE",
            "acceptCondComb": {
                "FDPBPIHKEGH": ""
            },
            "isRewind": true,
            "finishExec": [
                {
                    "type": "QUEST_EXEC_REFRESH_GROUP_SUITE",
                    "param": [
                        "6",
                        "166001033,2"
                    ]
                }
            ],
            "versionBegin": "",
            "versionEnd": ""
        },
        {
            "subId": 7103807,
            "mainId": 71038,
            "order": 8,
            "subIdSet": 1,
            "descTextMapHash": 3200640316,
            "finishCond": [
                {
                    "type": "QUEST_CONTENT_LUA_NOTIFY",
                    "param": [
                        0,
                        0
                    ],
                    "count": 1
                },
                {
                    "type": "QUEST_CONTENT_LUA_NOTIFY",
                    "param": [
                        0,
                        0
                    ],
                    "count": 1
                }
            ],
            "guide": {
                "type": "QUEST_GUIDE_LOCATION",
                "autoGuide": "QUEST_GUIDE_AUTO_ENABLE",
                "param": [
                    "Q7103807_guide",
                    "30"
                ],
                "guideScene": 6,
                "guideStyle": "QUEST_GUIDE_STYLE_POINT",
                "guideLayer": "QUEST_GUIDE_LAYER_SCENE"
            },
            "showGuide": "QUEST_GUIDE_ITEM_DISABLE",
            "acceptCondComb": {
                "FDPBPIHKEGH": ""
            },
            "isRewind": true,
            "finishExec": [
                {
                    "type": "QUEST_EXEC_REFRESH_GROUP_SUITE",
                    "param": [
                        "6",
                        "166001034,2"
                    ]
                }
            ],
            "versionBegin": "",
            "versionEnd": ""
        },
        {
            "subId": 7103808,
            "mainId": 71038,
            "order": 9,
            "stepDescTextMapHash": 2872268405,
            "showType": "QUEST_HIDDEN",
            "finishCond": [
                {
                    "type": "QUEST_CONTENT_QUEST_STATE_EQUAL",
                    "param": [
                        7103807,
                        3
                    ]
                }
            ],
            "guide": {},
            "acceptCondComb": {
                "FDPBPIHKEGH": ""
            },
            "isRewind": true,
            "versionBegin": "",
            "versionEnd": ""
        },
        {
            "subId": 7103810,
            "mainId": 71038,
            "order": 10,
            "descTextMapHash": 1601543908,
            "finishCond": [
                {
                    "type": "QUEST_CONTENT_LUA_NOTIFY",
                    "param": [
                        0,
                        0
                    ],
                    "count": 1
                }
            ],
            "guide": {
                "type": "QUEST_GUIDE_LOCATION",
                "autoGuide": "QUEST_GUIDE_AUTO_ENABLE",
                "param": [
                    "Q7103810_guide",
                    "30"
                ],
                "guideScene": 6,
                "guideStyle": "QUEST_GUIDE_STYLE_POINT",
                "guideLayer": "QUEST_GUIDE_LAYER_SCENE"
            },
            "acceptCondComb": {
                "FDPBPIHKEGH": ""
            },
            "isRewind": true,
            "versionBegin": "",
            "versionEnd": ""
        },
        {
            "subId": 7103811,
            "mainId": 71038,
            "order": 11,
            "descTextMapHash": 2467101820,
            "finishCond": [
                {
                    "type": "QUEST_CONTENT_COMPLETE_TALK",
                    "param": [
                        7103804,
                        0
                    ]
                }
            ],
            "guide": {
                "type": "QUEST_GUIDE_NPC",
                "param": [
                    "20523"
                ],
                "guideScene": 6
            },
            "acceptCondComb": {
                "FDPBPIHKEGH": ""
            },
            "isRewind": true,
            "finishExec": [
                {
                    "type": "QUEST_EXEC_UNREGISTER_DYNAMIC_GROUP",
                    "param": [
                        "166001603",
                        "1"
                    ]
                }
            ],
            "versionBegin": "",
            "versionEnd": ""
        },
        {
            "subId": 7103813,
            "mainId": 71038,
            "order": 13,
            "descTextMapHash": 188775492,
            "finishCond": [
                {
                    "type": "QUEST_CONTENT_COMPLETE_TALK",
                    "param": [
                        7103806,
                        0
                    ]
                }
            ],
            "guide": {
                "type": "QUEST_GUIDE_NPC",
                "autoGuide": "QUEST_GUIDE_AUTO_ENABLE",
                "param": [
                    "2616"
                ],
                "guideScene": 6,
                "guideStyle": "QUEST_GUIDE_STYLE_TARGET",
                "guideLayer": "QUEST_GUIDE_LAYER_UI"
            },
            "acceptCondComb": {
                "FDPBPIHKEGH": ""
            },
            "isRewind": true,
            "versionBegin": "",
            "versionEnd": ""
        },
        {
            "subId": 7103814,
            "mainId": 71038,
            "order": 14,
            "descTextMapHash": 694219884,
            "finishCond": [
                {
                    "type": "QUEST_CONTENT_FINISH_ITEM_GIVING",
                    "param": [
                        7103814,
                        0
                    ]
                }
            ],
            "guide": {
                "type": "QUEST_GUIDE_NPC",
                "autoGuide": "QUEST_GUIDE_AUTO_ENABLE",
                "param": [
                    "20523"
                ],
                "guideScene": 6,
                "guideStyle": "QUEST_GUIDE_STYLE_TARGET",
                "guideLayer": "QUEST_GUIDE_LAYER_UI"
            },
            "acceptCondComb": {
                "FDPBPIHKEGH": ""
            },
            "isRewind": true,
            "versionBegin": "",
            "versionEnd": ""
        },
        {
            "subId": 7103815,
            "mainId": 71038,
            "order": 15,
            "descTextMapHash": 61436852,
            "finishCond": [
                {
                    "type": "QUEST_CONTENT_COMPLETE_TALK",
                    "param": [
                        7103808,
                        0
                    ]
                }
            ],
            "guide": {
                "type": "QUEST_GUIDE_NPC",
                "autoGuide": "QUEST_GUIDE_AUTO_ENABLE",
                "param": [
                    "20523"
                ],
                "guideScene": 6,
                "guideStyle": "QUEST_GUIDE_STYLE_TARGET",
                "guideLayer": "QUEST_GUIDE_LAYER_UI"
            },
            "acceptCondComb": {
                "FDPBPIHKEGH": ""
            },
            "finishParent": true,
            "isRewind": true,
            "finishExec": [
                {
                    "type": "QUEST_EXEC_INIT_TIME_VAR",
                    "param": [
                        "0"
                    ]
                }
            ],
            "versionBegin": "",
            "versionEnd": ""
        },
        {
            "subId": 7103816,
            "mainId": 71038,
            "order": 3,
            "descTextMapHash": 3923429556,
            "showType": "QUEST_HIDDEN",
            "finishCond": [
                {
                    "type": "QUEST_CONTENT_COMPLETE_TALK",
                    "param": [
                        7103803,
                        0
                    ]
                }
            ],
            "guide": {},
            "acceptCondComb": {
                "FDPBPIHKEGH": ""
            },
            "isRewind": true,
            "versionBegin": "",
            "versionEnd": ""
        },
        {
            "subId": 7103817,
            "mainId": 71038,
            "order": 12,
            "descTextMapHash": 3993292452,
            "showType": "QUEST_HIDDEN",
            "finishCond": [
                {
                    "type": "QUEST_CONTENT_COMPLETE_TALK",
                    "param": [
                        7103816,
                        0
                    ]
                }
            ],
            "guide": {},
            "acceptCondComb": {
                "FDPBPIHKEGH": ""
            },
            "isRewind": true,
            "versionBegin": "",
            "versionEnd": ""
        }
    ],
    "talks": [
        {
            "id": 7103604,
            "beginWay": "TALK_BEGIN_MANUAL",
            "activeMode": "PLAY_MODE_HOST",
            "beginCond": [
                {
                    "type": "QUEST_COND_STATE_EQUAL",
                    "param": [
                        "7103801",
                        "2"
                    ]
                }
            ],
            "priority": 10,
            "initDialog": 710360401,
            "npcId": [
                20523
            ],
            "performCfg": "QuestDialogue/WQ/Liyue_71036/Q7103604",
            "heroTalk": "TALK_HERO_MAIN",
            "questId": 71038,
            "assetIndex": 17772633455873786102,
            "prePerformCfg": ""
        },
        {
            "id": 7103802,
            "beginWay": "TALK_BEGIN_MANUAL",
            "activeMode": "PLAY_MODE_HOST",
            "beginCond": [
                {
                    "type": "QUEST_COND_STATE_EQUAL",
                    "param": [
                        "7103802",
                        "2"
                    ]
                }
            ],
            "priority": 5,
            "initDialog": 710380201,
            "npcId": [
                2616,
                1005
            ],
            "performCfg": "QuestDialogue/WQ/Liyue_71038/Q7103802",
            "heroTalk": "TALK_HERO_MAIN",
            "questId": 71038,
            "assetIndex": 17928307865149756544,
            "prePerformCfg": "",
            "talkMarkType": "TALK_MARK_COMMON"
        },
        {
            "id": 7103803,
            "beginWay": "TALK_BEGIN_MANUAL",
            "activeMode": "PLAY_MODE_HOST",
            "beginCondComb": "LOGIC_AND",
            "beginCond": [
                {
                    "type": "QUEST_COND_STATE_EQUAL",
                    "param": [
                        "7103807",
                        "2"
                    ]
                },
                {
                    "type": "QUEST_COND_STATE_EQUAL",
                    "param": [
                        "7103816",
                        "2"
                    ]
                }
            ],
            "priority": 5,
            "initDialog": 710380301,
            "npcId": [
                2616
            ],
            "performCfg": "",
            "heroTalk": "TALK_HERO_MAIN",
            "questId": 71038,
            "assetIndex": 4812400597406320734,
            "prePerformCfg": ""
        },
        {
            "id": 7103804,
            "beginWay": "TALK_BEGIN_MANUAL",
            "activeMode": "PLAY_MODE_HOST",
            "beginCond": [
                {
                    "type": "QUEST_COND_STATE_EQUAL",
                    "param": [
                        "7103811",
                        "2"
                    ]
                }
            ],
            "priority": 5,
            "initDialog": 710380408,
            "npcId": [
                20523,
                1005
            ],
            "performCfg": "QuestDialogue/WQ/Liyue_71038/Q7103804",
            "heroTalk": "TALK_HERO_MAIN",
            "questId": 71038,
            "assetIndex": 6860587371142181016,
            "prePerformCfg": ""
        },
        {
            "id": 7103806,
            "beginWay": "TALK_BEGIN_AUTO",
            "activeMode": "PLAY_MODE_HOST",
            "beginCondComb": "LOGIC_AND",
            "beginCond": [
                {
                    "type": "QUEST_COND_STATE_EQUAL",
                    "param": [
                        "7103813",
                        "2"
                    ]
                }
            ],
            "priority": 5,
            "initDialog": 710380601,
            "npcId": [
                2616,
                1005
            ],
            "performCfg": "QuestDialogue/WQ/Liyue_71038/Q7103806",
            "heroTalk": "TALK_HERO_MAIN",
            "questId": 71038,
            "assetIndex": 360934331365666832,
            "prePerformCfg": ""
        },
        {
            "id": 7103807,
            "beginWay": "TALK_BEGIN_MANUAL",
            "activeMode": "PLAY_MODE_HOST",
            "beginCondComb": "LOGIC_AND",
            "beginCond": [
                {
                    "type": "QUEST_COND_STATE_EQUAL",
                    "param": [
                        "7103814",
                        "2"
                    ]
                },
                {
                    "type": "QUEST_COND_STATE_EQUAL",
                    "param": [
                        "7103813",
                        "3"
                    ]
                },
                {
                    "type": "QUEST_COND_ITEM_GIVING_ACTIVED",
                    "param": [
                        "7103814"
                    ]
                }
            ],
            "priority": 5,
            "initDialog": 710380701,
            "npcId": [
                20523,
                1005
            ],
            "performCfg": "QuestDialogue/WQ/Liyue_71038/Q7103807",
            "heroTalk": "TALK_HERO_MAIN",
            "questId": 71038,
            "assetIndex": 4851555800266095968,
            "prePerformCfg": ""
        },
        {
            "id": 7103808,
            "beginWay": "TALK_BEGIN_AUTO",
            "activeMode": "PLAY_MODE_HOST",
            "beginCondComb": "LOGIC_AND",
            "beginCond": [
                {
                    "type": "QUEST_COND_STATE_EQUAL",
                    "param": [
                        "7103815",
                        "2"
                    ]
                },
                {
                    "type": "QUEST_COND_STATE_EQUAL",
                    "param": [
                        "7103814",
                        "3"
                    ]
                }
            ],
            "priority": 5,
            "initDialog": 710380707,
            "npcId": [
                20523,
                1005
            ],
            "performCfg": "",
            "heroTalk": "TALK_HERO_MAIN",
            "questId": 71038,
            "assetIndex": 6165324194940760813,
            "prePerformCfg": ""
        },
        {
            "id": 7103816,
            "beginWay": "TALK_BEGIN_MANUAL",
            "activeMode": "PLAY_MODE_HOST",
            "beginCondComb": "LOGIC_AND",
            "beginCond": [
                {
                    "type": "QUEST_COND_STATE_EQUAL",
                    "param": [
                        "7103813",
                        "3"
                    ]
                },
                {
                    "type": "QUEST_COND_STATE_EQUAL",
                    "param": [
                        "7103817",
                        "2"
                    ]
                }
            ],
            "priority": 5,
            "initDialog": 710381601,
            "npcId": [
                2616
            ],
            "performCfg": "",
            "heroTalk": "TALK_HERO_MAIN",
            "questId": 71038,
            "assetIndex": 3727670826065883436,
            "prePerformCfg": ""
        }
    ],
    "FFDPMMFBDAE": [
        14457059026087496718
    ],
    "freeStyleDic": {
        "20523": [
            4190,
            4100
        ]
    }
}