{
    "id": 71057,
    "type": "WQ",
    "activeMode": "PLAY_MODE_ALL",
    "titleTextMapHash": 2072294255,
    "descTextMapHash": 886641846,
    "luaPath": "Actor/Quest/WQ71057",
    "rewardIdList": [
        171057
    ],
    "subQuests": [
        {
            "subId": 7105701,
            "mainId": 71057,
            "order": 1,
            "descTextMapHash": 933916292,
            "showType": "QUEST_HIDDEN",
            "finishCond": [
                {
                    "type": "QUEST_CONTENT_COMPLETE_TALK",
                    "param": [
                        7105707,
                        0
                    ]
                }
            ],
            "guide": {},
            "acceptCondComb": {
                "FDPBPIHKEGH": ""
            },
            "isRewind": true,
            "versionBegin": "",
            "versionEnd": ""
        },
        {
            "subId": 7105702,
            "mainId": 71057,
            "order": 2,
            "descTextMapHash": 856946932,
            "finishCond": [
                {
                    "type": "QUEST_CONTENT_COMPLETE_TALK",
                    "param": [
                        7105701,
                        0
                    ]
                }
            ],
            "guide": {
                "type": "QUEST_GUIDE_NPC",
                "autoGuide": "QUEST_GUIDE_AUTO_ENABLE",
                "param": [
                    "20534"
                ],
                "guideScene": 6,
                "guideStyle": "QUEST_GUIDE_STYLE_TARGET",
                "guideLayer": "QUEST_GUIDE_LAYER_UI"
            },
            "acceptCondComb": {
                "FDPBPIHKEGH": ""
            },
            "isRewind": true,
            "finishExec": [
                {
                    "type": "QUEST_EXEC_REFRESH_GROUP_SUITE",
                    "param": [
                        "6",
                        "166001095,2"
                    ]
                }
            ],
            "versionBegin": "",
            "versionEnd": ""
        },
        {
            "subId": 7105703,
            "mainId": 71057,
            "order": 3,
            "descTextMapHash": 1242796612,
            "stepDescTextMapHash": 491569237,
            "finishCond": [
                {
                    "type": "QUEST_CONTENT_LUA_NOTIFY",
                    "param": [
                        0,
                        0
                    ],
                    "count": 1
                }
            ],
            "guide": {
                "type": "QUEST_GUIDE_LOCATION",
                "autoGuide": "QUEST_GUIDE_AUTO_ENABLE",
                "param": [
                    "Q7105703_guide",
                    "30"
                ],
                "guideScene": 6,
                "guideStyle": "QUEST_GUIDE_STYLE_TARGET",
                "guideLayer": "QUEST_GUIDE_LAYER_SCENE"
            },
            "acceptCondComb": {
                "FDPBPIHKEGH": ""
            },
            "isRewind": true,
            "versionBegin": "",
            "versionEnd": ""
        },
        {
            "subId": 7105704,
            "mainId": 71057,
            "order": 4,
            "descTextMapHash": 972043780,
            "finishCond": [
                {
                    "type": "QUEST_CONTENT_LUA_NOTIFY",
                    "param": [
                        0,
                        0
                    ],
                    "count": 1
                }
            ],
            "guide": {
                "type": "QUEST_GUIDE_LOCATION",
                "autoGuide": "QUEST_GUIDE_AUTO_ENABLE",
                "param": [
                    "Q7105704_guide",
                    "30"
                ],
                "guideScene": 6,
                "guideStyle": "QUEST_GUIDE_STYLE_TARGET",
                "guideLayer": "QUEST_GUIDE_LAYER_SCENE"
            },
            "acceptCondComb": {
                "FDPBPIHKEGH": ""
            },
            "isRewind": true,
            "finishExec": [
                {
                    "type": "QUEST_EXEC_UNREGISTER_DYNAMIC_GROUP",
                    "param": [
                        "166001096",
                        "1"
                    ]
                }
            ],
            "versionBegin": "",
            "versionEnd": ""
        },
        {
            "subId": 7105705,
            "mainId": 71057,
            "order": 5,
            "descTextMapHash": 1633122140,
            "guide": {
                "type": "QUEST_GUIDE_NPC",
                "autoGuide": "QUEST_GUIDE_AUTO_ENABLE",
                "param": [
                    "20534"
                ],
                "guideScene": 6,
                "guideStyle": "QUEST_GUIDE_STYLE_TARGET",
                "guideLayer": "QUEST_GUIDE_LAYER_UI"
            },
            "acceptCondComb": {
                "FDPBPIHKEGH": ""
            },
            "isRewind": true,
            "versionBegin": "",
            "versionEnd": ""
        },
        {
            "subId": 7105706,
            "mainId": 71057,
            "order": 6,
            "descTextMapHash": 392204060,
            "finishCond": [
                {
                    "type": "QUEST_CONTENT_COMPLETE_TALK",
                    "param": [
                        7105702,
                        0
                    ]
                }
            ],
            "guide": {
                "type": "QUEST_GUIDE_NPC",
                "autoGuide": "QUEST_GUIDE_AUTO_ENABLE",
                "param": [
                    "20534"
                ],
                "guideScene": 6,
                "guideStyle": "QUEST_GUIDE_STYLE_TARGET",
                "guideLayer": "QUEST_GUIDE_LAYER_UI"
            },
            "acceptCondComb": {
                "FDPBPIHKEGH": ""
            },
            "isRewind": true,
            "finishExec": [
                {
                    "type": "QUEST_EXEC_UNREGISTER_DYNAMIC_GROUP",
                    "param": [
                        "166001613",
                        "1"
                    ]
                }
            ],
            "versionBegin": "",
            "versionEnd": ""
        },
        {
            "subId": 7105707,
            "mainId": 71057,
            "order": 7,
            "descTextMapHash": 878553516,
            "stepDescTextMapHash": 3709592453,
            "finishCond": [
                {
                    "type": "QUEST_CONTENT_COMPLETE_TALK",
                    "param": [
                        7105703,
                        0
                    ]
                }
            ],
            "failCond": [
                {
                    "type": "QUEST_CONTENT_QUEST_STATE_EQUAL",
                    "param": [
                        7105709,
                        2
                    ]
                }
            ],
            "guide": {
                "type": "QUEST_GUIDE_LOCATION",
                "autoGuide": "QUEST_GUIDE_AUTO_ENABLE",
                "param": [
                    "Q7104201_AWU",
                    "15"
                ],
                "guideScene": 6,
                "guideStyle": "QUEST_GUIDE_STYLE_TARGET",
                "guideLayer": "QUEST_GUIDE_LAYER_SCENE"
            },
            "acceptCondComb": {
                "FDPBPIHKEGH": ""
            },
            "finishParent": true,
            "isRewind": true,
            "versionBegin": "",
            "versionEnd": ""
        },
        {
            "subId": 7105708,
            "mainId": 71057,
            "order": 8,
            "descTextMapHash": 3178114476,
            "stepDescTextMapHash": 4291170637,
            "finishCond": [
                {
                    "type": "QUEST_CONTENT_COMPLETE_TALK",
                    "param": [
                        7105704,
                        0
                    ]
                }
            ],
            "failCond": [
                {
                    "type": "QUEST_CONTENT_QUEST_STATE_EQUAL",
                    "param": [
                        7105707,
                        2
                    ]
                },
                {
                    "type": "QUEST_CONTENT_QUEST_STATE_EQUAL",
                    "param": [
                        7105709,
                        2
                    ]
                }
            ],
            "guide": {
                "type": "QUEST_GUIDE_LOCATION",
                "autoGuide": "QUEST_GUIDE_AUTO_ENABLE",
                "param": [
                    "Q7104201_AWU",
                    "15"
                ],
                "guideScene": 6,
                "guideStyle": "QUEST_GUIDE_STYLE_TARGET",
                "guideLayer": "QUEST_GUIDE_LAYER_SCENE"
            },
            "acceptCondComb": {
                "FDPBPIHKEGH": ""
            },
            "finishParent": true,
            "isRewind": true,
            "versionBegin": "",
            "versionEnd": ""
        },
        {
            "subId": 7105709,
            "mainId": 71057,
            "order": 9,
            "descTextMapHash": 985518116,
            "stepDescTextMapHash": 4138094493,
            "finishCond": [
                {
                    "type": "QUEST_CONTENT_COMPLETE_TALK",
                    "param": [
                        7105706,
                        0
                    ]
                }
            ],
            "guide": {
                "type": "QUEST_GUIDE_NPC",
                "autoGuide": "QUEST_GUIDE_AUTO_ENABLE",
                "param": [
                    "2616"
                ],
                "guideScene": 6,
                "guideStyle": "QUEST_GUIDE_STYLE_TARGET",
                "guideLayer": "QUEST_GUIDE_LAYER_UI"
            },
            "acceptCondComb": {
                "FDPBPIHKEGH": ""
            },
            "finishParent": true,
            "isRewind": true,
            "versionBegin": "",
            "versionEnd": ""
        }
    ],
    "talks": [
        {
            "id": 7105701,
            "beginWay": "TALK_BEGIN_AUTO",
            "activeMode": "PLAY_MODE_HOST",
            "beginCond": [
                {
                    "type": "QUEST_COND_STATE_EQUAL",
                    "param": [
                        "7105702",
                        "2"
                    ]
                }
            ],
            "priority": 5,
            "initDialog": 710570133,
            "npcId": [
                20534,
                1005
            ],
            "performCfg": "QuestDialogue/WQ/Liyue_71057/Q7105701",
            "heroTalk": "TALK_HERO_MAIN",
            "questId": 71057,
            "assetIndex": 18007397520431688863,
            "prePerformCfg": ""
        },
        {
            "id": 7105702,
            "beginWay": "TALK_BEGIN_MANUAL",
            "activeMode": "PLAY_MODE_HOST",
            "beginCond": [
                {
                    "type": "QUEST_COND_STATE_EQUAL",
                    "param": [
                        "7105706",
                        "2"
                    ]
                }
            ],
            "priority": 5,
            "initDialog": 710570201,
            "npcId": [
                1005,
                20534
            ],
            "performCfg": "QuestDialogue/WQ/Liyue_71057/Q7105702",
            "questId": 71057,
            "assetIndex": 5281816918863403956,
            "prePerformCfg": ""
        },
        {
            "id": 7105703,
            "beginWay": "TALK_BEGIN_MANUAL",
            "activeMode": "PLAY_MODE_HOST",
            "beginCond": [
                {
                    "type": "QUEST_COND_STATE_EQUAL",
                    "param": [
                        "7105707",
                        "2"
                    ]
                }
            ],
            "priority": 5,
            "initDialog": 710570301,
            "npcId": [
                20534,
                2616,
                1005,
                2618
            ],
            "performCfg": "QuestDialogue/WQ/Liyue_71057/Q7105703",
            "questId": 71057,
            "assetIndex": 10305183411614550707,
            "prePerformCfg": ""
        },
        {
            "id": 7105704,
            "beginWay": "TALK_BEGIN_MANUAL",
            "activeMode": "PLAY_MODE_HOST",
            "beginCond": [
                {
                    "type": "QUEST_COND_STATE_EQUAL",
                    "param": [
                        "7105708",
                        "2"
                    ]
                }
            ],
            "priority": 5,
            "initDialog": 710570401,
            "npcId": [
                20534,
                2616,
                1005
            ],
            "performCfg": "QuestDialogue/WQ/Liyue_71057/Q7105704",
            "questId": 71057,
            "assetIndex": 7488122652482754871,
            "prePerformCfg": ""
        },
        {
            "id": 7105706,
            "beginWay": "TALK_BEGIN_MANUAL",
            "activeMode": "PLAY_MODE_HOST",
            "beginCond": [
                {
                    "type": "QUEST_COND_STATE_EQUAL",
                    "param": [
                        "7105709",
                        "2"
                    ]
                }
            ],
            "priority": 5,
            "initDialog": 710570601,
            "npcId": [
                20534,
                2616,
                1005,
                2618
            ],
            "performCfg": "QuestDialogue/WQ/Liyue_71057/Q7105706",
            "questId": 71057,
            "assetIndex": 9187689844120778351,
            "prePerformCfg": ""
        },
        {
            "id": 7105712,
            "beginWay": "TALK_BEGIN_MANUAL",
            "activeMode": "PLAY_MODE_HOST",
            "beginCondComb": "LOGIC_OR",
            "beginCond": [
                {
                    "type": "QUEST_COND_STATE_EQUAL",
                    "param": [
                        "7105707",
                        "3"
                    ]
                },
                {
                    "type": "QUEST_COND_STATE_EQUAL",
                    "param": [
                        "7105708",
                        "3"
                    ]
                },
                {
                    "type": "QUEST_COND_STATE_EQUAL",
                    "param": [
                        "7105709",
                        "3"
                    ]
                }
            ],
            "priority": 5,
            "initDialog": 710571201,
            "npcId": [
                20534
            ],
            "performCfg": "",
            "heroTalk": "TALK_HERO_MAIN",
            "questId": 71057,
            "assetIndex": 12436594654321654120,
            "prePerformCfg": "",
            "questIdleTalk": true
        }
    ]
}