{
    "id": 71069,
    "type": "WQ",
    "activeMode": "PLAY_MODE_ALL",
    "titleTextMapHash": 296894063,
    "luaPath": "Actor/Quest/WQ71069",
    "subQuests": [
        {
            "subId": 7106901,
            "mainId": 71069,
            "order": 1,
            "descTextMapHash": 3371497796,
            "finishCond": [
                {
                    "type": "QUEST_CONTENT_QUEST_STATE_EQUAL",
                    "param": [
                        99902,
                        3
                    ]
                }
            ],
            "guide": {},
            "acceptCondComb": {
                "FDPBPIHKEGH": ""
            },
            "finishParent": true,
            "isRewind": true,
            "versionBegin": "",
            "versionEnd": ""
        }
    ],
    "talks": [
        {
            "id": 7106901,
            "beginWay": "TALK_BEGIN_MANUAL",
            "activeMode": "PLAY_MODE_ALL",
            "beginCond": [
                {
                    "type": "QUEST_COND_STATE_EQUAL",
                    "param": [
                        "7106901",
                        "2"
                    ]
                }
            ],
            "priority": 5,
            "initDialog": 710690101,
            "npcId": [
                2061,
                20006
            ],
            "performCfg": "",
            "heroTalk": "TALK_HERO_MAIN",
            "questId": 71069,
            "assetIndex": 3060454513605816681,
            "prePerformCfg": ""
        }
    ]
}