{
    "id": 71074,
    "type": "WQ",
    "activeMode": "PLAY_MODE_ALL",
    "titleTextMapHash": 26500279,
    "descTextMapHash": 1859576030,
    "luaPath": "Actor/Quest/WQ71074",
    "rewardIdList": [
        171074
    ],
    "subQuests": [
        {
            "subId": 7107401,
            "mainId": 71074,
            "order": 1,
            "descTextMapHash": 1740602204,
            "showType": "QUEST_HIDDEN",
            "finishCond": [
                {
                    "type": "QUEST_CONTENT_COMPLETE_TALK",
                    "param": [
                        7107401,
                        0
                    ]
                },
                {
                    "type": "QUEST_CONTENT_COMPLETE_TALK",
                    "param": [
                        7107402,
                        0
                    ]
                }
            ],
            "guide": {},
            "acceptCondComb": {
                "FDPBPIHKEGH": ""
            },
            "failParentShow": "QUEST_HIDDEN",
            "isRewind": true,
            "versionBegin": "",
            "versionEnd": ""
        },
        {
            "subId": 7107402,
            "mainId": 71074,
            "order": 2,
            "descTextMapHash": 1748791604,
            "finishCond": [
                {
                    "type": "QUEST_CONTENT_FINISH_ITEM_GIVING",
                    "param": [
                        7107401,
                        0
                    ]
                }
            ],
            "guide": {
                "type": "QUEST_GUIDE_NPC",
                "autoGuide": "QUEST_GUIDE_AUTO_ENABLE",
                "param": [
                    "2061"
                ],
                "guideScene": 3,
                "guideStyle": "QUEST_GUIDE_STYLE_TARGET",
                "guideLayer": "QUEST_GUIDE_LAYER_SCENE"
            },
            "acceptCondComb": {
                "FDPBPIHKEGH": ""
            },
            "isRewind": true,
            "versionBegin": "",
            "versionEnd": ""
        },
        {
            "subId": 7107403,
            "mainId": 71074,
            "order": 3,
            "descTextMapHash": 1247977932,
            "finishCond": [
                {
                    "type": "QUEST_CONTENT_COMPLETE_TALK",
                    "param": [
                        7107404,
                        0
                    ]
                }
            ],
            "guide": {
                "type": "QUEST_GUIDE_NPC",
                "autoGuide": "QUEST_GUIDE_AUTO_ENABLE",
                "param": [
                    "2061"
                ],
                "guideScene": 3,
                "guideStyle": "QUEST_GUIDE_STYLE_TARGET",
                "guideLayer": "QUEST_GUIDE_LAYER_SCENE"
            },
            "acceptCondComb": {
                "FDPBPIHKEGH": ""
            },
            "finishParent": true,
            "isRewind": true,
            "versionBegin": "",
            "versionEnd": ""
        },
        {
            "subId": 7107404,
            "mainId": 71074,
            "order": 4,
            "descTextMapHash": 651711796,
            "finishCond": [
                {
                    "type": "QUEST_CONTENT_FINISH_ITEM_GIVING",
                    "param": [
                        7107402,
                        0
                    ]
                }
            ],
            "guide": {
                "type": "QUEST_GUIDE_NPC",
                "autoGuide": "QUEST_GUIDE_AUTO_ENABLE",
                "param": [
                    "2061"
                ],
                "guideScene": 3,
                "guideStyle": "QUEST_GUIDE_STYLE_TARGET",
                "guideLayer": "QUEST_GUIDE_LAYER_SCENE"
            },
            "acceptCondComb": {
                "FDPBPIHKEGH": ""
            },
            "isRewind": true,
            "versionBegin": "",
            "versionEnd": ""
        },
        {
            "subId": 7107405,
            "mainId": 71074,
            "order": 5,
            "descTextMapHash": 2979413364,
            "finishCond": [
                {
                    "type": "QUEST_CONTENT_COMPLETE_TALK",
                    "param": [
                        7107406,
                        0
                    ]
                }
            ],
            "guide": {
                "type": "QUEST_GUIDE_NPC",
                "autoGuide": "QUEST_GUIDE_AUTO_ENABLE",
                "param": [
                    "2061"
                ],
                "guideScene": 3,
                "guideStyle": "QUEST_GUIDE_STYLE_TARGET",
                "guideLayer": "QUEST_GUIDE_LAYER_SCENE"
            },
            "acceptCondComb": {
                "FDPBPIHKEGH": ""
            },
            "isRewind": true,
            "versionBegin": "",
            "versionEnd": ""
        },
        {
            "subId": 7107406,
            "mainId": 71074,
            "order": 6,
            "descTextMapHash": 2433383788,
            "finishCond": [
                {
                    "type": "QUEST_CONTENT_FINISH_ITEM_GIVING",
                    "param": [
                        7107403,
                        0
                    ]
                }
            ],
            "guide": {
                "type": "QUEST_GUIDE_NPC",
                "autoGuide": "QUEST_GUIDE_AUTO_ENABLE",
                "param": [
                    "2061"
                ],
                "guideScene": 3,
                "guideStyle": "QUEST_GUIDE_STYLE_TARGET",
                "guideLayer": "QUEST_GUIDE_LAYER_SCENE"
            },
            "acceptCondComb": {
                "FDPBPIHKEGH": ""
            },
            "isRewind": true,
            "versionBegin": "",
            "versionEnd": ""
        },
        {
            "subId": 7107407,
            "mainId": 71074,
            "order": 7,
            "descTextMapHash": 3696666948,
            "finishCond": [
                {
                    "type": "QUEST_CONTENT_COMPLETE_TALK",
                    "param": [
                        7107408,
                        0
                    ]
                }
            ],
            "guide": {
                "type": "QUEST_GUIDE_NPC",
                "autoGuide": "QUEST_GUIDE_AUTO_ENABLE",
                "param": [
                    "2061"
                ],
                "guideScene": 3,
                "guideStyle": "QUEST_GUIDE_STYLE_TARGET",
                "guideLayer": "QUEST_GUIDE_LAYER_SCENE"
            },
            "acceptCondComb": {
                "FDPBPIHKEGH": ""
            },
            "finishParent": true,
            "isRewind": true,
            "versionBegin": "",
            "versionEnd": ""
        },
        {
            "subId": 7107408,
            "mainId": 71074,
            "order": 8,
            "descTextMapHash": 2307562548,
            "showType": "QUEST_HIDDEN",
            "finishCond": [
                {
                    "type": "QUEST_CONTENT_OBTAIN_ITEM",
                    "param": [
                        100831,
                        0
                    ],
                    "count": 1
                }
            ],
            "guide": {},
            "showGuide": "QUEST_GUIDE_ITEM_DISABLE",
            "acceptCondComb": {
                "FDPBPIHKEGH": ""
            },
            "failParentShow": "QUEST_HIDDEN",
            "isRewind": true,
            "versionBegin": "",
            "versionEnd": ""
        }
    ],
    "talks": [
        {
            "id": 7107401,
            "beginWay": "TALK_BEGIN_MANUAL",
            "activeMode": "PLAY_MODE_HOST",
            "beginCondComb": "LOGIC_AND",
            "beginCond": [
                {
                    "type": "QUEST_COND_STATE_EQUAL",
                    "param": [
                        "7107401",
                        "2"
                    ]
                },
                {
                    "type": "QUEST_COND_PACK_HAVE_ITEM",
                    "param": [
                        "100831",
                        "1"
                    ]
                }
            ],
            "priority": 6,
            "initDialog": 710740101,
            "npcId": [
                2061
            ],
            "performCfg": "QuestDialogue/WQ/Liyue_71074/Q7107401",
            "heroTalk": "TALK_HERO_MAIN",
            "questId": 71074,
            "assetIndex": 17956262669306874231,
            "prePerformCfg": "",
            "talkMarkType": "TALK_MARK_COMMON"
        },
        {
            "id": 7107402,
            "beginWay": "TALK_BEGIN_MANUAL",
            "activeMode": "PLAY_MODE_HOST",
            "beginCondComb": "LOGIC_AND",
            "beginCond": [
                {
                    "type": "QUEST_COND_STATE_EQUAL",
                    "param": [
                        "7107401",
                        "2"
                    ]
                },
                {
                    "type": "QUEST_COND_ITEM_NUM_LESS_THAN",
                    "param": [
                        "100831",
                        "1"
                    ]
                }
            ],
            "priority": 6,
            "initDialog": 710740201,
            "npcId": [
                2061
            ],
            "performCfg": "QuestDialogue/WQ/Liyue_71074/Q7107402",
            "heroTalk": "TALK_HERO_MAIN",
            "questId": 71074,
            "assetIndex": 16234310554218010593,
            "prePerformCfg": "",
            "talkMarkType": "TALK_MARK_COMMON"
        },
        {
            "id": 7107403,
            "beginWay": "TALK_BEGIN_MANUAL",
            "activeMode": "PLAY_MODE_HOST",
            "beginCond": [
                {
                    "type": "QUEST_COND_ITEM_GIVING_ACTIVED",
                    "param": [
                        "7107401"
                    ]
                }
            ],
            "priority": 6,
            "initDialog": 710740301,
            "npcId": [
                2061
            ],
            "performCfg": "QuestDialogue/WQ/Liyue_71074/Q7107403",
            "heroTalk": "TALK_HERO_MAIN",
            "questId": 71074,
            "assetIndex": 4479874393172574170,
            "prePerformCfg": "",
            "lowPriority": true
        },
        {
            "id": 7107404,
            "beginWay": "TALK_BEGIN_AUTO",
            "activeMode": "PLAY_MODE_HOST",
            "beginCond": [
                {
                    "type": "QUEST_COND_STATE_EQUAL",
                    "param": [
                        "7107403",
                        "2"
                    ]
                }
            ],
            "priority": 6,
            "initDialog": 710740401,
            "npcId": [
                2061,
                1005
            ],
            "performCfg": "QuestDialogue/WQ/Liyue_71074/Q7107404",
            "heroTalk": "TALK_HERO_MAIN",
            "questId": 71074,
            "assetIndex": 15014086099357375509,
            "prePerformCfg": ""
        },
        {
            "id": 7107405,
            "beginWay": "TALK_BEGIN_MANUAL",
            "activeMode": "PLAY_MODE_HOST",
            "beginCond": [
                {
                    "type": "QUEST_COND_STATE_EQUAL",
                    "param": [
                        "99902",
                        "3"
                    ]
                }
            ],
            "priority": 6,
            "initDialog": 710740501,
            "npcId": [
                2061
            ],
            "performCfg": "QuestDialogue/WQ/Liyue_71074/Q7107405",
            "heroTalk": "TALK_HERO_MAIN",
            "questId": 71074,
            "assetIndex": 4370147993212086142,
            "prePerformCfg": ""
        },
        {
            "id": 7107406,
            "beginWay": "TALK_BEGIN_AUTO",
            "activeMode": "PLAY_MODE_HOST",
            "beginCond": [
                {
                    "type": "QUEST_COND_STATE_EQUAL",
                    "param": [
                        "99902",
                        "3"
                    ]
                }
            ],
            "priority": 6,
            "initDialog": 710740601,
            "npcId": [
                2061,
                1005
            ],
            "performCfg": "QuestDialogue/WQ/Liyue_71074/Q7107406",
            "heroTalk": "TALK_HERO_MAIN",
            "questId": 71074,
            "assetIndex": 11350592991156125925,
            "prePerformCfg": ""
        },
        {
            "id": 7107407,
            "beginWay": "TALK_BEGIN_MANUAL",
            "activeMode": "PLAY_MODE_HOST",
            "beginCond": [
                {
                    "type": "QUEST_COND_STATE_EQUAL",
                    "param": [
                        "99902",
                        "3"
                    ]
                }
            ],
            "priority": 6,
            "initDialog": 710740701,
            "npcId": [
                2061
            ],
            "performCfg": "QuestDialogue/WQ/Liyue_71074/Q7107407",
            "heroTalk": "TALK_HERO_MAIN",
            "questId": 71074,
            "assetIndex": 4627588499959875345,
            "prePerformCfg": ""
        },
        {
            "id": 7107408,
            "beginWay": "TALK_BEGIN_AUTO",
            "activeMode": "PLAY_MODE_HOST",
            "beginCond": [
                {
                    "type": "QUEST_COND_STATE_EQUAL",
                    "param": [
                        "99902",
                        "3"
                    ]
                }
            ],
            "priority": 6,
            "initDialog": 710740801,
            "npcId": [
                2061,
                1005
            ],
            "performCfg": "QuestDialogue/WQ/Liyue_71074/Q7107408",
            "heroTalk": "TALK_HERO_MAIN",
            "questId": 71074,
            "assetIndex": 4763169128451901058,
            "prePerformCfg": ""
        }
    ]
}