{
    "id": 71519,
    "type": "WQ",
    "activeMode": "PLAY_MODE_ALL",
    "descTextMapHash": 1721481534,
    "luaPath": "Actor/Quest/WQ71519",
    "showType": "QUEST_HIDDEN",
    "activityId": 2019,
    "subQuests": [
        {
            "subId": 7151901,
            "mainId": 71519,
            "order": 1,
            "showType": "QUEST_HIDDEN",
            "finishCond": [
                {
                    "type": "QUEST_CONTENT_FINISH_PLOT",
                    "param": [
                        7151901,
                        0
                    ]
                }
            ],
            "guide": {},
            "acceptCondComb": {
                "FDPBPIHKEGH": ""
            },
            "isRewind": true,
            "versionBegin": "",
            "versionEnd": ""
        }
    ],
    "FFDPMMFBDAE": [
        8618648996813652395
    ],
    "IGKJEKALOKN": [
        15127933422858312717
    ]
}