{
    "id": 72104,
    "type": "WQ",
    "activeMode": "PLAY_MODE_ALL",
    "titleTextMapHash": 3152127575,
    "luaPath": "Actor/Quest/WQ72104",
    "showType": "QUEST_HIDDEN",
    "subQuests": [
        {
            "subId": 7210401,
            "mainId": 72104,
            "order": 15,
            "descTextMapHash": 1113229620,
            "showType": "QUEST_HIDDEN",
            "finishCond": [
                {
                    "type": "QUEST_CONTENT_FINISH_ITEM_GIVING",
                    "param": [
                        7210401,
                        0
                    ]
                }
            ],
            "guide": {},
            "acceptCondComb": {
                "FDPBPIHKEGH": ""
            },
            "isRewind": true,
            "finishExec": [
                {
                    "type": "QUEST_EXEC_DEL_PACK_ITEM",
                    "param": [
                        "100789",
                        "1"
                    ]
                },
                {
                    "type": "QUEST_EXEC_SET_QUEST_VAR",
                    "param": [
                        "0",
                        "1"
                    ]
                }
            ],
            "versionBegin": "",
            "versionEnd": ""
        },
        {
            "subId": 7210402,
            "mainId": 72104,
            "order": 16,
            "descTextMapHash": 1440865604,
            "showType": "QUEST_HIDDEN",
            "finishCond": [
                {
                    "type": "QUEST_CONTENT_FINISH_ITEM_GIVING",
                    "param": [
                        7210402,
                        0
                    ]
                }
            ],
            "guide": {},
            "acceptCondComb": {
                "FDPBPIHKEGH": ""
            },
            "isRewind": true,
            "finishExec": [
                {
                    "type": "QUEST_EXEC_DEL_PACK_ITEM",
                    "param": [
                        "100790",
                        "1"
                    ]
                },
                {
                    "type": "QUEST_EXEC_SET_QUEST_VAR",
                    "param": [
                        "0",
                        "1"
                    ]
                }
            ],
            "versionBegin": "",
            "versionEnd": ""
        },
        {
            "subId": 7210403,
            "mainId": 72104,
            "order": 17,
            "descTextMapHash": 3850261036,
            "showType": "QUEST_HIDDEN",
            "finishCond": [
                {
                    "type": "QUEST_CONTENT_FINISH_ITEM_GIVING",
                    "param": [
                        7210403,
                        0
                    ]
                }
            ],
            "guide": {},
            "acceptCondComb": {
                "FDPBPIHKEGH": ""
            },
            "isRewind": true,
            "finishExec": [
                {
                    "type": "QUEST_EXEC_DEL_PACK_ITEM",
                    "param": [
                        "100791",
                        "1"
                    ]
                },
                {
                    "type": "QUEST_EXEC_SET_QUEST_VAR",
                    "param": [
                        "0",
                        "1"
                    ]
                }
            ],
            "versionBegin": "",
            "versionEnd": ""
        },
        {
            "subId": 7210404,
            "mainId": 72104,
            "order": 18,
            "descTextMapHash": 3006957964,
            "showType": "QUEST_HIDDEN",
            "finishCond": [
                {
                    "type": "QUEST_CONTENT_FINISH_ITEM_GIVING",
                    "param": [
                        7210404,
                        0
                    ]
                }
            ],
            "guide": {},
            "acceptCondComb": {
                "FDPBPIHKEGH": ""
            },
            "isRewind": true,
            "finishExec": [
                {
                    "type": "QUEST_EXEC_DEL_PACK_ITEM",
                    "param": [
                        "100792",
                        "1"
                    ]
                },
                {
                    "type": "QUEST_EXEC_SET_QUEST_VAR",
                    "param": [
                        "0",
                        "1"
                    ]
                }
            ],
            "versionBegin": "",
            "versionEnd": ""
        },
        {
            "subId": 7210405,
            "mainId": 72104,
            "order": 19,
            "descTextMapHash": 2846489476,
            "showType": "QUEST_HIDDEN",
            "finishCond": [
                {
                    "type": "QUEST_CONTENT_FINISH_ITEM_GIVING",
                    "param": [
                        7210405,
                        0
                    ]
                }
            ],
            "guide": {},
            "acceptCondComb": {
                "FDPBPIHKEGH": ""
            },
            "isRewind": true,
            "finishExec": [
                {
                    "type": "QUEST_EXEC_DEL_PACK_ITEM",
                    "param": [
                        "100793",
                        "1"
                    ]
                },
                {
                    "type": "QUEST_EXEC_SET_QUEST_VAR",
                    "param": [
                        "0",
                        "1"
                    ]
                }
            ],
            "versionBegin": "",
            "versionEnd": ""
        },
        {
            "subId": 7210406,
            "mainId": 72104,
            "order": 20,
            "descTextMapHash": 4128180844,
            "showType": "QUEST_HIDDEN",
            "finishCond": [
                {
                    "type": "QUEST_CONTENT_FINISH_ITEM_GIVING",
                    "param": [
                        7210406,
                        0
                    ]
                }
            ],
            "guide": {},
            "acceptCondComb": {
                "FDPBPIHKEGH": ""
            },
            "isRewind": true,
            "finishExec": [
                {
                    "type": "QUEST_EXEC_DEL_PACK_ITEM",
                    "param": [
                        "100794",
                        "1"
                    ]
                },
                {
                    "type": "QUEST_EXEC_SET_QUEST_VAR",
                    "param": [
                        "0",
                        "1"
                    ]
                }
            ],
            "versionBegin": "",
            "versionEnd": ""
        },
        {
            "subId": 7210407,
            "mainId": 72104,
            "order": 21,
            "descTextMapHash": 3049512700,
            "showType": "QUEST_HIDDEN",
            "finishCond": [
                {
                    "type": "QUEST_CONTENT_FINISH_ITEM_GIVING",
                    "param": [
                        7210407,
                        0
                    ]
                }
            ],
            "guide": {},
            "acceptCondComb": {
                "FDPBPIHKEGH": ""
            },
            "isRewind": true,
            "finishExec": [
                {
                    "type": "QUEST_EXEC_DEL_PACK_ITEM",
                    "param": [
                        "100795",
                        "1"
                    ]
                },
                {
                    "type": "QUEST_EXEC_SET_QUEST_VAR",
                    "param": [
                        "0",
                        "1"
                    ]
                }
            ],
            "versionBegin": "",
            "versionEnd": ""
        },
        {
            "subId": 7210408,
            "mainId": 72104,
            "order": 31,
            "descTextMapHash": 717104156,
            "showType": "QUEST_HIDDEN",
            "finishCond": [
                {
                    "type": "QUEST_CONTENT_FINISH_ITEM_GIVING",
                    "param": [
                        7210408,
                        0
                    ]
                }
            ],
            "guide": {},
            "acceptCondComb": {
                "FDPBPIHKEGH": ""
            },
            "isRewind": true,
            "versionBegin": "",
            "versionEnd": ""
        },
        {
            "subId": 7210409,
            "mainId": 72104,
            "order": 32,
            "descTextMapHash": 4229723884,
            "showType": "QUEST_HIDDEN",
            "finishCond": [
                {
                    "type": "QUEST_CONTENT_FINISH_ITEM_GIVING",
                    "param": [
                        7210409,
                        0
                    ]
                }
            ],
            "guide": {},
            "acceptCondComb": {
                "FDPBPIHKEGH": ""
            },
            "isRewind": true,
            "versionBegin": "",
            "versionEnd": ""
        },
        {
            "subId": 7210410,
            "mainId": 72104,
            "order": 33,
            "descTextMapHash": 570819588,
            "showType": "QUEST_HIDDEN",
            "finishCond": [
                {
                    "type": "QUEST_CONTENT_FINISH_ITEM_GIVING",
                    "param": [
                        7210410,
                        0
                    ]
                }
            ],
            "guide": {},
            "acceptCondComb": {
                "FDPBPIHKEGH": ""
            },
            "isRewind": true,
            "versionBegin": "",
            "versionEnd": ""
        },
        {
            "subId": 7210411,
            "mainId": 72104,
            "order": 34,
            "descTextMapHash": 1867378892,
            "showType": "QUEST_HIDDEN",
            "finishCond": [
                {
                    "type": "QUEST_CONTENT_FINISH_PLOT",
                    "param": [
                        7210411,
                        0
                    ]
                }
            ],
            "guide": {},
            "acceptCondComb": {
                "FDPBPIHKEGH": ""
            },
            "isRewind": true,
            "versionBegin": "",
            "versionEnd": ""
        },
        {
            "subId": 7210412,
            "mainId": 72104,
            "order": 35,
            "descTextMapHash": 3551055628,
            "showType": "QUEST_HIDDEN",
            "finishCond": [
                {
                    "type": "QUEST_CONTENT_QUEST_VAR_EQUAL",
                    "param": [
                        2,
                        2
                    ]
                }
            ],
            "guide": {},
            "acceptCondComb": {
                "FDPBPIHKEGH": ""
            },
            "isRewind": true,
            "versionBegin": "",
            "versionEnd": ""
        },
        {
            "subId": 7210413,
            "mainId": 72104,
            "order": 36,
            "descTextMapHash": 1332155604,
            "showType": "QUEST_HIDDEN",
            "finishCond": [
                {
                    "type": "QUEST_CONTENT_FINISH_PLOT",
                    "param": [
                        7210413,
                        0
                    ]
                }
            ],
            "guide": {},
            "acceptCondComb": {
                "FDPBPIHKEGH": ""
            },
            "isRewind": true,
            "versionBegin": "",
            "versionEnd": ""
        },
        {
            "subId": 7210414,
            "mainId": 72104,
            "order": 37,
            "descTextMapHash": 486343932,
            "showType": "QUEST_HIDDEN",
            "finishCond": [
                {
                    "type": "QUEST_CONTENT_FINISH_ITEM_GIVING",
                    "param": [
                        7210414,
                        0
                    ]
                }
            ],
            "guide": {},
            "acceptCondComb": {
                "FDPBPIHKEGH": ""
            },
            "isRewind": true,
            "finishExec": [
                {
                    "type": "QUEST_EXEC_SET_QUEST_VAR",
                    "param": [
                        "2",
                        "1"
                    ]
                },
                {
                    "type": "QUEST_EXEC_SET_QUEST_VAR",
                    "param": [
                        "1",
                        "0"
                    ]
                }
            ],
            "versionBegin": "",
            "versionEnd": ""
        },
        {
            "subId": 7210415,
            "mainId": 72104,
            "order": 2,
            "descTextMapHash": 2603710140,
            "showType": "QUEST_HIDDEN",
            "finishCond": [
                {
                    "type": "QUEST_CONTENT_FINISH_PLOT",
                    "param": [
                        7210415,
                        0
                    ]
                }
            ],
            "guide": {},
            "acceptCondComb": {
                "FDPBPIHKEGH": ""
            },
            "isRewind": true,
            "versionBegin": "",
            "versionEnd": ""
        },
        {
            "subId": 7210416,
            "mainId": 72104,
            "order": 8,
            "descTextMapHash": 3373661756,
            "showType": "QUEST_HIDDEN",
            "finishCond": [
                {
                    "type": "QUEST_CONTENT_COMPLETE_TALK",
                    "param": [
                        7210416,
                        0
                    ]
                }
            ],
            "guide": {},
            "acceptCondComb": {
                "FDPBPIHKEGH": ""
            },
            "isRewind": true,
            "finishExec": [
                {
                    "type": "QUEST_EXEC_DEL_ALL_SPECIFIC_PACK_ITEM",
                    "param": [
                        "100789,100790,100791,100792,100793,100794,100795,100796,100797"
                    ]
                },
                {
                    "type": "QUEST_EXEC_DEL_ALL_SPECIFIC_PACK_ITEM",
                    "param": [
                        "100908,100909,100910,100911,100912,100913,100914,100798,100799,100800,100801,100802,100803,100804,100805,100806,100868,100869,100870,100871,100872,100873,100874"
                    ]
                },
                {
                    "type": "QUEST_EXEC_SET_QUEST_VAR",
                    "param": [
                        "1",
                        "0"
                    ]
                }
            ],
            "versionBegin": "",
            "versionEnd": ""
        },
        {
            "subId": 7210417,
            "mainId": 72104,
            "order": 9,
            "descTextMapHash": 3007773532,
            "showType": "QUEST_HIDDEN",
            "finishCond": [
                {
                    "type": "QUEST_CONTENT_COMPLETE_TALK",
                    "param": [
                        7210417,
                        0
                    ]
                }
            ],
            "guide": {},
            "acceptCondComb": {
                "FDPBPIHKEGH": ""
            },
            "isRewind": true,
            "finishExec": [
                {
                    "type": "QUEST_EXEC_SET_QUEST_VAR",
                    "param": [
                        "1",
                        "0"
                    ]
                },
                {
                    "type": "QUEST_EXEC_DEL_ALL_SPECIFIC_PACK_ITEM",
                    "param": [
                        "100789,100790,100791,100792,100793,100794,100795,100796,100797,100908,100909,100910,100911,100912,100913,100914,100805,100806,100798,100799,100800,100801,100802,100803,100804,100868,100869,100870,100871,100872,100873,100874"
                    ]
                }
            ],
            "versionBegin": "",
            "versionEnd": ""
        },
        {
            "subId": 7210418,
            "mainId": 72104,
            "order": 10,
            "descTextMapHash": 541439324,
            "showType": "QUEST_HIDDEN",
            "finishCond": [
                {
                    "type": "QUEST_CONTENT_COMPLETE_TALK",
                    "param": [
                        7210418,
                        0
                    ]
                }
            ],
            "guide": {},
            "acceptCondComb": {
                "FDPBPIHKEGH": ""
            },
            "isRewind": true,
            "finishExec": [
                {
                    "type": "QUEST_EXEC_SET_QUEST_VAR",
                    "param": [
                        "1",
                        "0"
                    ]
                },
                {
                    "type": "QUEST_EXEC_DEL_ALL_SPECIFIC_PACK_ITEM",
                    "param": [
                        "100789,100790,100791,100792,100793,100794,100795,100796,100797,100908,100909,100910,100911,100912,100913,100914,100798,100799,100800,100801,100802,100803,100804,100805,100806,100868,100869,100870,100871,100872,100873,100874"
                    ]
                }
            ],
            "versionBegin": "",
            "versionEnd": ""
        },
        {
            "subId": 7210419,
            "mainId": 72104,
            "order": 3,
            "descTextMapHash": 331542612,
            "showType": "QUEST_HIDDEN",
            "finishCond": [
                {
                    "type": "QUEST_CONTENT_LUA_NOTIFY",
                    "param": [
                        0,
                        0
                    ],
                    "count": 1
                }
            ],
            "guide": {},
            "acceptCondComb": {
                "FDPBPIHKEGH": ""
            },
            "isRewind": true,
            "finishExec": [
                {
                    "type": "QUEST_EXEC_INC_QUEST_VAR",
                    "param": [
                        "3",
                        "1"
                    ]
                },
                {
                    "type": "QUEST_EXEC_DEL_PACK_ITEM",
                    "param": [
                        "100808",
                        "1"
                    ]
                }
            ],
            "versionBegin": "",
            "versionEnd": ""
        },
        {
            "subId": 7210420,
            "mainId": 72104,
            "order": 4,
            "descTextMapHash": 2880643292,
            "showType": "QUEST_HIDDEN",
            "finishCond": [
                {
                    "type": "QUEST_CONTENT_QUEST_STATE_EQUAL",
                    "param": [
                        7219502,
                        3
                    ]
                }
            ],
            "guide": {},
            "acceptCondComb": {
                "FDPBPIHKEGH": ""
            },
            "isRewind": true,
            "finishExec": [
                {
                    "type": "QUEST_EXEC_INC_QUEST_VAR",
                    "param": [
                        "3",
                        "1"
                    ]
                },
                {
                    "type": "QUEST_EXEC_DEL_PACK_ITEM",
                    "param": [
                        "100809",
                        "1"
                    ]
                }
            ],
            "versionBegin": "",
            "versionEnd": ""
        },
        {
            "subId": 7210421,
            "mainId": 72104,
            "order": 5,
            "descTextMapHash": 2607890204,
            "showType": "QUEST_HIDDEN",
            "finishCond": [
                {
                    "type": "QUEST_CONTENT_LUA_NOTIFY",
                    "param": [
                        0,
                        0
                    ],
                    "count": 1
                }
            ],
            "guide": {},
            "acceptCondComb": {
                "FDPBPIHKEGH": ""
            },
            "isRewind": true,
            "finishExec": [
                {
                    "type": "QUEST_EXEC_INC_QUEST_VAR",
                    "param": [
                        "3",
                        "1"
                    ]
                },
                {
                    "type": "QUEST_EXEC_DEL_PACK_ITEM",
                    "param": [
                        "100810",
                        "1"
                    ]
                }
            ],
            "versionBegin": "",
            "versionEnd": ""
        },
        {
            "subId": 7210422,
            "mainId": 72104,
            "order": 6,
            "descTextMapHash": 2732990252,
            "showType": "QUEST_HIDDEN",
            "finishCond": [
                {
                    "type": "QUEST_CONTENT_QUEST_VAR_EQUAL",
                    "param": [
                        3,
                        3
                    ]
                }
            ],
            "guide": {},
            "acceptCondComb": {
                "FDPBPIHKEGH": ""
            },
            "finishParent": true,
            "isRewind": true,
            "finishExec": [
                {
                    "type": "QUEST_EXEC_CLEAR_TIME_VAR",
                    "param": [
                        "72104",
                        "1"
                    ]
                },
                {
                    "type": "QUEST_EXEC_REFRESH_GROUP_SUITE",
                    "param": [
                        "3",
                        "133220571,2"
                    ]
                }
            ],
            "versionBegin": "",
            "versionEnd": ""
        },
        {
            "subId": 7210423,
            "mainId": 72104,
            "order": 7,
            "descTextMapHash": 879012228,
            "showType": "QUEST_HIDDEN",
            "finishCond": [
                {
                    "type": "QUEST_CONTENT_COMPLETE_TALK",
                    "param": [
                        7210438,
                        0
                    ]
                }
            ],
            "guide": {},
            "acceptCondComb": {
                "FDPBPIHKEGH": ""
            },
            "versionBegin": "",
            "versionEnd": ""
        },
        {
            "subId": 7210424,
            "mainId": 72104,
            "order": 14,
            "descTextMapHash": 1290355404,
            "showType": "QUEST_HIDDEN",
            "finishCond": [
                {
                    "type": "QUEST_CONTENT_TIME_VAR_PASS_DAY",
                    "param": [
                        72104,
                        0
                    ]
                }
            ],
            "guide": {},
            "acceptCondComb": {
                "FDPBPIHKEGH": ""
            },
            "isRewind": true,
            "finishExec": [
                {
                    "type": "QUEST_EXEC_ROLLBACK_QUEST",
                    "param": [
                        "7210424"
                    ]
                },
                {
                    "type": "QUEST_EXEC_SET_QUEST_VAR",
                    "param": [
                        "1",
                        "0"
                    ]
                },
                {
                    "type": "QUEST_EXEC_SET_QUEST_VAR",
                    "param": [
                        "2",
                        "1"
                    ]
                },
                {
                    "type": "QUEST_EXEC_SET_QUEST_GLOBAL_VAR",
                    "param": [
                        "72100",
                        "0"
                    ]
                },
                {
                    "type": "QUEST_EXEC_DEL_ALL_SPECIFIC_PACK_ITEM",
                    "param": [
                        "100789,100790,100791,100792,100793,100794,100795,100796,100797,100908,100909,100910,100911,100912,100913,100914,100798,100799,100800,100801,100802,100803,100804,100805,100806,100868,100869,100870,100871,100872,100873,100874"
                    ]
                }
            ],
            "versionBegin": "",
            "versionEnd": ""
        },
        {
            "subId": 7210425,
            "mainId": 72104,
            "order": 1,
            "descTextMapHash": 1702161732,
            "showType": "QUEST_HIDDEN",
            "finishCond": [
                {
                    "type": "QUEST_CONTENT_QUEST_VAR_EQUAL",
                    "param": [
                        3,
                        3
                    ]
                }
            ],
            "guide": {},
            "acceptCondComb": {
                "FDPBPIHKEGH": ""
            },
            "isRewind": true,
            "versionBegin": "",
            "versionEnd": ""
        },
        {
            "subId": 7210426,
            "mainId": 72104,
            "order": 22,
            "descTextMapHash": 252390972,
            "showType": "QUEST_HIDDEN",
            "finishCond": [
                {
                    "type": "QUEST_CONTENT_FINISH_ITEM_GIVING",
                    "param": [
                        7210426,
                        0
                    ]
                }
            ],
            "guide": {},
            "acceptCondComb": {
                "FDPBPIHKEGH": ""
            },
            "isRewind": true,
            "finishExec": [
                {
                    "type": "QUEST_EXEC_DEL_PACK_ITEM",
                    "param": [
                        "100796",
                        "1"
                    ]
                },
                {
                    "type": "QUEST_EXEC_SET_QUEST_VAR",
                    "param": [
                        "0",
                        "1"
                    ]
                }
            ],
            "versionBegin": "",
            "versionEnd": ""
        },
        {
            "subId": 7210427,
            "mainId": 72104,
            "order": 23,
            "descTextMapHash": 889710084,
            "showType": "QUEST_HIDDEN",
            "finishCond": [
                {
                    "type": "QUEST_CONTENT_FINISH_ITEM_GIVING",
                    "param": [
                        7210427,
                        0
                    ]
                }
            ],
            "guide": {},
            "acceptCondComb": {
                "FDPBPIHKEGH": ""
            },
            "isRewind": true,
            "finishExec": [
                {
                    "type": "QUEST_EXEC_DEL_PACK_ITEM",
                    "param": [
                        "100797",
                        "1"
                    ]
                },
                {
                    "type": "QUEST_EXEC_SET_QUEST_VAR",
                    "param": [
                        "0",
                        "1"
                    ]
                }
            ],
            "versionBegin": "",
            "versionEnd": ""
        },
        {
            "subId": 7210428,
            "mainId": 72104,
            "order": 24,
            "descTextMapHash": 2733688748,
            "showType": "QUEST_HIDDEN",
            "finishCond": [
                {
                    "type": "QUEST_CONTENT_FINISH_ITEM_GIVING",
                    "param": [
                        7210428,
                        0
                    ]
                }
            ],
            "guide": {},
            "acceptCondComb": {
                "FDPBPIHKEGH": ""
            },
            "isRewind": true,
            "finishExec": [
                {
                    "type": "QUEST_EXEC_DEL_PACK_ITEM",
                    "param": [
                        "100908",
                        "1"
                    ]
                },
                {
                    "type": "QUEST_EXEC_SET_QUEST_VAR",
                    "param": [
                        "0",
                        "1"
                    ]
                }
            ],
            "versionBegin": "",
            "versionEnd": ""
        },
        {
            "subId": 7210429,
            "mainId": 72104,
            "order": 25,
            "descTextMapHash": 2745964812,
            "showType": "QUEST_HIDDEN",
            "finishCond": [
                {
                    "type": "QUEST_CONTENT_FINISH_ITEM_GIVING",
                    "param": [
                        7210429,
                        0
                    ]
                }
            ],
            "guide": {},
            "acceptCondComb": {
                "FDPBPIHKEGH": ""
            },
            "isRewind": true,
            "finishExec": [
                {
                    "type": "QUEST_EXEC_DEL_PACK_ITEM",
                    "param": [
                        "100909",
                        "1"
                    ]
                },
                {
                    "type": "QUEST_EXEC_SET_QUEST_VAR",
                    "param": [
                        "0",
                        "1"
                    ]
                }
            ],
            "versionBegin": "",
            "versionEnd": ""
        },
        {
            "subId": 7210430,
            "mainId": 72104,
            "order": 26,
            "descTextMapHash": 2888542484,
            "showType": "QUEST_HIDDEN",
            "finishCond": [
                {
                    "type": "QUEST_CONTENT_FINISH_ITEM_GIVING",
                    "param": [
                        7210430,
                        0
                    ]
                }
            ],
            "guide": {},
            "acceptCondComb": {
                "FDPBPIHKEGH": ""
            },
            "isRewind": true,
            "finishExec": [
                {
                    "type": "QUEST_EXEC_DEL_PACK_ITEM",
                    "param": [
                        "100910",
                        "1"
                    ]
                },
                {
                    "type": "QUEST_EXEC_SET_QUEST_VAR",
                    "param": [
                        "0",
                        "1"
                    ]
                }
            ],
            "versionBegin": "",
            "versionEnd": ""
        },
        {
            "subId": 7210431,
            "mainId": 72104,
            "order": 27,
            "descTextMapHash": 1483934164,
            "showType": "QUEST_HIDDEN",
            "finishCond": [
                {
                    "type": "QUEST_CONTENT_FINISH_ITEM_GIVING",
                    "param": [
                        7210431,
                        0
                    ]
                }
            ],
            "guide": {},
            "acceptCondComb": {
                "FDPBPIHKEGH": ""
            },
            "isRewind": true,
            "finishExec": [
                {
                    "type": "QUEST_EXEC_DEL_PACK_ITEM",
                    "param": [
                        "100911",
                        "1"
                    ]
                },
                {
                    "type": "QUEST_EXEC_SET_QUEST_VAR",
                    "param": [
                        "0",
                        "1"
                    ]
                }
            ],
            "versionBegin": "",
            "versionEnd": ""
        },
        {
            "subId": 7210432,
            "mainId": 72104,
            "order": 28,
            "descTextMapHash": 913122612,
            "showType": "QUEST_HIDDEN",
            "finishCond": [
                {
                    "type": "QUEST_CONTENT_FINISH_ITEM_GIVING",
                    "param": [
                        7210432,
                        0
                    ]
                }
            ],
            "guide": {},
            "acceptCondComb": {
                "FDPBPIHKEGH": ""
            },
            "isRewind": true,
            "finishExec": [
                {
                    "type": "QUEST_EXEC_DEL_PACK_ITEM",
                    "param": [
                        "100912",
                        "1"
                    ]
                },
                {
                    "type": "QUEST_EXEC_SET_QUEST_VAR",
                    "param": [
                        "0",
                        "1"
                    ]
                }
            ],
            "versionBegin": "",
            "versionEnd": ""
        },
        {
            "subId": 7210433,
            "mainId": 72104,
            "order": 29,
            "descTextMapHash": 1945036508,
            "showType": "QUEST_HIDDEN",
            "finishCond": [
                {
                    "type": "QUEST_CONTENT_FINISH_ITEM_GIVING",
                    "param": [
                        7210433,
                        0
                    ]
                }
            ],
            "guide": {},
            "acceptCondComb": {
                "FDPBPIHKEGH": ""
            },
            "isRewind": true,
            "finishExec": [
                {
                    "type": "QUEST_EXEC_DEL_PACK_ITEM",
                    "param": [
                        "100913",
                        "1"
                    ]
                },
                {
                    "type": "QUEST_EXEC_SET_QUEST_VAR",
                    "param": [
                        "0",
                        "1"
                    ]
                }
            ],
            "versionBegin": "",
            "versionEnd": ""
        },
        {
            "subId": 7210434,
            "mainId": 72104,
            "order": 30,
            "descTextMapHash": 321596748,
            "showType": "QUEST_HIDDEN",
            "finishCond": [
                {
                    "type": "QUEST_CONTENT_FINISH_ITEM_GIVING",
                    "param": [
                        7210434,
                        0
                    ]
                }
            ],
            "guide": {},
            "acceptCondComb": {
                "FDPBPIHKEGH": ""
            },
            "isRewind": true,
            "finishExec": [
                {
                    "type": "QUEST_EXEC_DEL_PACK_ITEM",
                    "param": [
                        "100914",
                        "1"
                    ]
                },
                {
                    "type": "QUEST_EXEC_SET_QUEST_VAR",
                    "param": [
                        "0",
                        "1"
                    ]
                }
            ],
            "versionBegin": "",
            "versionEnd": ""
        },
        {
            "subId": 7210435,
            "mainId": 72104,
            "order": 11,
            "descTextMapHash": 120292620,
            "showType": "QUEST_HIDDEN",
            "finishCond": [
                {
                    "type": "QUEST_CONTENT_QUEST_STATE_EQUAL",
                    "param": [
                        7210419,
                        3
                    ]
                }
            ],
            "guide": {},
            "acceptCondComb": {
                "FDPBPIHKEGH": ""
            },
            "isRewind": true,
            "versionBegin": "",
            "versionEnd": ""
        },
        {
            "subId": 7210436,
            "mainId": 72104,
            "order": 12,
            "descTextMapHash": 3667424292,
            "showType": "QUEST_HIDDEN",
            "finishCond": [
                {
                    "type": "QUEST_CONTENT_QUEST_STATE_EQUAL",
                    "param": [
                        7210420,
                        3
                    ]
                }
            ],
            "guide": {},
            "acceptCondComb": {
                "FDPBPIHKEGH": ""
            },
            "isRewind": true,
            "versionBegin": "",
            "versionEnd": ""
        },
        {
            "subId": 7210437,
            "mainId": 72104,
            "order": 13,
            "descTextMapHash": 777339652,
            "showType": "QUEST_HIDDEN",
            "finishCond": [
                {
                    "type": "QUEST_CONTENT_QUEST_STATE_EQUAL",
                    "param": [
                        7210421,
                        3
                    ]
                }
            ],
            "guide": {},
            "acceptCondComb": {
                "FDPBPIHKEGH": ""
            },
            "isRewind": true,
            "versionBegin": "",
            "versionEnd": ""
        }
    ],
    "talks": [
        {
            "id": 7210401,
            "beginWay": "TALK_BEGIN_MANUAL",
            "activeMode": "PLAY_MODE_HOST",
            "beginCondComb": "LOGIC_AND",
            "beginCond": [
                {
                    "type": "QUEST_COND_ITEM_GIVING_ACTIVED",
                    "param": [
                        "7210401"
                    ]
                },
                {
                    "type": "QUEST_COND_PACK_HAVE_ITEM",
                    "param": [
                        "100789",
                        "1"
                    ]
                }
            ],
            "priority": 5,
            "initDialog": 721040101,
            "npcId": [
                20317
            ],
            "performCfg": "",
            "questId": 72104,
            "assetIndex": 12685999308750188433,
            "prePerformCfg": ""
        },
        {
            "id": 7210402,
            "beginWay": "TALK_BEGIN_MANUAL",
            "activeMode": "PLAY_MODE_HOST",
            "beginCondComb": "LOGIC_AND",
            "beginCond": [
                {
                    "type": "QUEST_COND_ITEM_GIVING_ACTIVED",
                    "param": [
                        "7210402"
                    ]
                },
                {
                    "type": "QUEST_COND_PACK_HAVE_ITEM",
                    "param": [
                        "100790",
                        "1"
                    ]
                }
            ],
            "priority": 5,
            "initDialog": 721040201,
            "npcId": [
                20317
            ],
            "performCfg": "",
            "questId": 72104,
            "assetIndex": 12770746743111335746,
            "prePerformCfg": ""
        },
        {
            "id": 7210403,
            "beginWay": "TALK_BEGIN_MANUAL",
            "activeMode": "PLAY_MODE_HOST",
            "beginCondComb": "LOGIC_AND",
            "beginCond": [
                {
                    "type": "QUEST_COND_ITEM_GIVING_ACTIVED",
                    "param": [
                        "7210403"
                    ]
                },
                {
                    "type": "QUEST_COND_PACK_HAVE_ITEM",
                    "param": [
                        "100791",
                        "1"
                    ]
                }
            ],
            "priority": 5,
            "initDialog": 721040301,
            "npcId": [
                20317
            ],
            "performCfg": "",
            "questId": 72104,
            "assetIndex": 1168044627386253793,
            "prePerformCfg": ""
        },
        {
            "id": 7210404,
            "beginWay": "TALK_BEGIN_MANUAL",
            "activeMode": "PLAY_MODE_HOST",
            "beginCondComb": "LOGIC_AND",
            "beginCond": [
                {
                    "type": "QUEST_COND_ITEM_GIVING_ACTIVED",
                    "param": [
                        "7210404"
                    ]
                },
                {
                    "type": "QUEST_COND_PACK_HAVE_ITEM",
                    "param": [
                        "100792",
                        "1"
                    ]
                }
            ],
            "priority": 5,
            "initDialog": 721040401,
            "npcId": [
                20317
            ],
            "performCfg": "",
            "questId": 72104,
            "assetIndex": 15488745177762352598,
            "prePerformCfg": ""
        },
        {
            "id": 7210405,
            "beginWay": "TALK_BEGIN_MANUAL",
            "activeMode": "PLAY_MODE_HOST",
            "beginCondComb": "LOGIC_AND",
            "beginCond": [
                {
                    "type": "QUEST_COND_ITEM_GIVING_ACTIVED",
                    "param": [
                        "7210405"
                    ]
                },
                {
                    "type": "QUEST_COND_PACK_HAVE_ITEM",
                    "param": [
                        "100793",
                        "1"
                    ]
                }
            ],
            "priority": 5,
            "initDialog": 721040501,
            "npcId": [
                20317
            ],
            "performCfg": "",
            "questId": 72104,
            "assetIndex": 5800046937197718657,
            "prePerformCfg": ""
        },
        {
            "id": 7210406,
            "beginWay": "TALK_BEGIN_MANUAL",
            "activeMode": "PLAY_MODE_HOST",
            "beginCondComb": "LOGIC_AND",
            "beginCond": [
                {
                    "type": "QUEST_COND_ITEM_GIVING_ACTIVED",
                    "param": [
                        "7210406"
                    ]
                },
                {
                    "type": "QUEST_COND_PACK_HAVE_ITEM",
                    "param": [
                        "100794",
                        "1"
                    ]
                }
            ],
            "priority": 5,
            "initDialog": 721040601,
            "npcId": [
                20317
            ],
            "performCfg": "",
            "questId": 72104,
            "assetIndex": 8789647905091145990,
            "prePerformCfg": ""
        },
        {
            "id": 7210407,
            "beginWay": "TALK_BEGIN_MANUAL",
            "activeMode": "PLAY_MODE_HOST",
            "beginCondComb": "LOGIC_AND",
            "beginCond": [
                {
                    "type": "QUEST_COND_ITEM_GIVING_ACTIVED",
                    "param": [
                        "7210407"
                    ]
                },
                {
                    "type": "QUEST_COND_PACK_HAVE_ITEM",
                    "param": [
                        "100795",
                        "1"
                    ]
                }
            ],
            "priority": 5,
            "initDialog": 721040701,
            "npcId": [
                20317
            ],
            "performCfg": "",
            "questId": 72104,
            "assetIndex": 692865612029096802,
            "prePerformCfg": ""
        },
        {
            "id": 7210408,
            "beginWay": "TALK_BEGIN_MANUAL",
            "activeMode": "PLAY_MODE_HOST",
            "beginCondComb": "LOGIC_AND",
            "beginCond": [
                {
                    "type": "QUEST_COND_ITEM_GIVING_ACTIVED",
                    "param": [
                        "7210408",
                        "100796"
                    ]
                },
                {
                    "type": "QUEST_COND_PACK_HAVE_ITEM",
                    "param": [
                        "100872",
                        "1"
                    ]
                }
            ],
            "priority": 5,
            "initDialog": 721040801,
            "npcId": [
                20300
            ],
            "performCfg": "",
            "questId": 72104,
            "assetIndex": 5089217945641840121,
            "prePerformCfg": ""
        },
        {
            "id": 7210409,
            "beginWay": "TALK_BEGIN_MANUAL",
            "activeMode": "PLAY_MODE_HOST",
            "beginCondComb": "LOGIC_AND",
            "beginCond": [
                {
                    "type": "QUEST_COND_ITEM_GIVING_ACTIVED",
                    "param": [
                        "7210409",
                        "100797"
                    ]
                },
                {
                    "type": "QUEST_COND_PACK_HAVE_ITEM",
                    "param": [
                        "100873",
                        "1"
                    ]
                }
            ],
            "priority": 5,
            "initDialog": 721040901,
            "npcId": [
                20300
            ],
            "performCfg": "",
            "questId": 72104,
            "assetIndex": 5235133197386801307,
            "prePerformCfg": ""
        },
        {
            "id": 7210410,
            "beginWay": "TALK_BEGIN_MANUAL",
            "activeMode": "PLAY_MODE_HOST",
            "beginCondComb": "LOGIC_AND",
            "beginCond": [
                {
                    "type": "QUEST_COND_ITEM_GIVING_ACTIVED",
                    "param": [
                        "7210410",
                        "100908"
                    ]
                },
                {
                    "type": "QUEST_COND_PACK_HAVE_ITEM",
                    "param": [
                        "100874",
                        "1"
                    ]
                }
            ],
            "priority": 5,
            "initDialog": 721041001,
            "npcId": [
                20300
            ],
            "performCfg": "",
            "questId": 72104,
            "assetIndex": 12280020896905077863,
            "prePerformCfg": ""
        },
        {
            "id": 7210411,
            "beginWay": "TALK_BEGIN_MANUAL",
            "activeMode": "PLAY_MODE_HOST",
            "beginCond": [
                {
                    "type": "QUEST_COND_ITEM_GIVING_ACTIVED",
                    "param": [
                        "7210411",
                        "100909"
                    ]
                }
            ],
            "priority": 5,
            "initDialog": 721041101,
            "npcId": [
                20300
            ],
            "performCfg": "",
            "questId": 72104,
            "assetIndex": 7462544181055661565,
            "prePerformCfg": ""
        },
        {
            "id": 7210412,
            "beginWay": "TALK_BEGIN_MANUAL",
            "activeMode": "PLAY_MODE_HOST",
            "beginCond": [
                {
                    "type": "QUEST_COND_ITEM_GIVING_ACTIVED",
                    "param": [
                        "7210412",
                        "100910"
                    ]
                }
            ],
            "priority": 5,
            "initDialog": 721041201,
            "npcId": [
                20300
            ],
            "performCfg": "",
            "questId": 72104,
            "assetIndex": 4600962654726835270,
            "prePerformCfg": ""
        },
        {
            "id": 7210413,
            "beginWay": "TALK_BEGIN_MANUAL",
            "activeMode": "PLAY_MODE_HOST",
            "beginCond": [
                {
                    "type": "QUEST_COND_ITEM_GIVING_ACTIVED",
                    "param": [
                        "7210413",
                        "100911"
                    ]
                }
            ],
            "priority": 5,
            "initDialog": 721041301,
            "npcId": [
                20300
            ],
            "performCfg": "",
            "questId": 72104,
            "assetIndex": 1720378735156877617,
            "prePerformCfg": ""
        },
        {
            "id": 7210414,
            "beginWay": "TALK_BEGIN_MANUAL",
            "activeMode": "PLAY_MODE_HOST",
            "beginCond": [
                {
                    "type": "QUEST_COND_ITEM_GIVING_ACTIVED",
                    "param": [
                        "7210414",
                        "100912"
                    ]
                }
            ],
            "priority": 5,
            "initDialog": 721041401,
            "npcId": [
                20300
            ],
            "performCfg": "",
            "questId": 72104,
            "assetIndex": 8434087358522310121,
            "prePerformCfg": ""
        },
        {
            "id": 7210415,
            "beginWay": "TALK_BEGIN_MANUAL",
            "activeMode": "PLAY_MODE_HOST",
            "beginCond": [
                {
                    "param": [
                        "100913"
                    ]
                }
            ],
            "priority": 5,
            "nextTalks": [
                7210401,
                7210402,
                7210403,
                7210404,
                7210405,
                7210406,
                7210407,
                7210426,
                7210427,
                7210428,
                7210429,
                7210430,
                7210431,
                7210432,
                7210433,
                7210434,
                7210416,
                7210417,
                7210418
            ],
            "initDialog": 721041501,
            "npcId": [
                20317
            ],
            "performCfg": "",
            "questId": 72104,
            "assetIndex": 534131478165546034,
            "prePerformCfg": ""
        },
        {
            "id": 7210416,
            "beginWay": "TALK_BEGIN_MANUAL",
            "activeMode": "PLAY_MODE_HOST",
            "beginCondComb": "LOGIC_AND",
            "beginCond": [
                {
                    "type": "QUEST_COND_STATE_EQUAL",
                    "param": [
                        "7210416",
                        "2",
                        "100914"
                    ]
                },
                {
                    "type": "QUEST_COND_ITEM_GIVING_ACTIVED",
                    "param": [
                        "7210416"
                    ]
                },
                {
                    "type": "QUEST_COND_STATE_EQUAL",
                    "param": [
                        "7210435",
                        "2"
                    ]
                },
                {
                    "type": "QUEST_COND_QUEST_GLOBAL_VAR_EQUAL",
                    "param": [
                        "72100",
                        "1"
                    ]
                },
                {
                    "type": "QUEST_COND_QUEST_VAR_EQUAL",
                    "param": [
                        "0",
                        "0",
                        "72104"
                    ]
                }
            ],
            "priority": 5,
            "initDialog": 721041601,
            "npcId": [
                20317
            ],
            "performCfg": "",
            "questId": 72104,
            "assetIndex": 4423673924555714477,
            "prePerformCfg": ""
        },
        {
            "id": 7210417,
            "beginWay": "TALK_BEGIN_MANUAL",
            "activeMode": "PLAY_MODE_HOST",
            "beginCondComb": "LOGIC_AND",
            "beginCond": [
                {
                    "type": "QUEST_COND_STATE_EQUAL",
                    "param": [
                        "7210417",
                        "2",
                        "100805"
                    ]
                },
                {
                    "type": "QUEST_COND_ITEM_GIVING_ACTIVED",
                    "param": [
                        "7210417"
                    ]
                },
                {
                    "type": "QUEST_COND_STATE_EQUAL",
                    "param": [
                        "7210436",
                        "2"
                    ]
                },
                {
                    "type": "QUEST_COND_QUEST_GLOBAL_VAR_EQUAL",
                    "param": [
                        "72100",
                        "1"
                    ]
                },
                {
                    "type": "QUEST_COND_QUEST_VAR_EQUAL",
                    "param": [
                        "0",
                        "0",
                        "72104"
                    ]
                }
            ],
            "priority": 5,
            "initDialog": 721041701,
            "npcId": [
                20317
            ],
            "performCfg": "",
            "questId": 72104,
            "assetIndex": 11117254944420920586,
            "prePerformCfg": ""
        },
        {
            "id": 7210418,
            "beginWay": "TALK_BEGIN_MANUAL",
            "activeMode": "PLAY_MODE_HOST",
            "beginCondComb": "LOGIC_AND",
            "beginCond": [
                {
                    "type": "QUEST_COND_STATE_EQUAL",
                    "param": [
                        "7210418",
                        "2",
                        "100806"
                    ]
                },
                {
                    "type": "QUEST_COND_ITEM_GIVING_ACTIVED",
                    "param": [
                        "7210418"
                    ]
                },
                {
                    "type": "QUEST_COND_STATE_EQUAL",
                    "param": [
                        "7210437",
                        "2"
                    ]
                },
                {
                    "type": "QUEST_COND_QUEST_GLOBAL_VAR_EQUAL",
                    "param": [
                        "72100",
                        "1"
                    ]
                },
                {
                    "type": "QUEST_COND_QUEST_VAR_EQUAL",
                    "param": [
                        "0",
                        "0",
                        "72104"
                    ]
                }
            ],
            "priority": 5,
            "initDialog": 721041801,
            "npcId": [
                20317
            ],
            "performCfg": "",
            "questId": 72104,
            "assetIndex": 15514089140807556962,
            "prePerformCfg": ""
        },
        {
            "id": 7210426,
            "beginWay": "TALK_BEGIN_MANUAL",
            "activeMode": "PLAY_MODE_HOST",
            "beginCondComb": "LOGIC_AND",
            "beginCond": [
                {
                    "type": "QUEST_COND_ITEM_GIVING_ACTIVED",
                    "param": [
                        "7210426",
                        "100874"
                    ]
                },
                {
                    "type": "QUEST_COND_PACK_HAVE_ITEM",
                    "param": [
                        "100796",
                        "1"
                    ]
                }
            ],
            "priority": 5,
            "initDialog": 721042601,
            "npcId": [
                20317
            ],
            "performCfg": "",
            "questId": 72104,
            "assetIndex": 17840104492954544230,
            "prePerformCfg": ""
        },
        {
            "id": 7210427,
            "beginWay": "TALK_BEGIN_MANUAL",
            "activeMode": "PLAY_MODE_HOST",
            "beginCondComb": "LOGIC_AND",
            "beginCond": [
                {
                    "type": "QUEST_COND_ITEM_GIVING_ACTIVED",
                    "param": [
                        "7210427"
                    ]
                },
                {
                    "type": "QUEST_COND_PACK_HAVE_ITEM",
                    "param": [
                        "100797",
                        "1"
                    ]
                }
            ],
            "priority": 5,
            "initDialog": 721042701,
            "npcId": [
                20317
            ],
            "performCfg": "",
            "questId": 72104,
            "assetIndex": 3365432017639069704,
            "prePerformCfg": ""
        },
        {
            "id": 7210428,
            "beginWay": "TALK_BEGIN_MANUAL",
            "activeMode": "PLAY_MODE_HOST",
            "beginCondComb": "LOGIC_AND",
            "beginCond": [
                {
                    "type": "QUEST_COND_ITEM_GIVING_ACTIVED",
                    "param": [
                        "7210428"
                    ]
                },
                {
                    "type": "QUEST_COND_PACK_HAVE_ITEM",
                    "param": [
                        "100908",
                        "1"
                    ]
                }
            ],
            "priority": 5,
            "initDialog": 721042801,
            "npcId": [
                20317
            ],
            "performCfg": "",
            "questId": 72104,
            "assetIndex": 7025289186219063243,
            "prePerformCfg": ""
        },
        {
            "id": 7210429,
            "beginWay": "TALK_BEGIN_MANUAL",
            "activeMode": "PLAY_MODE_HOST",
            "beginCondComb": "LOGIC_AND",
            "beginCond": [
                {
                    "type": "QUEST_COND_ITEM_GIVING_ACTIVED",
                    "param": [
                        "7210429"
                    ]
                },
                {
                    "type": "QUEST_COND_PACK_HAVE_ITEM",
                    "param": [
                        "100909",
                        "1"
                    ]
                }
            ],
            "priority": 5,
            "initDialog": 721042901,
            "npcId": [
                20317
            ],
            "performCfg": "",
            "questId": 72104,
            "assetIndex": 2885090030054717635,
            "prePerformCfg": ""
        },
        {
            "id": 7210430,
            "beginWay": "TALK_BEGIN_MANUAL",
            "activeMode": "PLAY_MODE_HOST",
            "beginCondComb": "LOGIC_AND",
            "beginCond": [
                {
                    "type": "QUEST_COND_ITEM_GIVING_ACTIVED",
                    "param": [
                        "7210430"
                    ]
                },
                {
                    "type": "QUEST_COND_PACK_HAVE_ITEM",
                    "param": [
                        "100910",
                        "1"
                    ]
                }
            ],
            "priority": 5,
            "initDialog": 721043001,
            "npcId": [
                20317
            ],
            "performCfg": "",
            "questId": 72104,
            "assetIndex": 4105582124135578239,
            "prePerformCfg": ""
        },
        {
            "id": 7210431,
            "beginWay": "TALK_BEGIN_MANUAL",
            "activeMode": "PLAY_MODE_HOST",
            "beginCondComb": "LOGIC_AND",
            "beginCond": [
                {
                    "type": "QUEST_COND_ITEM_GIVING_ACTIVED",
                    "param": [
                        "7210431"
                    ]
                },
                {
                    "type": "QUEST_COND_PACK_HAVE_ITEM",
                    "param": [
                        "100911",
                        "1"
                    ]
                }
            ],
            "priority": 5,
            "initDialog": 721043101,
            "npcId": [
                20317
            ],
            "performCfg": "",
            "questId": 72104,
            "assetIndex": 9831933886747150759,
            "prePerformCfg": ""
        },
        {
            "id": 7210432,
            "beginWay": "TALK_BEGIN_MANUAL",
            "activeMode": "PLAY_MODE_HOST",
            "beginCondComb": "LOGIC_AND",
            "beginCond": [
                {
                    "type": "QUEST_COND_ITEM_GIVING_ACTIVED",
                    "param": [
                        "7210432"
                    ]
                },
                {
                    "type": "QUEST_COND_PACK_HAVE_ITEM",
                    "param": [
                        "100912",
                        "1"
                    ]
                }
            ],
            "priority": 5,
            "initDialog": 721043201,
            "npcId": [
                20317
            ],
            "performCfg": "",
            "questId": 72104,
            "assetIndex": 4431632143617681462,
            "prePerformCfg": ""
        },
        {
            "id": 7210433,
            "beginWay": "TALK_BEGIN_MANUAL",
            "activeMode": "PLAY_MODE_HOST",
            "beginCondComb": "LOGIC_AND",
            "beginCond": [
                {
                    "type": "QUEST_COND_ITEM_GIVING_ACTIVED",
                    "param": [
                        "7210433"
                    ]
                },
                {
                    "type": "QUEST_COND_PACK_HAVE_ITEM",
                    "param": [
                        "100913",
                        "1"
                    ]
                }
            ],
            "priority": 5,
            "initDialog": 721043301,
            "npcId": [
                20317
            ],
            "performCfg": "",
            "questId": 72104,
            "assetIndex": 3139798128520417530,
            "prePerformCfg": ""
        },
        {
            "id": 7210434,
            "beginWay": "TALK_BEGIN_MANUAL",
            "activeMode": "PLAY_MODE_HOST",
            "beginCondComb": "LOGIC_AND",
            "beginCond": [
                {
                    "type": "QUEST_COND_ITEM_GIVING_ACTIVED",
                    "param": [
                        "7210434"
                    ]
                },
                {
                    "type": "QUEST_COND_PACK_HAVE_ITEM",
                    "param": [
                        "100914",
                        "1"
                    ]
                }
            ],
            "priority": 5,
            "initDialog": 721043401,
            "npcId": [
                20317
            ],
            "performCfg": "",
            "questId": 72104,
            "assetIndex": 2233447231487060976,
            "prePerformCfg": ""
        },
        {
            "id": 7210435,
            "beginWay": "TALK_BEGIN_MANUAL",
            "activeMode": "PLAY_MODE_HOST",
            "beginCondComb": "LOGIC_AND",
            "beginCond": [
                {
                    "type": "QUEST_COND_STATE_EQUAL",
                    "param": [
                        "7210435",
                        "2"
                    ]
                },
                {
                    "type": "QUEST_COND_STATE_EQUAL",
                    "param": [
                        "7210415",
                        "3"
                    ]
                }
            ],
            "priority": 10,
            "nextTalks": [
                7210401,
                7210402,
                7210403,
                7210404,
                7210405,
                7210406,
                7210407,
                7210426,
                7210427,
                7210428,
                7210429,
                7210430,
                7210431,
                7210432,
                7210433,
                7210434,
                7210416,
                7210417,
                7210418,
                7210438
            ],
            "initDialog": 721043501,
            "npcId": [
                20317
            ],
            "performCfg": "",
            "questId": 72104,
            "assetIndex": 4972120969294282459,
            "prePerformCfg": ""
        },
        {
            "id": 7210436,
            "beginWay": "TALK_BEGIN_MANUAL",
            "activeMode": "PLAY_MODE_HOST",
            "beginCondComb": "LOGIC_AND",
            "beginCond": [
                {
                    "type": "QUEST_COND_STATE_EQUAL",
                    "param": [
                        "7210436",
                        "2"
                    ]
                },
                {
                    "type": "QUEST_COND_STATE_EQUAL",
                    "param": [
                        "7210415",
                        "3"
                    ]
                }
            ],
            "priority": 11,
            "nextTalks": [
                7210401,
                7210402,
                7210403,
                7210404,
                7210405,
                7210406,
                7210407,
                7210426,
                7210427,
                7210428,
                7210429,
                7210430,
                7210431,
                7210432,
                7210433,
                7210434,
                7210416,
                7210417,
                7210418,
                7210439
            ],
            "initDialog": 721043601,
            "npcId": [
                20317
            ],
            "performCfg": "",
            "questId": 72104,
            "assetIndex": 5846979750293678980,
            "prePerformCfg": ""
        },
        {
            "id": 7210437,
            "beginWay": "TALK_BEGIN_MANUAL",
            "activeMode": "PLAY_MODE_HOST",
            "beginCondComb": "LOGIC_AND",
            "beginCond": [
                {
                    "type": "QUEST_COND_STATE_EQUAL",
                    "param": [
                        "7210437",
                        "2"
                    ]
                },
                {
                    "type": "QUEST_COND_STATE_EQUAL",
                    "param": [
                        "7210415",
                        "3"
                    ]
                }
            ],
            "priority": 12,
            "nextTalks": [
                7210401,
                7210402,
                7210403,
                7210404,
                7210405,
                7210406,
                7210407,
                7210426,
                7210427,
                7210428,
                7210429,
                7210430,
                7210431,
                7210432,
                7210433,
                7210434,
                7210416,
                7210417,
                7210418,
                7210440
            ],
            "initDialog": 721043701,
            "npcId": [
                20317
            ],
            "performCfg": "",
            "questId": 72104,
            "assetIndex": 10234365674004331464,
            "prePerformCfg": ""
        },
        {
            "id": 7210438,
            "beginWay": "TALK_BEGIN_MANUAL",
            "activeMode": "PLAY_MODE_HOST",
            "beginCond": [
                {
                    "type": "QUEST_COND_STATE_EQUAL",
                    "param": [
                        "7210435",
                        "2"
                    ]
                }
            ],
            "priority": 9,
            "initDialog": 721043801,
            "npcId": [
                20317
            ],
            "performCfg": "",
            "questId": 72104,
            "assetIndex": 8998207922992860884,
            "prePerformCfg": ""
        },
        {
            "id": 7210439,
            "beginWay": "TALK_BEGIN_MANUAL",
            "activeMode": "PLAY_MODE_HOST",
            "beginCond": [
                {
                    "type": "QUEST_COND_STATE_EQUAL",
                    "param": [
                        "7210436",
                        "2"
                    ]
                }
            ],
            "priority": 9,
            "initDialog": 721043901,
            "npcId": [
                20317
            ],
            "performCfg": "",
            "questId": 72104,
            "assetIndex": 16340379872065800381,
            "prePerformCfg": ""
        },
        {
            "id": 7210440,
            "beginWay": "TALK_BEGIN_MANUAL",
            "activeMode": "PLAY_MODE_HOST",
            "beginCond": [
                {
                    "type": "QUEST_COND_STATE_EQUAL",
                    "param": [
                        "7210437",
                        "2"
                    ]
                }
            ],
            "priority": 9,
            "initDialog": 721044001,
            "npcId": [
                20317
            ],
            "performCfg": "",
            "questId": 72104,
            "assetIndex": 6520964362735546492,
            "prePerformCfg": ""
        }
    ]
}