{
    "id": 72133,
    "type": "WQ",
    "activeMode": "PLAY_MODE_ALL",
    "titleTextMapHash": 4155151279,
    "descTextMapHash": 3266313670,
    "luaPath": "Actor/Quest/WQ72133",
    "rewardIdList": [
        172133
    ],
    "chapterId": 10037,
    "subQuests": [
        {
            "subId": 7213301,
            "mainId": 72133,
            "order": 1,
            "descTextMapHash": 1810252292,
            "stepDescTextMapHash": 3191733501,
            "showType": "QUEST_HIDDEN",
            "finishCond": [
                {
                    "type": "QUEST_CONTENT_COMPLETE_TALK",
                    "param": [
                        7213301,
                        0
                    ]
                }
            ],
            "guide": {},
            "showGuide": "QUEST_GUIDE_ITEM_DISABLE",
            "acceptCondComb": {
                "FDPBPIHKEGH": ""
            },
            "finishParent": true,
            "failParentShow": "QUEST_HIDDEN",
            "isRewind": true,
            "versionBegin": "",
            "versionEnd": ""
        }
    ],
    "talks": [
        {
            "id": 7213301,
            "beginWay": "TALK_BEGIN_MANUAL",
            "activeMode": "PLAY_MODE_ALL",
            "beginCond": [
                {
                    "type": "QUEST_COND_STATE_EQUAL",
                    "param": [
                        "7213301",
                        "2"
                    ]
                }
            ],
            "priority": 5,
            "initDialog": 721330101,
            "npcId": [
                20248
            ],
            "performCfg": "",
            "questId": 72133,
            "assetIndex": 16217396785428966835,
            "prePerformCfg": "",
            "lockGameTime": true,
            "talkMarkType": "TALK_MARK_COMMON"
        }
    ]
}