{
    "id": 72130,
    "type": "WQ",
    "activeMode": "PLAY_MODE_ALL",
    "titleTextMapHash": 3334183007,
    "descTextMapHash": 744646318,
    "luaPath": "Actor/Quest/WQ72130",
    "rewardIdList": [
        172130
    ],
    "chapterId": 10037,
    "subQuests": [
        {
            "subId": 7213004,
            "mainId": 72130,
            "order": 4,
            "descTextMapHash": 381259804,
            "stepDescTextMapHash": 2508459053,
            "showType": "QUEST_HIDDEN",
            "finishCond": [
                {
                    "type": "QUEST_CONTENT_COMPLETE_TALK",
                    "param": [
                        7213301,
                        0
                    ]
                }
            ],
            "guide": {},
            "acceptCondComb": {
                "FDPBPIHKEGH": ""
            },
            "versionBegin": "",
            "versionEnd": ""
        },
        {
            "subId": 7213005,
            "mainId": 72130,
            "order": 5,
            "descTextMapHash": 3942672660,
            "stepDescTextMapHash": 941894765,
            "finishCond": [
                {
                    "type": "QUEST_CONTENT_COMPLETE_TALK",
                    "param": [
                        7213002,
                        0
                    ]
                }
            ],
            "guide": {
                "type": "QUEST_GUIDE_NPC",
                "param": [
                    "20235",
                    "SELECT_NPC_NONE"
                ]
            },
            "acceptCondComb": {
                "FDPBPIHKEGH": ""
            },
            "isRewind": true,
            "versionBegin": "",
            "versionEnd": ""
        },
        {
            "subId": 7213006,
            "mainId": 72130,
            "order": 6,
            "descTextMapHash": 1352989180,
            "stepDescTextMapHash": 716710277,
            "guideTipsTextMapHash": 108975206,
            "finishCond": [
                {
                    "type": "QUEST_CONTENT_FINISH_ITEM_GIVING",
                    "param": [
                        7213006,
                        0
                    ]
                }
            ],
            "guide": {
                "type": "QUEST_GUIDE_NPC",
                "autoGuide": "QUEST_GUIDE_AUTO_ENABLE",
                "param": [
                    "20235"
                ],
                "guideScene": 3,
                "guideStyle": "QUEST_GUIDE_STYLE_POINT",
                "guideLayer": "QUEST_GUIDE_LAYER_UI"
            },
            "acceptCondComb": {
                "FDPBPIHKEGH": ""
            },
            "finishParent": true,
            "isRewind": true,
            "finishExec": [
                {
                    "type": "QUEST_EXEC_NOTIFY_GROUP_LUA",
                    "param": [
                        "3",
                        "133212034"
                    ]
                },
                {
                    "type": "QUEST_EXEC_SET_WEATHER_GADGET",
                    "param": [
                        "3009",
                        "0"
                    ]
                },
                {
                    "type": "QUEST_EXEC_SET_WEATHER_GADGET",
                    "param": [
                        "3136",
                        "0"
                    ]
                },
                {
                    "type": "QUEST_EXEC_SET_WEATHER_GADGET",
                    "param": [
                        "3141",
                        "0"
                    ]
                },
                {
                    "type": "QUEST_EXEC_SET_WEATHER_GADGET",
                    "param": [
                        "3181",
                        "0"
                    ]
                }
            ],
            "versionBegin": "",
            "versionEnd": ""
        },
        {
            "subId": 7213007,
            "mainId": 72130,
            "order": 7,
            "descTextMapHash": 1687088804,
            "showType": "QUEST_HIDDEN",
            "guide": {},
            "acceptCondComb": {
                "FDPBPIHKEGH": ""
            },
            "versionBegin": "",
            "versionEnd": ""
        },
        {
            "subId": 7213008,
            "mainId": 72130,
            "order": 8,
            "descTextMapHash": 801568708,
            "showType": "QUEST_HIDDEN",
            "guide": {},
            "acceptCondComb": {
                "FDPBPIHKEGH": ""
            },
            "versionBegin": "",
            "versionEnd": ""
        },
        {
            "subId": 7213009,
            "mainId": 72130,
            "order": 9,
            "descTextMapHash": 1138831172,
            "showType": "QUEST_HIDDEN",
            "finishCond": [
                {
                    "type": "QUEST_CONTENT_FINISH_PLOT",
                    "param": [
                        7213009,
                        0
                    ]
                }
            ],
            "guide": {},
            "acceptCondComb": {
                "FDPBPIHKEGH": ""
            },
            "finishExec": [
                {
                    "type": "QUEST_EXEC_NOTIFY_GROUP_LUA",
                    "param": [
                        "3",
                        "133212034"
                    ]
                }
            ],
            "versionBegin": "",
            "versionEnd": ""
        }
    ],
    "talks": [
        {
            "id": 7213001,
            "beginWay": "TALK_BEGIN_MANUAL",
            "activeMode": "PLAY_MODE_ALL",
            "beginCond": [
                {
                    "type": "QUEST_COND_STATE_EQUAL",
                    "param": [
                        "7213004",
                        "2"
                    ]
                }
            ],
            "priority": 5,
            "initDialog": 721300101,
            "npcId": [
                20253
            ],
            "performCfg": "QuestDialogue/WQ/Daoqi_72130/Q7213001",
            "questId": 72130,
            "assetIndex": 12571047903783234604,
            "prePerformCfg": "",
            "lockGameTime": true
        },
        {
            "id": 7213002,
            "beginWay": "TALK_BEGIN_MANUAL",
            "activeMode": "PLAY_MODE_ALL",
            "beginCond": [
                {
                    "type": "QUEST_COND_STATE_EQUAL",
                    "param": [
                        "7213005",
                        "2"
                    ]
                }
            ],
            "priority": 5,
            "initDialog": 721300201,
            "npcId": [
                20235
            ],
            "performCfg": "QuestDialogue/WQ/Daoqi_72130/Q7213002",
            "questId": 72130,
            "assetIndex": 11364670386793721670,
            "prePerformCfg": "",
            "lockGameTime": true
        },
        {
            "id": 7213003,
            "beginWay": "TALK_BEGIN_MANUAL",
            "activeMode": "PLAY_MODE_ALL",
            "beginCond": [
                {
                    "type": "QUEST_COND_STATE_EQUAL",
                    "param": [
                        "99902",
                        "3"
                    ]
                }
            ],
            "priority": 5,
            "initDialog": 721300301,
            "npcId": [
                20235
            ],
            "performCfg": "",
            "questId": 72130,
            "assetIndex": 2909007702007742071,
            "prePerformCfg": "",
            "lockGameTime": true
        },
        {
            "id": 7213004,
            "beginWay": "TALK_BEGIN_MANUAL",
            "activeMode": "PLAY_MODE_ALL",
            "beginCondComb": "LOGIC_AND",
            "beginCond": [
                {
                    "type": "QUEST_COND_ITEM_GIVING_ACTIVED",
                    "param": [
                        "7213006"
                    ]
                },
                {
                    "type": "QUEST_COND_STATE_EQUAL",
                    "param": [
                        "7213006",
                        "2"
                    ]
                }
            ],
            "priority": 5,
            "initDialog": 721300401,
            "npcId": [
                20256
            ],
            "performCfg": "",
            "questId": 72130,
            "assetIndex": 7415879403329832597,
            "prePerformCfg": "",
            "lockGameTime": true
        }
    ]
}