{
    "id": 72200,
    "type": "WQ",
    "activeMode": "PLAY_MODE_ALL",
    "titleTextMapHash": 1177272847,
    "luaPath": "Actor/Quest/WQ72200",
    "rewardIdList": [
        172105
    ],
    "showType": "QUEST_HIDDEN",
    "subQuests": [
        {
            "subId": 7220001,
            "mainId": 72200,
            "order": 1,
            "showType": "QUEST_HIDDEN",
            "finishCond": [
                {
                    "type": "QUEST_CONTENT_LUA_NOTIFY",
                    "param": [
                        0,
                        0
                    ],
                    "count": 1
                }
            ],
            "guide": {},
            "showGuide": "QUEST_GUIDE_ITEM_DISABLE",
            "acceptCondComb": {
                "FDPBPIHKEGH": ""
            },
            "finishParent": true,
            "failParentShow": "QUEST_HIDDEN",
            "versionBegin": "",
            "versionEnd": ""
        }
    ]
}