{
    "id": 72208,
    "type": "WQ",
    "activeMode": "PLAY_MODE_ALL",
    "titleTextMapHash": 1354087015,
    "luaPath": "Actor/Quest/WQ72208",
    "showType": "QUEST_HIDDEN",
    "subQuests": [
        {
            "subId": 7220801,
            "mainId": 72208,
            "order": 1,
            "descTextMapHash": 1668038844,
            "showType": "QUEST_HIDDEN",
            "finishCond": [
                {
                    "type": "QUEST_CONTENT_LUA_NOTIFY",
                    "param": [
                        0,
                        0
                    ],
                    "count": 1
                }
            ],
            "guide": {},
            "showGuide": "QUEST_GUIDE_ITEM_DISABLE",
            "acceptCondComb": {
                "FDPBPIHKEGH": ""
            },
            "isRewind": true,
            "versionBegin": "",
            "versionEnd": ""
        },
        {
            "subId": 7220802,
            "mainId": 72208,
            "order": 2,
            "showType": "QUEST_HIDDEN",
            "finishCond": [
                {
                    "type": "QUEST_CONTENT_COMPLETE_TALK",
                    "param": [
                        7220801,
                        0
                    ]
                }
            ],
            "guide": {},
            "showGuide": "QUEST_GUIDE_ITEM_DISABLE",
            "acceptCondComb": {
                "FDPBPIHKEGH": ""
            },
            "isRewind": true,
            "versionBegin": "",
            "versionEnd": ""
        },
        {
            "subId": 7220803,
            "mainId": 72208,
            "order": 3,
            "showType": "QUEST_HIDDEN",
            "finishCond": [
                {
                    "type": "QUEST_CONTENT_OBTAIN_ITEM",
                    "param": [
                        101581,
                        0
                    ],
                    "count": 1
                }
            ],
            "guide": {},
            "showGuide": "QUEST_GUIDE_ITEM_DISABLE",
            "acceptCondComb": {
                "FDPBPIHKEGH": ""
            },
            "isRewind": true,
            "versionBegin": "",
            "versionEnd": ""
        },
        {
            "subId": 7220804,
            "mainId": 72208,
            "order": 4,
            "showType": "QUEST_HIDDEN",
            "finishCond": [
                {
                    "type": "QUEST_CONTENT_FINISH_ITEM_GIVING",
                    "param": [
                        7220804,
                        0
                    ]
                }
            ],
            "guide": {},
            "showGuide": "QUEST_GUIDE_ITEM_DISABLE",
            "acceptCondComb": {
                "FDPBPIHKEGH": ""
            },
            "isRewind": true,
            "versionBegin": "",
            "versionEnd": ""
        },
        {
            "subId": 7220805,
            "mainId": 72208,
            "order": 6,
            "descTextMapHash": 3001218812,
            "showType": "QUEST_HIDDEN",
            "guide": {},
            "showGuide": "QUEST_GUIDE_ITEM_DISABLE",
            "acceptCondComb": {
                "FDPBPIHKEGH": ""
            },
            "versionBegin": "",
            "versionEnd": ""
        },
        {
            "subId": 7220806,
            "mainId": 72208,
            "order": 5,
            "showType": "QUEST_HIDDEN",
            "finishCond": [
                {
                    "type": "QUEST_CONTENT_COMPLETE_TALK",
                    "param": [
                        7220802,
                        0
                    ]
                }
            ],
            "guide": {},
            "acceptCondComb": {
                "FDPBPIHKEGH": ""
            },
            "finishParent": true,
            "isRewind": true,
            "finishExec": [
                {
                    "type": "QUEST_EXEC_SET_QUEST_GLOBAL_VAR",
                    "param": [
                        "72208",
                        "1"
                    ]
                },
                {
                    "type": "QUEST_EXEC_INC_QUEST_GLOBAL_VAR",
                    "param": [
                        "72174",
                        "1"
                    ]
                },
                {
                    "type": "QUEST_EXEC_REFRESH_GROUP_SUITE",
                    "param": [
                        "3",
                        "133223487,2"
                    ]
                }
            ],
            "versionBegin": "",
            "versionEnd": ""
        }
    ],
    "talks": [
        {
            "id": 7220801,
            "beginWay": "TALK_BEGIN_MANUAL",
            "activeMode": "PLAY_MODE_HOST",
            "beginCondComb": "LOGIC_AND",
            "beginCond": [
                {
                    "type": "QUEST_COND_STATE_EQUAL",
                    "param": [
                        "7220802",
                        "2"
                    ]
                },
                {
                    "type": "QUEST_COND_STATE_EQUAL",
                    "param": [
                        "7220801",
                        "3"
                    ]
                }
            ],
            "priority": 5,
            "initDialog": 722080101,
            "npcId": [
                20430
            ],
            "performCfg": "QuestDialogue/WQ/Inazuma_72208/Q7220801",
            "heroTalk": "TALK_HERO_MAIN",
            "questId": 72208,
            "assetIndex": 2077397615316671611,
            "prePerformCfg": ""
        },
        {
            "id": 7220802,
            "beginWay": "TALK_BEGIN_AUTO",
            "activeMode": "PLAY_MODE_HOST",
            "beginCondComb": "LOGIC_AND",
            "beginCond": [
                {
                    "type": "QUEST_COND_STATE_EQUAL",
                    "param": [
                        "7220806",
                        "2"
                    ]
                }
            ],
            "priority": 5,
            "initDialog": 722080201,
            "npcId": [
                20430
            ],
            "performCfg": "",
            "heroTalk": "TALK_HERO_MAIN",
            "questId": 72208,
            "assetIndex": 13374523474578187430,
            "prePerformCfg": ""
        },
        {
            "id": 7220803,
            "beginWay": "TALK_BEGIN_MANUAL",
            "activeMode": "PLAY_MODE_HOST",
            "beginCondComb": "LOGIC_AND",
            "beginCond": [
                {
                    "type": "QUEST_COND_STATE_EQUAL",
                    "param": [
                        "7220804",
                        "2"
                    ]
                },
                {
                    "type": "QUEST_COND_ITEM_GIVING_ACTIVED",
                    "param": [
                        "7220804"
                    ]
                }
            ],
            "priority": 5,
            "initDialog": 722080301,
            "npcId": [
                20430
            ],
            "performCfg": "",
            "heroTalk": "TALK_HERO_MAIN",
            "questId": 72208,
            "assetIndex": 16471394447412368935,
            "prePerformCfg": ""
        },
        {
            "id": 7220804,
            "beginWay": "TALK_BEGIN_MANUAL",
            "activeMode": "PLAY_MODE_HOST",
            "beginCondComb": "LOGIC_AND",
            "beginCond": [
                {
                    "type": "QUEST_COND_STATE_EQUAL",
                    "param": [
                        "7220802",
                        "3"
                    ]
                },
                {
                    "type": "QUEST_COND_STATE_EQUAL",
                    "param": [
                        "7220803",
                        "2"
                    ]
                }
            ],
            "initDialog": 722080401,
            "npcId": [
                20430
            ],
            "performCfg": "",
            "heroTalk": "TALK_HERO_MAIN",
            "questId": 72208,
            "assetIndex": 5499131856241665842,
            "prePerformCfg": "",
            "lowPriority": true
        }
    ],
    "FFDPMMFBDAE": [
        14457059026087496718
    ]
}