{
    "id": 72689,
    "type": "WQ",
    "mainQuestTag": "MAINQUEST_TAG_GUIDE",
    "activeMode": "PLAY_MODE_ALL",
    "titleTextMapHash": 981823503,
    "descTextMapHash": 4078457518,
    "luaPath": "Actor/Quest/WQ72689",
    "rewardIdList": [
        172689
    ],
    "showRedPoint": true,
    "activityId": 2012,
    "subQuests": [
        {
            "subId": 7268901,
            "mainId": 72689,
            "order": 1,
            "descTextMapHash": 3136266564,
            "finishCond": [
                {
                    "type": "QUEST_CONTENT_GAME_TIME_TICK",
                    "param": [
                        1,
                        0
                    ]
                }
            ],
            "guide": {},
            "acceptCondComb": {
                "FDPBPIHKEGH": ""
            },
            "isRewind": true,
            "versionBegin": "",
            "versionEnd": ""
        },
        {
            "subId": 7268902,
            "mainId": 72689,
            "order": 2,
            "descTextMapHash": 625914084,
            "finishCond": [
                {
                    "type": "QUEST_CONTENT_FINISH_PLOT",
                    "param": [
                        7268902,
                        0
                    ]
                }
            ],
            "guide": {
                "type": "QUEST_GUIDE_NPC",
                "param": [
                    "30171"
                ],
                "guideScene": 3,
                "guideStyle": "QUEST_GUIDE_STYLE_TARGET",
                "guideLayer": "QUEST_GUIDE_LAYER_SCENE"
            },
            "acceptCondComb": {
                "FDPBPIHKEGH": ""
            },
            "isRewind": true,
            "versionBegin": "",
            "versionEnd": ""
        },
        {
            "subId": 7268903,
            "mainId": 72689,
            "order": 3,
            "descTextMapHash": 3658378052,
            "finishCond": [
                {
                    "type": "QUEST_CONTENT_IRODORI_FINISH_FLOWER_COMBINATION",
                    "param": [
                        3,
                        0
                    ]
                }
            ],
            "guide": {
                "type": "QUEST_GUIDE_LOCATION",
                "param": [
                    "Q72689"
                ],
                "guideScene": 3,
                "guideStyle": "QUEST_GUIDE_STYLE_TARGET",
                "guideLayer": "QUEST_GUIDE_LAYER_SCENE"
            },
            "acceptCondComb": {
                "FDPBPIHKEGH": ""
            },
            "finishParent": true,
            "isRewind": true,
            "versionBegin": "",
            "versionEnd": ""
        },
        {
            "subId": 7268904,
            "mainId": 72689,
            "order": 4,
            "descTextMapHash": 418573244,
            "finishCond": [
                {
                    "type": "QUEST_CONTENT_COMPLETE_TALK",
                    "param": [
                        7268902,
                        0
                    ]
                }
            ],
            "guide": {
                "type": "QUEST_GUIDE_NPC",
                "param": [
                    "30171"
                ],
                "guideScene": 3,
                "guideStyle": "QUEST_GUIDE_STYLE_FINISH",
                "guideLayer": "QUEST_GUIDE_LAYER_SCENE"
            },
            "acceptCondComb": {
                "FDPBPIHKEGH": ""
            },
            "finishParent": true,
            "isRewind": true,
            "versionBegin": "",
            "versionEnd": ""
        }
    ],
    "talks": [
        {
            "id": 7268901,
            "beginWay": "TALK_BEGIN_MANUAL",
            "activeMode": "PLAY_MODE_HOST",
            "beginCond": [
                {
                    "type": "QUEST_COND_STATE_EQUAL",
                    "param": [
                        "7268902",
                        "2"
                    ]
                }
            ],
            "priority": 5,
            "initDialog": 726890101,
            "npcId": [
                30171
            ],
            "performCfg": "QuestDialogue/WQ/Inazuma_72689/Q7268901",
            "heroTalk": "TALK_HERO_MAIN",
            "questId": 72689,
            "assetIndex": 1364340609379169441,
            "prePerformCfg": ""
        },
        {
            "id": 7268903,
            "beginWay": "TALK_BEGIN_MANUAL",
            "activeMode": "PLAY_MODE_HOST",
            "beginCondComb": "LOGIC_OR",
            "beginCond": [
                {
                    "type": "QUEST_COND_STATE_EQUAL",
                    "param": [
                        "7268903",
                        "2"
                    ]
                },
                {
                    "type": "QUEST_COND_STATE_EQUAL",
                    "param": [
                        "7268901",
                        "2"
                    ]
                }
            ],
            "priority": 5,
            "initDialog": 726870201,
            "npcId": [
                30171
            ],
            "performCfg": "QuestDialogue/WQ/Inazuma_72687/Q7268702",
            "heroTalk": "TALK_HERO_MAIN",
            "questId": 72689,
            "assetIndex": 7291043812570133263,
            "prePerformCfg": ""
        }
    ]
}