{
    "id": 72702,
    "type": "WQ",
    "titleTextMapHash": 2317897775,
    "descTextMapHash": 1087264046,
    "luaPath": "Actor/Quest/WQ72702",
    "subQuests": [
        {
            "subId": 7270201,
            "mainId": 72702,
            "order": 1,
            "descTextMapHash": 2300319964,
            "finishCond": [
                {
                    "type": "QUEST_CONTENT_LUA_NOTIFY",
                    "param": [
                        0,
                        0
                    ],
                    "count": 1
                }
            ],
            "guide": {
                "type": "QUEST_GUIDE_LOCATION",
                "param": [
                    "Q3_72702_0",
                    "30"
                ],
                "guideScene": 3,
                "guideStyle": "QUEST_GUIDE_STYLE_TARGET",
                "guideLayer": "QUEST_GUIDE_LAYER_SCENE"
            },
            "acceptCondComb": {
                "FDPBPIHKEGH": ""
            },
            "finishParent": true,
            "isRewind": true,
            "finishExec": [
                {
                    "type": "QUEST_EXEC_UNREGISTER_DYNAMIC_GROUP",
                    "param": [
                        "133220155"
                    ]
                }
            ],
            "versionBegin": "",
            "versionEnd": ""
        }
    ]
}