{
    "id": 72806,
    "type": "WQ",
    "titleTextMapHash": 3749981687,
    "descTextMapHash": 3511415902,
    "luaPath": "Actor/Quest/WQ72806",
    "rewardIdList": [
        172806
    ],
    "showRedPoint": true,
    "subQuests": [
        {
            "subId": 7280601,
            "mainId": 72806,
            "order": 1,
            "descTextMapHash": 755056780,
            "finishCond": [
                {
                    "type": "QUEST_CONTENT_COMPLETE_TALK",
                    "param": [
                        7280601,
                        0
                    ]
                },
                {
                    "type": "QUEST_CONTENT_COMPLETE_TALK",
                    "param": [
                        7280606,
                        0
                    ]
                }
            ],
            "guide": {
                "type": "QUEST_GUIDE_NPC",
                "param": [
                    "3030"
                ],
                "guideScene": 3,
                "guideStyle": "QUEST_GUIDE_STYLE_TARGET",
                "guideLayer": "QUEST_GUIDE_LAYER_SCENE"
            },
            "acceptCondComb": {
                "FDPBPIHKEGH": ""
            },
            "isRewind": true,
            "versionBegin": "",
            "versionEnd": ""
        },
        {
            "subId": 7280602,
            "mainId": 72806,
            "order": 2,
            "descTextMapHash": 2886502348,
            "finishCond": [
                {
                    "type": "QUEST_CONTENT_COMPLETE_TALK",
                    "param": [
                        7280602,
                        0
                    ]
                }
            ],
            "guide": {
                "type": "QUEST_GUIDE_NPC",
                "param": [
                    "1624"
                ],
                "guideScene": 3,
                "guideStyle": "QUEST_GUIDE_STYLE_TARGET",
                "guideLayer": "QUEST_GUIDE_LAYER_SCENE"
            },
            "acceptCondComb": {
                "FDPBPIHKEGH": ""
            },
            "isRewind": true,
            "finishExec": [
                {
                    "type": "QUEST_EXEC_DEL_ALL_SPECIFIC_PACK_ITEM",
                    "param": [
                        "100875"
                    ]
                }
            ],
            "versionBegin": "",
            "versionEnd": ""
        },
        {
            "subId": 7280603,
            "mainId": 72806,
            "order": 3,
            "descTextMapHash": 3328964300,
            "finishCond": [
                {
                    "type": "QUEST_CONTENT_FINISH_PLOT",
                    "param": [
                        7280603,
                        0
                    ]
                }
            ],
            "guide": {
                "type": "QUEST_GUIDE_LOCATION",
                "param": [
                    "Q7280603XQ",
                    "30"
                ],
                "guideScene": 3,
                "guideStyle": "QUEST_GUIDE_STYLE_POINT",
                "guideLayer": "QUEST_GUIDE_LAYER_SCENE"
            },
            "showGuide": "QUEST_GUIDE_ITEM_DISABLE",
            "acceptCondComb": {
                "FDPBPIHKEGH": ""
            },
            "isRewind": true,
            "versionBegin": "",
            "versionEnd": ""
        },
        {
            "subId": 7280604,
            "mainId": 72806,
            "order": 4,
            "descTextMapHash": 2588861380,
            "finishCond": [
                {
                    "type": "QUEST_CONTENT_COMPLETE_TALK",
                    "param": [
                        7280604,
                        0
                    ]
                }
            ],
            "guide": {
                "type": "QUEST_GUIDE_NPC",
                "param": [
                    "10045"
                ],
                "guideScene": 3,
                "guideStyle": "QUEST_GUIDE_STYLE_TARGET",
                "guideLayer": "QUEST_GUIDE_LAYER_SCENE"
            },
            "acceptCondComb": {
                "FDPBPIHKEGH": ""
            },
            "isRewind": true,
            "finishExec": [
                {
                    "type": "QUEST_EXEC_DEL_ALL_SPECIFIC_PACK_ITEM",
                    "param": [
                        "100876"
                    ]
                }
            ],
            "versionBegin": "",
            "versionEnd": ""
        },
        {
            "subId": 7280605,
            "mainId": 72806,
            "order": 5,
            "descTextMapHash": 1932155156,
            "finishCond": [
                {
                    "type": "QUEST_CONTENT_COMPLETE_TALK",
                    "param": [
                        7280605,
                        0
                    ]
                },
                {
                    "type": "QUEST_CONTENT_COMPLETE_TALK",
                    "param": [
                        7280607,
                        0
                    ]
                }
            ],
            "guide": {
                "type": "QUEST_GUIDE_NPC",
                "param": [
                    "3030"
                ],
                "guideScene": 3,
                "guideStyle": "QUEST_GUIDE_STYLE_TARGET",
                "guideLayer": "QUEST_GUIDE_LAYER_SCENE"
            },
            "acceptCondComb": {
                "FDPBPIHKEGH": ""
            },
            "finishParent": true,
            "isRewind": true,
            "versionBegin": "",
            "versionEnd": ""
        }
    ],
    "talks": [
        {
            "id": 7280602,
            "beginWay": "TALK_BEGIN_MANUAL",
            "beginCond": [
                {
                    "type": "QUEST_COND_STATE_EQUAL",
                    "param": [
                        "7280602",
                        "2"
                    ]
                }
            ],
            "priority": 5,
            "initDialog": 728060201,
            "npcId": [
                1624
            ],
            "performCfg": "QuestDialogue/WQ/Inazuma_72806/Q7280602",
            "heroTalk": "TALK_HERO_MAIN",
            "questId": 72806,
            "assetIndex": 10345423487543430561,
            "prePerformCfg": ""
        },
        {
            "id": 7280604,
            "beginWay": "TALK_BEGIN_MANUAL",
            "beginCond": [
                {
                    "type": "QUEST_COND_STATE_EQUAL",
                    "param": [
                        "7280604",
                        "2"
                    ]
                }
            ],
            "priority": 5,
            "initDialog": 728060401,
            "npcId": [
                10045
            ],
            "performCfg": "QuestDialogue/WQ/Inazuma_72806/Q7280604",
            "heroTalk": "TALK_HERO_MAIN",
            "questId": 72806,
            "assetIndex": 3141070861552174221,
            "prePerformCfg": ""
        },
        {
            "id": 7280605,
            "beginWay": "TALK_BEGIN_MANUAL",
            "beginCondComb": "LOGIC_AND",
            "beginCond": [
                {
                    "type": "QUEST_COND_STATE_EQUAL",
                    "param": [
                        "7280605",
                        "2"
                    ]
                },
                {
                    "type": "QUEST_COND_QUEST_GLOBAL_VAR_EQUAL",
                    "param": [
                        "12042",
                        "0"
                    ]
                }
            ],
            "priority": 5,
            "initDialog": 728060501,
            "npcId": [
                3030
            ],
            "performCfg": "",
            "heroTalk": "TALK_HERO_MAIN",
            "questId": 72806,
            "assetIndex": 18348724305278800197,
            "prePerformCfg": ""
        },
        {
            "id": 7280607,
            "beginWay": "TALK_BEGIN_MANUAL",
            "beginCondComb": "LOGIC_AND",
            "beginCond": [
                {
                    "type": "QUEST_COND_STATE_EQUAL",
                    "param": [
                        "7280605",
                        "2"
                    ]
                },
                {
                    "type": "QUEST_COND_QUEST_GLOBAL_VAR_EQUAL",
                    "param": [
                        "12042",
                        "1"
                    ]
                }
            ],
            "priority": 7,
            "initDialog": 728060701,
            "npcId": [
                3030
            ],
            "performCfg": "",
            "heroTalk": "TALK_HERO_MAIN",
            "questId": 72806,
            "assetIndex": 4872890671671787086,
            "prePerformCfg": ""
        },
        {
            "id": 7280610,
            "beginWay": "TALK_BEGIN_MANUAL",
            "beginCondComb": "LOGIC_OR",
            "beginCond": [
                {
                    "type": "QUEST_COND_STATE_EQUAL",
                    "param": [
                        "7280602",
                        "2"
                    ]
                },
                {
                    "type": "QUEST_COND_STATE_EQUAL",
                    "param": [
                        "7280603",
                        "2"
                    ]
                },
                {
                    "type": "QUEST_COND_STATE_EQUAL",
                    "param": [
                        "7280604",
                        "2"
                    ]
                }
            ],
            "priority": 3,
            "initDialog": 728061001,
            "npcId": [
                3030
            ],
            "performCfg": "",
            "heroTalk": "TALK_HERO_MAIN",
            "questId": 72806,
            "assetIndex": 10452419297744002237,
            "prePerformCfg": "",
            "lowPriority": true
        },
        {
            "id": 7280611,
            "beginWay": "TALK_BEGIN_MANUAL",
            "beginCondComb": "LOGIC_OR",
            "beginCond": [
                {
                    "type": "QUEST_COND_STATE_EQUAL",
                    "param": [
                        "7280603",
                        "2"
                    ]
                },
                {
                    "type": "QUEST_COND_STATE_EQUAL",
                    "param": [
                        "7280604",
                        "2"
                    ]
                },
                {
                    "type": "QUEST_COND_STATE_EQUAL",
                    "param": [
                        "7280605",
                        "2"
                    ]
                }
            ],
            "priority": 3,
            "initDialog": 728061101,
            "npcId": [
                1624
            ],
            "performCfg": "",
            "heroTalk": "TALK_HERO_MAIN",
            "questId": 72806,
            "assetIndex": 3688142765678501833,
            "prePerformCfg": "",
            "lowPriority": true
        },
        {
            "id": 7280612,
            "beginWay": "TALK_BEGIN_MANUAL",
            "beginCondComb": "LOGIC_OR",
            "beginCond": [
                {
                    "type": "QUEST_COND_STATE_EQUAL",
                    "param": [
                        "7280604",
                        "2"
                    ]
                },
                {
                    "type": "QUEST_COND_STATE_EQUAL",
                    "param": [
                        "7280605",
                        "2"
                    ]
                }
            ],
            "priority": 3,
            "initDialog": 728061201,
            "npcId": [
                10045
            ],
            "performCfg": "",
            "heroTalk": "TALK_HERO_MAIN",
            "questId": 72806,
            "assetIndex": 12694481299364094044,
            "prePerformCfg": "",
            "lowPriority": true
        }
    ],
    "FFDPMMFBDAE": [
        14457059026087496718,
        13093444531955390975
    ],
    "IGKJEKALOKN": [
        2749381846687234459
    ]
}