{
    "id": 73009,
    "series": 73009,
    "type": "WQ",
    "activeMode": "PLAY_MODE_ALL",
    "titleTextMapHash": 3550361215,
    "luaPath": "Actor/Quest/WQ73009",
    "showType": "QUEST_HIDDEN",
    "subQuests": [
        {
            "subId": 7300901,
            "mainId": 73009,
            "order": 1,
            "showType": "QUEST_HIDDEN",
            "finishCond": [
                {
                    "type": "QUEST_CONTENT_QUEST_STATE_EQUAL",
                    "param": [
                        7302515,
                        3
                    ]
                }
            ],
            "guide": {},
            "acceptCondComb": {
                "FDPBPIHKEGH": ""
            },
            "isRewind": true,
            "versionBegin": "",
            "versionEnd": ""
        },
        {
            "subId": 7300902,
            "mainId": 73009,
            "order": 2,
            "showType": "QUEST_HIDDEN",
            "finishCond": [
                {
                    "type": "QUEST_CONTENT_QUEST_STATE_EQUAL",
                    "param": [
                        7303301,
                        3
                    ]
                }
            ],
            "guide": {},
            "acceptCondComb": {
                "FDPBPIHKEGH": ""
            },
            "isRewind": true,
            "versionBegin": "",
            "versionEnd": ""
        },
        {
            "subId": 7300903,
            "mainId": 73009,
            "order": 3,
            "showType": "QUEST_HIDDEN",
            "finishCond": [
                {
                    "type": "QUEST_CONTENT_QUEST_STATE_EQUAL",
                    "param": [
                        7303106,
                        3
                    ]
                }
            ],
            "guide": {},
            "acceptCondComb": {
                "FDPBPIHKEGH": ""
            },
            "isRewind": true,
            "versionBegin": "",
            "versionEnd": ""
        },
        {
            "subId": 7300904,
            "mainId": 73009,
            "order": 4,
            "showType": "QUEST_HIDDEN",
            "finishCond": [
                {
                    "type": "QUEST_CONTENT_QUEST_STATE_EQUAL",
                    "param": [
                        7303105,
                        3
                    ]
                },
                {
                    "type": "QUEST_CONTENT_QUEST_STATE_EQUAL",
                    "param": [
                        7303105,
                        4
                    ]
                }
            ],
            "guide": {},
            "acceptCondComb": {
                "FDPBPIHKEGH": ""
            },
            "isRewind": true,
            "versionBegin": "",
            "versionEnd": ""
        },
        {
            "subId": 7300905,
            "mainId": 73009,
            "order": 5,
            "showType": "QUEST_HIDDEN",
            "finishCond": [
                {
                    "type": "QUEST_CONTENT_QUEST_STATE_EQUAL",
                    "param": [
                        7303801,
                        3
                    ]
                }
            ],
            "guide": {},
            "acceptCondComb": {
                "FDPBPIHKEGH": ""
            },
            "isRewind": true,
            "versionBegin": "",
            "versionEnd": ""
        },
        {
            "subId": 7300906,
            "mainId": 73009,
            "order": 6,
            "showType": "QUEST_HIDDEN",
            "finishCond": [
                {
                    "type": "QUEST_CONTENT_QUEST_STATE_EQUAL",
                    "param": [
                        7303803,
                        3
                    ]
                }
            ],
            "guide": {},
            "acceptCondComb": {
                "FDPBPIHKEGH": ""
            },
            "finishParent": true,
            "isRewind": true,
            "versionBegin": "",
            "versionEnd": ""
        }
    ],
    "talks": [
        {
            "id": 7300901,
            "beginWay": "TALK_BEGIN_MANUAL",
            "activeMode": "PLAY_MODE_HOST",
            "beginCond": [
                {
                    "type": "QUEST_COND_STATE_EQUAL",
                    "param": [
                        "7300901",
                        "2"
                    ]
                }
            ],
            "priority": 5,
            "initDialog": 730090101,
            "npcId": [
                20647
            ],
            "performCfg": "",
            "questId": 73009,
            "assetIndex": 4463919085842952584,
            "prePerformCfg": ""
        },
        {
            "id": 7300902,
            "beginWay": "TALK_BEGIN_MANUAL",
            "activeMode": "PLAY_MODE_HOST",
            "beginCond": [
                {
                    "type": "QUEST_COND_STATE_EQUAL",
                    "param": [
                        "7300901",
                        "2"
                    ]
                }
            ],
            "priority": 5,
            "initDialog": 730090201,
            "npcId": [
                20813
            ],
            "performCfg": "",
            "questId": 73009,
            "assetIndex": 11775753926812321990,
            "prePerformCfg": ""
        },
        {
            "id": 7300903,
            "beginWay": "TALK_BEGIN_MANUAL",
            "activeMode": "PLAY_MODE_HOST",
            "beginCondComb": "LOGIC_OR",
            "beginCond": [
                {
                    "type": "QUEST_COND_STATE_EQUAL",
                    "param": [
                        "7300902",
                        "2"
                    ]
                },
                {
                    "type": "QUEST_COND_STATE_EQUAL",
                    "param": [
                        "7300903",
                        "2"
                    ]
                }
            ],
            "priority": 5,
            "initDialog": 730090301,
            "npcId": [
                20813
            ],
            "performCfg": "",
            "questId": 73009,
            "assetIndex": 6566500270448115995,
            "prePerformCfg": ""
        },
        {
            "id": 7300904,
            "beginWay": "TALK_BEGIN_MANUAL",
            "activeMode": "PLAY_MODE_HOST",
            "beginCond": [
                {
                    "type": "QUEST_COND_STATE_EQUAL",
                    "param": [
                        "7300905",
                        "2"
                    ]
                }
            ],
            "priority": 5,
            "initDialog": 730090401,
            "npcId": [
                20813
            ],
            "performCfg": "",
            "questId": 73009,
            "assetIndex": 18336930951452339646,
            "prePerformCfg": ""
        },
        {
            "id": 7300905,
            "beginWay": "TALK_BEGIN_MANUAL",
            "activeMode": "PLAY_MODE_HOST",
            "beginCond": [
                {
                    "type": "QUEST_COND_STATE_EQUAL",
                    "param": [
                        "7300902",
                        "2"
                    ]
                }
            ],
            "priority": 10,
            "nextTalks": [
                7300906,
                7300909,
                7300914,
                7300910,
                7300915,
                7300911,
                7300912
            ],
            "initDialog": 730090501,
            "npcId": [
                20648
            ],
            "performCfg": "",
            "questId": 73009,
            "assetIndex": 3434929131640627955,
            "prePerformCfg": ""
        },
        {
            "id": 7300906,
            "beginWay": "TALK_BEGIN_MANUAL",
            "activeMode": "PLAY_MODE_HOST",
            "beginCondComb": "LOGIC_A_AND_ETCOR",
            "beginCond": [
                {
                    "type": "QUEST_COND_STATE_EQUAL",
                    "param": [
                        "7300902",
                        "2"
                    ]
                },
                {
                    "type": "QUEST_COND_STATE_EQUAL",
                    "param": [
                        "7301301",
                        "2"
                    ]
                },
                {
                    "type": "QUEST_COND_STATE_EQUAL",
                    "param": [
                        "7308102",
                        "2"
                    ]
                }
            ],
            "priority": 5,
            "nextTalks": [
                7300907,
                7300908
            ],
            "initDialog": 730090601,
            "npcId": [
                20648
            ],
            "performCfg": "",
            "questId": 73009,
            "assetIndex": 7317480966820895305,
            "prePerformCfg": ""
        },
        {
            "id": 7300907,
            "beginWay": "TALK_BEGIN_MANUAL",
            "activeMode": "PLAY_MODE_HOST",
            "beginCondComb": "LOGIC_AND",
            "beginCond": [
                {
                    "type": "QUEST_COND_STATE_EQUAL",
                    "param": [
                        "7300902",
                        "2"
                    ]
                },
                {
                    "type": "QUEST_COND_STATE_EQUAL",
                    "param": [
                        "7301301",
                        "2"
                    ]
                },
                {
                    "type": "QUEST_COND_QUEST_GLOBAL_VAR_EQUAL",
                    "param": [
                        "7300907",
                        "0"
                    ]
                }
            ],
            "priority": 5,
            "initDialog": 730090701,
            "npcId": [
                20648
            ],
            "performCfg": "",
            "questId": 73009,
            "assetIndex": 7057288202916642291,
            "prePerformCfg": "",
            "finishExec": [
                {
                    "type": "TALK_EXEC_SET_QUEST_GLOBAL_VAR",
                    "param": [
                        "7300907",
                        "1"
                    ]
                }
            ]
        },
        {
            "id": 7300908,
            "beginWay": "TALK_BEGIN_MANUAL",
            "activeMode": "PLAY_MODE_HOST",
            "beginCondComb": "LOGIC_AND",
            "beginCond": [
                {
                    "type": "QUEST_COND_STATE_EQUAL",
                    "param": [
                        "7300902",
                        "2"
                    ]
                },
                {
                    "type": "QUEST_COND_STATE_EQUAL",
                    "param": [
                        "7308102",
                        "2"
                    ]
                },
                {
                    "type": "QUEST_COND_QUEST_GLOBAL_VAR_EQUAL",
                    "param": [
                        "7300908",
                        "0"
                    ]
                }
            ],
            "priority": 5,
            "initDialog": 730090801,
            "npcId": [
                20648
            ],
            "performCfg": "",
            "questId": 73009,
            "assetIndex": 11144941827209743469,
            "prePerformCfg": "",
            "finishExec": [
                {
                    "type": "TALK_EXEC_SET_QUEST_GLOBAL_VAR",
                    "param": [
                        "7300908",
                        "1"
                    ]
                }
            ]
        },
        {
            "id": 7300909,
            "beginWay": "TALK_BEGIN_MANUAL",
            "activeMode": "PLAY_MODE_HOST",
            "beginCondComb": "LOGIC_AND",
            "beginCond": [
                {
                    "type": "QUEST_COND_STATE_EQUAL",
                    "param": [
                        "7300902",
                        "2"
                    ]
                },
                {
                    "type": "QUEST_COND_QUEST_GLOBAL_VAR_EQUAL",
                    "param": [
                        "302821",
                        "0"
                    ]
                }
            ],
            "priority": 5,
            "initDialog": 730090901,
            "npcId": [
                20648
            ],
            "performCfg": "",
            "questId": 73009,
            "assetIndex": 3387708027553603728,
            "prePerformCfg": ""
        },
        {
            "id": 7300910,
            "beginWay": "TALK_BEGIN_MANUAL",
            "activeMode": "PLAY_MODE_HOST",
            "beginCondComb": "LOGIC_AND",
            "beginCond": [
                {
                    "type": "QUEST_COND_STATE_EQUAL",
                    "param": [
                        "7300902",
                        "2"
                    ]
                },
                {
                    "type": "QUEST_COND_QUEST_GLOBAL_VAR_EQUAL",
                    "param": [
                        "302821",
                        "0"
                    ]
                }
            ],
            "priority": 5,
            "initDialog": 730091001,
            "npcId": [
                20648
            ],
            "performCfg": "",
            "questId": 73009,
            "assetIndex": 17485347041944962913,
            "prePerformCfg": ""
        },
        {
            "id": 7300911,
            "beginWay": "TALK_BEGIN_MANUAL",
            "activeMode": "PLAY_MODE_HOST",
            "beginCond": [
                {
                    "type": "QUEST_COND_STATE_EQUAL",
                    "param": [
                        "7300902",
                        "2"
                    ]
                }
            ],
            "priority": 5,
            "initDialog": 730091101,
            "npcId": [
                20648
            ],
            "performCfg": "",
            "questId": 73009,
            "assetIndex": 444990085244610373,
            "prePerformCfg": ""
        },
        {
            "id": 7300912,
            "beginWay": "TALK_BEGIN_MANUAL",
            "activeMode": "PLAY_MODE_HOST",
            "beginCond": [
                {
                    "type": "QUEST_COND_STATE_EQUAL",
                    "param": [
                        "7300902",
                        "2"
                    ]
                }
            ],
            "priority": 5,
            "initDialog": 730091201,
            "npcId": [
                20648
            ],
            "performCfg": "",
            "questId": 73009,
            "assetIndex": 9196163360041100197,
            "prePerformCfg": ""
        },
        {
            "id": 7300913,
            "beginWay": "TALK_BEGIN_MANUAL",
            "activeMode": "PLAY_MODE_HOST",
            "beginCond": [
                {
                    "type": "QUEST_COND_STATE_EQUAL",
                    "param": [
                        "7300906",
                        "2"
                    ]
                }
            ],
            "priority": 5,
            "initDialog": 730091301,
            "npcId": [
                20648
            ],
            "performCfg": "",
            "questId": 73009,
            "assetIndex": 17639491841600029686,
            "prePerformCfg": ""
        },
        {
            "id": 7300914,
            "beginWay": "TALK_BEGIN_MANUAL",
            "activeMode": "PLAY_MODE_HOST",
            "beginCondComb": "LOGIC_AND",
            "beginCond": [
                {
                    "type": "QUEST_COND_STATE_EQUAL",
                    "param": [
                        "7300902",
                        "2"
                    ]
                },
                {
                    "type": "QUEST_COND_QUEST_GLOBAL_VAR_EQUAL",
                    "param": [
                        "302821",
                        "1"
                    ]
                }
            ],
            "priority": 5,
            "initDialog": 730091401,
            "npcId": [
                20648
            ],
            "performCfg": "",
            "questId": 73009,
            "assetIndex": 10216177968235520337,
            "prePerformCfg": ""
        },
        {
            "id": 7300915,
            "beginWay": "TALK_BEGIN_MANUAL",
            "activeMode": "PLAY_MODE_HOST",
            "beginCondComb": "LOGIC_AND",
            "beginCond": [
                {
                    "type": "QUEST_COND_STATE_EQUAL",
                    "param": [
                        "7300902",
                        "2"
                    ]
                },
                {
                    "type": "QUEST_COND_QUEST_GLOBAL_VAR_EQUAL",
                    "param": [
                        "302821",
                        "1"
                    ]
                }
            ],
            "priority": 5,
            "initDialog": 730091501,
            "npcId": [
                20648
            ],
            "performCfg": "",
            "questId": 73009,
            "assetIndex": 26700217726984343,
            "prePerformCfg": ""
        }
    ]
}