{
    "id": 73016,
    "series": 73014,
    "type": "WQ",
    "mainQuestTag": "MAINQUEST_TAG_RANK_ZERO_WQ",
    "activeMode": "PLAY_MODE_ALL",
    "titleTextMapHash": 466571783,
    "descTextMapHash": 894377262,
    "luaPath": "Actor/Quest/WQ73016",
    "suggestTrackMainQuestList": [
        73015,
        73017,
        73018
    ],
    "rewardIdList": [
        173016
    ],
    "chapterId": 10072,
    "subQuests": [
        {
            "subId": 7301601,
            "mainId": 73016,
            "order": 1,
            "descTextMapHash": 1281572396,
            "finishCond": [
                {
                    "type": "QUEST_CONTENT_FINISH_PLOT",
                    "param": [
                        7301601,
                        0
                    ]
                }
            ],
            "guide": {
                "type": "QUEST_GUIDE_LOCATION",
                "param": [
                    "guide_Q7301601",
                    "30"
                ],
                "guideScene": 3,
                "guideStyle": "QUEST_GUIDE_STYLE_POINT",
                "guideLayer": "QUEST_GUIDE_LAYER_SCENE"
            },
            "showGuide": "QUEST_GUIDE_ITEM_DISABLE",
            "acceptCondComb": {
                "FDPBPIHKEGH": ""
            },
            "isRewind": true,
            "versionBegin": "",
            "versionEnd": ""
        },
        {
            "subId": 7301602,
            "mainId": 73016,
            "order": 2,
            "descTextMapHash": 2686797948,
            "finishCond": [
                {
                    "type": "QUEST_CONTENT_COMPLETE_TALK",
                    "param": [
                        7301602,
                        0
                    ]
                }
            ],
            "guide": {
                "type": "QUEST_GUIDE_NPC",
                "param": [
                    "20606"
                ],
                "guideScene": 3,
                "guideStyle": "QUEST_GUIDE_STYLE_TARGET",
                "guideLayer": "QUEST_GUIDE_LAYER_SCENE"
            },
            "acceptCondComb": {
                "FDPBPIHKEGH": ""
            },
            "isRewind": true,
            "finishExec": [
                {
                    "type": "QUEST_EXEC_REFRESH_GROUP_SUITE",
                    "param": [
                        "3",
                        "133303547,2"
                    ]
                }
            ],
            "versionBegin": "",
            "versionEnd": ""
        },
        {
            "subId": 7301603,
            "mainId": 73016,
            "order": 3,
            "descTextMapHash": 3943182252,
            "finishCond": [
                {
                    "type": "QUEST_CONTENT_COMPLETE_TALK",
                    "param": [
                        7301603,
                        0
                    ]
                }
            ],
            "guide": {
                "type": "QUEST_GUIDE_NPC",
                "param": [
                    "20606"
                ],
                "guideScene": 3,
                "guideStyle": "QUEST_GUIDE_STYLE_TARGET",
                "guideLayer": "QUEST_GUIDE_LAYER_SCENE"
            },
            "acceptCondComb": {
                "FDPBPIHKEGH": ""
            },
            "isRewind": true,
            "finishExec": [
                {
                    "type": "QUEST_EXEC_REFRESH_GROUP_SUITE",
                    "param": [
                        "3",
                        "133303547,1"
                    ]
                }
            ],
            "versionBegin": "",
            "versionEnd": ""
        },
        {
            "subId": 7301604,
            "mainId": 73016,
            "order": 4,
            "descTextMapHash": 280951940,
            "stepDescTextMapHash": 2950526181,
            "finishCond": [
                {
                    "type": "QUEST_CONTENT_LUA_NOTIFY",
                    "param": [
                        0,
                        0
                    ],
                    "count": 1
                }
            ],
            "guide": {
                "type": "QUEST_GUIDE_LOCATION",
                "param": [
                    "guide_Q7301604",
                    "30"
                ],
                "guideScene": 3,
                "guideStyle": "QUEST_GUIDE_STYLE_POINT",
                "guideLayer": "QUEST_GUIDE_LAYER_SCENE"
            },
            "acceptCondComb": {
                "FDPBPIHKEGH": ""
            },
            "isRewind": true,
            "versionBegin": "",
            "versionEnd": ""
        },
        {
            "subId": 7301605,
            "mainId": 73016,
            "order": 5,
            "descTextMapHash": 3321807380,
            "finishCond": [
                {
                    "type": "QUEST_CONTENT_LUA_NOTIFY",
                    "param": [
                        0,
                        0
                    ],
                    "count": 1
                }
            ],
            "guide": {
                "type": "QUEST_GUIDE_LOCATION",
                "param": [
                    "guide_Q7301605",
                    "30"
                ],
                "guideScene": 3,
                "guideStyle": "QUEST_GUIDE_STYLE_POINT",
                "guideLayer": "QUEST_GUIDE_LAYER_SCENE"
            },
            "acceptCondComb": {
                "FDPBPIHKEGH": ""
            },
            "isRewind": true,
            "versionBegin": "",
            "versionEnd": ""
        },
        {
            "subId": 7301606,
            "mainId": 73016,
            "order": 6,
            "descTextMapHash": 886993204,
            "finishCond": [
                {
                    "type": "QUEST_CONTENT_LUA_NOTIFY",
                    "param": [
                        0,
                        0
                    ],
                    "count": 1
                }
            ],
            "guide": {
                "type": "QUEST_GUIDE_LOCATION",
                "param": [
                    "guide_Q7301606",
                    "30"
                ],
                "guideScene": 3,
                "guideStyle": "QUEST_GUIDE_STYLE_POINT",
                "guideLayer": "QUEST_GUIDE_LAYER_SCENE"
            },
            "acceptCondComb": {
                "FDPBPIHKEGH": ""
            },
            "isRewind": true,
            "versionBegin": "",
            "versionEnd": ""
        },
        {
            "subId": 7301607,
            "mainId": 73016,
            "order": 8,
            "descTextMapHash": 2976468284,
            "finishCond": [
                {
                    "type": "QUEST_CONTENT_COMPLETE_TALK",
                    "param": [
                        7301607,
                        0
                    ]
                }
            ],
            "guide": {
                "type": "QUEST_GUIDE_NPC",
                "param": [
                    "20606"
                ],
                "guideScene": 3,
                "guideStyle": "QUEST_GUIDE_STYLE_TARGET",
                "guideLayer": "QUEST_GUIDE_LAYER_SCENE"
            },
            "acceptCondComb": {
                "FDPBPIHKEGH": ""
            },
            "isRewind": true,
            "versionBegin": "",
            "versionEnd": ""
        },
        {
            "subId": 7301608,
            "mainId": 73016,
            "order": 9,
            "descTextMapHash": 3220411452,
            "finishCond": [
                {
                    "type": "QUEST_CONTENT_LUA_NOTIFY",
                    "param": [
                        0,
                        0
                    ],
                    "count": 1
                }
            ],
            "guide": {
                "type": "QUEST_GUIDE_LOCATION",
                "param": [
                    "guide_Q7301608"
                ],
                "guideScene": 3,
                "guideStyle": "QUEST_GUIDE_STYLE_POINT",
                "guideLayer": "QUEST_GUIDE_LAYER_SCENE"
            },
            "showGuide": "QUEST_GUIDE_ITEM_DISABLE",
            "acceptCondComb": {
                "FDPBPIHKEGH": ""
            },
            "isRewind": true,
            "finishExec": [
                {
                    "type": "QUEST_EXEC_REFRESH_GROUP_SUITE",
                    "param": [
                        "3",
                        "133303137,1;133303138,1;133303139,1;133303140,1;133303141,1;133303142,1;133303144,1"
                    ]
                }
            ],
            "versionBegin": "",
            "versionEnd": ""
        },
        {
            "subId": 7301609,
            "mainId": 73016,
            "order": 10,
            "descTextMapHash": 3406546836,
            "stepDescTextMapHash": 1343462373,
            "finishCond": [
                {
                    "type": "QUEST_CONTENT_FINISH_PLOT",
                    "param": [
                        7301609,
                        0
                    ]
                }
            ],
            "guide": {
                "type": "QUEST_GUIDE_LOCATION",
                "param": [
                    "guide_Q7301613",
                    "30"
                ],
                "guideScene": 3,
                "guideStyle": "QUEST_GUIDE_STYLE_POINT",
                "guideLayer": "QUEST_GUIDE_LAYER_SCENE",
                "BKEIJEFHFOM": 2101,
                "DFJEPHKCJNN": 21010003
            },
            "acceptCondComb": {
                "FDPBPIHKEGH": ""
            },
            "isRewind": true,
            "versionBegin": "",
            "versionEnd": ""
        },
        {
            "subId": 7301610,
            "mainId": 73016,
            "order": 11,
            "descTextMapHash": 712669060,
            "finishCond": [
                {
                    "type": "QUEST_CONTENT_COMPLETE_TALK",
                    "param": [
                        7301610,
                        0
                    ]
                }
            ],
            "guide": {
                "type": "QUEST_GUIDE_NPC",
                "param": [
                    "20606"
                ],
                "guideScene": 3,
                "guideStyle": "QUEST_GUIDE_STYLE_TARGET",
                "guideLayer": "QUEST_GUIDE_LAYER_SCENE",
                "BKEIJEFHFOM": 2101,
                "DFJEPHKCJNN": 21010003
            },
            "acceptCondComb": {
                "FDPBPIHKEGH": ""
            },
            "isRewind": true,
            "versionBegin": "",
            "versionEnd": ""
        },
        {
            "subId": 7301611,
            "mainId": 73016,
            "order": 13,
            "descTextMapHash": 1314070332,
            "finishCond": [
                {
                    "type": "QUEST_CONTENT_LUA_NOTIFY",
                    "param": [
                        0,
                        0
                    ],
                    "count": 1
                }
            ],
            "guide": {
                "type": "QUEST_GUIDE_LOCATION",
                "param": [
                    "guide_Q7301615",
                    "30"
                ],
                "guideScene": 3,
                "guideStyle": "QUEST_GUIDE_STYLE_POINT",
                "guideLayer": "QUEST_GUIDE_LAYER_SCENE",
                "BKEIJEFHFOM": 2101,
                "DFJEPHKCJNN": 21010003
            },
            "showGuide": "QUEST_GUIDE_ITEM_DISABLE",
            "acceptCondComb": {
                "FDPBPIHKEGH": ""
            },
            "isRewind": true,
            "versionBegin": "",
            "versionEnd": ""
        },
        {
            "subId": 7301612,
            "mainId": 73016,
            "order": 99,
            "finishCond": [
                {
                    "type": "QUEST_CONTENT_COMPLETE_TALK",
                    "param": [
                        7301612,
                        0
                    ]
                }
            ],
            "guide": {
                "type": "QUEST_GUIDE_NPC",
                "param": [
                    "20606"
                ],
                "guideScene": 3,
                "guideStyle": "QUEST_GUIDE_STYLE_TARGET",
                "guideLayer": "QUEST_GUIDE_LAYER_SCENE"
            },
            "acceptCondComb": {
                "FDPBPIHKEGH": ""
            },
            "isRewind": true,
            "versionBegin": "",
            "versionEnd": ""
        },
        {
            "subId": 7301613,
            "mainId": 73016,
            "order": 12,
            "descTextMapHash": 1684689652,
            "finishCond": [
                {
                    "type": "QUEST_CONTENT_LUA_NOTIFY",
                    "param": [
                        0,
                        0
                    ],
                    "count": 1
                }
            ],
            "guide": {
                "type": "QUEST_GUIDE_LOCATION",
                "param": [
                    "guide_Q7301617",
                    "50"
                ],
                "guideScene": 3,
                "guideStyle": "QUEST_GUIDE_STYLE_POINT",
                "guideLayer": "QUEST_GUIDE_LAYER_SCENE",
                "BKEIJEFHFOM": 2101,
                "DFJEPHKCJNN": 21010003
            },
            "showGuide": "QUEST_GUIDE_ITEM_DISABLE",
            "acceptCondComb": {
                "FDPBPIHKEGH": ""
            },
            "isRewind": true,
            "versionBegin": "",
            "versionEnd": ""
        },
        {
            "subId": 7301614,
            "mainId": 73016,
            "order": 98,
            "finishCond": [
                {
                    "type": "QUEST_CONTENT_COMPLETE_TALK",
                    "param": [
                        7301614,
                        0
                    ]
                }
            ],
            "guide": {
                "type": "QUEST_GUIDE_NPC",
                "param": [
                    "20606"
                ],
                "guideScene": 3,
                "guideStyle": "QUEST_GUIDE_STYLE_TARGET",
                "guideLayer": "QUEST_GUIDE_LAYER_SCENE"
            },
            "acceptCondComb": {
                "FDPBPIHKEGH": ""
            },
            "isRewind": true,
            "versionBegin": "",
            "versionEnd": ""
        },
        {
            "subId": 7301615,
            "mainId": 73016,
            "order": 16,
            "descTextMapHash": 3328852652,
            "finishCond": [
                {
                    "type": "QUEST_CONTENT_COMPLETE_TALK",
                    "param": [
                        7301615,
                        0
                    ]
                },
                {
                    "type": "QUEST_CONTENT_FINISH_PLOT",
                    "param": [
                        7301615,
                        0
                    ]
                }
            ],
            "failCond": [
                {
                    "type": "QUEST_CONTENT_COMPLETE_TALK",
                    "param": [
                        7301615,
                        0
                    ]
                },
                {
                    "type": "QUEST_CONTENT_NOT_FINISH_PLOT",
                    "param": [
                        7301615,
                        0
                    ]
                }
            ],
            "guide": {
                "type": "QUEST_GUIDE_NPC",
                "param": [
                    "20606"
                ],
                "guideScene": 3,
                "guideStyle": "QUEST_GUIDE_STYLE_TARGET",
                "guideLayer": "QUEST_GUIDE_LAYER_SCENE",
                "BKEIJEFHFOM": 2101,
                "DFJEPHKCJNN": 21010003
            },
            "acceptCondComb": {
                "FDPBPIHKEGH": ""
            },
            "isRewind": true,
            "versionBegin": "",
            "versionEnd": ""
        },
        {
            "subId": 7301616,
            "mainId": 73016,
            "order": 7,
            "descTextMapHash": 1233784548,
            "finishCond": [
                {
                    "type": "QUEST_CONTENT_COMPLETE_TALK",
                    "param": [
                        7301616,
                        0
                    ]
                }
            ],
            "guide": {
                "type": "QUEST_GUIDE_NPC",
                "param": [
                    "20606"
                ],
                "guideScene": 3,
                "guideStyle": "QUEST_GUIDE_STYLE_TARGET",
                "guideLayer": "QUEST_GUIDE_LAYER_SCENE"
            },
            "acceptCondComb": {
                "FDPBPIHKEGH": ""
            },
            "isRewind": true,
            "versionBegin": "",
            "versionEnd": ""
        },
        {
            "subId": 7301617,
            "mainId": 73016,
            "order": 17,
            "descTextMapHash": 3519062564,
            "showType": "QUEST_HIDDEN",
            "finishCond": [
                {
                    "type": "QUEST_CONTENT_FINISH_PLOT",
                    "param": [
                        7301617,
                        0
                    ]
                },
                {
                    "type": "QUEST_CONTENT_QUEST_STATE_EQUAL",
                    "param": [
                        7301615,
                        4
                    ]
                }
            ],
            "guide": {
                "guideScene": 3,
                "guideStyle": "QUEST_GUIDE_STYLE_TARGET",
                "guideLayer": "QUEST_GUIDE_LAYER_SCENE"
            },
            "acceptCondComb": {
                "FDPBPIHKEGH": ""
            },
            "finishParent": true,
            "finishExec": [
                {
                    "type": "QUEST_EXEC_REFRESH_WORLD_QUEST_FLOW_GROUP_SUITE",
                    "param": [
                        "133303119,4"
                    ]
                }
            ],
            "versionBegin": "",
            "versionEnd": ""
        }
    ],
    "talks": [
        {
            "id": 7301602,
            "beginWay": "TALK_BEGIN_AUTO",
            "activeMode": "PLAY_MODE_HOST",
            "beginCond": [
                {
                    "type": "QUEST_COND_STATE_EQUAL",
                    "param": [
                        "7301602",
                        "2"
                    ]
                }
            ],
            "priority": 5,
            "initDialog": 730160201,
            "npcId": [
                20606
            ],
            "performCfg": "QuestDialogue/WQ/Sumeru_73016/Q7301602",
            "questId": 73016,
            "assetIndex": 2044105322807604190,
            "prePerformCfg": "",
            "enableCameraDisplacement": true,
            "lockGameTime": true
        },
        {
            "id": 7301603,
            "beginWay": "TALK_BEGIN_MANUAL",
            "activeMode": "PLAY_MODE_HOST",
            "beginCond": [
                {
                    "type": "QUEST_COND_STATE_EQUAL",
                    "param": [
                        "7301603",
                        "2"
                    ]
                }
            ],
            "priority": 5,
            "initDialog": 730160301,
            "npcId": [
                20606,
                1005
            ],
            "performCfg": "QuestDialogue/WQ/Sumeru_73016/Q7301603",
            "heroTalk": "TALK_HERO_MAIN",
            "questId": 73016,
            "assetIndex": 16611184929066018079,
            "prePerformCfg": "",
            "enableCameraDisplacement": true,
            "lockGameTime": true
        },
        {
            "id": 7301607,
            "beginWay": "TALK_BEGIN_MANUAL",
            "activeMode": "PLAY_MODE_HOST",
            "beginCond": [
                {
                    "type": "QUEST_COND_STATE_EQUAL",
                    "param": [
                        "7301607",
                        "2"
                    ]
                }
            ],
            "priority": 5,
            "initDialog": 730160701,
            "npcId": [
                20606,
                1005
            ],
            "performCfg": "QuestDialogue/WQ/Sumeru_73016/Q7301607",
            "heroTalk": "TALK_HERO_MAIN",
            "questId": 73016,
            "assetIndex": 1566191600573318776,
            "prePerformCfg": "",
            "enableCameraDisplacement": true,
            "lockGameTime": true
        },
        {
            "id": 7301610,
            "beginWay": "TALK_BEGIN_AUTO",
            "activeMode": "PLAY_MODE_HOST",
            "beginCond": [
                {
                    "type": "QUEST_COND_STATE_EQUAL",
                    "param": [
                        "7301610",
                        "2"
                    ]
                }
            ],
            "priority": 5,
            "initDialog": 730161001,
            "npcId": [
                1005,
                20606
            ],
            "performCfg": "QuestDialogue/WQ/Sumeru_73016/Q7301610",
            "heroTalk": "TALK_HERO_MAIN",
            "questId": 73016,
            "assetIndex": 3038503515512993283,
            "prePerformCfg": "",
            "enableCameraDisplacement": true,
            "lockGameTime": true
        },
        {
            "id": 7301612,
            "beginWay": "TALK_BEGIN_MANUAL",
            "activeMode": "PLAY_MODE_HOST",
            "beginCond": [
                {
                    "type": "QUEST_COND_STATE_EQUAL",
                    "param": [
                        "7301612",
                        "2"
                    ]
                }
            ],
            "priority": 5,
            "initDialog": 730161201,
            "npcId": [
                20606
            ],
            "performCfg": "",
            "questId": 73016,
            "assetIndex": 2541747497534036987,
            "prePerformCfg": "",
            "enableCameraDisplacement": true,
            "lockGameTime": true
        },
        {
            "id": 7301613,
            "beginWay": "TALK_BEGIN_MANUAL",
            "activeMode": "PLAY_MODE_HOST",
            "beginCond": [
                {
                    "type": "QUEST_COND_STATE_EQUAL",
                    "param": [
                        "7301613",
                        "2"
                    ]
                }
            ],
            "priority": 5,
            "initDialog": 730161301,
            "npcId": [
                20606
            ],
            "performCfg": "",
            "heroTalk": "TALK_HERO_MAIN",
            "questId": 73016,
            "assetIndex": 3540750782411922403,
            "prePerformCfg": "",
            "enableCameraDisplacement": true,
            "lockGameTime": true
        },
        {
            "id": 7301614,
            "beginWay": "TALK_BEGIN_MANUAL",
            "activeMode": "PLAY_MODE_HOST",
            "beginCond": [
                {
                    "type": "QUEST_COND_STATE_EQUAL",
                    "param": [
                        "7301614",
                        "2"
                    ]
                }
            ],
            "priority": 5,
            "initDialog": 730161401,
            "npcId": [
                20606
            ],
            "performCfg": "",
            "questId": 73016,
            "assetIndex": 5700925585344225103,
            "prePerformCfg": "",
            "enableCameraDisplacement": true,
            "lockGameTime": true
        },
        {
            "id": 7301615,
            "beginWay": "TALK_BEGIN_AUTO",
            "activeMode": "PLAY_MODE_HOST",
            "beginCond": [
                {
                    "type": "QUEST_COND_STATE_EQUAL",
                    "param": [
                        "7301615",
                        "2"
                    ]
                }
            ],
            "priority": 5,
            "initDialog": 730161501,
            "npcId": [
                1005,
                20606
            ],
            "performCfg": "QuestDialogue/WQ/Sumeru_73016/Q7301615",
            "heroTalk": "TALK_HERO_MAIN",
            "questId": 73016,
            "assetIndex": 15410323921056128300,
            "prePerformCfg": "",
            "enableCameraDisplacement": true,
            "lockGameTime": true
        },
        {
            "id": 7301616,
            "beginWay": "TALK_BEGIN_AUTO",
            "activeMode": "PLAY_MODE_HOST",
            "beginCond": [
                {
                    "type": "QUEST_COND_STATE_EQUAL",
                    "param": [
                        "7301616",
                        "2"
                    ]
                }
            ],
            "priority": 5,
            "initDialog": 730161601,
            "npcId": [
                20606,
                1005
            ],
            "performCfg": "QuestDialogue/WQ/Sumeru_73016/Q7301616",
            "heroTalk": "TALK_HERO_MAIN",
            "questId": 73016,
            "assetIndex": 13616650614197495835,
            "prePerformCfg": "",
            "enableCameraDisplacement": true,
            "lockGameTime": true
        }
    ],
    "FFDPMMFBDAE": [
        3513439493576706331,
        15680653779767034160,
        2943356341692624930,
        1520645668088003285,
        11882084902866819176,
        18198856092963320737,
        6567113506033541152,
        13399214938298974887,
        13492402728898243332
    ],
    "IGKJEKALOKN": [
        17998964533986761329
    ],
    "freeStyleDic": {
        "20606": [
            8010
        ]
    }
}