{
    "id": 73079,
    "type": "WQ",
    "activeMode": "PLAY_MODE_ALL",
    "titleTextMapHash": 2050823975,
    "luaPath": "Actor/Quest/WQ73079",
    "rewardIdList": [
        210008
    ],
    "showType": "QUEST_HIDDEN",
    "subQuests": [
        {
            "subId": 7307901,
            "mainId": 73079,
            "order": 1,
            "descTextMapHash": 2485064076,
            "showType": "QUEST_HIDDEN",
            "finishCond": [
                {
                    "type": "QUEST_CONTENT_GAME_TIME_TICK",
                    "param": [
                        0,
                        0
                    ]
                }
            ],
            "guide": {},
            "acceptCondComb": {
                "FDPBPIHKEGH": ""
            },
            "isRewind": true,
            "versionBegin": "",
            "versionEnd": ""
        },
        {
            "subId": 7307902,
            "mainId": 73079,
            "order": 2,
            "descTextMapHash": 2105897692,
            "showType": "QUEST_HIDDEN",
            "finishCond": [
                {
                    "type": "QUEST_CONTENT_LUA_NOTIFY",
                    "param": [
                        0,
                        0
                    ],
                    "count": 1
                }
            ],
            "guide": {},
            "acceptCondComb": {
                "FDPBPIHKEGH": ""
            },
            "isRewind": true,
            "versionBegin": "",
            "versionEnd": ""
        },
        {
            "subId": 7307903,
            "mainId": 73079,
            "order": 3,
            "descTextMapHash": 3216257476,
            "showType": "QUEST_HIDDEN",
            "finishCond": [
                {
                    "type": "QUEST_CONTENT_COMPLETE_TALK",
                    "param": [
                        7307901,
                        0
                    ]
                }
            ],
            "guide": {},
            "acceptCondComb": {
                "FDPBPIHKEGH": ""
            },
            "finishParent": true,
            "isRewind": true,
            "finishExec": [
                {
                    "type": "QUEST_EXEC_INC_QUEST_GLOBAL_VAR",
                    "param": [
                        "73100",
                        "1"
                    ]
                },
                {
                    "type": "QUEST_EXEC_REFRESH_GROUP_SUITE",
                    "param": [
                        "3",
                        "133301101,3"
                    ]
                }
            ],
            "versionBegin": "",
            "versionEnd": ""
        }
    ],
    "talks": [
        {
            "id": 7307901,
            "beginWay": "TALK_BEGIN_MANUAL",
            "activeMode": "PLAY_MODE_ALL",
            "beginCond": [
                {
                    "type": "QUEST_COND_STATE_EQUAL",
                    "param": [
                        "7307902",
                        "3"
                    ]
                }
            ],
            "priority": 5,
            "initDialog": 730790101,
            "npcId": [
                20670
            ],
            "performCfg": "",
            "heroTalk": "TALK_HERO_MAIN",
            "questId": 73079,
            "assetIndex": 7698982752311222776,
            "prePerformCfg": ""
        }
    ],
    "freeStyleDic": {
        "20670": [
            1090,
            1080
        ]
    }
}