{
    "id": 73260,
    "type": "WQ",
    "activeMode": "PLAY_MODE_ALL",
    "titleTextMapHash": 4262323607,
    "luaPath": "Actor/Quest/WQ73260",
    "showType": "QUEST_HIDDEN",
    "subQuests": [
        {
            "subId": 7326001,
            "mainId": 73260,
            "order": 1,
            "descTextMapHash": 2097485308,
            "showType": "QUEST_HIDDEN",
            "finishCond": [
                {
                    "type": "QUEST_CONTENT_COMPLETE_TALK",
                    "param": [
                        7326002,
                        0
                    ]
                }
            ],
            "guide": {},
            "acceptCondComb": {
                "FDPBPIHKEGH": ""
            },
            "isRewind": true,
            "versionBegin": "",
            "versionEnd": ""
        },
        {
            "subId": 7326002,
            "mainId": 73260,
            "order": 2,
            "descTextMapHash": 677360932,
            "showType": "QUEST_HIDDEN",
            "finishCond": [
                {
                    "type": "QUEST_CONTENT_GADGET_STATE_CHANGE",
                    "param": [
                        133304208,
                        208004
                    ]
                }
            ],
            "guide": {},
            "acceptCondComb": {
                "FDPBPIHKEGH": ""
            },
            "versionBegin": "",
            "versionEnd": ""
        },
        {
            "subId": 7326003,
            "mainId": 73260,
            "order": 3,
            "descTextMapHash": 1052384988,
            "showType": "QUEST_HIDDEN",
            "finishCond": [
                {
                    "type": "QUEST_CONTENT_LUA_NOTIFY",
                    "param": [
                        0,
                        0
                    ],
                    "count": 1
                }
            ],
            "failCond": [
                {
                    "type": "QUEST_CONTENT_LUA_NOTIFY",
                    "param": [
                        0,
                        0
                    ],
                    "count": 1
                }
            ],
            "guide": {},
            "acceptCondComb": {
                "FDPBPIHKEGH": ""
            },
            "finishExec": [
                {
                    "type": "QUEST_EXEC_REFRESH_GROUP_SUITE",
                    "param": [
                        "3",
                        "133304208,4"
                    ]
                }
            ],
            "failExec": [
                {
                    "type": "QUEST_EXEC_REFRESH_GROUP_SUITE",
                    "param": [
                        "3",
                        "133304208,1"
                    ]
                }
            ],
            "versionBegin": "",
            "versionEnd": ""
        },
        {
            "subId": 7326004,
            "mainId": 73260,
            "order": 4,
            "descTextMapHash": 2736280180,
            "showType": "QUEST_HIDDEN",
            "finishCond": [
                {
                    "type": "QUEST_CONTENT_GADGET_STATE_CHANGE",
                    "param": [
                        133304208,
                        208014
                    ]
                }
            ],
            "guide": {},
            "acceptCondComb": {
                "FDPBPIHKEGH": ""
            },
            "finishParent": true,
            "isRewind": true,
            "versionBegin": "",
            "versionEnd": ""
        },
        {
            "subId": 7326005,
            "mainId": 73260,
            "order": 5,
            "descTextMapHash": 560244620,
            "showType": "QUEST_HIDDEN",
            "finishCond": [
                {
                    "type": "QUEST_CONTENT_GAME_TIME_TICK",
                    "param": [
                        0,
                        0
                    ]
                }
            ],
            "guide": {},
            "acceptCondComb": {
                "FDPBPIHKEGH": ""
            },
            "finishExec": [
                {
                    "type": "QUEST_EXEC_ROLLBACK_QUEST",
                    "param": [
                        "7326001"
                    ]
                }
            ],
            "versionBegin": "",
            "versionEnd": ""
        }
    ],
    "talks": [
        {
            "id": 7326001,
            "beginWay": "TALK_BEGIN_MANUAL",
            "activeMode": "PLAY_MODE_HOST",
            "beginCond": [
                {
                    "type": "QUEST_COND_STATE_EQUAL",
                    "param": [
                        "7326001",
                        "2"
                    ]
                }
            ],
            "priority": 5,
            "nextTalks": [
                7326002,
                7326003
            ],
            "initDialog": 732600101,
            "npcId": [
                422102
            ],
            "performCfg": "",
            "heroTalk": "TALK_HERO_MAIN",
            "questId": 73260,
            "assetIndex": 6865685544467398477,
            "prePerformCfg": ""
        },
        {
            "id": 7326002,
            "activeMode": "PLAY_MODE_HOST",
            "beginCond": [
                {
                    "type": "QUEST_COND_STATE_EQUAL",
                    "param": [
                        "7326001",
                        "2"
                    ]
                }
            ],
            "priority": 5,
            "initDialog": 732600201,
            "npcId": [
                422102
            ],
            "performCfg": "",
            "heroTalk": "TALK_HERO_MAIN",
            "questId": 73260,
            "assetIndex": 6621806491067983171,
            "prePerformCfg": ""
        },
        {
            "id": 7326003,
            "activeMode": "PLAY_MODE_HOST",
            "beginCond": [
                {
                    "type": "QUEST_COND_STATE_EQUAL",
                    "param": [
                        "7326001",
                        "2"
                    ]
                }
            ],
            "priority": 5,
            "initDialog": 732600301,
            "npcId": [
                422102
            ],
            "performCfg": "",
            "heroTalk": "TALK_HERO_MAIN",
            "questId": 73260,
            "assetIndex": 1837013789837594609,
            "prePerformCfg": ""
        },
        {
            "id": 7326004,
            "beginWay": "TALK_BEGIN_MANUAL",
            "activeMode": "PLAY_MODE_HOST",
            "beginCond": [
                {
                    "type": "QUEST_COND_STATE_EQUAL",
                    "param": [
                        "7326004",
                        "2"
                    ]
                }
            ],
            "priority": 5,
            "initDialog": 732600401,
            "npcId": [
                422102
            ],
            "performCfg": "",
            "heroTalk": "TALK_HERO_MAIN",
            "questId": 73260,
            "assetIndex": 5252730761801453115,
            "prePerformCfg": ""
        },
        {
            "id": 7326005,
            "beginWay": "TALK_BEGIN_MANUAL",
            "activeMode": "PLAY_MODE_HOST",
            "beginCond": [
                {
                    "type": "QUEST_COND_STATE_EQUAL",
                    "param": [
                        "7326005",
                        "2"
                    ]
                }
            ],
            "priority": 5,
            "initDialog": 732600501,
            "npcId": [
                422102
            ],
            "performCfg": "",
            "heroTalk": "TALK_HERO_MAIN",
            "questId": 73260,
            "assetIndex": 15078459533272490,
            "prePerformCfg": ""
        }
    ]
}