{
    "id": 73314,
    "type": "WQ",
    "activeMode": "PLAY_MODE_ALL",
    "titleTextMapHash": 467528167,
    "descTextMapHash": 833397670,
    "luaPath": "Actor/Quest/WQ73314",
    "rewardIdList": [
        173340
    ],
    "chapterId": 10126,
    "subQuests": [
        {
            "subId": 7331401,
            "mainId": 73314,
            "order": 1,
            "descTextMapHash": 2855489876,
            "showType": "QUEST_HIDDEN",
            "finishCond": [
                {
                    "type": "QUEST_CONTENT_GAME_TIME_TICK",
                    "param": [
                        0,
                        0
                    ]
                }
            ],
            "guide": {
                "guideLayer": "QUEST_GUIDE_LAYER_UI"
            },
            "acceptCondComb": {
                "FDPBPIHKEGH": ""
            },
            "isRewind": true,
            "versionBegin": "",
            "versionEnd": ""
        },
        {
            "subId": 7331402,
            "mainId": 73314,
            "order": 2,
            "descTextMapHash": 1098817980,
            "showType": "QUEST_HIDDEN",
            "finishCond": [
                {
                    "type": "QUEST_CONTENT_FINISH_PLOT",
                    "param": [
                        7331402,
                        0
                    ]
                }
            ],
            "guide": {
                "param": [
                    "30"
                ],
                "guideScene": 3,
                "guideLayer": "QUEST_GUIDE_LAYER_UI"
            },
            "showGuide": "QUEST_GUIDE_ITEM_DISABLE",
            "acceptCondComb": {
                "FDPBPIHKEGH": ""
            },
            "isRewind": true,
            "versionBegin": "",
            "versionEnd": ""
        },
        {
            "subId": 7331403,
            "mainId": 73314,
            "order": 3,
            "descTextMapHash": 2586852284,
            "showType": "QUEST_HIDDEN",
            "finishCond": [
                {
                    "type": "QUEST_CONTENT_COMPLETE_TALK",
                    "param": [
                        7331403,
                        0
                    ]
                },
                {
                    "type": "QUEST_CONTENT_COMPLETE_TALK",
                    "param": [
                        7331402,
                        0
                    ]
                }
            ],
            "guide": {
                "type": "QUEST_GUIDE_NPC",
                "param": [
                    "20987"
                ],
                "guideScene": 3,
                "guideStyle": "QUEST_GUIDE_STYLE_TARGET",
                "guideLayer": "QUEST_GUIDE_LAYER_UI"
            },
            "acceptCondComb": {
                "FDPBPIHKEGH": ""
            },
            "isRewind": true,
            "finishExec": [
                {
                    "type": "QUEST_EXEC_SET_QUEST_GLOBAL_VAR",
                    "param": [
                        "7330701",
                        "1"
                    ]
                }
            ],
            "versionBegin": "",
            "versionEnd": ""
        },
        {
            "subId": 7331404,
            "mainId": 73314,
            "order": 5,
            "descTextMapHash": 3594825580,
            "finishCond": [
                {
                    "type": "QUEST_CONTENT_LUA_NOTIFY",
                    "param": [
                        0,
                        0
                    ],
                    "count": 1
                }
            ],
            "guide": {
                "type": "QUEST_GUIDE_LOCATION",
                "param": [
                    "Q7331404_guide",
                    "30"
                ],
                "guideScene": 3,
                "guideStyle": "QUEST_GUIDE_STYLE_POINT",
                "guideLayer": "QUEST_GUIDE_LAYER_UI"
            },
            "acceptCondComb": {
                "FDPBPIHKEGH": ""
            },
            "isRewind": true,
            "versionBegin": "",
            "versionEnd": ""
        },
        {
            "subId": 7331405,
            "mainId": 73314,
            "order": 6,
            "descTextMapHash": 3553787484,
            "finishCond": [
                {
                    "type": "QUEST_CONTENT_COMPLETE_TALK",
                    "param": [
                        7331405,
                        0
                    ]
                }
            ],
            "guide": {
                "type": "QUEST_GUIDE_NPC",
                "param": [
                    "20959"
                ],
                "guideScene": 3,
                "guideStyle": "QUEST_GUIDE_STYLE_TARGET",
                "guideLayer": "QUEST_GUIDE_LAYER_UI"
            },
            "acceptCondComb": {
                "FDPBPIHKEGH": ""
            },
            "isRewind": true,
            "versionBegin": "",
            "versionEnd": ""
        },
        {
            "subId": 7331406,
            "mainId": 73314,
            "order": 7,
            "descTextMapHash": 4233312228,
            "finishCond": [
                {
                    "type": "QUEST_CONTENT_LUA_NOTIFY",
                    "param": [
                        0,
                        0
                    ],
                    "count": 1
                }
            ],
            "failCond": [
                {
                    "type": "QUEST_CONTENT_LUA_NOTIFY",
                    "param": [
                        0,
                        0
                    ],
                    "count": 1
                }
            ],
            "guide": {
                "type": "QUEST_GUIDE_LOCATION",
                "param": [
                    "[3_4420:267.862,336.380,6409.657]",
                    "50"
                ],
                "guideScene": 3,
                "guideStyle": "QUEST_GUIDE_STYLE_POINT",
                "guideLayer": "QUEST_GUIDE_LAYER_UI"
            },
            "acceptCondComb": {
                "FDPBPIHKEGH": ""
            },
            "isRewind": true,
            "failExec": [
                {
                    "type": "QUEST_EXEC_ROLLBACK_QUEST",
                    "param": [
                        "7331405"
                    ]
                },
                {
                    "type": "QUEST_EXEC_UNREGISTER_DYNAMIC_GROUP",
                    "param": [
                        "133316123",
                        "0"
                    ]
                }
            ],
            "versionBegin": "",
            "versionEnd": ""
        },
        {
            "subId": 7331407,
            "mainId": 73314,
            "order": 10,
            "descTextMapHash": 1935905348,
            "finishCond": [
                {
                    "type": "QUEST_CONTENT_COMPLETE_TALK",
                    "param": [
                        7331407,
                        0
                    ]
                }
            ],
            "guide": {
                "type": "QUEST_GUIDE_NPC",
                "param": [
                    "20959"
                ],
                "guideScene": 3,
                "guideStyle": "QUEST_GUIDE_STYLE_TARGET",
                "guideLayer": "QUEST_GUIDE_LAYER_UI"
            },
            "acceptCondComb": {
                "FDPBPIHKEGH": ""
            },
            "isRewind": true,
            "finishExec": [
                {
                    "type": "QUEST_EXEC_INC_QUEST_GLOBAL_VAR",
                    "param": [
                        "7330702",
                        "1"
                    ]
                }
            ],
            "versionBegin": "",
            "versionEnd": ""
        },
        {
            "subId": 7331408,
            "mainId": 73314,
            "order": 4,
            "descTextMapHash": 102954860,
            "showType": "QUEST_HIDDEN",
            "finishCond": [
                {
                    "type": "QUEST_CONTENT_GAME_TIME_TICK",
                    "param": [
                        0,
                        0
                    ]
                }
            ],
            "guide": {
                "guideLayer": "QUEST_GUIDE_LAYER_UI"
            },
            "acceptCondComb": {
                "FDPBPIHKEGH": ""
            },
            "isRewind": true,
            "versionBegin": "",
            "versionEnd": ""
        },
        {
            "subId": 7331409,
            "mainId": 73314,
            "order": 11,
            "descTextMapHash": 475438388,
            "showType": "QUEST_HIDDEN",
            "finishCond": [
                {
                    "type": "QUEST_CONTENT_GAME_TIME_TICK",
                    "param": [
                        0,
                        0
                    ]
                }
            ],
            "guide": {},
            "acceptCondComb": {
                "FDPBPIHKEGH": ""
            },
            "finishParent": true,
            "isRewind": true,
            "versionBegin": "",
            "versionEnd": ""
        }
    ],
    "talks": [
        {
            "id": 7331402,
            "beginWay": "TALK_BEGIN_MANUAL",
            "activeMode": "PLAY_MODE_HOST",
            "beginCondComb": "LOGIC_AND",
            "beginCond": [
                {
                    "type": "QUEST_COND_STATE_EQUAL",
                    "param": [
                        "7331403",
                        "2"
                    ]
                },
                {
                    "type": "QUEST_COND_QUEST_GLOBAL_VAR_EQUAL",
                    "param": [
                        "7325103",
                        "1"
                    ]
                }
            ],
            "priority": 5,
            "initDialog": 733140201,
            "npcId": [
                20987
            ],
            "performCfg": "QuestDialogue/WQ/Sumeru_73314/Q7331402",
            "heroTalk": "TALK_HERO_MAIN",
            "questId": 73314,
            "assetIndex": 4456590596829200966,
            "prePerformCfg": "",
            "JPAECIANEML": [
                "[3_4020:251.280,332.506,6409.076,0.000,110.000,0.000]"
            ]
        },
        {
            "id": 7331403,
            "beginWay": "TALK_BEGIN_MANUAL",
            "activeMode": "PLAY_MODE_HOST",
            "beginCondComb": "LOGIC_AND",
            "beginCond": [
                {
                    "type": "QUEST_COND_STATE_EQUAL",
                    "param": [
                        "7331403",
                        "2"
                    ]
                },
                {
                    "type": "QUEST_COND_QUEST_GLOBAL_VAR_EQUAL",
                    "param": [
                        "7325103",
                        "0"
                    ]
                }
            ],
            "priority": 5,
            "initDialog": 733140301,
            "npcId": [
                20987
            ],
            "performCfg": "QuestDialogue/WQ/Sumeru_73314/Q7331403",
            "heroTalk": "TALK_HERO_MAIN",
            "questId": 73314,
            "assetIndex": 5373699679637662798,
            "prePerformCfg": "",
            "JPAECIANEML": [
                "[3_4020:251.280,332.506,6409.076,0.000,110.000,0.000]"
            ]
        },
        {
            "id": 7331405,
            "beginWay": "TALK_BEGIN_MANUAL",
            "activeMode": "PLAY_MODE_HOST",
            "beginCond": [
                {
                    "type": "QUEST_COND_STATE_EQUAL",
                    "param": [
                        "7331405",
                        "2"
                    ]
                }
            ],
            "priority": 5,
            "initDialog": 733140501,
            "npcId": [
                20959
            ],
            "performCfg": "QuestDialogue/WQ/Sumeru_73314/Q7331405",
            "heroTalk": "TALK_HERO_MAIN",
            "questId": 73314,
            "assetIndex": 1016253113967981192,
            "prePerformCfg": "",
            "talkMarkType": "TALK_MARK_COMMON"
        },
        {
            "id": 7331407,
            "beginWay": "TALK_BEGIN_MANUAL",
            "activeMode": "PLAY_MODE_HOST",
            "beginCond": [
                {
                    "type": "QUEST_COND_STATE_EQUAL",
                    "param": [
                        "7331407",
                        "2"
                    ]
                }
            ],
            "priority": 5,
            "initDialog": 733140701,
            "npcId": [
                20959
            ],
            "performCfg": "QuestDialogue/WQ/Sumeru_73314/Q7331407",
            "heroTalk": "TALK_HERO_MAIN",
            "questId": 73314,
            "assetIndex": 8614041931483568154,
            "prePerformCfg": ""
        }
    ],
    "FFDPMMFBDAE": [
        14135516064504057627
    ],
    "IGKJEKALOKN": [
        12154415406505077691
    ]
}