{
    "id": 73522,
    "series": 73520,
    "type": "WQ",
    "mainQuestTag": "MAINQUEST_TAG_ACTIVITY",
    "titleTextMapHash": 436099943,
    "descTextMapHash": 19967806,
    "luaPath": "Actor/Quest/WQ73522",
    "rewardIdList": [
        173522
    ],
    "activityId": 2021,
    "subQuests": [
        {
            "subId": 7352201,
            "mainId": 73522,
            "order": 1,
            "descTextMapHash": 4135021740,
            "finishCond": [
                {
                    "type": "QUEST_CONTENT_COMPLETE_TALK",
                    "param": [
                        7352201,
                        0
                    ]
                }
            ],
            "guide": {
                "type": "QUEST_GUIDE_NPC",
                "param": [
                    "1055"
                ],
                "guideScene": 3,
                "guideStyle": "QUEST_GUIDE_STYLE_TARGET",
                "guideLayer": "QUEST_GUIDE_LAYER_SCENE"
            },
            "acceptCondComb": {
                "FDPBPIHKEGH": ""
            },
            "isRewind": true,
            "versionBegin": "",
            "versionEnd": ""
        },
        {
            "subId": 7352202,
            "mainId": 73522,
            "order": 2,
            "descTextMapHash": 1662268396,
            "stepDescTextMapHash": 2656549733,
            "finishCond": [
                {
                    "type": "QUEST_CONTENT_COMPLETE_TALK",
                    "param": [
                        7352202,
                        0
                    ]
                }
            ],
            "guide": {
                "type": "QUEST_GUIDE_NPC",
                "param": [
                    "30356"
                ],
                "guideScene": 3,
                "guideStyle": "QUEST_GUIDE_STYLE_TARGET",
                "guideLayer": "QUEST_GUIDE_LAYER_SCENE"
            },
            "acceptCondComb": {
                "FDPBPIHKEGH": ""
            },
            "finishParent": true,
            "isRewind": true,
            "versionBegin": "",
            "versionEnd": ""
        }
    ],
    "talks": [
        {
            "id": 7352201,
            "beginWay": "TALK_BEGIN_MANUAL",
            "beginCond": [
                {
                    "type": "QUEST_COND_STATE_EQUAL",
                    "param": [
                        "7352201",
                        "2"
                    ]
                }
            ],
            "priority": 5,
            "initDialog": 735220101,
            "npcId": [
                1055
            ],
            "performCfg": "QuestDialogue/WQ/Sumeru_73522/Q7352201",
            "heroTalk": "TALK_HERO_MAIN",
            "questId": 73522,
            "assetIndex": 17909797287083892059,
            "prePerformCfg": "",
            "JPAECIANEML": [
                "[3_330201411:-301.263,242.098,2864.498,0.000,63.473,0.000]",
                "[3_330201413:-300.744,242.120,2865.763,0.000,207.785,0.000]"
            ]
        },
        {
            "id": 7352202,
            "beginWay": "TALK_BEGIN_MANUAL",
            "beginCond": [
                {
                    "type": "QUEST_COND_STATE_EQUAL",
                    "param": [
                        "7352202",
                        "2"
                    ]
                }
            ],
            "priority": 5,
            "initDialog": 735220201,
            "npcId": [
                30356
            ],
            "performCfg": "QuestDialogue/WQ/Sumeru_73522/Q7352202",
            "heroTalk": "TALK_HERO_MAIN",
            "questId": 73522,
            "assetIndex": 8802223265367938288,
            "prePerformCfg": ""
        },
        {
            "id": 7352203,
            "beginWay": "TALK_BEGIN_MANUAL",
            "beginCond": [
                {
                    "type": "QUEST_COND_STATE_EQUAL",
                    "param": [
                        "7352202",
                        "2"
                    ]
                }
            ],
            "priority": 5,
            "initDialog": 735220301,
            "npcId": [
                1055
            ],
            "performCfg": "QuestDialogue/WQ/Sumeru_73522/Q7352203",
            "heroTalk": "TALK_HERO_MAIN",
            "questId": 73522,
            "assetIndex": 13280835732140129607,
            "prePerformCfg": ""
        }
    ]
}