{
    "id": 73668,
    "type": "WQ",
    "titleTextMapHash": 2250356575,
    "descTextMapHash": 3418201310,
    "luaPath": "Actor/Quest/WQ73668",
    "subQuests": [
        {
            "subId": 7366801,
            "mainId": 73668,
            "order": 1,
            "descTextMapHash": 123501668,
            "finishCond": [
                {
                    "type": "QUEST_CONTENT_LUA_NOTIFY",
                    "param": [
                        0,
                        0
                    ],
                    "count": 1
                }
            ],
            "guide": {
                "type": "QUEST_GUIDE_LOCATION",
                "param": [
                    "Q7366801",
                    "30"
                ],
                "guideScene": 3,
                "guideStyle": "QUEST_GUIDE_STYLE_TARGET",
                "guideLayer": "QUEST_GUIDE_LAYER_SCENE"
            },
            "acceptCondComb": {
                "FDPBPIHKEGH": ""
            },
            "finishParent": true,
            "isRewind": true,
            "finishExec": [
                {
                    "type": "QUEST_EXEC_UNREGISTER_DYNAMIC_GROUP",
                    "param": [
                        "133303239"
                    ]
                }
            ],
            "versionBegin": "",
            "versionEnd": ""
        }
    ]
}