{
    "id": 73803,
    "type": "WQ",
    "titleTextMapHash": 2569283719,
    "descTextMapHash": 343795462,
    "luaPath": "Actor/Quest/WQ73803",
    "rewardIdList": [
        173803
    ],
    "subQuests": [
        {
            "subId": 7380301,
            "mainId": 73803,
            "order": 3,
            "descTextMapHash": 1180327116,
            "finishCond": [
                {
                    "type": "QUEST_CONTENT_COMPLETE_TALK",
                    "param": [
                        7380301,
                        0
                    ]
                }
            ],
            "guide": {
                "type": "QUEST_GUIDE_NPC",
                "autoGuide": "QUEST_GUIDE_AUTO_ENABLE",
                "param": [
                    "20657"
                ],
                "guideScene": 3,
                "guideStyle": "QUEST_GUIDE_STYLE_TARGET",
                "guideLayer": "QUEST_GUIDE_LAYER_SCENE"
            },
            "showGuide": "QUEST_GUIDE_ITEM_DISABLE",
            "acceptCondComb": {
                "FDPBPIHKEGH": ""
            },
            "isRewind": true,
            "versionBegin": "",
            "versionEnd": ""
        },
        {
            "subId": 7380302,
            "mainId": 73803,
            "order": 4,
            "descTextMapHash": 395406900,
            "finishCond": [
                {
                    "type": "QUEST_CONTENT_COMPLETE_TALK",
                    "param": [
                        7380302,
                        0
                    ]
                }
            ],
            "guide": {
                "type": "QUEST_GUIDE_NPC",
                "autoGuide": "QUEST_GUIDE_AUTO_ENABLE",
                "param": [
                    "20657"
                ],
                "guideScene": 3,
                "guideStyle": "QUEST_GUIDE_STYLE_TARGET",
                "guideLayer": "QUEST_GUIDE_LAYER_SCENE"
            },
            "acceptCondComb": {
                "FDPBPIHKEGH": ""
            },
            "isRewind": true,
            "versionBegin": "",
            "versionEnd": ""
        },
        {
            "subId": 7380303,
            "mainId": 73803,
            "order": 5,
            "descTextMapHash": 3203869628,
            "finishCond": [
                {
                    "type": "QUEST_CONTENT_COMPLETE_TALK",
                    "param": [
                        7380303,
                        0
                    ]
                }
            ],
            "guide": {
                "type": "QUEST_GUIDE_NPC",
                "autoGuide": "QUEST_GUIDE_AUTO_ENABLE",
                "param": [
                    "4060"
                ],
                "guideScene": 3,
                "guideStyle": "QUEST_GUIDE_STYLE_TARGET",
                "guideLayer": "QUEST_GUIDE_LAYER_SCENE"
            },
            "acceptCondComb": {
                "FDPBPIHKEGH": ""
            },
            "isRewind": true,
            "versionBegin": "",
            "versionEnd": ""
        },
        {
            "subId": 7380304,
            "mainId": 73803,
            "order": 6,
            "descTextMapHash": 952481772,
            "finishCond": [
                {
                    "type": "QUEST_CONTENT_COMPLETE_TALK",
                    "param": [
                        7380304,
                        0
                    ]
                }
            ],
            "guide": {
                "type": "QUEST_GUIDE_NPC",
                "autoGuide": "QUEST_GUIDE_AUTO_ENABLE",
                "param": [
                    "20657"
                ],
                "guideScene": 3,
                "guideStyle": "QUEST_GUIDE_STYLE_TARGET",
                "guideLayer": "QUEST_GUIDE_LAYER_SCENE"
            },
            "acceptCondComb": {
                "FDPBPIHKEGH": ""
            },
            "isRewind": true,
            "versionBegin": "",
            "versionEnd": ""
        },
        {
            "subId": 7380305,
            "mainId": 73803,
            "order": 7,
            "descTextMapHash": 3410939244,
            "exclusivePlaceList": [
                330243
            ],
            "finishCond": [
                {
                    "type": "QUEST_CONTENT_COMPLETE_TALK",
                    "param": [
                        7380305,
                        0
                    ]
                }
            ],
            "guide": {
                "type": "QUEST_GUIDE_LOCATION",
                "autoGuide": "QUEST_GUIDE_AUTO_ENABLE",
                "param": [
                    "Q7380305_N12700",
                    "20"
                ],
                "guideScene": 3,
                "guideStyle": "QUEST_GUIDE_STYLE_TARGET",
                "guideLayer": "QUEST_GUIDE_LAYER_SCENE"
            },
            "acceptCondComb": {
                "FDPBPIHKEGH": ""
            },
            "finishParent": true,
            "isRewind": true,
            "finishExec": [
                {
                    "type": "QUEST_EXEC_UNREGISTER_DYNAMIC_GROUP",
                    "param": [
                        "133302677",
                        "0"
                    ]
                },
                {
                    "type": "QUEST_EXEC_SET_DAILY_TASK_VAR",
                    "param": [
                        "42020",
                        "4",
                        "0"
                    ]
                },
                {
                    "type": "QUEST_EXEC_SET_QUEST_GLOBAL_VAR",
                    "param": [
                        "73803",
                        "1"
                    ]
                }
            ],
            "versionBegin": "",
            "versionEnd": ""
        },
        {
            "subId": 7380306,
            "mainId": 73803,
            "order": 1,
            "showType": "QUEST_HIDDEN",
            "finishCond": [
                {
                    "type": "QUEST_CONTENT_GAME_TIME_TICK",
                    "param": [
                        0,
                        0
                    ]
                }
            ],
            "guide": {},
            "showGuide": "QUEST_GUIDE_ITEM_DISABLE",
            "acceptCondComb": {
                "FDPBPIHKEGH": ""
            },
            "isRewind": true,
            "finishExec": [
                {
                    "type": "QUEST_EXEC_INIT_TIME_VAR",
                    "param": [
                        "0"
                    ]
                }
            ],
            "versionBegin": "",
            "versionEnd": ""
        },
        {
            "subId": 7380307,
            "mainId": 73803,
            "order": 2,
            "showType": "QUEST_HIDDEN",
            "finishCond": [
                {
                    "type": "QUEST_CONTENT_TIME_VAR_PASS_DAY",
                    "param": [
                        73803,
                        0
                    ]
                }
            ],
            "guide": {},
            "showGuide": "QUEST_GUIDE_ITEM_DISABLE",
            "acceptCondComb": {
                "FDPBPIHKEGH": ""
            },
            "isRewind": true,
            "finishExec": [
                {
                    "type": "QUEST_EXEC_CLEAR_TIME_VAR",
                    "param": [
                        "73803",
                        "0"
                    ]
                }
            ],
            "versionBegin": "",
            "versionEnd": ""
        }
    ],
    "talks": [
        {
            "id": 7380301,
            "beginWay": "TALK_BEGIN_MANUAL",
            "beginCond": [
                {
                    "type": "QUEST_COND_STATE_EQUAL",
                    "param": [
                        "7380301",
                        "2"
                    ]
                }
            ],
            "priority": 5,
            "initDialog": 738030101,
            "npcId": [
                20657,
                20658
            ],
            "performCfg": "QuestDialogue/WQ/Sumeru_73803/Q7380301",
            "heroTalk": "TALK_HERO_MAIN",
            "questId": 73803,
            "assetIndex": 10234386663222180683,
            "prePerformCfg": "",
            "talkMarkType": "TALK_MARK_HIDE",
            "KPFCBGDIMJE": [
                20658
            ]
        },
        {
            "id": 7380302,
            "beginWay": "TALK_BEGIN_MANUAL",
            "beginCond": [
                {
                    "type": "QUEST_COND_STATE_EQUAL",
                    "param": [
                        "7380302",
                        "2"
                    ]
                }
            ],
            "priority": 5,
            "initDialog": 738030201,
            "npcId": [
                4042,
                20657,
                20658
            ],
            "performCfg": "QuestDialogue/WQ/Sumeru_73803/Q7380302",
            "heroTalk": "TALK_HERO_MAIN",
            "questId": 73803,
            "assetIndex": 8524572194938554279,
            "prePerformCfg": ""
        },
        {
            "id": 7380303,
            "beginWay": "TALK_BEGIN_MANUAL",
            "beginCond": [
                {
                    "type": "QUEST_COND_STATE_EQUAL",
                    "param": [
                        "7380303",
                        "2"
                    ]
                }
            ],
            "priority": 5,
            "initDialog": 738030301,
            "npcId": [
                4060,
                20658
            ],
            "performCfg": "QuestDialogue/WQ/Sumeru_73803/Q7380303",
            "heroTalk": "TALK_HERO_MAIN",
            "questId": 73803,
            "assetIndex": 15678493515759250037,
            "prePerformCfg": ""
        },
        {
            "id": 7380304,
            "beginWay": "TALK_BEGIN_MANUAL",
            "beginCond": [
                {
                    "type": "QUEST_COND_STATE_EQUAL",
                    "param": [
                        "7380304",
                        "2"
                    ]
                }
            ],
            "priority": 5,
            "initDialog": 738030401,
            "npcId": [
                20657,
                20658,
                4042
            ],
            "performCfg": "QuestDialogue/WQ/Sumeru_73803/Q7380304",
            "heroTalk": "TALK_HERO_MAIN",
            "questId": 73803,
            "assetIndex": 10438470214708373530,
            "prePerformCfg": ""
        },
        {
            "id": 7380305,
            "beginWay": "TALK_BEGIN_AUTO",
            "beginCond": [
                {
                    "type": "QUEST_COND_STATE_EQUAL",
                    "param": [
                        "7380305",
                        "2"
                    ]
                }
            ],
            "priority": 5,
            "initDialog": 738030501,
            "npcId": [
                12700
            ],
            "performCfg": "QuestDialogue/WQ/Sumeru_73803/Q7380305",
            "heroTalk": "TALK_HERO_MAIN",
            "questId": 73803,
            "assetIndex": 17081111394392919807,
            "prePerformCfg": ""
        },
        {
            "id": 7380306,
            "beginWay": "TALK_BEGIN_MANUAL",
            "beginCond": [
                {
                    "type": "QUEST_COND_STATE_EQUAL",
                    "param": [
                        "7380303",
                        "2"
                    ]
                }
            ],
            "priority": 5,
            "initDialog": 738030601,
            "npcId": [
                4042,
                20657
            ],
            "performCfg": "QuestDialogue/WQ/Sumeru_73803/Q7380306",
            "heroTalk": "TALK_HERO_MAIN",
            "questId": 73803,
            "assetIndex": 4199953038797401254,
            "prePerformCfg": ""
        }
    ],
    "freeStyleDic": {
        "12700": [
            8010
        ]
    },
    "dialogList": [
        {
            "id": 738030130,
            "talkRole": {
                "type": "TALK_ROLE_NPC",
                "id": "20657"
            },
            "talkContentTextMapHash": 2345226914,
            "talkAssetPath": "",
            "talkAssetPathAlter": "",
            "talkAudioName": "",
            "actionBefore": "",
            "actionWhile": "",
            "actionAfter": "",
            "optionIcon": ""
        },
        {
            "id": 738030131,
            "talkRole": {
                "type": "TALK_ROLE_NPC",
                "id": "20658"
            },
            "talkContentTextMapHash": 2868627994,
            "talkAssetPath": "",
            "talkAssetPathAlter": "",
            "talkAudioName": "",
            "actionBefore": "",
            "actionWhile": "",
            "actionAfter": "",
            "optionIcon": ""
        }
    ]
}