{
    "id": 74107,
    "type": "WQ",
    "activeMode": "PLAY_MODE_ALL",
    "titleTextMapHash": 1489075807,
    "luaPath": "Actor/Quest/WQ74107",
    "showType": "QUEST_HIDDEN",
    "subQuests": [
        {
            "subId": 7410701,
            "mainId": 74107,
            "order": 1,
            "descTextMapHash": 2775664228,
            "showType": "QUEST_HIDDEN",
            "finishCond": [
                {
                    "type": "QUEST_CONTENT_COMPLETE_TALK",
                    "param": [
                        7410701,
                        0
                    ]
                },
                {
                    "type": "QUEST_CONTENT_QUEST_STATE_EQUAL",
                    "param": [
                        7400817,
                        3
                    ]
                }
            ],
            "guide": {},
            "showGuide": "QUEST_GUIDE_ITEM_DISABLE",
            "acceptCondComb": {
                "FDPBPIHKEGH": ""
            },
            "finishParent": true,
            "versionBegin": "",
            "versionEnd": ""
        }
    ],
    "talks": [
        {
            "id": 7410701,
            "beginWay": "TALK_BEGIN_MANUAL",
            "activeMode": "PLAY_MODE_HOST",
            "beginCond": [
                {
                    "type": "QUEST_COND_STATE_EQUAL",
                    "param": [
                        "7410701",
                        "2"
                    ]
                }
            ],
            "priority": 5,
            "initDialog": 741070101,
            "npcId": [
                5132,
                5131
            ],
            "performCfg": "QuestDialogue/WQ/Fontaine_74107/Q7410701",
            "questId": 74107,
            "assetIndex": 8729969410424803904,
            "prePerformCfg": "",
            "JPAECIANEML": [
                "[3_5514:2591.285,440.830,4529.130,0.000,179.768,0.000]",
                "[3_5515:2592.250,440.830,4528.390,0.000,185.358,0.000]",
                "[3_5773:2586.994,443.029,4529.873]"
            ]
        }
    ],
    "freeStyleDic": {
        "5131": [
            1190
        ],
        "5132": [
            1280
        ]
    }
}