{
    "id": 74112,
    "type": "WQ",
    "activeMode": "PLAY_MODE_ALL",
    "titleTextMapHash": 457085335,
    "luaPath": "Actor/Quest/WQ74112",
    "showType": "QUEST_HIDDEN",
    "subQuests": [
        {
            "subId": 7411201,
            "mainId": 74112,
            "order": 1,
            "showType": "QUEST_HIDDEN",
            "finishCond": [
                {
                    "type": "QUEST_CONTENT_QUEST_GLOBAL_VAR_EQUAL",
                    "param": [
                        7411201,
                        1
                    ]
                }
            ],
            "guide": {},
            "acceptCondComb": {
                "FDPBPIHKEGH": ""
            },
            "versionBegin": "",
            "versionEnd": ""
        },
        {
            "subId": 7411202,
            "mainId": 74112,
            "order": 2,
            "showType": "QUEST_HIDDEN",
            "finishCond": [
                {
                    "type": "QUEST_CONTENT_QUEST_GLOBAL_VAR_EQUAL",
                    "param": [
                        7411201,
                        2
                    ]
                }
            ],
            "guide": {},
            "acceptCondComb": {
                "FDPBPIHKEGH": ""
            },
            "versionBegin": "",
            "versionEnd": ""
        },
        {
            "subId": 7411203,
            "mainId": 74112,
            "order": 3,
            "showType": "QUEST_HIDDEN",
            "finishCond": [
                {
                    "type": "QUEST_CONTENT_QUEST_GLOBAL_VAR_EQUAL",
                    "param": [
                        7411201,
                        3
                    ]
                }
            ],
            "guide": {},
            "acceptCondComb": {
                "FDPBPIHKEGH": ""
            },
            "finishParent": true,
            "versionBegin": "",
            "versionEnd": ""
        },
        {
            "subId": 7411204,
            "mainId": 74112,
            "order": 99,
            "showType": "QUEST_HIDDEN",
            "finishCond": [
                {
                    "type": "QUEST_CONTENT_QUEST_GLOBAL_VAR_EQUAL",
                    "param": [
                        7411201,
                        4
                    ]
                }
            ],
            "guide": {},
            "acceptCondComb": {
                "FDPBPIHKEGH": ""
            },
            "finishParent": true,
            "versionBegin": "",
            "versionEnd": ""
        }
    ]
}