{
    "id": 79045,
    "series": 79044,
    "type": "WQ",
    "activeMode": "PLAY_MODE_ALL",
    "titleTextMapHash": 1415560247,
    "descTextMapHash": 2065309854,
    "luaPath": "Actor/Quest/WQ79045",
    "suggestTrackMainQuestList": [
        79046,
        79047
    ],
    "rewardIdList": [
        179045
    ],
    "chapterId": 10135,
    "activityId": 2023,
    "subQuests": [
        {
            "subId": 7904501,
            "mainId": 79045,
            "order": 1,
            "descTextMapHash": 4000135100,
            "finishCond": [
                {
                    "type": "QUEST_CONTENT_COMPLETE_TALK",
                    "param": [
                        7904501,
                        0
                    ]
                }
            ],
            "guide": {
                "type": "QUEST_GUIDE_LOCATION",
                "autoGuide": "QUEST_GUIDE_AUTO_ENABLE",
                "param": [
                    "Q7904501_N20976",
                    "25"
                ],
                "guideScene": 10,
                "guideStyle": "QUEST_GUIDE_STYLE_TARGET",
                "guideLayer": "QUEST_GUIDE_LAYER_SCENE"
            },
            "acceptCondComb": {
                "FDPBPIHKEGH": ""
            },
            "isRewind": true,
            "versionBegin": "",
            "versionEnd": ""
        },
        {
            "subId": 7904502,
            "mainId": 79045,
            "order": 2,
            "descTextMapHash": 954989372,
            "finishCond": [
                {
                    "type": "QUEST_CONTENT_LUA_NOTIFY",
                    "param": [
                        0,
                        0
                    ],
                    "count": 1
                }
            ],
            "guide": {
                "type": "QUEST_GUIDE_GADGET",
                "autoGuide": "QUEST_GUIDE_AUTO_ENABLE",
                "param": [
                    "510010035",
                    "35040",
                    "308.4639:305.4902:-208.6139"
                ],
                "guideScene": 10,
                "guideStyle": "QUEST_GUIDE_STYLE_TARGET",
                "guideLayer": "QUEST_GUIDE_LAYER_SCENE"
            },
            "acceptCondComb": {
                "FDPBPIHKEGH": ""
            },
            "isRewind": true,
            "versionBegin": "",
            "versionEnd": ""
        },
        {
            "subId": 7904503,
            "mainId": 79045,
            "order": 3,
            "descTextMapHash": 482348844,
            "guideTipsTextMapHash": 4023021094,
            "finishCond": [
                {
                    "type": "QUEST_CONTENT_LUA_NOTIFY",
                    "param": [
                        0,
                        0
                    ],
                    "count": 1
                }
            ],
            "failCond": [
                {
                    "type": "QUEST_CONTENT_TEAM_DEAD",
                    "param": [
                        0,
                        0
                    ]
                },
                {
                    "type": "QUEST_CONTENT_ANY_MANUAL_TRANSPORT",
                    "param": [
                        0,
                        0
                    ]
                }
            ],
            "guide": {
                "param": [
                    "30"
                ],
                "guideScene": 10
            },
            "showGuide": "QUEST_GUIDE_ITEM_DISABLE",
            "acceptCondComb": {
                "FDPBPIHKEGH": ""
            },
            "failExec": [
                {
                    "type": "QUEST_EXEC_ROLLBACK_QUEST",
                    "param": [
                        "7904502"
                    ]
                }
            ],
            "versionBegin": "",
            "versionEnd": ""
        },
        {
            "subId": 7904504,
            "mainId": 79045,
            "order": 4,
            "descTextMapHash": 1840836196,
            "finishCond": [
                {
                    "type": "QUEST_CONTENT_LUA_NOTIFY",
                    "param": [
                        0,
                        0
                    ],
                    "count": 1
                }
            ],
            "guide": {
                "type": "QUEST_GUIDE_GADGET",
                "autoGuide": "QUEST_GUIDE_AUTO_ENABLE",
                "param": [
                    "510020005",
                    "5006",
                    "381.5581:270.454:-258.4818"
                ],
                "guideScene": 10,
                "guideStyle": "QUEST_GUIDE_STYLE_TARGET",
                "guideLayer": "QUEST_GUIDE_LAYER_SCENE"
            },
            "acceptCondComb": {
                "FDPBPIHKEGH": ""
            },
            "versionBegin": "",
            "versionEnd": ""
        },
        {
            "subId": 7904505,
            "mainId": 79045,
            "order": 5,
            "descTextMapHash": 1964632844,
            "finishCond": [
                {
                    "type": "QUEST_CONTENT_LUA_NOTIFY",
                    "param": [
                        0,
                        0
                    ],
                    "count": 1
                }
            ],
            "guide": {
                "type": "QUEST_GUIDE_GADGET",
                "autoGuide": "QUEST_GUIDE_AUTO_ENABLE",
                "param": [
                    "510010035",
                    "35041",
                    "381.9048:271.5081:-247.4231"
                ],
                "guideScene": 10,
                "guideStyle": "QUEST_GUIDE_STYLE_TARGET",
                "guideLayer": "QUEST_GUIDE_LAYER_UI"
            },
            "acceptCondComb": {
                "FDPBPIHKEGH": ""
            },
            "isRewind": true,
            "versionBegin": "",
            "versionEnd": ""
        },
        {
            "subId": 7904506,
            "mainId": 79045,
            "order": 6,
            "descTextMapHash": 4261490108,
            "guideTipsTextMapHash": 2206701518,
            "finishCond": [
                {
                    "type": "QUEST_CONTENT_LUA_NOTIFY",
                    "param": [
                        0,
                        0
                    ],
                    "count": 1
                }
            ],
            "failCond": [
                {
                    "type": "QUEST_CONTENT_TEAM_DEAD",
                    "param": [
                        0,
                        0
                    ]
                },
                {
                    "type": "QUEST_CONTENT_ANY_MANUAL_TRANSPORT",
                    "param": [
                        0,
                        0
                    ]
                }
            ],
            "guide": {
                "guideScene": 10,
                "guideLayer": "QUEST_GUIDE_LAYER_UI"
            },
            "showGuide": "QUEST_GUIDE_ITEM_DISABLE",
            "acceptCondComb": {
                "FDPBPIHKEGH": ""
            },
            "isRewind": true,
            "failExec": [
                {
                    "type": "QUEST_EXEC_ROLLBACK_QUEST",
                    "param": [
                        "7904505"
                    ]
                }
            ],
            "versionBegin": "",
            "versionEnd": ""
        },
        {
            "subId": 7904507,
            "mainId": 79045,
            "order": 7,
            "descTextMapHash": 4044017836,
            "finishCond": [
                {
                    "type": "QUEST_CONTENT_LUA_NOTIFY",
                    "param": [
                        0,
                        0
                    ],
                    "count": 1
                }
            ],
            "guide": {
                "type": "QUEST_GUIDE_GADGET",
                "autoGuide": "QUEST_GUIDE_AUTO_ENABLE",
                "param": [
                    "510020025",
                    "25001",
                    "774.1232:185.1632:-336.0336"
                ],
                "guideScene": 10,
                "guideStyle": "QUEST_GUIDE_STYLE_TARGET",
                "guideLayer": "QUEST_GUIDE_LAYER_UI"
            },
            "acceptCondComb": {
                "FDPBPIHKEGH": ""
            },
            "isRewind": true,
            "versionBegin": "",
            "versionEnd": ""
        },
        {
            "subId": 7904508,
            "mainId": 79045,
            "order": 8,
            "descTextMapHash": 1221847612,
            "finishCond": [
                {
                    "type": "QUEST_CONTENT_COMPLETE_TALK",
                    "param": [
                        7904508,
                        0
                    ]
                }
            ],
            "guide": {
                "type": "QUEST_GUIDE_LOCATION",
                "param": [
                    "Q7904508_N20976",
                    "10"
                ],
                "guideScene": 10,
                "guideStyle": "QUEST_GUIDE_STYLE_TARGET",
                "guideLayer": "QUEST_GUIDE_LAYER_SCENE"
            },
            "acceptCondComb": {
                "FDPBPIHKEGH": ""
            },
            "isRewind": true,
            "versionBegin": "",
            "versionEnd": ""
        },
        {
            "subId": 7904509,
            "mainId": 79045,
            "order": 9,
            "descTextMapHash": 3012558484,
            "finishCond": [
                {
                    "type": "QUEST_CONTENT_LUA_NOTIFY",
                    "param": [
                        0,
                        0
                    ],
                    "count": 1
                }
            ],
            "guide": {
                "type": "QUEST_GUIDE_GADGET",
                "autoGuide": "QUEST_GUIDE_AUTO_ENABLE",
                "param": [
                    "510020006",
                    "6004",
                    "758.6013:182.2867:-310.3651"
                ],
                "guideScene": 10,
                "guideStyle": "QUEST_GUIDE_STYLE_TARGET",
                "guideLayer": "QUEST_GUIDE_LAYER_UI"
            },
            "acceptCondComb": {
                "FDPBPIHKEGH": ""
            },
            "isRewind": true,
            "versionBegin": "",
            "versionEnd": ""
        },
        {
            "subId": 7904510,
            "mainId": 79045,
            "order": 99,
            "descTextMapHash": 907261284,
            "finishCond": [
                {
                    "type": "QUEST_CONTENT_COMPLETE_TALK",
                    "param": [
                        7904510,
                        0
                    ]
                }
            ],
            "guide": {
                "type": "QUEST_GUIDE_NPC",
                "param": [
                    "20976"
                ],
                "guideScene": 10,
                "guideStyle": "QUEST_GUIDE_STYLE_TARGET",
                "guideLayer": "QUEST_GUIDE_LAYER_SCENE"
            },
            "acceptCondComb": {
                "FDPBPIHKEGH": ""
            },
            "finishParent": true,
            "isRewind": true,
            "finishExec": [
                {
                    "type": "QUEST_EXEC_ADD_QUEST_PROGRESS",
                    "param": [
                        "7904402",
                        "1"
                    ]
                }
            ],
            "versionBegin": "",
            "versionEnd": ""
        },
        {
            "subId": 7904511,
            "mainId": 79045,
            "order": 10,
            "descTextMapHash": 1169394364,
            "finishCond": [
                {
                    "type": "QUEST_CONTENT_COMPLETE_TALK",
                    "param": [
                        7904510,
                        0
                    ]
                }
            ],
            "guide": {
                "type": "QUEST_GUIDE_LOCATION",
                "autoGuide": "QUEST_GUIDE_AUTO_ENABLE",
                "param": [
                    "Q7904511_guide",
                    "35"
                ],
                "guideScene": 10,
                "guideStyle": "QUEST_GUIDE_STYLE_TARGET",
                "guideLayer": "QUEST_GUIDE_LAYER_UI"
            },
            "acceptCondComb": {
                "FDPBPIHKEGH": ""
            },
            "finishParent": true,
            "isRewind": true,
            "finishExec": [
                {
                    "type": "QUEST_EXEC_ADD_QUEST_PROGRESS",
                    "param": [
                        "7904402",
                        "1"
                    ]
                }
            ],
            "versionBegin": "",
            "versionEnd": ""
        }
    ],
    "talks": [
        {
            "id": 7904501,
            "beginWay": "TALK_BEGIN_MANUAL",
            "activeMode": "PLAY_MODE_HOST",
            "beginCond": [
                {
                    "type": "QUEST_COND_STATE_EQUAL",
                    "param": [
                        "7904501",
                        "2"
                    ]
                }
            ],
            "priority": 5,
            "initDialog": 790450101,
            "npcId": [
                20976
            ],
            "performCfg": "QuestDialogue/WQ/Penumbra_79044/Q7904501",
            "questId": 79045,
            "assetIndex": 6104448851212060730,
            "prePerformCfg": "",
            "lockGameTime": true
        },
        {
            "id": 7904508,
            "beginWay": "TALK_BEGIN_MANUAL",
            "activeMode": "PLAY_MODE_HOST",
            "beginCond": [
                {
                    "type": "QUEST_COND_STATE_EQUAL",
                    "param": [
                        "7904508",
                        "2"
                    ]
                }
            ],
            "priority": 5,
            "initDialog": 790450801,
            "npcId": [
                20976
            ],
            "performCfg": "QuestDialogue/WQ/Penumbra_79044/Q7904508",
            "questId": 79045,
            "assetIndex": 15071217378126540484,
            "prePerformCfg": ""
        },
        {
            "id": 7904510,
            "beginWay": "TALK_BEGIN_MANUAL",
            "activeMode": "PLAY_MODE_HOST",
            "beginCond": [
                {
                    "type": "QUEST_COND_STATE_EQUAL",
                    "param": [
                        "7904511",
                        "2"
                    ]
                }
            ],
            "priority": 5,
            "initDialog": 790451001,
            "npcId": [
                20976
            ],
            "performCfg": "QuestDialogue/WQ/Penumbra_79044/Q7904510",
            "questId": 79045,
            "assetIndex": 7798884711863161113,
            "prePerformCfg": ""
        }
    ]
}