{
    "id": 79059,
    "type": "WQ",
    "activeMode": "PLAY_MODE_ALL",
    "titleTextMapHash": 1295460319,
    "luaPath": "Actor/Quest/WQ79059",
    "showType": "QUEST_HIDDEN",
    "subQuests": [
        {
            "subId": 7905901,
            "mainId": 79059,
            "order": 1,
            "descTextMapHash": 1176895924,
            "showType": "QUEST_HIDDEN",
            "finishCond": [
                {
                    "type": "QUEST_CONTENT_COMPLETE_TALK",
                    "param": [
                        7905901,
                        0
                    ]
                }
            ],
            "guide": {},
            "showGuide": "QUEST_GUIDE_ITEM_DISABLE",
            "acceptCondComb": {
                "FDPBPIHKEGH": ""
            },
            "isRewind": true,
            "versionBegin": "",
            "versionEnd": ""
        },
        {
            "subId": 7905902,
            "mainId": 79059,
            "order": 2,
            "descTextMapHash": 3794568572,
            "showType": "QUEST_HIDDEN",
            "finishCond": [
                {
                    "type": "QUEST_CONTENT_FINISH_PLOT",
                    "param": [
                        7905902,
                        0
                    ]
                }
            ],
            "guide": {},
            "showGuide": "QUEST_GUIDE_ITEM_DISABLE",
            "acceptCondComb": {
                "FDPBPIHKEGH": ""
            },
            "isRewind": true,
            "versionBegin": "",
            "versionEnd": ""
        },
        {
            "subId": 7905903,
            "mainId": 79059,
            "order": 3,
            "descTextMapHash": 2741288212,
            "showType": "QUEST_HIDDEN",
            "finishCond": [
                {
                    "type": "QUEST_CONTENT_LUA_NOTIFY",
                    "param": [
                        0,
                        0
                    ],
                    "count": 1
                }
            ],
            "guide": {},
            "showGuide": "QUEST_GUIDE_ITEM_DISABLE",
            "acceptCondComb": {
                "FDPBPIHKEGH": ""
            },
            "finishParent": true,
            "isRewind": true,
            "finishExec": [
                {
                    "type": "QUEST_EXEC_REFRESH_WORLD_QUEST_FLOW_GROUP_SUITE",
                    "param": [
                        "510020175,3"
                    ]
                }
            ],
            "versionBegin": "",
            "versionEnd": ""
        }
    ],
    "talks": [
        {
            "id": 7905901,
            "beginWay": "TALK_BEGIN_MANUAL",
            "beginCondComb": "LOGIC_OR",
            "beginCond": [
                {
                    "type": "QUEST_COND_STATE_EQUAL",
                    "param": [
                        "7905901",
                        "2"
                    ]
                },
                {
                    "type": "QUEST_COND_STATE_EQUAL",
                    "param": [
                        "7905902",
                        "2"
                    ]
                }
            ],
            "priority": 5,
            "initDialog": 790590101,
            "npcId": [
                21110
            ],
            "performCfg": "",
            "heroTalk": "TALK_HERO_MAIN",
            "questId": 79059,
            "assetIndex": 3858706990854178858,
            "prePerformCfg": ""
        },
        {
            "id": 7905902,
            "beginWay": "TALK_BEGIN_MANUAL",
            "beginCond": [
                {
                    "type": "QUEST_COND_STATE_EQUAL",
                    "param": [
                        "7905902",
                        "2"
                    ]
                }
            ],
            "priority": 5,
            "initDialog": 790590201,
            "npcId": [
                21111
            ],
            "performCfg": "QuestDialogue/WQ/Penumbra_79044/Q7905902",
            "heroTalk": "TALK_HERO_MAIN",
            "questId": 79059,
            "assetIndex": 12025625220124390307,
            "prePerformCfg": ""
        }
    ],
    "dialogList": [
        {
            "id": 790590106,
            "talkRole": {
                "type": "TALK_ROLE_NPC",
                "id": "21110"
            },
            "talkContentTextMapHash": 3999284706,
            "talkAssetPath": "",
            "talkAssetPathAlter": "",
            "talkAudioName": "",
            "actionBefore": "",
            "actionWhile": "",
            "actionAfter": "",
            "optionIcon": ""
        }
    ]
}