{
    "luaDataPath": "",
    "startBlackKeepTime": 0.6000000238418579,
    "entityBan": "",
    "disableNpcLod": true,
    "startFade": {
        "startFadeInDuration": 0.4000000059604645,
        "startFadeOutDuration": 0.4000000059604645
    },
    "endFade": {
        "startFadeOutDuration": 0.0
    },
    "actors": [
        {
            "alias": "Avatar",
            "visible": true,
            "bornPointName": "Q1110105Born",
            "relativePosNpcAlias": "",
            "bindMovingTargetKey": ""
        },
        {
            "configID": 10202,
            "alias": "10202",
            "visible": true,
            "bornPointName": "Q1110105Cheat",
            "relativePosNpcAlias": "",
            "bindMovingTargetKey": ""
        },
        {
            "configID": 10222,
            "alias": "10222",
            "visible": true,
            "bornPointName": "Q1110105Qiuqiu1",
            "relativePosNpcAlias": "",
            "bindMovingTargetKey": ""
        },
        {
            "configID": 1005,
            "alias": "1005",
            "visible": true,
            "bornPointName": "Q1110105paimon",
            "relativePosNpcAlias": "",
            "bindMovingTargetKey": ""
        },
        {
            "configID": 10217,
            "alias": "10217",
            "visible": true,
            "bornPointName": "Q1110105Crowd1",
            "relativePosNpcAlias": "",
            "bindMovingTargetKey": ""
        },
        {
            "configID": 10218,
            "alias": "10218",
            "visible": true,
            "bornPointName": "Q1110105Crowd2",
            "relativePosNpcAlias": "",
            "bindMovingTargetKey": ""
        },
        {
            "configID": 10219,
            "alias": "10219",
            "visible": true,
            "bornPointName": "Q1110105Crowd3",
            "relativePosNpcAlias": "",
            "bindMovingTargetKey": ""
        },
        {
            "configID": 10223,
            "alias": "10223",
            "visible": true,
            "bornPointName": "Q1110105Qiuqiu2",
            "relativePosNpcAlias": "",
            "bindMovingTargetKey": ""
        }
    ],
    "group": [
        [
            {
                "$type": "MoleMole.Config.ConfigLuaAction",
                "type": "LUA_ACTION",
                "delayTime": 0.4999999701976776,
                "duration": 1.0,
                "invoke": true,
                "invokeAlias": "11101",
                "invokeParam": 11
            },
            {
                "$type": "PBIGHFCHGCA",
                "type": "CAMERA_MOVE",
                "delayTime": 3.7780067920684814,
                "duration": 6.6534833908081055,
                "KCFKJMMEECM": {
                    "x": 757.834228515625,
                    "y": 205.53860473632812,
                    "z": 277.1786804199219
                },
                "DLGJEHNPMFN": {
                    "x": 757.86328125,
                    "y": 205.693359375,
                    "z": 276.191162109375
                },
                "NJCBGNHGINI": 40.0,
                "NECGMADJICG": "EaseOutQuad",
                "BMHIHPIKAHM": {},
                "JBODIEHINII": "",
                "EJCHLMIMLBO": "",
                "BIMPIKMCIHB": "",
                "MCAOJPLIJGI": ""
            },
            {
                "$type": "PBIGHFCHGCA",
                "type": "CAMERA_MOVE",
                "delayTime": 0.052244413644075394,
                "duration": 3.450000047683716,
                "KCFKJMMEECM": {
                    "x": 758.048095703125,
                    "y": 206.6854248046875,
                    "z": 271.1030578613281
                },
                "DLGJEHNPMFN": {
                    "x": 758.0535278320312,
                    "y": 206.71180725097656,
                    "z": 270.1034240722656
                },
                "NJCBGNHGINI": 20.0,
                "NECGMADJICG": "EaseOutQuad",
                "BMHIHPIKAHM": {},
                "JBODIEHINII": "",
                "EJCHLMIMLBO": "",
                "BIMPIKMCIHB": "",
                "MCAOJPLIJGI": ""
            },
            {
                "$type": "PBIGHFCHGCA",
                "type": "CAMERA_MOVE",
                "duration": 0.07187067717313766,
                "KCFKJMMEECM": {
                    "x": 758.0415649414062,
                    "y": 206.8411407470703,
                    "z": 271.0945739746094
                },
                "DLGJEHNPMFN": {
                    "x": 758.0587768554688,
                    "y": 206.68218994140625,
                    "z": 270.107421875
                },
                "NJCBGNHGINI": 20.0,
                "FNMFGIOLKBE": 6,
                "NECGMADJICG": "EaseInOutCubic",
                "BMHIHPIKAHM": {},
                "JBODIEHINII": "",
                "EJCHLMIMLBO": "",
                "BIMPIKMCIHB": "",
                "MCAOJPLIJGI": ""
            },
            {
                "$type": "PBIGHFCHGCA",
                "type": "CAMERA_MOVE",
                "delayTime": 3.506866931915283,
                "duration": 0.252377450466156,
                "KCFKJMMEECM": {
                    "x": 757.867919921875,
                    "y": 205.47305297851562,
                    "z": 277.02471923828125
                },
                "DLGJEHNPMFN": {
                    "x": 757.8939819335938,
                    "y": 205.63668823242188,
                    "z": 276.0385437011719
                },
                "NJCBGNHGINI": 40.0,
                "NECGMADJICG": "Linear",
                "BMHIHPIKAHM": {},
                "JBODIEHINII": "",
                "EJCHLMIMLBO": "",
                "BIMPIKMCIHB": "",
                "MCAOJPLIJGI": ""
            },
            {
                "$type": "MoleMole.Config.ConfigTimeProtectAction",
                "type": "TIME_PROTECT",
                "duration": 0.8855451941490173
            },
            {
                "$type": "MoleMole.Config.ConfigMoveToAction",
                "type": "MOVE_TO",
                "aliasList": [
                    "Avatar"
                ],
                "routeList": [
                    {
                        "x": 765.3287353515625,
                        "y": 205.3638916015625,
                        "z": 277.0783996582031
                    }
                ]
            },
            {
                "$type": "NFDDGDIKEAG",
                "type": "STEER_TO",
                "delayTime": 0.045645300298929214,
                "aliasList": [
                    "Avatar"
                ],
                "GGJHILELIMO": "ABSOLUTE",
                "GPODKINFLFH": {
                    "x": 764.1110229492188,
                    "y": 205.3638916015625,
                    "z": 276.07122802734375
                },
                "JBODIEHINII": "",
                "NNFPFPOJJOJ": ""
            },
            {
                "$type": "FNPNDPFBBDD",
                "type": "LOOK_AT",
                "aliasList": [
                    "Avatar"
                ],
                "NKGFDJDHOBD": true,
                "useTargetPos": true,
                "LBJHJADMNBD": true,
                "EKIONHAEIBG": {
                    "x": 762.7078247070312,
                    "y": 206.9532012939453,
                    "z": 274.6259765625
                },
                "JBODIEHINII": "",
                "LPCACGGCDLI": "",
                "NNFPFPOJJOJ": ""
            },
            {
                "$type": "MoleMole.Config.ConfigVisibleInterAction",
                "type": "VISIBLE",
                "aliasList": [
                    "Avatar"
                ],
                "extraParam": ""
            },
            {
                "$type": "KAGAFALAIGP",
                "type": "DIALOG",
                "delayTime": 0.5,
                "aliasList": [
                    "10202"
                ],
                "JHEPJOMJJHH": 111010501,
                "OCILKFCPBNC": 4.5
            },
            {
                "$type": "LNLLGCOBDFC",
                "type": "EMO_SYNC",
                "delayTime": 0.5,
                "aliasList": [
                    "10202"
                ],
                "LKHHGAGNMKM": "Cs_Emo_Avatar_Simple_Common_Set/Cs_Emo_Avatar_Talk/Cs_Emo_Avatar_PersonalLine/Cs_Emo_Avatar_Xiao/Cs_Emo_111010501",
                "AIMKGPFAAAD": "",
                "IPEKOEDCGGF": "",
                "EJNFMNJKDAH": "",
                "LOOOCOLIHFA": "",
                "KJDLMAPPPMG": "",
                "EKJHPKFBONG": [
                    18145231810527820572,
                    501562180761756311,
                    11690481349853161288,
                    2520052691117905882
                ]
            },
            {
                "$type": "MoleMole.Config.ConfigMoveToAction",
                "type": "MOVE_TO",
                "aliasList": [
                    "10202"
                ],
                "routeList": [
                    {
                        "x": 758.0665283203125,
                        "y": 205.3210906982422,
                        "z": 270.0504150390625
                    }
                ]
            },
            {
                "$type": "CENEPJCONAG",
                "type": "BODY_LANG",
                "delayTime": 0.5,
                "aliasList": [
                    "10202"
                ],
                "OGFPAIKLDGB": 4000,
                "MHDCNDAINCK": true,
                "FOEKGLEJBIJ": ""
            },
            {
                "$type": "FNPNDPFBBDD",
                "type": "LOOK_AT",
                "aliasList": [
                    "10202"
                ],
                "NKGFDJDHOBD": true,
                "useTargetPos": true,
                "LBJHJADMNBD": true,
                "EKIONHAEIBG": {
                    "x": 757.7964477539062,
                    "y": 206.8373565673828,
                    "z": 272.7936706542969
                },
                "MNOPLOBEFLB": 0.30000001192092896,
                "JBODIEHINII": "",
                "LPCACGGCDLI": "",
                "NNFPFPOJJOJ": ""
            },
            {
                "$type": "MoleMole.Config.ConfigMoveToAction",
                "type": "MOVE_TO",
                "aliasList": [
                    "10222"
                ],
                "routeList": [
                    {
                        "x": 758.6920166015625,
                        "y": 204.99952697753906,
                        "z": 275.6879577636719
                    }
                ]
            },
            {
                "$type": "NFDDGDIKEAG",
                "type": "STEER_TO",
                "delayTime": 0.046705134212970734,
                "aliasList": [
                    "10222"
                ],
                "GGJHILELIMO": "ABSOLUTE",
                "GPODKINFLFH": {
                    "x": 758.0734252929688,
                    "y": 204.91175842285156,
                    "z": 272.93304443359375
                },
                "JBODIEHINII": "",
                "NNFPFPOJJOJ": ""
            },
            {
                "$type": "CENEPJCONAG",
                "type": "BODY_LANG",
                "delayTime": 7.799343585968018,
                "aliasList": [
                    "10222"
                ],
                "OGFPAIKLDGB": 2,
                "MHDCNDAINCK": true,
                "FOEKGLEJBIJ": ""
            },
            {
                "$type": "CENEPJCONAG",
                "type": "BODY_LANG",
                "delayTime": 3.3715245723724365,
                "aliasList": [
                    "10222"
                ],
                "OGFPAIKLDGB": 2,
                "MHDCNDAINCK": true,
                "FOEKGLEJBIJ": ""
            },
            {
                "$type": "CENEPJCONAG",
                "type": "BODY_LANG",
                "delayTime": 5.594255447387695,
                "aliasList": [
                    "10222"
                ],
                "OGFPAIKLDGB": 2,
                "MHDCNDAINCK": true,
                "FOEKGLEJBIJ": ""
            },
            {
                "$type": "MoleMole.Config.ConfigMoveToAction",
                "type": "MOVE_TO",
                "aliasList": [
                    "1005"
                ],
                "routeList": [
                    {
                        "x": 764.3959350585938,
                        "y": 205.2926025390625,
                        "z": 277.65948486328125
                    }
                ]
            },
            {
                "$type": "NFDDGDIKEAG",
                "type": "STEER_TO",
                "delayTime": 0.045645300298929214,
                "aliasList": [
                    "1005"
                ],
                "GGJHILELIMO": "ABSOLUTE",
                "GPODKINFLFH": {
                    "x": 763.1414794921875,
                    "y": 205.2926025390625,
                    "z": 276.3265075683594
                },
                "JBODIEHINII": "",
                "NNFPFPOJJOJ": ""
            },
            {
                "$type": "FNPNDPFBBDD",
                "type": "LOOK_AT",
                "aliasList": [
                    "1005"
                ],
                "NKGFDJDHOBD": true,
                "useTargetPos": true,
                "LBJHJADMNBD": true,
                "EKIONHAEIBG": {
                    "x": 762.7078247070312,
                    "y": 206.9532012939453,
                    "z": 274.6259765625
                },
                "JBODIEHINII": "",
                "LPCACGGCDLI": "",
                "NNFPFPOJJOJ": ""
            },
            {
                "$type": "MoleMole.Config.ConfigVisibleInterAction",
                "type": "VISIBLE",
                "aliasList": [
                    "1005"
                ],
                "extraParam": ""
            },
            {
                "$type": "MoleMole.Config.ConfigMoveToAction",
                "type": "MOVE_TO",
                "aliasList": [
                    "10217"
                ],
                "routeList": [
                    {
                        "x": 760.0751953125,
                        "y": 205.41879272460938,
                        "z": 268.8450927734375
                    }
                ]
            },
            {
                "$type": "NFDDGDIKEAG",
                "type": "STEER_TO",
                "delayTime": 0.0475543811917305,
                "aliasList": [
                    "10217"
                ],
                "GGJHILELIMO": "ABSOLUTE",
                "GPODKINFLFH": {
                    "x": 758.8533325195312,
                    "y": 205.4248504638672,
                    "z": 270.5802307128906
                },
                "JBODIEHINII": "",
                "NNFPFPOJJOJ": ""
            },
            {
                "$type": "FNPNDPFBBDD",
                "type": "LOOK_AT",
                "aliasList": [
                    "10217"
                ],
                "NKGFDJDHOBD": true,
                "useTargetPos": true,
                "LBJHJADMNBD": true,
                "EKIONHAEIBG": {
                    "x": 758.4259643554688,
                    "y": 206.7989044189453,
                    "z": 271.3348388671875
                },
                "MNOPLOBEFLB": 0.30000001192092896,
                "JBODIEHINII": "",
                "LPCACGGCDLI": "",
                "NNFPFPOJJOJ": ""
            },
            {
                "$type": "CENEPJCONAG",
                "type": "BODY_LANG",
                "delayTime": 0.29536741971969604,
                "aliasList": [
                    "10217"
                ],
                "OGFPAIKLDGB": 1230,
                "MHDCNDAINCK": true,
                "FOEKGLEJBIJ": ""
            },
            {
                "$type": "CENEPJCONAG",
                "type": "BODY_LANG",
                "aliasList": [
                    "10217"
                ],
                "NNKEOHJCPOF": true,
                "MHDCNDAINCK": true,
                "FOEKGLEJBIJ": ""
            },
            {
                "$type": "MoleMole.Config.ConfigMoveToAction",
                "type": "MOVE_TO",
                "aliasList": [
                    "10218"
                ],
                "routeList": [
                    {
                        "x": 758.5626220703125,
                        "y": 205.49215698242188,
                        "z": 267.8262023925781
                    }
                ]
            },
            {
                "$type": "NFDDGDIKEAG",
                "type": "STEER_TO",
                "delayTime": 0.0475543811917305,
                "aliasList": [
                    "10218"
                ],
                "GGJHILELIMO": "ABSOLUTE",
                "GPODKINFLFH": {
                    "x": 758.1170043945312,
                    "y": 205.4248504638672,
                    "z": 269.8158264160156
                },
                "JBODIEHINII": "",
                "NNFPFPOJJOJ": ""
            },
            {
                "$type": "FNPNDPFBBDD",
                "type": "LOOK_AT",
                "aliasList": [
                    "10218"
                ],
                "NKGFDJDHOBD": true,
                "useTargetPos": true,
                "LBJHJADMNBD": true,
                "EKIONHAEIBG": {
                    "x": 757.87255859375,
                    "y": 206.6316680908203,
                    "z": 271.0714416503906
                },
                "MNOPLOBEFLB": 0.30000001192092896,
                "JBODIEHINII": "",
                "LPCACGGCDLI": "",
                "NNFPFPOJJOJ": ""
            },
            {
                "$type": "CENEPJCONAG",
                "type": "BODY_LANG",
                "aliasList": [
                    "10218"
                ],
                "NNKEOHJCPOF": true,
                "MHDCNDAINCK": true,
                "FOEKGLEJBIJ": ""
            },
            {
                "$type": "MoleMole.Config.ConfigMoveToAction",
                "type": "MOVE_TO",
                "aliasList": [
                    "10219"
                ],
                "routeList": [
                    {
                        "x": 756.4984741210938,
                        "y": 205.4248504638672,
                        "z": 268.1217956542969
                    }
                ]
            },
            {
                "$type": "NFDDGDIKEAG",
                "type": "STEER_TO",
                "delayTime": 0.0475543811917305,
                "aliasList": [
                    "10219"
                ],
                "GGJHILELIMO": "ABSOLUTE",
                "GPODKINFLFH": {
                    "x": 756.7079467773438,
                    "y": 205.4248504638672,
                    "z": 269.1756286621094
                },
                "JBODIEHINII": "",
                "NNFPFPOJJOJ": ""
            },
            {
                "$type": "FNPNDPFBBDD",
                "type": "LOOK_AT",
                "aliasList": [
                    "10219"
                ],
                "NKGFDJDHOBD": true,
                "useTargetPos": true,
                "LBJHJADMNBD": true,
                "EKIONHAEIBG": {
                    "x": 757.2479248046875,
                    "y": 206.5964813232422,
                    "z": 271.101318359375
                },
                "MNOPLOBEFLB": 0.30000001192092896,
                "JBODIEHINII": "",
                "LPCACGGCDLI": "",
                "NNFPFPOJJOJ": ""
            },
            {
                "$type": "CENEPJCONAG",
                "type": "BODY_LANG",
                "delayTime": 0.2670513987541199,
                "aliasList": [
                    "10219"
                ],
                "OGFPAIKLDGB": 1120,
                "MHDCNDAINCK": true,
                "FOEKGLEJBIJ": ""
            },
            {
                "$type": "CENEPJCONAG",
                "type": "BODY_LANG",
                "aliasList": [
                    "10219"
                ],
                "NNKEOHJCPOF": true,
                "MHDCNDAINCK": true,
                "FOEKGLEJBIJ": ""
            },
            {
                "$type": "MoleMole.Config.ConfigMoveToAction",
                "type": "MOVE_TO",
                "aliasList": [
                    "10223"
                ],
                "routeList": [
                    {
                        "x": 756.8701171875,
                        "y": 204.90203857421875,
                        "z": 274.6812438964844
                    }
                ]
            },
            {
                "$type": "NFDDGDIKEAG",
                "type": "STEER_TO",
                "delayTime": 0.046705134212970734,
                "aliasList": [
                    "10223"
                ],
                "GGJHILELIMO": "ABSOLUTE",
                "GPODKINFLFH": {
                    "x": 757.4472045898438,
                    "y": 204.8188934326172,
                    "z": 272.1707763671875
                },
                "JBODIEHINII": "",
                "NNFPFPOJJOJ": ""
            },
            {
                "$type": "CENEPJCONAG",
                "type": "BODY_LANG",
                "delayTime": 8.006284713745117,
                "aliasList": [
                    "10223"
                ],
                "OGFPAIKLDGB": 3,
                "MHDCNDAINCK": true,
                "FOEKGLEJBIJ": ""
            },
            {
                "$type": "CENEPJCONAG",
                "type": "BODY_LANG",
                "delayTime": 3.4549782276153564,
                "aliasList": [
                    "10223"
                ],
                "OGFPAIKLDGB": 3,
                "MHDCNDAINCK": true,
                "FOEKGLEJBIJ": ""
            },
            {
                "$type": "CENEPJCONAG",
                "type": "BODY_LANG",
                "delayTime": 5.730631351470947,
                "aliasList": [
                    "10223"
                ],
                "OGFPAIKLDGB": 3,
                "MHDCNDAINCK": true,
                "FOEKGLEJBIJ": ""
            }
        ],
        [
            {
                "$type": "MoleMole.Config.ConfigLuaAction",
                "type": "LUA_ACTION",
                "duration": 3.0,
                "invoke": true,
                "invokeAlias": "11101",
                "invokeParam": 20
            },
            {
                "$type": "PBIGHFCHGCA",
                "type": "CAMERA_MOVE",
                "duration": 0.06766027957201004,
                "KCFKJMMEECM": {
                    "x": 760.3479614257812,
                    "y": 205.6446075439453,
                    "z": 274.2678527832031
                },
                "DLGJEHNPMFN": {
                    "x": 759.3634643554688,
                    "y": 205.78453063964844,
                    "z": 274.3733825683594
                },
                "NJCBGNHGINI": 30.0,
                "FNMFGIOLKBE": 6,
                "NECGMADJICG": "EaseInOutCubic",
                "BMHIHPIKAHM": {},
                "JBODIEHINII": "",
                "EJCHLMIMLBO": "",
                "BIMPIKMCIHB": "",
                "MCAOJPLIJGI": ""
            },
            {
                "$type": "PBIGHFCHGCA",
                "type": "CAMERA_MOVE",
                "delayTime": 1.8341472148895264,
                "duration": 0.14486905932426453,
                "KCFKJMMEECM": {
                    "x": 758.2973022460938,
                    "y": 207.13400268554688,
                    "z": 270.68017578125
                },
                "DLGJEHNPMFN": {
                    "x": 757.9029541015625,
                    "y": 206.8522491455078,
                    "z": 269.80548095703125
                },
                "NJCBGNHGINI": 20.0,
                "NECGMADJICG": "EaseOutQuad",
                "BMHIHPIKAHM": {},
                "MMJMMAEAJOA": true,
                "JBODIEHINII": "",
                "EJCHLMIMLBO": "",
                "BIMPIKMCIHB": "",
                "MCAOJPLIJGI": ""
            },
            {
                "$type": "PBIGHFCHGCA",
                "type": "CAMERA_MOVE",
                "delayTime": 0.058050964027643204,
                "duration": 1.6795419454574585,
                "KCFKJMMEECM": {
                    "x": 760.3590698242188,
                    "y": 205.6439666748047,
                    "z": 274.373291015625
                },
                "DLGJEHNPMFN": {
                    "x": 759.3745727539062,
                    "y": 205.7838897705078,
                    "z": 274.47882080078125
                },
                "NJCBGNHGINI": 30.0,
                "NECGMADJICG": "Linear",
                "BMHIHPIKAHM": {},
                "JBODIEHINII": "",
                "EJCHLMIMLBO": "",
                "BIMPIKMCIHB": "",
                "MCAOJPLIJGI": ""
            },
            {
                "$type": "PBIGHFCHGCA",
                "type": "CAMERA_MOVE",
                "delayTime": 1.7409437894821167,
                "duration": 0.08689211308956146,
                "KCFKJMMEECM": {
                    "x": 758.8782348632812,
                    "y": 207.54904174804688,
                    "z": 271.9686279296875
                },
                "DLGJEHNPMFN": {
                    "x": 758.48388671875,
                    "y": 207.2672882080078,
                    "z": 271.09393310546875
                },
                "NJCBGNHGINI": 20.0,
                "FNMFGIOLKBE": 6,
                "NECGMADJICG": "EaseInOutCubic",
                "BMHIHPIKAHM": {},
                "JBODIEHINII": "",
                "EJCHLMIMLBO": "",
                "BIMPIKMCIHB": "",
                "MCAOJPLIJGI": ""
            },
            {
                "$type": "MoleMole.Config.ConfigTimeProtectAction",
                "type": "TIME_PROTECT",
                "duration": 2.093621015548706
            },
            {
                "$type": "KAGAFALAIGP",
                "type": "DIALOG",
                "delayTime": 1.9600000381469727,
                "aliasList": [
                    "10202"
                ],
                "JHEPJOMJJHH": 111010502,
                "OCILKFCPBNC": 0.3499999940395355
            },
            {
                "$type": "LNLLGCOBDFC",
                "type": "EMO_SYNC",
                "delayTime": 1.9600000381469727,
                "aliasList": [
                    "10202"
                ],
                "LKHHGAGNMKM": "Cs_Emo_Avatar_Simple_Common_Set/Cs_Emo_Avatar_Talk/Cs_Emo_Avatar_PersonalLine/Cs_Emo_Avatar_Xiao/Cs_Emo_111010502",
                "AIMKGPFAAAD": "",
                "IPEKOEDCGGF": "",
                "EJNFMNJKDAH": "",
                "LOOOCOLIHFA": "",
                "KJDLMAPPPMG": "",
                "EKJHPKFBONG": [
                    14507833691996339861,
                    17466033693437539923,
                    1920274484608466906,
                    3459028956124910635
                ]
            },
            {
                "$type": "FNPNDPFBBDD",
                "type": "LOOK_AT",
                "delayTime": 1.9212086200714111,
                "aliasList": [
                    "10202"
                ],
                "NKGFDJDHOBD": true,
                "useTargetPos": true,
                "LBJHJADMNBD": true,
                "EKIONHAEIBG": {
                    "x": 757.7964477539062,
                    "y": 206.19009399414062,
                    "z": 272.7936706542969
                },
                "MNOPLOBEFLB": 0.15000000596046448,
                "JBODIEHINII": "",
                "LPCACGGCDLI": "",
                "NNFPFPOJJOJ": ""
            },
            {
                "$type": "MoleMole.Config.ConfigMoveToAction",
                "type": "MOVE_TO",
                "aliasList": [
                    "10222"
                ],
                "routeList": [
                    {
                        "x": 758.6950073242188,
                        "y": 204.9248809814453,
                        "z": 275.15570068359375
                    }
                ]
            },
            {
                "$type": "CENEPJCONAG",
                "type": "BODY_LANG",
                "delayTime": 0.6686416864395142,
                "aliasList": [
                    "10222"
                ],
                "OGFPAIKLDGB": 4,
                "MHDCNDAINCK": true,
                "FOEKGLEJBIJ": ""
            },
            {
                "$type": "MoleMole.Config.ConfigMoveToAction",
                "type": "MOVE_TO",
                "delayTime": 1.7999999523162842,
                "aliasList": [
                    "10222"
                ],
                "routeList": [
                    {
                        "x": 759.0050048828125,
                        "y": 204.77110290527344,
                        "z": 278.1620178222656
                    }
                ]
            },
            {
                "$type": "NFDDGDIKEAG",
                "type": "STEER_TO",
                "aliasList": [
                    "1005"
                ],
                "GGJHILELIMO": "ABSOLUTE",
                "GPODKINFLFH": {
                    "x": 763.1414794921875,
                    "y": 205.2926025390625,
                    "z": 276.3265075683594
                },
                "JBODIEHINII": "",
                "NNFPFPOJJOJ": ""
            },
            {
                "$type": "CENEPJCONAG",
                "type": "BODY_LANG",
                "aliasList": [
                    "10223"
                ],
                "OGFPAIKLDGB": 2,
                "MHDCNDAINCK": true,
                "FOEKGLEJBIJ": ""
            },
            {
                "$type": "MoleMole.Config.ConfigMoveToAction",
                "type": "MOVE_TO",
                "delayTime": 1.7999999523162842,
                "aliasList": [
                    "10223"
                ],
                "routeList": [
                    {
                        "x": 757.0448608398438,
                        "y": 204.6139678955078,
                        "z": 277.17291259765625
                    }
                ]
            }
        ],
        [
            {
                "$type": "MoleMole.Config.ConfigLuaAction",
                "type": "LUA_ACTION",
                "duration": 3.0,
                "invoke": true,
                "invokeAlias": "11101",
                "invokeParam": 21
            },
            {
                "$type": "PBIGHFCHGCA",
                "type": "CAMERA_MOVE",
                "delayTime": 1.7790923118591309,
                "duration": 4.1527180671691895,
                "KCFKJMMEECM": {
                    "x": 758.0272827148438,
                    "y": 206.67347717285156,
                    "z": 271.1017761230469
                },
                "DLGJEHNPMFN": {
                    "x": 758.046875,
                    "y": 206.9597930908203,
                    "z": 270.1438293457031
                },
                "NJCBGNHGINI": 20.0,
                "NECGMADJICG": "EaseOutQuad",
                "BMHIHPIKAHM": {},
                "JBODIEHINII": "",
                "EJCHLMIMLBO": "",
                "BIMPIKMCIHB": "",
                "MCAOJPLIJGI": ""
            },
            {
                "$type": "PBIGHFCHGCA",
                "type": "CAMERA_MOVE",
                "delayTime": 0.07749567925930023,
                "duration": 1.604663372039795,
                "KCFKJMMEECM": {
                    "x": 762.8380737304688,
                    "y": 210.8453369140625,
                    "z": 263.3201904296875
                },
                "DLGJEHNPMFN": {
                    "x": 762.3413696289062,
                    "y": 210.36976623535156,
                    "z": 264.04620361328125
                },
                "NJCBGNHGINI": 30.0,
                "NECGMADJICG": "Linear",
                "BMHIHPIKAHM": {},
                "JBODIEHINII": "",
                "EJCHLMIMLBO": "",
                "BIMPIKMCIHB": "",
                "MCAOJPLIJGI": ""
            },
            {
                "$type": "PBIGHFCHGCA",
                "type": "CAMERA_MOVE",
                "duration": 0.10000000149011612,
                "KCFKJMMEECM": {
                    "x": 762.6511840820312,
                    "y": 211.21022033691406,
                    "z": 262.99395751953125
                },
                "DLGJEHNPMFN": {
                    "x": 762.1893920898438,
                    "y": 210.7136688232422,
                    "z": 263.7289123535156
                },
                "NJCBGNHGINI": 30.0,
                "FNMFGIOLKBE": 6,
                "NECGMADJICG": "EaseInOutCubic",
                "BMHIHPIKAHM": {},
                "JBODIEHINII": "",
                "EJCHLMIMLBO": "",
                "BIMPIKMCIHB": "",
                "MCAOJPLIJGI": ""
            },
            {
                "$type": "PBIGHFCHGCA",
                "type": "CAMERA_MOVE",
                "delayTime": 1.6775349378585815,
                "duration": 0.10000000149011612,
                "KCFKJMMEECM": {
                    "x": 758.0240478515625,
                    "y": 206.62628173828125,
                    "z": 271.2596740722656
                },
                "DLGJEHNPMFN": {
                    "x": 758.0436401367188,
                    "y": 206.91259765625,
                    "z": 270.3017272949219
                },
                "NJCBGNHGINI": 20.0,
                "FNMFGIOLKBE": 6,
                "NECGMADJICG": "EaseInOutCubic",
                "BMHIHPIKAHM": {},
                "JBODIEHINII": "",
                "EJCHLMIMLBO": "",
                "BIMPIKMCIHB": "",
                "MCAOJPLIJGI": ""
            },
            {
                "$type": "MoleMole.Config.ConfigTimeProtectAction",
                "type": "TIME_PROTECT",
                "duration": 2.093621015548706
            },
            {
                "$type": "KAGAFALAIGP",
                "type": "DIALOG",
                "delayTime": 1.7400000095367432,
                "aliasList": [
                    "10202"
                ],
                "JHEPJOMJJHH": 111010503,
                "OCILKFCPBNC": 1.5099999904632568
            },
            {
                "$type": "LNLLGCOBDFC",
                "type": "EMO_SYNC",
                "delayTime": 1.7400000095367432,
                "aliasList": [
                    "10202"
                ],
                "LKHHGAGNMKM": "Cs_Emo_Avatar_Simple_Common_Set/Cs_Emo_Avatar_Talk/Cs_Emo_Avatar_PersonalLine/Cs_Emo_Avatar_Xiao/Cs_Emo_111010503",
                "AIMKGPFAAAD": "",
                "IPEKOEDCGGF": "",
                "EJNFMNJKDAH": "",
                "LOOOCOLIHFA": "",
                "KJDLMAPPPMG": "",
                "EKJHPKFBONG": [
                    10619437716136786895,
                    1389445261459888693,
                    107478535917941101,
                    13866258071133467027
                ]
            },
            {
                "$type": "FNPNDPFBBDD",
                "type": "LOOK_AT",
                "delayTime": 3.3939852714538574,
                "aliasList": [
                    "10202"
                ],
                "NKGFDJDHOBD": true,
                "useTargetPos": true,
                "LBJHJADMNBD": true,
                "EKIONHAEIBG": {
                    "x": 757.934326171875,
                    "y": 206.85337829589844,
                    "z": 272.1962890625
                },
                "MNOPLOBEFLB": 0.15000000596046448,
                "JBODIEHINII": "",
                "LPCACGGCDLI": "",
                "NNFPFPOJJOJ": ""
            },
            {
                "$type": "FNPNDPFBBDD",
                "type": "LOOK_AT",
                "delayTime": 1.711578369140625,
                "aliasList": [
                    "10202"
                ],
                "NKGFDJDHOBD": true,
                "useTargetPos": true,
                "LBJHJADMNBD": true,
                "EKIONHAEIBG": {
                    "x": 756.90576171875,
                    "y": 206.62796020507812,
                    "z": 272.3221435546875
                },
                "MNOPLOBEFLB": 0.15000000596046448,
                "JBODIEHINII": "",
                "LPCACGGCDLI": "",
                "NNFPFPOJJOJ": ""
            },
            {
                "$type": "FNPNDPFBBDD",
                "type": "LOOK_AT",
                "delayTime": 2.6332602500915527,
                "aliasList": [
                    "10202"
                ],
                "NKGFDJDHOBD": true,
                "useTargetPos": true,
                "LBJHJADMNBD": true,
                "EKIONHAEIBG": {
                    "x": 758.5823364257812,
                    "y": 206.62796020507812,
                    "z": 272.33984375
                },
                "MNOPLOBEFLB": 0.15000000596046448,
                "JBODIEHINII": "",
                "LPCACGGCDLI": "",
                "NNFPFPOJJOJ": ""
            },
            {
                "$type": "MoleMole.Config.ConfigMoveToAction",
                "type": "MOVE_TO",
                "delayTime": 0.10170656442642212,
                "aliasList": [
                    "10222"
                ],
                "moveType": "WALK",
                "routeList": [
                    {
                        "x": 758.480712890625,
                        "y": 205.1759490966797,
                        "z": 271.6670227050781
                    }
                ]
            },
            {
                "$type": "MoleMole.Config.ConfigMoveToAction",
                "type": "MOVE_TO",
                "aliasList": [
                    "10223"
                ],
                "moveType": "WALK",
                "routeList": [
                    {
                        "x": 756.8363037109375,
                        "y": 205.08938598632812,
                        "z": 271.51226806640625
                    }
                ]
            }
        ],
        [
            {
                "$type": "PBIGHFCHGCA",
                "type": "CAMERA_MOVE",
                "delayTime": 0.057388786226511,
                "duration": 6.642322063446045,
                "KCFKJMMEECM": {
                    "x": 758.2474365234375,
                    "y": 205.5504608154297,
                    "z": 274.68499755859375
                },
                "DLGJEHNPMFN": {
                    "x": 758.114013671875,
                    "y": 205.96311950683594,
                    "z": 275.5860595703125
                },
                "NJCBGNHGINI": 40.0,
                "NECGMADJICG": "EaseOutQuad",
                "PBKLBFMFELD": true,
                "BMHIHPIKAHM": {},
                "HGGPLEMCNNG": false,
                "JBODIEHINII": "",
                "EJCHLMIMLBO": "",
                "BIMPIKMCIHB": "",
                "MCAOJPLIJGI": ""
            },
            {
                "$type": "PBIGHFCHGCA",
                "type": "CAMERA_MOVE",
                "duration": 0.10000000149011612,
                "KCFKJMMEECM": {
                    "x": 758.195068359375,
                    "y": 205.45074462890625,
                    "z": 274.6558837890625
                },
                "DLGJEHNPMFN": {
                    "x": 758.0634765625,
                    "y": 205.8024444580078,
                    "z": 275.58270263671875
                },
                "NJCBGNHGINI": 40.0,
                "FNMFGIOLKBE": 6,
                "NECGMADJICG": "EaseInOutCubic",
                "PBKLBFMFELD": true,
                "BMHIHPIKAHM": {},
                "HGGPLEMCNNG": false,
                "JBODIEHINII": "",
                "EJCHLMIMLBO": "",
                "BIMPIKMCIHB": "",
                "MCAOJPLIJGI": ""
            },
            {
                "$type": "MoleMole.Config.ConfigVisibleInterAction",
                "type": "VISIBLE",
                "aliasList": [
                    "Avatar"
                ],
                "isVisible": true,
                "extraParam": ""
            },
            {
                "$type": "FNPNDPFBBDD",
                "type": "LOOK_AT",
                "aliasList": [
                    "10202"
                ],
                "NKGFDJDHOBD": true,
                "useTargetPos": true,
                "LBJHJADMNBD": true,
                "EKIONHAEIBG": {
                    "x": 757.934326171875,
                    "y": 206.85337829589844,
                    "z": 272.1962890625
                },
                "MNOPLOBEFLB": 0.15000000596046448,
                "JBODIEHINII": "",
                "LPCACGGCDLI": "",
                "NNFPFPOJJOJ": ""
            },
            {
                "$type": "KAGAFALAIGP",
                "type": "DIALOG",
                "aliasList": [
                    "10222"
                ],
                "JHEPJOMJJHH": 111010504,
                "OCILKFCPBNC": 1.0
            },
            {
                "$type": "LNLLGCOBDFC",
                "type": "EMO_SYNC",
                "aliasList": [
                    "10222"
                ],
                "LKHHGAGNMKM": "Cs_Emo_Avatar_Simple_Common_Set/Cs_Emo_Avatar_Talk/Cs_Emo_Avatar_PersonalLine/Cs_Emo_Avatar_Xiao/Cs_Emo_111010504",
                "AIMKGPFAAAD": "",
                "IPEKOEDCGGF": "",
                "EJNFMNJKDAH": "",
                "LOOOCOLIHFA": "",
                "KJDLMAPPPMG": "",
                "EKJHPKFBONG": [
                    14179111723910603658,
                    17224608080264763068,
                    8396490748069752176,
                    13197581490683452845
                ]
            },
            {
                "$type": "MoleMole.Config.ConfigMoveToAction",
                "type": "MOVE_TO",
                "delayTime": 0.0301124919205904,
                "aliasList": [
                    "10222"
                ],
                "moveType": "WALK",
                "routeList": [
                    {
                        "x": 759.3855590820312,
                        "y": 205.21849060058594,
                        "z": 271.3634948730469
                    }
                ]
            },
            {
                "$type": "MoleMole.Config.ConfigMoveToAction",
                "type": "MOVE_TO",
                "aliasList": [
                    "10222"
                ],
                "routeList": [
                    {
                        "x": 758.492919921875,
                        "y": 204.70855712890625,
                        "z": 278.24713134765625
                    }
                ]
            },
            {
                "$type": "MoleMole.Config.ConfigVisibleInterAction",
                "type": "VISIBLE",
                "aliasList": [
                    "1005"
                ],
                "isVisible": true,
                "extraParam": ""
            },
            {
                "$type": "FNPNDPFBBDD",
                "type": "LOOK_AT",
                "aliasList": [
                    "1005"
                ],
                "NKGFDJDHOBD": true,
                "useTargetPos": true,
                "LBJHJADMNBD": true,
                "EKIONHAEIBG": {
                    "x": 762.7078247070312,
                    "y": 206.4298553466797,
                    "z": 274.6259765625
                },
                "JBODIEHINII": "",
                "LPCACGGCDLI": "",
                "NNFPFPOJJOJ": ""
            },
            {
                "$type": "MoleMole.Config.ConfigMoveToAction",
                "type": "MOVE_TO",
                "aliasList": [
                    "10223"
                ],
                "routeList": [
                    {
                        "x": 757.264404296875,
                        "y": 204.46859741210938,
                        "z": 279.5189514160156
                    }
                ]
            },
            {
                "$type": "MoleMole.Config.ConfigMoveToAction",
                "type": "MOVE_TO",
                "delayTime": 0.02505788952112198,
                "aliasList": [
                    "10223"
                ],
                "moveType": "WALK",
                "routeList": [
                    {
                        "x": 757.4010620117188,
                        "y": 205.18124389648438,
                        "z": 271.13421630859375
                    }
                ]
            }
        ],
        [
            {
                "$type": "PBIGHFCHGCA",
                "type": "CAMERA_MOVE",
                "duration": 1.0,
                "KCFKJMMEECM": {
                    "x": 764.3178100585938,
                    "y": 206.43310546875,
                    "z": 276.53314208984375
                },
                "DLGJEHNPMFN": {
                    "x": 764.1954345703125,
                    "y": 206.50741577148438,
                    "z": 277.5228271484375
                },
                "NJCBGNHGINI": 30.0,
                "FNMFGIOLKBE": 6,
                "NECGMADJICG": "EaseInOutCubic",
                "BMHIHPIKAHM": {},
                "HGGPLEMCNNG": false,
                "JBODIEHINII": "",
                "EJCHLMIMLBO": "",
                "BIMPIKMCIHB": "",
                "MCAOJPLIJGI": ""
            },
            {
                "$type": "KAGAFALAIGP",
                "type": "DIALOG",
                "aliasList": [
                    "1005"
                ],
                "JHEPJOMJJHH": 111010505,
                "OCILKFCPBNC": 0.5
            },
            {
                "$type": "LNLLGCOBDFC",
                "type": "EMO_SYNC",
                "aliasList": [
                    "1005"
                ],
                "LKHHGAGNMKM": "Cs_Emo_Avatar_Simple_Common_Set/Cs_Emo_Avatar_Talk/Cs_Emo_Avatar_PersonalLine/Cs_Emo_Avatar_Xiao/Cs_Emo_111010505",
                "AIMKGPFAAAD": "",
                "IPEKOEDCGGF": "",
                "EJNFMNJKDAH": "",
                "LOOOCOLIHFA": "",
                "KJDLMAPPPMG": "",
                "EKJHPKFBONG": [
                    5018103531131390098,
                    4026091694165904508,
                    4764336914925261902,
                    5409375976319994860
                ]
            },
            {
                "$type": "CENEPJCONAG",
                "type": "BODY_LANG",
                "aliasList": [
                    "1005"
                ],
                "OGFPAIKLDGB": 1060,
                "MHDCNDAINCK": true,
                "FOEKGLEJBIJ": ""
            }
        ],
        [
            {
                "$type": "MoleMole.Config.ConfigLuaAction",
                "type": "LUA_ACTION",
                "duration": 1.0,
                "invoke": true,
                "invokeAlias": "11101",
                "invokeParam": 12
            },
            {
                "$type": "PBIGHFCHGCA",
                "type": "CAMERA_MOVE",
                "delayTime": 0.5051953792572021,
                "duration": 8.907405853271484,
                "KCFKJMMEECM": {
                    "x": 765.5484619140625,
                    "y": 206.8462677001953,
                    "z": 275.7475280761719
                },
                "DLGJEHNPMFN": {
                    "x": 765.1649780273438,
                    "y": 206.73785400390625,
                    "z": 276.6647033691406
                },
                "NJCBGNHGINI": 30.0,
                "NECGMADJICG": "EaseOutQuad",
                "BMHIHPIKAHM": {},
                "JBODIEHINII": "",
                "EJCHLMIMLBO": "",
                "BIMPIKMCIHB": "",
                "MCAOJPLIJGI": ""
            },
            {
                "$type": "PBIGHFCHGCA",
                "type": "CAMERA_MOVE",
                "delayTime": 0.3953703045845032,
                "duration": 0.5606997609138489,
                "KCFKJMMEECM": {
                    "x": 765.488037109375,
                    "y": 206.8291778564453,
                    "z": 275.8921203613281
                },
                "DLGJEHNPMFN": {
                    "x": 765.1045532226562,
                    "y": 206.72076416015625,
                    "z": 276.8092956542969
                },
                "NJCBGNHGINI": 30.0,
                "FNMFGIOLKBE": 6,
                "NECGMADJICG": "EaseInOutCubic",
                "BMHIHPIKAHM": {},
                "JBODIEHINII": "",
                "EJCHLMIMLBO": "",
                "BIMPIKMCIHB": "",
                "MCAOJPLIJGI": ""
            },
            {
                "$type": "NFDDGDIKEAG",
                "type": "STEER_TO",
                "delayTime": 0.5274848937988281,
                "duration": 0.800000011920929,
                "aliasList": [
                    "Avatar"
                ],
                "GGJHILELIMO": "ABSOLUTE",
                "GPODKINFLFH": {
                    "x": 764.5317993164062,
                    "y": 205.3638916015625,
                    "z": 277.6993103027344
                },
                "PKKKHNGDEEE": true,
                "JBODIEHINII": "",
                "NNFPFPOJJOJ": ""
            },
            {
                "$type": "FNPNDPFBBDD",
                "type": "LOOK_AT",
                "delayTime": 0.3294752240180969,
                "aliasList": [
                    "Avatar"
                ],
                "NKGFDJDHOBD": true,
                "useTargetPos": true,
                "LBJHJADMNBD": true,
                "EKIONHAEIBG": {
                    "x": 764.5225219726562,
                    "y": 206.70956420898438,
                    "z": 276.8289794921875
                },
                "MNOPLOBEFLB": 0.5,
                "JBODIEHINII": "",
                "LPCACGGCDLI": "",
                "NNFPFPOJJOJ": ""
            },
            {
                "$type": "FNPNDPFBBDD",
                "type": "LOOK_AT",
                "delayTime": 1.2739708423614502,
                "aliasList": [
                    "Avatar"
                ],
                "NKGFDJDHOBD": true,
                "useTargetPos": true,
                "LBJHJADMNBD": true,
                "EKIONHAEIBG": {
                    "x": 764.5077514648438,
                    "y": 206.65054321289062,
                    "z": 277.5799255371094
                },
                "MNOPLOBEFLB": 0.30000001192092896,
                "JBODIEHINII": "",
                "LPCACGGCDLI": "",
                "NNFPFPOJJOJ": ""
            },
            {
                "$type": "CENEPJCONAG",
                "type": "BODY_LANG",
                "aliasList": [
                    "10202"
                ],
                "NNKEOHJCPOF": true,
                "MHDCNDAINCK": true,
                "FOEKGLEJBIJ": ""
            },
            {
                "$type": "KAGAFALAIGP",
                "type": "DIALOG",
                "aliasList": [
                    "1005"
                ],
                "JHEPJOMJJHH": 111010506,
                "OCILKFCPBNC": 0.5
            },
            {
                "$type": "LNLLGCOBDFC",
                "type": "EMO_SYNC",
                "aliasList": [
                    "1005"
                ],
                "LKHHGAGNMKM": "Cs_Emo_Avatar_Simple_Common_Set/Cs_Emo_Avatar_Talk/Cs_Emo_Avatar_PersonalLine/Cs_Emo_Avatar_Xiao/Cs_Emo_111010506",
                "AIMKGPFAAAD": "",
                "IPEKOEDCGGF": "",
                "EJNFMNJKDAH": "",
                "LOOOCOLIHFA": "",
                "KJDLMAPPPMG": "",
                "EKJHPKFBONG": [
                    2314638023245557098,
                    2088047982859316593,
                    4124508865554784004,
                    2135181292018088807
                ]
            },
            {
                "$type": "NFDDGDIKEAG",
                "type": "STEER_TO",
                "duration": 0.800000011920929,
                "aliasList": [
                    "1005"
                ],
                "GGJHILELIMO": "ABSOLUTE",
                "GPODKINFLFH": {
                    "x": 765.178466796875,
                    "y": 205.2926025390625,
                    "z": 277.06927490234375
                },
                "PKKKHNGDEEE": true,
                "JBODIEHINII": "",
                "NNFPFPOJJOJ": ""
            },
            {
                "$type": "FNPNDPFBBDD",
                "type": "LOOK_AT",
                "delayTime": 0.8127055764198303,
                "aliasList": [
                    "1005"
                ],
                "NKGFDJDHOBD": true,
                "useTargetPos": true,
                "LBJHJADMNBD": true,
                "EKIONHAEIBG": {
                    "x": 765.0338745117188,
                    "y": 206.6836395263672,
                    "z": 277.30023193359375
                },
                "MNOPLOBEFLB": 0.30000001192092896,
                "JBODIEHINII": "",
                "LPCACGGCDLI": "",
                "NNFPFPOJJOJ": ""
            },
            {
                "$type": "FNPNDPFBBDD",
                "type": "LOOK_AT",
                "aliasList": [
                    "1005"
                ],
                "NKGFDJDHOBD": true,
                "useTargetPos": true,
                "LBJHJADMNBD": true,
                "EKIONHAEIBG": {
                    "x": 764.7703247070312,
                    "y": 206.70956420898438,
                    "z": 276.8482971191406
                },
                "MNOPLOBEFLB": 0.5,
                "JBODIEHINII": "",
                "LPCACGGCDLI": "",
                "NNFPFPOJJOJ": ""
            },
            {
                "$type": "CENEPJCONAG",
                "type": "BODY_LANG",
                "aliasList": [
                    "1005"
                ],
                "NNKEOHJCPOF": true,
                "MHDCNDAINCK": true,
                "FOEKGLEJBIJ": ""
            },
            {
                "$type": "CENEPJCONAG",
                "type": "BODY_LANG",
                "delayTime": 0.9887471199035645,
                "aliasList": [
                    "1005"
                ],
                "OGFPAIKLDGB": 1180,
                "MHDCNDAINCK": true,
                "FOEKGLEJBIJ": ""
            },
            {
                "$type": "CENEPJCONAG",
                "type": "BODY_LANG",
                "delayTime": 2.6011860370635986,
                "aliasList": [
                    "1005"
                ],
                "NNKEOHJCPOF": true,
                "MHDCNDAINCK": true,
                "FOEKGLEJBIJ": ""
            },
            {
                "$type": "CENEPJCONAG",
                "type": "BODY_LANG",
                "delayTime": 3.333362579345703,
                "aliasList": [
                    "1005"
                ],
                "OGFPAIKLDGB": 1230,
                "MHDCNDAINCK": true,
                "FOEKGLEJBIJ": ""
            },
            {
                "$type": "CENEPJCONAG",
                "type": "BODY_LANG",
                "aliasList": [
                    "10217"
                ],
                "NNKEOHJCPOF": true,
                "MHDCNDAINCK": true,
                "FOEKGLEJBIJ": ""
            },
            {
                "$type": "CENEPJCONAG",
                "type": "BODY_LANG",
                "aliasList": [
                    "10218"
                ],
                "NNKEOHJCPOF": true,
                "MHDCNDAINCK": true,
                "FOEKGLEJBIJ": ""
            },
            {
                "$type": "CENEPJCONAG",
                "type": "BODY_LANG",
                "aliasList": [
                    "10219"
                ],
                "NNKEOHJCPOF": true,
                "MHDCNDAINCK": true,
                "FOEKGLEJBIJ": ""
            }
        ],
        [
            {
                "$type": "PBIGHFCHGCA",
                "type": "CAMERA_MOVE",
                "delayTime": 0.5,
                "duration": 0.10000000149011612,
                "KCFKJMMEECM": {
                    "x": 767.46240234375,
                    "y": 206.9193878173828,
                    "z": 279.44970703125
                },
                "DLGJEHNPMFN": {
                    "x": 766.7962036132812,
                    "y": 206.7545166015625,
                    "z": 278.7223815917969
                },
                "FNMFGIOLKBE": 6,
                "NECGMADJICG": "EaseInOutCubic",
                "BMHIHPIKAHM": {},
                "JBODIEHINII": "",
                "EJCHLMIMLBO": "",
                "BIMPIKMCIHB": "",
                "MCAOJPLIJGI": ""
            },
            {
                "$type": "MoleMole.Config.ConfigSimpleBlackScreenAction",
                "type": "SIMPLE_BLACK_SCREEN",
                "durationToBlack": 0.5,
                "durationKeepBlack": 1.0,
                "durationFromBlack": 0.5,
                "textMapID": ""
            },
            {
                "$type": "MoleMole.Config.ConfigTimeProtectAction",
                "type": "TIME_PROTECT",
                "duration": 0.6000000238418579
            },
            {
                "$type": "NFDDGDIKEAG",
                "type": "STEER_TO",
                "delayTime": 0.6000000238418579,
                "aliasList": [
                    "Avatar"
                ],
                "GGJHILELIMO": "ABSOLUTE",
                "GPODKINFLFH": {
                    "x": 763.4635009765625,
                    "y": 205.3638916015625,
                    "z": 274.8944396972656
                },
                "JBODIEHINII": "",
                "NNFPFPOJJOJ": ""
            },
            {
                "$type": "KAGAFALAIGP",
                "type": "DIALOG_CLEAR",
                "aliasList": [
                    "1005"
                ],
                "JHEPJOMJJHH": 111010506
            }
        ]
    ],
    "groupId": [
        {
            "grpId": 3939214340,
            "nextGrpId": 3939214341
        },
        {
            "index": 1,
            "grpId": 3939214341,
            "nextGrpId": 3939214342
        },
        {
            "index": 2,
            "grpId": 3939214342,
            "nextGrpId": 3939214343
        },
        {
            "index": 3,
            "grpId": 3939214343,
            "nextGrpId": 3939214344
        },
        {
            "index": 4,
            "grpId": 3939214344,
            "nextGrpId": 3939214345
        },
        {
            "index": 5,
            "grpId": 3939214345,
            "nextGrpId": 3939214346
        },
        {
            "index": 6,
            "grpId": 3939214346,
            "nextGrpId": 3939214347
        }
    ],
    "freeStyleDic": {
        "10202": [
            4000
        ],
        "10217": [
            1230
        ],
        "10218": [],
        "10219": [
            1120
        ]
    }
}