[
  {
    "activityId": 5138,
    "CFLDLHDHNEL": 180,
    "energyLimit": 1000,
    "GACKBBFLLEA": 3,
    "GAGGILFDJBB": 20,
    "MIBEBJJHLEA": 2,
    "BDEMLMFPGPC": 1.2000000476837158,
    "EIMMJLLJHAN": 1.5,
    "DMPDHJPHBJB": 20053,
    "IOJGHCDENIP": 0.30000001192092896,
    "FOCJCAKAIPA": "Eff_Activity_Muqadas_PotionPoint_Core_01",
    "LJMFKPCEHLH": "Eff_Activity_Muqadas_PotionPoint_Core_02",
    "LDOECGKKMJN": "Eff_Activity_Muqadas_PotionPoint_Core_AS",
    "JMNMOCAAHBI": "Eff_Activity_Muqadas_PotionPoint_Core_Shrink",
    "IBJCEEINNGF": "Eff_Activity_Muqadas_PotionPoint_01",
    "INNCBCOLFMB": "Eff_Activity_Muqadas_PotionPoint_02",
    "GNJGHILOGAK": "Eff_Activity_Muqadas_PotionPoint_AS",
    "BEPJMKMGIGM": "Eff_Activity_Muqadas_PotionPoint_Shrink",
    "BJABFHOENDC": 2.5,
    "ELOFABLNMMJ": 0.800000011920929,
    "FBMPBFDAJNO": 0.20000000298023224,
    "HHEOOGPLLNN": 12
  }
]