[
  {
    "activityId": 5080,
    "materialId": 220052,
    "CBDCGNKMPOJ": 1,
    "KILGNFLMHLA": 401,
    "IIJFIPPIGOD": 6,
    "EIJBNNKJMDA": 4,
    "LKODLJFGMHN": 20,
    "GNJABJICJMC": 2,
    "FKIMCGKLGHH": 2,
    "LEDLJHFDKNB": 3,
    "DJLHKKCMMCH": 5,
    "watcherList": [
      1508011,
      1508012,
      1508024,
      1508034,
      1508041
    ],
    "OOJHNNJMCBG": [
      72694,
      72695,
      72696
    ],
    "reminderId": 167,
    "AMJPGGPKKDI": 5080030,
    "IAMHNOEEMDA": 7269605
  }
]