[
  {
    "chapterId": 1,
    "IKJLBENDOPH": 1,
    "OFLDBEMBJNC": 7051201,
    "JNNELOJIHDH": 7051207,
    "LIOMHPLHMIA": 3297509817,
    "KBJDEGENAHI": 4117115033
  },
  {
    "chapterId": 2,
    "IKJLBENDOPH": 7,
    "OFLDBEMBJNC": 7051301,
    "JNNELOJIHDH": 7051305,
    "LIOMHPLHMIA": 1572720481,
    "KBJDEGENAHI": 3070763217
  }
]