[
  {
    "id": 101,
    "GNLGMCDEGFN": 1170,
    "titleTextMapHash": 1436333920,
    "icon": "UI_DeshretGuideManual_MainPage_Pic_1",
    "HANNAHKDDDM": 101,
    "ODFFKAMBACB": 1
  },
  {
    "id": 102,
    "GNLGMCDEGFN": 1171,
    "titleTextMapHash": 3074246536,
    "icon": "UI_DeshretGuideManual_MainPage_Pic_2",
    "HANNAHKDDDM": 101,
    "ODFFKAMBACB": 1
  },
  {
    "id": 103,
    "GNLGMCDEGFN": 1172,
    "titleTextMapHash": 1089983224,
    "icon": "UI_DeshretGuideManual_MainPage_Pic_3",
    "HANNAHKDDDM": 101,
    "ODFFKAMBACB": 2
  },
  {
    "id": 104,
    "GNLGMCDEGFN": 1173,
    "titleTextMapHash": 3410439376,
    "icon": "UI_DeshretGuideManual_MainPage_Pic_4",
    "HANNAHKDDDM": 101,
    "ODFFKAMBACB": 3
  },
  {
    "id": 105,
    "GNLGMCDEGFN": 1174,
    "titleTextMapHash": 130804360,
    "icon": "UI_DeshretGuideManual_MainPage_Pic_5",
    "HANNAHKDDDM": 101,
    "ODFFKAMBACB": 4
  },
  {
    "id": 106,
    "GNLGMCDEGFN": 1175,
    "titleTextMapHash": 1844172704,
    "icon": "UI_DeshretGuideManual_MainPage_Pic_6",
    "HANNAHKDDDM": 101,
    "ODFFKAMBACB": 4
  },
  {
    "id": 107,
    "GNLGMCDEGFN": 12036,
    "titleTextMapHash": 3416236536,
    "icon": "UI_DeshretGuideManual_MainPage_Pic_7",
    "HANNAHKDDDM": 101,
    "ODFFKAMBACB": 5
  },
  {
    "id": 108,
    "GNLGMCDEGFN": 12037,
    "titleTextMapHash": 1696282184,
    "icon": "UI_DeshretGuideManual_MainPage_Pic_8",
    "HANNAHKDDDM": 102,
    "ODFFKAMBACB": 1
  },
  {
    "id": 109,
    "GNLGMCDEGFN": 12038,
    "titleTextMapHash": 2345497928,
    "icon": "UI_DeshretGuideManual_MainPage_Pic_9",
    "HANNAHKDDDM": 103,
    "ODFFKAMBACB": 1
  }
]