[
  {
    "id": 200900,
    "ACDOJFGDDCG": 10.0
  },
  {
    "id": 200901,
    "ACDOJFGDDCG": 10.0,
    "cityId": 1,
    "MKOFEEJIBBN": 0.20000000298023224
  },
  {
    "id": 200902,
    "ACDOJFGDDCG": 10.0,
    "cityId": 2,
    "MKOFEEJIBBN": 0.20000000298023224
  },
  {
    "id": 200903,
    "ACDOJFGDDCG": 10.0,
    "cityId": 3,
    "MKOFEEJIBBN": 0.20000000298023224
  },
  {
    "id": 200904,
    "ACDOJFGDDCG": 10.0,
    "GLJGOIJAOAH": 2.0,
    "JLIKLGAHCEE": 14.0
  },
  {
    "id": 200905,
    "ACDOJFGDDCG": 10.0,
    "cityId": 4,
    "MKOFEEJIBBN": 0.20000000298023224
  },
  {
    "id": 200906,
    "ACDOJFGDDCG": 10.0,
    "cityId": 5,
    "MKOFEEJIBBN": 0.20000000298023224
  }
]