[
  {
    "id": 1,
    "LKBKFHCDAPL": 220101,
    "GPGPIHCEEBI": 220102,
    "unlockCond": "GCG_LEVEL_UNLOCK_LEVEL",
    "FBPFEDBPMPD": 3,
    "GEJIEGKPHJD": 3164478229,
    "HCBDBKGMPCK": 2326899158208528076,
    "APGHLBGOBFE": 1714,
    "monsterId": 20050101,
    "HGNGIHODNFN": 1963642889
  },
  {
    "id": 2,
    "LKBKFHCDAPL": 230101,
    "GPGPIHCEEBI": 230102,
    "unlockCond": "GCG_LEVEL_UNLOCK_LEVEL",
    "FBPFEDBPMPD": 4,
    "GEJIEGKPHJD": 3179088397,
    "HCBDBKGMPCK": 12208364490445487815,
    "APGHLBGOBFE": 1716,
    "monsterId": 23020101,
    "HGNGIHODNFN": 1254821113
  },
  {
    "id": 3,
    "LKBKFHCDAPL": 210101,
    "GPGPIHCEEBI": 210102,
    "unlockCond": "GCG_LEVEL_UNLOCK_LEVEL",
    "FBPFEDBPMPD": 4,
    "GEJIEGKPHJD": 2087046701,
    "HCBDBKGMPCK": 3351883126366851297,
    "APGHLBGOBFE": 1717,
    "monsterId": 23040101,
    "HGNGIHODNFN": 3581442401
  },
  {
    "id": 4,
    "LKBKFHCDAPL": 220201,
    "GPGPIHCEEBI": 220202,
    "unlockCond": "GCG_LEVEL_UNLOCK_LEVEL",
    "FBPFEDBPMPD": 5,
    "GEJIEGKPHJD": 3679383245,
    "HCBDBKGMPCK": 10880940735865242927,
    "APGHLBGOBFE": 1717,
    "monsterId": 23050101,
    "HGNGIHODNFN": 480604873
  },
  {
    "id": 5,
    "LKBKFHCDAPL": 260101,
    "GPGPIHCEEBI": 260102,
    "unlockCond": "GCG_LEVEL_UNLOCK_LEVEL",
    "FBPFEDBPMPD": 6,
    "GEJIEGKPHJD": 2571288101,
    "HCBDBKGMPCK": 13720127969880027763,
    "APGHLBGOBFE": 1717,
    "monsterId": 21020501,
    "HGNGIHODNFN": 1950946665
  },
  {
    "id": 6,
    "LKBKFHCDAPL": 230201,
    "GPGPIHCEEBI": 230202,
    "unlockCond": "GCG_LEVEL_UNLOCK_LEVEL",
    "FBPFEDBPMPD": 6,
    "GEJIEGKPHJD": 2780089453,
    "HCBDBKGMPCK": 6473418566013614096,
    "APGHLBGOBFE": 1718,
    "monsterId": 22030201,
    "HGNGIHODNFN": 429165529
  },
  {
    "id": 7,
    "LKBKFHCDAPL": 250101,
    "GPGPIHCEEBI": 250102,
    "unlockCond": "GCG_LEVEL_UNLOCK_LEVEL",
    "FBPFEDBPMPD": 7,
    "GEJIEGKPHJD": 1418570669,
    "HCBDBKGMPCK": 11413815252643069936,
    "APGHLBGOBFE": 1715,
    "monsterId": 25090101,
    "HGNGIHODNFN": 2123190849
  },
  {
    "id": 8,
    "LKBKFHCDAPL": 270101,
    "GPGPIHCEEBI": 270102,
    "unlockCond": "GCG_LEVEL_UNLOCK_LEVEL",
    "FBPFEDBPMPD": 8,
    "GEJIEGKPHJD": 1044317269,
    "HCBDBKGMPCK": 6649256790582179210,
    "APGHLBGOBFE": 1718,
    "monsterId": 26110101,
    "HGNGIHODNFN": 3021654641
  },
  {
    "id": 9,
    "LKBKFHCDAPL": 240101,
    "GPGPIHCEEBI": 240102,
    "unlockCond": "GCG_LEVEL_UNLOCK_LEVEL",
    "FBPFEDBPMPD": 8,
    "GEJIEGKPHJD": 685599317,
    "HCBDBKGMPCK": 11388145833825587908,
    "APGHLBGOBFE": 1716,
    "monsterId": 20040101,
    "HGNGIHODNFN": 3302552937
  }
]