[
  {
    "BOPKDIGAHPA": 130001,
    "PBDOHJPDOMP": [
      2023
    ],
    "MJHBLGBPCFI": 7001,
    "DEPNPLMCIJM": 150001,
    "dropID": 21310001,
    "KHGAKMKNPBJ": [
      {
        "MJHBLGBPCFI": 7001,
        "DEPNPLMCIJM": 150001,
        "dropID": 21310001,
        "weight": 20
      },
      {},
      {}
    ],
    "JANEICBIKHJ": 372502,
    "time": 252000,
    "BPEPDBKMEHI": 86400,
    "CJBLOCKDFLK": 1,
    "LFMJOEPDBFK": 77215019,
    "order": 4,
    "inteeIconName": "",
    "MLBDHMAOMPD": 3819056217
  },
  {
    "BOPKDIGAHPA": 130002,
    "PBDOHJPDOMP": [
      2004,
      2058
    ],
    "MJHBLGBPCFI": 7002,
    "dropID": 21310002,
    "KHGAKMKNPBJ": [
      {
        "MJHBLGBPCFI": 7002,
        "dropID": 21310002,
        "weight": 20
      },
      {},
      {}
    ],
    "JANEICBIKHJ": 372501,
    "time": 252000,
    "BPEPDBKMEHI": 86400,
    "CJBLOCKDFLK": 1,
    "LFMJOEPDBFK": 77215019,
    "order": 5,
    "inteeIconName": "",
    "MLBDHMAOMPD": 145620177
  },
  {
    "BOPKDIGAHPA": 130003,
    "PBDOHJPDOMP": [
      2012
    ],
    "MJHBLGBPCFI": 7003,
    "dropID": 21310003,
    "KHGAKMKNPBJ": [
      {
        "MJHBLGBPCFI": 7003,
        "dropID": 21310003,
        "weight": 20
      },
      {},
      {}
    ],
    "JANEICBIKHJ": 372502,
    "time": 252000,
    "BPEPDBKMEHI": 86400,
    "CJBLOCKDFLK": 1,
    "LFMJOEPDBFK": 77215019,
    "order": 6,
    "inteeIconName": "",
    "MLBDHMAOMPD": 2352998081
  },
  {
    "BOPKDIGAHPA": 130004,
    "PBDOHJPDOMP": [
      2025
    ],
    "MJHBLGBPCFI": 7004,
    "dropID": 21310004,
    "KHGAKMKNPBJ": [
      {
        "MJHBLGBPCFI": 7004,
        "dropID": 21310004,
        "weight": 20
      },
      {},
      {}
    ],
    "JANEICBIKHJ": 372502,
    "time": 252000,
    "BPEPDBKMEHI": 86400,
    "CJBLOCKDFLK": 1,
    "LFMJOEPDBFK": 77215019,
    "order": 7,
    "inteeIconName": "",
    "MLBDHMAOMPD": 3836309809
  },
  {
    "BOPKDIGAHPA": 130005,
    "PBDOHJPDOMP": [
      2013
    ],
    "MJHBLGBPCFI": 7005,
    "dropID": 21310005,
    "KHGAKMKNPBJ": [
      {
        "MJHBLGBPCFI": 7005,
        "dropID": 21310005,
        "weight": 20
      },
      {},
      {}
    ],
    "JANEICBIKHJ": 372502,
    "time": 252000,
    "BPEPDBKMEHI": 86400,
    "CJBLOCKDFLK": 1,
    "LFMJOEPDBFK": 77215019,
    "order": 8,
    "inteeIconName": "",
    "MLBDHMAOMPD": 2660448913
  },
  {
    "BOPKDIGAHPA": 130006,
    "PBDOHJPDOMP": [
      2028
    ],
    "MJHBLGBPCFI": 7006,
    "dropID": 21310006,
    "KHGAKMKNPBJ": [
      {
        "MJHBLGBPCFI": 7006,
        "dropID": 21310006,
        "weight": 20
      },
      {},
      {}
    ],
    "JANEICBIKHJ": 372502,
    "time": 252000,
    "BPEPDBKMEHI": 86400,
    "CJBLOCKDFLK": 1,
    "LFMJOEPDBFK": 77215019,
    "order": 9,
    "inteeIconName": "",
    "MLBDHMAOMPD": 3308556009
  },
  {
    "BOPKDIGAHPA": 130007,
    "PBDOHJPDOMP": [
      2026
    ],
    "MJHBLGBPCFI": 7007,
    "dropID": 21310007,
    "KHGAKMKNPBJ": [
      {
        "MJHBLGBPCFI": 7007,
        "dropID": 21310007,
        "weight": 20
      },
      {},
      {}
    ],
    "JANEICBIKHJ": 372502,
    "time": 252000,
    "BPEPDBKMEHI": 86400,
    "CJBLOCKDFLK": 1,
    "LFMJOEPDBFK": 77215019,
    "order": 10,
    "inteeIconName": "",
    "MLBDHMAOMPD": 3645546745
  },
  {
    "BOPKDIGAHPA": 130008,
    "PBDOHJPDOMP": [
      2011
    ],
    "MJHBLGBPCFI": 7008,
    "DEPNPLMCIJM": 150002,
    "dropID": 21310008,
    "KHGAKMKNPBJ": [
      {
        "MJHBLGBPCFI": 7008,
        "DEPNPLMCIJM": 150002,
        "dropID": 21310008,
        "weight": 20
      },
      {},
      {}
    ],
    "JANEICBIKHJ": 372501,
    "time": 252000,
    "BPEPDBKMEHI": 86400,
    "CJBLOCKDFLK": 1,
    "LFMJOEPDBFK": 77215019,
    "order": 11,
    "inteeIconName": "",
    "MLBDHMAOMPD": 3091827241
  },
  {
    "BOPKDIGAHPA": 130009,
    "PBDOHJPDOMP": [
      3007
    ],
    "MJHBLGBPCFI": 7009,
    "dropID": 21310009,
    "KHGAKMKNPBJ": [
      {
        "MJHBLGBPCFI": 7009,
        "dropID": 21310009,
        "weight": 20
      },
      {},
      {}
    ],
    "JANEICBIKHJ": 372501,
    "time": 252000,
    "BPEPDBKMEHI": 86400,
    "CJBLOCKDFLK": 1,
    "LFMJOEPDBFK": 77215019,
    "order": 12,
    "inteeIconName": "",
    "MLBDHMAOMPD": 83651985
  },
  {
    "BOPKDIGAHPA": 130010,
    "PBDOHJPDOMP": [
      2016
    ],
    "MJHBLGBPCFI": 7010,
    "DEPNPLMCIJM": 150003,
    "dropID": 21310010,
    "KHGAKMKNPBJ": [
      {
        "MJHBLGBPCFI": 7010,
        "DEPNPLMCIJM": 150003,
        "dropID": 21310010,
        "weight": 20
      },
      {},
      {}
    ],
    "JANEICBIKHJ": 372501,
    "time": 252000,
    "BPEPDBKMEHI": 86400,
    "CJBLOCKDFLK": 1,
    "LFMJOEPDBFK": 77215019,
    "order": 13,
    "inteeIconName": "",
    "MLBDHMAOMPD": 324638073
  },
  {
    "BOPKDIGAHPA": 130011,
    "PBDOHJPDOMP": [
      2003
    ],
    "MJHBLGBPCFI": 7011,
    "dropID": 21310011,
    "KHGAKMKNPBJ": [
      {
        "MJHBLGBPCFI": 7011,
        "dropID": 21310011,
        "weight": 20
      },
      {},
      {}
    ],
    "JANEICBIKHJ": 372501,
    "time": 252000,
    "BPEPDBKMEHI": 86400,
    "CJBLOCKDFLK": 1,
    "LFMJOEPDBFK": 77215019,
    "order": 14,
    "inteeIconName": "",
    "MLBDHMAOMPD": 2174243937
  },
  {
    "BOPKDIGAHPA": 130012,
    "PBDOHJPDOMP": [
      2019
    ],
    "MJHBLGBPCFI": 7012,
    "dropID": 21310012,
    "KHGAKMKNPBJ": [
      {
        "MJHBLGBPCFI": 7012,
        "dropID": 21310012,
        "weight": 20
      },
      {},
      {}
    ],
    "JANEICBIKHJ": 372501,
    "time": 252000,
    "BPEPDBKMEHI": 86400,
    "CJBLOCKDFLK": 1,
    "LFMJOEPDBFK": 77215019,
    "order": 15,
    "inteeIconName": "",
    "MLBDHMAOMPD": 4007378729
  },
  {
    "BOPKDIGAHPA": 130013,
    "PBDOHJPDOMP": [
      2001,
      2031
    ],
    "MJHBLGBPCFI": 7013,
    "dropID": 21310013,
    "KHGAKMKNPBJ": [
      {
        "MJHBLGBPCFI": 7013,
        "dropID": 21310013,
        "weight": 20
      },
      {},
      {}
    ],
    "JANEICBIKHJ": 372501,
    "time": 252000,
    "BPEPDBKMEHI": 86400,
    "CJBLOCKDFLK": 1,
    "LFMJOEPDBFK": 77215019,
    "order": 16,
    "inteeIconName": "",
    "MLBDHMAOMPD": 1067338361
  },
  {
    "BOPKDIGAHPA": 130014,
    "PBDOHJPDOMP": [
      2002
    ],
    "MJHBLGBPCFI": 7014,
    "dropID": 21310014,
    "KHGAKMKNPBJ": [
      {
        "MJHBLGBPCFI": 7014,
        "dropID": 21310014,
        "weight": 20
      },
      {},
      {}
    ],
    "JANEICBIKHJ": 372501,
    "time": 252000,
    "BPEPDBKMEHI": 86400,
    "CJBLOCKDFLK": 1,
    "LFMJOEPDBFK": 77215021,
    "order": 17,
    "inteeIconName": "",
    "MLBDHMAOMPD": 2337628849
  },
  {
    "BOPKDIGAHPA": 130015,
    "PBDOHJPDOMP": [
      2040
    ],
    "MJHBLGBPCFI": 7015,
    "dropID": 21310015,
    "KHGAKMKNPBJ": [
      {
        "MJHBLGBPCFI": 7015,
        "dropID": 21310015,
        "weight": 20
      },
      {},
      {}
    ],
    "JANEICBIKHJ": 372502,
    "time": 252000,
    "BPEPDBKMEHI": 86400,
    "CJBLOCKDFLK": 1,
    "LFMJOEPDBFK": 77215019,
    "order": 18,
    "inteeIconName": "",
    "MLBDHMAOMPD": 193002889
  },
  {
    "BOPKDIGAHPA": 130016,
    "PBDOHJPDOMP": [
      2027
    ],
    "MJHBLGBPCFI": 7016,
    "dropID": 21310016,
    "KHGAKMKNPBJ": [
      {
        "MJHBLGBPCFI": 7016,
        "dropID": 21310016,
        "weight": 20
      },
      {},
      {}
    ],
    "JANEICBIKHJ": 372503,
    "time": 252000,
    "BPEPDBKMEHI": 86400,
    "CJBLOCKDFLK": 1,
    "LFMJOEPDBFK": 77215019,
    "order": 19,
    "inteeIconName": "",
    "MLBDHMAOMPD": 277956897
  },
  {
    "BOPKDIGAHPA": 130017,
    "PBDOHJPDOMP": [
      2005
    ],
    "MJHBLGBPCFI": 7017,
    "dropID": 21310017,
    "KHGAKMKNPBJ": [
      {
        "MJHBLGBPCFI": 7017,
        "dropID": 21310017,
        "weight": 20
      },
      {},
      {}
    ],
    "JANEICBIKHJ": 372503,
    "time": 252000,
    "BPEPDBKMEHI": 86400,
    "CJBLOCKDFLK": 1,
    "LFMJOEPDBFK": 77215019,
    "order": 20,
    "inteeIconName": "",
    "MLBDHMAOMPD": 311261001
  },
  {
    "BOPKDIGAHPA": 130018,
    "PBDOHJPDOMP": [
      2015
    ],
    "MJHBLGBPCFI": 7018,
    "DEPNPLMCIJM": 150004,
    "dropID": 21310018,
    "KHGAKMKNPBJ": [
      {
        "MJHBLGBPCFI": 7018,
        "DEPNPLMCIJM": 150004,
        "dropID": 21310018,
        "weight": 20
      },
      {},
      {}
    ],
    "JANEICBIKHJ": 372503,
    "time": 252000,
    "BPEPDBKMEHI": 86400,
    "CJBLOCKDFLK": 1,
    "LFMJOEPDBFK": 77215020,
    "order": 21,
    "inteeIconName": "",
    "MLBDHMAOMPD": 4226751305
  },
  {
    "BOPKDIGAHPA": 130019,
    "PBDOHJPDOMP": [
      2008
    ],
    "MJHBLGBPCFI": 7019,
    "dropID": 21310019,
    "KHGAKMKNPBJ": [
      {
        "MJHBLGBPCFI": 7019,
        "dropID": 21310019,
        "weight": 20
      },
      {},
      {}
    ],
    "JANEICBIKHJ": 372503,
    "time": 252000,
    "BPEPDBKMEHI": 86400,
    "CJBLOCKDFLK": 1,
    "LFMJOEPDBFK": 77215019,
    "order": 22,
    "inteeIconName": "",
    "MLBDHMAOMPD": 3729127177
  },
  {
    "BOPKDIGAHPA": 130020,
    "PBDOHJPDOMP": [
      2037
    ],
    "MJHBLGBPCFI": 7020,
    "dropID": 21310020,
    "KHGAKMKNPBJ": [
      {
        "MJHBLGBPCFI": 7020,
        "dropID": 21310020,
        "weight": 20
      },
      {},
      {}
    ],
    "JANEICBIKHJ": 372503,
    "time": 252000,
    "BPEPDBKMEHI": 86400,
    "CJBLOCKDFLK": 1,
    "LFMJOEPDBFK": 77215020,
    "order": 23,
    "inteeIconName": "",
    "MLBDHMAOMPD": 2809974577
  },
  {
    "BOPKDIGAHPA": 130021,
    "PBDOHJPDOMP": [
      2033
    ],
    "MJHBLGBPCFI": 7021,
    "dropID": 21310021,
    "KHGAKMKNPBJ": [
      {
        "MJHBLGBPCFI": 7021,
        "dropID": 21310021,
        "weight": 20
      },
      {},
      {}
    ],
    "JANEICBIKHJ": 372503,
    "time": 252000,
    "BPEPDBKMEHI": 86400,
    "CJBLOCKDFLK": 1,
    "LFMJOEPDBFK": 77215020,
    "order": 24,
    "inteeIconName": "",
    "MLBDHMAOMPD": 2555034065
  },
  {
    "BOPKDIGAHPA": 130022,
    "PBDOHJPDOMP": [],
    "KHGAKMKNPBJ": [
      {
        "MJHBLGBPCFI": 7022,
        "dropID": 21311001,
        "weight": 20
      },
      {
        "MJHBLGBPCFI": 7023,
        "dropID": 21311002,
        "weight": 20
      },
      {
        "MJHBLGBPCFI": 7024,
        "dropID": 21311003,
        "weight": 20
      }
    ],
    "JANEICBIKHJ": 372502,
    "time": 600,
    "BPEPDBKMEHI": 180,
    "CJBLOCKDFLK": 1,
    "LFMJOEPDBFK": 77215019,
    "order": 1,
    "inteeIconName": "UI_Icon_Item_GrowFlowers",
    "MLBDHMAOMPD": 4171926201
  },
  {
    "BOPKDIGAHPA": 130023,
    "PBDOHJPDOMP": [],
    "KHGAKMKNPBJ": [
      {
        "MJHBLGBPCFI": 7025,
        "dropID": 21311004,
        "weight": 20
      },
      {
        "MJHBLGBPCFI": 7026,
        "dropID": 21311005,
        "weight": 20
      },
      {
        "MJHBLGBPCFI": 7027,
        "dropID": 21311006,
        "weight": 20
      }
    ],
    "JANEICBIKHJ": 372502,
    "time": 600,
    "BPEPDBKMEHI": 180,
    "CJBLOCKDFLK": 1,
    "LFMJOEPDBFK": 77215019,
    "order": 2,
    "inteeIconName": "UI_Icon_Item_GrowFlowers",
    "MLBDHMAOMPD": 83368881
  },
  {
    "BOPKDIGAHPA": 130024,
    "PBDOHJPDOMP": [],
    "KHGAKMKNPBJ": [
      {
        "MJHBLGBPCFI": 7028,
        "dropID": 21311007,
        "weight": 20
      },
      {
        "MJHBLGBPCFI": 7029,
        "dropID": 21311008,
        "weight": 20
      },
      {
        "MJHBLGBPCFI": 7030,
        "dropID": 21311009,
        "weight": 20
      }
    ],
    "JANEICBIKHJ": 372502,
    "time": 600,
    "BPEPDBKMEHI": 180,
    "CJBLOCKDFLK": 1,
    "LFMJOEPDBFK": 77215019,
    "order": 3,
    "inteeIconName": "UI_Icon_Item_GrowFlowers",
    "MLBDHMAOMPD": 1943744977
  },
  {
    "BOPKDIGAHPA": 130025,
    "PBDOHJPDOMP": [
      2049
    ],
    "MJHBLGBPCFI": 7031,
    "DEPNPLMCIJM": 150005,
    "dropID": 21310022,
    "KHGAKMKNPBJ": [
      {
        "MJHBLGBPCFI": 7031,
        "DEPNPLMCIJM": 150005,
        "dropID": 21310022,
        "weight": 20
      },
      {},
      {}
    ],
    "JANEICBIKHJ": 372501,
    "time": 252000,
    "BPEPDBKMEHI": 86400,
    "CJBLOCKDFLK": 1,
    "LFMJOEPDBFK": 77215019,
    "order": 25,
    "inteeIconName": "",
    "MLBDHMAOMPD": 1519074393
  },
  {
    "BOPKDIGAHPA": 130026,
    "PBDOHJPDOMP": [
      2051
    ],
    "MJHBLGBPCFI": 7032,
    "DEPNPLMCIJM": 150006,
    "dropID": 21310023,
    "KHGAKMKNPBJ": [
      {
        "MJHBLGBPCFI": 7032,
        "DEPNPLMCIJM": 150006,
        "dropID": 21310023,
        "weight": 20
      },
      {},
      {}
    ],
    "JANEICBIKHJ": 372501,
    "time": 252000,
    "BPEPDBKMEHI": 86400,
    "CJBLOCKDFLK": 1,
    "LFMJOEPDBFK": 77215019,
    "order": 26,
    "inteeIconName": "",
    "MLBDHMAOMPD": 618226481
  },
  {
    "BOPKDIGAHPA": 130027,
    "PBDOHJPDOMP": [
      2052
    ],
    "MJHBLGBPCFI": 7033,
    "dropID": 21310024,
    "KHGAKMKNPBJ": [
      {
        "MJHBLGBPCFI": 7033,
        "dropID": 21310024,
        "weight": 20
      },
      {},
      {}
    ],
    "JANEICBIKHJ": 372502,
    "time": 252000,
    "BPEPDBKMEHI": 86400,
    "CJBLOCKDFLK": 1,
    "LFMJOEPDBFK": 77215019,
    "order": 27,
    "inteeIconName": "",
    "MLBDHMAOMPD": 1830240089
  },
  {
    "BOPKDIGAHPA": 130028,
    "PBDOHJPDOMP": [
      2059
    ],
    "KHGAKMKNPBJ": [
      {
        "MJHBLGBPCFI": 7034,
        "dropID": 21310025,
        "weight": 20
      },
      {},
      {}
    ],
    "JANEICBIKHJ": 372503,
    "time": 252000,
    "BPEPDBKMEHI": 86400,
    "CJBLOCKDFLK": 1,
    "LFMJOEPDBFK": 77215020,
    "order": 28,
    "inteeIconName": "",
    "MLBDHMAOMPD": 2338313065
  },
  {
    "BOPKDIGAHPA": 130029,
    "PBDOHJPDOMP": [
      2061
    ],
    "KHGAKMKNPBJ": [
      {
        "MJHBLGBPCFI": 7035,
        "dropID": 21310026,
        "weight": 20
      },
      {},
      {}
    ],
    "JANEICBIKHJ": 372501,
    "time": 252000,
    "BPEPDBKMEHI": 86400,
    "CJBLOCKDFLK": 1,
    "LFMJOEPDBFK": 77215019,
    "order": 29,
    "inteeIconName": "",
    "MLBDHMAOMPD": 3777363417
  },
  {
    "BOPKDIGAHPA": 130030,
    "PBDOHJPDOMP": [
      2065
    ],
    "DEPNPLMCIJM": 150007,
    "KHGAKMKNPBJ": [
      {
        "MJHBLGBPCFI": 7036,
        "DEPNPLMCIJM": 150007,
        "dropID": 21310027,
        "weight": 20
      },
      {},
      {}
    ],
    "JANEICBIKHJ": 372502,
    "time": 252000,
    "BPEPDBKMEHI": 86400,
    "CJBLOCKDFLK": 1,
    "LFMJOEPDBFK": 77215019,
    "order": 30,
    "inteeIconName": "",
    "MLBDHMAOMPD": 2690727945
  },
  {
    "BOPKDIGAHPA": 130031,
    "PBDOHJPDOMP": [
      2066
    ],
    "KHGAKMKNPBJ": [
      {
        "MJHBLGBPCFI": 7037,
        "dropID": 21310028,
        "weight": 20
      },
      {},
      {}
    ],
    "JANEICBIKHJ": 372502,
    "time": 252000,
    "BPEPDBKMEHI": 86400,
    "CJBLOCKDFLK": 1,
    "LFMJOEPDBFK": 77215019,
    "order": 31,
    "inteeIconName": "",
    "MLBDHMAOMPD": 2614861905
  }
]