[
  {
    "id": 1,
    "playType": "SALVAGE_PLAY_TYPE_CARRIAGE",
    "CFELAPCHMEK": 20104301,
    "galleryId": 14003,
    "OPHKJPEFBCA": [
      133108202,
      202115
    ],
    "PKECLIIMGBD": [
      133108202,
      202114
    ],
    "HHDDDCCNGJJ": 45001001,
    "HGIBPAONAMP": [
      12010401,
      12010402,
      12010403
    ]
  },
  {
    "id": 2,
    "playType": "SALVAGE_PLAY_TYPE_CARRIAGE",
    "CFELAPCHMEK": 20104302,
    "galleryId": 14004,
    "OPHKJPEFBCA": [
      133108203,
      203073
    ],
    "PKECLIIMGBD": [
      133108203,
      203072
    ],
    "HHDDDCCNGJJ": 45001001,
    "HGIBPAONAMP": [
      12010404,
      12010405,
      12010406
    ]
  },
  {
    "id": 3,
    "playType": "SALVAGE_PLAY_TYPE_ESCORT",
    "CFELAPCHMEK": 20104401,
    "galleryId": 14005,
    "OPHKJPEFBCA": [
      133108201,
      201027
    ],
    "PKECLIIMGBD": [
      133108201,
      201025
    ],
    "HHDDDCCNGJJ": 45001001,
    "HGIBPAONAMP": [
      12010407,
      12010408,
      12010409
    ]
  },
  {
    "id": 4,
    "playType": "SALVAGE_PLAY_TYPE_ESCORT",
    "CFELAPCHMEK": 20104402,
    "galleryId": 14006,
    "OPHKJPEFBCA": [
      133108253,
      253166
    ],
    "PKECLIIMGBD": [
      133108253,
      253165
    ],
    "HHDDDCCNGJJ": 45001001,
    "HGIBPAONAMP": [
      12010410,
      12010411,
      12010412
    ]
  },
  {
    "id": 5,
    "playType": "SALVAGE_PLAY_TYPE_BOSS",
    "CFELAPCHMEK": 20104501,
    "OPHKJPEFBCA": [],
    "PKECLIIMGBD": [],
    "HGIBPAONAMP": [
      12010413,
      12010414,
      12010415
    ]
  }
]