[
  {
    "KBBGHPHALOB": 1,
    "type": "SORUSH_TRIAL_STAGE_DETAIL_TYPE_QUEST",
    "refId": 1,
    "tutorialId": 13060
  },
  {
    "KBBGHPHALOB": 2,
    "IACCKLPFGAG": 1,
    "type": "SORUSH_TRIAL_STAGE_DETAIL_TYPE_HITMAN",
    "refId": 1,
    "tutorialId": 13061
  },
  {
    "KBBGHPHALOB": 3,
    "IACCKLPFGAG": 2,
    "type": "SORUSH_TRIAL_STAGE_DETAIL_TYPE_PHOTOMATCH",
    "refId": 1,
    "tutorialId": 13063
  },
  {
    "KBBGHPHALOB": 4,
    "IACCKLPFGAG": 3,
    "type": "SORUSH_TRIAL_STAGE_DETAIL_TYPE_QUEST",
    "refId": 2,
    "tutorialId": 13060
  },
  {
    "KBBGHPHALOB": 5,
    "IACCKLPFGAG": 4,
    "type": "SORUSH_TRIAL_STAGE_DETAIL_TYPE_QUEST",
    "refId": 3,
    "tutorialId": 13060
  },
  {
    "KBBGHPHALOB": 6,
    "IACCKLPFGAG": 5,
    "type": "SORUSH_TRIAL_STAGE_DETAIL_TYPE_RACE",
    "refId": 1,
    "tutorialId": 13062
  },
  {
    "KBBGHPHALOB": 7,
    "IACCKLPFGAG": 6,
    "type": "SORUSH_TRIAL_STAGE_DETAIL_TYPE_PHOTOMATCH",
    "refId": 2,
    "tutorialId": 13063
  },
  {
    "KBBGHPHALOB": 8,
    "IACCKLPFGAG": 7,
    "type": "SORUSH_TRIAL_STAGE_DETAIL_TYPE_QUEST",
    "refId": 4,
    "tutorialId": 13060
  },
  {
    "KBBGHPHALOB": 9,
    "IACCKLPFGAG": 8,
    "type": "SORUSH_TRIAL_STAGE_DETAIL_TYPE_QUEST",
    "refId": 5,
    "tutorialId": 13060
  },
  {
    "KBBGHPHALOB": 10,
    "IACCKLPFGAG": 9,
    "type": "SORUSH_TRIAL_STAGE_DETAIL_TYPE_HITMAN",
    "refId": 2,
    "tutorialId": 13061
  },
  {
    "KBBGHPHALOB": 11,
    "IACCKLPFGAG": 10,
    "type": "SORUSH_TRIAL_STAGE_DETAIL_TYPE_PHOTOMATCH",
    "refId": 3,
    "tutorialId": 13063
  },
  {
    "KBBGHPHALOB": 12,
    "IACCKLPFGAG": 11,
    "type": "SORUSH_TRIAL_STAGE_DETAIL_TYPE_QUEST",
    "refId": 6,
    "tutorialId": 13060
  },
  {
    "KBBGHPHALOB": 13,
    "IACCKLPFGAG": 12,
    "type": "SORUSH_TRIAL_STAGE_DETAIL_TYPE_QUEST",
    "refId": 7,
    "tutorialId": 13060
  },
  {
    "KBBGHPHALOB": 14,
    "IACCKLPFGAG": 13,
    "type": "SORUSH_TRIAL_STAGE_DETAIL_TYPE_RACE",
    "refId": 2,
    "tutorialId": 13062
  },
  {
    "KBBGHPHALOB": 15,
    "IACCKLPFGAG": 14,
    "type": "SORUSH_TRIAL_STAGE_DETAIL_TYPE_PHOTOMATCH",
    "refId": 4,
    "tutorialId": 13063
  },
  {
    "KBBGHPHALOB": 16,
    "IACCKLPFGAG": 15,
    "type": "SORUSH_TRIAL_STAGE_DETAIL_TYPE_QUEST",
    "refId": 8,
    "tutorialId": 13060
  },
  {
    "KBBGHPHALOB": 17,
    "IACCKLPFGAG": 16,
    "type": "SORUSH_TRIAL_STAGE_DETAIL_TYPE_QUEST",
    "refId": 9,
    "tutorialId": 13060
  },
  {
    "KBBGHPHALOB": 18,
    "IACCKLPFGAG": 17,
    "type": "SORUSH_TRIAL_STAGE_DETAIL_TYPE_HITMAN",
    "refId": 3,
    "tutorialId": 13061
  },
  {
    "KBBGHPHALOB": 19,
    "IACCKLPFGAG": 18,
    "type": "SORUSH_TRIAL_STAGE_DETAIL_TYPE_PHOTOMATCH",
    "refId": 5,
    "tutorialId": 13063
  },
  {
    "KBBGHPHALOB": 20,
    "IACCKLPFGAG": 19,
    "type": "SORUSH_TRIAL_STAGE_DETAIL_TYPE_QUEST",
    "refId": 10,
    "tutorialId": 13060
  },
  {
    "KBBGHPHALOB": 21,
    "IACCKLPFGAG": 20,
    "type": "SORUSH_TRIAL_STAGE_DETAIL_TYPE_QUEST",
    "refId": 11,
    "tutorialId": 13060
  },
  {
    "KBBGHPHALOB": 22,
    "IACCKLPFGAG": 21,
    "type": "SORUSH_TRIAL_STAGE_DETAIL_TYPE_RACE",
    "refId": 3,
    "tutorialId": 13062
  },
  {
    "KBBGHPHALOB": 23,
    "IACCKLPFGAG": 22,
    "type": "SORUSH_TRIAL_STAGE_DETAIL_TYPE_PHOTOMATCH",
    "refId": 6,
    "tutorialId": 13063
  },
  {
    "KBBGHPHALOB": 24,
    "IACCKLPFGAG": 23,
    "type": "SORUSH_TRIAL_STAGE_DETAIL_TYPE_QUEST",
    "refId": 12,
    "tutorialId": 13060
  }
]