{
    "luaDataPath": "",
    "entityBan": "",
    "group": [
        [
            {
                "$type": "MoleMole.Config.ConfigUITriggerInterAction",
                "type": "UI_TRIGGER",
                "contextName": "VanasaraPageFirstTime",
                "param": ""
            }
        ],
        [
            {
                "$type": "MoleMole.Config.ConfigUITriggerInterAction",
                "type": "UI_TRIGGER",
                "contextName": "VanasaraPage",
                "param": ""
            },
            {
                "$type": "PBIGHFCHGCA",
                "type": "CAMERA_MOVE",
                "duration": 1.0,
                "KCFKJMMEECM": {
                    "x": -66.61100006103516,
                    "y": 225.6540069580078,
                    "z": 3293.882080078125
                },
                "KKKKBCJCANJ": 5.0,
                "DLGJEHNPMFN": {
                    "x": -67.65384674072266,
                    "y": 227.95919799804688,
                    "z": 3287.819091796875
                },
                "NJCBGNHGINI": 55.0,
                "COBIBPMPAPO": 5.0,
                "JBODIEHINII": "",
                "EJCHLMIMLBO": "",
                "BIMPIKMCIHB": "",
                "MCAOJPLIJGI": ""
            }
        ],
        [
            {
                "$type": "PBIGHFCHGCA",
                "type": "CAMERA_MOVE",
                "duration": 1.0,
                "CGCNCKNJOFB": "EXIT",
                "JOBAHIHHJIB": "TO_INTEE",
                "COBIBPMPAPO": 5.0,
                "JBODIEHINII": "",
                "EJCHLMIMLBO": "",
                "BIMPIKMCIHB": "",
                "MCAOJPLIJGI": ""
            }
        ]
    ]
}