{
    "luaDataPath": "",
    "entityBan": "",
    "group": [
        [
            {
                "$type": "MoleMole.Config.ConfigUITriggerInterAction",
                "type": "UI_TRIGGER",
                "contextName": "GcgSpecialMatchEntryPage",
                "param": ""
            },
            {
                "$type": "PBIGHFCHGCA",
                "type": "CAMERA_MOVE",
                "duration": 1.0,
                "KCFKJMMEECM": {
                    "x": 0.7639999985694885,
                    "y": 2.5409998893737793,
                    "z": 8.758000373840332
                },
                "DLGJEHNPMFN": {
                    "x": -0.5820000171661377,
                    "y": 2.5409998893737793,
                    "z": 8.758000373840332
                },
                "NJCBGNHGINI": 30.0,
                "COBIBPMPAPO": 1.0,
                "FNMFGIOLKBE": 2,
                "NECGMADJICG": "EaseInOutCubic",
                "BMHIHPIKAHM": {},
                "DNFHBDHNHKE": 4.0,
                "JBODIEHINII": "",
                "EJCHLMIMLBO": "",
                "BIMPIKMCIHB": "",
                "MCAOJPLIJGI": ""
            }
        ],
        [
            {
                "$type": "PBIGHFCHGCA",
                "type": "CAMERA_MOVE",
                "duration": 1.0,
                "CGCNCKNJOFB": "EXIT",
                "JOBAHIHHJIB": "TO_INTEE",
                "COBIBPMPAPO": 5.0,
                "JBODIEHINII": "",
                "EJCHLMIMLBO": "",
                "BIMPIKMCIHB": "",
                "MCAOJPLIJGI": ""
            }
        ]
    ]
}