{
    "luaDataPath": "",
    "entityBan": "",
    "group": [
        [
            {
                "$type": "KAGAFALAIGP",
                "type": "DIALOG_CLEAR"
            }
        ],
        [
            {
                "$type": "MoleMole.Config.ConfigUITriggerInterAction",
                "type": "UI_TRIGGER",
                "contextName": "ReputationPage",
                "param": ""
            }
        ],
        [
            {
                "$type": "PBIGHFCHGCA",
                "type": "CAMERA_MOVE",
                "duration": 1.0,
                "CGCNCKNJOFB": "EXIT",
                "JOBAHIHHJIB": "TO_INTEE",
                "COBIBPMPAPO": 5.0,
                "JBODIEHINII": "",
                "EJCHLMIMLBO": "",
                "BIMPIKMCIHB": "",
                "MCAOJPLIJGI": ""
            }
        ]
    ]
}