{
    "luaDataPath": "",
    "isSimpleTalk": true,
    "entityBan": "",
    "startFade": {
        "startFadeOutDuration": 0.0
    },
    "endFade": {
        "startFadeOutDuration": 0.0
    },
    "actors": [
        {
            "alias": "Avatar",
            "visible": true,
            "bornPointName": "",
            "relativePosNpcAlias": "",
            "bindMovingTargetKey": ""
        },
        {
            "configID": 30012,
            "alias": "30012",
            "visible": true,
            "bornPointName": "",
            "relativePosNpcAlias": "",
            "bindMovingTargetKey": ""
        }
    ],
    "group": [
        [
            {
                "$type": "PBIGHFCHGCA",
                "type": "CAMERA_FOCUS",
                "JBODIEHINII": "",
                "EJCHLMIMLBO": "",
                "BIMPIKMCIHB": "",
                "MCAOJPLIJGI": ""
            },
            {
                "$type": "MoleMole.Config.ConfigTimeProtectAction",
                "type": "TIME_PROTECT",
                "duration": 0.10000000149011612
            },
            {
                "$type": "KAGAFALAIGP",
                "type": "DIALOG",
                "aliasList": [
                    "30012"
                ],
                "JHEPJOMJJHH": 411122000
            },
            {
                "$type": "NFDDGDIKEAG",
                "type": "STEER_TO",
                "duration": 1.0,
                "aliasList": [
                    "30012"
                ],
                "GGJHILELIMO": "TO_LOCAL_AVATAR_ADVANCED",
                "PKKKHNGDEEE": true,
                "JBODIEHINII": "",
                "NNFPFPOJJOJ": ""
            }
        ],
        [
            {
                "$type": "MoleMole.Config.ConfigTimeProtectAction",
                "type": "TIME_PROTECT",
                "duration": 0.10000000149011612
            },
            {
                "$type": "NFDDGDIKEAG",
                "type": "STEER_TO",
                "duration": 1.0,
                "aliasList": [
                    "30012"
                ],
                "GGJHILELIMO": "RETURN",
                "PKKKHNGDEEE": true,
                "JBODIEHINII": "",
                "NNFPFPOJJOJ": ""
            }
        ]
    ],
    "groupId": [
        {
            "grpId": 2455401104,
            "nextGrpId": 2455401105
        },
        {
            "index": 1,
            "grpId": 2455401105,
            "nextGrpId": 2455401106
        }
    ],
    "freeStyleDic": {
        "30012": []
    }
}