{
    "luaDataPath": "",
    "isSimpleTalk": true,
    "entityBan": "",
    "disableNpcLod": true,
    "startFade": {
        "startFadeOutDuration": 0.0
    },
    "endFade": {
        "startFadeOutDuration": 0.0
    },
    "actors": [
        {
            "alias": "Avatar",
            "visible": true,
            "bornPointName": "",
            "relativePosNpcAlias": "",
            "bindMovingTargetKey": ""
        },
        {
            "configID": 2300,
            "alias": "2300",
            "visible": true,
            "bornPointName": "Q41331_kaishu1",
            "relativePosNpcAlias": "",
            "bindMovingTargetKey": ""
        }
    ],
    "group": [
        [
            {
                "$type": "AAFOOOPNJLB",
                "type": "DIALOG_SELECT",
                "delayTime": 0.4000000059604645,
                "aliasList": [
                    "Avatar"
                ],
                "KFAEOBDAAME": [
                    413310602
                ],
                "ELPFMMBHOLF": [
                    555292375
                ],
                "OEAAKJDIEFD": true
            },
            {
                "$type": "KAGAFALAIGP",
                "type": "DIALOG",
                "aliasList": [
                    "2300"
                ],
                "JHEPJOMJJHH": 413310601
            }
        ],
        [
            {
                "$type": "KAGAFALAIGP",
                "type": "DIALOG",
                "aliasList": [
                    "2300"
                ],
                "JHEPJOMJJHH": 413310603
            }
        ],
        [
            {
                "$type": "KAGAFALAIGP",
                "type": "DIALOG",
                "aliasList": [
                    "2300"
                ],
                "JHEPJOMJJHH": 413310604
            }
        ],
        [
            {
                "$type": "MoleMole.Config.ConfigLuaAction",
                "type": "LUA_ACTION",
                "delayTime": 1.0,
                "duration": 0.10000000149011612,
                "invoke": true,
                "invokeAlias": "41331",
                "invokeParam": 4133107
            },
            {
                "$type": "MoleMole.Config.ConfigSimpleBlackScreenAction",
                "type": "SIMPLE_BLACK_SCREEN",
                "durationToBlack": 0.5,
                "durationKeepBlack": 3.0,
                "durationFromBlack": 0.5,
                "textMapID": "QUEST_Message_Q41331_1"
            },
            {
                "$type": "KAGAFALAIGP",
                "type": "DIALOG_CLEAR",
                "aliasList": [
                    "2300"
                ]
            }
        ],
        [
            {
                "$type": "KAGAFALAIGP",
                "type": "DIALOG",
                "aliasList": [
                    "2300"
                ],
                "JHEPJOMJJHH": 413310605
            }
        ],
        [
            {
                "$type": "AAFOOOPNJLB",
                "type": "DIALOG_SELECT",
                "delayTime": 0.4000000059604645,
                "aliasList": [
                    "Avatar"
                ],
                "KFAEOBDAAME": [
                    413310607
                ],
                "ELPFMMBHOLF": [
                    555292380
                ],
                "OEAAKJDIEFD": true
            },
            {
                "$type": "KAGAFALAIGP",
                "type": "DIALOG",
                "aliasList": [
                    "2300"
                ],
                "JHEPJOMJJHH": 413310606
            }
        ],
        [
            {
                "$type": "AAFOOOPNJLB",
                "type": "DIALOG_SELECT",
                "delayTime": 0.4000000059604645,
                "aliasList": [
                    "Avatar"
                ],
                "KFAEOBDAAME": [
                    413310609,
                    413310610
                ],
                "ELPFMMBHOLF": [
                    555292381,
                    555292381
                ],
                "OEAAKJDIEFD": true
            },
            {
                "$type": "KAGAFALAIGP",
                "type": "DIALOG",
                "aliasList": [
                    "2300"
                ],
                "JHEPJOMJJHH": 413310608
            }
        ],
        [
            {
                "$type": "KAGAFALAIGP",
                "type": "DIALOG",
                "aliasList": [
                    "2300"
                ],
                "JHEPJOMJJHH": 413310611
            }
        ],
        [
            {
                "$type": "KAGAFALAIGP",
                "type": "DIALOG",
                "aliasList": [
                    "2300"
                ],
                "JHEPJOMJJHH": 413310612
            }
        ],
        [
            {
                "$type": "MoleMole.Config.ConfigTimeProtectAction",
                "type": "TIME_PROTECT",
                "duration": 0.10000000149011612
            }
        ]
    ],
    "groupId": [
        {
            "grpId": 555292374,
            "nextGrpId": 555292375
        },
        {
            "index": 1,
            "grpId": 555292375,
            "nextGrpId": 555292376
        },
        {
            "index": 2,
            "grpId": 555292376,
            "nextGrpId": 555292377
        },
        {
            "index": 3,
            "grpId": 555292377,
            "nextGrpId": 555292378
        },
        {
            "index": 4,
            "grpId": 555292378,
            "nextGrpId": 555292379
        },
        {
            "index": 5,
            "grpId": 555292379,
            "nextGrpId": 555292380
        },
        {
            "index": 6,
            "grpId": 555292380,
            "nextGrpId": 555292381
        },
        {
            "index": 7,
            "grpId": 555292381,
            "nextGrpId": 555292382
        },
        {
            "index": 8,
            "grpId": 555292382,
            "nextGrpId": 34194458
        },
        {
            "index": 9,
            "grpId": 34194458,
            "nextGrpId": 34194459
        }
    ],
    "freeStyleDic": {
        "2300": []
    }
}