{
    "luaDataPath": "",
    "startBlackKeepTime": 0.4000000059604645,
    "entityBan": "",
    "disableNpcLod": true,
    "startFade": {
        "startFadeInDuration": 0.30000001192092896,
        "startFadeOutDuration": 0.30000001192092896
    },
    "endFade": {
        "startFadeOutDuration": 0.0
    },
    "actors": [
        {
            "alias": "Avatar",
            "visible": true,
            "bornPointName": "Q41422_Player_Water2_Pos",
            "relativePosNpcAlias": "",
            "bindMovingTargetKey": ""
        },
        {
            "configID": 10367,
            "alias": "10367",
            "visible": true,
            "bornPointName": "Q41422_Water2_Pos",
            "relativePosNpcAlias": "",
            "bindMovingTargetKey": ""
        },
        {
            "configID": 1005,
            "alias": "1005",
            "visible": true,
            "bornPointName": "Q41422_Paimon_Water2_Pos",
            "removeActorType": "REMOVE_WITH_DISAPPEAR",
            "relativePosNpcAlias": "",
            "bindMovingTargetKey": ""
        }
    ],
    "group": [
        [
            {
                "$type": "MoleMole.Config.ConfigLuaAction",
                "type": "LUA_ACTION",
                "delayTime": 0.30000001192092896,
                "duration": 0.10000000149011612,
                "invoke": true,
                "invokeAlias": "41422",
                "invokeParam": 4142204
            },
            {
                "$type": "FNPNDPFBBDD",
                "type": "LOOK_AT",
                "aliasList": [
                    "Avatar"
                ],
                "useTargetPos": true,
                "LBJHJADMNBD": true,
                "MNOPLOBEFLB": 0.5,
                "JBODIEHINII": "10367",
                "LPCACGGCDLI": "",
                "NNFPFPOJJOJ": ""
            },
            {
                "$type": "KAGAFALAIGP",
                "type": "DIALOG",
                "aliasList": [
                    "10367"
                ],
                "JHEPJOMJJHH": 414220401
            }
        ],
        [
            {
                "$type": "KAGAFALAIGP",
                "type": "DIALOG",
                "aliasList": [
                    "10367"
                ],
                "JHEPJOMJJHH": 414220402
            }
        ],
        [
            {
                "$type": "FNPNDPFBBDD",
                "type": "LOOK_AT",
                "aliasList": [
                    "Avatar"
                ],
                "NKGFDJDHOBD": true,
                "useTargetPos": true,
                "LBJHJADMNBD": true,
                "MNOPLOBEFLB": 0.5,
                "JBODIEHINII": "1005",
                "LPCACGGCDLI": "",
                "NNFPFPOJJOJ": ""
            },
            {
                "$type": "KAGAFALAIGP",
                "type": "DIALOG",
                "aliasList": [
                    "1005"
                ],
                "JHEPJOMJJHH": 414220403
            }
        ],
        [
            {
                "$type": "FNPNDPFBBDD",
                "type": "LOOK_AT",
                "aliasList": [
                    "Avatar"
                ],
                "useTargetPos": true,
                "LBJHJADMNBD": true,
                "MNOPLOBEFLB": 0.5,
                "JBODIEHINII": "10367",
                "LPCACGGCDLI": "",
                "NNFPFPOJJOJ": ""
            },
            {
                "$type": "KAGAFALAIGP",
                "type": "DIALOG",
                "aliasList": [
                    "10367"
                ],
                "JHEPJOMJJHH": 414220404
            }
        ],
        [
            {
                "$type": "AAFOOOPNJLB",
                "type": "DIALOG_SELECT",
                "delayTime": 0.4000000059604645,
                "aliasList": [
                    "Avatar"
                ],
                "KFAEOBDAAME": [
                    414220406,
                    414220407
                ],
                "ELPFMMBHOLF": [
                    26218588,
                    26218588
                ],
                "OEAAKJDIEFD": true
            },
            {
                "$type": "KAGAFALAIGP",
                "type": "DIALOG",
                "aliasList": [
                    "10367"
                ],
                "JHEPJOMJJHH": 414220405
            }
        ],
        [
            {
                "$type": "KAGAFALAIGP",
                "type": "DIALOG",
                "aliasList": [
                    "10367"
                ],
                "JHEPJOMJJHH": 414220408
            }
        ],
        [
            {
                "$type": "FNPNDPFBBDD",
                "type": "LOOK_AT",
                "aliasList": [
                    "Avatar"
                ],
                "NKGFDJDHOBD": true,
                "useTargetPos": true,
                "LBJHJADMNBD": true,
                "MNOPLOBEFLB": 0.5,
                "JBODIEHINII": "1005",
                "LPCACGGCDLI": "",
                "NNFPFPOJJOJ": ""
            },
            {
                "$type": "KAGAFALAIGP",
                "type": "DIALOG",
                "aliasList": [
                    "1005"
                ],
                "JHEPJOMJJHH": 414220409
            }
        ],
        [
            {
                "$type": "FNPNDPFBBDD",
                "type": "LOOK_AT",
                "aliasList": [
                    "Avatar"
                ],
                "useTargetPos": true,
                "LBJHJADMNBD": true,
                "MNOPLOBEFLB": 0.5,
                "JBODIEHINII": "10367",
                "LPCACGGCDLI": "",
                "NNFPFPOJJOJ": ""
            },
            {
                "$type": "KAGAFALAIGP",
                "type": "DIALOG",
                "aliasList": [
                    "10367"
                ],
                "JHEPJOMJJHH": 414220410
            }
        ],
        [
            {
                "$type": "AAFOOOPNJLB",
                "type": "DIALOG_SELECT",
                "delayTime": 0.4000000059604645,
                "aliasList": [
                    "Avatar"
                ],
                "KFAEOBDAAME": [
                    414220412,
                    414220413
                ],
                "ELPFMMBHOLF": [
                    812776122,
                    812776121
                ],
                "OEAAKJDIEFD": true
            },
            {
                "$type": "KAGAFALAIGP",
                "type": "DIALOG",
                "aliasList": [
                    "10367"
                ],
                "JHEPJOMJJHH": 414220411
            }
        ],
        [
            {
                "$type": "FNPNDPFBBDD",
                "type": "LOOK_AT",
                "aliasList": [
                    "Avatar"
                ],
                "NKGFDJDHOBD": true,
                "useTargetPos": true,
                "LBJHJADMNBD": true,
                "MNOPLOBEFLB": 0.5,
                "JBODIEHINII": "1005",
                "LPCACGGCDLI": "",
                "NNFPFPOJJOJ": ""
            },
            {
                "$type": "KAGAFALAIGP",
                "type": "DIALOG",
                "aliasList": [
                    "1005"
                ],
                "JHEPJOMJJHH": 414220414
            }
        ],
        [
            {
                "$type": "KAGAFALAIGP",
                "type": "DIALOG",
                "aliasList": [
                    "1005"
                ],
                "JHEPJOMJJHH": 414220415
            }
        ],
        [
            {
                "$type": "MoleMole.Config.ConfigLuaAction",
                "type": "LUA_ACTION",
                "delayTime": 0.5,
                "duration": 0.10000000149011612,
                "invoke": true,
                "invokeAlias": "41422",
                "invokeParam": 1
            },
            {
                "$type": "MoleMole.Config.ConfigSimpleBlackScreenAction",
                "type": "SIMPLE_BLACK_SCREEN",
                "durationToBlack": 0.5,
                "durationKeepBlack": 1.0,
                "durationFromBlack": 0.5,
                "textMapID": ""
            },
            {
                "$type": "MoleMole.Config.ConfigTimeProtectAction",
                "type": "TIME_PROTECT",
                "duration": 0.5
            },
            {
                "$type": "PBIGHFCHGCA",
                "type": "CAMERA_MOVE",
                "delayTime": 0.5,
                "duration": 0.10000000149011612,
                "CGCNCKNJOFB": "EXIT",
                "JOBAHIHHJIB": "Other",
                "FNMFGIOLKBE": 6,
                "NECGMADJICG": "EaseInOutCubic",
                "BMHIHPIKAHM": {},
                "JBODIEHINII": "",
                "EJCHLMIMLBO": "",
                "BIMPIKMCIHB": "",
                "MCAOJPLIJGI": ""
            }
        ]
    ],
    "groupId": [
        {
            "grpId": 26218583,
            "nextGrpId": 26218584
        },
        {
            "index": 1,
            "grpId": 26218584,
            "nextGrpId": 26218585
        },
        {
            "index": 2,
            "grpId": 26218585,
            "nextGrpId": 26218586
        },
        {
            "index": 3,
            "grpId": 26218586,
            "nextGrpId": 26218587
        },
        {
            "index": 4,
            "grpId": 26218587,
            "nextGrpId": 26218588
        },
        {
            "index": 5,
            "grpId": 26218588,
            "nextGrpId": 26218589
        },
        {
            "index": 6,
            "grpId": 26218589,
            "nextGrpId": 26218590
        },
        {
            "index": 7,
            "grpId": 26218590,
            "nextGrpId": 26218591
        },
        {
            "index": 8,
            "grpId": 26218591,
            "nextGrpId": 812776121
        },
        {
            "index": 9,
            "grpId": 812776121,
            "nextGrpId": 812776122
        },
        {
            "index": 10,
            "grpId": 812776122,
            "nextGrpId": 812776123
        },
        {
            "index": 11,
            "grpId": 812776123,
            "nextGrpId": 812776124
        }
    ]
}