{
    "luaDataPath": "",
    "entityBan": "",
    "disableNpcLod": true,
    "startFade": {
        "startFadeOutDuration": 0.0
    },
    "endFade": {
        "startFadeOutDuration": 0.0
    },
    "actors": [
        {
            "alias": "Avatar",
            "visible": true,
            "bornPointName": "",
            "relativePosNpcAlias": "",
            "bindMovingTargetKey": ""
        },
        {
            "configID": 9002,
            "alias": "9002",
            "visible": true,
            "bornPointName": "",
            "relativePosNpcAlias": "",
            "bindMovingTargetKey": ""
        }
    ],
    "group": [
        [
            {
                "$type": "FNPNDPFBBDD",
                "type": "LOOK_AT",
                "aliasList": [
                    "9002"
                ],
                "NKGFDJDHOBD": true,
                "MNOPLOBEFLB": 0.30000001192092896,
                "JBODIEHINII": "Avatar",
                "LPCACGGCDLI": "",
                "NNFPFPOJJOJ": ""
            },
            {
                "$type": "CENEPJCONAG",
                "type": "BODY_LANG",
                "aliasList": [
                    "9002"
                ],
                "NNKEOHJCPOF": true,
                "MHDCNDAINCK": true,
                "LHIAJOBFNAK": false,
                "FOEKGLEJBIJ": ""
            },
            {
                "$type": "PCKGCMJKAFG",
                "type": "LOOK_AT_EYECTRL",
                "aliasList": [
                    "9002"
                ],
                "useTargetPos": false,
                "OEJLBIFJKEL": 1.0,
                "JBODIEHINII": "",
                "FEHKBOLJIOO": "Face"
            },
            {
                "$type": "NFDDGDIKEAG",
                "type": "STEER_TO",
                "duration": 1.0,
                "aliasList": [
                    "9002"
                ],
                "GGJHILELIMO": "TO_LOCAL_AVATAR_ADVANCED",
                "PKKKHNGDEEE": true,
                "LGDIOPOBMPH": true,
                "NBNJEKMFIDE": true,
                "JBODIEHINII": "",
                "NNFPFPOJJOJ": ""
            },
            {
                "$type": "PBIGHFCHGCA",
                "type": "CAMERA_FOCUS",
                "duration": 0.5,
                "JBODIEHINII": "",
                "EJCHLMIMLBO": "",
                "BIMPIKMCIHB": "",
                "MCAOJPLIJGI": ""
            },
            {
                "$type": "MoleMole.Config.ConfigTimeProtectAction",
                "type": "TIME_PROTECT",
                "duration": 0.5
            },
            {
                "$type": "FNPNDPFBBDD",
                "type": "LOOK_AT",
                "aliasList": [
                    "Avatar"
                ],
                "NKGFDJDHOBD": true,
                "MNOPLOBEFLB": 0.30000001192092896,
                "JBODIEHINII": "9002",
                "LPCACGGCDLI": "",
                "NNFPFPOJJOJ": ""
            }
        ],
        [
            {
                "$type": "CENEPJCONAG",
                "type": "BODY_LANG",
                "aliasList": [
                    "9002"
                ],
                "OGFPAIKLDGB": 1171,
                "MHDCNDAINCK": true,
                "LHIAJOBFNAK": false,
                "FOEKGLEJBIJ": ""
            },
            {
                "$type": "LNLLGCOBDFC",
                "type": "EMO_SYNC",
                "aliasList": [
                    "9002"
                ],
                "LKHHGAGNMKM": "Cs_Emo_Avatar_Simple_Common_Set/Cs_Emo_Avatar_Talk/Cs_Emo_HomeWorld/Cs_Emo_Avatar_Ayaka/Cs_Emo_690021001",
                "AIMKGPFAAAD": "",
                "IPEKOEDCGGF": "",
                "EJNFMNJKDAH": "",
                "LOOOCOLIHFA": "",
                "KJDLMAPPPMG": "",
                "EKJHPKFBONG": [
                    4866540584169085106,
                    12163797089501823827,
                    9576972177047438869,
                    10761360829944656530
                ]
            },
            {
                "$type": "KAGAFALAIGP",
                "type": "DIALOG",
                "aliasList": [
                    "9002"
                ],
                "JHEPJOMJJHH": 690021001,
                "OCILKFCPBNC": 0.5
            },
            {
                "$type": "NFDDGDIKEAG",
                "type": "STEER_TO",
                "delayTime": 0.4000000059604645,
                "duration": 1.0,
                "aliasList": [
                    "Avatar"
                ],
                "GGJHILELIMO": "TO_TARGET_ADVANCED",
                "PKKKHNGDEEE": true,
                "LGDIOPOBMPH": true,
                "NBNJEKMFIDE": true,
                "JBODIEHINII": "9002",
                "NNFPFPOJJOJ": ""
            }
        ],
        [
            {
                "$type": "FNPNDPFBBDD",
                "type": "LOOK_AT",
                "aliasList": [
                    "9002"
                ],
                "NKGFDJDHOBD": true,
                "OCIADBJCDPC": {
                    "x": -10.0,
                    "y": 5.0
                },
                "MNOPLOBEFLB": 0.5,
                "JBODIEHINII": "Avatar",
                "CFPBIOLLOCO": "NONE",
                "LPCACGGCDLI": "",
                "NNFPFPOJJOJ": ""
            },
            {
                "$type": "PCKGCMJKAFG",
                "type": "LOOK_AT_EYECTRL",
                "aliasList": [
                    "9002"
                ],
                "useTargetPos": false,
                "KIIEOLGDJKJ": {
                    "x": -3.0
                },
                "JMJDEGALFIP": {
                    "x": -4.0
                },
                "OEJLBIFJKEL": 1.0,
                "JBODIEHINII": "",
                "FEHKBOLJIOO": "Face"
            },
            {
                "$type": "LNLLGCOBDFC",
                "type": "EMO_SYNC",
                "aliasList": [
                    "9002"
                ],
                "LKHHGAGNMKM": "Cs_Emo_Avatar_Simple_Common_Set/Cs_Emo_Avatar_Talk/Cs_Emo_HomeWorld/Cs_Emo_Avatar_Ayaka/Cs_Emo_690021002",
                "AIMKGPFAAAD": "",
                "IPEKOEDCGGF": "",
                "EJNFMNJKDAH": "",
                "LOOOCOLIHFA": "",
                "KJDLMAPPPMG": "",
                "HCOIDDGKHJC": false,
                "EKJHPKFBONG": [
                    7699181156775162154,
                    15419506378773246717,
                    11906304427189661152,
                    168121519613899975
                ]
            },
            {
                "$type": "KAGAFALAIGP",
                "type": "DIALOG",
                "aliasList": [
                    "9002"
                ],
                "JHEPJOMJJHH": 690021002,
                "OCILKFCPBNC": 0.5
            },
            {
                "$type": "CENEPJCONAG",
                "type": "BODY_LANG",
                "aliasList": [
                    "9002"
                ],
                "OGFPAIKLDGB": 1110,
                "MHDCNDAINCK": true,
                "LHIAJOBFNAK": false,
                "FOEKGLEJBIJ": ""
            },
            {
                "$type": "CENEPJCONAG",
                "type": "BODY_LANG",
                "delayTime": 0.4000000059604645,
                "aliasList": [
                    "9002"
                ],
                "NNKEOHJCPOF": true,
                "MHDCNDAINCK": true,
                "LHIAJOBFNAK": false,
                "FOEKGLEJBIJ": ""
            },
            {
                "$type": "PCKGCMJKAFG",
                "type": "LOOK_AT_EYECTRL",
                "delayTime": 2.4000000953674316,
                "aliasList": [
                    "9002"
                ],
                "useTargetPos": false,
                "OEJLBIFJKEL": 1.0,
                "JBODIEHINII": "",
                "FEHKBOLJIOO": "Face"
            },
            {
                "$type": "FNPNDPFBBDD",
                "type": "LOOK_AT",
                "delayTime": 2.4000000953674316,
                "aliasList": [
                    "9002"
                ],
                "NKGFDJDHOBD": true,
                "MNOPLOBEFLB": 0.5,
                "JBODIEHINII": "Avatar",
                "LPCACGGCDLI": "",
                "NNFPFPOJJOJ": ""
            },
            {
                "$type": "CENEPJCONAG",
                "type": "BODY_LANG",
                "delayTime": 3.4000000953674316,
                "aliasList": [
                    "9002"
                ],
                "OGFPAIKLDGB": 1171,
                "MHDCNDAINCK": true,
                "LHIAJOBFNAK": false,
                "FOEKGLEJBIJ": ""
            }
        ],
        [
            {
                "$type": "FNPNDPFBBDD",
                "type": "LOOK_AT",
                "aliasList": [
                    "9002"
                ],
                "NKGFDJDHOBD": true,
                "MNOPLOBEFLB": 0.30000001192092896,
                "JBODIEHINII": "Avatar",
                "LPCACGGCDLI": "",
                "NNFPFPOJJOJ": ""
            },
            {
                "$type": "PCKGCMJKAFG",
                "type": "LOOK_AT_EYECTRL",
                "aliasList": [
                    "9002"
                ],
                "useTargetPos": false,
                "OEJLBIFJKEL": 1.0,
                "JBODIEHINII": "",
                "FEHKBOLJIOO": "Face"
            },
            {
                "$type": "LNLLGCOBDFC",
                "type": "EMO_SYNC",
                "aliasList": [
                    "9002"
                ],
                "LKHHGAGNMKM": "Cs_Emo_Avatar_Simple_Common_Set/Cs_Emo_Avatar_Talk/Cs_Emo_HomeWorld/Cs_Emo_Avatar_Ayaka/Cs_Emo_690021003",
                "AIMKGPFAAAD": "",
                "IPEKOEDCGGF": "",
                "EJNFMNJKDAH": "",
                "LOOOCOLIHFA": "",
                "KJDLMAPPPMG": "",
                "EKJHPKFBONG": [
                    11785826592443706361,
                    4487143600483554802,
                    17131792470978498741,
                    9756505029083018493
                ]
            },
            {
                "$type": "KAGAFALAIGP",
                "type": "DIALOG",
                "aliasList": [
                    "9002"
                ],
                "JHEPJOMJJHH": 690021003,
                "OCILKFCPBNC": 0.5
            },
            {
                "$type": "CENEPJCONAG",
                "type": "BODY_LANG",
                "aliasList": [
                    "9002"
                ],
                "OGFPAIKLDGB": 1130,
                "MHDCNDAINCK": true,
                "LHIAJOBFNAK": false,
                "FOEKGLEJBIJ": ""
            },
            {
                "$type": "CENEPJCONAG",
                "type": "BODY_LANG",
                "delayTime": 1.7999999523162842,
                "aliasList": [
                    "9002"
                ],
                "OGFPAIKLDGB": 4030,
                "MHDCNDAINCK": true,
                "LHIAJOBFNAK": false,
                "FOEKGLEJBIJ": ""
            }
        ],
        [
            {
                "$type": "CENEPJCONAG",
                "type": "BODY_LANG",
                "aliasList": [
                    "9002"
                ],
                "NNKEOHJCPOF": true,
                "MHDCNDAINCK": true,
                "LHIAJOBFNAK": false,
                "FOEKGLEJBIJ": ""
            },
            {
                "$type": "MoleMole.Config.ConfigTimeProtectAction",
                "type": "TIME_PROTECT",
                "duration": 0.10000000149011612
            }
        ]
    ],
    "groupId": [
        {
            "grpId": 1691669313,
            "nextGrpId": 1691669314
        },
        {
            "index": 1,
            "grpId": 1691669314,
            "nextGrpId": 1691669315
        },
        {
            "index": 2,
            "grpId": 1691669315,
            "nextGrpId": 1691669316
        },
        {
            "index": 3,
            "grpId": 1691669316,
            "nextGrpId": 1691669317
        },
        {
            "index": 4,
            "grpId": 1691669317,
            "nextGrpId": 1691669318
        }
    ],
    "freeStyleDic": {
        "9002": [
            1171,
            1110,
            1130,
            4030
        ]
    }
}