{
    "luaDataPath": "",
    "entityBan": "",
    "startFade": {
        "startFadeInDuration": 0.4000000059604645,
        "startFadeOutDuration": 0.4000000059604645
    },
    "endFade": {
        "startFadeOutDuration": 0.0
    },
    "actors": [
        {
            "alias": "Avatar",
            "visible": true,
            "bornPointName": "Q11200_Player",
            "relativePosNpcAlias": "",
            "bindMovingTargetKey": ""
        },
        {
            "configID": 2027,
            "alias": "2027",
            "visible": true,
            "bornPointName": "Q11200Chenxiang",
            "relativePosNpcAlias": "",
            "bindMovingTargetKey": ""
        },
        {
            "configID": 2028,
            "alias": "2028",
            "visible": true,
            "bornPointName": "Q11200Hongdou",
            "relativePosNpcAlias": "",
            "bindMovingTargetKey": ""
        },
        {
            "configID": 1005,
            "alias": "1005",
            "visible": true,
            "bornPointName": "Q11200_Paimon",
            "relativePosNpcAlias": "",
            "bindMovingTargetKey": ""
        }
    ],
    "group": [
        [
            {
                "$type": "PBIGHFCHGCA",
                "type": "CAMERA_MOVE",
                "delayTime": 0.10000000149011612,
                "duration": 10.0,
                "KCFKJMMEECM": {
                    "x": -434.93609619140625,
                    "y": 240.4586181640625,
                    "z": 437.7008056640625
                },
                "DLGJEHNPMFN": {
                    "x": -435.91259765625,
                    "y": 240.4130096435547,
                    "z": 437.4902038574219
                },
                "NJCBGNHGINI": 30.0,
                "NECGMADJICG": "EaseInOutQuad",
                "BMHIHPIKAHM": {},
                "JBODIEHINII": "",
                "EJCHLMIMLBO": "",
                "BIMPIKMCIHB": "",
                "MCAOJPLIJGI": ""
            },
            {
                "$type": "PBIGHFCHGCA",
                "type": "CAMERA_MOVE",
                "duration": 1.0,
                "KCFKJMMEECM": {
                    "x": -434.8707275390625,
                    "y": 240.46336364746094,
                    "z": 437.71466064453125
                },
                "DLGJEHNPMFN": {
                    "x": -435.8209533691406,
                    "y": 240.4237518310547,
                    "z": 437.4056396484375
                },
                "NJCBGNHGINI": 30.0,
                "FNMFGIOLKBE": 6,
                "NECGMADJICG": "EaseInOutCubic",
                "BMHIHPIKAHM": {},
                "JBODIEHINII": "",
                "EJCHLMIMLBO": "",
                "BIMPIKMCIHB": "",
                "MCAOJPLIJGI": ""
            },
            {
                "$type": "MoleMole.Config.ConfigCameraDOFAction",
                "type": "CAMERA_DOF",
                "duration": 1.5,
                "enabled": true,
                "focusDistance": 4.312938690185547,
                "focusRange": 1.28660249710083,
                "nearFocalDistance": 2.5055878162384033,
                "quality": 3
            },
            {
                "$type": "MoleMole.Config.ConfigCameraDOFAction",
                "type": "CAMERA_DOF",
                "delayTime": 1.5,
                "duration": 1.0,
                "enabled": true,
                "focusDistance": 3.0009148120880127,
                "focusRange": 1.28660249710083,
                "nearFocalDistance": 2.5055878162384033,
                "quality": 3
            },
            {
                "$type": "FNPNDPFBBDD",
                "type": "LOOK_AT",
                "delayTime": 0.20000000298023224,
                "duration": 0.5,
                "aliasList": [
                    "Avatar"
                ],
                "NKGFDJDHOBD": true,
                "MNOPLOBEFLB": 0.5,
                "JBODIEHINII": "2027",
                "LPCACGGCDLI": "",
                "NNFPFPOJJOJ": ""
            },
            {
                "$type": "KAGAFALAIGP",
                "type": "DIALOG",
                "aliasList": [
                    "2027"
                ],
                "JHEPJOMJJHH": 112000101,
                "OCILKFCPBNC": 1.5
            },
            {
                "$type": "CENEPJCONAG",
                "type": "BODY_LANG",
                "aliasList": [
                    "2027"
                ],
                "OGFPAIKLDGB": 1240,
                "MHDCNDAINCK": true,
                "FOEKGLEJBIJ": ""
            },
            {
                "$type": "CENEPJCONAG",
                "type": "BODY_LANG",
                "delayTime": 1.1992928981781006,
                "aliasList": [
                    "2027"
                ],
                "NNKEOHJCPOF": true,
                "MHDCNDAINCK": true,
                "FOEKGLEJBIJ": ""
            },
            {
                "$type": "CENEPJCONAG",
                "type": "BODY_LANG",
                "delayTime": 3.5205047130584717,
                "aliasList": [
                    "2027"
                ],
                "OGFPAIKLDGB": 1110,
                "MHDCNDAINCK": true,
                "FOEKGLEJBIJ": ""
            },
            {
                "$type": "FNPNDPFBBDD",
                "type": "LOOK_AT",
                "delayTime": 3.094949245452881,
                "duration": 0.4000000059604645,
                "aliasList": [
                    "2027"
                ],
                "NKGFDJDHOBD": true,
                "MNOPLOBEFLB": 0.4000000059604645,
                "JBODIEHINII": "2028",
                "LPCACGGCDLI": "",
                "NNFPFPOJJOJ": ""
            },
            {
                "$type": "FNPNDPFBBDD",
                "type": "LOOK_AT",
                "duration": 0.4000000059604645,
                "aliasList": [
                    "2028"
                ],
                "NKGFDJDHOBD": true,
                "OCIADBJCDPC": {
                    "x": 2.100833427221005e-07,
                    "y": 352.00006103515625
                },
                "MNOPLOBEFLB": 0.4000000059604645,
                "JBODIEHINII": "",
                "LPCACGGCDLI": "",
                "NNFPFPOJJOJ": ""
            },
            {
                "$type": "FNPNDPFBBDD",
                "type": "LOOK_AT",
                "duration": 0.30000001192092896,
                "aliasList": [
                    "1005"
                ],
                "NKGFDJDHOBD": true,
                "MNOPLOBEFLB": 0.4000000059604645,
                "JBODIEHINII": "2027",
                "LPCACGGCDLI": "",
                "NNFPFPOJJOJ": ""
            }
        ],
        [
            {
                "$type": "CENEPJCONAG",
                "type": "BODY_LANG",
                "delayTime": 0.30000001192092896,
                "duration": 0.30000001192092896,
                "aliasList": [
                    "2027"
                ],
                "NNKEOHJCPOF": true,
                "MHDCNDAINCK": true,
                "FOEKGLEJBIJ": ""
            },
            {
                "$type": "FNPNDPFBBDD",
                "type": "LOOK_AT",
                "delayTime": 0.2708081603050232,
                "duration": 0.4000000059604645,
                "aliasList": [
                    "2027"
                ],
                "NKGFDJDHOBD": true,
                "MNOPLOBEFLB": 0.4000000059604645,
                "JBODIEHINII": "2028",
                "LPCACGGCDLI": "",
                "NNFPFPOJJOJ": ""
            },
            {
                "$type": "KAGAFALAIGP",
                "type": "DIALOG",
                "aliasList": [
                    "2028"
                ],
                "JHEPJOMJJHH": 112000102,
                "OCILKFCPBNC": 0.5
            },
            {
                "$type": "FNPNDPFBBDD",
                "type": "LOOK_AT",
                "aliasList": [
                    "2028"
                ],
                "NKGFDJDHOBD": true,
                "OCIADBJCDPC": {
                    "x": -1.0317238547941088e-06,
                    "y": 20.998708724975586
                },
                "MNOPLOBEFLB": 0.5,
                "JBODIEHINII": "",
                "LPCACGGCDLI": "",
                "NNFPFPOJJOJ": ""
            }
        ],
        [
            {
                "$type": "PBIGHFCHGCA",
                "type": "CAMERA_MOVE",
                "delayTime": 0.10000000149011612,
                "duration": 15.0,
                "KCFKJMMEECM": {
                    "x": -436.96734619140625,
                    "y": 241.20716857910156,
                    "z": 435.8168640136719
                },
                "DLGJEHNPMFN": {
                    "x": -437.0221862792969,
                    "y": 240.76356506347656,
                    "z": 436.7113952636719
                },
                "NJCBGNHGINI": 30.0,
                "NECGMADJICG": "EaseInOutQuad",
                "BMHIHPIKAHM": {},
                "JBODIEHINII": "",
                "EJCHLMIMLBO": "",
                "BIMPIKMCIHB": "",
                "MCAOJPLIJGI": ""
            },
            {
                "$type": "PBIGHFCHGCA",
                "type": "CAMERA_MOVE",
                "duration": 1.0,
                "KCFKJMMEECM": {
                    "x": -436.94085693359375,
                    "y": 241.25534057617188,
                    "z": 435.6439514160156
                },
                "DLGJEHNPMFN": {
                    "x": -437.0278625488281,
                    "y": 240.81173706054688,
                    "z": 436.53594970703125
                },
                "NJCBGNHGINI": 30.0,
                "FNMFGIOLKBE": 6,
                "NECGMADJICG": "EaseInOutCubic",
                "BMHIHPIKAHM": {},
                "JBODIEHINII": "",
                "EJCHLMIMLBO": "",
                "BIMPIKMCIHB": "",
                "MCAOJPLIJGI": ""
            },
            {
                "$type": "MoleMole.Config.ConfigCameraDOFAction",
                "type": "CAMERA_DOF",
                "enabled": true,
                "quality": 3
            },
            {
                "$type": "KAGAFALAIGP",
                "type": "DIALOG",
                "aliasList": [
                    "2027"
                ],
                "JHEPJOMJJHH": 112000103,
                "OCILKFCPBNC": 0.5
            },
            {
                "$type": "CENEPJCONAG",
                "type": "BODY_LANG",
                "aliasList": [
                    "2027"
                ],
                "OGFPAIKLDGB": 1230,
                "MHDCNDAINCK": true,
                "FOEKGLEJBIJ": ""
            },
            {
                "$type": "CENEPJCONAG",
                "type": "BODY_LANG",
                "delayTime": 2.5410170555114746,
                "aliasList": [
                    "2027"
                ],
                "NNKEOHJCPOF": true,
                "MHDCNDAINCK": true,
                "FOEKGLEJBIJ": ""
            },
            {
                "$type": "CENEPJCONAG",
                "type": "BODY_LANG",
                "delayTime": 3.4308159351348877,
                "aliasList": [
                    "2027"
                ],
                "OGFPAIKLDGB": 1171,
                "MHDCNDAINCK": true,
                "FOEKGLEJBIJ": ""
            }
        ],
        [
            {
                "$type": "CENEPJCONAG",
                "type": "BODY_LANG",
                "delayTime": 0.30000001192092896,
                "aliasList": [
                    "2027"
                ],
                "NNKEOHJCPOF": true,
                "MHDCNDAINCK": true,
                "FOEKGLEJBIJ": ""
            },
            {
                "$type": "KAGAFALAIGP",
                "type": "DIALOG",
                "aliasList": [
                    "2028"
                ],
                "JHEPJOMJJHH": 112000104,
                "OCILKFCPBNC": 1.0
            },
            {
                "$type": "FNPNDPFBBDD",
                "type": "LOOK_AT",
                "aliasList": [
                    "2028"
                ],
                "NKGFDJDHOBD": true,
                "OCIADBJCDPC": {
                    "x": 1.259871737602225e-06,
                    "y": 350.6510314941406
                },
                "MNOPLOBEFLB": 0.4000000059604645,
                "JBODIEHINII": "",
                "LPCACGGCDLI": "",
                "NNFPFPOJJOJ": ""
            },
            {
                "$type": "CENEPJCONAG",
                "type": "BODY_LANG",
                "aliasList": [
                    "2028"
                ],
                "OGFPAIKLDGB": 1171,
                "MHDCNDAINCK": true,
                "FOEKGLEJBIJ": ""
            },
            {
                "$type": "CENEPJCONAG",
                "type": "BODY_LANG",
                "delayTime": 5.201826095581055,
                "aliasList": [
                    "2028"
                ],
                "NNKEOHJCPOF": true,
                "MHDCNDAINCK": true,
                "FOEKGLEJBIJ": ""
            }
        ],
        [
            {
                "$type": "MoleMole.Config.ConfigCameraDOFAction",
                "type": "CAMERA_DOF",
                "duration": 1.0,
                "enabled": true
            },
            {
                "$type": "PBIGHFCHGCA",
                "type": "CAMERA_MOVE",
                "delayTime": 1.2999999523162842,
                "duration": 3.0,
                "KCFKJMMEECM": {
                    "x": -437.08599853515625,
                    "y": 241.13278198242188,
                    "z": 435.954833984375
                },
                "DLGJEHNPMFN": {
                    "x": -437.0412902832031,
                    "y": 240.69456481933594,
                    "z": 436.85260009765625
                },
                "NJCBGNHGINI": 30.0,
                "NECGMADJICG": "EaseOutQuart",
                "BMHIHPIKAHM": {},
                "JBODIEHINII": "",
                "EJCHLMIMLBO": "",
                "BIMPIKMCIHB": "",
                "MCAOJPLIJGI": ""
            },
            {
                "$type": "PBIGHFCHGCA",
                "type": "CAMERA_MOVE",
                "duration": 1.5,
                "KCFKJMMEECM": {
                    "x": -437.08599853515625,
                    "y": 241.13278198242188,
                    "z": 435.954833984375
                },
                "DLGJEHNPMFN": {
                    "x": -437.0412902832031,
                    "y": 240.69456481933594,
                    "z": 436.85260009765625
                },
                "NJCBGNHGINI": 30.0,
                "NECGMADJICG": "EaseOutQuad",
                "BMHIHPIKAHM": {},
                "JBODIEHINII": "",
                "EJCHLMIMLBO": "",
                "BIMPIKMCIHB": "",
                "MCAOJPLIJGI": ""
            },
            {
                "$type": "KAGAFALAIGP",
                "type": "DIALOG",
                "aliasList": [
                    "2028"
                ],
                "JHEPJOMJJHH": 112000105
            },
            {
                "$type": "CENEPJCONAG",
                "type": "BODY_LANG",
                "aliasList": [
                    "2028"
                ],
                "OGFPAIKLDGB": 1060,
                "MHDCNDAINCK": true,
                "FOEKGLEJBIJ": ""
            }
        ],
        [
            {
                "$type": "PBIGHFCHGCA",
                "type": "CAMERA_MOVE",
                "delayTime": 0.10000000149011612,
                "duration": 15.0,
                "KCFKJMMEECM": {
                    "x": -437.2880859375,
                    "y": 240.88560485839844,
                    "z": 438.0041198730469
                },
                "DLGJEHNPMFN": {
                    "x": -437.4349365234375,
                    "y": 240.72369384765625,
                    "z": 437.0282897949219
                },
                "NJCBGNHGINI": 30.0,
                "NECGMADJICG": "EaseInOutQuad",
                "BMHIHPIKAHM": {},
                "JBODIEHINII": "",
                "EJCHLMIMLBO": "",
                "BIMPIKMCIHB": "",
                "MCAOJPLIJGI": ""
            },
            {
                "$type": "PBIGHFCHGCA",
                "type": "CAMERA_MOVE",
                "duration": 1.0,
                "KCFKJMMEECM": {
                    "x": -438.0155334472656,
                    "y": 240.83522033691406,
                    "z": 437.76019287109375
                },
                "DLGJEHNPMFN": {
                    "x": -437.4175720214844,
                    "y": 240.7238311767578,
                    "z": 436.9664306640625
                },
                "NJCBGNHGINI": 30.0,
                "FNMFGIOLKBE": 6,
                "NECGMADJICG": "EaseInOutCubic",
                "BMHIHPIKAHM": {},
                "JBODIEHINII": "",
                "EJCHLMIMLBO": "",
                "BIMPIKMCIHB": "",
                "MCAOJPLIJGI": ""
            },
            {
                "$type": "MoleMole.Config.ConfigCameraDOFAction",
                "type": "CAMERA_DOF",
                "delayTime": 9.0,
                "duration": 2.0,
                "enabled": true,
                "focusDistance": 4.692866325378418,
                "focusRange": 0.7303252220153809,
                "nearFocalDistance": 2.785642623901367,
                "nearFocalTransDistance": 0.5962619781494141,
                "quality": 3
            },
            {
                "$type": "MoleMole.Config.ConfigCameraDOFAction",
                "type": "CAMERA_DOF",
                "duration": 0.10000000149011612,
                "enabled": true,
                "focusDistance": 2.140382766723633,
                "focusRange": 0.5851937532424927,
                "nearFocalDistance": 1.369847059249878,
                "quality": 3
            },
            {
                "$type": "MoleMole.Config.ConfigCameraDOFAction",
                "type": "CAMERA_DOF",
                "delayTime": 1.0,
                "duration": 8.0,
                "enabled": true,
                "focusDistance": 2.140382766723633,
                "focusRange": 0.5851937532424927,
                "nearFocalDistance": 1.369847059249878,
                "quality": 3
            },
            {
                "$type": "KAGAFALAIGP",
                "type": "DIALOG",
                "aliasList": [
                    "2027"
                ],
                "JHEPJOMJJHH": 112000106,
                "OCILKFCPBNC": 1.5
            },
            {
                "$type": "CENEPJCONAG",
                "type": "BODY_LANG",
                "delayTime": 4.17818021774292,
                "aliasList": [
                    "2027"
                ],
                "OGFPAIKLDGB": 1130,
                "MHDCNDAINCK": true,
                "FOEKGLEJBIJ": ""
            },
            {
                "$type": "CENEPJCONAG",
                "type": "BODY_LANG",
                "aliasList": [
                    "2027"
                ],
                "OGFPAIKLDGB": 1110,
                "MHDCNDAINCK": true,
                "FOEKGLEJBIJ": ""
            },
            {
                "$type": "CENEPJCONAG",
                "type": "BODY_LANG",
                "delayTime": 2.9938786029815674,
                "aliasList": [
                    "2027"
                ],
                "NNKEOHJCPOF": true,
                "MHDCNDAINCK": true,
                "FOEKGLEJBIJ": ""
            },
            {
                "$type": "FNPNDPFBBDD",
                "type": "LOOK_AT",
                "aliasList": [
                    "2027"
                ],
                "NKGFDJDHOBD": true,
                "OCIADBJCDPC": {
                    "x": 339.4093017578125,
                    "y": 21.09534454345703
                },
                "LFFOIAAIEDN": true,
                "PDKFOONFOMP": 347.33221435546875,
                "MNOPLOBEFLB": 0.30000001192092896,
                "BFDDMACNMDP": 0.30000001192092896,
                "JBODIEHINII": "",
                "LPCACGGCDLI": "",
                "NNFPFPOJJOJ": ""
            },
            {
                "$type": "CENEPJCONAG",
                "type": "BODY_LANG",
                "delayTime": 0.30000001192092896,
                "aliasList": [
                    "2028"
                ],
                "NNKEOHJCPOF": true,
                "MHDCNDAINCK": true,
                "FOEKGLEJBIJ": ""
            }
        ],
        [
            {
                "$type": "PBIGHFCHGCA",
                "type": "CAMERA_MOVE",
                "delayTime": 0.10000000149011612,
                "duration": 12.0,
                "KCFKJMMEECM": {
                    "x": -438.3617248535156,
                    "y": 240.97068786621094,
                    "z": 432.87579345703125
                },
                "DLGJEHNPMFN": {
                    "x": -438.155517578125,
                    "y": 240.71783447265625,
                    "z": 433.8210754394531
                },
                "NJCBGNHGINI": 30.0,
                "NECGMADJICG": "EaseInOutQuad",
                "BMHIHPIKAHM": {},
                "JBODIEHINII": "",
                "EJCHLMIMLBO": "",
                "BIMPIKMCIHB": "",
                "MCAOJPLIJGI": ""
            },
            {
                "$type": "PBIGHFCHGCA",
                "type": "CAMERA_MOVE",
                "duration": 1.0,
                "KCFKJMMEECM": {
                    "x": -438.4032287597656,
                    "y": 240.98150634765625,
                    "z": 432.6881103515625
                },
                "DLGJEHNPMFN": {
                    "x": -438.197021484375,
                    "y": 240.72865295410156,
                    "z": 433.6333923339844
                },
                "NJCBGNHGINI": 30.0,
                "FNMFGIOLKBE": 6,
                "NECGMADJICG": "EaseInOutCubic",
                "BMHIHPIKAHM": {},
                "JBODIEHINII": "",
                "EJCHLMIMLBO": "",
                "BIMPIKMCIHB": "",
                "MCAOJPLIJGI": ""
            },
            {
                "$type": "MoleMole.Config.ConfigCameraDOFAction",
                "type": "CAMERA_DOF",
                "enabled": true
            },
            {
                "$type": "AAFOOOPNJLB",
                "type": "DIALOG_SELECT",
                "delayTime": 0.4000000059604645,
                "aliasList": [
                    "Avatar"
                ],
                "KFAEOBDAAME": [
                    112000108,
                    112000110
                ],
                "ELPFMMBHOLF": [
                    4098285080,
                    4098285081
                ],
                "OEAAKJDIEFD": true
            },
            {
                "$type": "CENEPJCONAG",
                "type": "BODY_LANG",
                "aliasList": [
                    "2027"
                ],
                "NNKEOHJCPOF": true,
                "MHDCNDAINCK": true,
                "FOEKGLEJBIJ": ""
            },
            {
                "$type": "CENEPJCONAG",
                "type": "BODY_LANG",
                "delayTime": 0.8999999761581421,
                "aliasList": [
                    "2027"
                ],
                "OGFPAIKLDGB": 1170,
                "MHDCNDAINCK": true,
                "FOEKGLEJBIJ": ""
            },
            {
                "$type": "FNPNDPFBBDD",
                "type": "LOOK_AT",
                "aliasList": [
                    "2027"
                ],
                "NKGFDJDHOBD": true,
                "MNOPLOBEFLB": 0.20000000298023224,
                "JBODIEHINII": "2028",
                "LPCACGGCDLI": "",
                "NNFPFPOJJOJ": ""
            },
            {
                "$type": "FNPNDPFBBDD",
                "type": "LOOK_AT",
                "aliasList": [
                    "2028"
                ],
                "NKGFDJDHOBD": true,
                "OCIADBJCDPC": {
                    "x": -1.0317238547941088e-06,
                    "y": 20.998708724975586
                },
                "MNOPLOBEFLB": 0.5,
                "JBODIEHINII": "",
                "LPCACGGCDLI": "",
                "NNFPFPOJJOJ": ""
            },
            {
                "$type": "KAGAFALAIGP",
                "type": "DIALOG",
                "aliasList": [
                    "1005"
                ],
                "JHEPJOMJJHH": 112000107,
                "OCILKFCPBNC": 1.0
            },
            {
                "$type": "CENEPJCONAG",
                "type": "BODY_LANG",
                "aliasList": [
                    "1005"
                ],
                "OGFPAIKLDGB": 1190,
                "MHDCNDAINCK": true,
                "FOEKGLEJBIJ": ""
            }
        ],
        [
            {
                "$type": "PBIGHFCHGCA",
                "type": "CAMERA_MOVE",
                "delayTime": 0.10000000149011612,
                "duration": 8.0,
                "KCFKJMMEECM": {
                    "x": -436.854736328125,
                    "y": 240.64559936523438,
                    "z": 435.2637634277344
                },
                "DLGJEHNPMFN": {
                    "x": -437.83270263671875,
                    "y": 240.55809020996094,
                    "z": 435.0742492675781
                },
                "NJCBGNHGINI": 30.0,
                "NECGMADJICG": "EaseInOutQuad",
                "BMHIHPIKAHM": {},
                "JBODIEHINII": "",
                "EJCHLMIMLBO": "",
                "BIMPIKMCIHB": "",
                "MCAOJPLIJGI": ""
            },
            {
                "$type": "PBIGHFCHGCA",
                "type": "CAMERA_MOVE",
                "duration": 1.0,
                "KCFKJMMEECM": {
                    "x": -436.76617431640625,
                    "y": 240.65692138671875,
                    "z": 435.2164306640625
                },
                "DLGJEHNPMFN": {
                    "x": -437.75140380859375,
                    "y": 240.56642150878906,
                    "z": 435.0711364746094
                },
                "NJCBGNHGINI": 30.0,
                "FNMFGIOLKBE": 6,
                "NECGMADJICG": "EaseInOutCubic",
                "BMHIHPIKAHM": {},
                "JBODIEHINII": "",
                "EJCHLMIMLBO": "",
                "BIMPIKMCIHB": "",
                "MCAOJPLIJGI": ""
            },
            {
                "$type": "MoleMole.Config.ConfigCameraDOFAction",
                "type": "CAMERA_DOF",
                "duration": 1.0,
                "enabled": true,
                "focusDistance": 3.329383373260498,
                "focusRange": 0.6553030610084534,
                "nearFocalDistance": 1.0429608821868896,
                "nearFocalTransDistance": 9.999999974752427e-07,
                "quality": 3
            },
            {
                "$type": "FNPNDPFBBDD",
                "type": "LOOK_AT",
                "delayTime": 0.30000001192092896,
                "aliasList": [
                    "Avatar"
                ],
                "NKGFDJDHOBD": true,
                "MNOPLOBEFLB": 0.6000000238418579,
                "JBODIEHINII": "1005",
                "LPCACGGCDLI": "",
                "NNFPFPOJJOJ": ""
            },
            {
                "$type": "CENEPJCONAG",
                "type": "BODY_LANG",
                "aliasList": [
                    "2027"
                ],
                "NNKEOHJCPOF": true,
                "MHDCNDAINCK": true,
                "FOEKGLEJBIJ": ""
            },
            {
                "$type": "KAGAFALAIGP",
                "type": "DIALOG",
                "aliasList": [
                    "1005"
                ],
                "JHEPJOMJJHH": 112000109,
                "OCILKFCPBNC": 0.5
            },
            {
                "$type": "CENEPJCONAG",
                "type": "BODY_LANG",
                "aliasList": [
                    "1005"
                ],
                "OGFPAIKLDGB": 1120,
                "MHDCNDAINCK": true,
                "FOEKGLEJBIJ": ""
            },
            {
                "$type": "CENEPJCONAG",
                "type": "BODY_LANG",
                "delayTime": 2.838216543197632,
                "aliasList": [
                    "1005"
                ],
                "OGFPAIKLDGB": 1110,
                "MHDCNDAINCK": true,
                "FOEKGLEJBIJ": ""
            }
        ],
        [
            {
                "$type": "PBIGHFCHGCA",
                "type": "CAMERA_MOVE",
                "duration": 1.0,
                "KCFKJMMEECM": {
                    "x": -436.76617431640625,
                    "y": 240.65692138671875,
                    "z": 435.2164306640625
                },
                "DLGJEHNPMFN": {
                    "x": -437.75140380859375,
                    "y": 240.56642150878906,
                    "z": 435.0711364746094
                },
                "NJCBGNHGINI": 30.0,
                "FNMFGIOLKBE": 6,
                "NECGMADJICG": "EaseInOutCubic",
                "BMHIHPIKAHM": {},
                "JBODIEHINII": "",
                "EJCHLMIMLBO": "",
                "BIMPIKMCIHB": "",
                "MCAOJPLIJGI": ""
            },
            {
                "$type": "PBIGHFCHGCA",
                "type": "CAMERA_MOVE",
                "delayTime": 0.10000000149011612,
                "duration": 8.0,
                "KCFKJMMEECM": {
                    "x": -436.854736328125,
                    "y": 240.64559936523438,
                    "z": 435.2637634277344
                },
                "DLGJEHNPMFN": {
                    "x": -437.83270263671875,
                    "y": 240.55809020996094,
                    "z": 435.0742492675781
                },
                "NJCBGNHGINI": 30.0,
                "NECGMADJICG": "EaseInOutQuad",
                "BMHIHPIKAHM": {},
                "JBODIEHINII": "",
                "EJCHLMIMLBO": "",
                "BIMPIKMCIHB": "",
                "MCAOJPLIJGI": ""
            },
            {
                "$type": "MoleMole.Config.ConfigCameraDOFAction",
                "type": "CAMERA_DOF",
                "duration": 1.0,
                "enabled": true,
                "focusDistance": 3.329383373260498,
                "focusRange": 0.6553030610084534,
                "nearFocalDistance": 1.0429608821868896,
                "nearFocalTransDistance": 9.999999974752427e-07,
                "quality": 3
            },
            {
                "$type": "FNPNDPFBBDD",
                "type": "LOOK_AT",
                "delayTime": 0.30000001192092896,
                "aliasList": [
                    "Avatar"
                ],
                "NKGFDJDHOBD": true,
                "MNOPLOBEFLB": 0.6000000238418579,
                "JBODIEHINII": "1005",
                "LPCACGGCDLI": "",
                "NNFPFPOJJOJ": ""
            },
            {
                "$type": "KAGAFALAIGP",
                "type": "DIALOG",
                "aliasList": [
                    "1005"
                ],
                "JHEPJOMJJHH": 112000111,
                "OCILKFCPBNC": 0.5
            },
            {
                "$type": "CENEPJCONAG",
                "type": "BODY_LANG",
                "aliasList": [
                    "1005"
                ],
                "OGFPAIKLDGB": 1120,
                "MHDCNDAINCK": true,
                "FOEKGLEJBIJ": ""
            },
            {
                "$type": "CENEPJCONAG",
                "type": "BODY_LANG",
                "delayTime": 4.0289225578308105,
                "aliasList": [
                    "1005"
                ],
                "OGFPAIKLDGB": 1110,
                "MHDCNDAINCK": true,
                "FOEKGLEJBIJ": ""
            }
        ],
        [
            {
                "$type": "PBIGHFCHGCA",
                "type": "CAMERA_MOVE",
                "duration": 1.7999999523162842,
                "KCFKJMMEECM": {
                    "x": -440.0688171386719,
                    "y": 240.98170471191406,
                    "z": 435.22821044921875
                },
                "DLGJEHNPMFN": {
                    "x": -439.1036376953125,
                    "y": 240.73757934570312,
                    "z": 435.1341247558594
                },
                "NJCBGNHGINI": 30.0,
                "FNMFGIOLKBE": 6,
                "NECGMADJICG": "EaseOutQuad",
                "BMHIHPIKAHM": {},
                "JBODIEHINII": "",
                "EJCHLMIMLBO": "",
                "BIMPIKMCIHB": "",
                "MCAOJPLIJGI": ""
            },
            {
                "$type": "PBIGHFCHGCA",
                "type": "CAMERA_MOVE",
                "delayTime": 0.10000000149011612,
                "duration": 5.0,
                "KCFKJMMEECM": {
                    "x": -440.6695861816406,
                    "y": 240.72515869140625,
                    "z": 435.37347412109375
                },
                "DLGJEHNPMFN": {
                    "x": -439.6795349121094,
                    "y": 240.74853515625,
                    "z": 435.2347717285156
                },
                "NJCBGNHGINI": 30.0,
                "NECGMADJICG": "EaseInOutQuad",
                "BMHIHPIKAHM": {},
                "JBODIEHINII": "",
                "EJCHLMIMLBO": "",
                "BIMPIKMCIHB": "",
                "MCAOJPLIJGI": ""
            },
            {
                "$type": "MoleMole.Config.ConfigCameraDOFAction",
                "type": "CAMERA_DOF",
                "enabled": true
            },
            {
                "$type": "CENEPJCONAG",
                "type": "BODY_LANG",
                "delayTime": 1.8289324045181274,
                "aliasList": [
                    "Avatar"
                ],
                "OGFPAIKLDGB": 4030,
                "MHDCNDAINCK": true,
                "FOEKGLEJBIJ": ""
            },
            {
                "$type": "KAGAFALAIGP",
                "type": "DIALOG",
                "aliasList": [
                    "1005"
                ],
                "JHEPJOMJJHH": 112000112,
                "OCILKFCPBNC": 2.0
            },
            {
                "$type": "CENEPJCONAG",
                "type": "BODY_LANG",
                "aliasList": [
                    "1005"
                ],
                "OGFPAIKLDGB": 1180,
                "MHDCNDAINCK": true,
                "FOEKGLEJBIJ": ""
            },
            {
                "$type": "CENEPJCONAG",
                "type": "BODY_LANG",
                "delayTime": 3.6352157592773438,
                "aliasList": [
                    "1005"
                ],
                "NNKEOHJCPOF": true,
                "MHDCNDAINCK": true,
                "FOEKGLEJBIJ": ""
            },
            {
                "$type": "FNPNDPFBBDD",
                "type": "LOOK_AT",
                "duration": 0.4000000059604645,
                "aliasList": [
                    "1005"
                ],
                "NKGFDJDHOBD": true,
                "MNOPLOBEFLB": 0.4000000059604645,
                "JBODIEHINII": "Avatar",
                "LPCACGGCDLI": "",
                "NNFPFPOJJOJ": ""
            }
        ],
        [
            {
                "$type": "MoleMole.Config.ConfigTimeProtectAction",
                "type": "TIME_PROTECT",
                "duration": 1.5
            },
            {
                "$type": "PBIGHFCHGCA",
                "type": "CAMERA_MOVE",
                "delayTime": 0.5,
                "duration": 0.5,
                "KCFKJMMEECM": {
                    "x": -440.6695861816406,
                    "y": 240.72515869140625,
                    "z": 435.37347412109375
                },
                "DLGJEHNPMFN": {
                    "x": -439.6795349121094,
                    "y": 240.74853515625,
                    "z": 435.2347717285156
                },
                "FNMFGIOLKBE": 6,
                "NECGMADJICG": "EaseInOutCubic",
                "BMHIHPIKAHM": {},
                "JBODIEHINII": "",
                "EJCHLMIMLBO": "",
                "BIMPIKMCIHB": "",
                "MCAOJPLIJGI": ""
            },
            {
                "$type": "MoleMole.Config.ConfigBlackScreenAction",
                "type": "BLACK_SCREEN",
                "duration": 1.5,
                "durationToBlack": 0.4000000059604645,
                "durationKeepBlack": 0.699999988079071,
                "durationFromBlack": 0.4000000059604645,
                "inteePos": "",
                "textMapID": ""
            },
            {
                "$type": "KAGAFALAIGP",
                "type": "DIALOG_CLEAR",
                "delayTime": 0.20000000298023224,
                "JHEPJOMJJHH": 112000112
            },
            {
                "$type": "MoleMole.Config.ConfigCameraDOFAction",
                "type": "CAMERA_DOF",
                "delayTime": 0.5,
                "enabled": true
            }
        ],
        [
            {
                "$type": "FNPNDPFBBDD",
                "type": "LOOK_AT",
                "aliasList": [
                    "Avatar"
                ],
                "JBODIEHINII": "",
                "LPCACGGCDLI": "",
                "NNFPFPOJJOJ": ""
            },
            {
                "$type": "FNPNDPFBBDD",
                "type": "LOOK_AT",
                "aliasList": [
                    "2027"
                ],
                "JBODIEHINII": "",
                "LPCACGGCDLI": "",
                "NNFPFPOJJOJ": ""
            },
            {
                "$type": "FNPNDPFBBDD",
                "type": "LOOK_AT",
                "aliasList": [
                    "1005"
                ],
                "JBODIEHINII": "",
                "LPCACGGCDLI": "",
                "NNFPFPOJJOJ": ""
            }
        ]
    ],
    "groupId": [
        {
            "grpId": 4098285073,
            "nextGrpId": 4098285074
        },
        {
            "index": 1,
            "grpId": 4098285074,
            "nextGrpId": 4098285075
        },
        {
            "index": 2,
            "grpId": 4098285075,
            "nextGrpId": 4098285076
        },
        {
            "index": 3,
            "grpId": 4098285076,
            "nextGrpId": 4098285077
        },
        {
            "index": 4,
            "grpId": 4098285077,
            "nextGrpId": 4098285078
        },
        {
            "index": 5,
            "grpId": 4098285078,
            "nextGrpId": 4098285079
        },
        {
            "index": 6,
            "grpId": 4098285079,
            "nextGrpId": 4098285080
        },
        {
            "index": 7,
            "grpId": 4098285080,
            "nextGrpId": 2492785727
        },
        {
            "index": 8,
            "grpId": 4098285081,
            "nextGrpId": 2492785727
        },
        {
            "index": 9,
            "grpId": 2492785727,
            "nextGrpId": 2492785728
        },
        {
            "index": 10,
            "grpId": 2492785728,
            "nextGrpId": 2492785729
        },
        {
            "index": 11,
            "grpId": 2492785729,
            "nextGrpId": 2492785730
        }
    ],
    "freeStyleDic": {
        "2027": [
            1240,
            1110,
            1230,
            1171,
            1130,
            1170
        ],
        "2028": [
            1171,
            1060
        ]
    }
}