{
    "luaDataPath": "",
    "entityBan": "",
    "group": [
        [
            {
                "$type": "MoleMole.Config.ConfigLuaAction",
                "type": "LUA_ACTION",
                "duration": 1.0,
                "invoke": true,
                "invokeAlias": "23043",
                "invokeParam": 1
            }
        ]
    ]
}