{
    "luaDataPath": "",
    "entityBan": "",
    "group": [
        [
            {
                "$type": "MoleMole.Config.ConfigLuaAction",
                "type": "LUA_ACTION",
                "duration": 1.0,
                "invoke": true,
                "invokeAlias": "73219",
                "invokeParam": 2
            },
            {
                "$type": "PBIGHFCHGCA",
                "type": "CAMERA_MOVE",
                "duration": 1.0,
                "CGCNCKNJOFB": "EXIT",
                "JBODIEHINII": "",
                "EJCHLMIMLBO": "",
                "BIMPIKMCIHB": "",
                "MCAOJPLIJGI": ""
            },
            {
                "$type": "KAGAFALAIGP",
                "type": "DIALOG_CLEAR"
            },
            {
                "$type": "NFDDGDIKEAG",
                "type": "STEER_TO",
                "duration": 1.0,
                "GGJHILELIMO": "RETURN",
                "PKKKHNGDEEE": true,
                "LGDIOPOBMPH": true,
                "NBNJEKMFIDE": true,
                "JBODIEHINII": "",
                "NNFPFPOJJOJ": ""
            }
        ]
    ]
}