{
    "luaDataPath": "",
    "entityBan": "",
    "group": [
        [
            {
                "$type": "CENEPJCONAG",
                "type": "BODY_LANG",
                "OGFPAIKLDGB": 1070,
                "MHDCNDAINCK": true,
                "LHIAJOBFNAK": false,
                "FOEKGLEJBIJ": ""
            }
        ]
    ]
}