{
    "luaDataPath": "",
    "dontUseDefaultFinish": true,
    "entityBan": "",
    "disableNpcLod": true,
    "EKDGNGHMECG": true,
    "GMFELEKFHNC": 5,
    "startFade": {
        "startFadeOutDuration": 0.0
    },
    "endFade": {
        "startFadeOutDuration": 0.0
    },
    "actors": [
        {
            "alias": "Avatar",
            "visible": true,
            "bornPointName": "",
            "relativePosType": "AVATAR_NEW",
            "relativePosNpcAlias": "",
            "bindMovingTargetKey": ""
        },
        {
            "configID": 9524,
            "alias": "9524",
            "visible": true,
            "bornPointName": "",
            "relativePosType": "AVATAR_NEW",
            "relativePosNpcAlias": "",
            "bindMovingTargetKey": ""
        }
    ],
    "group": [
        [
            {
                "$type": "MoleMole.Config.ConfigTimeProtectAction",
                "type": "TIME_PROTECT",
                "duration": 1.2000000476837158,
                "actionId": 104
            },
            {
                "$type": "MoleMole.Config.ConfigBlackScreenAction",
                "type": "BLACK_SCREEN",
                "duration": 3.0,
                "actionId": 106,
                "durationToBlack": 0.5,
                "durationKeepBlack": 2.0,
                "durationFromBlack": 0.5,
                "inteePos": "",
                "textMapID": "",
                "useTextFade": true
            },
            {
                "$type": "MoleMole.Config.ConfigUITriggerInterAction",
                "type": "UI_TRIGGER",
                "actionId": 110,
                "contextName": "GcgCardGroupName",
                "param": "1"
            },
            {
                "$type": "MoleMole.Config.ConfigRequestMsgAction",
                "type": "REQUEST_MSG",
                "actionId": 111,
                "msgName": "GCGTCInvite",
                "param": ""
            },
            {
                "$type": "MoleMole.Config.ConfigTeleportToAction",
                "type": "TELEPORT_TO",
                "delayTime": 0.5,
                "aliasList": [
                    "Avatar"
                ],
                "actionId": 112,
                "forward": {
                    "z": 1.0
                },
                "openLongDisTeleport": true,
                "posSelectType": "GCG_PLAYER",
                "posBindMovingTargetKey": "",
                "forwardBindMovingTargetKey": ""
            },
            {
                "$type": "MoleMole.Config.ConfigSitOrStandAction",
                "type": "SIT_OR_STAND",
                "delayTime": 1.7999999523162842,
                "aliasList": [
                    "Avatar"
                ],
                "actionId": 113,
                "isSit": true,
                "banResetFreestyle": true
            },
            {
                "$type": "PBIGHFCHGCA",
                "type": "CAMERA_MOVE",
                "delayTime": 2.0,
                "duration": 0.10000000149011612,
                "actionId": 119,
                "CGCNCKNJOFB": "RELATIVE_TO_INTEE_ONLY",
                "KCFKJMMEECM": {
                    "y": 1.4199999570846558,
                    "z": 0.8100000023841858
                },
                "JOBAHIHHJIB": "RELATIVE_TO_INTEE_FORWARD",
                "DLGJEHNPMFN": {
                    "y": 1.4199999570846558,
                    "z": -0.3799999952316284
                },
                "NJCBGNHGINI": 30.0,
                "FNMFGIOLKBE": 6,
                "NECGMADJICG": "EaseInOutCubic",
                "BMHIHPIKAHM": {},
                "MMJMMAEAJOA": true,
                "DNFHBDHNHKE": 0.007000000216066837,
                "HGGPLEMCNNG": false,
                "JBODIEHINII": "",
                "PHDIKPKLFIA": true,
                "EJCHLMIMLBO": "",
                "JDMKIMCOABH": [
                    8010,
                    8011,
                    8012,
                    8013,
                    8040,
                    8060
                ],
                "JFCBOMEEGIL": {
                    "y": 0.9800000190734863,
                    "z": 0.6100000143051147
                },
                "DOAEEJENGPF": {
                    "y": 1.100000023841858,
                    "z": -0.3799999952316284
                },
                "BIMPIKMCIHB": "",
                "MCAOJPLIJGI": ""
            }
        ],
        [
            {
                "$type": "KAGAFALAIGP",
                "type": "DIALOG",
                "aliasList": [
                    "9524"
                ],
                "actionId": 108,
                "JHEPJOMJJHH": 695240601,
                "OCILKFCPBNC": 0.5
            },
            {
                "$type": "LNLLGCOBDFC",
                "type": "EMO_SYNC",
                "aliasList": [
                    "9524"
                ],
                "actionId": 114,
                "LKHHGAGNMKM": "Cs_Emo_Avatar_Simple_Common_Set/Cs_Emo_Avatar_Talk/Cs_Emo_GCG/Cs_Emo_Avatar_Tighnari/Cs_Emo_695240601",
                "AIMKGPFAAAD": "",
                "IPEKOEDCGGF": "",
                "EJNFMNJKDAH": "",
                "LOOOCOLIHFA": "",
                "KJDLMAPPPMG": "",
                "EKJHPKFBONG": [
                    12822152974384565393,
                    6647432911919588174,
                    5632614716106107539,
                    3872313797730293784
                ]
            }
        ],
        [
            {
                "$type": "MoleMole.Config.ConfigTimeProtectAction",
                "type": "TIME_PROTECT",
                "duration": 0.10000000149011612,
                "actionId": 105
            }
        ]
    ],
    "groupId": [
        {
            "grpId": 987211897,
            "nextGrpId": 987211898
        },
        {
            "index": 1,
            "grpId": 987211898,
            "nextGrpId": 987211899
        },
        {
            "index": 2,
            "grpId": 987211899,
            "nextGrpId": 987211900
        }
    ],
    "freeStyleDic": {
        "9524": []
    }
}