{
    "luaDataPath": "",
    "entityBan": "",
    "disableNpcLod": true,
    "startFade": {
        "startFadeOutDuration": 0.0
    },
    "endFade": {
        "startFadeOutDuration": 0.0
    },
    "actors": [
        {
            "alias": "Avatar",
            "visible": true,
            "bornPointName": "",
            "relativePosNpcAlias": "",
            "bindMovingTargetKey": ""
        },
        {
            "configID": 30119,
            "alias": "30119",
            "visible": true,
            "bornPointName": "",
            "relativePosNpcAlias": "",
            "bindMovingTargetKey": ""
        },
        {
            "configID": 30118,
            "alias": "30118",
            "visible": true,
            "bornPointName": "",
            "relativePosNpcAlias": "",
            "bindMovingTargetKey": ""
        }
    ],
    "group": [
        [
            {
                "$type": "FNPNDPFBBDD",
                "type": "LOOK_AT",
                "aliasList": [
                    "Avatar"
                ],
                "NKGFDJDHOBD": true,
                "MNOPLOBEFLB": 0.5,
                "JBODIEHINII": "30119",
                "LPCACGGCDLI": "",
                "NNFPFPOJJOJ": ""
            },
            {
                "$type": "FNPNDPFBBDD",
                "type": "LOOK_AT",
                "aliasList": [
                    "30119"
                ],
                "NKGFDJDHOBD": true,
                "MNOPLOBEFLB": 0.5,
                "JBODIEHINII": "30118",
                "LPCACGGCDLI": "",
                "NNFPFPOJJOJ": ""
            },
            {
                "$type": "FNPNDPFBBDD",
                "type": "LOOK_AT",
                "aliasList": [
                    "30118"
                ],
                "NKGFDJDHOBD": true,
                "MNOPLOBEFLB": 0.5,
                "JBODIEHINII": "30119",
                "LPCACGGCDLI": "",
                "NNFPFPOJJOJ": ""
            },
            {
                "$type": "PBIGHFCHGCA",
                "type": "CAMERA_FOCUS",
                "duration": 0.5,
                "JBODIEHINII": "",
                "EJCHLMIMLBO": "",
                "BIMPIKMCIHB": "",
                "MCAOJPLIJGI": ""
            },
            {
                "$type": "MoleMole.Config.ConfigTimeProtectAction",
                "type": "TIME_PROTECT",
                "duration": 0.5
            },
            {
                "$type": "NFDDGDIKEAG",
                "type": "STEER_TO",
                "duration": 0.800000011920929,
                "aliasList": [
                    "Avatar"
                ],
                "GGJHILELIMO": "TO_TARGET_ADVANCED",
                "PKKKHNGDEEE": true,
                "LGDIOPOBMPH": true,
                "NBNJEKMFIDE": true,
                "JBODIEHINII": "30119",
                "NNFPFPOJJOJ": ""
            }
        ],
        [
            {
                "$type": "LNLLGCOBDFC",
                "type": "EMO_SYNC",
                "aliasList": [
                    "30119"
                ],
                "LKHHGAGNMKM": "Cs_Emo_Avatar_Simple_Common_Set/Cs_Emo_Avatar_Talk/Cs_Emo_Avatar_Event/Cs_Emo_Avatar_HaiDeng02/Cs_Emo_716580201",
                "AIMKGPFAAAD": "",
                "IPEKOEDCGGF": "",
                "EJNFMNJKDAH": "",
                "LOOOCOLIHFA": "",
                "KJDLMAPPPMG": "",
                "EKJHPKFBONG": [
                    7043987592722374012,
                    15046095180189255464,
                    2905513592025401229,
                    16636503947522855897
                ]
            },
            {
                "$type": "CENEPJCONAG",
                "type": "BODY_LANG",
                "aliasList": [
                    "30119"
                ],
                "OGFPAIKLDGB": 1060,
                "MHDCNDAINCK": true,
                "LHIAJOBFNAK": false,
                "FOEKGLEJBIJ": ""
            },
            {
                "$type": "KAGAFALAIGP",
                "type": "DIALOG",
                "aliasList": [
                    "30119"
                ],
                "JHEPJOMJJHH": 716580201,
                "OCILKFCPBNC": 0.5
            },
            {
                "$type": "CENEPJCONAG",
                "type": "BODY_LANG",
                "delayTime": 3.7320001125335693,
                "aliasList": [
                    "30119"
                ],
                "NNKEOHJCPOF": true,
                "MHDCNDAINCK": true,
                "LHIAJOBFNAK": false,
                "FOEKGLEJBIJ": ""
            },
            {
                "$type": "CENEPJCONAG",
                "type": "BODY_LANG",
                "delayTime": 6.699999809265137,
                "aliasList": [
                    "30119"
                ],
                "OGFPAIKLDGB": 1171,
                "MHDCNDAINCK": true,
                "LHIAJOBFNAK": false,
                "FOEKGLEJBIJ": ""
            }
        ],
        [
            {
                "$type": "CENEPJCONAG",
                "type": "BODY_LANG",
                "aliasList": [
                    "30118"
                ],
                "OGFPAIKLDGB": 1171,
                "MHDCNDAINCK": true,
                "LHIAJOBFNAK": false,
                "FOEKGLEJBIJ": ""
            },
            {
                "$type": "LNLLGCOBDFC",
                "type": "EMO_SYNC",
                "aliasList": [
                    "30118"
                ],
                "LKHHGAGNMKM": "Cs_Emo_Avatar_Simple_Common_Set/Cs_Emo_Avatar_Talk/Cs_Emo_Avatar_Event/Cs_Emo_Avatar_HaiDeng02/Cs_Emo_716580202",
                "AIMKGPFAAAD": "",
                "IPEKOEDCGGF": "",
                "EJNFMNJKDAH": "",
                "LOOOCOLIHFA": "",
                "KJDLMAPPPMG": "",
                "EKJHPKFBONG": [
                    5567710148247074913,
                    15834729893869589621,
                    4750472768684359543,
                    9831931137104960335
                ]
            },
            {
                "$type": "KAGAFALAIGP",
                "type": "DIALOG",
                "aliasList": [
                    "30118"
                ],
                "JHEPJOMJJHH": 716580202,
                "OCILKFCPBNC": 0.5
            },
            {
                "$type": "FNPNDPFBBDD",
                "type": "LOOK_AT",
                "aliasList": [
                    "Avatar"
                ],
                "NKGFDJDHOBD": true,
                "MNOPLOBEFLB": 0.5,
                "JBODIEHINII": "30118",
                "LPCACGGCDLI": "",
                "NNFPFPOJJOJ": ""
            },
            {
                "$type": "CENEPJCONAG",
                "type": "BODY_LANG",
                "aliasList": [
                    "30119"
                ],
                "NNKEOHJCPOF": true,
                "MHDCNDAINCK": true,
                "LHIAJOBFNAK": false,
                "FOEKGLEJBIJ": ""
            }
        ],
        [
            {
                "$type": "CENEPJCONAG",
                "type": "BODY_LANG",
                "aliasList": [
                    "30119"
                ],
                "NNKEOHJCPOF": true,
                "MHDCNDAINCK": true,
                "LHIAJOBFNAK": false,
                "FOEKGLEJBIJ": ""
            },
            {
                "$type": "LNLLGCOBDFC",
                "type": "EMO_SYNC",
                "aliasList": [
                    "30119"
                ],
                "LKHHGAGNMKM": "Cs_Emo_Avatar_Simple_Common_Set/Cs_Emo_Avatar_Talk/Cs_Emo_Avatar_Event/Cs_Emo_Avatar_HaiDeng02/Cs_Emo_716580203",
                "AIMKGPFAAAD": "",
                "IPEKOEDCGGF": "",
                "EJNFMNJKDAH": "",
                "LOOOCOLIHFA": "",
                "KJDLMAPPPMG": "",
                "HCOIDDGKHJC": false,
                "EKJHPKFBONG": [
                    17880360970418476301,
                    4992366902236142633,
                    15677124470967378007,
                    14929405195706291063
                ]
            },
            {
                "$type": "FNPNDPFBBDD",
                "type": "LOOK_AT",
                "aliasList": [
                    "Avatar"
                ],
                "NKGFDJDHOBD": true,
                "MNOPLOBEFLB": 0.5,
                "JBODIEHINII": "30119",
                "LPCACGGCDLI": "",
                "NNFPFPOJJOJ": ""
            },
            {
                "$type": "KAGAFALAIGP",
                "type": "DIALOG",
                "aliasList": [
                    "30119"
                ],
                "JHEPJOMJJHH": 716580203,
                "OCILKFCPBNC": 0.5
            },
            {
                "$type": "CENEPJCONAG",
                "type": "BODY_LANG",
                "delayTime": 0.5,
                "aliasList": [
                    "30119"
                ],
                "OGFPAIKLDGB": 1171,
                "MHDCNDAINCK": true,
                "LHIAJOBFNAK": false,
                "FOEKGLEJBIJ": ""
            },
            {
                "$type": "CENEPJCONAG",
                "type": "BODY_LANG",
                "delayTime": 4.249000072479248,
                "aliasList": [
                    "30119"
                ],
                "OGFPAIKLDGB": 1230,
                "MHDCNDAINCK": true,
                "LHIAJOBFNAK": false,
                "FOEKGLEJBIJ": ""
            }
        ],
        [
            {
                "$type": "LNLLGCOBDFC",
                "type": "EMO_SYNC",
                "aliasList": [
                    "30119"
                ],
                "LKHHGAGNMKM": "Cs_Emo_Avatar_Simple_Common_Set/Cs_Emo_Avatar_Talk/Cs_Emo_Avatar_Event/Cs_Emo_Avatar_HaiDeng02/Cs_Emo_716580204",
                "AIMKGPFAAAD": "",
                "IPEKOEDCGGF": "",
                "EJNFMNJKDAH": "",
                "LOOOCOLIHFA": "",
                "KJDLMAPPPMG": "",
                "EKJHPKFBONG": [
                    15242015537066392323,
                    2680417912081298498,
                    5115752337080314726,
                    2790931128035940170
                ]
            },
            {
                "$type": "CENEPJCONAG",
                "type": "BODY_LANG",
                "aliasList": [
                    "30119"
                ],
                "NNKEOHJCPOF": true,
                "MHDCNDAINCK": true,
                "LHIAJOBFNAK": false,
                "FOEKGLEJBIJ": ""
            },
            {
                "$type": "KAGAFALAIGP",
                "type": "DIALOG",
                "aliasList": [
                    "30119"
                ],
                "JHEPJOMJJHH": 716580204,
                "OCILKFCPBNC": 0.5
            },
            {
                "$type": "CENEPJCONAG",
                "type": "BODY_LANG",
                "delayTime": 1.465999960899353,
                "aliasList": [
                    "30119"
                ],
                "OGFPAIKLDGB": 1172,
                "MHDCNDAINCK": true,
                "LHIAJOBFNAK": false,
                "FOEKGLEJBIJ": ""
            }
        ],
        [
            {
                "$type": "CENEPJCONAG",
                "type": "BODY_LANG",
                "aliasList": [
                    "30118"
                ],
                "OGFPAIKLDGB": 1230,
                "MHDCNDAINCK": true,
                "LHIAJOBFNAK": false,
                "FOEKGLEJBIJ": ""
            },
            {
                "$type": "LNLLGCOBDFC",
                "type": "EMO_SYNC",
                "aliasList": [
                    "30118"
                ],
                "LKHHGAGNMKM": "Cs_Emo_Avatar_Simple_Common_Set/Cs_Emo_Avatar_Talk/Cs_Emo_Avatar_Event/Cs_Emo_Avatar_HaiDeng02/Cs_Emo_716580205",
                "AIMKGPFAAAD": "",
                "IPEKOEDCGGF": "",
                "EJNFMNJKDAH": "",
                "LOOOCOLIHFA": "",
                "KJDLMAPPPMG": "",
                "EKJHPKFBONG": [
                    136192229278303596,
                    9322097954987995427,
                    3293955683548149316,
                    770194921603843809
                ]
            },
            {
                "$type": "FNPNDPFBBDD",
                "type": "LOOK_AT",
                "aliasList": [
                    "Avatar"
                ],
                "NKGFDJDHOBD": true,
                "MNOPLOBEFLB": 0.5,
                "JBODIEHINII": "30118",
                "LPCACGGCDLI": "",
                "NNFPFPOJJOJ": ""
            },
            {
                "$type": "KAGAFALAIGP",
                "type": "DIALOG",
                "aliasList": [
                    "30118"
                ],
                "JHEPJOMJJHH": 716580205,
                "OCILKFCPBNC": 0.5
            }
        ],
        [
            {
                "$type": "CENEPJCONAG",
                "type": "BODY_LANG",
                "aliasList": [
                    "30119"
                ],
                "OGFPAIKLDGB": 1190,
                "MHDCNDAINCK": true,
                "LHIAJOBFNAK": false,
                "FOEKGLEJBIJ": ""
            },
            {
                "$type": "LNLLGCOBDFC",
                "type": "EMO_SYNC",
                "aliasList": [
                    "30119"
                ],
                "LKHHGAGNMKM": "Cs_Emo_Avatar_Simple_Common_Set/Cs_Emo_Avatar_Talk/Cs_Emo_Avatar_Event/Cs_Emo_Avatar_HaiDeng02/Cs_Emo_716580206",
                "AIMKGPFAAAD": "",
                "IPEKOEDCGGF": "",
                "EJNFMNJKDAH": "",
                "LOOOCOLIHFA": "",
                "KJDLMAPPPMG": "",
                "EKJHPKFBONG": [
                    2992709704539734467,
                    12600883252580057214,
                    5797368359270357377,
                    6587500202537422206
                ]
            },
            {
                "$type": "FNPNDPFBBDD",
                "type": "LOOK_AT",
                "aliasList": [
                    "Avatar"
                ],
                "NKGFDJDHOBD": true,
                "MNOPLOBEFLB": 0.5,
                "JBODIEHINII": "30119",
                "LPCACGGCDLI": "",
                "NNFPFPOJJOJ": ""
            },
            {
                "$type": "KAGAFALAIGP",
                "type": "DIALOG",
                "aliasList": [
                    "30119"
                ],
                "JHEPJOMJJHH": 716580206,
                "OCILKFCPBNC": 0.5
            },
            {
                "$type": "CENEPJCONAG",
                "type": "BODY_LANG",
                "delayTime": 2.743000030517578,
                "aliasList": [
                    "30119"
                ],
                "NNKEOHJCPOF": true,
                "MHDCNDAINCK": true,
                "LHIAJOBFNAK": false,
                "FOEKGLEJBIJ": ""
            }
        ],
        [
            {
                "$type": "CENEPJCONAG",
                "type": "BODY_LANG",
                "aliasList": [
                    "30118"
                ],
                "NNKEOHJCPOF": true,
                "MHDCNDAINCK": true,
                "LHIAJOBFNAK": false,
                "FOEKGLEJBIJ": ""
            },
            {
                "$type": "LNLLGCOBDFC",
                "type": "EMO_SYNC",
                "aliasList": [
                    "30118"
                ],
                "LKHHGAGNMKM": "Cs_Emo_Avatar_Simple_Common_Set/Cs_Emo_Avatar_Talk/Cs_Emo_Avatar_Event/Cs_Emo_Avatar_HaiDeng02/Cs_Emo_716580207",
                "AIMKGPFAAAD": "",
                "IPEKOEDCGGF": "",
                "EJNFMNJKDAH": "",
                "LOOOCOLIHFA": "",
                "KJDLMAPPPMG": "",
                "EKJHPKFBONG": [
                    9293006786347577106,
                    2954557764217120883,
                    7751318465933448361,
                    8625583409002896890
                ]
            },
            {
                "$type": "KAGAFALAIGP",
                "type": "DIALOG",
                "aliasList": [
                    "30118"
                ],
                "JHEPJOMJJHH": 716580207,
                "OCILKFCPBNC": 0.5
            },
            {
                "$type": "FNPNDPFBBDD",
                "type": "LOOK_AT",
                "aliasList": [
                    "Avatar"
                ],
                "NKGFDJDHOBD": true,
                "MNOPLOBEFLB": 0.5,
                "JBODIEHINII": "30118",
                "LPCACGGCDLI": "",
                "NNFPFPOJJOJ": ""
            },
            {
                "$type": "CENEPJCONAG",
                "type": "BODY_LANG",
                "aliasList": [
                    "30119"
                ],
                "NNKEOHJCPOF": true,
                "MHDCNDAINCK": true,
                "LHIAJOBFNAK": false,
                "FOEKGLEJBIJ": ""
            },
            {
                "$type": "CENEPJCONAG",
                "type": "BODY_LANG",
                "delayTime": 1.0390000343322754,
                "aliasList": [
                    "30118"
                ],
                "OGFPAIKLDGB": 1120,
                "MHDCNDAINCK": true,
                "LHIAJOBFNAK": false,
                "FOEKGLEJBIJ": ""
            }
        ],
        [
            {
                "$type": "CENEPJCONAG",
                "type": "BODY_LANG",
                "aliasList": [
                    "30118"
                ],
                "NNKEOHJCPOF": true,
                "MHDCNDAINCK": true,
                "LHIAJOBFNAK": false,
                "FOEKGLEJBIJ": ""
            },
            {
                "$type": "LNLLGCOBDFC",
                "type": "EMO_SYNC",
                "aliasList": [
                    "30118"
                ],
                "LKHHGAGNMKM": "Cs_Emo_Avatar_Simple_Common_Set/Cs_Emo_Avatar_Talk/Cs_Emo_Avatar_Event/Cs_Emo_Avatar_HaiDeng02/Cs_Emo_716580208",
                "AIMKGPFAAAD": "",
                "IPEKOEDCGGF": "",
                "EJNFMNJKDAH": "",
                "LOOOCOLIHFA": "",
                "KJDLMAPPPMG": "",
                "EKJHPKFBONG": [
                    9080206080800903013,
                    7710864150387391078,
                    13831016799719544910,
                    15187722281403403387
                ]
            },
            {
                "$type": "CENEPJCONAG",
                "type": "BODY_LANG",
                "aliasList": [
                    "30119"
                ],
                "NNKEOHJCPOF": true,
                "MHDCNDAINCK": true,
                "LHIAJOBFNAK": false,
                "FOEKGLEJBIJ": ""
            },
            {
                "$type": "KAGAFALAIGP",
                "type": "DIALOG",
                "aliasList": [
                    "30118"
                ],
                "JHEPJOMJJHH": 716580208,
                "OCILKFCPBNC": 0.5
            }
        ],
        [
            {
                "$type": "MoleMole.Config.ConfigTimeProtectAction",
                "type": "TIME_PROTECT",
                "duration": 0.10000000149011612
            }
        ]
    ],
    "groupId": [
        {
            "grpId": 3717588338,
            "nextGrpId": 3717588339
        },
        {
            "index": 1,
            "grpId": 3717588339,
            "nextGrpId": 3717588340
        },
        {
            "index": 2,
            "grpId": 3717588340,
            "nextGrpId": 3717588341
        },
        {
            "index": 3,
            "grpId": 3717588341,
            "nextGrpId": 3717588342
        },
        {
            "index": 4,
            "grpId": 3717588342,
            "nextGrpId": 3717588343
        },
        {
            "index": 5,
            "grpId": 3717588343,
            "nextGrpId": 3717588344
        },
        {
            "index": 6,
            "grpId": 3717588344,
            "nextGrpId": 3717588345
        },
        {
            "index": 7,
            "grpId": 3717588345,
            "nextGrpId": 3717588346
        },
        {
            "index": 8,
            "grpId": 3717588346,
            "nextGrpId": 3576088830
        },
        {
            "index": 9,
            "grpId": 3576088830,
            "nextGrpId": 3576088831
        }
    ],
    "freeStyleDic": {
        "30119": [
            1060,
            1171,
            1230,
            1172,
            1190
        ],
        "30118": [
            1171,
            1230,
            1120
        ]
    }
}