{
    "luaDataPath": "",
    "isSimpleTalk": true,
    "startBlackKeepTime": 1.0,
    "entityBan": "",
    "disableNpcLod": true,
    "startFade": {
        "startFadeInDuration": 0.5,
        "startFadeOutDuration": 0.5
    },
    "endFade": {
        "startFadeOutDuration": 0.0
    },
    "actors": [
        {
            "alias": "Avatar",
            "visible": true,
            "bornPointName": "WQ72157_Player",
            "relativePosNpcAlias": "",
            "bindMovingTargetKey": ""
        },
        {
            "configID": 3181,
            "alias": "3181",
            "visible": true,
            "bornPointName": "WQ72157_Dayou",
            "relativePosNpcAlias": "",
            "bindMovingTargetKey": ""
        },
        {
            "configID": 3180,
            "alias": "3180",
            "visible": true,
            "bornPointName": "WQ72157_Yuezi ",
            "relativePosNpcAlias": "",
            "bindMovingTargetKey": ""
        }
    ],
    "group": [
        [
            {
                "$type": "PBIGHFCHGCA",
                "type": "CAMERA_FOCUS",
                "delayTime": 0.30000001192092896,
                "duration": 0.10000000149011612,
                "JBODIEHINII": "",
                "EJCHLMIMLBO": "",
                "BIMPIKMCIHB": "",
                "MCAOJPLIJGI": ""
            },
            {
                "$type": "MoleMole.Config.ConfigTimeProtectAction",
                "type": "TIME_PROTECT",
                "duration": 0.4000000059604645
            }
        ],
        [
            {
                "$type": "KAGAFALAIGP",
                "type": "DIALOG",
                "aliasList": [
                    "3181"
                ],
                "JHEPJOMJJHH": 721570101,
                "OCILKFCPBNC": 0.5
            }
        ],
        [
            {
                "$type": "AAFOOOPNJLB",
                "type": "DIALOG_SELECT",
                "delayTime": 0.4000000059604645,
                "aliasList": [
                    "Avatar"
                ],
                "KFAEOBDAAME": [
                    721570103
                ],
                "ELPFMMBHOLF": [
                    3020576885
                ],
                "OEAAKJDIEFD": true
            },
            {
                "$type": "KAGAFALAIGP",
                "type": "DIALOG",
                "aliasList": [
                    "3180"
                ],
                "JHEPJOMJJHH": 721570102,
                "OCILKFCPBNC": 0.5
            }
        ],
        [
            {
                "$type": "KAGAFALAIGP",
                "type": "DIALOG",
                "aliasList": [
                    "3180"
                ],
                "JHEPJOMJJHH": 721570104,
                "OCILKFCPBNC": 0.5
            }
        ],
        [
            {
                "$type": "KAGAFALAIGP",
                "type": "DIALOG",
                "aliasList": [
                    "3181"
                ],
                "JHEPJOMJJHH": 721570105,
                "OCILKFCPBNC": 0.5
            }
        ],
        [
            {
                "$type": "KAGAFALAIGP",
                "type": "DIALOG",
                "aliasList": [
                    "3180"
                ],
                "JHEPJOMJJHH": 721570106,
                "OCILKFCPBNC": 0.5
            }
        ],
        [
            {
                "$type": "KAGAFALAIGP",
                "type": "DIALOG",
                "aliasList": [
                    "3181"
                ],
                "JHEPJOMJJHH": 721570107,
                "OCILKFCPBNC": 0.5
            }
        ],
        [
            {
                "$type": "KAGAFALAIGP",
                "type": "DIALOG",
                "aliasList": [
                    "3181"
                ],
                "JHEPJOMJJHH": 721570108,
                "OCILKFCPBNC": 0.5
            }
        ],
        [
            {
                "$type": "KAGAFALAIGP",
                "type": "DIALOG",
                "aliasList": [
                    "3180"
                ],
                "JHEPJOMJJHH": 721570109,
                "OCILKFCPBNC": 0.5
            }
        ],
        [
            {
                "$type": "KAGAFALAIGP",
                "type": "DIALOG",
                "aliasList": [
                    "3180"
                ],
                "JHEPJOMJJHH": 721570110,
                "OCILKFCPBNC": 0.5
            }
        ],
        [
            {
                "$type": "MoleMole.Config.ConfigTimeProtectAction",
                "type": "TIME_PROTECT",
                "duration": 0.10000000149011612
            }
        ]
    ],
    "groupId": [
        {
            "grpId": 3020576882,
            "nextGrpId": 3020576883
        },
        {
            "index": 1,
            "grpId": 3020576883,
            "nextGrpId": 3020576884
        },
        {
            "index": 2,
            "grpId": 3020576884,
            "nextGrpId": 3020576885
        },
        {
            "index": 3,
            "grpId": 3020576885,
            "nextGrpId": 3020576886
        },
        {
            "index": 4,
            "grpId": 3020576886,
            "nextGrpId": 3020576887
        },
        {
            "index": 5,
            "grpId": 3020576887,
            "nextGrpId": 3020576888
        },
        {
            "index": 6,
            "grpId": 3020576888,
            "nextGrpId": 3020576889
        },
        {
            "index": 7,
            "grpId": 3020576889,
            "nextGrpId": 3020576890
        },
        {
            "index": 8,
            "grpId": 3020576890,
            "nextGrpId": 3443570174
        },
        {
            "index": 9,
            "grpId": 3443570174,
            "nextGrpId": 3443570175
        },
        {
            "index": 10,
            "grpId": 3443570175,
            "nextGrpId": 3443570176
        }
    ],
    "freeStyleDic": {
        "3181": [],
        "3180": []
    }
}