{
    "luaDataPath": "",
    "startBlackKeepTime": 1.0,
    "entityBan": "",
    "disableNpcLod": true,
    "EKDGNGHMECG": true,
    "GMFELEKFHNC": 1,
    "startFade": {
        "startFadeInDuration": 0.5,
        "startFadeOutDuration": 0.5
    },
    "endFade": {
        "startFadeOutDuration": 0.0
    },
    "actors": [
        {
            "alias": "Avatar",
            "visible": true,
            "bornPointName": "Q1916103_N10000005",
            "relativePosType": "AVATAR_NEW",
            "relativePosNpcAlias": "",
            "bindMovingTargetKey": ""
        },
        {
            "configID": 512,
            "alias": "512",
            "visible": true,
            "bornPointName": "Q1916103_331500070",
            "relativePosType": "AVATAR_NEW",
            "relativePosNpcAlias": "",
            "bindMovingTargetKey": ""
        }
    ],
    "group": [
        [
            {
                "$type": "MoleMole.Config.ConfigSimpleBlackScreenAction",
                "type": "SIMPLE_BLACK_SCREEN",
                "actionId": 119,
                "durationToBlack": 0.5,
                "durationKeepBlack": 1.0,
                "durationFromBlack": 0.5,
                "textMapID": "",
                "useTextFade": true
            },
            {
                "$type": "MoleMole.Config.ConfigTimeProtectAction",
                "type": "TIME_PROTECT",
                "duration": 0.5,
                "actionId": 120
            },
            {
                "$type": "MoleMole.Config.ConfigTeleportToAction",
                "type": "TELEPORT_TO",
                "aliasList": [
                    "512"
                ],
                "actionId": 124,
                "position": {
                    "x": 78.58799743652344,
                    "y": 246.6929931640625,
                    "z": 2851.79296875
                },
                "forward": {
                    "x": -0.35199999809265137,
                    "z": -0.9700000286102295
                },
                "openLongDisTeleport": true,
                "posBindMovingTargetKey": "",
                "forwardBindMovingTargetKey": ""
            },
            {
                "$type": "FNPNDPFBBDD",
                "type": "LOOK_AT",
                "delayTime": 0.1420000046491623,
                "aliasList": [
                    "512"
                ],
                "actionId": 125,
                "MNOPLOBEFLB": 0.5,
                "JBODIEHINII": "",
                "MDNPCOHCCLM": true,
                "LPCACGGCDLI": "",
                "NNFPFPOJJOJ": ""
            },
            {
                "$type": "MoleMole.Config.ConfigEmotionTemplateAction",
                "type": "EMOTION_TEMPLATE",
                "delayTime": 0.1589999943971634,
                "aliasList": [
                    "512"
                ],
                "actionId": 115,
                "emoTemplateID": 10100
            },
            {
                "$type": "FNPNDPFBBDD",
                "type": "LOOK_AT",
                "delayTime": 0.20800000429153442,
                "aliasList": [
                    "Avatar"
                ],
                "actionId": 127,
                "MNOPLOBEFLB": 0.5,
                "JBODIEHINII": "",
                "MDNPCOHCCLM": true,
                "LPCACGGCDLI": "",
                "NNFPFPOJJOJ": ""
            },
            {
                "$type": "MoleMole.Config.ConfigCameraDOFAction",
                "type": "CAMERA_DOF",
                "delayTime": 0.30000001192092896,
                "actionId": 103,
                "focusDistance": 6.0,
                "focusRange": 6.0,
                "quality": 3
            },
            {
                "$type": "MoleMole.Config.ConfigVisibleInterAction",
                "type": "VISIBLE",
                "delayTime": 0.30000001192092896,
                "aliasList": [
                    "Avatar"
                ],
                "actionId": 106,
                "extraParam": ""
            }
        ],
        [
            {
                "$type": "PBIGHFCHGCA",
                "type": "CAMERA_MOVE",
                "duration": 1.0,
                "actionId": 114,
                "CGCNCKNJOFB": "RELATIVE_TO_TARGET_ENTITY",
                "JOBAHIHHJIB": "RELATIVE_TO_TARGET_ENTITY",
                "NJCBGNHGINI": 30.0,
                "FNMFGIOLKBE": 6,
                "NECGMADJICG": "EaseInOutCubic",
                "BMHIHPIKAHM": {},
                "HGGPLEMCNNG": false,
                "JBODIEHINII": "512",
                "PHDIKPKLFIA": true,
                "EJCHLMIMLBO": "",
                "BIMPIKMCIHB": "",
                "MCAOJPLIJGI": ""
            },
            {
                "$type": "MoleMole.Config.ConfigEmotionTemplateAction",
                "type": "EMOTION_TEMPLATE",
                "aliasList": [
                    "512"
                ],
                "actionId": 116,
                "emoTemplateID": 10100
            },
            {
                "$type": "KAGAFALAIGP",
                "type": "DIALOG",
                "delayTime": 0.8999999761581421,
                "aliasList": [
                    "512"
                ],
                "actionId": 109,
                "JHEPJOMJJHH": 191610301,
                "OCILKFCPBNC": 0.5
            },
            {
                "$type": "LNLLGCOBDFC",
                "type": "EMO_SYNC",
                "delayTime": 0.8999999761581421,
                "aliasList": [
                    "512"
                ],
                "actionId": 121,
                "LKHHGAGNMKM": "Cs_Emo_Avatar_Simple_Common_Set/Cs_Emo_Avatar_Talk/Cs_Emo_Coop_Common/Cs_Emo_Coop_Layla_01/Cs_Emo_191610301",
                "AIMKGPFAAAD": "",
                "IPEKOEDCGGF": "",
                "EJNFMNJKDAH": "",
                "LOOOCOLIHFA": "",
                "KJDLMAPPPMG": "",
                "EKJHPKFBONG": [
                    17546052870020971623,
                    7656101731940560445,
                    9305686708272477686,
                    3417597345928264124
                ]
            }
        ],
        [
            {
                "$type": "KAGAFALAIGP",
                "type": "DIALOG",
                "aliasList": [
                    "512"
                ],
                "actionId": 111,
                "JHEPJOMJJHH": 191610302,
                "OCILKFCPBNC": 0.5
            },
            {
                "$type": "MoleMole.Config.ConfigEmotionTemplateAction",
                "type": "EMOTION_TEMPLATE",
                "aliasList": [
                    "512"
                ],
                "actionId": 117,
                "emoTemplateID": 10101
            },
            {
                "$type": "LNLLGCOBDFC",
                "type": "EMO_SYNC",
                "aliasList": [
                    "512"
                ],
                "actionId": 122,
                "LKHHGAGNMKM": "Cs_Emo_Avatar_Simple_Common_Set/Cs_Emo_Avatar_Talk/Cs_Emo_Coop_Common/Cs_Emo_Coop_Layla_01/Cs_Emo_191610302",
                "AIMKGPFAAAD": "",
                "IPEKOEDCGGF": "",
                "EJNFMNJKDAH": "",
                "LOOOCOLIHFA": "",
                "KJDLMAPPPMG": "",
                "EKJHPKFBONG": [
                    15177039515598493148,
                    2732279601395280354,
                    12608296111001709138,
                    13190614726955585302
                ]
            }
        ],
        [
            {
                "$type": "KAGAFALAIGP",
                "type": "DIALOG",
                "aliasList": [
                    "512"
                ],
                "actionId": 113,
                "JHEPJOMJJHH": 191610303,
                "OCILKFCPBNC": 0.5
            },
            {
                "$type": "LNLLGCOBDFC",
                "type": "EMO_SYNC",
                "aliasList": [
                    "512"
                ],
                "actionId": 123,
                "LKHHGAGNMKM": "Cs_Emo_Avatar_Simple_Common_Set/Cs_Emo_Avatar_Talk/Cs_Emo_Coop_Common/Cs_Emo_Coop_Layla_01/Cs_Emo_191610303",
                "AIMKGPFAAAD": "",
                "IPEKOEDCGGF": "",
                "EJNFMNJKDAH": "",
                "LOOOCOLIHFA": "",
                "KJDLMAPPPMG": "",
                "EKJHPKFBONG": [
                    17888761842238107668,
                    17349569706925559288,
                    15123402993104172055,
                    5720179099866522488
                ]
            }
        ],
        [
            {
                "$type": "MoleMole.Config.ConfigSimpleBlackScreenAction",
                "type": "SIMPLE_BLACK_SCREEN",
                "actionId": 104,
                "durationToBlack": 0.5,
                "durationKeepBlack": 2.0,
                "durationFromBlack": 0.5,
                "textMapID": ""
            },
            {
                "$type": "KAGAFALAIGP",
                "type": "DIALOG_CLEAR",
                "actionId": 105
            },
            {
                "$type": "PBIGHFCHGCA",
                "type": "CAMERA_MOVE",
                "delayTime": 0.6000000238418579,
                "duration": 0.10000000149011612,
                "actionId": 128,
                "CGCNCKNJOFB": "EXIT",
                "KCFKJMMEECM": {
                    "x": 74.76300048828125,
                    "y": 250.98699951171875,
                    "z": 2839.988037109375
                },
                "JOBAHIHHJIB": "Other",
                "DLGJEHNPMFN": {
                    "x": 18.04800033569336,
                    "y": 17.906999588012695
                },
                "FNMFGIOLKBE": 5,
                "NECGMADJICG": "EaseInOutCubic",
                "BMHIHPIKAHM": {},
                "MMJMMAEAJOA": true,
                "HGGPLEMCNNG": false,
                "JBODIEHINII": "",
                "PHDIKPKLFIA": true,
                "EJCHLMIMLBO": "",
                "BIMPIKMCIHB": "",
                "MCAOJPLIJGI": ""
            },
            {
                "$type": "MoleMole.Config.ConfigVisibleInterAction",
                "type": "VISIBLE",
                "delayTime": 0.6000000238418579,
                "aliasList": [
                    "Avatar"
                ],
                "actionId": 107,
                "isVisible": true,
                "extraParam": ""
            }
        ]
    ],
    "groupId": [
        {
            "grpId": 2386529299,
            "nextGrpId": 2386529300
        },
        {
            "index": 1,
            "grpId": 2386529300,
            "nextGrpId": 2386529301
        },
        {
            "index": 2,
            "grpId": 2386529301,
            "nextGrpId": 2386529302
        },
        {
            "index": 3,
            "grpId": 2386529302,
            "nextGrpId": 2386529303
        },
        {
            "index": 4,
            "grpId": 2386529303,
            "nextGrpId": 2386529304
        }
    ],
    "freeStyleDic": {
        "512": [
            10100,
            10101
        ]
    }
}