{
    "luaDataPath": "",
    "entityBan": "",
    "disableNpcLod": true,
    "startFade": {
        "startFadeOutDuration": 0.0
    },
    "endFade": {
        "startFadeOutDuration": 0.0
    },
    "actors": [
        {
            "alias": "Avatar",
            "visible": true,
            "bornPointName": "",
            "relativePosNpcAlias": "",
            "bindMovingTargetKey": ""
        },
        {
            "configID": 1005,
            "alias": "1005",
            "bornPointName": "",
            "useRelativePos": true,
            "relativePos": {
                "x": -0.5,
                "z": 0.10000000149011612
            },
            "removeActorType": "REMOVE_WITH_DISAPPEAR",
            "relativePosNpcAlias": "",
            "bindMovingTargetKey": ""
        }
    ],
    "group": [
        [
            {
                "$type": "PBIGHFCHGCA",
                "type": "CAMERA_FOCUS",
                "duration": 0.10000000149011612,
                "JBODIEHINII": "",
                "EJCHLMIMLBO": "",
                "BIMPIKMCIHB": "",
                "MCAOJPLIJGI": ""
            },
            {
                "$type": "MoleMole.Config.ConfigTimeProtectAction",
                "type": "TIME_PROTECT",
                "duration": 0.10000000149011612
            },
            {
                "$type": "FNPNDPFBBDD",
                "type": "LOOK_AT",
                "aliasList": [
                    "Avatar"
                ],
                "NKGFDJDHOBD": true,
                "useTargetPos": true,
                "LBJHJADMNBD": true,
                "CLEBINJAOLM": {
                    "x": 2236.47998046875,
                    "y": 214.85000610351562
                },
                "EKIONHAEIBG": {
                    "x": 2236.47998046875,
                    "y": 214.85000610351562,
                    "z": -905.780029296875
                },
                "OCIADBJCDPC": {
                    "x": 2236.47998046875,
                    "y": 214.85000610351562,
                    "z": -905.780029296875
                },
                "MNOPLOBEFLB": 0.5,
                "JBODIEHINII": "",
                "LPCACGGCDLI": "",
                "NNFPFPOJJOJ": ""
            },
            {
                "$type": "FNPNDPFBBDD",
                "type": "LOOK_AT",
                "aliasList": [
                    "1005"
                ],
                "NKGFDJDHOBD": true,
                "useTargetPos": true,
                "LBJHJADMNBD": true,
                "CLEBINJAOLM": {
                    "x": 2236.47998046875,
                    "y": 214.85000610351562
                },
                "EKIONHAEIBG": {
                    "x": 2236.47998046875,
                    "y": 214.85000610351562,
                    "z": -905.780029296875
                },
                "OCIADBJCDPC": {
                    "x": 2236.47998046875,
                    "y": 214.85000610351562,
                    "z": -905.780029296875
                },
                "MNOPLOBEFLB": 0.5,
                "JBODIEHINII": "",
                "LPCACGGCDLI": "",
                "NNFPFPOJJOJ": ""
            }
        ],
        [
            {
                "$type": "AAFOOOPNJLB",
                "type": "DIALOG_SELECT",
                "delayTime": 0.4000000059604645,
                "aliasList": [
                    "Avatar"
                ],
                "KFAEOBDAAME": [
                    700080902,
                    700080903,
                    700080904,
                    700080905,
                    700080906,
                    700080907
                ],
                "ELPFMMBHOLF": [
                    1883111788,
                    1883111788,
                    1883111788,
                    1883111788,
                    1883111787,
                    1883111788
                ],
                "OEAAKJDIEFD": true
            },
            {
                "$type": "KAGAFALAIGP",
                "type": "DIALOG",
                "aliasList": [
                    "1005"
                ],
                "JHEPJOMJJHH": 700080901,
                "OCILKFCPBNC": 0.5
            },
            {
                "$type": "CENEPJCONAG",
                "type": "BODY_LANG",
                "aliasList": [
                    "1005"
                ],
                "OGFPAIKLDGB": 1260,
                "MHDCNDAINCK": true,
                "FOEKGLEJBIJ": ""
            }
        ],
        [
            {
                "$type": "MoleMole.Config.ConfigLuaAction",
                "type": "LUA_ACTION",
                "duration": 0.10000000149011612,
                "invoke": true,
                "invokeAlias": "70008",
                "invokeParam": 11
            },
            {
                "$type": "MoleMole.Config.ConfigTimeProtectAction",
                "type": "TIME_PROTECT",
                "duration": 0.10000000149011612
            }
        ],
        [
            {
                "$type": "MoleMole.Config.ConfigTimeProtectAction",
                "type": "TIME_PROTECT",
                "duration": 0.10000000149011612
            }
        ],
        [
            {
                "$type": "AAFOOOPNJLB",
                "type": "DIALOG_SELECT",
                "delayTime": 0.4000000059604645,
                "aliasList": [
                    "Avatar"
                ],
                "KFAEOBDAAME": [
                    700080902,
                    700080903,
                    700080904,
                    700080905,
                    700080906,
                    700080907
                ],
                "ELPFMMBHOLF": [
                    1883111791,
                    1883111791,
                    1883111790,
                    1883111791,
                    1883111791,
                    1883111791
                ],
                "OEAAKJDIEFD": true
            },
            {
                "$type": "KAGAFALAIGP",
                "type": "DIALOG",
                "aliasList": [
                    "1005"
                ],
                "JHEPJOMJJHH": 700080908,
                "OCILKFCPBNC": 0.5
            },
            {
                "$type": "CENEPJCONAG",
                "type": "BODY_LANG",
                "aliasList": [
                    "1005"
                ],
                "OGFPAIKLDGB": 1190,
                "MHDCNDAINCK": true,
                "FOEKGLEJBIJ": ""
            }
        ],
        [
            {
                "$type": "MoleMole.Config.ConfigLuaAction",
                "type": "LUA_ACTION",
                "duration": 0.10000000149011612,
                "invoke": true,
                "invokeAlias": "70008",
                "invokeParam": 12
            },
            {
                "$type": "MoleMole.Config.ConfigTimeProtectAction",
                "type": "TIME_PROTECT",
                "duration": 0.10000000149011612
            }
        ],
        [
            {
                "$type": "MoleMole.Config.ConfigTimeProtectAction",
                "type": "TIME_PROTECT",
                "duration": 0.10000000149011612
            }
        ],
        [
            {
                "$type": "AAFOOOPNJLB",
                "type": "DIALOG_SELECT",
                "delayTime": 0.4000000059604645,
                "aliasList": [
                    "Avatar"
                ],
                "KFAEOBDAAME": [
                    700080902,
                    700080903,
                    700080904,
                    700080905,
                    700080906,
                    700080907
                ],
                "ELPFMMBHOLF": [
                    2541890535,
                    2541890535,
                    2541890535,
                    1883111793,
                    2541890535,
                    2541890535
                ],
                "OEAAKJDIEFD": true
            },
            {
                "$type": "KAGAFALAIGP",
                "type": "DIALOG",
                "aliasList": [
                    "1005"
                ],
                "JHEPJOMJJHH": 700080915,
                "OCILKFCPBNC": 0.5
            },
            {
                "$type": "CENEPJCONAG",
                "type": "BODY_LANG",
                "aliasList": [
                    "1005"
                ],
                "OGFPAIKLDGB": 1180,
                "MHDCNDAINCK": true,
                "FOEKGLEJBIJ": ""
            }
        ],
        [
            {
                "$type": "MoleMole.Config.ConfigLuaAction",
                "type": "LUA_ACTION",
                "duration": 0.10000000149011612,
                "invoke": true,
                "invokeAlias": "70008",
                "invokeParam": 13
            },
            {
                "$type": "MoleMole.Config.ConfigTimeProtectAction",
                "type": "TIME_PROTECT",
                "duration": 0.10000000149011612
            }
        ],
        [
            {
                "$type": "MoleMole.Config.ConfigTimeProtectAction",
                "type": "TIME_PROTECT",
                "duration": 0.10000000149011612
            }
        ],
        [
            {
                "$type": "AAFOOOPNJLB",
                "type": "DIALOG_SELECT",
                "delayTime": 0.4000000059604645,
                "aliasList": [
                    "Avatar"
                ],
                "KFAEOBDAAME": [
                    700080902,
                    700080903,
                    700080904,
                    700080905,
                    700080906,
                    700080907
                ],
                "ELPFMMBHOLF": [
                    2541890537,
                    2541890538,
                    2541890538,
                    2541890538,
                    2541890538,
                    2541890538
                ],
                "OEAAKJDIEFD": true
            },
            {
                "$type": "KAGAFALAIGP",
                "type": "DIALOG",
                "aliasList": [
                    "1005"
                ],
                "JHEPJOMJJHH": 700080922,
                "OCILKFCPBNC": 0.5
            },
            {
                "$type": "CENEPJCONAG",
                "type": "BODY_LANG",
                "aliasList": [
                    "1005"
                ],
                "OGFPAIKLDGB": 1060,
                "MHDCNDAINCK": true,
                "FOEKGLEJBIJ": ""
            }
        ],
        [
            {
                "$type": "MoleMole.Config.ConfigLuaAction",
                "type": "LUA_ACTION",
                "duration": 0.10000000149011612,
                "invoke": true,
                "invokeAlias": "70008",
                "invokeParam": 14
            },
            {
                "$type": "MoleMole.Config.ConfigTimeProtectAction",
                "type": "TIME_PROTECT",
                "duration": 0.10000000149011612
            }
        ],
        [
            {
                "$type": "MoleMole.Config.ConfigTimeProtectAction",
                "type": "TIME_PROTECT",
                "duration": 0.10000000149011612
            }
        ],
        [
            {
                "$type": "AAFOOOPNJLB",
                "type": "DIALOG_SELECT",
                "delayTime": 0.4000000059604645,
                "aliasList": [
                    "Avatar"
                ],
                "KFAEOBDAAME": [
                    700080902,
                    700080903,
                    700080904,
                    700080905,
                    700080906,
                    700080907
                ],
                "ELPFMMBHOLF": [
                    2541890541,
                    2541890541,
                    2541890541,
                    2541890541,
                    2541890541,
                    2541890540
                ],
                "OEAAKJDIEFD": true
            },
            {
                "$type": "KAGAFALAIGP",
                "type": "DIALOG",
                "aliasList": [
                    "1005"
                ],
                "JHEPJOMJJHH": 700080929,
                "OCILKFCPBNC": 0.5
            },
            {
                "$type": "CENEPJCONAG",
                "type": "BODY_LANG",
                "aliasList": [
                    "1005"
                ],
                "OGFPAIKLDGB": 1170,
                "MHDCNDAINCK": true,
                "FOEKGLEJBIJ": ""
            }
        ],
        [
            {
                "$type": "MoleMole.Config.ConfigLuaAction",
                "type": "LUA_ACTION",
                "duration": 0.10000000149011612,
                "invoke": true,
                "invokeAlias": "70008",
                "invokeParam": 15
            },
            {
                "$type": "MoleMole.Config.ConfigTimeProtectAction",
                "type": "TIME_PROTECT",
                "duration": 0.10000000149011612
            }
        ],
        [
            {
                "$type": "MoleMole.Config.ConfigTimeProtectAction",
                "type": "TIME_PROTECT",
                "duration": 0.10000000149011612
            }
        ],
        [
            {
                "$type": "AAFOOOPNJLB",
                "type": "DIALOG_SELECT",
                "delayTime": 0.4000000059604645,
                "aliasList": [
                    "Avatar"
                ],
                "KFAEOBDAAME": [
                    700080902,
                    700080903,
                    700080904,
                    700080905,
                    700080906,
                    700080907
                ],
                "ELPFMMBHOLF": [
                    2541890544,
                    2541890543,
                    2541890544,
                    2541890544,
                    2541890544,
                    2541890544
                ],
                "OEAAKJDIEFD": true
            },
            {
                "$type": "KAGAFALAIGP",
                "type": "DIALOG",
                "aliasList": [
                    "1005"
                ],
                "JHEPJOMJJHH": 700080936,
                "OCILKFCPBNC": 0.5
            },
            {
                "$type": "CENEPJCONAG",
                "type": "BODY_LANG",
                "aliasList": [
                    "1005"
                ],
                "OGFPAIKLDGB": 1230,
                "MHDCNDAINCK": true,
                "FOEKGLEJBIJ": ""
            }
        ],
        [
            {
                "$type": "MoleMole.Config.ConfigLuaAction",
                "type": "LUA_ACTION",
                "duration": 0.10000000149011612,
                "invoke": true,
                "invokeAlias": "70008",
                "invokeParam": 16
            },
            {
                "$type": "MoleMole.Config.ConfigTimeProtectAction",
                "type": "TIME_PROTECT",
                "duration": 0.10000000149011612
            }
        ],
        [
            {
                "$type": "MoleMole.Config.ConfigLuaAction",
                "type": "LUA_ACTION",
                "duration": 0.10000000149011612,
                "invoke": true,
                "invokeAlias": "70008",
                "invokeParam": 17
            },
            {
                "$type": "MoleMole.Config.ConfigTimeProtectAction",
                "type": "TIME_PROTECT",
                "duration": 0.10000000149011612
            }
        ],
        [
            {
                "$type": "KAGAFALAIGP",
                "type": "DIALOG",
                "aliasList": [
                    "1005"
                ],
                "JHEPJOMJJHH": 700080943,
                "OCILKFCPBNC": 0.5
            },
            {
                "$type": "CENEPJCONAG",
                "type": "BODY_LANG",
                "aliasList": [
                    "1005"
                ],
                "OGFPAIKLDGB": 1250,
                "MHDCNDAINCK": true,
                "FOEKGLEJBIJ": ""
            }
        ],
        [
            {
                "$type": "MoleMole.Config.ConfigTimeProtectAction",
                "type": "TIME_PROTECT",
                "duration": 0.10000000149011612
            }
        ]
    ],
    "groupId": [
        {
            "grpId": 1883111785,
            "nextGrpId": 1883111786
        },
        {
            "index": 1,
            "grpId": 1883111786,
            "nextGrpId": 1883111787
        },
        {
            "index": 2,
            "grpId": 1883111787,
            "nextGrpId": 1883111789
        },
        {
            "index": 3,
            "grpId": 1883111788,
            "nextGrpId": 1883111789
        },
        {
            "index": 4,
            "grpId": 1883111789,
            "nextGrpId": 1883111790
        },
        {
            "index": 5,
            "grpId": 1883111790,
            "nextGrpId": 1883111792
        },
        {
            "index": 6,
            "grpId": 1883111791,
            "nextGrpId": 1883111792
        },
        {
            "index": 7,
            "grpId": 1883111792,
            "nextGrpId": 1883111793
        },
        {
            "index": 8,
            "grpId": 1883111793,
            "nextGrpId": 2541890536
        },
        {
            "index": 9,
            "grpId": 2541890535,
            "nextGrpId": 2541890536
        },
        {
            "index": 10,
            "grpId": 2541890536,
            "nextGrpId": 2541890537
        },
        {
            "index": 11,
            "grpId": 2541890537,
            "nextGrpId": 2541890539
        },
        {
            "index": 12,
            "grpId": 2541890538,
            "nextGrpId": 2541890539
        },
        {
            "index": 13,
            "grpId": 2541890539,
            "nextGrpId": 2541890540
        },
        {
            "index": 14,
            "grpId": 2541890540,
            "nextGrpId": 2541890542
        },
        {
            "index": 15,
            "grpId": 2541890541,
            "nextGrpId": 2541890542
        },
        {
            "index": 16,
            "grpId": 2541890542,
            "nextGrpId": 2541890543
        },
        {
            "index": 17,
            "grpId": 2541890543,
            "nextGrpId": 2541890566
        },
        {
            "index": 18,
            "grpId": 2541890544,
            "nextGrpId": 2541890566
        },
        {
            "index": 19,
            "grpId": 2541890566,
            "nextGrpId": 2541890567
        },
        {
            "index": 20,
            "grpId": 2541890567,
            "nextGrpId": 2541890568
        }
    ]
}