{
    "luaDataPath": "",
    "isSimpleTalk": true,
    "entityBan": "",
    "disableNpcLod": true,
    "EKDGNGHMECG": true,
    "GMFELEKFHNC": 5,
    "startFade": {
        "startFadeOutDuration": 0.0
    },
    "endFade": {
        "startFadeOutDuration": 0.0
    },
    "actors": [
        {
            "alias": "Avatar",
            "visible": true,
            "bornPointName": "",
            "relativePosType": "AVATAR_NEW",
            "relativePosNpcAlias": "",
            "bindMovingTargetKey": ""
        },
        {
            "configID": 5140,
            "alias": "5140",
            "visible": true,
            "bornPointName": "",
            "forceCreateDaily": true,
            "relativePosType": "AVATAR_NEW",
            "relativePosNpcAlias": "",
            "bindMovingTargetKey": ""
        }
    ],
    "group": [
        [
            {
                "$type": "PBIGHFCHGCA",
                "type": "CAMERA_FOCUS",
                "duration": 0.10000000149011612,
                "actionId": 103,
                "JBODIEHINII": "",
                "EJCHLMIMLBO": "",
                "BIMPIKMCIHB": "",
                "MCAOJPLIJGI": ""
            },
            {
                "$type": "MoleMole.Config.ConfigTimeProtectAction",
                "type": "TIME_PROTECT",
                "duration": 0.10000000149011612,
                "actionId": 104
            },
            {
                "$type": "NFDDGDIKEAG",
                "type": "STEER_TO",
                "delayTime": 0.30000001192092896,
                "duration": 0.800000011920929,
                "aliasList": [
                    "Avatar"
                ],
                "actionId": 121,
                "flag": 32,
                "GGJHILELIMO": "TO_TARGET_ADVANCED",
                "PKKKHNGDEEE": true,
                "LGDIOPOBMPH": true,
                "NBNJEKMFIDE": true,
                "JBODIEHINII": "5140",
                "OJJKHFPNNKJ": true,
                "NNFPFPOJJOJ": ""
            },
            {
                "$type": "NFDDGDIKEAG",
                "type": "STEER_TO",
                "delayTime": 0.30000001192092896,
                "duration": 0.800000011920929,
                "aliasList": [
                    "5140"
                ],
                "actionId": 122,
                "flag": 32,
                "GGJHILELIMO": "TO_LOCAL_AVATAR_ADVANCED",
                "PKKKHNGDEEE": true,
                "LGDIOPOBMPH": true,
                "NBNJEKMFIDE": true,
                "JBODIEHINII": "",
                "OJJKHFPNNKJ": true,
                "NNFPFPOJJOJ": ""
            }
        ],
        [
            {
                "$type": "KAGAFALAIGP",
                "type": "DIALOG",
                "aliasList": [
                    "5140"
                ],
                "actionId": 107,
                "JHEPJOMJJHH": 240090801,
                "OCILKFCPBNC": 0.5
            },
            {
                "$type": "AAFOOOPNJLB",
                "type": "DIALOG_SELECT",
                "delayTime": 0.4000000059604645,
                "aliasList": [
                    "Avatar"
                ],
                "actionId": 108,
                "KFAEOBDAAME": [
                    240090802
                ],
                "ELPFMMBHOLF": [
                    1411802636
                ],
                "OEAAKJDIEFD": true,
                "ONFBGDHPCEO": 1411802633
            }
        ],
        [
            {
                "$type": "KAGAFALAIGP",
                "type": "DIALOG",
                "aliasList": [
                    "5140"
                ],
                "actionId": 110,
                "JHEPJOMJJHH": 240090803,
                "OCILKFCPBNC": 0.5
            }
        ],
        [
            {
                "$type": "KAGAFALAIGP",
                "type": "DIALOG",
                "aliasList": [
                    "5140"
                ],
                "actionId": 112,
                "JHEPJOMJJHH": 240090804,
                "OCILKFCPBNC": 0.5
            }
        ],
        [
            {
                "$type": "KAGAFALAIGP",
                "type": "DIALOG",
                "aliasList": [
                    "5140"
                ],
                "actionId": 114,
                "JHEPJOMJJHH": 240090805,
                "OCILKFCPBNC": 0.5
            }
        ],
        [
            {
                "$type": "KAGAFALAIGP",
                "type": "DIALOG",
                "aliasList": [
                    "5140"
                ],
                "actionId": 116,
                "JHEPJOMJJHH": 240090806,
                "OCILKFCPBNC": 0.5
            }
        ],
        [
            {
                "$type": "KAGAFALAIGP",
                "type": "DIALOG",
                "aliasList": [
                    "5140"
                ],
                "actionId": 118,
                "JHEPJOMJJHH": 240090807,
                "OCILKFCPBNC": 0.5
            }
        ],
        [
            {
                "$type": "KAGAFALAIGP",
                "type": "DIALOG",
                "aliasList": [
                    "5140"
                ],
                "actionId": 120,
                "JHEPJOMJJHH": 240090808,
                "OCILKFCPBNC": 0.5
            }
        ],
        [
            {
                "$type": "MoleMole.Config.ConfigTimeProtectAction",
                "type": "TIME_PROTECT",
                "duration": 0.10000000149011612,
                "actionId": 105
            },
            {
                "$type": "NFDDGDIKEAG",
                "type": "STEER_TO",
                "duration": 1.0,
                "aliasList": [
                    "5140"
                ],
                "actionId": 123,
                "flag": 32,
                "GGJHILELIMO": "RETURN",
                "PKKKHNGDEEE": true,
                "LGDIOPOBMPH": true,
                "NBNJEKMFIDE": true,
                "JBODIEHINII": "",
                "DMPFMDNFEHA": true,
                "OJJKHFPNNKJ": true,
                "NNFPFPOJJOJ": ""
            },
            {
                "$type": "MoleMole.Config.ConfigBlackScreenAction",
                "type": "BLACK_SCREEN",
                "delayTime": 0.5,
                "duration": 0.5,
                "aliasList": [
                    "5140"
                ],
                "actionId": 125,
                "blackScreenType": "TO_BLACK",
                "durationToBlack": 0.5,
                "durationKeepBlack": 1.0,
                "durationFromBlack": 0.5,
                "inteePos": "",
                "textMapID": "",
                "useTextFade": true
            },
            {
                "$type": "KAGAFALAIGP",
                "type": "DIALOG_CLEAR",
                "delayTime": 0.5,
                "aliasList": [
                    "5140"
                ],
                "actionId": 126
            }
        ]
    ],
    "groupId": [
        {
            "grpId": 1411802634,
            "nextGrpId": 1411802635
        },
        {
            "index": 1,
            "grpId": 1411802635,
            "nextGrpId": 1411802636
        },
        {
            "index": 2,
            "grpId": 1411802636,
            "nextGrpId": 1411802637
        },
        {
            "index": 3,
            "grpId": 1411802637,
            "nextGrpId": 1411802638
        },
        {
            "index": 4,
            "grpId": 1411802638,
            "nextGrpId": 1411802639
        },
        {
            "index": 5,
            "grpId": 1411802639,
            "nextGrpId": 1411802640
        },
        {
            "index": 6,
            "grpId": 1411802640,
            "nextGrpId": 1411802641
        },
        {
            "index": 7,
            "grpId": 1411802641,
            "nextGrpId": 1411802642
        },
        {
            "index": 8,
            "grpId": 1411802642,
            "nextGrpId": 816208742
        }
    ],
    "freeStyleDic": {
        "5140": []
    }
}