{
    "talkId": 6840714,
    "type": "GADGET",
    "dialogList": [
        {
            "id": 684071401,
            "nextDialogs": [
                684071402
            ],
            "talkRole": {
                "type": "TALK_ROLE_GADGET",
                "id": "707111183"
            },
            "talkContentTextMapHash": 2384285370,
            "talkRoleNameTextMapHash": 388983267,
            "talkAssetPath": "",
            "talkAssetPathAlter": "",
            "talkAudioName": "",
            "actionBefore": "",
            "actionWhile": "",
            "actionAfter": "",
            "optionIcon": ""
        },
        {
            "id": 684071402,
            "nextDialogs": [
                684071403
            ],
            "talkRole": {
                "type": "TALK_ROLE_GADGET",
                "id": "707111183"
            },
            "talkContentTextMapHash": 2971476570,
            "talkRoleNameTextMapHash": 1144572451,
            "talkAssetPath": "",
            "talkAssetPathAlter": "",
            "talkAudioName": "",
            "actionBefore": "",
            "actionWhile": "",
            "actionAfter": "",
            "optionIcon": ""
        },
        {
            "id": 684071403,
            "nextDialogs": [
                684071404
            ],
            "talkRole": {
                "type": "TALK_ROLE_GADGET",
                "id": "707111183"
            },
            "talkContentTextMapHash": 785754906,
            "talkRoleNameTextMapHash": 32097523,
            "talkAssetPath": "",
            "talkAssetPathAlter": "",
            "talkAudioName": "",
            "actionBefore": "",
            "actionWhile": "",
            "actionAfter": "",
            "optionIcon": ""
        },
        {
            "id": 684071404,
            "nextDialogs": [
                684071405
            ],
            "talkRole": {
                "type": "TALK_ROLE_GADGET",
                "id": "707111183"
            },
            "talkContentTextMapHash": 3716868570,
            "talkRoleNameTextMapHash": 2481709147,
            "talkAssetPath": "",
            "talkAssetPathAlter": "",
            "talkAudioName": "",
            "actionBefore": "",
            "actionWhile": "",
            "actionAfter": "",
            "optionIcon": ""
        },
        {
            "id": 684071405,
            "nextDialogs": [
                684071406
            ],
            "talkRole": {
                "type": "TALK_ROLE_GADGET",
                "id": "707111183"
            },
            "talkContentTextMapHash": 258927426,
            "talkRoleNameTextMapHash": 2666280531,
            "talkAssetPath": "",
            "talkAssetPathAlter": "",
            "talkAudioName": "",
            "actionBefore": "",
            "actionWhile": "",
            "actionAfter": "",
            "optionIcon": ""
        },
        {
            "id": 684071406,
            "nextDialogs": [
                684071407
            ],
            "talkRole": {
                "type": "TALK_ROLE_GADGET",
                "id": "707111183"
            },
            "talkContentTextMapHash": 3294749066,
            "talkRoleNameTextMapHash": 3664723451,
            "talkAssetPath": "",
            "talkAssetPathAlter": "",
            "talkAudioName": "",
            "actionBefore": "",
            "actionWhile": "",
            "actionAfter": "",
            "optionIcon": ""
        },
        {
            "id": 684071407,
            "talkRole": {
                "type": "TALK_ROLE_GADGET",
                "id": "707111183"
            },
            "talkContentTextMapHash": 156700986,
            "talkRoleNameTextMapHash": 2321040763,
            "talkAssetPath": "",
            "talkAssetPathAlter": "",
            "talkAudioName": "",
            "actionBefore": "",
            "actionWhile": "",
            "actionAfter": "",
            "optionIcon": ""
        }
    ]
}