{
    "talkId": 6840515,
    "type": "GADGET",
    "dialogList": [
        {
            "id": 684051501,
            "nextDialogs": [
                684051502
            ],
            "talkRole": {
                "type": "TALK_ROLE_GADGET",
                "id": "707111182"
            },
            "talkContentTextMapHash": 25428130,
            "talkRoleNameTextMapHash": 464200827,
            "talkAssetPath": "",
            "talkAssetPathAlter": "",
            "talkAudioName": "",
            "actionBefore": "",
            "actionWhile": "",
            "actionAfter": "",
            "optionIcon": ""
        },
        {
            "id": 684051502,
            "nextDialogs": [
                684051503
            ],
            "talkRole": {
                "type": "TALK_ROLE_GADGET",
                "id": "707111182"
            },
            "talkContentTextMapHash": 2246062538,
            "talkRoleNameTextMapHash": 1003363139,
            "talkAssetPath": "",
            "talkAssetPathAlter": "",
            "talkAudioName": "",
            "actionBefore": "",
            "actionWhile": "",
            "actionAfter": "",
            "optionIcon": ""
        },
        {
            "id": 684051503,
            "nextDialogs": [
                684051504
            ],
            "talkRole": {
                "type": "TALK_ROLE_GADGET",
                "id": "707111182"
            },
            "talkContentTextMapHash": 759209666,
            "talkRoleNameTextMapHash": 3699873003,
            "talkAssetPath": "",
            "talkAssetPathAlter": "",
            "talkAudioName": "",
            "actionBefore": "",
            "actionWhile": "",
            "actionAfter": "",
            "optionIcon": ""
        },
        {
            "id": 684051504,
            "nextDialogs": [
                684051505
            ],
            "talkRole": {
                "type": "TALK_ROLE_GADGET",
                "id": "707111182"
            },
            "talkContentTextMapHash": 1691697282,
            "talkRoleNameTextMapHash": 2788815587,
            "talkAssetPath": "",
            "talkAssetPathAlter": "",
            "talkAudioName": "",
            "actionBefore": "",
            "actionWhile": "",
            "actionAfter": "",
            "optionIcon": ""
        },
        {
            "id": 684051505,
            "nextDialogs": [
                684051506
            ],
            "talkRole": {
                "type": "TALK_ROLE_GADGET",
                "id": "707111182"
            },
            "talkContentTextMapHash": 3567040866,
            "talkRoleNameTextMapHash": 3420012019,
            "talkAssetPath": "",
            "talkAssetPathAlter": "",
            "talkAudioName": "",
            "actionBefore": "",
            "actionWhile": "",
            "actionAfter": "",
            "optionIcon": ""
        },
        {
            "id": 684051506,
            "talkRole": {
                "type": "TALK_ROLE_GADGET",
                "id": "707111182"
            },
            "talkContentTextMapHash": 3618784778,
            "talkRoleNameTextMapHash": 1838744779,
            "talkAssetPath": "",
            "talkAssetPathAlter": "",
            "talkAudioName": "",
            "actionBefore": "",
            "actionWhile": "",
            "actionAfter": "",
            "optionIcon": ""
        }
    ]
}