{
    "luaDataPath": "",
    "entityBan": "",
    "disableNpcLod": true,
    "EKDGNGHMECG": true,
    "startFade": {
        "startFadeOutDuration": 0.0
    },
    "endFade": {
        "startFadeOutDuration": 0.0
    },
    "actors": [
        {
            "alias": "Avatar",
            "visible": true,
            "bornPointName": "",
            "relativePosType": "AVATAR_NEW",
            "relativePosNpcAlias": "",
            "bindMovingTargetKey": ""
        },
        {
            "configID": 12850,
            "alias": "12850",
            "visible": true,
            "bornPointName": "",
            "relativePosType": "AVATAR_NEW",
            "relativePosNpcAlias": "",
            "bindMovingTargetKey": ""
        },
        {
            "configID": 1005,
            "alias": "1005",
            "visible": true,
            "bornPointName": "",
            "useRelativePos": true,
            "relativePos": {
                "x": 0.5,
                "z": 0.5
            },
            "removeActorType": "REMOVE_WITH_DISAPPEAR",
            "relativePosType": "AVATAR_NEW",
            "relativePosNpcAlias": "",
            "bindMovingTargetKey": ""
        }
    ],
    "group": [
        [
            {
                "$type": "PBIGHFCHGCA",
                "type": "CAMERA_FOCUS",
                "duration": 0.10000000149011612,
                "actionId": 103,
                "JBODIEHINII": "",
                "EJCHLMIMLBO": "",
                "BIMPIKMCIHB": "",
                "MCAOJPLIJGI": ""
            },
            {
                "$type": "MoleMole.Config.ConfigTimeProtectAction",
                "type": "TIME_PROTECT",
                "duration": 0.10000000149011612,
                "actionId": 104
            },
            {
                "$type": "NFDDGDIKEAG",
                "type": "STEER_TO",
                "duration": 0.800000011920929,
                "aliasList": [
                    "Avatar"
                ],
                "actionId": 108,
                "GGJHILELIMO": "TO_TARGET_ADVANCED",
                "PKKKHNGDEEE": true,
                "LGDIOPOBMPH": true,
                "NBNJEKMFIDE": true,
                "JBODIEHINII": "12850",
                "OJJKHFPNNKJ": true,
                "NNFPFPOJJOJ": ""
            },
            {
                "$type": "FNPNDPFBBDD",
                "type": "LOOK_AT",
                "aliasList": [
                    "Avatar"
                ],
                "actionId": 110,
                "NKGFDJDHOBD": true,
                "MNOPLOBEFLB": 0.5,
                "JBODIEHINII": "12850",
                "MDNPCOHCCLM": true,
                "LPCACGGCDLI": "",
                "NNFPFPOJJOJ": ""
            },
            {
                "$type": "NFDDGDIKEAG",
                "type": "STEER_TO",
                "duration": 0.800000011920929,
                "aliasList": [
                    "12850"
                ],
                "actionId": 109,
                "GGJHILELIMO": "TO_LOCAL_AVATAR_ADVANCED",
                "PKKKHNGDEEE": true,
                "LGDIOPOBMPH": true,
                "NBNJEKMFIDE": true,
                "JBODIEHINII": "",
                "OJJKHFPNNKJ": true,
                "NNFPFPOJJOJ": ""
            },
            {
                "$type": "FNPNDPFBBDD",
                "type": "LOOK_AT",
                "aliasList": [
                    "12850"
                ],
                "actionId": 111,
                "NKGFDJDHOBD": true,
                "MNOPLOBEFLB": 0.5,
                "JBODIEHINII": "Avatar",
                "MDNPCOHCCLM": true,
                "LPCACGGCDLI": "",
                "NNFPFPOJJOJ": ""
            },
            {
                "$type": "CENEPJCONAG",
                "type": "BODY_LANG",
                "aliasList": [
                    "12850"
                ],
                "actionId": 112,
                "NNKEOHJCPOF": true,
                "MHDCNDAINCK": true,
                "LHIAJOBFNAK": false,
                "GJGPNLJEIFP": true,
                "FOEKGLEJBIJ": ""
            },
            {
                "$type": "FNPNDPFBBDD",
                "type": "LOOK_AT",
                "aliasList": [
                    "1005"
                ],
                "actionId": 117,
                "NKGFDJDHOBD": true,
                "MNOPLOBEFLB": 0.5,
                "JBODIEHINII": "12850",
                "MDNPCOHCCLM": true,
                "LPCACGGCDLI": "",
                "NNFPFPOJJOJ": ""
            }
        ],
        [
            {
                "$type": "KAGAFALAIGP",
                "type": "DIALOG",
                "aliasList": [
                    "12850"
                ],
                "actionId": 107,
                "JHEPJOMJJHH": 130150801,
                "OCILKFCPBNC": 0.5
            },
            {
                "$type": "CENEPJCONAG",
                "type": "BODY_LANG",
                "aliasList": [
                    "12850"
                ],
                "actionId": 113,
                "OGFPAIKLDGB": 1050,
                "MHDCNDAINCK": true,
                "LHIAJOBFNAK": false,
                "GJGPNLJEIFP": true,
                "FOEKGLEJBIJ": ""
            },
            {
                "$type": "LNLLGCOBDFC",
                "type": "EMO_SYNC",
                "aliasList": [
                    "12850"
                ],
                "actionId": 120,
                "LKHHGAGNMKM": "Cs_Emo_Avatar_Simple_Common_Set/Cs_Emo_Avatar_Talk/Cs_Emo_Avatar_PersonalLine/Cs_Emo_Avatar_Nahida/Cs_Emo_130150801",
                "AIMKGPFAAAD": "",
                "IPEKOEDCGGF": "",
                "EJNFMNJKDAH": "",
                "LOOOCOLIHFA": "",
                "KJDLMAPPPMG": "",
                "EKJHPKFBONG": [
                    4823908009209213827,
                    9318872439973869035,
                    11789513338524821310,
                    12173270546691563539
                ]
            },
            {
                "$type": "NFDDGDIKEAG",
                "type": "STEER_TO",
                "duration": 3.0,
                "aliasList": [
                    "1005"
                ],
                "actionId": 118,
                "GGJHILELIMO": "TO_TARGET_ADVANCED",
                "GPODKINFLFH": {
                    "x": -548.947998046875,
                    "y": 51.395999908447266,
                    "z": 762.219970703125
                },
                "LGDIOPOBMPH": true,
                "NBNJEKMFIDE": true,
                "JBODIEHINII": "",
                "DMPFMDNFEHA": true,
                "OJJKHFPNNKJ": true,
                "NNFPFPOJJOJ": ""
            },
            {
                "$type": "CENEPJCONAG",
                "type": "BODY_LANG",
                "delayTime": 2.7669999599456787,
                "aliasList": [
                    "12850"
                ],
                "actionId": 114,
                "NNKEOHJCPOF": true,
                "MHDCNDAINCK": true,
                "LHIAJOBFNAK": false,
                "GJGPNLJEIFP": true,
                "FOEKGLEJBIJ": ""
            },
            {
                "$type": "CENEPJCONAG",
                "type": "BODY_LANG",
                "delayTime": 3.941999912261963,
                "aliasList": [
                    "12850"
                ],
                "actionId": 115,
                "OGFPAIKLDGB": 4040,
                "MHDCNDAINCK": true,
                "LHIAJOBFNAK": false,
                "GJGPNLJEIFP": true,
                "FOEKGLEJBIJ": ""
            }
        ],
        [
            {
                "$type": "MoleMole.Config.ConfigTimeProtectAction",
                "type": "TIME_PROTECT",
                "duration": 0.10000000149011612,
                "actionId": 105
            },
            {
                "$type": "CENEPJCONAG",
                "type": "BODY_LANG",
                "aliasList": [
                    "12850"
                ],
                "actionId": 116,
                "NNKEOHJCPOF": true,
                "MHDCNDAINCK": true,
                "LHIAJOBFNAK": false,
                "GJGPNLJEIFP": true,
                "FOEKGLEJBIJ": ""
            },
            {
                "$type": "NFDDGDIKEAG",
                "type": "STEER_TO",
                "duration": 1.0,
                "aliasList": [
                    "12850"
                ],
                "actionId": 119,
                "GGJHILELIMO": "RETURN",
                "GPODKINFLFH": {
                    "x": -423.12200927734375,
                    "y": 246.13699340820312,
                    "z": 2734.876953125
                },
                "PKKKHNGDEEE": true,
                "LGDIOPOBMPH": true,
                "NBNJEKMFIDE": true,
                "JBODIEHINII": "",
                "DMPFMDNFEHA": true,
                "OJJKHFPNNKJ": true,
                "NNFPFPOJJOJ": ""
            }
        ]
    ],
    "groupId": [
        {
            "grpId": 1930371289,
            "nextGrpId": 1930371290
        },
        {
            "index": 1,
            "grpId": 1930371290,
            "nextGrpId": 1930371291
        },
        {
            "index": 2,
            "grpId": 1930371291,
            "nextGrpId": 1930371292
        }
    ],
    "freeStyleDic": {
        "12850": [
            1050,
            4040
        ]
    }
}