{
    "luaDataPath": "",
    "isSimpleTalk": true,
    "startBlackKeepTime": 0.5,
    "entityBan": "",
    "startFade": {
        "startFadeOutDuration": 0.5
    },
    "endFade": {
        "startFadeOutDuration": 0.0
    },
    "actors": [
        {
            "alias": "Avatar",
            "visible": true,
            "bornPointName": "Q1200107born",
            "relativePosNpcAlias": "",
            "bindMovingTargetKey": ""
        },
        {
            "configID": 162601,
            "alias": "162601",
            "visible": true,
            "bornPointName": "Q1200107Wly",
            "relativePosNpcAlias": "",
            "bindMovingTargetKey": ""
        },
        {
            "configID": 10048,
            "alias": "10048",
            "visible": true,
            "bornPointName": "Q1200107manager",
            "relativePosNpcAlias": "",
            "bindMovingTargetKey": ""
        },
        {
            "configID": 1005,
            "alias": "1005",
            "visible": true,
            "bornPointName": "Q1200107Paimon",
            "relativePosNpcAlias": "",
            "bindMovingTargetKey": ""
        }
    ],
    "group": [
        [
            {
                "$type": "PBIGHFCHGCA",
                "type": "CAMERA_MOVE",
                "delayTime": 1.3200000524520874,
                "duration": 8.0,
                "KCFKJMMEECM": {
                    "x": -563.2874145507812,
                    "y": 245.7094268798828,
                    "z": 328.5621337890625
                },
                "DLGJEHNPMFN": {
                    "x": -562.2977905273438,
                    "y": 245.5712432861328,
                    "z": 328.5223388671875
                },
                "NJCBGNHGINI": 30.0,
                "NECGMADJICG": "EaseInOutCubic",
                "BMHIHPIKAHM": {},
                "JBODIEHINII": "",
                "EJCHLMIMLBO": "",
                "BIMPIKMCIHB": "",
                "MCAOJPLIJGI": ""
            },
            {
                "$type": "PBIGHFCHGCA",
                "type": "CAMERA_MOVE",
                "duration": 1.0,
                "KCFKJMMEECM": {
                    "x": -563.5963134765625,
                    "y": 245.41915893554688,
                    "z": 327.69097900390625
                },
                "DLGJEHNPMFN": {
                    "x": -562.60595703125,
                    "y": 245.30776977539062,
                    "z": 327.7731628417969
                },
                "NJCBGNHGINI": 30.0,
                "FNMFGIOLKBE": 6,
                "NECGMADJICG": "EaseInOutCubic",
                "BMHIHPIKAHM": {},
                "JBODIEHINII": "",
                "EJCHLMIMLBO": "",
                "BIMPIKMCIHB": "",
                "MCAOJPLIJGI": ""
            },
            {
                "$type": "MoleMole.Config.ConfigCameraDOFAction",
                "type": "CAMERA_DOF",
                "delayTime": 1.850000023841858,
                "duration": 2.0,
                "enabled": true,
                "focusDistance": 10.0,
                "focusRange": 4.0,
                "nearFocalDistance": 4.0,
                "nearFocalTransDistance": 2.0,
                "dofBlurAmount": 2.0,
                "quality": 3
            },
            {
                "$type": "MoleMole.Config.ConfigCameraDOFAction",
                "type": "CAMERA_DOF",
                "enabled": true,
                "focusDistance": 2.0,
                "focusRange": 2.0,
                "nearFocalDistance": 1.5,
                "nearFocalTransDistance": 1.0,
                "dofBlurAmount": 2.0,
                "quality": 3
            },
            {
                "$type": "CENEPJCONAG",
                "type": "BODY_LANG",
                "delayTime": 0.10000000149011612,
                "aliasList": [
                    "Avatar"
                ],
                "OGFPAIKLDGB": 1080,
                "FOEKGLEJBIJ": ""
            },
            {
                "$type": "NFDDGDIKEAG",
                "type": "STEER_TO",
                "delayTime": 0.10000000149011612,
                "duration": 0.10000000149011612,
                "aliasList": [
                    "Avatar"
                ],
                "GPODKINFLFH": {
                    "x": -0.9722715616226196,
                    "z": 0.2338550090789795
                },
                "JBODIEHINII": "",
                "NNFPFPOJJOJ": ""
            },
            {
                "$type": "FNPNDPFBBDD",
                "type": "LOOK_AT",
                "delayTime": 1.100000023841858,
                "aliasList": [
                    "Avatar"
                ],
                "NKGFDJDHOBD": true,
                "OCIADBJCDPC": {
                    "x": 35.0
                },
                "MNOPLOBEFLB": 0.30000001192092896,
                "JBODIEHINII": "",
                "LPCACGGCDLI": "",
                "NNFPFPOJJOJ": ""
            },
            {
                "$type": "MoleMole.Config.ConfigVisibleInterAction",
                "type": "VISIBLE",
                "aliasList": [
                    "Avatar"
                ],
                "isVisible": true,
                "extraParam": ""
            },
            {
                "$type": "MoleMole.Config.ConfigMoveToAction",
                "type": "MOVE_TO",
                "aliasList": [
                    "Avatar"
                ],
                "routeList": [
                    {
                        "x": -562.2388305664062,
                        "y": 244.0334014892578,
                        "z": 327.35003662109375
                    }
                ]
            },
            {
                "$type": "CENEPJCONAG",
                "type": "BODY_LANG",
                "delayTime": 0.05000000074505806,
                "aliasList": [
                    "Avatar"
                ],
                "FOEKGLEJBIJ": ""
            },
            {
                "$type": "LNLLGCOBDFC",
                "type": "EMO_SYNC",
                "delayTime": 1.0,
                "aliasList": [
                    "Avatar"
                ],
                "LKHHGAGNMKM": "Cs_Emo_Avatar_Simple_Common_Set/Cs_Emo_Avatar_Talk/Cs_Emo_Avatar_PersonalLine/Cs_Emo_Avatar_XingQiu/Cs_Emo_120010701A",
                "AIMKGPFAAAD": "",
                "IPEKOEDCGGF": "",
                "EJNFMNJKDAH": "",
                "LOOOCOLIHFA": "",
                "KJDLMAPPPMG": "",
                "EKJHPKFBONG": [
                    10967120650511511158,
                    6638750890685241169,
                    13126051429726620106,
                    17761607870437082888
                ]
            },
            {
                "$type": "KAGAFALAIGP",
                "type": "DIALOG",
                "delayTime": 1.0,
                "aliasList": [
                    "162601"
                ],
                "JHEPJOMJJHH": 120010701,
                "OCILKFCPBNC": 1.2000000476837158
            },
            {
                "$type": "NFDDGDIKEAG",
                "type": "STEER_TO",
                "delayTime": 0.10000000149011612,
                "aliasList": [
                    "162601"
                ],
                "GPODKINFLFH": {
                    "x": 0.39857906103134155,
                    "z": -0.9171339869499207
                },
                "JBODIEHINII": "",
                "NNFPFPOJJOJ": ""
            },
            {
                "$type": "MoleMole.Config.ConfigMoveToAction",
                "type": "MOVE_TO",
                "aliasList": [
                    "162601"
                ],
                "routeList": [
                    {
                        "x": -557.960693359375,
                        "y": 244.0084686279297,
                        "z": 329.23095703125
                    }
                ]
            },
            {
                "$type": "CENEPJCONAG",
                "type": "BODY_LANG",
                "delayTime": 2.5999999046325684,
                "aliasList": [
                    "162601"
                ],
                "OGFPAIKLDGB": 4030,
                "FOEKGLEJBIJ": ""
            },
            {
                "$type": "CENEPJCONAG",
                "type": "BODY_LANG",
                "delayTime": 4.099999904632568,
                "aliasList": [
                    "162601"
                ],
                "OGFPAIKLDGB": 4210,
                "FOEKGLEJBIJ": ""
            },
            {
                "$type": "CENEPJCONAG",
                "type": "BODY_LANG",
                "delayTime": 1.0,
                "aliasList": [
                    "162601"
                ],
                "OGFPAIKLDGB": 4030,
                "FOEKGLEJBIJ": ""
            },
            {
                "$type": "FNPNDPFBBDD",
                "type": "LOOK_AT",
                "aliasList": [
                    "162601"
                ],
                "NKGFDJDHOBD": true,
                "OCIADBJCDPC": {
                    "y": 1.0
                },
                "MNOPLOBEFLB": 0.30000001192092896,
                "JBODIEHINII": "",
                "LPCACGGCDLI": "",
                "NNFPFPOJJOJ": ""
            },
            {
                "$type": "MoleMole.Config.ConfigMoveToAction",
                "type": "MOVE_TO",
                "aliasList": [
                    "10048"
                ],
                "routeList": [
                    {
                        "x": -556.422119140625,
                        "y": 244.1114959716797,
                        "z": 327.3102111816406
                    }
                ]
            },
            {
                "$type": "NFDDGDIKEAG",
                "type": "STEER_TO",
                "delayTime": 0.10000000149011612,
                "aliasList": [
                    "10048"
                ],
                "GPODKINFLFH": {
                    "x": 0.8978087306022644,
                    "z": -0.4403856694698334
                },
                "JBODIEHINII": "",
                "NNFPFPOJJOJ": ""
            },
            {
                "$type": "MoleMole.Config.ConfigMoveToAction",
                "type": "MOVE_TO",
                "aliasList": [
                    "1005"
                ],
                "routeList": [
                    {
                        "x": -560.8716430664062,
                        "y": 244.0221405029297,
                        "z": 326.2429504394531
                    }
                ]
            }
        ],
        [
            {
                "$type": "PBIGHFCHGCA",
                "type": "CAMERA_MOVE",
                "duration": 1.0,
                "KCFKJMMEECM": {
                    "x": -556.0316772460938,
                    "y": 245.5647735595703,
                    "z": 326.5088195800781
                },
                "DLGJEHNPMFN": {
                    "x": -556.5208129882812,
                    "y": 245.41175842285156,
                    "z": 327.36749267578125
                },
                "NJCBGNHGINI": 30.0,
                "FNMFGIOLKBE": 6,
                "NECGMADJICG": "EaseInOutCubic",
                "BMHIHPIKAHM": {},
                "JBODIEHINII": "",
                "EJCHLMIMLBO": "",
                "BIMPIKMCIHB": "",
                "MCAOJPLIJGI": ""
            },
            {
                "$type": "PBIGHFCHGCA",
                "type": "CAMERA_MOVE",
                "delayTime": 0.10000000149011612,
                "duration": 25.0,
                "KCFKJMMEECM": {
                    "x": -556.3677368164062,
                    "y": 245.5355224609375,
                    "z": 326.245849609375
                },
                "DLGJEHNPMFN": {
                    "x": -556.6910400390625,
                    "y": 245.41221618652344,
                    "z": 327.18408203125
                },
                "NJCBGNHGINI": 30.0,
                "NECGMADJICG": "EaseOutQuad",
                "BMHIHPIKAHM": {},
                "JBODIEHINII": "",
                "EJCHLMIMLBO": "",
                "BIMPIKMCIHB": "",
                "MCAOJPLIJGI": ""
            },
            {
                "$type": "MoleMole.Config.ConfigCameraDOFAction",
                "type": "CAMERA_DOF",
                "delayTime": 0.10000000149011612,
                "duration": 3.0,
                "enabled": true,
                "focusDistance": 7.0,
                "focusRange": 2.0,
                "nearFocalDistance": 3.0,
                "nearFocalTransDistance": 2.0,
                "dofBlurAmount": 2.5,
                "quality": 3
            },
            {
                "$type": "MoleMole.Config.ConfigCameraDOFAction",
                "type": "CAMERA_DOF",
                "duration": 1.0,
                "enabled": true
            },
            {
                "$type": "MoleMole.Config.ConfigVisibleInterAction",
                "type": "VISIBLE",
                "aliasList": [
                    "Avatar"
                ],
                "isVisible": true,
                "extraParam": ""
            },
            {
                "$type": "MoleMole.Config.ConfigMoveToAction",
                "type": "MOVE_TO",
                "aliasList": [
                    "Avatar"
                ],
                "routeList": [
                    {
                        "x": -572.8137817382812,
                        "y": 244.03314208984375,
                        "z": 326.435791015625
                    }
                ]
            },
            {
                "$type": "FNPNDPFBBDD",
                "type": "LOOK_AT",
                "delayTime": 1.0,
                "aliasList": [
                    "162601"
                ],
                "NKGFDJDHOBD": true,
                "MNOPLOBEFLB": 0.5,
                "JBODIEHINII": "10048",
                "LPCACGGCDLI": "",
                "NNFPFPOJJOJ": ""
            },
            {
                "$type": "FNPNDPFBBDD",
                "type": "LOOK_AT",
                "aliasList": [
                    "162601"
                ],
                "NKGFDJDHOBD": true,
                "MNOPLOBEFLB": 1.0,
                "JBODIEHINII": "10048",
                "LPCACGGCDLI": "",
                "NNFPFPOJJOJ": ""
            },
            {
                "$type": "KAGAFALAIGP",
                "type": "DIALOG",
                "aliasList": [
                    "10048"
                ],
                "JHEPJOMJJHH": 120010702,
                "OCILKFCPBNC": 1.0
            },
            {
                "$type": "NFDDGDIKEAG",
                "type": "STEER_TO",
                "aliasList": [
                    "10048"
                ],
                "GPODKINFLFH": {
                    "x": 0.6741194128990173,
                    "z": -0.7386224269866943
                },
                "JBODIEHINII": "",
                "NNFPFPOJJOJ": ""
            }
        ],
        [
            {
                "$type": "KAGAFALAIGP",
                "type": "DIALOG",
                "aliasList": [
                    "162601"
                ],
                "JHEPJOMJJHH": 120010703,
                "OCILKFCPBNC": 1.0
            },
            {
                "$type": "CENEPJCONAG",
                "type": "BODY_LANG",
                "delayTime": 1.7999999523162842,
                "aliasList": [
                    "162601"
                ],
                "OGFPAIKLDGB": 1171,
                "FOEKGLEJBIJ": ""
            },
            {
                "$type": "CENEPJCONAG",
                "type": "BODY_LANG",
                "delayTime": 5.199999809265137,
                "aliasList": [
                    "162601"
                ],
                "OGFPAIKLDGB": 1172,
                "FOEKGLEJBIJ": ""
            },
            {
                "$type": "FNPNDPFBBDD",
                "type": "LOOK_AT",
                "aliasList": [
                    "162601"
                ],
                "NKGFDJDHOBD": true,
                "OCIADBJCDPC": {
                    "y": 30.0
                },
                "MNOPLOBEFLB": 0.30000001192092896,
                "JBODIEHINII": "",
                "LPCACGGCDLI": "",
                "NNFPFPOJJOJ": ""
            },
            {
                "$type": "FNPNDPFBBDD",
                "type": "LOOK_AT",
                "delayTime": 1.149999976158142,
                "aliasList": [
                    "162601"
                ],
                "NKGFDJDHOBD": true,
                "MNOPLOBEFLB": 0.30000001192092896,
                "JBODIEHINII": "10048",
                "LPCACGGCDLI": "",
                "NNFPFPOJJOJ": ""
            },
            {
                "$type": "LNLLGCOBDFC",
                "type": "EMO_SYNC",
                "aliasList": [
                    "162601"
                ],
                "LKHHGAGNMKM": "Cs_Emo_Avatar_Simple_Common_Set/Cs_Emo_Avatar_Talk/Cs_Emo_Avatar_PersonalLine/Cs_Emo_Avatar_XingQiu/Cs_Emo_120010703",
                "AIMKGPFAAAD": "",
                "IPEKOEDCGGF": "",
                "EJNFMNJKDAH": "",
                "LOOOCOLIHFA": "",
                "KJDLMAPPPMG": "",
                "EKJHPKFBONG": [
                    8857596675224706668,
                    10199522159130702258,
                    2796051845189896088,
                    9072543716954383606
                ]
            }
        ],
        [
            {
                "$type": "KAGAFALAIGP",
                "type": "DIALOG",
                "aliasList": [
                    "162601"
                ],
                "JHEPJOMJJHH": 120010704,
                "OCILKFCPBNC": 1.0
            },
            {
                "$type": "CENEPJCONAG",
                "type": "BODY_LANG",
                "aliasList": [
                    "162601"
                ],
                "OGFPAIKLDGB": 9000,
                "FOEKGLEJBIJ": ""
            },
            {
                "$type": "CENEPJCONAG",
                "type": "BODY_LANG",
                "delayTime": 6.8137736320495605,
                "aliasList": [
                    "162601"
                ],
                "NNKEOHJCPOF": true,
                "FOEKGLEJBIJ": ""
            },
            {
                "$type": "LNLLGCOBDFC",
                "type": "EMO_SYNC",
                "aliasList": [
                    "162601"
                ],
                "LKHHGAGNMKM": "Cs_Emo_Avatar_Simple_Common_Set/Cs_Emo_Avatar_Talk/Cs_Emo_Avatar_PersonalLine/Cs_Emo_Avatar_XingQiu/Cs_Emo_120010704",
                "AIMKGPFAAAD": "",
                "IPEKOEDCGGF": "",
                "EJNFMNJKDAH": "",
                "LOOOCOLIHFA": "",
                "KJDLMAPPPMG": "",
                "EKJHPKFBONG": [
                    157335320017208708,
                    795765236914755187,
                    2236765515166154635,
                    7201508758609860086
                ]
            }
        ],
        [
            {
                "$type": "PBIGHFCHGCA",
                "type": "CAMERA_MOVE",
                "duration": 1.0,
                "KCFKJMMEECM": {
                    "x": -557.676025390625,
                    "y": 246.10121154785156,
                    "z": 328.53375244140625
                },
                "DLGJEHNPMFN": {
                    "x": -556.97021484375,
                    "y": 245.7965087890625,
                    "z": 327.8941955566406
                },
                "NJCBGNHGINI": 30.0,
                "FNMFGIOLKBE": 6,
                "NECGMADJICG": "EaseInOutCubic",
                "BMHIHPIKAHM": {},
                "JBODIEHINII": "",
                "EJCHLMIMLBO": "",
                "BIMPIKMCIHB": "",
                "MCAOJPLIJGI": ""
            },
            {
                "$type": "MoleMole.Config.ConfigCameraDOFAction",
                "type": "CAMERA_DOF",
                "enabled": true,
                "focusDistance": 15.0,
                "focusRange": 100.0,
                "dofBlurAmount": 0.5,
                "quality": 3
            },
            {
                "$type": "CENEPJCONAG",
                "type": "BODY_LANG",
                "aliasList": [
                    "162601"
                ],
                "NNKEOHJCPOF": true,
                "FOEKGLEJBIJ": ""
            },
            {
                "$type": "KAGAFALAIGP",
                "type": "DIALOG",
                "aliasList": [
                    "10048"
                ],
                "JHEPJOMJJHH": 120010705,
                "OCILKFCPBNC": 1.0
            },
            {
                "$type": "FNPNDPFBBDD",
                "type": "LOOK_AT",
                "delayTime": 1.486083745956421,
                "aliasList": [
                    "10048"
                ],
                "NKGFDJDHOBD": true,
                "OCIADBJCDPC": {
                    "x": 45.0
                },
                "MNOPLOBEFLB": 0.6000000238418579,
                "JBODIEHINII": "",
                "LPCACGGCDLI": "",
                "NNFPFPOJJOJ": ""
            }
        ],
        [
            {
                "$type": "KAGAFALAIGP",
                "type": "DIALOG",
                "aliasList": [
                    "10048"
                ],
                "JHEPJOMJJHH": 120010706,
                "OCILKFCPBNC": 1.0
            },
            {
                "$type": "FNPNDPFBBDD",
                "type": "LOOK_AT",
                "aliasList": [
                    "10048"
                ],
                "NKGFDJDHOBD": true,
                "MNOPLOBEFLB": 0.699999988079071,
                "JBODIEHINII": "",
                "LPCACGGCDLI": "",
                "NNFPFPOJJOJ": ""
            }
        ],
        [
            {
                "$type": "KAGAFALAIGP",
                "type": "DIALOG",
                "aliasList": [
                    "10048"
                ],
                "JHEPJOMJJHH": 120010707,
                "OCILKFCPBNC": 1.0
            },
            {
                "$type": "FNPNDPFBBDD",
                "type": "LOOK_AT",
                "duration": 0.5,
                "aliasList": [
                    "10048"
                ],
                "NKGFDJDHOBD": true,
                "OCIADBJCDPC": {
                    "x": 45.0
                },
                "MNOPLOBEFLB": 0.5,
                "JBODIEHINII": "",
                "LPCACGGCDLI": "",
                "NNFPFPOJJOJ": ""
            },
            {
                "$type": "FNPNDPFBBDD",
                "type": "LOOK_AT",
                "delayTime": 1.25,
                "duration": 0.5,
                "aliasList": [
                    "10048"
                ],
                "NKGFDJDHOBD": true,
                "OCIADBJCDPC": {
                    "x": 45.0,
                    "y": 25.0
                },
                "MNOPLOBEFLB": 0.4000000059604645,
                "JBODIEHINII": "",
                "LPCACGGCDLI": "",
                "NNFPFPOJJOJ": ""
            }
        ],
        [
            {
                "$type": "PBIGHFCHGCA",
                "type": "CAMERA_MOVE",
                "delayTime": 0.009999999776482582,
                "duration": 6.0,
                "KCFKJMMEECM": {
                    "x": -557.9978637695312,
                    "y": 246.22129821777344,
                    "z": 328.0244140625
                },
                "DLGJEHNPMFN": {
                    "x": -557.9053955078125,
                    "y": 245.73257446289062,
                    "z": 328.8919372558594
                },
                "NJCBGNHGINI": 30.0,
                "NECGMADJICG": "EaseOutQuad",
                "BMHIHPIKAHM": {},
                "JBODIEHINII": "",
                "EJCHLMIMLBO": "",
                "BIMPIKMCIHB": "",
                "MCAOJPLIJGI": ""
            },
            {
                "$type": "PBIGHFCHGCA",
                "type": "CAMERA_MOVE",
                "duration": 1.0,
                "KCFKJMMEECM": {
                    "x": -558.0352172851562,
                    "y": 246.2273406982422,
                    "z": 328.03179931640625
                },
                "DLGJEHNPMFN": {
                    "x": -557.9427490234375,
                    "y": 245.73861694335938,
                    "z": 328.8993225097656
                },
                "NJCBGNHGINI": 30.0,
                "FNMFGIOLKBE": 6,
                "NECGMADJICG": "EaseInOutCubic",
                "BMHIHPIKAHM": {},
                "JBODIEHINII": "",
                "EJCHLMIMLBO": "",
                "BIMPIKMCIHB": "",
                "MCAOJPLIJGI": ""
            },
            {
                "$type": "MoleMole.Config.ConfigCameraDOFAction",
                "type": "CAMERA_DOF",
                "enabled": true,
                "focusDistance": 3.0,
                "focusRange": 3.0,
                "dofBlurAmount": 4.0,
                "quality": 3
            },
            {
                "$type": "KAGAFALAIGP",
                "type": "DIALOG",
                "aliasList": [
                    "162601"
                ],
                "JHEPJOMJJHH": 120010708,
                "OCILKFCPBNC": 1.0
            },
            {
                "$type": "CENEPJCONAG",
                "type": "BODY_LANG",
                "aliasList": [
                    "162601"
                ],
                "OGFPAIKLDGB": 4030,
                "FOEKGLEJBIJ": ""
            },
            {
                "$type": "CENEPJCONAG",
                "type": "BODY_LANG",
                "delayTime": 1.1803420782089233,
                "aliasList": [
                    "162601"
                ],
                "OGFPAIKLDGB": 4210,
                "FOEKGLEJBIJ": ""
            },
            {
                "$type": "CENEPJCONAG",
                "type": "BODY_LANG",
                "delayTime": 3.425851583480835,
                "aliasList": [
                    "162601"
                ],
                "OGFPAIKLDGB": 1160,
                "FOEKGLEJBIJ": ""
            },
            {
                "$type": "CENEPJCONAG",
                "type": "BODY_LANG",
                "delayTime": 5.1285786628723145,
                "aliasList": [
                    "162601"
                ],
                "NNKEOHJCPOF": true,
                "FOEKGLEJBIJ": ""
            },
            {
                "$type": "LNLLGCOBDFC",
                "type": "EMO_SYNC",
                "aliasList": [
                    "162601"
                ],
                "LKHHGAGNMKM": "Cs_Emo_Avatar_Simple_Common_Set/Cs_Emo_Avatar_Talk/Cs_Emo_Avatar_PersonalLine/Cs_Emo_Avatar_XingQiu/Cs_Emo_120010708",
                "AIMKGPFAAAD": "",
                "IPEKOEDCGGF": "",
                "EJNFMNJKDAH": "",
                "LOOOCOLIHFA": "",
                "KJDLMAPPPMG": "",
                "HCOIDDGKHJC": false,
                "EKJHPKFBONG": [
                    3244828457882780203,
                    15108575318113607405,
                    5001913735371032635,
                    9245071476635858949
                ]
            },
            {
                "$type": "MoleMole.Config.ConfigMoveToAction",
                "type": "MOVE_TO",
                "aliasList": [
                    "10048"
                ],
                "routeList": [
                    {
                        "x": -556.680908203125,
                        "y": 244.0084686279297,
                        "z": 327.5763244628906
                    }
                ]
            }
        ],
        [
            {
                "$type": "PBIGHFCHGCA",
                "type": "CAMERA_MOVE",
                "delayTime": 0.05000000074505806,
                "duration": 6.0,
                "KCFKJMMEECM": {
                    "x": -555.574951171875,
                    "y": 246.7787628173828,
                    "z": 322.7645568847656
                },
                "DLGJEHNPMFN": {
                    "x": -555.8136596679688,
                    "y": 246.43716430664062,
                    "z": 323.673583984375
                },
                "NJCBGNHGINI": 30.0,
                "NECGMADJICG": "EaseOutQuad",
                "BMHIHPIKAHM": {},
                "JBODIEHINII": "",
                "EJCHLMIMLBO": "",
                "BIMPIKMCIHB": "",
                "MCAOJPLIJGI": ""
            },
            {
                "$type": "PBIGHFCHGCA",
                "type": "CAMERA_MOVE",
                "duration": 1.0,
                "KCFKJMMEECM": {
                    "x": -555.150390625,
                    "y": 247.0869903564453,
                    "z": 323.0103759765625
                },
                "DLGJEHNPMFN": {
                    "x": -555.4315795898438,
                    "y": 246.71456909179688,
                    "z": 323.8948059082031
                },
                "NJCBGNHGINI": 30.0,
                "FNMFGIOLKBE": 6,
                "NECGMADJICG": "EaseInOutCubic",
                "BMHIHPIKAHM": {},
                "JBODIEHINII": "",
                "EJCHLMIMLBO": "",
                "BIMPIKMCIHB": "",
                "MCAOJPLIJGI": ""
            },
            {
                "$type": "MoleMole.Config.ConfigCameraDOFAction",
                "type": "CAMERA_DOF",
                "delayTime": 1.0,
                "duration": 1.5,
                "enabled": true,
                "focusDistance": 10.0,
                "focusRange": 2.0,
                "nearFocalDistance": 5.0,
                "nearFocalTransDistance": 2.0,
                "dofBlurAmount": 5.0,
                "quality": 3
            },
            {
                "$type": "MoleMole.Config.ConfigCameraDOFAction",
                "type": "CAMERA_DOF",
                "enabled": true,
                "focusDistance": 2.0,
                "focusRange": 2.0,
                "dofBlurAmount": 3.0,
                "quality": 3
            },
            {
                "$type": "CENEPJCONAG",
                "type": "BODY_LANG",
                "aliasList": [
                    "162601"
                ],
                "NNKEOHJCPOF": true,
                "FOEKGLEJBIJ": ""
            },
            {
                "$type": "KAGAFALAIGP",
                "type": "DIALOG",
                "aliasList": [
                    "10048"
                ],
                "JHEPJOMJJHH": 120010709,
                "OCILKFCPBNC": 1.0
            },
            {
                "$type": "NFDDGDIKEAG",
                "type": "STEER_TO",
                "duration": 1.100000023841858,
                "aliasList": [
                    "10048"
                ],
                "GPODKINFLFH": {
                    "x": -0.5697725415229797,
                    "z": 0.8218024373054504
                },
                "PKKKHNGDEEE": true,
                "JBODIEHINII": "",
                "NNFPFPOJJOJ": ""
            },
            {
                "$type": "FNPNDPFBBDD",
                "type": "LOOK_AT",
                "delayTime": 1.100000023841858,
                "aliasList": [
                    "10048"
                ],
                "NKGFDJDHOBD": true,
                "MNOPLOBEFLB": 0.30000001192092896,
                "JBODIEHINII": "162601",
                "LPCACGGCDLI": "",
                "NNFPFPOJJOJ": ""
            },
            {
                "$type": "FNPNDPFBBDD",
                "type": "LOOK_AT",
                "aliasList": [
                    "10048"
                ],
                "NKGFDJDHOBD": true,
                "MNOPLOBEFLB": 0.10000000149011612,
                "JBODIEHINII": "162601",
                "LPCACGGCDLI": "",
                "NNFPFPOJJOJ": ""
            }
        ],
        [
            {
                "$type": "PBIGHFCHGCA",
                "type": "CAMERA_MOVE",
                "duration": 1.0,
                "KCFKJMMEECM": {
                    "x": -558.8153076171875,
                    "y": 245.72509765625,
                    "z": 329.6506652832031
                },
                "DLGJEHNPMFN": {
                    "x": -558.0028076171875,
                    "y": 245.6405792236328,
                    "z": 329.0738220214844
                },
                "NJCBGNHGINI": 25.0,
                "FNMFGIOLKBE": 6,
                "NECGMADJICG": "EaseInOutCubic",
                "BMHIHPIKAHM": {},
                "JBODIEHINII": "",
                "EJCHLMIMLBO": "",
                "BIMPIKMCIHB": "",
                "MCAOJPLIJGI": ""
            },
            {
                "$type": "MoleMole.Config.ConfigCameraDOFAction",
                "type": "CAMERA_DOF",
                "enabled": true,
                "focusDistance": 1.0,
                "focusRange": 2.0,
                "dofBlurAmount": 2.5,
                "quality": 3
            },
            {
                "$type": "CENEPJCONAG",
                "type": "BODY_LANG",
                "delayTime": 0.10000000149011612,
                "aliasList": [
                    "Avatar"
                ],
                "OGFPAIKLDGB": 1080,
                "FOEKGLEJBIJ": ""
            },
            {
                "$type": "CENEPJCONAG",
                "type": "BODY_LANG",
                "aliasList": [
                    "Avatar"
                ],
                "NNKEOHJCPOF": true,
                "FOEKGLEJBIJ": ""
            },
            {
                "$type": "MoleMole.Config.ConfigVisibleInterAction",
                "type": "VISIBLE",
                "aliasList": [
                    "Avatar"
                ],
                "isVisible": true,
                "extraParam": ""
            },
            {
                "$type": "MoleMole.Config.ConfigMoveToAction",
                "type": "MOVE_TO",
                "aliasList": [
                    "Avatar"
                ],
                "routeList": [
                    {
                        "x": -561.7393188476562,
                        "y": 244.03314208984375,
                        "z": 327.1764831542969
                    }
                ]
            },
            {
                "$type": "KAGAFALAIGP",
                "type": "DIALOG",
                "aliasList": [
                    "162601"
                ],
                "JHEPJOMJJHH": 120010710,
                "OCILKFCPBNC": 1.0
            },
            {
                "$type": "NFDDGDIKEAG",
                "type": "STEER_TO",
                "duration": 0.5,
                "aliasList": [
                    "162601"
                ],
                "GPODKINFLFH": {
                    "x": -0.5983015894889832,
                    "z": -0.8012709617614746
                },
                "PKKKHNGDEEE": true,
                "JBODIEHINII": "",
                "NNFPFPOJJOJ": ""
            },
            {
                "$type": "FNPNDPFBBDD",
                "type": "LOOK_AT",
                "delayTime": 0.5,
                "aliasList": [
                    "162601"
                ],
                "NKGFDJDHOBD": true,
                "OCIADBJCDPC": {
                    "y": 30.0
                },
                "MNOPLOBEFLB": 0.20000000298023224,
                "JBODIEHINII": "",
                "LPCACGGCDLI": "",
                "NNFPFPOJJOJ": ""
            },
            {
                "$type": "CENEPJCONAG",
                "type": "BODY_LANG",
                "delayTime": 0.8999999761581421,
                "aliasList": [
                    "162601"
                ],
                "OGFPAIKLDGB": 1120,
                "FOEKGLEJBIJ": ""
            },
            {
                "$type": "LNLLGCOBDFC",
                "type": "EMO_SYNC",
                "aliasList": [
                    "162601"
                ],
                "LKHHGAGNMKM": "Cs_Emo_Avatar_Simple_Common_Set/Cs_Emo_Avatar_Talk/Cs_Emo_Avatar_PersonalLine/Cs_Emo_Avatar_XingQiu/Cs_Emo_120010710",
                "AIMKGPFAAAD": "",
                "IPEKOEDCGGF": "",
                "EJNFMNJKDAH": "",
                "LOOOCOLIHFA": "",
                "KJDLMAPPPMG": "",
                "EKJHPKFBONG": [
                    14727882514248328235,
                    3276415743001554335,
                    13872062194816214784,
                    11622766991809332904
                ]
            },
            {
                "$type": "NFDDGDIKEAG",
                "type": "STEER_TO",
                "aliasList": [
                    "10048"
                ],
                "GPODKINFLFH": {
                    "x": -0.5697725415229797,
                    "z": 0.8218024373054504
                },
                "JBODIEHINII": "",
                "NNFPFPOJJOJ": ""
            },
            {
                "$type": "FNPNDPFBBDD",
                "type": "LOOK_AT",
                "aliasList": [
                    "10048"
                ],
                "NKGFDJDHOBD": true,
                "MNOPLOBEFLB": 0.10000000149011612,
                "JBODIEHINII": "162601",
                "LPCACGGCDLI": "",
                "NNFPFPOJJOJ": ""
            }
        ],
        [
            {
                "$type": "PBIGHFCHGCA",
                "type": "CAMERA_MOVE",
                "duration": 1.0,
                "KCFKJMMEECM": {
                    "x": -563.3040161132812,
                    "y": 245.52134704589844,
                    "z": 327.9424743652344
                },
                "DLGJEHNPMFN": {
                    "x": -562.313720703125,
                    "y": 245.41293334960938,
                    "z": 328.0294494628906
                },
                "NJCBGNHGINI": 30.0,
                "FNMFGIOLKBE": 6,
                "NECGMADJICG": "EaseOutQuad",
                "BMHIHPIKAHM": {},
                "JBODIEHINII": "",
                "EJCHLMIMLBO": "",
                "BIMPIKMCIHB": "",
                "MCAOJPLIJGI": ""
            },
            {
                "$type": "PBIGHFCHGCA",
                "type": "CAMERA_MOVE",
                "delayTime": 0.10000000149011612,
                "duration": 2.4000000953674316,
                "KCFKJMMEECM": {
                    "x": -563.322509765625,
                    "y": 245.5474090576172,
                    "z": 327.35064697265625
                },
                "DLGJEHNPMFN": {
                    "x": -562.3710327148438,
                    "y": 245.4092254638672,
                    "z": 327.07562255859375
                },
                "NJCBGNHGINI": 30.0,
                "NECGMADJICG": "EaseInOutCubic",
                "BMHIHPIKAHM": {},
                "JBODIEHINII": "",
                "EJCHLMIMLBO": "",
                "BIMPIKMCIHB": "",
                "MCAOJPLIJGI": ""
            },
            {
                "$type": "MoleMole.Config.ConfigTimeProtectAction",
                "type": "TIME_PROTECT",
                "duration": 2.5
            },
            {
                "$type": "MoleMole.Config.ConfigCameraDOFAction",
                "type": "CAMERA_DOF"
            },
            {
                "$type": "KAGAFALAIGP",
                "type": "DIALOG_CLEAR",
                "JHEPJOMJJHH": 120010710
            }
        ],
        [
            {
                "$type": "MoleMole.Config.ConfigTimeProtectAction",
                "type": "TIME_PROTECT",
                "duration": 1.0
            },
            {
                "$type": "MoleMole.Config.ConfigMoveToAction",
                "type": "MOVE_TO",
                "aliasList": [
                    "Avatar"
                ],
                "routeList": [
                    {
                        "x": -561.7393188476562,
                        "y": 244.03314208984375,
                        "z": 327.1764831542969
                    }
                ]
            },
            {
                "$type": "NFDDGDIKEAG",
                "type": "STEER_TO",
                "duration": 0.800000011920929,
                "aliasList": [
                    "Avatar"
                ],
                "GPODKINFLFH": {
                    "x": 0.700837254524231,
                    "z": -0.7133212685585022
                },
                "PKKKHNGDEEE": true,
                "JBODIEHINII": "",
                "NNFPFPOJJOJ": ""
            },
            {
                "$type": "FNPNDPFBBDD",
                "type": "LOOK_AT",
                "aliasList": [
                    "Avatar"
                ],
                "NKGFDJDHOBD": true,
                "MNOPLOBEFLB": 0.5,
                "JBODIEHINII": "1005",
                "LPCACGGCDLI": "",
                "NNFPFPOJJOJ": ""
            },
            {
                "$type": "KAGAFALAIGP",
                "type": "DIALOG",
                "delayTime": 0.6000000238418579,
                "aliasList": [
                    "10048"
                ],
                "JHEPJOMJJHH": 610045701,
                "OCILKFCPBNC": 1.0
            },
            {
                "$type": "NFDDGDIKEAG",
                "type": "STEER_TO",
                "duration": 0.6000000238418579,
                "aliasList": [
                    "1005"
                ],
                "GPODKINFLFH": {
                    "x": -0.6461080312728882,
                    "z": 0.7632460594177246
                },
                "PKKKHNGDEEE": true,
                "JBODIEHINII": "",
                "NNFPFPOJJOJ": ""
            },
            {
                "$type": "CENEPJCONAG",
                "type": "BODY_LANG",
                "delayTime": 0.6000000238418579,
                "aliasList": [
                    "1005"
                ],
                "OGFPAIKLDGB": 1180,
                "FOEKGLEJBIJ": ""
            },
            {
                "$type": "CENEPJCONAG",
                "type": "BODY_LANG",
                "delayTime": 2.200000047683716,
                "aliasList": [
                    "1005"
                ],
                "NNKEOHJCPOF": true,
                "FOEKGLEJBIJ": ""
            },
            {
                "$type": "LNLLGCOBDFC",
                "type": "EMO_SYNC",
                "delayTime": 0.6447868347167969,
                "aliasList": [
                    "1005"
                ],
                "LKHHGAGNMKM": "Cs_Emo_Avatar_Simple_Common_Set/Cs_Emo_Avatar_Talk/Cs_Emo_Avatar_PersonalLine/Cs_Emo_Avatar_XingQiu/Cs_Emo_610045701",
                "AIMKGPFAAAD": "",
                "IPEKOEDCGGF": "",
                "EJNFMNJKDAH": "",
                "LOOOCOLIHFA": "",
                "KJDLMAPPPMG": "",
                "EKJHPKFBONG": [
                    1956486799100955266,
                    11292130005139932112,
                    173764496181006129,
                    8482939962380872058
                ]
            }
        ],
        [
            {
                "$type": "KAGAFALAIGP",
                "type": "DIALOG",
                "aliasList": [
                    "10048"
                ],
                "JHEPJOMJJHH": 610045702,
                "OCILKFCPBNC": 1.0
            },
            {
                "$type": "CENEPJCONAG",
                "type": "BODY_LANG",
                "aliasList": [
                    "1005"
                ],
                "OGFPAIKLDGB": 1170,
                "FOEKGLEJBIJ": ""
            },
            {
                "$type": "CENEPJCONAG",
                "type": "BODY_LANG",
                "delayTime": 2.299999952316284,
                "aliasList": [
                    "1005"
                ],
                "NNKEOHJCPOF": true,
                "FOEKGLEJBIJ": ""
            },
            {
                "$type": "LNLLGCOBDFC",
                "type": "EMO_SYNC",
                "aliasList": [
                    "1005"
                ],
                "LKHHGAGNMKM": "Cs_Emo_Avatar_Simple_Common_Set/Cs_Emo_Avatar_Talk/Cs_Emo_Avatar_PersonalLine/Cs_Emo_Avatar_XingQiu/Cs_Emo_610045702",
                "AIMKGPFAAAD": "",
                "IPEKOEDCGGF": "",
                "EJNFMNJKDAH": "",
                "LOOOCOLIHFA": "",
                "KJDLMAPPPMG": "",
                "EKJHPKFBONG": [
                    18331908502494193618,
                    18240388747996833880,
                    17211670454683608110,
                    833405925243985731
                ]
            }
        ],
        [
            {
                "$type": "KAGAFALAIGP",
                "type": "DIALOG_CLEAR",
                "delayTime": 0.5,
                "JHEPJOMJJHH": 610045702
            },
            {
                "$type": "MoleMole.Config.ConfigTimeProtectAction",
                "type": "TIME_PROTECT",
                "duration": 0.6000000238418579
            },
            {
                "$type": "MoleMole.Config.ConfigCameraDOFAction",
                "type": "CAMERA_DOF",
                "delayTime": 0.5
            },
            {
                "$type": "PBIGHFCHGCA",
                "type": "CAMERA_MOVE",
                "delayTime": 0.5,
                "duration": 0.10000000149011612,
                "CGCNCKNJOFB": "EXIT",
                "KCFKJMMEECM": {
                    "x": -565.0140380859375,
                    "y": 246.19717407226562,
                    "z": 327.1228332519531
                },
                "DLGJEHNPMFN": {
                    "x": -564.1077270507812,
                    "y": 245.78065490722656,
                    "z": 327.1942443847656
                },
                "FNMFGIOLKBE": 6,
                "NECGMADJICG": "EaseInOutCubic",
                "BMHIHPIKAHM": {},
                "JBODIEHINII": "",
                "EJCHLMIMLBO": "",
                "BIMPIKMCIHB": "",
                "MCAOJPLIJGI": ""
            },
            {
                "$type": "MoleMole.Config.ConfigSimpleBlackScreenAction",
                "type": "SIMPLE_BLACK_SCREEN",
                "durationToBlack": 0.4000000059604645,
                "durationKeepBlack": 1.0,
                "durationFromBlack": 0.4000000059604645,
                "textMapID": ""
            }
        ]
    ],
    "groupId": [
        {
            "grpId": 4185113366,
            "nextGrpId": 4185113367
        },
        {
            "index": 1,
            "grpId": 4185113367,
            "nextGrpId": 4185113368
        },
        {
            "index": 2,
            "grpId": 4185113368,
            "nextGrpId": 4185113369
        },
        {
            "index": 3,
            "grpId": 4185113369,
            "nextGrpId": 4185113370
        },
        {
            "index": 4,
            "grpId": 4185113370,
            "nextGrpId": 4185113371
        },
        {
            "index": 5,
            "grpId": 4185113371,
            "nextGrpId": 4185113372
        },
        {
            "index": 6,
            "grpId": 4185113372,
            "nextGrpId": 4185113373
        },
        {
            "index": 7,
            "grpId": 4185113373,
            "nextGrpId": 4185113374
        },
        {
            "index": 8,
            "grpId": 4185113374,
            "nextGrpId": 889495514
        },
        {
            "index": 9,
            "grpId": 889495514,
            "nextGrpId": 889495515
        },
        {
            "index": 10,
            "grpId": 889495515,
            "nextGrpId": 889495516
        },
        {
            "index": 11,
            "grpId": 889495516,
            "nextGrpId": 889495517
        },
        {
            "index": 12,
            "grpId": 889495517,
            "nextGrpId": 889495518
        },
        {
            "index": 13,
            "grpId": 889495518,
            "nextGrpId": 889495519
        }
    ],
    "freeStyleDic": {
        "162601": [
            4030,
            4210,
            1171,
            1172,
            9000,
            1160,
            1120
        ]
    }
}