{
    "common": {
        "effectAttachShape": {
            "$type": "CMIPFEGOJCH",
            "EJAEFCDBDFB": "EffectMesh"
        },
        "mass": 20.0,
        "affectedByWorld": true
    },
    "headControl": {
        "$type": "HLGPLMCNIFB",
        "useHeadControl": true,
        "DPBKDJOPEBK": false,
        "PDPGAMNOEFH": [
            "GiveBS",
            "Turn_01",
            "Turn_02",
            "Nod_01",
            "HeadShake_01",
            "Refuse_01",
            "Refuse_02",
            "Chat_01",
            "Chat_02",
            "Hand_01",
            "Hand_02",
            "Hand_03",
            "Shock_01",
            "Shock_02",
            "Angry_01",
            "Angry_02",
            "Angry_03",
            "Sad_01",
            "Sad_02",
            "Helpless_01",
            "Think_01",
            "Confuse_01",
            "HoldArm_01",
            "HoldArm_02",
            "HoldArm_03",
            "Applaud_01",
            "Applaud_02",
            "Pray_01",
            "Give_01",
            "Check_01",
            "Conflicted_01",
            "Conflicted_02",
            "Happy_01",
            "Dislike_01",
            "PointSelf_01",
            "PointFront_01",
            "PointFront_02",
            "PointUp_01",
            "PointDown_01",
            "PointLeft_01",
            "PointRight_01",
            "Escape_01",
            "Escape_02",
            "Salute_01",
            "Salute_02",
            "Sit_01",
            "Lay_01",
            "Lay_02",
            "Lay_03",
            "Heal_01",
            "Heal_02",
            "Applause_01",
            "Applause_02",
            "Applause_03",
            "Bask_01",
            "Bask_02",
            "Curious_01",
            "Curious_02",
            "Curious_03",
            "Curious_04",
            "Frightened_01",
            "Frightened_02",
            "Guard_01",
            "Guard_02",
            "Carry_01",
            "Layback_01",
            "Forerake_01",
            "Bargain",
            "NoBargain",
            "DrinkToComplain",
            "FountainPray",
            "FountainSneak",
            "Born",
            "male01",
            "male02",
            "male03",
            "male04",
            "male05",
            "male06",
            "male07",
            "male08"
        ]
    },
    "stateLayers": {
        "defaultLayer": {
            "$type": "KFHJINNNDPN",
            "BOPIBFKFKCA": "",
            "stateIDs": {
                "NormalMove": {
                    "$type": "MEECNDLIOBI",
                    "HKPCLGHBKFD": {
                        "Standby": [
                            "Audio_Char_NPC_Paimon_Walk"
                        ],
                        "Run": [
                            "Audio_Char_NPC_Paimon_Walk"
                        ]
                    },
                    "KNOHBHKACHA": true,
                    "ADPGACLPFHN": [
                        "DoSkill"
                    ],
                    "NPMGEMAFACP": true
                },
                "Born": {
                    "$type": "BPHNIGAMEOH",
                    "HKPCLGHBKFD": {
                        "Born": [
                            "Npc_Paimon_Appear",
                            "Audio_Char_NPC_Paimon_Appear"
                        ]
                    },
                    "PONDMDBOCMG": false
                },
                "Disappear": {
                    "$type": "BPHNIGAMEOH",
                    "HKPCLGHBKFD": {
                        "Disappear": [
                            "Npc_Paimon_Disappear",
                            "Audio_Char_NPC_Paimon_Disappear"
                        ]
                    },
                    "PONDMDBOCMG": false
                },
                "FreeStyleReset": {
                    "$type": "BPHNIGAMEOH",
                    "HKPCLGHBKFD": {
                        "HitLightBackrake01": [
                            "Npc_ResetFreeStyle"
                        ],
                        "HitLightForerake01": [
                            "Npc_ResetFreeStyle"
                        ],
                        "AfraidAS": [
                            "Npc_ResetFreeStyle"
                        ],
                        "Alert01AS": [
                            "Npc_ResetFreeStyle"
                        ],
                        "Clap01": [
                            "Npc_ResetFreeStyle"
                        ]
                    }
                },
                "FreeStyle": {
                    "$type": "BPHNIGAMEOH",
                    "HKPCLGHBKFD": {
                        "Paimon_Wave": [
                            "Audio_Char_NPC_Paimon_Wave"
                        ],
                        "Paimon_Anger": [
                            "Audio_Char_NPC_Paimon_Anger"
                        ],
                        "Paimon_Turnback": [
                            "Audio_Char_NPC_Paimon_Turnback"
                        ],
                        "Paimon_Guide": [
                            "Audio_Char_NPC_Paimon_Guide"
                        ],
                        "Paimon_Domagic": [
                            "Audio_Char_NPC_Paimon_Domagic"
                        ],
                        "Paimon_Turnback_0": [
                            "Audio_Char_NPC_Paimon_Turnback"
                        ],
                        "Paimon_Guide_0": [
                            "Audio_Char_NPC_Paimon_Guide"
                        ],
                        "Paimon_Turnback_00": [
                            "Audio_Char_NPC_Paimon_Turnback"
                        ],
                        "Paimon_Guide_00": [
                            "Audio_Char_NPC_Paimon_Guide"
                        ],
                        "Paimon_Domagic_0": [
                            "Audio_Char_NPC_Paimon_Domagic"
                        ],
                        "Ani_NPC_Kanban_Paimon_Akimbo01BS": [],
                        "Ani_NPC_Kanban_Paimon_Akimbo01Loop": [],
                        "Ani_NPC_Kanban_Paimon_Akimbo01AS": [],
                        "Ani_NPC_Kanban_Paimon_Applaud01": [],
                        "Ani_NPC_Kanban_Paimon_Backward01BS": [],
                        "Ani_NPC_Kanban_Paimon_Backward01Loop": [],
                        "Ani_NPC_Kanban_Paimon_Backward01AS": [],
                        "Ani_NPC_Kanban_Paimon_Confuse01BS": [],
                        "Ani_NPC_Kanban_Paimon_Confuse01Loop": [],
                        "Ani_NPC_Kanban_Paimon_Confuse01AS": [],
                        "Ani_NPC_Kanban_Paimon_Forward01BS": [],
                        "Ani_NPC_Kanban_Paimon_Forward01Loop": [],
                        "Ani_NPC_Kanban_Paimon_Forward01AS": [],
                        "Ani_NPC_Kanban_Paimon_Give01BS": [],
                        "Ani_NPC_Kanban_Paimon_Give01Loop": [],
                        "Ani_NPC_Kanban_Paimon_Give01AS": [],
                        "Ani_NPC_Kanban_Paimon_Head01BS": [],
                        "Ani_NPC_Kanban_Paimon_Head01Loop": [],
                        "Ani_NPC_Kanban_Paimon_Head01AS": [],
                        "Ani_NPC_Kanban_Paimon_HeadShake01": [],
                        "Ani_NPC_Kanban_Paimon_Helpless01": [],
                        "Ani_NPC_Kanban_Paimon_HoldArm01BS": [],
                        "Ani_NPC_Kanban_Paimon_HoldArm01Loop": [],
                        "Ani_NPC_Kanban_Paimon_HoldArm01AS": [],
                        "Ani_NPC_Kanban_Paimon_Hope": [
                            "Audio_Char_NPC_Paimon_Hope"
                        ],
                        "Ani_NPC_Kanban_Paimon_Nod01": [],
                        "Ani_NPC_Kanban_Paimon_Pat01BS": [],
                        "Ani_NPC_Kanban_Paimon_Pat01Loop": [],
                        "Ani_NPC_Kanban_Paimon_Pat01AS": [],
                        "Ani_NPC_Kanban_Paimon_PointSide01BS": [],
                        "Ani_NPC_Kanban_Paimon_PointSide01Loop": [],
                        "Ani_NPC_Kanban_Paimon_PointSide01AS": [],
                        "Ani_NPC_Kanban_Paimon_Refuse01BS": [],
                        "Ani_NPC_Kanban_Paimon_Refuse01Loop": [],
                        "Ani_NPC_Kanban_Paimon_Refuse01AS": [],
                        "Ani_NPC_Kanban_Paimon_Talk01BS": [],
                        "Ani_NPC_Kanban_Paimon_Talk01Loop": [],
                        "Ani_NPC_Kanban_Paimon_Talk01AS": [],
                        "Ani_NPC_Kanban_Paimon_Talk02BS": [],
                        "Ani_NPC_Kanban_Paimon_Talk02Loop": [],
                        "Ani_NPC_Kanban_Paimon_Talk02AS": [],
                        "Ani_NPC_Kanban_Paimon_Think01BS": [],
                        "Ani_NPC_Kanban_Paimon_Think01Loop": [],
                        "Ani_NPC_Kanban_Paimon_Think01AS": []
                    }
                }
            }
        }
    },
    "billboard": {
        "$type": "IGPCHEKDONM",
        "IIKEHINGEME": "BillboardAttach",
        "offset": {
            "x": -0.07999999821186066
        },
        "GEKOGJAPMMH": "Character",
        "HECLHMINJII": 0.30000001192092896,
        "showDistance": 20.0,
        "FIPKOJEJGJA": 45.0
    },
    "aibeta": {
        "enable": true,
        "friendliness": 1,
        "moveSetting": {
            "navMeshAgentName": "Undead01",
            "almostReachedDistanceWalk": 0.20000000298023224,
            "almostReachedDistanceRun": 0.3499999940395355
        },
        "sensing": {
            "enable": false
        },
        "threat": {
            "enable": false
        },
        "defendArea": {
            "enable": false
        },
        "profiling": {
            "lodStrategy": "Best"
        },
        "combatFixedMoveTactic": [
            {
                "$type": "BIIGCKAIPPG",
                "enable": true,
                "NGIEOIGFFDH": {
                    "NHPKGHAHIFA": 1,
                    "FCFLCFFJKLO": "",
                    "BKCOJDIDEGN": ""
                }
            }
        ]
    },
    "move": {
        "$type": "JIAKLFMBPBA",
        "BGKIHCPJBMO": {
            "includeForces": [
                "RetreatType",
                "RetreatAirType",
                "RushMoveType",
                "WindZoneType",
                "AirflowType",
                "RiseType",
                "SpeedupType",
                "AirflowAccType",
                "InertiaType"
            ]
        },
        "LPAKBBIADNC": "RootNode"
    },
    "emojiBubble": {},
    "JLGPGAMMNOM": "PRIVATE_Pendant"
}