{
    "luaDataPath": "",
    "startBlackKeepTime": 0.8999999761581421,
    "entityBan": "",
    "startFade": {
        "startFadeInDuration": 0.30000001192092896,
        "startFadeOutDuration": 0.30000001192092896
    },
    "endFade": {
        "startFadeOutDuration": 0.0
    },
    "actors": [
        {
            "alias": "Avatar",
            "visible": true,
            "bornPointName": "Q101506Born",
            "relativePosNpcAlias": "",
            "bindMovingTargetKey": ""
        },
        {
            "configID": 10232,
            "alias": "10232",
            "visible": true,
            "bornPointName": "Q101506Zl",
            "relativePosNpcAlias": "",
            "bindMovingTargetKey": ""
        },
        {
            "configID": 1005,
            "alias": "1005",
            "visible": true,
            "bornPointName": "Q101506Paimon",
            "relativePosNpcAlias": "",
            "bindMovingTargetKey": ""
        },
        {
            "configID": 10247,
            "alias": "10247",
            "visible": true,
            "bornPointName": "Q101506Monster3",
            "relativePosNpcAlias": "",
            "bindMovingTargetKey": ""
        },
        {
            "configID": 10253,
            "alias": "10253",
            "visible": true,
            "bornPointName": "Q101506Monster2",
            "relativePosNpcAlias": "",
            "bindMovingTargetKey": ""
        },
        {
            "configID": 10254,
            "alias": "10254",
            "visible": true,
            "bornPointName": "Q101506Monster1",
            "relativePosNpcAlias": "",
            "bindMovingTargetKey": ""
        }
    ],
    "group": [
        [
            {
                "$type": "PBIGHFCHGCA",
                "type": "CAMERA_MOVE",
                "duration": 2.0,
                "KCFKJMMEECM": {
                    "x": -382.8874816894531,
                    "y": 291.7669982910156,
                    "z": 668.9010009765625
                },
                "DLGJEHNPMFN": {
                    "x": -382.1620788574219,
                    "y": 291.69744873046875,
                    "z": 669.5858154296875
                },
                "NJCBGNHGINI": 30.0,
                "FNMFGIOLKBE": 6,
                "NECGMADJICG": "EaseOutQuad",
                "BMHIHPIKAHM": {},
                "JBODIEHINII": "",
                "EJCHLMIMLBO": "",
                "BIMPIKMCIHB": "",
                "MCAOJPLIJGI": ""
            },
            {
                "$type": "PBIGHFCHGCA",
                "type": "CAMERA_MOVE",
                "delayTime": 0.009999999776482582,
                "duration": 20.0,
                "KCFKJMMEECM": {
                    "x": -382.78515625,
                    "y": 291.76336669921875,
                    "z": 668.7954711914062
                },
                "DLGJEHNPMFN": {
                    "x": -382.0743103027344,
                    "y": 291.6938171386719,
                    "z": 669.495361328125
                },
                "NJCBGNHGINI": 30.0,
                "NECGMADJICG": "EaseOutQuad",
                "BMHIHPIKAHM": {},
                "JBODIEHINII": "",
                "EJCHLMIMLBO": "",
                "BIMPIKMCIHB": "",
                "MCAOJPLIJGI": ""
            },
            {
                "$type": "MoleMole.Config.ConfigMoveToAction",
                "type": "MOVE_TO",
                "aliasList": [
                    "Avatar"
                ],
                "routeList": [
                    {
                        "x": -377.11767578125,
                        "y": 290.56878662109375,
                        "z": 673.0975341796875
                    }
                ]
            },
            {
                "$type": "NFDDGDIKEAG",
                "type": "STEER_TO",
                "aliasList": [
                    "Avatar"
                ],
                "GPODKINFLFH": {
                    "x": -0.984597384929657,
                    "z": 0.17483727633953094
                },
                "JBODIEHINII": "",
                "NNFPFPOJJOJ": ""
            },
            {
                "$type": "FNPNDPFBBDD",
                "type": "LOOK_AT",
                "aliasList": [
                    "Avatar"
                ],
                "NKGFDJDHOBD": true,
                "MNOPLOBEFLB": 0.5,
                "JBODIEHINII": "10232",
                "LPCACGGCDLI": "",
                "NNFPFPOJJOJ": ""
            },
            {
                "$type": "KAGAFALAIGP",
                "type": "DIALOG",
                "aliasList": [
                    "10232"
                ],
                "JHEPJOMJJHH": 10150601,
                "OCILKFCPBNC": 1.0
            },
            {
                "$type": "MoleMole.Config.ConfigMoveToAction",
                "type": "MOVE_TO",
                "aliasList": [
                    "10232"
                ],
                "routeList": [
                    {
                        "x": -378.45166015625,
                        "y": 290.55780029296875,
                        "z": 671.7907104492188
                    }
                ]
            },
            {
                "$type": "MoleMole.Config.ConfigVisibleInterAction",
                "type": "VISIBLE",
                "aliasList": [
                    "10232"
                ],
                "isVisible": true,
                "extraParam": ""
            },
            {
                "$type": "MoleMole.Config.ConfigMoveToAction",
                "type": "MOVE_TO",
                "aliasList": [
                    "1005"
                ],
                "routeList": [
                    {
                        "x": -377.1132507324219,
                        "y": 290.55780029296875,
                        "z": 673.6226196289062
                    }
                ]
            },
            {
                "$type": "NFDDGDIKEAG",
                "type": "STEER_TO",
                "aliasList": [
                    "1005"
                ],
                "GPODKINFLFH": {
                    "x": -0.9972493648529053,
                    "z": -0.07411931455135345
                },
                "JBODIEHINII": "",
                "NNFPFPOJJOJ": ""
            },
            {
                "$type": "FNPNDPFBBDD",
                "type": "LOOK_AT",
                "aliasList": [
                    "1005"
                ],
                "NKGFDJDHOBD": true,
                "MNOPLOBEFLB": 0.5,
                "JBODIEHINII": "10232",
                "LPCACGGCDLI": "",
                "NNFPFPOJJOJ": ""
            },
            {
                "$type": "MoleMole.Config.ConfigVisibleInterAction",
                "type": "VISIBLE",
                "aliasList": [
                    "10247"
                ],
                "isVisible": true,
                "extraParam": ""
            },
            {
                "$type": "MoleMole.Config.ConfigMoveToAction",
                "type": "MOVE_TO",
                "aliasList": [
                    "10253"
                ],
                "routeList": [
                    {
                        "x": -366.87274169921875,
                        "y": 284.5799865722656,
                        "z": 663.8643798828125
                    }
                ]
            },
            {
                "$type": "MoleMole.Config.ConfigVisibleInterAction",
                "type": "VISIBLE",
                "aliasList": [
                    "10253"
                ],
                "isVisible": true,
                "extraParam": ""
            },
            {
                "$type": "MoleMole.Config.ConfigVisibleInterAction",
                "type": "VISIBLE",
                "aliasList": [
                    "10254"
                ],
                "isVisible": true,
                "extraParam": ""
            }
        ],
        [
            {
                "$type": "FNPNDPFBBDD",
                "type": "LOOK_AT",
                "aliasList": [
                    "Avatar"
                ],
                "NKGFDJDHOBD": true,
                "MNOPLOBEFLB": 0.5,
                "JBODIEHINII": "10232",
                "LPCACGGCDLI": "",
                "NNFPFPOJJOJ": ""
            },
            {
                "$type": "KAGAFALAIGP",
                "type": "DIALOG",
                "aliasList": [
                    "10232"
                ],
                "JHEPJOMJJHH": 10150602,
                "OCILKFCPBNC": 1.5
            },
            {
                "$type": "MoleMole.Config.ConfigMoveToAction",
                "type": "MOVE_TO",
                "aliasList": [
                    "10232"
                ],
                "moveType": "WALK",
                "routeList": [
                    {
                        "x": -378.31988525390625,
                        "y": 290.55780029296875,
                        "z": 672.4515991210938
                    }
                ]
            },
            {
                "$type": "CENEPJCONAG",
                "type": "BODY_LANG",
                "delayTime": 1.2000000476837158,
                "aliasList": [
                    "10232"
                ],
                "OGFPAIKLDGB": 1280,
                "FOEKGLEJBIJ": ""
            },
            {
                "$type": "FNPNDPFBBDD",
                "type": "LOOK_AT",
                "aliasList": [
                    "1005"
                ],
                "NKGFDJDHOBD": true,
                "MNOPLOBEFLB": 0.5,
                "JBODIEHINII": "10232",
                "LPCACGGCDLI": "",
                "NNFPFPOJJOJ": ""
            }
        ],
        [
            {
                "$type": "MoleMole.Config.ConfigBlackScreenAction",
                "type": "BLACK_SCREEN",
                "duration": 0.5,
                "blackScreenType": "TO_BLACK",
                "durationToBlack": 0.5,
                "inteePos": "",
                "textMapID": ""
            },
            {
                "$type": "MoleMole.Config.ConfigTimeProtectAction",
                "type": "TIME_PROTECT",
                "duration": 0.5
            },
            {
                "$type": "KAGAFALAIGP",
                "type": "DIALOG_CLEAR",
                "JHEPJOMJJHH": 10150602
            }
        ],
        [
            {
                "$type": "MoleMole.Config.ConfigLuaAction",
                "type": "LUA_ACTION",
                "delayTime": 0.10000000149011612,
                "duration": 1.0,
                "invoke": true,
                "invokeAlias": "1015",
                "invokeParam": 2
            },
            {
                "$type": "PBIGHFCHGCA",
                "type": "CAMERA_MOVE",
                "delayTime": 0.009999999776482582,
                "duration": 10.0,
                "KCFKJMMEECM": {
                    "x": -384.4416198730469,
                    "y": 290.8931884765625,
                    "z": 673.595458984375
                },
                "DLGJEHNPMFN": {
                    "x": -383.5123291015625,
                    "y": 291.2476806640625,
                    "z": 673.6990356445312
                },
                "NJCBGNHGINI": 30.0,
                "NECGMADJICG": "EaseOutQuad",
                "BMHIHPIKAHM": {},
                "JBODIEHINII": "",
                "EJCHLMIMLBO": "",
                "BIMPIKMCIHB": "",
                "MCAOJPLIJGI": ""
            },
            {
                "$type": "PBIGHFCHGCA",
                "type": "CAMERA_MOVE",
                "duration": 1.0,
                "KCFKJMMEECM": {
                    "x": -384.67669677734375,
                    "y": 290.8034973144531,
                    "z": 673.5692749023438
                },
                "DLGJEHNPMFN": {
                    "x": -383.7474060058594,
                    "y": 291.1579895019531,
                    "z": 673.6728515625
                },
                "NJCBGNHGINI": 30.0,
                "FNMFGIOLKBE": 6,
                "NECGMADJICG": "EaseInOutCubic",
                "BMHIHPIKAHM": {},
                "JBODIEHINII": "",
                "EJCHLMIMLBO": "",
                "BIMPIKMCIHB": "",
                "MCAOJPLIJGI": ""
            },
            {
                "$type": "MoleMole.Config.ConfigBlackScreenAction",
                "type": "BLACK_SCREEN",
                "duration": 1.0,
                "blackScreenType": "KEEP_BLACK",
                "durationKeepBlack": 1.0,
                "inteePos": "",
                "textMapID": ""
            },
            {
                "$type": "MoleMole.Config.ConfigBlackScreenAction",
                "type": "BLACK_SCREEN",
                "delayTime": 1.0,
                "duration": 0.5,
                "blackScreenType": "FROM_BLACK",
                "durationFromBlack": 0.5,
                "inteePos": "",
                "textMapID": ""
            },
            {
                "$type": "NFDDGDIKEAG",
                "type": "STEER_TO",
                "aliasList": [
                    "Avatar"
                ],
                "GPODKINFLFH": {
                    "x": -0.9329307675361633,
                    "z": 0.36005571484565735
                },
                "JBODIEHINII": "",
                "NNFPFPOJJOJ": ""
            },
            {
                "$type": "MoleMole.Config.ConfigMoveToAction",
                "type": "MOVE_TO",
                "aliasList": [
                    "Avatar"
                ],
                "routeList": [
                    {
                        "x": -377.26824951171875,
                        "y": 290.56878662109375,
                        "z": 672.8091430664062
                    }
                ]
            },
            {
                "$type": "FNPNDPFBBDD",
                "type": "LOOK_AT",
                "aliasList": [
                    "Avatar"
                ],
                "NKGFDJDHOBD": true,
                "MNOPLOBEFLB": 0.5,
                "JBODIEHINII": "",
                "LPCACGGCDLI": "",
                "NNFPFPOJJOJ": ""
            },
            {
                "$type": "KAGAFALAIGP",
                "type": "DIALOG",
                "aliasList": [
                    "10232"
                ],
                "JHEPJOMJJHH": 10150603,
                "OCILKFCPBNC": 1.5
            },
            {
                "$type": "CENEPJCONAG",
                "type": "BODY_LANG",
                "aliasList": [
                    "10232"
                ],
                "NNKEOHJCPOF": true,
                "FOEKGLEJBIJ": ""
            },
            {
                "$type": "NFDDGDIKEAG",
                "type": "STEER_TO",
                "aliasList": [
                    "10232"
                ],
                "GPODKINFLFH": {
                    "x": -0.7974815964698792,
                    "z": 0.6033433079719543
                },
                "JBODIEHINII": "",
                "NNFPFPOJJOJ": ""
            },
            {
                "$type": "LNLLGCOBDFC",
                "type": "EMO_SYNC",
                "aliasList": [
                    "10232"
                ],
                "LKHHGAGNMKM": "Cs_Emo_Avatar_Simple_Common_Set/Cs_Emo_Avatar_Talk/Cs_Emo_Avatar_MainLine/Cs_Emo_Avatar_LiYue/Cs_Emo_10150603",
                "AIMKGPFAAAD": "",
                "IPEKOEDCGGF": "",
                "EJNFMNJKDAH": "",
                "LOOOCOLIHFA": "",
                "KJDLMAPPPMG": "",
                "EKJHPKFBONG": [
                    9121852993768839237,
                    850444868464839046,
                    10742176482645330152,
                    3256482950414967345
                ]
            },
            {
                "$type": "NFDDGDIKEAG",
                "type": "STEER_TO",
                "aliasList": [
                    "1005"
                ],
                "GPODKINFLFH": {
                    "x": -0.9881700277328491,
                    "z": 0.15336278080940247
                },
                "JBODIEHINII": "",
                "NNFPFPOJJOJ": ""
            },
            {
                "$type": "FNPNDPFBBDD",
                "type": "LOOK_AT",
                "aliasList": [
                    "1005"
                ],
                "JBODIEHINII": "",
                "LPCACGGCDLI": "",
                "NNFPFPOJJOJ": ""
            }
        ],
        [
            {
                "$type": "PBIGHFCHGCA",
                "type": "CAMERA_MOVE",
                "duration": 1.0,
                "KCFKJMMEECM": {
                    "x": -375.6206970214844,
                    "y": 292.5763244628906,
                    "z": 671.7339477539062
                },
                "DLGJEHNPMFN": {
                    "x": -376.4844665527344,
                    "y": 292.39373779296875,
                    "z": 672.2035522460938
                },
                "NJCBGNHGINI": 30.0,
                "FNMFGIOLKBE": 6,
                "NECGMADJICG": "EaseInOutCubic",
                "BMHIHPIKAHM": {},
                "JBODIEHINII": "",
                "EJCHLMIMLBO": "",
                "BIMPIKMCIHB": "",
                "MCAOJPLIJGI": ""
            },
            {
                "$type": "KAGAFALAIGP",
                "type": "DIALOG",
                "aliasList": [
                    "1005"
                ],
                "JHEPJOMJJHH": 10150604,
                "OCILKFCPBNC": 1.0
            },
            {
                "$type": "MoleMole.Config.ConfigMoveToAction",
                "type": "MOVE_TO",
                "aliasList": [
                    "1005"
                ],
                "routeList": [
                    {
                        "x": -377.4759521484375,
                        "y": 290.55780029296875,
                        "z": 673.665771484375
                    }
                ]
            }
        ],
        [
            {
                "$type": "PBIGHFCHGCA",
                "type": "CAMERA_MOVE",
                "delayTime": 3.25,
                "duration": 1.5,
                "KCFKJMMEECM": {
                    "x": -383.68157958984375,
                    "y": 291.7371826171875,
                    "z": 676.2098388671875
                },
                "DLGJEHNPMFN": {
                    "x": -384.5386962890625,
                    "y": 291.5487060546875,
                    "z": 676.6892700195312
                },
                "NJCBGNHGINI": 30.0,
                "NECGMADJICG": "EaseInOutCubic",
                "BMHIHPIKAHM": {},
                "JBODIEHINII": "",
                "EJCHLMIMLBO": "",
                "BIMPIKMCIHB": "",
                "MCAOJPLIJGI": ""
            },
            {
                "$type": "MoleMole.Config.ConfigSimpleUIShowInterAction",
                "type": "SIMPLE_UI_SHOW",
                "delayTime": 3.799999952316284,
                "duration": 1.0,
                "contextName": "OpticalSightDialog",
                "param": ""
            },
            {
                "$type": "KAGAFALAIGP",
                "type": "DIALOG",
                "aliasList": [
                    "10232"
                ],
                "JHEPJOMJJHH": 10150605,
                "OCILKFCPBNC": 5.0
            },
            {
                "$type": "CENEPJCONAG",
                "type": "BODY_LANG",
                "aliasList": [
                    "10232"
                ],
                "OGFPAIKLDGB": 1171,
                "FOEKGLEJBIJ": ""
            }
        ],
        [
            {
                "$type": "PBIGHFCHGCA",
                "type": "CAMERA_MOVE",
                "duration": 1.0,
                "KCFKJMMEECM": {
                    "x": -380.0484619140625,
                    "y": 293.402099609375,
                    "z": 674.7141723632812
                },
                "DLGJEHNPMFN": {
                    "x": -381.0070495605469,
                    "y": 293.1434631347656,
                    "z": 674.833251953125
                },
                "NJCBGNHGINI": 30.0,
                "NECGMADJICG": "EaseInOutCubic",
                "BMHIHPIKAHM": {},
                "JBODIEHINII": "",
                "EJCHLMIMLBO": "",
                "BIMPIKMCIHB": "",
                "MCAOJPLIJGI": ""
            },
            {
                "$type": "PBIGHFCHGCA",
                "type": "CAMERA_MOVE",
                "delayTime": 2.4000000953674316,
                "duration": 1.5,
                "KCFKJMMEECM": {
                    "x": -379.25421142578125,
                    "y": 288.8697509765625,
                    "z": 684.23046875
                },
                "DLGJEHNPMFN": {
                    "x": -378.9264221191406,
                    "y": 288.4154052734375,
                    "z": 685.0587768554688
                },
                "NJCBGNHGINI": 30.0,
                "NECGMADJICG": "EaseInOutCubic",
                "BMHIHPIKAHM": {},
                "JBODIEHINII": "",
                "EJCHLMIMLBO": "",
                "BIMPIKMCIHB": "",
                "MCAOJPLIJGI": ""
            },
            {
                "$type": "KAGAFALAIGP",
                "type": "DIALOG",
                "aliasList": [
                    "1005"
                ],
                "JHEPJOMJJHH": 10150617,
                "OCILKFCPBNC": 4.0
            },
            {
                "$type": "MoleMole.Config.ConfigMoveToAction",
                "type": "MOVE_TO",
                "aliasList": [
                    "10247"
                ],
                "routeList": [
                    {
                        "x": -366.6953430175781,
                        "y": 284.5799865722656,
                        "z": 664.4854125976562
                    }
                ]
            },
            {
                "$type": "NFDDGDIKEAG",
                "type": "STEER_TO",
                "aliasList": [
                    "10247"
                ],
                "GPODKINFLFH": {
                    "x": -0.7476447224617004,
                    "z": 0.664098858833313
                },
                "JBODIEHINII": "",
                "NNFPFPOJJOJ": ""
            },
            {
                "$type": "FNPNDPFBBDD",
                "type": "LOOK_AT",
                "aliasList": [
                    "10247"
                ],
                "NKGFDJDHOBD": true,
                "MNOPLOBEFLB": 0.4000000059604645,
                "JBODIEHINII": "Avatar",
                "LPCACGGCDLI": "",
                "NNFPFPOJJOJ": ""
            },
            {
                "$type": "MoleMole.Config.ConfigMoveToAction",
                "type": "MOVE_TO",
                "aliasList": [
                    "10253"
                ],
                "routeList": [
                    {
                        "x": -366.6839599609375,
                        "y": 284.5799865722656,
                        "z": 663.3860473632812
                    }
                ]
            },
            {
                "$type": "NFDDGDIKEAG",
                "type": "STEER_TO",
                "aliasList": [
                    "10253"
                ],
                "GPODKINFLFH": {
                    "x": -0.7476447224617004,
                    "z": 0.664098858833313
                },
                "JBODIEHINII": "",
                "NNFPFPOJJOJ": ""
            },
            {
                "$type": "FNPNDPFBBDD",
                "type": "LOOK_AT",
                "aliasList": [
                    "10253"
                ],
                "NKGFDJDHOBD": true,
                "MNOPLOBEFLB": 0.4000000059604645,
                "JBODIEHINII": "Avatar",
                "LPCACGGCDLI": "",
                "NNFPFPOJJOJ": ""
            },
            {
                "$type": "MoleMole.Config.ConfigMoveToAction",
                "type": "MOVE_TO",
                "aliasList": [
                    "10254"
                ],
                "routeList": [
                    {
                        "x": -365.5110778808594,
                        "y": 284.54901123046875,
                        "z": 664.4325561523438
                    }
                ]
            },
            {
                "$type": "NFDDGDIKEAG",
                "type": "STEER_TO",
                "aliasList": [
                    "10254"
                ],
                "GPODKINFLFH": {
                    "x": -0.7476447224617004,
                    "z": 0.664098858833313
                },
                "JBODIEHINII": "",
                "NNFPFPOJJOJ": ""
            },
            {
                "$type": "FNPNDPFBBDD",
                "type": "LOOK_AT",
                "aliasList": [
                    "10254"
                ],
                "NKGFDJDHOBD": true,
                "MNOPLOBEFLB": 0.4000000059604645,
                "JBODIEHINII": "Avatar",
                "LPCACGGCDLI": "",
                "NNFPFPOJJOJ": ""
            }
        ],
        [
            {
                "$type": "PBIGHFCHGCA",
                "type": "CAMERA_MOVE",
                "duration": 1.0,
                "KCFKJMMEECM": {
                    "x": -369.852783203125,
                    "y": 287.9439392089844,
                    "z": 667.1638793945312
                },
                "DLGJEHNPMFN": {
                    "x": -369.1660461425781,
                    "y": 287.4922790527344,
                    "z": 666.5942993164062
                },
                "NJCBGNHGINI": 30.0,
                "NECGMADJICG": "EaseInOutCubic",
                "BMHIHPIKAHM": {},
                "JBODIEHINII": "",
                "EJCHLMIMLBO": "",
                "BIMPIKMCIHB": "",
                "MCAOJPLIJGI": ""
            },
            {
                "$type": "MoleMole.Config.ConfigTimeProtectAction",
                "type": "TIME_PROTECT",
                "duration": 2.0
            },
            {
                "$type": "KAGAFALAIGP",
                "type": "DIALOG",
                "delayTime": 1.4700000286102295,
                "aliasList": [
                    "10247"
                ],
                "JHEPJOMJJHH": 10150606
            },
            {
                "$type": "CENEPJCONAG",
                "type": "BODY_LANG",
                "delayTime": 1.399999976158142,
                "aliasList": [
                    "10247"
                ],
                "OGFPAIKLDGB": 1171,
                "FOEKGLEJBIJ": ""
            }
        ],
        [
            {
                "$type": "PBIGHFCHGCA",
                "type": "CAMERA_MOVE",
                "delayTime": 0.4000000059604645,
                "duration": 1.0,
                "KCFKJMMEECM": {
                    "x": -378.52978515625,
                    "y": 292.7423095703125,
                    "z": 673.387939453125
                },
                "DLGJEHNPMFN": {
                    "x": -377.77630615234375,
                    "y": 292.2588195800781,
                    "z": 672.9423828125
                },
                "NJCBGNHGINI": 20.0,
                "NECGMADJICG": "EaseInOutCubic",
                "BMHIHPIKAHM": {},
                "JBODIEHINII": "",
                "EJCHLMIMLBO": "",
                "BIMPIKMCIHB": "",
                "MCAOJPLIJGI": ""
            },
            {
                "$type": "MoleMole.Config.ConfigSimpleUIShowInterAction",
                "type": "SIMPLE_UI_SHOW",
                "duration": 1.0,
                "contextName": "OpticalSightDialog",
                "isClose": true,
                "param": ""
            },
            {
                "$type": "MoleMole.Config.ConfigTimeProtectAction",
                "type": "TIME_PROTECT",
                "duration": 1.5
            },
            {
                "$type": "NFDDGDIKEAG",
                "type": "STEER_TO",
                "delayTime": 0.8999999761581421,
                "duration": 0.800000011920929,
                "aliasList": [
                    "Avatar"
                ],
                "GPODKINFLFH": {
                    "x": 0.9432043433189392,
                    "z": -0.33221325278282166
                },
                "PKKKHNGDEEE": true,
                "JBODIEHINII": "",
                "NNFPFPOJJOJ": ""
            },
            {
                "$type": "NFDDGDIKEAG",
                "type": "STEER_TO",
                "delayTime": 0.8999999761581421,
                "duration": 0.6000000238418579,
                "aliasList": [
                    "1005"
                ],
                "GPODKINFLFH": {
                    "x": 0.8863910436630249,
                    "z": -0.4629373252391815
                },
                "PKKKHNGDEEE": true,
                "JBODIEHINII": "",
                "NNFPFPOJJOJ": ""
            },
            {
                "$type": "KAGAFALAIGP",
                "type": "DIALOG",
                "delayTime": 1.8749628067016602,
                "aliasList": [
                    "10247"
                ],
                "JHEPJOMJJHH": 10150607
            },
            {
                "$type": "CENEPJCONAG",
                "type": "BODY_LANG",
                "delayTime": 1.899999976158142,
                "aliasList": [
                    "10247"
                ],
                "OGFPAIKLDGB": 1171,
                "FOEKGLEJBIJ": ""
            },
            {
                "$type": "CENEPJCONAG",
                "type": "BODY_LANG",
                "aliasList": [
                    "10247"
                ],
                "NNKEOHJCPOF": true,
                "FOEKGLEJBIJ": ""
            }
        ],
        [
            {
                "$type": "PBIGHFCHGCA",
                "type": "CAMERA_MOVE",
                "duration": 1.0,
                "KCFKJMMEECM": {
                    "x": -372.97198486328125,
                    "y": 289.48138427734375,
                    "z": 670.6492919921875
                },
                "DLGJEHNPMFN": {
                    "x": -373.7983703613281,
                    "y": 289.86376953125,
                    "z": 671.0626220703125
                },
                "NJCBGNHGINI": 30.0,
                "FNMFGIOLKBE": 6,
                "NECGMADJICG": "EaseInOutCubic",
                "BMHIHPIKAHM": {},
                "JBODIEHINII": "",
                "EJCHLMIMLBO": "",
                "BIMPIKMCIHB": "",
                "MCAOJPLIJGI": ""
            },
            {
                "$type": "PBIGHFCHGCA",
                "type": "CAMERA_MOVE",
                "delayTime": 0.009999999776482582,
                "duration": 10.0,
                "KCFKJMMEECM": {
                    "x": -373.3407287597656,
                    "y": 289.6321716308594,
                    "z": 670.3890991210938
                },
                "DLGJEHNPMFN": {
                    "x": -374.1520080566406,
                    "y": 290.0062255859375,
                    "z": 670.8384399414062
                },
                "NJCBGNHGINI": 30.0,
                "NECGMADJICG": "EaseOutQuad",
                "BMHIHPIKAHM": {},
                "JBODIEHINII": "",
                "EJCHLMIMLBO": "",
                "BIMPIKMCIHB": "",
                "MCAOJPLIJGI": ""
            },
            {
                "$type": "FNPNDPFBBDD",
                "type": "LOOK_AT",
                "aliasList": [
                    "Avatar"
                ],
                "NKGFDJDHOBD": true,
                "MNOPLOBEFLB": 0.5,
                "JBODIEHINII": "10247",
                "LPCACGGCDLI": "",
                "NNFPFPOJJOJ": ""
            },
            {
                "$type": "KAGAFALAIGP",
                "type": "DIALOG",
                "aliasList": [
                    "10232"
                ],
                "JHEPJOMJJHH": 10150608,
                "OCILKFCPBNC": 1.0
            },
            {
                "$type": "MoleMole.Config.ConfigMoveToAction",
                "type": "MOVE_TO",
                "aliasList": [
                    "10232"
                ],
                "moveType": "WALK",
                "routeList": [
                    {
                        "x": -377.8623962402344,
                        "y": 290.55780029296875,
                        "z": 672.259521484375
                    }
                ]
            },
            {
                "$type": "FNPNDPFBBDD",
                "type": "LOOK_AT",
                "aliasList": [
                    "10232"
                ],
                "NKGFDJDHOBD": true,
                "MNOPLOBEFLB": 0.5,
                "JBODIEHINII": "10247",
                "LPCACGGCDLI": "",
                "NNFPFPOJJOJ": ""
            },
            {
                "$type": "NFDDGDIKEAG",
                "type": "STEER_TO",
                "aliasList": [
                    "10232"
                ],
                "GPODKINFLFH": {
                    "x": 0.8133865594863892,
                    "y": 0.08435767889022827,
                    "z": -0.575574517250061
                },
                "JBODIEHINII": "",
                "NNFPFPOJJOJ": ""
            },
            {
                "$type": "CENEPJCONAG",
                "type": "BODY_LANG",
                "delayTime": 4.110000133514404,
                "aliasList": [
                    "10232"
                ],
                "OGFPAIKLDGB": 1120,
                "FOEKGLEJBIJ": ""
            },
            {
                "$type": "LNLLGCOBDFC",
                "type": "EMO_SYNC",
                "aliasList": [
                    "10232"
                ],
                "LKHHGAGNMKM": "Cs_Emo_Avatar_Simple_Common_Set/Cs_Emo_Avatar_Talk/Cs_Emo_Avatar_MainLine/Cs_Emo_Avatar_LiYue/Cs_Emo_10150608",
                "AIMKGPFAAAD": "",
                "IPEKOEDCGGF": "",
                "EJNFMNJKDAH": "",
                "LOOOCOLIHFA": "",
                "KJDLMAPPPMG": "",
                "EKJHPKFBONG": [
                    13955646074319094448,
                    3022556941411538038,
                    17302578942237107633,
                    16004502817420159366
                ]
            },
            {
                "$type": "MoleMole.Config.ConfigMoveToAction",
                "type": "MOVE_TO",
                "aliasList": [
                    "1005"
                ],
                "routeList": [
                    {
                        "x": -376.1360778808594,
                        "y": 290.55780029296875,
                        "z": 673.2716064453125
                    }
                ]
            },
            {
                "$type": "FNPNDPFBBDD",
                "type": "LOOK_AT",
                "aliasList": [
                    "1005"
                ],
                "NKGFDJDHOBD": true,
                "MNOPLOBEFLB": 0.5,
                "JBODIEHINII": "10247",
                "LPCACGGCDLI": "",
                "NNFPFPOJJOJ": ""
            }
        ],
        [
            {
                "$type": "PBIGHFCHGCA",
                "type": "CAMERA_MOVE",
                "duration": 1.0,
                "KCFKJMMEECM": {
                    "x": -379.0058288574219,
                    "y": 292.8625793457031,
                    "z": 672.6698608398438
                },
                "DLGJEHNPMFN": {
                    "x": -378.2159423828125,
                    "y": 292.3843688964844,
                    "z": 672.2859497070312
                },
                "NJCBGNHGINI": 20.0,
                "FNMFGIOLKBE": 6,
                "NECGMADJICG": "EaseInOutCubic",
                "BMHIHPIKAHM": {},
                "JBODIEHINII": "",
                "EJCHLMIMLBO": "",
                "BIMPIKMCIHB": "",
                "MCAOJPLIJGI": ""
            },
            {
                "$type": "KAGAFALAIGP",
                "type": "DIALOG",
                "aliasList": [
                    "10247"
                ],
                "JHEPJOMJJHH": 10150609,
                "OCILKFCPBNC": 1.0
            },
            {
                "$type": "FNPNDPFBBDD",
                "type": "LOOK_AT",
                "aliasList": [
                    "10247"
                ],
                "NKGFDJDHOBD": true,
                "MNOPLOBEFLB": 0.5,
                "JBODIEHINII": "10232",
                "LPCACGGCDLI": "",
                "NNFPFPOJJOJ": ""
            },
            {
                "$type": "CENEPJCONAG",
                "type": "BODY_LANG",
                "aliasList": [
                    "10247"
                ],
                "OGFPAIKLDGB": 1120,
                "FOEKGLEJBIJ": ""
            }
        ],
        [
            {
                "$type": "KAGAFALAIGP",
                "type": "DIALOG",
                "aliasList": [
                    "10247"
                ],
                "JHEPJOMJJHH": 10150610,
                "OCILKFCPBNC": 1.0
            },
            {
                "$type": "CENEPJCONAG",
                "type": "BODY_LANG",
                "aliasList": [
                    "10247"
                ],
                "NNKEOHJCPOF": true,
                "FOEKGLEJBIJ": ""
            },
            {
                "$type": "CENEPJCONAG",
                "type": "BODY_LANG",
                "delayTime": 3.200000047683716,
                "aliasList": [
                    "10247"
                ],
                "OGFPAIKLDGB": 1171,
                "FOEKGLEJBIJ": ""
            }
        ],
        [
            {
                "$type": "PBIGHFCHGCA",
                "type": "CAMERA_MOVE",
                "duration": 1.0,
                "KCFKJMMEECM": {
                    "x": -367.99517822265625,
                    "y": 286.590576171875,
                    "z": 665.0633544921875
                },
                "DLGJEHNPMFN": {
                    "x": -367.1024169921875,
                    "y": 286.31170654296875,
                    "z": 664.70947265625
                },
                "NJCBGNHGINI": 30.0,
                "FNMFGIOLKBE": 6,
                "NECGMADJICG": "EaseInOutCubic",
                "BMHIHPIKAHM": {},
                "JBODIEHINII": "",
                "EJCHLMIMLBO": "",
                "BIMPIKMCIHB": "",
                "MCAOJPLIJGI": ""
            },
            {
                "$type": "KAGAFALAIGP",
                "type": "DIALOG",
                "aliasList": [
                    "10247"
                ],
                "JHEPJOMJJHH": 10150611,
                "OCILKFCPBNC": 1.0
            },
            {
                "$type": "CENEPJCONAG",
                "type": "BODY_LANG",
                "aliasList": [
                    "10247"
                ],
                "OGFPAIKLDGB": 1171,
                "FOEKGLEJBIJ": ""
            },
            {
                "$type": "LNLLGCOBDFC",
                "type": "EMO_SYNC",
                "aliasList": [
                    "10247"
                ],
                "LKHHGAGNMKM": "Cs_Emo_Avatar_Simple_Common_Set/Cs_Emo_Avatar_Talk/Cs_Emo_Avatar_MainLine/Cs_Emo_Avatar_LiYue/Cs_Emo_10150611",
                "AIMKGPFAAAD": "",
                "IPEKOEDCGGF": "",
                "EJNFMNJKDAH": "",
                "LOOOCOLIHFA": "",
                "KJDLMAPPPMG": "",
                "EKJHPKFBONG": [
                    11558471934594206341,
                    819521178802155869,
                    17093681105102872333,
                    13354960207232982306
                ]
            }
        ],
        [
            {
                "$type": "KAGAFALAIGP",
                "type": "DIALOG",
                "aliasList": [
                    "10247"
                ],
                "JHEPJOMJJHH": 10150612,
                "OCILKFCPBNC": 1.0
            },
            {
                "$type": "CENEPJCONAG",
                "type": "BODY_LANG",
                "aliasList": [
                    "10247"
                ],
                "OGFPAIKLDGB": 1171,
                "FOEKGLEJBIJ": ""
            },
            {
                "$type": "LNLLGCOBDFC",
                "type": "EMO_SYNC",
                "aliasList": [
                    "10247"
                ],
                "LKHHGAGNMKM": "Cs_Emo_Avatar_Simple_Common_Set/Cs_Emo_Avatar_Talk/Cs_Emo_Avatar_MainLine/Cs_Emo_Avatar_LiYue/Cs_Emo_10150612",
                "AIMKGPFAAAD": "",
                "IPEKOEDCGGF": "",
                "EJNFMNJKDAH": "",
                "LOOOCOLIHFA": "",
                "KJDLMAPPPMG": "",
                "EKJHPKFBONG": [
                    6997019997116277812,
                    13456235555061144588,
                    13013008317512962555,
                    10567550254484106589
                ]
            }
        ],
        [
            {
                "$type": "CENEPJCONAG",
                "type": "BODY_LANG",
                "aliasList": [
                    "10232"
                ],
                "NNKEOHJCPOF": true,
                "FOEKGLEJBIJ": ""
            },
            {
                "$type": "KAGAFALAIGP",
                "type": "DIALOG",
                "aliasList": [
                    "10247"
                ],
                "JHEPJOMJJHH": 10150613,
                "OCILKFCPBNC": 1.0
            },
            {
                "$type": "CENEPJCONAG",
                "type": "BODY_LANG",
                "aliasList": [
                    "10247"
                ],
                "OGFPAIKLDGB": 1120,
                "FOEKGLEJBIJ": ""
            },
            {
                "$type": "LNLLGCOBDFC",
                "type": "EMO_SYNC",
                "aliasList": [
                    "10247"
                ],
                "LKHHGAGNMKM": "Cs_Emo_Avatar_Simple_Common_Set/Cs_Emo_Avatar_Talk/Cs_Emo_Avatar_MainLine/Cs_Emo_Avatar_LiYue/Cs_Emo_10150611",
                "AIMKGPFAAAD": "",
                "IPEKOEDCGGF": "",
                "EJNFMNJKDAH": "",
                "LOOOCOLIHFA": "",
                "KJDLMAPPPMG": "",
                "EKJHPKFBONG": [
                    11558471934594206341,
                    819521178802155869,
                    17093681105102872333,
                    13354960207232982306
                ]
            }
        ],
        [
            {
                "$type": "PBIGHFCHGCA",
                "type": "CAMERA_MOVE",
                "delayTime": 0.009999999776482582,
                "duration": 10.0,
                "KCFKJMMEECM": {
                    "x": -377.2376403808594,
                    "y": 291.85662841796875,
                    "z": 671.5469360351562
                },
                "DLGJEHNPMFN": {
                    "x": -377.8030700683594,
                    "y": 292.1629943847656,
                    "z": 672.312744140625
                },
                "NJCBGNHGINI": 30.0,
                "FNMFGIOLKBE": 1,
                "NECGMADJICG": "EaseOutQuad",
                "BMHIHPIKAHM": {},
                "JBODIEHINII": "",
                "EJCHLMIMLBO": "",
                "BIMPIKMCIHB": "",
                "MCAOJPLIJGI": ""
            },
            {
                "$type": "PBIGHFCHGCA",
                "type": "CAMERA_MOVE",
                "duration": 1.0,
                "KCFKJMMEECM": {
                    "x": -377.1932067871094,
                    "y": 291.8325500488281,
                    "z": 671.4867553710938
                },
                "DLGJEHNPMFN": {
                    "x": -377.7586364746094,
                    "y": 292.138916015625,
                    "z": 672.2525634765625
                },
                "NJCBGNHGINI": 30.0,
                "FNMFGIOLKBE": 6,
                "NECGMADJICG": "EaseInOutCubic",
                "BMHIHPIKAHM": {},
                "JBODIEHINII": "",
                "EJCHLMIMLBO": "",
                "BIMPIKMCIHB": "",
                "MCAOJPLIJGI": ""
            },
            {
                "$type": "KAGAFALAIGP",
                "type": "DIALOG",
                "aliasList": [
                    "10232"
                ],
                "JHEPJOMJJHH": 10150614,
                "OCILKFCPBNC": 1.0
            },
            {
                "$type": "LNLLGCOBDFC",
                "type": "EMO_SYNC",
                "aliasList": [
                    "10232"
                ],
                "LKHHGAGNMKM": "Cs_Emo_Avatar_Simple_Common_Set/Cs_Emo_Avatar_Talk/Cs_Emo_Avatar_MainLine/Cs_Emo_Avatar_LiYue/Cs_Emo_10150614",
                "AIMKGPFAAAD": "",
                "IPEKOEDCGGF": "",
                "EJNFMNJKDAH": "",
                "LOOOCOLIHFA": "",
                "KJDLMAPPPMG": "",
                "EKJHPKFBONG": [
                    4297097948031268549,
                    6576736515026430968,
                    15707439519125605489,
                    15867915310998850754
                ]
            }
        ],
        [
            {
                "$type": "KAGAFALAIGP",
                "type": "DIALOG",
                "aliasList": [
                    "10232"
                ],
                "JHEPJOMJJHH": 10150615,
                "OCILKFCPBNC": 1.0
            },
            {
                "$type": "CENEPJCONAG",
                "type": "BODY_LANG",
                "aliasList": [
                    "10232"
                ],
                "OGFPAIKLDGB": 1120,
                "FOEKGLEJBIJ": ""
            },
            {
                "$type": "LNLLGCOBDFC",
                "type": "EMO_SYNC",
                "aliasList": [
                    "10232"
                ],
                "LKHHGAGNMKM": "Cs_Emo_Avatar_Simple_Common_Set/Cs_Emo_Avatar_Talk/Cs_Emo_Avatar_MainLine/Cs_Emo_Avatar_LiYue/Cs_Emo_10150615",
                "AIMKGPFAAAD": "",
                "IPEKOEDCGGF": "",
                "EJNFMNJKDAH": "",
                "LOOOCOLIHFA": "",
                "KJDLMAPPPMG": "",
                "EKJHPKFBONG": [
                    7439113074938381538,
                    1761677603236800761,
                    7246436762596092425,
                    12290709253888235070
                ]
            }
        ],
        [
            {
                "$type": "MoleMole.Config.ConfigTimeProtectAction",
                "type": "TIME_PROTECT",
                "duration": 0.6000000238418579
            },
            {
                "$type": "PBIGHFCHGCA",
                "type": "CAMERA_MOVE",
                "delayTime": 0.5,
                "duration": 0.10000000149011612,
                "CGCNCKNJOFB": "EXIT",
                "KCFKJMMEECM": {
                    "x": -378.3787536621094,
                    "y": 292.5263366699219,
                    "z": 674.2252807617188
                },
                "DLGJEHNPMFN": {
                    "x": -377.68902587890625,
                    "y": 292.0693359375,
                    "z": 673.6636352539062
                },
                "FNMFGIOLKBE": 6,
                "NECGMADJICG": "EaseInOutCubic",
                "BMHIHPIKAHM": {},
                "JBODIEHINII": "",
                "EJCHLMIMLBO": "",
                "BIMPIKMCIHB": "",
                "MCAOJPLIJGI": ""
            },
            {
                "$type": "MoleMole.Config.ConfigSimpleBlackScreenAction",
                "type": "SIMPLE_BLACK_SCREEN",
                "durationToBlack": 0.5,
                "durationKeepBlack": 2.0,
                "durationFromBlack": 0.5,
                "textMapID": ""
            },
            {
                "$type": "MoleMole.Config.ConfigVisibleInterAction",
                "type": "VISIBLE",
                "delayTime": 0.5,
                "aliasList": [
                    "10232"
                ],
                "extraParam": ""
            },
            {
                "$type": "MoleMole.Config.ConfigVisibleInterAction",
                "type": "VISIBLE",
                "delayTime": 0.5,
                "aliasList": [
                    "10247"
                ],
                "extraParam": ""
            },
            {
                "$type": "MoleMole.Config.ConfigVisibleInterAction",
                "type": "VISIBLE",
                "delayTime": 0.5,
                "aliasList": [
                    "10253"
                ],
                "extraParam": ""
            },
            {
                "$type": "MoleMole.Config.ConfigVisibleInterAction",
                "type": "VISIBLE",
                "delayTime": 0.5,
                "aliasList": [
                    "10254"
                ],
                "extraParam": ""
            }
        ]
    ],
    "groupId": [
        {
            "grpId": 3357049859,
            "nextGrpId": 3357049860
        },
        {
            "index": 1,
            "grpId": 3357049860,
            "nextGrpId": 3357049861
        },
        {
            "index": 2,
            "grpId": 3357049861,
            "nextGrpId": 3357049862
        },
        {
            "index": 3,
            "grpId": 3357049862,
            "nextGrpId": 3357049863
        },
        {
            "index": 4,
            "grpId": 3357049863,
            "nextGrpId": 3357049864
        },
        {
            "index": 5,
            "grpId": 3357049864,
            "nextGrpId": 3357049865
        },
        {
            "index": 6,
            "grpId": 3357049865,
            "nextGrpId": 3357049866
        },
        {
            "index": 7,
            "grpId": 3357049866,
            "nextGrpId": 3357049867
        },
        {
            "index": 8,
            "grpId": 3357049867,
            "nextGrpId": 989330573
        },
        {
            "index": 9,
            "grpId": 989330573,
            "nextGrpId": 989330574
        },
        {
            "index": 10,
            "grpId": 989330574,
            "nextGrpId": 989330575
        },
        {
            "index": 11,
            "grpId": 989330575,
            "nextGrpId": 989330576
        },
        {
            "index": 12,
            "grpId": 989330576,
            "nextGrpId": 989330577
        },
        {
            "index": 13,
            "grpId": 989330577,
            "nextGrpId": 989330578
        },
        {
            "index": 14,
            "grpId": 989330578,
            "nextGrpId": 989330579
        },
        {
            "index": 15,
            "grpId": 989330579,
            "nextGrpId": 989330580
        },
        {
            "index": 16,
            "grpId": 989330580,
            "nextGrpId": 989330581
        },
        {
            "index": 17,
            "grpId": 989330581,
            "nextGrpId": 989330582
        }
    ],
    "freeStyleDic": {
        "10232": [
            1280,
            1171,
            1120
        ],
        "10247": [
            1171,
            1120
        ],
        "10253": [],
        "10254": []
    }
}