{
    "luaDataPath": "",
    "startBlackKeepTime": 0.5,
    "entityBan": "",
    "disableNpcLod": true,
    "BHNKJKDADLC": true,
    "JJFIGGKCCCF": true,
    "EKDGNGHMECG": true,
    "startFade": {
        "startFadeInDuration": 0.5,
        "startFadeOutDuration": 0.5
    },
    "endFade": {
        "startFadeOutDuration": 0.0
    },
    "actors": [
        {
            "alias": "Avatar",
            "visible": true,
            "bornPointName": "Q7302611_player",
            "relativePosType": "AVATAR_NEW",
            "relativePosNpcAlias": "",
            "bindMovingTargetKey": ""
        },
        {
            "configID": 20601,
            "alias": "20601",
            "visible": true,
            "bornPointName": "WQL1_NPCCOCKPIT",
            "relativePosType": "AVATAR_NEW",
            "relativePosNpcAlias": "",
            "bindMovingTargetKey": ""
        },
        {
            "configID": 1005,
            "alias": "1005",
            "visible": true,
            "bornPointName": "Q7302611_N1005",
            "removeActorType": "REMOVE_WITH_DISAPPEAR",
            "relativePosType": "AVATAR_NEW",
            "relativePosNpcAlias": "",
            "bindMovingTargetKey": ""
        }
    ],
    "group": [
        [
            {
                "$type": "MoleMole.Config.ConfigTimeProtectAction",
                "type": "TIME_PROTECT",
                "duration": 0.30000001192092896
            },
            {
                "$type": "MoleMole.Config.ConfigBlackScreenAction",
                "type": "BLACK_SCREEN",
                "actionId": 131,
                "blackScreenType": "KEEP_BLACK",
                "durationKeepBlack": 0.5,
                "inteePos": "",
                "textMapID": "",
                "useTextFade": true
            },
            {
                "$type": "MoleMole.Config.ConfigTeleportToAction",
                "type": "TELEPORT_TO",
                "aliasList": [
                    "Avatar"
                ],
                "actionId": 134,
                "position": {
                    "x": -1539.3470458984375,
                    "y": 269.87799072265625,
                    "z": 2337.596923828125
                },
                "forward": {
                    "x": 1.3880000114440918,
                    "y": 0.09600000083446503,
                    "z": 1.0369999408721924
                },
                "openLongDisTeleport": true,
                "posBindMovingTargetKey": "",
                "forwardBindMovingTargetKey": ""
            },
            {
                "$type": "FNPNDPFBBDD",
                "type": "LOOK_AT",
                "aliasList": [
                    "Avatar"
                ],
                "actionId": 139,
                "NKGFDJDHOBD": true,
                "useTargetPos": true,
                "LBJHJADMNBD": true,
                "EKIONHAEIBG": {
                    "x": -1538.1319580078125,
                    "y": 271.02398681640625,
                    "z": 2338.64404296875
                },
                "MNOPLOBEFLB": 0.5,
                "JBODIEHINII": "",
                "CFPBIOLLOCO": "NONE",
                "MDNPCOHCCLM": true,
                "LPCACGGCDLI": "",
                "NNFPFPOJJOJ": ""
            },
            {
                "$type": "MoleMole.Config.ConfigTeleportToAction",
                "type": "TELEPORT_TO",
                "aliasList": [
                    "20601"
                ],
                "actionId": 135,
                "position": {
                    "x": -1538.2440185546875,
                    "y": 269.5360107421875,
                    "z": 2338.7060546875
                },
                "forward": {
                    "x": -0.6420000195503235,
                    "z": -0.765999972820282
                },
                "openLongDisTeleport": true,
                "posBindMovingTargetKey": "",
                "forwardBindMovingTargetKey": ""
            },
            {
                "$type": "FNPNDPFBBDD",
                "type": "LOOK_AT",
                "aliasList": [
                    "20601"
                ],
                "actionId": 140,
                "NKGFDJDHOBD": true,
                "useTargetPos": true,
                "LBJHJADMNBD": true,
                "EKIONHAEIBG": {
                    "x": -1539.3470458984375,
                    "y": 271.02398681640625,
                    "z": 2337.590087890625
                },
                "MNOPLOBEFLB": 0.5,
                "JBODIEHINII": "",
                "CFPBIOLLOCO": "NONE",
                "MDNPCOHCCLM": true,
                "LPCACGGCDLI": "",
                "NNFPFPOJJOJ": ""
            },
            {
                "$type": "FNPNDPFBBDD",
                "type": "LOOK_AT",
                "aliasList": [
                    "1005"
                ],
                "actionId": 138,
                "NKGFDJDHOBD": true,
                "useTargetPos": true,
                "LBJHJADMNBD": true,
                "EKIONHAEIBG": {
                    "x": -1538.1319580078125,
                    "y": 271.02398681640625,
                    "z": 2338.64404296875
                },
                "MNOPLOBEFLB": 0.5,
                "JBODIEHINII": "",
                "CFPBIOLLOCO": "NONE",
                "MDNPCOHCCLM": true,
                "LPCACGGCDLI": "",
                "NNFPFPOJJOJ": ""
            },
            {
                "$type": "MoleMole.Config.ConfigTeleportToAction",
                "type": "TELEPORT_TO",
                "aliasList": [
                    "1005"
                ],
                "actionId": 162,
                "position": {
                    "x": -1538.7919921875,
                    "y": 269.65301513671875,
                    "z": 2337.14404296875
                },
                "forward": {
                    "x": 0.4169999957084656,
                    "y": 0.05299999937415123,
                    "z": 0.8679999709129333
                },
                "openLongDisTeleport": true,
                "posBindMovingTargetKey": "",
                "forwardBindMovingTargetKey": ""
            },
            {
                "$type": "MoleMole.Config.ConfigSetModelTransform",
                "type": "SET_MODEL_TRANSFORM",
                "delayTime": 0.07400000095367432,
                "aliasList": [
                    "1005"
                ],
                "actionId": 163,
                "groudHight": 0.800000011920929
            }
        ],
        [
            {
                "$type": "MoleMole.Config.ConfigBlackScreenAction",
                "type": "BLACK_SCREEN",
                "actionId": 132,
                "blackScreenType": "FROM_BLACK",
                "durationFromBlack": 0.5,
                "inteePos": "",
                "textMapID": "",
                "useTextFade": true
            },
            {
                "$type": "PBIGHFCHGCA",
                "type": "CAMERA_MOVE",
                "duration": 0.10000000149011612,
                "actionId": 133,
                "KCFKJMMEECM": {
                    "x": -1536.2359619140625,
                    "y": 270.8219909667969,
                    "z": 2335.6279296875
                },
                "DLGJEHNPMFN": {
                    "x": -1536.9560546875,
                    "y": 270.8399963378906,
                    "z": 2336.322021484375
                },
                "NJCBGNHGINI": 30.0,
                "FNMFGIOLKBE": 6,
                "NECGMADJICG": "EaseInOutCubic",
                "BMHIHPIKAHM": {},
                "MMJMMAEAJOA": true,
                "HGGPLEMCNNG": false,
                "JBODIEHINII": "",
                "PHDIKPKLFIA": true,
                "EJCHLMIMLBO": "",
                "BIMPIKMCIHB": "",
                "MCAOJPLIJGI": ""
            },
            {
                "$type": "KAGAFALAIGP",
                "type": "DIALOG",
                "aliasList": [
                    "20601"
                ],
                "JHEPJOMJJHH": 730261301,
                "OCILKFCPBNC": 1.0
            },
            {
                "$type": "CENEPJCONAG",
                "type": "BODY_LANG",
                "aliasList": [
                    "20601"
                ],
                "actionId": 141,
                "OGFPAIKLDGB": 1060,
                "MHDCNDAINCK": true,
                "LHIAJOBFNAK": false,
                "GJGPNLJEIFP": true,
                "FOEKGLEJBIJ": ""
            },
            {
                "$type": "FNPNDPFBBDD",
                "type": "LOOK_AT",
                "aliasList": [
                    "20601"
                ],
                "actionId": 147,
                "NKGFDJDHOBD": true,
                "useTargetPos": true,
                "LBJHJADMNBD": true,
                "EKIONHAEIBG": {
                    "x": -1539.4329833984375,
                    "y": 271.02398681640625,
                    "z": 2337.675048828125
                },
                "MNOPLOBEFLB": 0.5,
                "JBODIEHINII": "",
                "CFPBIOLLOCO": "NONE",
                "MDNPCOHCCLM": true,
                "LPCACGGCDLI": "",
                "NNFPFPOJJOJ": ""
            },
            {
                "$type": "PBIGHFCHGCA",
                "type": "CAMERA_MOVE",
                "delayTime": 0.057999998331069946,
                "duration": 9.347999572753906,
                "actionId": 142,
                "KCFKJMMEECM": {
                    "x": -1536.47998046875,
                    "y": 270.8179931640625,
                    "z": 2335.8759765625
                },
                "DLGJEHNPMFN": {
                    "x": -1537.199951171875,
                    "y": 270.83599853515625,
                    "z": 2336.570068359375
                },
                "NJCBGNHGINI": 30.0,
                "NECGMADJICG": "EaseOutQuad",
                "BMHIHPIKAHM": {},
                "MMJMMAEAJOA": true,
                "HGGPLEMCNNG": false,
                "JBODIEHINII": "",
                "PHDIKPKLFIA": true,
                "EJCHLMIMLBO": "",
                "BIMPIKMCIHB": "",
                "MCAOJPLIJGI": ""
            },
            {
                "$type": "AAFOOOPNJLB",
                "type": "DIALOG_SELECT",
                "delayTime": 1.0,
                "aliasList": [
                    "Avatar"
                ],
                "KFAEOBDAAME": [
                    730261302
                ],
                "ELPFMMBHOLF": [
                    3022674377
                ],
                "OEAAKJDIEFD": true
            }
        ],
        [
            {
                "$type": "FNPNDPFBBDD",
                "type": "LOOK_AT",
                "aliasList": [
                    "20601"
                ],
                "actionId": 146,
                "NKGFDJDHOBD": true,
                "useTargetPos": true,
                "LBJHJADMNBD": true,
                "EKIONHAEIBG": {
                    "x": -1538.9429931640625,
                    "y": 271.02398681640625,
                    "z": 2337.340087890625
                },
                "MNOPLOBEFLB": 0.5,
                "JBODIEHINII": "",
                "CFPBIOLLOCO": "NONE",
                "MDNPCOHCCLM": true,
                "LPCACGGCDLI": "",
                "NNFPFPOJJOJ": ""
            },
            {
                "$type": "KAGAFALAIGP",
                "type": "DIALOG",
                "aliasList": [
                    "1005"
                ],
                "JHEPJOMJJHH": 730261303,
                "OCILKFCPBNC": 0.5
            },
            {
                "$type": "CENEPJCONAG",
                "type": "BODY_LANG",
                "aliasList": [
                    "1005"
                ],
                "actionId": 143,
                "OGFPAIKLDGB": 1060,
                "MHDCNDAINCK": true,
                "LHIAJOBFNAK": false,
                "GJGPNLJEIFP": true,
                "FOEKGLEJBIJ": ""
            },
            {
                "$type": "CENEPJCONAG",
                "type": "BODY_LANG",
                "delayTime": 1.3329999446868896,
                "aliasList": [
                    "1005"
                ],
                "actionId": 145,
                "NNKEOHJCPOF": true,
                "MHDCNDAINCK": true,
                "LHIAJOBFNAK": false,
                "GJGPNLJEIFP": true,
                "FOEKGLEJBIJ": ""
            },
            {
                "$type": "CENEPJCONAG",
                "type": "BODY_LANG",
                "delayTime": 1.6720000505447388,
                "aliasList": [
                    "1005"
                ],
                "actionId": 144,
                "OGFPAIKLDGB": 1230,
                "MHDCNDAINCK": true,
                "LHIAJOBFNAK": false,
                "GJGPNLJEIFP": true,
                "FOEKGLEJBIJ": ""
            }
        ],
        [
            {
                "$type": "PBIGHFCHGCA",
                "type": "CAMERA_MOVE",
                "duration": 0.10000000149011612,
                "actionId": 150,
                "KCFKJMMEECM": {
                    "x": -1538.1619873046875,
                    "y": 271.0639953613281,
                    "z": 2337.5419921875
                },
                "DLGJEHNPMFN": {
                    "x": -1538.2659912109375,
                    "y": 271.114990234375,
                    "z": 2338.534912109375
                },
                "NJCBGNHGINI": 30.0,
                "FNMFGIOLKBE": 6,
                "NECGMADJICG": "EaseInOutCubic",
                "BMHIHPIKAHM": {},
                "MMJMMAEAJOA": true,
                "HGGPLEMCNNG": false,
                "JBODIEHINII": "",
                "PHDIKPKLFIA": true,
                "EJCHLMIMLBO": "",
                "BIMPIKMCIHB": "",
                "MCAOJPLIJGI": ""
            },
            {
                "$type": "KAGAFALAIGP",
                "type": "DIALOG",
                "aliasList": [
                    "20601"
                ],
                "JHEPJOMJJHH": 730261304,
                "OCILKFCPBNC": 1.0
            },
            {
                "$type": "CENEPJCONAG",
                "type": "BODY_LANG",
                "aliasList": [
                    "20601"
                ],
                "actionId": 148,
                "NNKEOHJCPOF": true,
                "MHDCNDAINCK": true,
                "LHIAJOBFNAK": false,
                "GJGPNLJEIFP": true,
                "FOEKGLEJBIJ": ""
            },
            {
                "$type": "FNPNDPFBBDD",
                "type": "LOOK_AT",
                "aliasList": [
                    "20601"
                ],
                "actionId": 152,
                "NKGFDJDHOBD": true,
                "useTargetPos": true,
                "LBJHJADMNBD": true,
                "EKIONHAEIBG": {
                    "x": -1538.822998046875,
                    "y": 271.26800537109375,
                    "z": 2337.219970703125
                },
                "MNOPLOBEFLB": 0.5,
                "JBODIEHINII": "",
                "CFPBIOLLOCO": "NONE",
                "MDNPCOHCCLM": true,
                "LPCACGGCDLI": "",
                "NNFPFPOJJOJ": ""
            },
            {
                "$type": "LNLLGCOBDFC",
                "type": "EMO_SYNC",
                "aliasList": [
                    "20601"
                ],
                "actionId": 156,
                "LKHHGAGNMKM": "",
                "AIMKGPFAAAD": "Cs_Emo_NPC_Common/Cs_Emo_NPC_Angry01",
                "IPEKOEDCGGF": "Cs_Emo_NPC_Common/Cs_Emo_NPC_Normal01_B",
                "EJNFMNJKDAH": "",
                "LOOOCOLIHFA": "",
                "KJDLMAPPPMG": "",
                "IMIEGJDNPNN": [
                    9218657655395275517,
                    6356428425152214583,
                    11840959722219800112,
                    50070356133267922
                ],
                "KIJHIMADJGM": [
                    15191155715402440098,
                    420038106395935518,
                    2651432695756251320,
                    4209314551981667660
                ]
            },
            {
                "$type": "CENEPJCONAG",
                "type": "BODY_LANG",
                "aliasList": [
                    "1005"
                ],
                "actionId": 151,
                "NNKEOHJCPOF": true,
                "MHDCNDAINCK": true,
                "LHIAJOBFNAK": false,
                "GJGPNLJEIFP": true,
                "FOEKGLEJBIJ": ""
            },
            {
                "$type": "CENEPJCONAG",
                "type": "BODY_LANG",
                "delayTime": 0.7599999904632568,
                "aliasList": [
                    "20601"
                ],
                "actionId": 149,
                "OGFPAIKLDGB": 1150,
                "MHDCNDAINCK": true,
                "LHIAJOBFNAK": false,
                "GJGPNLJEIFP": true,
                "FOEKGLEJBIJ": ""
            },
            {
                "$type": "CENEPJCONAG",
                "type": "BODY_LANG",
                "delayTime": 4.8470001220703125,
                "aliasList": [
                    "20601"
                ],
                "actionId": 154,
                "OGFPAIKLDGB": 1173,
                "MHDCNDAINCK": true,
                "LHIAJOBFNAK": false,
                "GJGPNLJEIFP": true,
                "FOEKGLEJBIJ": ""
            },
            {
                "$type": "LNLLGCOBDFC",
                "type": "EMO_SYNC",
                "delayTime": 4.89900016784668,
                "aliasList": [
                    "20601"
                ],
                "actionId": 157,
                "LKHHGAGNMKM": "",
                "AIMKGPFAAAD": "Cs_Emo_NPC_Common/Cs_Emo_NPC_Angry01",
                "IPEKOEDCGGF": "Cs_Emo_NPC_Common/Cs_Emo_NPC_Normal01_B",
                "EJNFMNJKDAH": "",
                "LOOOCOLIHFA": "",
                "KJDLMAPPPMG": "",
                "IMIEGJDNPNN": [
                    9218657655395275517,
                    6356428425152214583,
                    11840959722219800112,
                    50070356133267922
                ],
                "KIJHIMADJGM": [
                    15191155715402440098,
                    420038106395935518,
                    2651432695756251320,
                    4209314551981667660
                ]
            },
            {
                "$type": "FNPNDPFBBDD",
                "type": "LOOK_AT",
                "delayTime": 5.064000129699707,
                "aliasList": [
                    "20601"
                ],
                "actionId": 153,
                "NKGFDJDHOBD": true,
                "useTargetPos": true,
                "LBJHJADMNBD": true,
                "EKIONHAEIBG": {
                    "x": -1539.197021484375,
                    "y": 271.02398681640625,
                    "z": 2337.72900390625
                },
                "MNOPLOBEFLB": 0.5,
                "JBODIEHINII": "",
                "CFPBIOLLOCO": "NONE",
                "MDNPCOHCCLM": true,
                "LPCACGGCDLI": "",
                "NNFPFPOJJOJ": ""
            }
        ],
        [
            {
                "$type": "PBIGHFCHGCA",
                "type": "CAMERA_MOVE",
                "duration": 0.10000000149011612,
                "actionId": 159,
                "KCFKJMMEECM": {
                    "x": -1539.531982421875,
                    "y": 271.4360046386719,
                    "z": 2336.669921875
                },
                "DLGJEHNPMFN": {
                    "x": -1538.9639892578125,
                    "y": 271.22100830078125,
                    "z": 2337.464111328125
                },
                "NJCBGNHGINI": 30.0,
                "FNMFGIOLKBE": 6,
                "NECGMADJICG": "EaseInOutCubic",
                "BMHIHPIKAHM": {},
                "MMJMMAEAJOA": true,
                "HGGPLEMCNNG": false,
                "JBODIEHINII": "",
                "PHDIKPKLFIA": true,
                "EJCHLMIMLBO": "",
                "BIMPIKMCIHB": "",
                "MCAOJPLIJGI": ""
            },
            {
                "$type": "KAGAFALAIGP",
                "type": "DIALOG",
                "aliasList": [
                    "20601"
                ],
                "JHEPJOMJJHH": 730261305,
                "OCILKFCPBNC": 0.5
            },
            {
                "$type": "CENEPJCONAG",
                "type": "BODY_LANG",
                "aliasList": [
                    "20601"
                ],
                "actionId": 155,
                "OGFPAIKLDGB": 1230,
                "MHDCNDAINCK": true,
                "LHIAJOBFNAK": false,
                "GJGPNLJEIFP": true,
                "FOEKGLEJBIJ": ""
            },
            {
                "$type": "LNLLGCOBDFC",
                "type": "EMO_SYNC",
                "aliasList": [
                    "20601"
                ],
                "actionId": 158,
                "LKHHGAGNMKM": "",
                "AIMKGPFAAAD": "Cs_Emo_NPC_Common/Cs_Emo_NPC_Angry01",
                "IPEKOEDCGGF": "Cs_Emo_NPC_Common/Cs_Emo_NPC_Normal01_B",
                "EJNFMNJKDAH": "",
                "LOOOCOLIHFA": "",
                "KJDLMAPPPMG": "",
                "IMIEGJDNPNN": [
                    9218657655395275517,
                    6356428425152214583,
                    11840959722219800112,
                    50070356133267922
                ],
                "KIJHIMADJGM": [
                    15191155715402440098,
                    420038106395935518,
                    2651432695756251320,
                    4209314551981667660
                ]
            },
            {
                "$type": "FNPNDPFBBDD",
                "type": "LOOK_AT",
                "aliasList": [
                    "20601"
                ],
                "actionId": 164,
                "NKGFDJDHOBD": true,
                "useTargetPos": true,
                "LBJHJADMNBD": true,
                "EKIONHAEIBG": {
                    "x": -1539.197021484375,
                    "y": 271.02398681640625,
                    "z": 2337.72900390625
                },
                "MNOPLOBEFLB": 0.5,
                "JBODIEHINII": "",
                "CFPBIOLLOCO": "NONE",
                "MDNPCOHCCLM": true,
                "LPCACGGCDLI": "",
                "NNFPFPOJJOJ": ""
            },
            {
                "$type": "FNPNDPFBBDD",
                "type": "LOOK_AT",
                "delayTime": 3.3510000705718994,
                "aliasList": [
                    "20601"
                ],
                "actionId": 165,
                "NKGFDJDHOBD": true,
                "useTargetPos": true,
                "LBJHJADMNBD": true,
                "EKIONHAEIBG": {
                    "x": -1538.7430419921875,
                    "y": 271.02398681640625,
                    "z": 2337.346923828125
                },
                "MNOPLOBEFLB": 0.5,
                "JBODIEHINII": "",
                "CFPBIOLLOCO": "NONE",
                "MDNPCOHCCLM": true,
                "LPCACGGCDLI": "",
                "NNFPFPOJJOJ": ""
            }
        ],
        [
            {
                "$type": "PBIGHFCHGCA",
                "type": "CAMERA_MOVE",
                "duration": 0.10000000149011612,
                "actionId": 166,
                "KCFKJMMEECM": {
                    "x": -1534.251953125,
                    "y": 274.12701416015625,
                    "z": 2336.4130859375
                },
                "DLGJEHNPMFN": {
                    "x": -1535.0279541015625,
                    "y": 273.5669860839844,
                    "z": 2336.701904296875
                },
                "NJCBGNHGINI": 40.0,
                "FNMFGIOLKBE": 6,
                "NECGMADJICG": "EaseInOutCubic",
                "BMHIHPIKAHM": {},
                "MMJMMAEAJOA": true,
                "HGGPLEMCNNG": false,
                "JBODIEHINII": "",
                "PHDIKPKLFIA": true,
                "EJCHLMIMLBO": "",
                "BIMPIKMCIHB": "",
                "MCAOJPLIJGI": ""
            },
            {
                "$type": "KAGAFALAIGP",
                "type": "DIALOG",
                "aliasList": [
                    "20601"
                ],
                "JHEPJOMJJHH": 730261306,
                "OCILKFCPBNC": 0.5
            },
            {
                "$type": "FNPNDPFBBDD",
                "type": "LOOK_AT",
                "aliasList": [
                    "20601"
                ],
                "actionId": 173,
                "NKGFDJDHOBD": true,
                "useTargetPos": true,
                "LBJHJADMNBD": true,
                "EKIONHAEIBG": {
                    "x": -1538.7430419921875,
                    "y": 271.02398681640625,
                    "z": 2337.346923828125
                },
                "MNOPLOBEFLB": 0.5,
                "JBODIEHINII": "",
                "CFPBIOLLOCO": "NONE",
                "MDNPCOHCCLM": true,
                "LPCACGGCDLI": "",
                "NNFPFPOJJOJ": ""
            },
            {
                "$type": "PBIGHFCHGCA",
                "type": "CAMERA_MOVE",
                "delayTime": 0.05700000002980232,
                "duration": 17.099000930786133,
                "actionId": 167,
                "KCFKJMMEECM": {
                    "x": -1534.323974609375,
                    "y": 274.5,
                    "z": 2337.2509765625
                },
                "DLGJEHNPMFN": {
                    "x": -1535.071044921875,
                    "y": 273.8489990234375,
                    "z": 2337.387939453125
                },
                "NJCBGNHGINI": 40.0,
                "NECGMADJICG": "EaseOutQuad",
                "BMHIHPIKAHM": {},
                "MMJMMAEAJOA": true,
                "HGGPLEMCNNG": false,
                "JBODIEHINII": "",
                "PHDIKPKLFIA": true,
                "EJCHLMIMLBO": "",
                "BIMPIKMCIHB": "",
                "MCAOJPLIJGI": ""
            },
            {
                "$type": "FNPNDPFBBDD",
                "type": "LOOK_AT",
                "delayTime": 3.7279999256134033,
                "aliasList": [
                    "20601"
                ],
                "actionId": 174,
                "NKGFDJDHOBD": true,
                "useTargetPos": true,
                "LBJHJADMNBD": true,
                "EKIONHAEIBG": {
                    "x": -1539.5989990234375,
                    "y": 271.02398681640625,
                    "z": 2337.60400390625
                },
                "MNOPLOBEFLB": 0.5,
                "JBODIEHINII": "",
                "CFPBIOLLOCO": "NONE",
                "MDNPCOHCCLM": true,
                "LPCACGGCDLI": "",
                "NNFPFPOJJOJ": ""
            }
        ],
        [
            {
                "$type": "KAGAFALAIGP",
                "type": "DIALOG",
                "aliasList": [
                    "20601"
                ],
                "JHEPJOMJJHH": 730261307,
                "OCILKFCPBNC": 0.5
            },
            {
                "$type": "CENEPJCONAG",
                "type": "BODY_LANG",
                "aliasList": [
                    "20601"
                ],
                "actionId": 168,
                "NNKEOHJCPOF": true,
                "MHDCNDAINCK": true,
                "LHIAJOBFNAK": false,
                "GJGPNLJEIFP": true,
                "FOEKGLEJBIJ": ""
            },
            {
                "$type": "FNPNDPFBBDD",
                "type": "LOOK_AT",
                "aliasList": [
                    "20601"
                ],
                "actionId": 172,
                "NKGFDJDHOBD": true,
                "useTargetPos": true,
                "LBJHJADMNBD": true,
                "EKIONHAEIBG": {
                    "x": -1539.376953125,
                    "y": 271.11199951171875,
                    "z": 2337.694091796875
                },
                "MNOPLOBEFLB": 0.5,
                "JBODIEHINII": "",
                "CFPBIOLLOCO": "NONE",
                "MDNPCOHCCLM": true,
                "LPCACGGCDLI": "",
                "NNFPFPOJJOJ": ""
            },
            {
                "$type": "CENEPJCONAG",
                "type": "BODY_LANG",
                "delayTime": 0.8289999961853027,
                "aliasList": [
                    "20601"
                ],
                "actionId": 169,
                "OGFPAIKLDGB": 1173,
                "MHDCNDAINCK": true,
                "LHIAJOBFNAK": false,
                "GJGPNLJEIFP": true,
                "FOEKGLEJBIJ": ""
            }
        ],
        [
            {
                "$type": "PBIGHFCHGCA",
                "type": "CAMERA_MOVE",
                "duration": 0.10000000149011612,
                "actionId": 171,
                "KCFKJMMEECM": {
                    "x": -1538.008056640625,
                    "y": 271.1260070800781,
                    "z": 2337.9951171875
                },
                "DLGJEHNPMFN": {
                    "x": -1538.3800048828125,
                    "y": 271.1319885253906,
                    "z": 2338.923095703125
                },
                "NJCBGNHGINI": 40.0,
                "FNMFGIOLKBE": 6,
                "NECGMADJICG": "EaseInOutCubic",
                "BMHIHPIKAHM": {},
                "MMJMMAEAJOA": true,
                "HGGPLEMCNNG": false,
                "JBODIEHINII": "",
                "PHDIKPKLFIA": true,
                "EJCHLMIMLBO": "",
                "BIMPIKMCIHB": "",
                "MCAOJPLIJGI": ""
            },
            {
                "$type": "KAGAFALAIGP",
                "type": "DIALOG",
                "aliasList": [
                    "20601"
                ],
                "JHEPJOMJJHH": 730261308,
                "OCILKFCPBNC": 0.5
            },
            {
                "$type": "CENEPJCONAG",
                "type": "BODY_LANG",
                "aliasList": [
                    "20601"
                ],
                "actionId": 170,
                "OGFPAIKLDGB": 1130,
                "MHDCNDAINCK": true,
                "LHIAJOBFNAK": false,
                "GJGPNLJEIFP": true,
                "FOEKGLEJBIJ": ""
            },
            {
                "$type": "CENEPJCONAG",
                "type": "BODY_LANG",
                "delayTime": 1.1660000085830688,
                "aliasList": [
                    "20601"
                ],
                "actionId": 175,
                "OGFPAIKLDGB": 4040,
                "MHDCNDAINCK": true,
                "LHIAJOBFNAK": false,
                "GJGPNLJEIFP": true,
                "FOEKGLEJBIJ": ""
            }
        ],
        [
            {
                "$type": "PBIGHFCHGCA",
                "type": "CAMERA_MOVE",
                "duration": 0.10000000149011612,
                "actionId": 176,
                "KCFKJMMEECM": {
                    "x": -1538.3409423828125,
                    "y": 271.322998046875,
                    "z": 2335.75390625
                },
                "DLGJEHNPMFN": {
                    "x": -1538.52099609375,
                    "y": 271.1789855957031,
                    "z": 2336.72705078125
                },
                "NJCBGNHGINI": 30.0,
                "FNMFGIOLKBE": 6,
                "NECGMADJICG": "EaseInOutCubic",
                "BMHIHPIKAHM": {},
                "MMJMMAEAJOA": true,
                "HGGPLEMCNNG": false,
                "JBODIEHINII": "",
                "PHDIKPKLFIA": true,
                "EJCHLMIMLBO": "",
                "BIMPIKMCIHB": "",
                "MCAOJPLIJGI": ""
            },
            {
                "$type": "KAGAFALAIGP",
                "type": "DIALOG",
                "aliasList": [
                    "20601"
                ],
                "JHEPJOMJJHH": 730261309,
                "OCILKFCPBNC": 0.5
            },
            {
                "$type": "CENEPJCONAG",
                "type": "BODY_LANG",
                "aliasList": [
                    "20601"
                ],
                "actionId": 177,
                "NNKEOHJCPOF": true,
                "MHDCNDAINCK": true,
                "LHIAJOBFNAK": false,
                "GJGPNLJEIFP": true,
                "FOEKGLEJBIJ": ""
            },
            {
                "$type": "FNPNDPFBBDD",
                "type": "LOOK_AT",
                "aliasList": [
                    "20601"
                ],
                "actionId": 180,
                "NKGFDJDHOBD": true,
                "useTargetPos": true,
                "LBJHJADMNBD": true,
                "EKIONHAEIBG": {
                    "x": -1538.6710205078125,
                    "y": 271.2460021972656,
                    "z": 2337.324951171875
                },
                "MNOPLOBEFLB": 0.5,
                "JBODIEHINII": "",
                "CFPBIOLLOCO": "NONE",
                "MDNPCOHCCLM": true,
                "LPCACGGCDLI": "",
                "NNFPFPOJJOJ": ""
            },
            {
                "$type": "LNLLGCOBDFC",
                "type": "EMO_SYNC",
                "aliasList": [
                    "20601"
                ],
                "actionId": 186,
                "LKHHGAGNMKM": "",
                "AIMKGPFAAAD": "Cs_Emo_NPC_Common/Cs_Emo_NPC_Normal01",
                "IPEKOEDCGGF": "Cs_Emo_NPC_Common/Cs_Emo_NPC_Normal01_B",
                "EJNFMNJKDAH": "",
                "LOOOCOLIHFA": "",
                "KJDLMAPPPMG": "",
                "IMIEGJDNPNN": [
                    12803840960998583578,
                    3437050431160283015,
                    6548526936325855136,
                    1274732080047098512
                ],
                "KIJHIMADJGM": [
                    15191155715402440098,
                    420038106395935518,
                    2651432695756251320,
                    4209314551981667660
                ]
            },
            {
                "$type": "PBIGHFCHGCA",
                "type": "CAMERA_MOVE",
                "delayTime": 0.05700000002980232,
                "duration": 13.480999946594238,
                "actionId": 183,
                "KCFKJMMEECM": {
                    "x": -1538.300048828125,
                    "y": 271.3550109863281,
                    "z": 2335.534912109375
                },
                "DLGJEHNPMFN": {
                    "x": -1538.47998046875,
                    "y": 271.21099853515625,
                    "z": 2336.508056640625
                },
                "NJCBGNHGINI": 30.0,
                "NECGMADJICG": "EaseOutQuad",
                "BMHIHPIKAHM": {},
                "MMJMMAEAJOA": true,
                "HGGPLEMCNNG": false,
                "JBODIEHINII": "",
                "PHDIKPKLFIA": true,
                "EJCHLMIMLBO": "",
                "BIMPIKMCIHB": "",
                "MCAOJPLIJGI": ""
            },
            {
                "$type": "CENEPJCONAG",
                "type": "BODY_LANG",
                "delayTime": 0.6899999976158142,
                "aliasList": [
                    "20601"
                ],
                "actionId": 178,
                "OGFPAIKLDGB": 1172,
                "MHDCNDAINCK": true,
                "LHIAJOBFNAK": false,
                "GJGPNLJEIFP": true,
                "FOEKGLEJBIJ": ""
            },
            {
                "$type": "CENEPJCONAG",
                "type": "BODY_LANG",
                "delayTime": 3.6740000247955322,
                "aliasList": [
                    "20601"
                ],
                "actionId": 185,
                "OGFPAIKLDGB": 1130,
                "MHDCNDAINCK": true,
                "LHIAJOBFNAK": false,
                "GJGPNLJEIFP": true,
                "FOEKGLEJBIJ": ""
            },
            {
                "$type": "LNLLGCOBDFC",
                "type": "EMO_SYNC",
                "delayTime": 3.687999963760376,
                "aliasList": [
                    "20601"
                ],
                "actionId": 187,
                "LKHHGAGNMKM": "",
                "AIMKGPFAAAD": "Cs_Emo_NPC_Common/Cs_Emo_NPC_Normal01",
                "IPEKOEDCGGF": "Cs_Emo_NPC_Common/Cs_Emo_NPC_Normal01_B",
                "EJNFMNJKDAH": "",
                "LOOOCOLIHFA": "",
                "KJDLMAPPPMG": "",
                "IMIEGJDNPNN": [
                    12803840960998583578,
                    3437050431160283015,
                    6548526936325855136,
                    1274732080047098512
                ],
                "KIJHIMADJGM": [
                    15191155715402440098,
                    420038106395935518,
                    2651432695756251320,
                    4209314551981667660
                ]
            },
            {
                "$type": "FNPNDPFBBDD",
                "type": "LOOK_AT",
                "delayTime": 3.819999933242798,
                "aliasList": [
                    "20601"
                ],
                "actionId": 184,
                "NKGFDJDHOBD": true,
                "useTargetPos": true,
                "LBJHJADMNBD": true,
                "EKIONHAEIBG": {
                    "x": -1539.1729736328125,
                    "y": 271.2460021972656,
                    "z": 2337.612060546875
                },
                "MNOPLOBEFLB": 0.5,
                "JBODIEHINII": "",
                "CFPBIOLLOCO": "NONE",
                "MDNPCOHCCLM": true,
                "LPCACGGCDLI": "",
                "NNFPFPOJJOJ": ""
            }
        ],
        [
            {
                "$type": "KAGAFALAIGP",
                "type": "DIALOG",
                "aliasList": [
                    "20601"
                ],
                "JHEPJOMJJHH": 730261310,
                "OCILKFCPBNC": 0.5
            },
            {
                "$type": "CENEPJCONAG",
                "type": "BODY_LANG",
                "aliasList": [
                    "20601"
                ],
                "actionId": 179,
                "OGFPAIKLDGB": 1130,
                "MHDCNDAINCK": true,
                "LHIAJOBFNAK": false,
                "GJGPNLJEIFP": true,
                "FOEKGLEJBIJ": ""
            },
            {
                "$type": "FNPNDPFBBDD",
                "type": "LOOK_AT",
                "aliasList": [
                    "20601"
                ],
                "actionId": 181,
                "NKGFDJDHOBD": true,
                "useTargetPos": true,
                "LBJHJADMNBD": true,
                "EKIONHAEIBG": {
                    "x": -1539.199951171875,
                    "y": 271.11199951171875,
                    "z": 2337.715087890625
                },
                "MNOPLOBEFLB": 0.5,
                "JBODIEHINII": "",
                "CFPBIOLLOCO": "NONE",
                "MDNPCOHCCLM": true,
                "LPCACGGCDLI": "",
                "NNFPFPOJJOJ": ""
            },
            {
                "$type": "LNLLGCOBDFC",
                "type": "EMO_SYNC",
                "aliasList": [
                    "20601"
                ],
                "actionId": 188,
                "LKHHGAGNMKM": "",
                "AIMKGPFAAAD": "Cs_Emo_NPC_Common/Cs_Emo_NPC_Normal01",
                "IPEKOEDCGGF": "Cs_Emo_NPC_Common/Cs_Emo_NPC_Normal01_B",
                "EJNFMNJKDAH": "",
                "LOOOCOLIHFA": "",
                "KJDLMAPPPMG": "",
                "IMIEGJDNPNN": [
                    12803840960998583578,
                    3437050431160283015,
                    6548526936325855136,
                    1274732080047098512
                ],
                "KIJHIMADJGM": [
                    15191155715402440098,
                    420038106395935518,
                    2651432695756251320,
                    4209314551981667660
                ]
            }
        ],
        [
            {
                "$type": "PBIGHFCHGCA",
                "type": "CAMERA_MOVE",
                "duration": 0.10000000149011612,
                "actionId": 189,
                "KCFKJMMEECM": {
                    "x": -1537.3360595703125,
                    "y": 271.13800048828125,
                    "z": 2339.18603515625
                },
                "DLGJEHNPMFN": {
                    "x": -1538.10400390625,
                    "y": 271.0840148925781,
                    "z": 2338.547119140625
                },
                "NJCBGNHGINI": 30.0,
                "FNMFGIOLKBE": 6,
                "NECGMADJICG": "EaseInOutCubic",
                "BMHIHPIKAHM": {},
                "MMJMMAEAJOA": true,
                "HGGPLEMCNNG": false,
                "JBODIEHINII": "",
                "PHDIKPKLFIA": true,
                "EJCHLMIMLBO": "",
                "BIMPIKMCIHB": "",
                "MCAOJPLIJGI": ""
            },
            {
                "$type": "KAGAFALAIGP",
                "type": "DIALOG",
                "aliasList": [
                    "20601"
                ],
                "JHEPJOMJJHH": 730261311,
                "OCILKFCPBNC": 0.5
            },
            {
                "$type": "FNPNDPFBBDD",
                "type": "LOOK_AT",
                "aliasList": [
                    "20601"
                ],
                "actionId": 191,
                "NKGFDJDHOBD": true,
                "useTargetPos": true,
                "LBJHJADMNBD": true,
                "EKIONHAEIBG": {
                    "x": -1538.6710205078125,
                    "y": 271.2460021972656,
                    "z": 2337.324951171875
                },
                "MNOPLOBEFLB": 0.5,
                "JBODIEHINII": "",
                "CFPBIOLLOCO": "NONE",
                "MDNPCOHCCLM": true,
                "LPCACGGCDLI": "",
                "NNFPFPOJJOJ": ""
            },
            {
                "$type": "CENEPJCONAG",
                "type": "BODY_LANG",
                "delayTime": 1.7419999837875366,
                "aliasList": [
                    "20601"
                ],
                "actionId": 193,
                "NNKEOHJCPOF": true,
                "MHDCNDAINCK": true,
                "LHIAJOBFNAK": false,
                "GJGPNLJEIFP": true,
                "FOEKGLEJBIJ": ""
            },
            {
                "$type": "CENEPJCONAG",
                "type": "BODY_LANG",
                "delayTime": 2.371999979019165,
                "aliasList": [
                    "20601"
                ],
                "actionId": 194,
                "OGFPAIKLDGB": 1172,
                "MHDCNDAINCK": true,
                "LHIAJOBFNAK": false,
                "GJGPNLJEIFP": true,
                "FOEKGLEJBIJ": ""
            },
            {
                "$type": "CENEPJCONAG",
                "type": "BODY_LANG",
                "delayTime": 2.566999912261963,
                "aliasList": [
                    "1005"
                ],
                "actionId": 190,
                "OGFPAIKLDGB": 1260,
                "MHDCNDAINCK": true,
                "LHIAJOBFNAK": false,
                "GJGPNLJEIFP": true,
                "FOEKGLEJBIJ": ""
            }
        ],
        [
            {
                "$type": "PBIGHFCHGCA",
                "type": "CAMERA_MOVE",
                "duration": 0.10000000149011612,
                "actionId": 192,
                "KCFKJMMEECM": {
                    "x": -1538.697998046875,
                    "y": 271.22698974609375,
                    "z": 2337.840087890625
                },
                "DLGJEHNPMFN": {
                    "x": -1538.282958984375,
                    "y": 271.16400146484375,
                    "z": 2338.748046875
                },
                "NJCBGNHGINI": 30.0,
                "FNMFGIOLKBE": 6,
                "NECGMADJICG": "EaseInOutCubic",
                "BMHIHPIKAHM": {},
                "MMJMMAEAJOA": true,
                "HGGPLEMCNNG": false,
                "JBODIEHINII": "",
                "PHDIKPKLFIA": true,
                "EJCHLMIMLBO": "",
                "BIMPIKMCIHB": "",
                "MCAOJPLIJGI": ""
            },
            {
                "$type": "KAGAFALAIGP",
                "type": "DIALOG",
                "aliasList": [
                    "20601"
                ],
                "JHEPJOMJJHH": 730261312,
                "OCILKFCPBNC": 0.5
            },
            {
                "$type": "CENEPJCONAG",
                "type": "BODY_LANG",
                "aliasList": [
                    "20601"
                ],
                "actionId": 195,
                "OGFPAIKLDGB": 1060,
                "MHDCNDAINCK": true,
                "LHIAJOBFNAK": false,
                "GJGPNLJEIFP": true,
                "FOEKGLEJBIJ": ""
            },
            {
                "$type": "FNPNDPFBBDD",
                "type": "LOOK_AT",
                "aliasList": [
                    "20601"
                ],
                "actionId": 197,
                "NKGFDJDHOBD": true,
                "useTargetPos": true,
                "LBJHJADMNBD": true,
                "EKIONHAEIBG": {
                    "x": -1539.2060546875,
                    "y": 271.2460021972656,
                    "z": 2337.635009765625
                },
                "MNOPLOBEFLB": 0.5,
                "JBODIEHINII": "",
                "CFPBIOLLOCO": "NONE",
                "MDNPCOHCCLM": true,
                "LPCACGGCDLI": "",
                "NNFPFPOJJOJ": ""
            },
            {
                "$type": "FNPNDPFBBDD",
                "type": "LOOK_AT",
                "delayTime": 2.2049999237060547,
                "aliasList": [
                    "20601"
                ],
                "actionId": 196,
                "NKGFDJDHOBD": true,
                "useTargetPos": true,
                "LBJHJADMNBD": true,
                "EKIONHAEIBG": {
                    "x": -1538.6710205078125,
                    "y": 271.2460021972656,
                    "z": 2337.324951171875
                },
                "MNOPLOBEFLB": 0.5,
                "JBODIEHINII": "",
                "CFPBIOLLOCO": "NONE",
                "MDNPCOHCCLM": true,
                "LPCACGGCDLI": "",
                "NNFPFPOJJOJ": ""
            }
        ],
        [
            {
                "$type": "MoleMole.Config.ConfigSimpleBlackScreenAction",
                "type": "SIMPLE_BLACK_SCREEN",
                "durationToBlack": 0.5,
                "durationKeepBlack": 1.0,
                "durationFromBlack": 0.5,
                "textMapID": ""
            },
            {
                "$type": "MoleMole.Config.ConfigTimeProtectAction",
                "type": "TIME_PROTECT",
                "duration": 0.699999988079071
            },
            {
                "$type": "CENEPJCONAG",
                "type": "BODY_LANG",
                "aliasList": [
                    "20601"
                ],
                "actionId": 198,
                "NNKEOHJCPOF": true,
                "MHDCNDAINCK": true,
                "LHIAJOBFNAK": false,
                "GJGPNLJEIFP": true,
                "FOEKGLEJBIJ": ""
            },
            {
                "$type": "PBIGHFCHGCA",
                "type": "CAMERA_MOVE",
                "delayTime": 0.6000000238418579,
                "duration": 0.10000000149011612,
                "actionId": 199,
                "KCFKJMMEECM": {
                    "x": -1540.498046875,
                    "y": 271.6319885253906,
                    "z": 2336.027099609375
                },
                "DLGJEHNPMFN": {
                    "x": -1539.9329833984375,
                    "y": 271.26300048828125,
                    "z": 2336.763916015625
                },
                "FNMFGIOLKBE": 6,
                "NECGMADJICG": "EaseInOutCubic",
                "BMHIHPIKAHM": {},
                "MMJMMAEAJOA": true,
                "HGGPLEMCNNG": false,
                "JBODIEHINII": "",
                "PHDIKPKLFIA": true,
                "EJCHLMIMLBO": "",
                "BIMPIKMCIHB": "",
                "MCAOJPLIJGI": ""
            }
        ]
    ],
    "groupId": [
        {
            "grpId": 3022674375,
            "nextGrpId": 3022674376
        },
        {
            "index": 1,
            "grpId": 3022674376,
            "nextGrpId": 3022674377
        },
        {
            "index": 2,
            "grpId": 3022674377,
            "nextGrpId": 3022674378
        },
        {
            "index": 3,
            "grpId": 3022674378,
            "nextGrpId": 3022674379
        },
        {
            "index": 4,
            "grpId": 3022674379,
            "nextGrpId": 3022674380
        },
        {
            "index": 5,
            "grpId": 3022674380,
            "nextGrpId": 3022674381
        },
        {
            "index": 6,
            "grpId": 3022674381,
            "nextGrpId": 3022674382
        },
        {
            "index": 7,
            "grpId": 3022674382,
            "nextGrpId": 3022674383
        },
        {
            "index": 8,
            "grpId": 3022674383,
            "nextGrpId": 3508592457
        },
        {
            "index": 9,
            "grpId": 3508592457,
            "nextGrpId": 3508592458
        },
        {
            "index": 10,
            "grpId": 3508592458,
            "nextGrpId": 3508592459
        },
        {
            "index": 11,
            "grpId": 3508592459,
            "nextGrpId": 3508592460
        },
        {
            "index": 12,
            "grpId": 3508592460,
            "nextGrpId": 3508592461
        }
    ],
    "freeStyleDic": {
        "20601": [
            1060,
            1150,
            1173,
            1230,
            1130,
            4040,
            1172
        ]
    }
}