[
    {
        "Default": {
            "$type": "ConfigAbility",
            "abilityName": "SceneObj_Area_Xm_Property_Ani_Stone_AraraDreamStone_01_Ability",
            "abilityMixins": [
                {
                    "$type": "AttachToGadgetStateMutexMixin",
                    "gadgetStates": [
                        0,
                        201
                    ],
                    "modifierNames": [
                        [
                            "DefaultState"
                        ],
                        [
                            "ActiveState"
                        ]
                    ]
                }
            ],
            "modifiers": {
                "DefaultState": {
                    "modifierName": "",
                    "bonusCritical": 100.0,
                    "onAdded": [
                        {
                            "$type": "SetAnimatorBool",
                            "boolID": "Active"
                        },
                        {
                            "$type": "SetMaterialParamFloatByTransform",
                            "canBeHandledOnRecover": true,
                            "FOODKPKOAPF": "Gadget",
                            "NMMCIOCEDMG": "_ConversionStateChange",
                            "ratio": -2.0
                        }
                    ]
                },
                "ActiveState": {
                    "modifierName": "",
                    "bonusCritical": 100.0,
                    "modifierMixins": [
                        {
                            "$type": "TriggerWidgetMusicGameMixin",
                            "OPKIDDEGMHO": 1,
                            "range": 8.0,
                            "onSuccess": [
                                {
                                    "$type": "ApplyModifier",
                                    "modifierName": "TriggerStone"
                                }
                            ]
                        }
                    ],
                    "onAdded": [
                        {
                            "$type": "SetAnimatorBool",
                            "boolID": "Active",
                            "ratio": true
                        },
                        {
                            "$type": "FireEffect",
                            "healLimitedByCasterMaxHPRatio": "Eff_SceneObj_AraraDreamStone_01",
                            "JAOICKHDAKL": -1.0
                        },
                        {
                            "$type": "AttachEffect",
                            "healLimitedByCasterMaxHPRatio": "Eff_SceneObj_AraraDreamStone_02",
                            "JAOICKHDAKL": -1.0
                        },
                        {
                            "$type": "SetMaterialParamFloatByTransform",
                            "canBeHandledOnRecover": true,
                            "FOODKPKOAPF": "Gadget",
                            "NMMCIOCEDMG": "_ConversionStateChange",
                            "ratio": 2.0,
                            "GEOAKAHKECD": true,
                            "OMIHILINMLD": 2.0
                        }
                    ]
                },
                "TriggerStone": {
                    "modifierName": "",
                    "duration": 0.5,
                    "bonusCritical": 100.0,
                    "onAdded": [
                        {
                            "$type": "ServerLuaTriggerEvent",
                            "luaCallType": "FromGroup",
                            "DFNADBGJCJE": "AraraDreamStone",
                            "FDPBPIHKEGH": 0.0,
                            "FJCBPCIDMGJ": 0.0,
                            "NDCPJDDPIMD": 0.0
                        }
                    ]
                }
            }
        }
    },
    {
        "Default": {
            "$type": "ConfigAbility",
            "abilityName": "SceneObj_Area_Xm_Property_Prop_HideMusicReciever_01_Ability",
            "abilityMixins": [
                {
                    "$type": "AttachToGadgetStateMutexMixin",
                    "gadgetStates": [
                        0,
                        201
                    ],
                    "modifierNames": [
                        [
                            "DefaultState"
                        ],
                        [
                            "ActiveState"
                        ]
                    ]
                }
            ],
            "modifiers": {
                "DefaultState": {
                    "modifierName": "",
                    "bonusCritical": 100.0,
                    "modifierMixins": [
                        {
                            "$type": "TriggerWidgetMusicGameMixin",
                            "OPKIDDEGMHO": 1,
                            "range": 8.0,
                            "onSuccess": [
                                {
                                    "$type": "ChangeGadgetState",
                                    "OBNBNBGHJEK": 201
                                }
                            ]
                        }
                    ],
                    "onAdded": [
                        {
                            "$type": "AttachEffect",
                            "healLimitedByCasterMaxHPRatio": "Eff_ScenObj_AraraPlayMusicNote_Idle",
                            "JAOICKHDAKL": -1.0
                        }
                    ]
                },
                "ActiveState": {
                    "modifierName": "",
                    "bonusCritical": 100.0
                }
            }
        }
    },
    {
        "Default": {
            "$type": "ConfigAbility",
            "abilityName": "SceneObj_Area_Xm_Property_Prop_HideMusicReciever_02_Ability",
            "abilityMixins": [
                {
                    "$type": "AttachToGadgetStateMutexMixin",
                    "gadgetStates": [
                        0,
                        201
                    ],
                    "modifierNames": [
                        [
                            "DefaultState"
                        ],
                        [
                            "ActiveState"
                        ]
                    ]
                }
            ],
            "modifiers": {
                "DefaultState": {
                    "modifierName": "",
                    "bonusCritical": 100.0,
                    "modifierMixins": [
                        {
                            "$type": "TriggerWidgetMusicGameMixin",
                            "OPKIDDEGMHO": 9,
                            "range": 8.0,
                            "onSuccess": [
                                {
                                    "$type": "ChangeGadgetState",
                                    "OBNBNBGHJEK": 201
                                }
                            ]
                        }
                    ]
                },
                "ActiveState": {
                    "modifierName": "",
                    "bonusCritical": 100.0
                }
            }
        }
    },
    {
        "Default": {
            "$type": "ConfigAbility",
            "abilityName": "SceneObj_Area_Xm_Property_Prop_HideMusicReciever_03_Ability",
            "abilityMixins": [
                {
                    "$type": "AttachToGadgetStateMutexMixin",
                    "gadgetStates": [
                        0,
                        201
                    ],
                    "modifierNames": [
                        [
                            "DefaultState"
                        ],
                        [
                            "ActiveState"
                        ]
                    ]
                }
            ],
            "modifiers": {
                "DefaultState": {
                    "modifierName": "",
                    "bonusCritical": 100.0,
                    "modifierMixins": [
                        {
                            "$type": "TriggerWidgetMusicGameMixin",
                            "OPKIDDEGMHO": 10,
                            "range": 8.0,
                            "onSuccess": [
                                {
                                    "$type": "ChangeGadgetState",
                                    "OBNBNBGHJEK": 201
                                }
                            ]
                        }
                    ]
                },
                "ActiveState": {
                    "modifierName": "",
                    "bonusCritical": 100.0
                }
            }
        }
    },
    {
        "Default": {
            "$type": "ConfigAbility",
            "abilityName": "SceneObj_Area_Xm_Property_Prop_HideMusicReciever_04_Ability",
            "abilityMixins": [
                {
                    "$type": "AttachToGadgetStateMutexMixin",
                    "gadgetStates": [
                        0,
                        201
                    ],
                    "modifierNames": [
                        [
                            "DefaultState"
                        ],
                        [
                            "ActiveState"
                        ]
                    ]
                }
            ],
            "modifiers": {
                "DefaultState": {
                    "modifierName": "",
                    "bonusCritical": 100.0,
                    "modifierMixins": [
                        {
                            "$type": "TriggerWidgetMusicGameMixin",
                            "OPKIDDEGMHO": 11,
                            "range": 8.0,
                            "onSuccess": [
                                {
                                    "$type": "ChangeGadgetState",
                                    "OBNBNBGHJEK": 201
                                }
                            ]
                        }
                    ]
                },
                "ActiveState": {
                    "modifierName": "",
                    "bonusCritical": 100.0
                }
            }
        }
    },
    {
        "Default": {
            "$type": "ConfigAbility",
            "abilityName": "SceneObj_Area_Xm_Property_Ani_Prop_VineBall_01_Ability",
            "abilityMixins": [
                {
                    "$type": "AttachToGadgetStateMixin",
                    "modifierName": "DefaultState"
                },
                {
                    "$type": "AttachToGadgetStateMixin",
                    "gadgetState": 201,
                    "modifierName": "State_0"
                },
                {
                    "$type": "AttachToGadgetStateMixin",
                    "gadgetState": 202,
                    "modifierName": "State_90"
                },
                {
                    "$type": "AttachToGadgetStateMixin",
                    "gadgetState": 203,
                    "modifierName": "State_180"
                },
                {
                    "$type": "AttachToGadgetStateMixin",
                    "gadgetState": 204,
                    "modifierName": "State_270"
                }
            ],
            "modifiers": {
                "IdleModifier": {
                    "modifierName": "",
                    "bonusCritical": 100.0,
                    "onAdded": [
                        {
                            "$type": "SendEffectTrigger",
                            "predicates": [
                                {
                                    "$type": "GDCNLCKIJBG",
                                    "key": "_FirstIdle",
                                    "ratio": 1.0,
                                    "AMOLMKMMOME": "MoreThanAndEqual"
                                }
                            ],
                            "parameter": "State",
                            "IIKEHINGEME": "",
                            "type": "Int",
                            "value": 2,
                            "healLimitedByCasterMaxHPRatio": "Eff_SceneObj_Property_Ani_Prop_VineBall_01_Parclose"
                        },
                        {
                            "$type": "EnableSceneTransformByName",
                            "transformNames": [
                                "ColliderWall"
                            ]
                        },
                        {
                            "$type": "EnableHitBoxByName",
                            "hitBoxNames": [
                                "HitBox"
                            ],
                            "setEnable": true
                        },
                        {
                            "$type": "SetGlobalValue",
                            "ratio": 1.0,
                            "key": "_FirstIdle",
                            "maxValue": 0.0,
                            "minValue": 0.0
                        }
                    ],
                    "onRemoved": [
                        {
                            "$type": "EnableHitBoxByName",
                            "hitBoxNames": [
                                "HitBox"
                            ]
                        }
                    ]
                },
                "DefaultState": {
                    "modifierName": "",
                    "bonusCritical": 100.0,
                    "modifierMixins": [
                        {
                            "$type": "TriggerWidgetMusicGameMixin",
                            "OPKIDDEGMHO": 4,
                            "range": 8.0,
                            "onSuccess": [
                                {
                                    "$type": "ChangeGadgetState",
                                    "OBNBNBGHJEK": 201
                                }
                            ]
                        }
                    ],
                    "onAdded": [
                        {
                            "$type": "AttachEffect",
                            "healLimitedByCasterMaxHPRatio": "Eff_SceneObj_Property_Ani_Prop_VineBall_01_Tweedle",
                            "JAOICKHDAKL": -1.0
                        },
                        {
                            "$type": "SendEffectTrigger",
                            "parameter": "State",
                            "IIKEHINGEME": "",
                            "type": "Int",
                            "healLimitedByCasterMaxHPRatio": "Eff_SceneObj_Property_Ani_Prop_VineBall_01_Parclose"
                        },
                        {
                            "$type": "EnableSceneTransformByName",
                            "transformNames": [
                                "ColliderWall"
                            ]
                        },
                        {
                            "$type": "EnableHitBoxByName",
                            "hitBoxNames": [
                                "HitBox"
                            ],
                            "setEnable": true
                        },
                        {
                            "$type": "SetMaterialParamFloatByTransform",
                            "canBeHandledOnRecover": true,
                            "FOODKPKOAPF": "Mat",
                            "NMMCIOCEDMG": "_EmissionStrength",
                            "ratio": 0.0
                        }
                    ]
                },
                "ReconnectProtector": {
                    "modifierName": "",
                    "bonusCritical": 100.0,
                    "EAHGOMKOGPA": [
                        {
                            "$type": "SendEffectTrigger",
                            "parameter": "State",
                            "IIKEHINGEME": "",
                            "type": "Int",
                            "value": 2,
                            "healLimitedByCasterMaxHPRatio": "Eff_SceneObj_Property_Ani_Prop_VineBall_01_Parclose"
                        },
                        {
                            "$type": "EnableSceneTransformByName",
                            "transformNames": [
                                "ColliderWall"
                            ]
                        },
                        {
                            "$type": "EnableHitBoxByName",
                            "hitBoxNames": [
                                "HitBox"
                            ],
                            "setEnable": true
                        },
                        {
                            "$type": "SetGlobalValue",
                            "ratio": 1.0,
                            "key": "_FirstIdle",
                            "maxValue": 0.0,
                            "minValue": 0.0
                        }
                    ]
                },
                "State_0": {
                    "modifierName": "",
                    "bonusCritical": 100.0,
                    "modifierMixins": [
                        {
                            "$type": "AttachToStateIDMixin",
                            "stateIDs": [
                                "Idle"
                            ],
                            "modifierName": "IdleModifier"
                        }
                    ],
                    "onAdded": [
                        {
                            "$type": "SetMaterialParamFloatByTransform",
                            "canBeHandledOnRecover": true,
                            "FOODKPKOAPF": "Mat",
                            "NMMCIOCEDMG": "_EmissionStrength",
                            "ratio": 4.5,
                            "GEOAKAHKECD": true,
                            "OMIHILINMLD": 2.0
                        },
                        {
                            "$type": "SetAnimatorInt",
                            "intID": "Rotate",
                            "ratio": 0.0
                        },
                        {
                            "$type": "AttachModifier",
                            "modifierName": "ReconnectProtector"
                        }
                    ],
                    "onBeingHit": [
                        {
                            "$type": "AttachModifier",
                            "modifierName": "ReadyTo90"
                        }
                    ]
                },
                "State_90": {
                    "modifierName": "",
                    "bonusCritical": 100.0,
                    "modifierMixins": [
                        {
                            "$type": "AttachToStateIDMixin",
                            "stateIDs": [
                                "Idle"
                            ],
                            "modifierName": "IdleModifier"
                        }
                    ],
                    "onAdded": [
                        {
                            "$type": "SetMaterialParamFloatByTransform",
                            "canBeHandledOnRecover": true,
                            "FOODKPKOAPF": "Mat",
                            "NMMCIOCEDMG": "_EmissionStrength",
                            "ratio": 4.5,
                            "GEOAKAHKECD": true,
                            "OMIHILINMLD": 2.0
                        },
                        {
                            "$type": "SetAnimatorInt",
                            "intID": "Rotate",
                            "ratio": 90.0
                        },
                        {
                            "$type": "AttachModifier",
                            "modifierName": "ReconnectProtector"
                        }
                    ],
                    "onBeingHit": [
                        {
                            "$type": "AttachModifier",
                            "modifierName": "ReadyTo180"
                        }
                    ]
                },
                "State_180": {
                    "modifierName": "",
                    "bonusCritical": 100.0,
                    "modifierMixins": [
                        {
                            "$type": "AttachToStateIDMixin",
                            "stateIDs": [
                                "Idle"
                            ],
                            "modifierName": "IdleModifier"
                        }
                    ],
                    "onAdded": [
                        {
                            "$type": "SetMaterialParamFloatByTransform",
                            "canBeHandledOnRecover": true,
                            "FOODKPKOAPF": "Mat",
                            "NMMCIOCEDMG": "_EmissionStrength",
                            "ratio": 4.5,
                            "GEOAKAHKECD": true,
                            "OMIHILINMLD": 2.0
                        },
                        {
                            "$type": "SetAnimatorInt",
                            "intID": "Rotate",
                            "ratio": 180.0
                        },
                        {
                            "$type": "AttachModifier",
                            "modifierName": "ReconnectProtector"
                        }
                    ],
                    "onBeingHit": [
                        {
                            "$type": "AttachModifier",
                            "modifierName": "ReadyTo270"
                        }
                    ]
                },
                "State_270": {
                    "modifierName": "",
                    "bonusCritical": 100.0,
                    "modifierMixins": [
                        {
                            "$type": "AttachToStateIDMixin",
                            "stateIDs": [
                                "Idle"
                            ],
                            "modifierName": "IdleModifier"
                        }
                    ],
                    "onAdded": [
                        {
                            "$type": "SetMaterialParamFloatByTransform",
                            "canBeHandledOnRecover": true,
                            "FOODKPKOAPF": "Mat",
                            "NMMCIOCEDMG": "_EmissionStrength",
                            "ratio": 4.5,
                            "GEOAKAHKECD": true,
                            "OMIHILINMLD": 2.0
                        },
                        {
                            "$type": "SetAnimatorInt",
                            "intID": "Rotate",
                            "ratio": 270.0
                        },
                        {
                            "$type": "AttachModifier",
                            "modifierName": "ReconnectProtector"
                        }
                    ],
                    "onBeingHit": [
                        {
                            "$type": "AttachModifier",
                            "modifierName": "ReadyTo360"
                        }
                    ]
                },
                "ShowCollider": {
                    "modifierName": "",
                    "bonusCritical": 100.0,
                    "onAdded": [
                        {
                            "$type": "EnableSceneTransformByName",
                            "transformNames": [
                                "ColliderWall"
                            ],
                            "setEnable": true
                        },
                        {
                            "$type": "SendEffectTrigger",
                            "parameter": "State",
                            "IIKEHINGEME": "",
                            "type": "Int",
                            "value": 1,
                            "healLimitedByCasterMaxHPRatio": "Eff_SceneObj_Property_Ani_Prop_VineBall_01_Parclose"
                        }
                    ]
                },
                "ReadyTo90": {
                    "modifierName": "",
                    "duration": 0.6000000238418579,
                    "bonusCritical": 100.0,
                    "onAdded": [
                        {
                            "$type": "AttachModifier",
                            "modifierName": "ShowCollider"
                        }
                    ],
                    "onRemoved": [
                        {
                            "$type": "ChangeGadgetState",
                            "OBNBNBGHJEK": 202
                        },
                        {
                            "$type": "ExecuteGadgetLua",
                            "param1": 70330234
                        }
                    ]
                },
                "ReadyTo180": {
                    "modifierName": "",
                    "duration": 0.6000000238418579,
                    "bonusCritical": 100.0,
                    "onAdded": [
                        {
                            "$type": "AttachModifier",
                            "modifierName": "ShowCollider"
                        }
                    ],
                    "onRemoved": [
                        {
                            "$type": "ChangeGadgetState",
                            "OBNBNBGHJEK": 203
                        },
                        {
                            "$type": "ExecuteGadgetLua",
                            "param1": 70330234
                        }
                    ]
                },
                "ReadyTo270": {
                    "modifierName": "",
                    "duration": 0.6000000238418579,
                    "bonusCritical": 100.0,
                    "onAdded": [
                        {
                            "$type": "AttachModifier",
                            "modifierName": "ShowCollider"
                        }
                    ],
                    "onRemoved": [
                        {
                            "$type": "ChangeGadgetState",
                            "OBNBNBGHJEK": 204
                        },
                        {
                            "$type": "ExecuteGadgetLua",
                            "param1": 70330234
                        }
                    ]
                },
                "ReadyTo360": {
                    "modifierName": "",
                    "duration": 0.6000000238418579,
                    "bonusCritical": 100.0,
                    "onAdded": [
                        {
                            "$type": "AttachModifier",
                            "modifierName": "ShowCollider"
                        }
                    ],
                    "onRemoved": [
                        {
                            "$type": "ChangeGadgetState",
                            "OBNBNBGHJEK": 201
                        },
                        {
                            "$type": "ExecuteGadgetLua",
                            "param1": 70330234
                        }
                    ]
                }
            }
        }
    },
    {
        "Default": {
            "$type": "ConfigAbility",
            "abilityName": "SceneObj_Area_Xm_Property_Ani_Flower_DeleteHana_01_Ability",
            "abilityMixins": [
                {
                    "$type": "AttachToGadgetStateMutexMixin",
                    "gadgetStates": [
                        0,
                        201,
                        202
                    ],
                    "modifierNames": [
                        [
                            "DefaultState"
                        ],
                        [
                            "ActiveState"
                        ],
                        [
                            "IdleState"
                        ]
                    ]
                }
            ],
            "modifiers": {
                "DefaultState": {
                    "modifierName": "",
                    "bonusCritical": 100.0,
                    "modifierMixins": [
                        {
                            "$type": "TriggerWidgetMusicGameMixin",
                            "OPKIDDEGMHO": 6,
                            "range": 8.0,
                            "onSuccess": [
                                {
                                    "$type": "ChangeGadgetState",
                                    "OBNBNBGHJEK": 201
                                }
                            ]
                        }
                    ],
                    "onAdded": [
                        {
                            "$type": "AttachEffect",
                            "healLimitedByCasterMaxHPRatio": "Eff_SceneObj_DeleteHana_Idle",
                            "JAOICKHDAKL": -1.0
                        },
                        {
                            "$type": "AttachEffect",
                            "healLimitedByCasterMaxHPRatio": "Eff_SceneObj_DeleteHana_Line_Idle",
                            "JAOICKHDAKL": -1.0
                        },
                        {
                            "$type": "SetMaterialParamFloatByTransform",
                            "FOODKPKOAPF": "Flower",
                            "NMMCIOCEDMG": "_EmissionStrength",
                            "ratio": 1.5
                        },
                        {
                            "$type": "SetMaterialParamFloatByTransform",
                            "FOODKPKOAPF": "FlowerCore",
                            "NMMCIOCEDMG": "_EmissionStrenght",
                            "ratio": 0.30000001192092896
                        },
                        {
                            "$type": "SetMaterialParamFloatByTransform",
                            "FOODKPKOAPF": "FlowerCore",
                            "NMMCIOCEDMG": "_DissolveValue",
                            "ratio": 0.0
                        }
                    ]
                },
                "ActiveState": {
                    "modifierName": "",
                    "bonusCritical": 100.0,
                    "onAdded": [
                        {
                            "$type": "SetMaterialParamFloatByTransform",
                            "FOODKPKOAPF": "FlowerCore",
                            "NMMCIOCEDMG": "_EmissionStrenght",
                            "ratio": 0.800000011920929,
                            "GEOAKAHKECD": true,
                            "OMIHILINMLD": 1.0
                        },
                        {
                            "$type": "SetMaterialParamFloatByTransform",
                            "FOODKPKOAPF": "FlowerCore",
                            "NMMCIOCEDMG": "_DissolveValue",
                            "ratio": 1.0,
                            "GEOAKAHKECD": true,
                            "OMIHILINMLD": 1.0
                        },
                        {
                            "$type": "FireEffect",
                            "healLimitedByCasterMaxHPRatio": "Eff_SceneObj_DeleteHana_Active",
                            "JAOICKHDAKL": -1.0
                        },
                        {
                            "$type": "ApplyModifier",
                            "modifierName": "StartShow"
                        }
                    ]
                },
                "IdleState": {
                    "modifierName": "",
                    "bonusCritical": 100.0,
                    "onAdded": [
                        {
                            "$type": "SetMaterialParamFloatByTransform",
                            "FOODKPKOAPF": "Flower",
                            "NMMCIOCEDMG": "_EmissionStrength",
                            "ratio": 4.0,
                            "GEOAKAHKECD": true,
                            "OMIHILINMLD": 1.0
                        },
                        {
                            "$type": "SetMaterialParamFloatByTransform",
                            "FOODKPKOAPF": "FlowerCore",
                            "NMMCIOCEDMG": "_DissolveValue",
                            "ratio": 1.0
                        },
                        {
                            "$type": "ApplyModifier",
                            "modifierName": "DealyEffectLineDie"
                        }
                    ]
                },
                "StartShow": {
                    "modifierName": "",
                    "duration": 3.5999999046325684,
                    "bonusCritical": 100.0,
                    "onAdded": [
                        {
                            "$type": "SetGlobalPos",
                            "otherTargets": {
                                "$type": "HPGJGOCGONM",
                                "topLimit": 1,
                                "MNILLKPGPKP": 1
                            },
                            "predicates": [
                                {
                                    "$type": "FJOICIIGHKG",
                                    "tag": "DeleteHanaTarget"
                                }
                            ],
                            "key": "_DeleteHana_TargetPos",
                            "born": {
                                "$type": "IJCOFPNPJPK",
                                "attachPointName": "DeleteHanaPoint"
                            },
                            "setTarget": false
                        },
                        {
                            "$type": "SetGlobalPos",
                            "otherTargets": {
                                "$type": "HPGJGOCGONM",
                                "topLimit": 1,
                                "MNILLKPGPKP": 1
                            },
                            "predicates": [
                                {
                                    "$type": "KHIEIPGNOHJ",
                                    "predicates": [
                                        {
                                            "$type": "FJOICIIGHKG",
                                            "tag": "DeleteHanaTarget"
                                        }
                                    ]
                                }
                            ],
                            "key": "_DeleteHana_TargetPos",
                            "born": {
                                "$type": "EOGLEDIIGHF"
                            },
                            "setTarget": false
                        },
                        {
                            "$type": "AttachEffect",
                            "healLimitedByCasterMaxHPRatio": "Eff_SceneObj_DeleteHana_Line",
                            "born": {
                                "$type": "LBFHLMJGELJ",
                                "LDPAKEFHAOK": "_DeleteHana_TargetPos",
                                "IDGILJNLJGN": ""
                            },
                            "JAOICKHDAKL": -1.0,
                            "BNEDICIJIKE": true
                        },
                        {
                            "$type": "ApplyModifier",
                            "modifierName": "DealyEffectLineDie"
                        }
                    ]
                },
                "DealyEffectLineDie": {
                    "stacking": "Unique",
                    "modifierName": "",
                    "duration": 2.200000047683716,
                    "bonusCritical": 100.0,
                    "thinkInterval": 1.7999999523162842,
                    "onRemoved": [
                        {
                            "$type": "ApplyModifier",
                            "otherTargets": {
                                "$type": "HPGJGOCGONM",
                                "MNILLKPGPKP": 1
                            },
                            "modifierName": "NoticeDelete"
                        }
                    ],
                    "onThinkInterval": [
                        {
                            "$type": "ChangeGadgetState",
                            "OBNBNBGHJEK": 202
                        },
                        {
                            "$type": "SendEffectTrigger",
                            "parameter": "Die",
                            "IIKEHINGEME": "",
                            "healLimitedByCasterMaxHPRatio": "Eff_SceneObj_DeleteHana_Line"
                        }
                    ]
                },
                "NoticeDelete": {
                    "modifierName": "",
                    "duration": 0.5,
                    "bonusCritical": 100.0,
                    "onAdded": [
                        {
                            "$type": "SetGlobalValue",
                            "ratio": 1.0,
                            "key": "_IsDelete",
                            "maxValue": 0.0,
                            "minValue": 0.0
                        }
                    ]
                }
            },
            "onAdded": [
                {
                    "$type": "SetMaterialParamFloatByTransform",
                    "predicates": [
                        {
                            "$type": "LKEPNCLNFHK",
                            "gadgetState": 202
                        }
                    ],
                    "FOODKPKOAPF": "Flower",
                    "NMMCIOCEDMG": "_EmissionStrength",
                    "ratio": 4.0
                }
            ]
        }
    },
    {
        "Default": {
            "$type": "ConfigAbility",
            "abilityName": "SceneObj_Area_Xm_Property_Ani_Flower_DramdoorFXiaoshi_01_Ability",
            "abilityMixins": [
                {
                    "$type": "AttachToGadgetStateMutexMixin",
                    "gadgetStates": [
                        0,
                        201
                    ],
                    "modifierNames": [
                        [
                            "Alive"
                        ],
                        [
                            "Disappear"
                        ]
                    ]
                },
                {
                    "$type": "AttachModifierToSelfGlobalValueNoInitMixin",
                    "globalValueKey": "_IsDelete",
                    "valueSteps": [
                        0.5,
                        1.5
                    ],
                    "modifierNameSteps": [
                        "DeleteHandle"
                    ]
                }
            ],
            "modifiers": {
                "Alive": {
                    "modifierName": "",
                    "bonusCritical": 100.0,
                    "onAdded": [
                        {
                            "$type": "SetGlobalValue",
                            "ratio": 0.0,
                            "key": "_IsDelete",
                            "maxValue": 0.0,
                            "minValue": 0.0
                        },
                        {
                            "$type": "SetMaterialParamFloatByTransform",
                            "canBeHandledOnRecover": true,
                            "FOODKPKOAPF": "Mat",
                            "NMMCIOCEDMG": "_DitherAlpha",
                            "ratio": 1.0
                        },
                        {
                            "$type": "EnableSceneTransformByName",
                            "canBeHandledOnRecover": true,
                            "transformNames": [
                                "Collider"
                            ],
                            "setEnable": true
                        }
                    ]
                },
                "DeleteHandle": {
                    "modifierName": "",
                    "bonusCritical": 100.0,
                    "onAdded": [
                        {
                            "$type": "ChangeGadgetState",
                            "OBNBNBGHJEK": 201
                        }
                    ]
                },
                "Disappear": {
                    "modifierName": "",
                    "duration": 1.5,
                    "bonusCritical": 100.0,
                    "onAdded": [
                        {
                            "$type": "SetMaterialParamFloatByTransform",
                            "FOODKPKOAPF": "Mat",
                            "NMMCIOCEDMG": "_DitherAlpha",
                            "ratio": 0.0,
                            "GEOAKAHKECD": true,
                            "OMIHILINMLD": 1.5
                        },
                        {
                            "$type": "EnableSceneTransformByName",
                            "canBeHandledOnRecover": true,
                            "transformNames": [
                                "Collider"
                            ]
                        }
                    ],
                    "onRemoved": [
                        {
                            "$type": "KillSelf"
                        }
                    ]
                }
            },
            "onAdded": [
                {
                    "$type": "SetMaterialParamFloatByTransform",
                    "predicates": [
                        {
                            "$type": "LKEPNCLNFHK",
                            "gadgetState": 201
                        }
                    ],
                    "FOODKPKOAPF": "Mat",
                    "NMMCIOCEDMG": "_DitherAlpha",
                    "ratio": 0.0
                },
                {
                    "$type": "ChangeTag",
                    "isAdd": true,
                    "tag": "DeleteHanaTarget"
                }
            ]
        }
    },
    {
        "Default": {
            "$type": "ConfigAbility",
            "abilityName": "SceneObj_Area_Xm_Property_Ani_Stone_AraraPortal_01_Ability",
            "abilityMixins": [
                {
                    "$type": "AttachToGadgetStateMutexMixin",
                    "gadgetStates": [
                        0,
                        201
                    ],
                    "modifierNames": [
                        [
                            "DefaultState"
                        ],
                        [
                            "ActiveState"
                        ]
                    ]
                }
            ],
            "modifiers": {
                "DefaultState": {
                    "modifierName": "",
                    "bonusCritical": 100.0,
                    "modifierMixins": [
                        {
                            "$type": "TriggerWidgetMusicGameMixin",
                            "OPKIDDEGMHO": 5,
                            "range": 8.0,
                            "onSuccess": [
                                {
                                    "$type": "ChangeGadgetState",
                                    "OBNBNBGHJEK": 201
                                }
                            ]
                        }
                    ],
                    "onAdded": [
                        {
                            "$type": "SetMaterialParamFloatByTransform",
                            "FOODKPKOAPF": "Stone",
                            "NMMCIOCEDMG": "_ConversionStateChange",
                            "ratio": -2.0
                        },
                        {
                            "$type": "SetMaterialParamFloatByTransform",
                            "FOODKPKOAPF": "Leaf",
                            "NMMCIOCEDMG": "_ConversionStateChange",
                            "ratio": -2.0
                        },
                        {
                            "$type": "AttachEffect",
                            "healLimitedByCasterMaxHPRatio": "Eff_SceneObj_AraraPortal_Idle",
                            "JAOICKHDAKL": -1.0
                        },
                        {
                            "$type": "EnableSceneTransformByName",
                            "transformNames": [
                                "ActiveWall"
                            ]
                        }
                    ]
                },
                "ActiveState": {
                    "modifierName": "",
                    "bonusCritical": 100.0,
                    "onAdded": [
                        {
                            "$type": "SetMaterialParamFloatByTransform",
                            "FOODKPKOAPF": "Stone",
                            "NMMCIOCEDMG": "_ConversionStateChange",
                            "ratio": 2.0,
                            "GEOAKAHKECD": true,
                            "OMIHILINMLD": 1.0
                        },
                        {
                            "$type": "SetMaterialParamFloatByTransform",
                            "FOODKPKOAPF": "Leaf",
                            "NMMCIOCEDMG": "_ConversionStateChange",
                            "ratio": 0.0,
                            "GEOAKAHKECD": true,
                            "OMIHILINMLD": 1.0
                        },
                        {
                            "$type": "AttachEffect",
                            "healLimitedByCasterMaxHPRatio": "Eff_SceneObj_AraraPortal_Active",
                            "JAOICKHDAKL": -1.0
                        },
                        {
                            "$type": "EnableSceneTransformByName",
                            "transformNames": [
                                "ActiveWall"
                            ],
                            "setEnable": true
                        }
                    ]
                },
                "PortalEffect": {
                    "modifierName": "",
                    "duration": 5.0,
                    "bonusCritical": 100.0,
                    "onAdded": [
                        {
                            "$type": "DungeonFogEffects",
                            "cdDelta": true,
                            "muteRemoteAction": true,
                            "enable": true,
                            "cameraFogEffectName": "Eff_SceneObj_CameraAbsorbIn_01",
                            "playerFogEffectName": ""
                        }
                    ]
                }
            },
            "onFieldEnter": [
                {
                    "$type": "AttachModifier",
                    "target": "Target",
                    "predicates": [
                        {
                            "$type": "LKEPNCLNFHK",
                            "target": "Self",
                            "gadgetState": 201
                        }
                    ],
                    "modifierName": "PortalEffect"
                }
            ]
        }
    }
]