{
    "talkId": 1908025,
    "dialogList": [
        {
            "id": 190802501,
            "talkRole": {
                "type": "TALK_ROLE_NPC",
                "id": "516"
            },
            "talkContentTextMapHash": 3336211538,
            "talkAssetPath": "",
            "talkAssetPathAlter": "",
            "talkAudioName": "",
            "actionBefore": "",
            "actionWhile": "",
            "actionAfter": "",
            "optionIcon": ""
        }
    ]
}