{
    "talkId": 2400604,
    "dialogList": [
        {
            "id": 240060401,
            "nextDialogs": [
                240060402
            ],
            "talkRole": {
                "type": "TALK_ROLE_NPC",
                "id": "5021"
            },
            "talkContentTextMapHash": 4024501578,
            "talkAssetPath": "",
            "talkAssetPathAlter": "",
            "talkAudioName": "",
            "actionBefore": "",
            "actionWhile": "SimpleTalk/LerpInNpcNoSteer_Start",
            "actionAfter": "",
            "optionIcon": ""
        },
        {
            "id": 240060402,
            "nextDialogs": [
                240060403
            ],
            "talkRole": {
                "type": "TALK_ROLE_NPC",
                "id": "5021"
            },
            "talkContentTextMapHash": 2922340842,
            "talkAssetPath": "",
            "talkAssetPathAlter": "",
            "talkAudioName": "",
            "actionBefore": "",
            "actionWhile": "SimpleTalk/SteerOnly",
            "actionAfter": "",
            "optionIcon": ""
        },
        {
            "id": 240060403,
            "talkRole": {
                "type": "TALK_ROLE_NPC",
                "id": "5021"
            },
            "talkContentTextMapHash": 3468667778,
            "talkAssetPath": "",
            "talkAssetPathAlter": "",
            "talkAudioName": "",
            "actionBefore": "",
            "actionWhile": "",
            "actionAfter": "",
            "optionIcon": ""
        }
    ]
}