{
    "talkId": 2400504,
    "dialogList": [
        {
            "id": 240050401,
            "nextDialogs": [
                240050402
            ],
            "talkRole": {
                "type": "TALK_ROLE_NPC",
                "id": "5021"
            },
            "talkContentTextMapHash": 2166181538,
            "talkAssetPath": "",
            "talkAssetPathAlter": "",
            "talkAudioName": "",
            "actionBefore": "",
            "actionWhile": "",
            "actionAfter": "",
            "optionIcon": ""
        },
        {
            "id": 240050402,
            "nextDialogs": [
                240050403
            ],
            "talkRole": {
                "type": "TALK_ROLE_NPC",
                "id": "5057"
            },
            "talkContentTextMapHash": 1341220634,
            "talkAssetPath": "",
            "talkAssetPathAlter": "",
            "talkAudioName": "",
            "actionBefore": "",
            "actionWhile": "",
            "actionAfter": "",
            "optionIcon": ""
        },
        {
            "id": 240050403,
            "nextDialogs": [
                240050404
            ],
            "talkRole": {
                "type": "TALK_ROLE_NPC",
                "id": "5021"
            },
            "talkContentTextMapHash": 1285440610,
            "talkAssetPath": "",
            "talkAssetPathAlter": "",
            "talkAudioName": "",
            "actionBefore": "",
            "actionWhile": "",
            "actionAfter": "",
            "optionIcon": ""
        },
        {
            "id": 240050404,
            "nextDialogs": [
                240050405
            ],
            "talkRole": {
                "type": "TALK_ROLE_NPC",
                "id": "5057"
            },
            "talkContentTextMapHash": 2256049714,
            "talkAssetPath": "",
            "talkAssetPathAlter": "",
            "talkAudioName": "",
            "actionBefore": "",
            "actionWhile": "",
            "actionAfter": "",
            "optionIcon": ""
        },
        {
            "id": 240050405,
            "nextDialogs": [
                240050406,
                240050407
            ],
            "talkRole": {
                "type": "TALK_ROLE_NPC",
                "id": "5021"
            },
            "talkContentTextMapHash": 3246667954,
            "talkAssetPath": "",
            "talkAssetPathAlter": "",
            "talkAudioName": "",
            "actionBefore": "",
            "actionWhile": "",
            "actionAfter": "",
            "optionIcon": ""
        },
        {
            "id": 240050406,
            "nextDialogs": [
                240050408
            ],
            "talkRole": {
                "type": "TALK_ROLE_PLAYER",
                "id": ""
            },
            "talkContentTextMapHash": 3602839394,
            "talkAssetPath": "",
            "talkAssetPathAlter": "",
            "talkAudioName": "",
            "actionBefore": "",
            "actionWhile": "",
            "actionAfter": "",
            "optionIcon": ""
        },
        {
            "id": 240050408,
            "nextDialogs": [
                240050409
            ],
            "talkRole": {
                "type": "TALK_ROLE_NPC",
                "id": "5057"
            },
            "talkContentTextMapHash": 1160708954,
            "talkAssetPath": "",
            "talkAssetPathAlter": "",
            "talkAudioName": "",
            "actionBefore": "",
            "actionWhile": "",
            "actionAfter": "",
            "optionIcon": ""
        },
        {
            "id": 240050409,
            "nextDialogs": [
                240050410
            ],
            "talkRole": {
                "type": "TALK_ROLE_NPC",
                "id": "5021"
            },
            "talkContentTextMapHash": 895383378,
            "talkAssetPath": "",
            "talkAssetPathAlter": "",
            "talkAudioName": "",
            "actionBefore": "",
            "actionWhile": "",
            "actionAfter": "",
            "optionIcon": ""
        },
        {
            "id": 240050410,
            "nextDialogs": [
                240050411
            ],
            "talkRole": {
                "type": "TALK_ROLE_NPC",
                "id": "5062"
            },
            "talkContentTextMapHash": 1359540162,
            "talkAssetPath": "",
            "talkAssetPathAlter": "",
            "talkAudioName": "",
            "actionBefore": "",
            "actionWhile": "",
            "actionAfter": "",
            "optionIcon": ""
        },
        {
            "id": 240050411,
            "nextDialogs": [
                240050412,
                240050413
            ],
            "talkRole": {
                "type": "TALK_ROLE_NPC",
                "id": "5063"
            },
            "talkContentTextMapHash": 4291486546,
            "talkAssetPath": "",
            "talkAssetPathAlter": "",
            "talkAudioName": "",
            "actionBefore": "",
            "actionWhile": "",
            "actionAfter": "",
            "optionIcon": ""
        },
        {
            "id": 240050412,
            "nextDialogs": [
                240050414
            ],
            "talkRole": {
                "type": "TALK_ROLE_PLAYER",
                "id": ""
            },
            "talkContentTextMapHash": 1283989842,
            "talkAssetPath": "",
            "talkAssetPathAlter": "",
            "talkAudioName": "",
            "actionBefore": "",
            "actionWhile": "",
            "actionAfter": "",
            "optionIcon": ""
        },
        {
            "id": 240050414,
            "nextDialogs": [
                240050415
            ],
            "talkRole": {
                "type": "TALK_ROLE_NPC",
                "id": "5063"
            },
            "talkContentTextMapHash": 349860554,
            "talkAssetPath": "",
            "talkAssetPathAlter": "",
            "talkAudioName": "",
            "actionBefore": "",
            "actionWhile": "",
            "actionAfter": "",
            "optionIcon": ""
        },
        {
            "id": 240050415,
            "talkRole": {
                "type": "TALK_ROLE_NPC",
                "id": "5063"
            },
            "talkContentTextMapHash": 1921656866,
            "talkAssetPath": "",
            "talkAssetPathAlter": "",
            "talkAudioName": "",
            "actionBefore": "",
            "actionWhile": "",
            "actionAfter": "",
            "optionIcon": ""
        },
        {
            "id": 240050413,
            "nextDialogs": [
                240050414
            ],
            "talkRole": {
                "type": "TALK_ROLE_PLAYER",
                "id": ""
            },
            "talkContentTextMapHash": 2641810706,
            "talkAssetPath": "",
            "talkAssetPathAlter": "",
            "talkAudioName": "",
            "actionBefore": "",
            "actionWhile": "",
            "actionAfter": "",
            "optionIcon": ""
        },
        {
            "id": 240050407,
            "nextDialogs": [
                240050408
            ],
            "talkRole": {
                "type": "TALK_ROLE_PLAYER",
                "id": ""
            },
            "talkContentTextMapHash": 2176795874,
            "talkAssetPath": "",
            "talkAssetPathAlter": "",
            "talkAudioName": "",
            "actionBefore": "",
            "actionWhile": "",
            "actionAfter": "",
            "optionIcon": ""
        }
    ]
}