{
    "talkId": 2400901,
    "dialogList": [
        {
            "id": 240090101,
            "nextDialogs": [
                240090102
            ],
            "talkRole": {
                "type": "TALK_ROLE_NPC",
                "id": "5140"
            },
            "talkContentTextMapHash": 1863884290,
            "talkAssetPath": "",
            "talkAssetPathAlter": "",
            "talkAudioName": "",
            "actionBefore": "SimpleTalk/Greet_Start",
            "actionWhile": "",
            "actionAfter": "",
            "optionIcon": ""
        },
        {
            "id": 240090102,
            "nextDialogs": [
                240090103
            ],
            "talkShowType": "TALK_SHOW_FORCE_SELECT",
            "talkRole": {
                "type": "TALK_ROLE_PLAYER",
                "id": ""
            },
            "talkContentTextMapHash": 3779586994,
            "talkAssetPath": "",
            "talkAssetPathAlter": "",
            "talkAudioName": "",
            "actionBefore": "",
            "actionWhile": "",
            "actionAfter": "",
            "optionIcon": ""
        },
        {
            "id": 240090103,
            "nextDialogs": [
                240090104
            ],
            "talkRole": {
                "type": "TALK_ROLE_NPC",
                "id": "5140"
            },
            "talkContentTextMapHash": 3153671794,
            "talkAssetPath": "",
            "talkAssetPathAlter": "",
            "talkAudioName": "",
            "actionBefore": "",
            "actionWhile": "SimpleTalk/Akimbo",
            "actionAfter": "SimpleTalk/Standby",
            "optionIcon": ""
        },
        {
            "id": 240090104,
            "nextDialogs": [
                240090105,
                240090106
            ],
            "talkRole": {
                "type": "TALK_ROLE_NPC",
                "id": "5140"
            },
            "talkContentTextMapHash": 2904204954,
            "talkAssetPath": "",
            "talkAssetPathAlter": "",
            "talkAudioName": "",
            "actionBefore": "",
            "actionWhile": "",
            "actionAfter": "",
            "optionIcon": ""
        },
        {
            "id": 240090105,
            "nextDialogs": [
                240090107
            ],
            "talkRole": {
                "type": "TALK_ROLE_PLAYER",
                "id": ""
            },
            "talkContentTextMapHash": 276552930,
            "talkAssetPath": "",
            "talkAssetPathAlter": "",
            "talkAudioName": "",
            "actionBefore": "",
            "actionWhile": "",
            "actionAfter": "",
            "optionIcon": ""
        },
        {
            "id": 240090107,
            "nextDialogs": [
                240090108
            ],
            "talkRole": {
                "type": "TALK_ROLE_NPC",
                "id": "5140"
            },
            "talkContentTextMapHash": 2258386826,
            "talkAssetPath": "",
            "talkAssetPathAlter": "",
            "talkAudioName": "",
            "actionBefore": "",
            "actionWhile": "SimpleTalk/PutHand",
            "actionAfter": "SimpleTalk/Standby",
            "optionIcon": ""
        },
        {
            "id": 240090108,
            "nextDialogs": [
                240090109
            ],
            "talkRole": {
                "type": "TALK_ROLE_NPC",
                "id": "5140"
            },
            "talkContentTextMapHash": 1356518082,
            "talkAssetPath": "",
            "talkAssetPathAlter": "",
            "talkAudioName": "",
            "actionBefore": "",
            "actionWhile": "",
            "actionAfter": "",
            "optionIcon": ""
        },
        {
            "id": 240090109,
            "nextDialogs": [
                240090110
            ],
            "talkRole": {
                "type": "TALK_ROLE_NPC",
                "id": "5140"
            },
            "talkContentTextMapHash": 295097482,
            "talkAssetPath": "",
            "talkAssetPathAlter": "",
            "talkAudioName": "",
            "actionBefore": "",
            "actionWhile": "SimpleTalk/RandomTalk",
            "actionAfter": "",
            "optionIcon": ""
        },
        {
            "id": 240090110,
            "nextDialogs": [
                240090111,
                240090112
            ],
            "talkRole": {
                "type": "TALK_ROLE_NPC",
                "id": "5140"
            },
            "talkContentTextMapHash": 1174415426,
            "talkAssetPath": "",
            "talkAssetPathAlter": "",
            "talkAudioName": "",
            "actionBefore": "",
            "actionWhile": "",
            "actionAfter": "",
            "optionIcon": ""
        },
        {
            "id": 240090111,
            "nextDialogs": [
                240090113
            ],
            "talkRole": {
                "type": "TALK_ROLE_PLAYER",
                "id": ""
            },
            "talkContentTextMapHash": 1249779954,
            "talkAssetPath": "",
            "talkAssetPathAlter": "",
            "talkAudioName": "",
            "actionBefore": "",
            "actionWhile": "",
            "actionAfter": "",
            "optionIcon": ""
        },
        {
            "id": 240090113,
            "nextDialogs": [
                240090114
            ],
            "talkRole": {
                "type": "TALK_ROLE_NPC",
                "id": "5140"
            },
            "talkContentTextMapHash": 1537104106,
            "talkAssetPath": "",
            "talkAssetPathAlter": "",
            "talkAudioName": "",
            "actionBefore": "",
            "actionWhile": "SimpleTalk/RandomTalk",
            "actionAfter": "",
            "optionIcon": ""
        },
        {
            "id": 240090114,
            "nextDialogs": [
                240090115
            ],
            "talkRole": {
                "type": "TALK_ROLE_NPC",
                "id": "5140"
            },
            "talkContentTextMapHash": 2454189906,
            "talkAssetPath": "",
            "talkAssetPathAlter": "",
            "talkAudioName": "",
            "actionBefore": "",
            "actionWhile": "",
            "actionAfter": "",
            "optionIcon": ""
        },
        {
            "id": 240090115,
            "nextDialogs": [
                240090116
            ],
            "talkRole": {
                "type": "TALK_ROLE_NPC",
                "id": "5140"
            },
            "talkContentTextMapHash": 1375618618,
            "talkAssetPath": "",
            "talkAssetPathAlter": "",
            "talkAudioName": "",
            "actionBefore": "",
            "actionWhile": "SimpleTalk/RandomTalk",
            "actionAfter": "",
            "optionIcon": ""
        },
        {
            "id": 240090116,
            "nextDialogs": [
                240090117
            ],
            "talkRole": {
                "type": "TALK_ROLE_NPC",
                "id": "5140"
            },
            "talkContentTextMapHash": 918817594,
            "talkAssetPath": "",
            "talkAssetPathAlter": "",
            "talkAudioName": "",
            "actionBefore": "",
            "actionWhile": "",
            "actionAfter": "",
            "optionIcon": ""
        },
        {
            "id": 240090117,
            "nextDialogs": [
                240090118,
                240090119
            ],
            "talkRole": {
                "type": "TALK_ROLE_NPC",
                "id": "5140"
            },
            "talkContentTextMapHash": 523526906,
            "talkAssetPath": "",
            "talkAssetPathAlter": "",
            "talkAudioName": "",
            "actionBefore": "",
            "actionWhile": "",
            "actionAfter": "",
            "optionIcon": ""
        },
        {
            "id": 240090118,
            "nextDialogs": [
                240090120
            ],
            "talkRole": {
                "type": "TALK_ROLE_PLAYER",
                "id": ""
            },
            "talkContentTextMapHash": 3379456298,
            "talkAssetPath": "",
            "talkAssetPathAlter": "",
            "talkAudioName": "",
            "actionBefore": "",
            "actionWhile": "",
            "actionAfter": "",
            "optionIcon": ""
        },
        {
            "id": 240090120,
            "nextDialogs": [
                240090121
            ],
            "talkRole": {
                "type": "TALK_ROLE_NPC",
                "id": "5140"
            },
            "talkContentTextMapHash": 4044988850,
            "talkAssetPath": "",
            "talkAssetPathAlter": "",
            "talkAudioName": "",
            "actionBefore": "",
            "actionWhile": "SimpleTalk/NodHead",
            "actionAfter": "",
            "optionIcon": ""
        },
        {
            "id": 240090121,
            "nextDialogs": [
                240090122
            ],
            "talkRole": {
                "type": "TALK_ROLE_NPC",
                "id": "5140"
            },
            "talkContentTextMapHash": 1469811986,
            "talkAssetPath": "",
            "talkAssetPathAlter": "",
            "talkAudioName": "",
            "actionBefore": "",
            "actionWhile": "",
            "actionAfter": "",
            "optionIcon": ""
        },
        {
            "id": 240090122,
            "talkRole": {
                "type": "TALK_ROLE_NPC",
                "id": "5140"
            },
            "talkContentTextMapHash": 1685195186,
            "talkAssetPath": "",
            "talkAssetPathAlter": "",
            "talkAudioName": "",
            "actionBefore": "",
            "actionWhile": "",
            "actionAfter": "",
            "optionIcon": ""
        },
        {
            "id": 240090119,
            "nextDialogs": [
                240090120
            ],
            "talkRole": {
                "type": "TALK_ROLE_PLAYER",
                "id": ""
            },
            "talkContentTextMapHash": 3383615370,
            "talkAssetPath": "",
            "talkAssetPathAlter": "",
            "talkAudioName": "",
            "actionBefore": "",
            "actionWhile": "",
            "actionAfter": "",
            "optionIcon": ""
        },
        {
            "id": 240090112,
            "nextDialogs": [
                240090113
            ],
            "talkRole": {
                "type": "TALK_ROLE_PLAYER",
                "id": ""
            },
            "talkContentTextMapHash": 3769749786,
            "talkAssetPath": "",
            "talkAssetPathAlter": "",
            "talkAudioName": "",
            "actionBefore": "",
            "actionWhile": "",
            "actionAfter": "",
            "optionIcon": ""
        },
        {
            "id": 240090106,
            "nextDialogs": [
                240090107
            ],
            "talkRole": {
                "type": "TALK_ROLE_PLAYER",
                "id": ""
            },
            "talkContentTextMapHash": 2836491298,
            "talkAssetPath": "",
            "talkAssetPathAlter": "",
            "talkAudioName": "",
            "actionBefore": "",
            "actionWhile": "",
            "actionAfter": "",
            "optionIcon": ""
        }
    ]
}