{
    "talkId": 2400902,
    "dialogList": [
        {
            "id": 240090201,
            "nextDialogs": [
                240090202
            ],
            "talkRole": {
                "type": "TALK_ROLE_NPC",
                "id": "5140"
            },
            "talkContentTextMapHash": 3343333058,
            "talkAssetPath": "",
            "talkAssetPathAlter": "",
            "talkAudioName": "",
            "actionBefore": "SimpleTalk/Think",
            "actionWhile": "",
            "actionAfter": "SimpleTalk/Standby",
            "optionIcon": ""
        },
        {
            "id": 240090202,
            "nextDialogs": [
                240090203
            ],
            "talkRole": {
                "type": "TALK_ROLE_NPC",
                "id": "5140"
            },
            "talkContentTextMapHash": 3241888794,
            "talkAssetPath": "",
            "talkAssetPathAlter": "",
            "talkAudioName": "",
            "actionBefore": "",
            "actionWhile": "",
            "actionAfter": "",
            "optionIcon": ""
        },
        {
            "id": 240090203,
            "nextDialogs": [
                240090204
            ],
            "talkRole": {
                "type": "TALK_ROLE_NPC",
                "id": "5140"
            },
            "talkContentTextMapHash": 1700793442,
            "talkAssetPath": "",
            "talkAssetPathAlter": "",
            "talkAudioName": "",
            "actionBefore": "",
            "actionWhile": "SimpleTalk/RandomTalk",
            "actionAfter": "",
            "optionIcon": ""
        },
        {
            "id": 240090204,
            "talkRole": {
                "type": "TALK_ROLE_NPC",
                "id": "5140"
            },
            "talkContentTextMapHash": 224892986,
            "talkAssetPath": "",
            "talkAssetPathAlter": "",
            "talkAudioName": "",
            "actionBefore": "",
            "actionWhile": "",
            "actionAfter": "",
            "optionIcon": ""
        }
    ]
}