{
    "talkId": 2401380,
    "dialogList": [
        {
            "id": 240138001,
            "talkRole": {
                "type": "TALK_ROLE_NPC",
                "id": "5084"
            },
            "talkContentTextMapHash": 380889554,
            "talkAssetPath": "",
            "talkAssetPathAlter": "",
            "talkAudioName": "",
            "actionBefore": "",
            "actionWhile": "",
            "actionAfter": "",
            "optionIcon": ""
        }
    ]
}