{
    "talkId": 2401271,
    "dialogList": [
        {
            "id": 240127101,
            "nextDialogs": [
                240127102
            ],
            "talkRole": {
                "type": "TALK_ROLE_NPC",
                "id": "5053"
            },
            "talkContentTextMapHash": 1077923770,
            "talkAssetPath": "",
            "talkAssetPathAlter": "",
            "talkAudioName": "",
            "actionBefore": "",
            "actionWhile": "",
            "actionAfter": "",
            "optionIcon": ""
        },
        {
            "id": 240127102,
            "nextDialogs": [
                240127103
            ],
            "talkRole": {
                "type": "TALK_ROLE_NPC",
                "id": "5053"
            },
            "talkContentTextMapHash": 2018534890,
            "talkAssetPath": "",
            "talkAssetPathAlter": "",
            "talkAudioName": "",
            "actionBefore": "",
            "actionWhile": "SimpleTalk/Standby",
            "actionAfter": "",
            "optionIcon": ""
        },
        {
            "id": 240127103,
            "nextDialogs": [
                240127104
            ],
            "talkRole": {
                "type": "TALK_ROLE_NPC",
                "id": "5053"
            },
            "talkContentTextMapHash": 3877960402,
            "talkAssetPath": "",
            "talkAssetPathAlter": "",
            "talkAudioName": "",
            "actionBefore": "",
            "actionWhile": "SimpleTalk/RandomTalkHold",
            "actionAfter": "",
            "optionIcon": ""
        },
        {
            "id": 240127104,
            "talkRole": {
                "type": "TALK_ROLE_NPC",
                "id": "5053"
            },
            "talkContentTextMapHash": 955662946,
            "talkAssetPath": "",
            "talkAssetPathAlter": "",
            "talkAudioName": "",
            "actionBefore": "",
            "actionWhile": "SimpleTalk/Standby",
            "actionAfter": "SimpleTalk/SimpleBlackScreen_End",
            "optionIcon": ""
        }
    ]
}