{
    "talkId": 2401833,
    "dialogList": [
        {
            "id": 240183301,
            "nextDialogs": [
                240183302
            ],
            "talkRole": {
                "type": "TALK_ROLE_NPC",
                "id": "13417"
            },
            "talkContentTextMapHash": 2153060818,
            "talkAssetPath": "",
            "talkAssetPathAlter": "",
            "talkAudioName": "",
            "actionBefore": "",
            "actionWhile": "",
            "actionAfter": "",
            "optionIcon": ""
        },
        {
            "id": 240183302,
            "nextDialogs": [
                240183303
            ],
            "talkShowType": "TALK_SHOW_FORCE_SELECT",
            "talkRole": {
                "type": "TALK_ROLE_PLAYER",
                "id": ""
            },
            "talkContentTextMapHash": 869340178,
            "talkAssetPath": "",
            "talkAssetPathAlter": "",
            "talkAudioName": "",
            "actionBefore": "",
            "actionWhile": "",
            "actionAfter": "",
            "optionIcon": ""
        },
        {
            "id": 240183303,
            "nextDialogs": [
                240183304
            ],
            "talkRole": {
                "type": "TALK_ROLE_BLACK_SCREEN",
                "id": ""
            },
            "talkContentTextMapHash": 3303059506,
            "talkAssetPath": "",
            "talkAssetPathAlter": "",
            "talkAudioName": "",
            "actionBefore": "",
            "actionWhile": "",
            "actionAfter": "",
            "optionIcon": ""
        },
        {
            "id": 240183304,
            "nextDialogs": [
                240183305
            ],
            "talkRole": {
                "type": "TALK_ROLE_NPC",
                "id": "13417"
            },
            "talkContentTextMapHash": 4056466082,
            "talkAssetPath": "",
            "talkAssetPathAlter": "",
            "talkAudioName": "",
            "actionBefore": "",
            "actionWhile": "",
            "actionAfter": "",
            "optionIcon": ""
        },
        {
            "id": 240183305,
            "nextDialogs": [
                240183306
            ],
            "talkRole": {
                "type": "TALK_ROLE_NPC",
                "id": "13417"
            },
            "talkContentTextMapHash": 1941842426,
            "talkAssetPath": "",
            "talkAssetPathAlter": "",
            "talkAudioName": "",
            "actionBefore": "",
            "actionWhile": "",
            "actionAfter": "",
            "optionIcon": ""
        },
        {
            "id": 240183306,
            "talkRole": {
                "type": "TALK_ROLE_NPC",
                "id": "13417"
            },
            "talkContentTextMapHash": 3257499970,
            "talkAssetPath": "",
            "talkAssetPathAlter": "",
            "talkAudioName": "",
            "actionBefore": "",
            "actionWhile": "",
            "actionAfter": "",
            "optionIcon": ""
        }
    ]
}