{
    "talkId": 2402002,
    "dialogList": [
        {
            "id": 240200201,
            "talkRole": {
                "type": "TALK_ROLE_NPC",
                "id": "5142"
            },
            "talkContentTextMapHash": 70086154,
            "talkAssetPath": "",
            "talkAssetPathAlter": "",
            "talkAudioName": "",
            "actionBefore": "",
            "actionWhile": "",
            "actionAfter": "UI/open_giving_page",
            "optionIcon": ""
        }
    ]
}