{
    "talkId": 7400003,
    "dialogList": [
        {
            "id": 740000301,
            "nextDialogs": [
                740000302
            ],
            "talkRole": {
                "type": "TALK_ROLE_NPC",
                "id": "21033"
            },
            "talkContentTextMapHash": 782809762,
            "talkAssetPath": "",
            "talkAssetPathAlter": "",
            "talkAudioName": "",
            "actionBefore": "",
            "actionWhile": "",
            "actionAfter": "",
            "optionIcon": ""
        },
        {
            "id": 740000302,
            "talkRole": {
                "type": "TALK_ROLE_NPC",
                "id": "21034"
            },
            "talkContentTextMapHash": 3131763362,
            "talkAssetPath": "",
            "talkAssetPathAlter": "",
            "talkAudioName": "",
            "actionBefore": "",
            "actionWhile": "",
            "actionAfter": "",
            "optionIcon": ""
        }
    ]
}