{
    "talkId": 7400807,
    "dialogList": [
        {
            "id": 740080701,
            "nextDialogs": [
                740080702
            ],
            "talkRole": {
                "type": "TALK_ROLE_NPC",
                "id": "21030"
            },
            "talkContentTextMapHash": 3659821154,
            "talkAssetPath": "",
            "talkAssetPathAlter": "",
            "talkAudioName": "",
            "actionBefore": "",
            "actionWhile": "",
            "actionAfter": "",
            "optionIcon": ""
        },
        {
            "id": 740080702,
            "nextDialogs": [
                740080703
            ],
            "talkRole": {
                "type": "TALK_ROLE_NPC",
                "id": "1005"
            },
            "talkContentTextMapHash": 2229398954,
            "talkAssetPath": "",
            "talkAssetPathAlter": "",
            "talkAudioName": "",
            "actionBefore": "",
            "actionWhile": "",
            "actionAfter": "",
            "optionIcon": ""
        },
        {
            "id": 740080703,
            "nextDialogs": [
                740080704
            ],
            "talkRole": {
                "type": "TALK_ROLE_NPC",
                "id": "21030"
            },
            "talkContentTextMapHash": 3084283906,
            "talkAssetPath": "",
            "talkAssetPathAlter": "",
            "talkAudioName": "",
            "actionBefore": "",
            "actionWhile": "",
            "actionAfter": "",
            "optionIcon": ""
        },
        {
            "id": 740080704,
            "nextDialogs": [
                740080705
            ],
            "talkRole": {
                "type": "TALK_ROLE_NPC",
                "id": "21030"
            },
            "talkContentTextMapHash": 3649748634,
            "talkAssetPath": "",
            "talkAssetPathAlter": "",
            "talkAudioName": "",
            "actionBefore": "",
            "actionWhile": "",
            "actionAfter": "",
            "optionIcon": ""
        },
        {
            "id": 740080705,
            "nextDialogs": [
                740080706
            ],
            "talkRole": {
                "type": "TALK_ROLE_NPC",
                "id": "1005"
            },
            "talkContentTextMapHash": 100008842,
            "talkAssetPath": "",
            "talkAssetPathAlter": "",
            "talkAudioName": "",
            "actionBefore": "",
            "actionWhile": "",
            "actionAfter": "",
            "optionIcon": ""
        },
        {
            "id": 740080706,
            "nextDialogs": [
                740080707
            ],
            "talkRole": {
                "type": "TALK_ROLE_NPC",
                "id": "1005"
            },
            "talkContentTextMapHash": 256838090,
            "talkAssetPath": "",
            "talkAssetPathAlter": "",
            "talkAudioName": "",
            "actionBefore": "",
            "actionWhile": "",
            "actionAfter": "",
            "optionIcon": ""
        },
        {
            "id": 740080707,
            "nextDialogs": [
                740080708
            ],
            "talkRole": {
                "type": "TALK_ROLE_NPC",
                "id": "21030"
            },
            "talkContentTextMapHash": 3193168682,
            "talkAssetPath": "",
            "talkAssetPathAlter": "",
            "talkAudioName": "",
            "actionBefore": "",
            "actionWhile": "",
            "actionAfter": "",
            "optionIcon": ""
        },
        {
            "id": 740080708,
            "nextDialogs": [
                740080709
            ],
            "talkRole": {
                "type": "TALK_ROLE_NPC",
                "id": "21030"
            },
            "talkContentTextMapHash": 494641586,
            "talkAssetPath": "",
            "talkAssetPathAlter": "",
            "talkAudioName": "",
            "actionBefore": "",
            "actionWhile": "",
            "actionAfter": "",
            "optionIcon": ""
        },
        {
            "id": 740080709,
            "nextDialogs": [
                740080710
            ],
            "talkRole": {
                "type": "TALK_ROLE_NPC",
                "id": "21030"
            },
            "talkContentTextMapHash": 2481833594,
            "talkAssetPath": "",
            "talkAssetPathAlter": "",
            "talkAudioName": "",
            "actionBefore": "",
            "actionWhile": "",
            "actionAfter": "",
            "optionIcon": ""
        },
        {
            "id": 740080710,
            "nextDialogs": [
                740080711
            ],
            "talkRole": {
                "type": "TALK_ROLE_NPC",
                "id": "1005"
            },
            "talkContentTextMapHash": 3304537754,
            "talkAssetPath": "",
            "talkAssetPathAlter": "",
            "talkAudioName": "",
            "actionBefore": "",
            "actionWhile": "",
            "actionAfter": "",
            "optionIcon": ""
        },
        {
            "id": 740080711,
            "nextDialogs": [
                740080712
            ],
            "talkRole": {
                "type": "TALK_ROLE_NPC",
                "id": "21030"
            },
            "talkContentTextMapHash": 3767640386,
            "talkAssetPath": "",
            "talkAssetPathAlter": "",
            "talkAudioName": "",
            "actionBefore": "",
            "actionWhile": "",
            "actionAfter": "",
            "optionIcon": ""
        },
        {
            "id": 740080712,
            "nextDialogs": [
                740080713
            ],
            "talkRole": {
                "type": "TALK_ROLE_NPC",
                "id": "1005"
            },
            "talkContentTextMapHash": 2285322122,
            "talkAssetPath": "",
            "talkAssetPathAlter": "",
            "talkAudioName": "",
            "actionBefore": "",
            "actionWhile": "",
            "actionAfter": "",
            "optionIcon": ""
        },
        {
            "id": 740080713,
            "nextDialogs": [
                740080714
            ],
            "talkRole": {
                "type": "TALK_ROLE_NPC",
                "id": "21030"
            },
            "talkContentTextMapHash": 1694277578,
            "talkAssetPath": "",
            "talkAssetPathAlter": "",
            "talkAudioName": "",
            "actionBefore": "",
            "actionWhile": "",
            "actionAfter": "",
            "optionIcon": ""
        },
        {
            "id": 740080714,
            "nextDialogs": [
                740080715
            ],
            "talkRole": {
                "type": "TALK_ROLE_NPC",
                "id": "21030"
            },
            "talkContentTextMapHash": 2282168442,
            "talkAssetPath": "",
            "talkAssetPathAlter": "",
            "talkAudioName": "",
            "actionBefore": "",
            "actionWhile": "",
            "actionAfter": "",
            "optionIcon": ""
        },
        {
            "id": 740080715,
            "talkRole": {
                "type": "TALK_ROLE_NPC",
                "id": "1005"
            },
            "talkContentTextMapHash": 897101354,
            "talkAssetPath": "",
            "talkAssetPathAlter": "",
            "talkAudioName": "",
            "actionBefore": "",
            "actionWhile": "",
            "actionAfter": "",
            "optionIcon": ""
        }
    ]
}