{
    "talkId": 7405018,
    "dialogList": [
        {
            "id": 740501801,
            "nextDialogs": [
                740501802,
                740501805
            ],
            "talkRole": {
                "type": "TALK_ROLE_NPC",
                "id": "21081"
            },
            "talkContentTextMapHash": 1239260610,
            "talkAssetPath": "",
            "talkAssetPathAlter": "",
            "talkAudioName": "",
            "actionBefore": "",
            "actionWhile": "",
            "actionAfter": "",
            "optionIcon": ""
        },
        {
            "id": 740501802,
            "nextDialogs": [
                740501803
            ],
            "talkRole": {
                "type": "TALK_ROLE_PLAYER",
                "id": ""
            },
            "talkContentTextMapHash": 1334589722,
            "talkAssetPath": "",
            "talkAssetPathAlter": "",
            "talkAudioName": "",
            "actionBefore": "",
            "actionWhile": "",
            "actionAfter": "",
            "optionIcon": ""
        },
        {
            "id": 740501803,
            "nextDialogs": [
                740501804
            ],
            "talkRole": {
                "type": "TALK_ROLE_NPC",
                "id": "21081"
            },
            "talkContentTextMapHash": 2594706498,
            "talkAssetPath": "",
            "talkAssetPathAlter": "",
            "talkAudioName": "",
            "actionBefore": "",
            "actionWhile": "",
            "actionAfter": "",
            "optionIcon": ""
        },
        {
            "id": 740501804,
            "talkRole": {
                "type": "TALK_ROLE_NPC",
                "id": "1400"
            },
            "talkContentTextMapHash": 142821362,
            "talkAssetPath": "",
            "talkAssetPathAlter": "",
            "talkAudioName": "",
            "actionBefore": "",
            "actionWhile": "",
            "actionAfter": "",
            "optionIcon": ""
        },
        {
            "id": 740501805,
            "nextDialogs": [
                740501806
            ],
            "talkRole": {
                "type": "TALK_ROLE_PLAYER",
                "id": ""
            },
            "talkContentTextMapHash": 2388525442,
            "talkAssetPath": "",
            "talkAssetPathAlter": "",
            "talkAudioName": "",
            "actionBefore": "",
            "actionWhile": "",
            "actionAfter": "",
            "optionIcon": ""
        },
        {
            "id": 740501806,
            "nextDialogs": [
                740501807
            ],
            "talkRole": {
                "type": "TALK_ROLE_NPC",
                "id": "21081"
            },
            "talkContentTextMapHash": 3990106690,
            "talkAssetPath": "",
            "talkAssetPathAlter": "",
            "talkAudioName": "",
            "actionBefore": "",
            "actionWhile": "",
            "actionAfter": "",
            "optionIcon": ""
        },
        {
            "id": 740501807,
            "talkRole": {
                "type": "TALK_ROLE_NPC",
                "id": "1400"
            },
            "talkContentTextMapHash": 505102450,
            "talkAssetPath": "",
            "talkAssetPathAlter": "",
            "talkAudioName": "",
            "actionBefore": "",
            "actionWhile": "",
            "actionAfter": "",
            "optionIcon": ""
        }
    ]
}