{
    "talkId": 7465002,
    "dialogList": [
        {
            "id": 746500201,
            "nextDialogs": [
                746500202
            ],
            "talkRole": {
                "type": "TALK_ROLE_NPC",
                "id": "5042"
            },
            "talkContentTextMapHash": 4143511058,
            "talkAssetPath": "",
            "talkAssetPathAlter": "",
            "talkAudioName": "",
            "actionBefore": "",
            "actionWhile": "",
            "actionAfter": "",
            "optionIcon": ""
        },
        {
            "id": 746500202,
            "nextDialogs": [
                746500203
            ],
            "talkRole": {
                "type": "TALK_ROLE_NPC",
                "id": "5042"
            },
            "talkContentTextMapHash": 2695022866,
            "talkAssetPath": "",
            "talkAssetPathAlter": "",
            "talkAudioName": "",
            "actionBefore": "",
            "actionWhile": "",
            "actionAfter": "",
            "optionIcon": ""
        },
        {
            "id": 746500203,
            "nextDialogs": [
                746500204
            ],
            "talkRole": {
                "type": "TALK_ROLE_NPC",
                "id": "5042"
            },
            "talkContentTextMapHash": 112757474,
            "talkAssetPath": "",
            "talkAssetPathAlter": "",
            "talkAudioName": "",
            "actionBefore": "",
            "actionWhile": "",
            "actionAfter": "",
            "optionIcon": ""
        },
        {
            "id": 746500204,
            "nextDialogs": [
                746500205
            ],
            "talkRole": {
                "type": "TALK_ROLE_NPC",
                "id": "5042"
            },
            "talkContentTextMapHash": 1566830994,
            "talkAssetPath": "",
            "talkAssetPathAlter": "",
            "talkAudioName": "",
            "actionBefore": "",
            "actionWhile": "",
            "actionAfter": "",
            "optionIcon": ""
        },
        {
            "id": 746500205,
            "nextDialogs": [
                746500206
            ],
            "talkRole": {
                "type": "TALK_ROLE_NPC",
                "id": "5042"
            },
            "talkContentTextMapHash": 1635381146,
            "talkAssetPath": "",
            "talkAssetPathAlter": "",
            "talkAudioName": "",
            "actionBefore": "",
            "actionWhile": "",
            "actionAfter": "",
            "optionIcon": ""
        },
        {
            "id": 746500206,
            "nextDialogs": [
                746500207
            ],
            "talkRole": {
                "type": "TALK_ROLE_NPC",
                "id": "5042"
            },
            "talkContentTextMapHash": 1676691098,
            "talkAssetPath": "",
            "talkAssetPathAlter": "",
            "talkAudioName": "",
            "actionBefore": "",
            "actionWhile": "",
            "actionAfter": "",
            "optionIcon": ""
        },
        {
            "id": 746500207,
            "nextDialogs": [
                746500208
            ],
            "talkShowType": "TALK_SHOW_FORCE_SELECT",
            "talkRole": {
                "type": "TALK_ROLE_PLAYER",
                "id": ""
            },
            "talkContentTextMapHash": 2524335098,
            "talkAssetPath": "",
            "talkAssetPathAlter": "",
            "talkAudioName": "",
            "actionBefore": "",
            "actionWhile": "",
            "actionAfter": "",
            "optionIcon": ""
        },
        {
            "id": 746500208,
            "nextDialogs": [
                746500209
            ],
            "talkRole": {
                "type": "TALK_ROLE_NPC",
                "id": "5042"
            },
            "talkContentTextMapHash": 3239006490,
            "talkAssetPath": "",
            "talkAssetPathAlter": "",
            "talkAudioName": "",
            "actionBefore": "",
            "actionWhile": "",
            "actionAfter": "",
            "optionIcon": ""
        },
        {
            "id": 746500209,
            "nextDialogs": [
                746500210
            ],
            "talkRole": {
                "type": "TALK_ROLE_NPC",
                "id": "5042"
            },
            "talkContentTextMapHash": 3824651890,
            "talkAssetPath": "",
            "talkAssetPathAlter": "",
            "talkAudioName": "",
            "actionBefore": "",
            "actionWhile": "",
            "actionAfter": "",
            "optionIcon": ""
        },
        {
            "id": 746500210,
            "talkRole": {
                "type": "TALK_ROLE_NPC",
                "id": "5042"
            },
            "talkContentTextMapHash": 2845813554,
            "talkAssetPath": "",
            "talkAssetPathAlter": "",
            "talkAudioName": "",
            "actionBefore": "",
            "actionWhile": "",
            "actionAfter": "",
            "optionIcon": ""
        }
    ]
}