{
    "talkId": 7904613,
    "dialogList": [
        {
            "id": 790461301,
            "nextDialogs": [
                790461302
            ],
            "talkRole": {
                "type": "TALK_ROLE_NPC",
                "id": "20977"
            },
            "talkContentTextMapHash": 3982443954,
            "talkAssetPath": "",
            "talkAssetPathAlter": "",
            "talkAudioName": "",
            "actionBefore": "",
            "actionWhile": "",
            "actionAfter": "",
            "optionIcon": ""
        },
        {
            "id": 790461302,
            "talkRole": {
                "type": "TALK_ROLE_NPC",
                "id": "20977"
            },
            "talkContentTextMapHash": 1110650266,
            "talkAssetPath": "",
            "talkAssetPathAlter": "",
            "talkAudioName": "",
            "actionBefore": "",
            "actionWhile": "",
            "actionAfter": "",
            "optionIcon": ""
        }
    ]
}