{
    "luaDataPath": "",
    "entityBan": "",
    "group": [
        [
            {
                "$type": "CENEPJCONAG",
                "type": "BODY_LANG",
                "FOEKGLEJBIJ": ""
            }
        ]
    ]
}