{
    "luaDataPath": "",
    "startBlackKeepTime": 0.5,
    "entityBan": "",
    "disableNpcLod": true,
    "BHNKJKDADLC": true,
    "JJFIGGKCCCF": true,
    "EKDGNGHMECG": true,
    "startFade": {
        "startFadeInDuration": 0.5,
        "startFadeOutDuration": 0.5
    },
    "endFade": {
        "startFadeOutDuration": 0.0
    },
    "actors": [
        {
            "alias": "Avatar",
            "visible": true,
            "bornPointName": "guide_Q7301805_player",
            "relativePosNpcAlias": "",
            "bindMovingTargetKey": ""
        },
        {
            "configID": 1005,
            "alias": "1005",
            "visible": true,
            "bornPointName": "guide_Q7301805_paimon",
            "relativePos": {
                "x": 0.5,
                "z": 0.5
            },
            "removeActorType": "REMOVE_WITH_DISAPPEAR",
            "relativePosNpcAlias": "",
            "bindMovingTargetKey": ""
        },
        {
            "configID": 20605,
            "alias": "20605",
            "visible": true,
            "bornPointName": "guide_Q7301805",
            "relativePosNpcAlias": "",
            "bindMovingTargetKey": ""
        },
        {
            "configID": 20607,
            "alias": "20607",
            "visible": true,
            "bornPointName": "guide_Q7301805_3",
            "relativePosNpcAlias": "",
            "bindMovingTargetKey": ""
        },
        {
            "configID": 20608,
            "alias": "20608",
            "visible": true,
            "bornPointName": "guide_Q7301805_4",
            "relativePosNpcAlias": "",
            "bindMovingTargetKey": ""
        },
        {
            "configID": 20606,
            "alias": "20606",
            "visible": true,
            "bornPointName": "guide_Q7301805_2",
            "relativePosNpcAlias": "",
            "bindMovingTargetKey": ""
        }
    ],
    "group": [
        [
            {
                "$type": "MoleMole.Config.ConfigTimeProtectAction",
                "type": "TIME_PROTECT",
                "duration": 1.0
            },
            {
                "$type": "PBIGHFCHGCA",
                "type": "CAMERA_MOVE",
                "duration": 1.0,
                "actionId": 157,
                "KCFKJMMEECM": {
                    "x": -1700.532958984375,
                    "y": 103.70999908447266,
                    "z": 3293.299072265625
                },
                "DLGJEHNPMFN": {
                    "x": -1701.1600341796875,
                    "y": 104.30400085449219,
                    "z": 3292.794921875
                },
                "FNMFGIOLKBE": 6,
                "NECGMADJICG": "EaseInOutCubic",
                "BMHIHPIKAHM": {},
                "MMJMMAEAJOA": true,
                "HGGPLEMCNNG": false,
                "JBODIEHINII": "",
                "PHDIKPKLFIA": true,
                "EJCHLMIMLBO": "",
                "BIMPIKMCIHB": "",
                "MCAOJPLIJGI": ""
            },
            {
                "$type": "MoleMole.Config.ConfigBlackScreenAction",
                "type": "BLACK_SCREEN",
                "actionId": 169,
                "blackScreenType": "KEEP_BLACK",
                "durationKeepBlack": 0.5,
                "inteePos": "",
                "textMapID": "",
                "useTextFade": true
            },
            {
                "$type": "MoleMole.Config.ConfigTeleportToAction",
                "type": "TELEPORT_TO",
                "aliasList": [
                    "Avatar"
                ],
                "actionId": 159,
                "position": {
                    "x": -1708.4339599609375,
                    "y": 107.30400085449219,
                    "z": 3284.0869140625
                },
                "forward": {
                    "x": -0.828000009059906,
                    "z": -0.5609999895095825
                },
                "openLongDisTeleport": true,
                "posBindMovingTargetKey": "",
                "forwardBindMovingTargetKey": ""
            },
            {
                "$type": "MoleMole.Config.ConfigTeleportToAction",
                "type": "TELEPORT_TO",
                "aliasList": [
                    "1005"
                ],
                "actionId": 160,
                "position": {
                    "x": -1709.593017578125,
                    "y": 107.1510009765625,
                    "z": 3285.01708984375
                },
                "forward": {
                    "x": -0.5920000076293945,
                    "z": -0.8059999942779541
                },
                "openLongDisTeleport": true,
                "posBindMovingTargetKey": "",
                "forwardBindMovingTargetKey": ""
            },
            {
                "$type": "MoleMole.Config.ConfigTeleportToAction",
                "type": "TELEPORT_TO",
                "aliasList": [
                    "20605"
                ],
                "actionId": 172,
                "position": {
                    "x": -1710.3480224609375,
                    "y": 108.26300048828125,
                    "z": 3283.153076171875
                },
                "forward": {
                    "x": -0.6919999718666077,
                    "z": -0.722000002861023
                },
                "openLongDisTeleport": true,
                "posBindMovingTargetKey": "",
                "forwardBindMovingTargetKey": ""
            },
            {
                "$type": "MoleMole.Config.ConfigTeleportToAction",
                "type": "TELEPORT_TO",
                "aliasList": [
                    "20607"
                ],
                "actionId": 162,
                "position": {
                    "x": -1711.2550048828125,
                    "y": 108.64199829101562,
                    "z": 3285.111083984375
                },
                "forward": {
                    "x": 0.04600000008940697,
                    "z": -0.9990000128746033
                },
                "openLongDisTeleport": true,
                "posBindMovingTargetKey": "",
                "forwardBindMovingTargetKey": ""
            },
            {
                "$type": "MoleMole.Config.ConfigTeleportToAction",
                "type": "TELEPORT_TO",
                "aliasList": [
                    "20608"
                ],
                "actionId": 163,
                "position": {
                    "x": -1712.0780029296875,
                    "y": 108.83399963378906,
                    "z": 3286.177978515625
                },
                "forward": {
                    "x": -0.4050000011920929,
                    "z": -0.9139999747276306
                },
                "openLongDisTeleport": true,
                "posBindMovingTargetKey": "",
                "forwardBindMovingTargetKey": ""
            },
            {
                "$type": "MoleMole.Config.ConfigTeleportToAction",
                "type": "TELEPORT_TO",
                "aliasList": [
                    "20606"
                ],
                "actionId": 173,
                "position": {
                    "x": -1707.947021484375,
                    "y": 108.18699645996094,
                    "z": 3282.139892578125
                },
                "forward": {
                    "x": -0.9769999980926514,
                    "z": -0.210999995470047
                },
                "openLongDisTeleport": true,
                "posBindMovingTargetKey": "",
                "forwardBindMovingTargetKey": ""
            }
        ],
        [
            {
                "$type": "PBIGHFCHGCA",
                "type": "CAMERA_MOVE",
                "duration": 0.18700000643730164,
                "actionId": 158,
                "KCFKJMMEECM": {
                    "x": -1706.113037109375,
                    "y": 106.3239974975586,
                    "z": 3287.633056640625
                },
                "DLGJEHNPMFN": {
                    "x": -1706.7550048828125,
                    "y": 106.8219985961914,
                    "z": 3287.050048828125
                },
                "FNMFGIOLKBE": 6,
                "NECGMADJICG": "EaseInOutCubic",
                "BMHIHPIKAHM": {},
                "MMJMMAEAJOA": true,
                "HGGPLEMCNNG": false,
                "JBODIEHINII": "",
                "PHDIKPKLFIA": true,
                "EJCHLMIMLBO": "",
                "BIMPIKMCIHB": "",
                "MCAOJPLIJGI": ""
            },
            {
                "$type": "MoleMole.Config.ConfigBlackScreenAction",
                "type": "BLACK_SCREEN",
                "actionId": 170,
                "blackScreenType": "FROM_BLACK",
                "durationFromBlack": 0.5,
                "inteePos": "",
                "textMapID": "",
                "useTextFade": true
            },
            {
                "$type": "FNPNDPFBBDD",
                "type": "LOOK_AT",
                "aliasList": [
                    "Avatar"
                ],
                "actionId": 168,
                "NKGFDJDHOBD": true,
                "useTargetPos": true,
                "LBJHJADMNBD": true,
                "EKIONHAEIBG": {
                    "x": -1713.8060302734375,
                    "y": 114.13600158691406,
                    "z": 3278.55908203125
                },
                "MNOPLOBEFLB": 0.5,
                "JBODIEHINII": "",
                "CFPBIOLLOCO": "NONE",
                "MDNPCOHCCLM": true,
                "LPCACGGCDLI": "",
                "NNFPFPOJJOJ": ""
            },
            {
                "$type": "KAGAFALAIGP",
                "type": "DIALOG",
                "aliasList": [
                    "1005"
                ],
                "JHEPJOMJJHH": 730180401,
                "OCILKFCPBNC": 0.5
            },
            {
                "$type": "FNPNDPFBBDD",
                "type": "LOOK_AT",
                "aliasList": [
                    "1005"
                ],
                "actionId": 167,
                "NKGFDJDHOBD": true,
                "useTargetPos": true,
                "LBJHJADMNBD": true,
                "EKIONHAEIBG": {
                    "x": -1713.8060302734375,
                    "y": 114.13600158691406,
                    "z": 3278.55908203125
                },
                "MNOPLOBEFLB": 0.5,
                "JBODIEHINII": "",
                "CFPBIOLLOCO": "NONE",
                "MDNPCOHCCLM": true,
                "LPCACGGCDLI": "",
                "NNFPFPOJJOJ": ""
            },
            {
                "$type": "PBIGHFCHGCA",
                "type": "CAMERA_MOVE",
                "delayTime": 0.12600000202655792,
                "duration": 7.728000164031982,
                "actionId": 171,
                "KCFKJMMEECM": {
                    "x": -1706.3280029296875,
                    "y": 106.53800201416016,
                    "z": 3287.43798828125
                },
                "DLGJEHNPMFN": {
                    "x": -1706.8919677734375,
                    "y": 107.18599700927734,
                    "z": 3286.926025390625
                },
                "NECGMADJICG": "EaseOutQuad",
                "BMHIHPIKAHM": {},
                "HGGPLEMCNNG": false,
                "JBODIEHINII": "",
                "PHDIKPKLFIA": true,
                "EJCHLMIMLBO": "",
                "BIMPIKMCIHB": "",
                "MCAOJPLIJGI": ""
            }
        ],
        [
            {
                "$type": "PBIGHFCHGCA",
                "type": "CAMERA_MOVE",
                "duration": 1.0,
                "actionId": 213,
                "KCFKJMMEECM": {
                    "x": -1708.968994140625,
                    "y": 108.2509994506836,
                    "z": 3284.68994140625
                },
                "DLGJEHNPMFN": {
                    "x": -1709.6319580078125,
                    "y": 108.44200134277344,
                    "z": 3283.966064453125
                },
                "NJCBGNHGINI": 30.0,
                "FNMFGIOLKBE": 6,
                "NECGMADJICG": "EaseInOutCubic",
                "BMHIHPIKAHM": {},
                "MMJMMAEAJOA": true,
                "HGGPLEMCNNG": false,
                "JBODIEHINII": "",
                "PHDIKPKLFIA": true,
                "EJCHLMIMLBO": "",
                "BIMPIKMCIHB": "",
                "MCAOJPLIJGI": ""
            },
            {
                "$type": "FNPNDPFBBDD",
                "type": "LOOK_AT",
                "aliasList": [
                    "Avatar"
                ],
                "actionId": 177,
                "NKGFDJDHOBD": true,
                "MNOPLOBEFLB": 0.5,
                "JBODIEHINII": "20605",
                "MDNPCOHCCLM": true,
                "LPCACGGCDLI": "",
                "NNFPFPOJJOJ": ""
            },
            {
                "$type": "FNPNDPFBBDD",
                "type": "LOOK_AT",
                "aliasList": [
                    "1005"
                ],
                "actionId": 178,
                "NKGFDJDHOBD": true,
                "MNOPLOBEFLB": 0.5,
                "JBODIEHINII": "20605",
                "MDNPCOHCCLM": true,
                "LPCACGGCDLI": "",
                "NNFPFPOJJOJ": ""
            },
            {
                "$type": "KAGAFALAIGP",
                "type": "DIALOG",
                "aliasList": [
                    "20605"
                ],
                "JHEPJOMJJHH": 730180402,
                "OCILKFCPBNC": 0.5
            },
            {
                "$type": "NFDDGDIKEAG",
                "type": "STEER_TO",
                "duration": 1.0,
                "aliasList": [
                    "20605"
                ],
                "actionId": 179,
                "GGJHILELIMO": "ABSOLUTE",
                "GPODKINFLFH": {
                    "x": -1709.6669921875,
                    "y": 108.20099639892578,
                    "z": 3283.885009765625
                },
                "PKKKHNGDEEE": true,
                "LGDIOPOBMPH": true,
                "NBNJEKMFIDE": true,
                "JBODIEHINII": "",
                "NNFPFPOJJOJ": ""
            }
        ],
        [
            {
                "$type": "PBIGHFCHGCA",
                "type": "CAMERA_MOVE",
                "duration": 1.0,
                "actionId": 192,
                "KCFKJMMEECM": {
                    "x": -1711.6109619140625,
                    "y": 109.48899841308594,
                    "z": 3281.803955078125
                },
                "DLGJEHNPMFN": {
                    "x": -1710.97802734375,
                    "y": 109.18099975585938,
                    "z": 3282.513916015625
                },
                "NJCBGNHGINI": 30.0,
                "FNMFGIOLKBE": 6,
                "NECGMADJICG": "EaseInOutCubic",
                "BMHIHPIKAHM": {},
                "MMJMMAEAJOA": true,
                "DNFHBDHNHKE": -0.003000000026077032,
                "HGGPLEMCNNG": false,
                "JBODIEHINII": "",
                "PHDIKPKLFIA": true,
                "EJCHLMIMLBO": "",
                "BIMPIKMCIHB": "",
                "MCAOJPLIJGI": ""
            },
            {
                "$type": "FNPNDPFBBDD",
                "type": "LOOK_AT",
                "aliasList": [
                    "Avatar"
                ],
                "actionId": 194,
                "NKGFDJDHOBD": true,
                "useTargetPos": true,
                "LBJHJADMNBD": true,
                "EKIONHAEIBG": {
                    "x": -1710.06298828125,
                    "y": 108.80000305175781,
                    "z": 3283.27197265625
                },
                "MNOPLOBEFLB": 0.5,
                "JBODIEHINII": "20605",
                "CFPBIOLLOCO": "NONE",
                "MDNPCOHCCLM": true,
                "LPCACGGCDLI": "",
                "NNFPFPOJJOJ": ""
            },
            {
                "$type": "KAGAFALAIGP",
                "type": "DIALOG",
                "aliasList": [
                    "1005"
                ],
                "JHEPJOMJJHH": 730180403,
                "OCILKFCPBNC": 0.5
            },
            {
                "$type": "CENEPJCONAG",
                "type": "BODY_LANG",
                "aliasList": [
                    "1005"
                ],
                "actionId": 180,
                "OGFPAIKLDGB": 1190,
                "MHDCNDAINCK": true,
                "LHIAJOBFNAK": false,
                "GJGPNLJEIFP": true,
                "FOEKGLEJBIJ": ""
            },
            {
                "$type": "PBIGHFCHGCA",
                "type": "CAMERA_MOVE",
                "delayTime": 0.14900000393390656,
                "duration": 8.168999671936035,
                "actionId": 191,
                "KCFKJMMEECM": {
                    "x": -1711.4560546875,
                    "y": 109.41400146484375,
                    "z": 3281.97802734375
                },
                "DLGJEHNPMFN": {
                    "x": -1710.822998046875,
                    "y": 109.10600280761719,
                    "z": 3282.68798828125
                },
                "NJCBGNHGINI": 30.0,
                "NECGMADJICG": "EaseOutQuad",
                "BMHIHPIKAHM": {},
                "MMJMMAEAJOA": true,
                "DNFHBDHNHKE": -0.003000000026077032,
                "HGGPLEMCNNG": false,
                "JBODIEHINII": "",
                "PHDIKPKLFIA": true,
                "EJCHLMIMLBO": "",
                "BIMPIKMCIHB": "",
                "MCAOJPLIJGI": ""
            },
            {
                "$type": "LNLLGCOBDFC",
                "type": "EMO_SYNC",
                "delayTime": 0.8999999761581421,
                "aliasList": [
                    "1005"
                ],
                "actionId": 186,
                "LKHHGAGNMKM": "",
                "AIMKGPFAAAD": "Cs_Emo_Pet_Common/Cs_Emo_Paimon_None",
                "IPEKOEDCGGF": "Cs_Emo_Pet_Common/Cs_Emo_Paimon_Normal02_B",
                "EJNFMNJKDAH": "",
                "LOOOCOLIHFA": "",
                "KJDLMAPPPMG": "",
                "IMIEGJDNPNN": [
                    1796869206626684908,
                    2049648015653630001,
                    14015965774222061559,
                    873259039409222856
                ],
                "KIJHIMADJGM": [
                    8193175980003048155,
                    1264945116173066023,
                    9863698042095554948,
                    6125281388361076342
                ]
            }
        ],
        [
            {
                "$type": "PBIGHFCHGCA",
                "type": "CAMERA_MOVE",
                "duration": 1.0,
                "actionId": 288,
                "KCFKJMMEECM": {
                    "x": -1710.10302734375,
                    "y": 108.55899810791016,
                    "z": 3284.341064453125
                },
                "DLGJEHNPMFN": {
                    "x": -1709.449951171875,
                    "y": 108.40899658203125,
                    "z": 3285.0830078125
                },
                "NJCBGNHGINI": 30.0,
                "FNMFGIOLKBE": 6,
                "NECGMADJICG": "EaseInOutCubic",
                "BMHIHPIKAHM": {},
                "MMJMMAEAJOA": true,
                "DNFHBDHNHKE": -0.003000000026077032,
                "HGGPLEMCNNG": false,
                "JBODIEHINII": "",
                "PHDIKPKLFIA": true,
                "EJCHLMIMLBO": "",
                "BIMPIKMCIHB": "",
                "MCAOJPLIJGI": ""
            },
            {
                "$type": "KAGAFALAIGP",
                "type": "DIALOG",
                "aliasList": [
                    "1005"
                ],
                "JHEPJOMJJHH": 730180504,
                "OCILKFCPBNC": 0.5
            },
            {
                "$type": "CENEPJCONAG",
                "type": "BODY_LANG",
                "aliasList": [
                    "1005"
                ],
                "actionId": 289,
                "OGFPAIKLDGB": 1170,
                "MHDCNDAINCK": true,
                "LHIAJOBFNAK": false,
                "GJGPNLJEIFP": true,
                "FOEKGLEJBIJ": ""
            },
            {
                "$type": "LNLLGCOBDFC",
                "type": "EMO_SYNC",
                "aliasList": [
                    "1005"
                ],
                "actionId": 293,
                "LKHHGAGNMKM": "",
                "AIMKGPFAAAD": "Cs_Emo_Pet_Common/Cs_Emo_Paimon_None",
                "IPEKOEDCGGF": "Cs_Emo_Pet_Common/Cs_Emo_Paimon_Normal01_B",
                "EJNFMNJKDAH": "",
                "LOOOCOLIHFA": "",
                "KJDLMAPPPMG": "",
                "IMIEGJDNPNN": [
                    1796869206626684908,
                    2049648015653630001,
                    14015965774222061559,
                    873259039409222856
                ],
                "KIJHIMADJGM": [
                    14892026956990897578,
                    7647528750435710781,
                    2171559387429051042,
                    15358483104891988261
                ]
            },
            {
                "$type": "CENEPJCONAG",
                "type": "BODY_LANG",
                "delayTime": 1.121999979019165,
                "aliasList": [
                    "1005"
                ],
                "actionId": 290,
                "OGFPAIKLDGB": 1180,
                "MHDCNDAINCK": true,
                "LHIAJOBFNAK": false,
                "GJGPNLJEIFP": true,
                "FOEKGLEJBIJ": ""
            },
            {
                "$type": "CENEPJCONAG",
                "type": "BODY_LANG",
                "delayTime": 3.2780001163482666,
                "aliasList": [
                    "1005"
                ],
                "actionId": 291,
                "NNKEOHJCPOF": true,
                "MHDCNDAINCK": true,
                "LHIAJOBFNAK": false,
                "GJGPNLJEIFP": true,
                "FOEKGLEJBIJ": ""
            }
        ],
        [
            {
                "$type": "KAGAFALAIGP",
                "type": "DIALOG",
                "aliasList": [
                    "1005"
                ],
                "JHEPJOMJJHH": 730180505,
                "OCILKFCPBNC": 0.5
            },
            {
                "$type": "CENEPJCONAG",
                "type": "BODY_LANG",
                "aliasList": [
                    "1005"
                ],
                "actionId": 292,
                "OGFPAIKLDGB": 1090,
                "MHDCNDAINCK": true,
                "LHIAJOBFNAK": false,
                "GJGPNLJEIFP": true,
                "FOEKGLEJBIJ": ""
            },
            {
                "$type": "LNLLGCOBDFC",
                "type": "EMO_SYNC",
                "aliasList": [
                    "1005"
                ],
                "actionId": 294,
                "LKHHGAGNMKM": "",
                "AIMKGPFAAAD": "Cs_Emo_Pet_Common/Cs_Emo_Paimon_None",
                "IPEKOEDCGGF": "Cs_Emo_Pet_Common/Cs_Emo_Paimon_Normal02_B",
                "EJNFMNJKDAH": "",
                "LOOOCOLIHFA": "",
                "KJDLMAPPPMG": "",
                "IMIEGJDNPNN": [
                    1796869206626684908,
                    2049648015653630001,
                    14015965774222061559,
                    873259039409222856
                ],
                "KIJHIMADJGM": [
                    8193175980003048155,
                    1264945116173066023,
                    9863698042095554948,
                    6125281388361076342
                ]
            },
            {
                "$type": "AAFOOOPNJLB",
                "type": "DIALOG_SELECT",
                "delayTime": 0.4000000059604645,
                "aliasList": [
                    "Avatar"
                ],
                "KFAEOBDAAME": [
                    730180506,
                    730180515
                ],
                "ELPFMMBHOLF": [
                    3547432848,
                    2596235752
                ],
                "OEAAKJDIEFD": true
            }
        ],
        [
            {
                "$type": "PBIGHFCHGCA",
                "type": "CAMERA_MOVE",
                "duration": 1.0,
                "actionId": 188,
                "KCFKJMMEECM": {
                    "x": -1711.0830078125,
                    "y": 108.48300170898438,
                    "z": 3284.804931640625
                },
                "DLGJEHNPMFN": {
                    "x": -1710.083984375,
                    "y": 108.46099853515625,
                    "z": 3284.76904296875
                },
                "NJCBGNHGINI": 30.0,
                "FNMFGIOLKBE": 6,
                "NECGMADJICG": "EaseInOutCubic",
                "BMHIHPIKAHM": {},
                "MMJMMAEAJOA": true,
                "DNFHBDHNHKE": -0.003000000026077032,
                "HGGPLEMCNNG": false,
                "JBODIEHINII": "",
                "PHDIKPKLFIA": true,
                "EJCHLMIMLBO": "",
                "BIMPIKMCIHB": "",
                "MCAOJPLIJGI": ""
            },
            {
                "$type": "KAGAFALAIGP",
                "type": "DIALOG",
                "aliasList": [
                    "1005"
                ],
                "JHEPJOMJJHH": 730180406,
                "OCILKFCPBNC": 2.075000047683716
            },
            {
                "$type": "CENEPJCONAG",
                "type": "BODY_LANG",
                "aliasList": [
                    "1005"
                ],
                "actionId": 195,
                "NNKEOHJCPOF": true,
                "MHDCNDAINCK": true,
                "LHIAJOBFNAK": false,
                "GJGPNLJEIFP": true,
                "FOEKGLEJBIJ": ""
            },
            {
                "$type": "NFDDGDIKEAG",
                "type": "STEER_TO",
                "duration": 2.0,
                "aliasList": [
                    "1005"
                ],
                "actionId": 197,
                "GGJHILELIMO": "ABSOLUTE",
                "GPODKINFLFH": {
                    "x": -1708.738037109375,
                    "y": 107.1510009765625,
                    "z": 3283.7939453125
                },
                "JBODIEHINII": "",
                "NNFPFPOJJOJ": ""
            },
            {
                "$type": "FNPNDPFBBDD",
                "type": "LOOK_AT",
                "aliasList": [
                    "1005"
                ],
                "actionId": 199,
                "NKGFDJDHOBD": true,
                "useTargetPos": true,
                "LBJHJADMNBD": true,
                "EKIONHAEIBG": {
                    "x": -1708.4610595703125,
                    "y": 108.60700225830078,
                    "z": 3284.09912109375
                },
                "MNOPLOBEFLB": 0.5,
                "JBODIEHINII": "",
                "CFPBIOLLOCO": "NONE",
                "MDNPCOHCCLM": true,
                "LPCACGGCDLI": "",
                "NNFPFPOJJOJ": ""
            },
            {
                "$type": "LNLLGCOBDFC",
                "type": "EMO_SYNC",
                "aliasList": [
                    "1005"
                ],
                "actionId": 206,
                "LKHHGAGNMKM": "",
                "AIMKGPFAAAD": "Cs_Emo_Pet_Common/Cs_Emo_Paimon_None",
                "IPEKOEDCGGF": "Cs_Emo_Pet_Common/Cs_Emo_Paimon_Normal02_B",
                "EJNFMNJKDAH": "",
                "LOOOCOLIHFA": "",
                "KJDLMAPPPMG": "",
                "IMIEGJDNPNN": [
                    1796869206626684908,
                    2049648015653630001,
                    14015965774222061559,
                    873259039409222856
                ],
                "KIJHIMADJGM": [
                    8193175980003048155,
                    1264945116173066023,
                    9863698042095554948,
                    6125281388361076342
                ]
            },
            {
                "$type": "NFDDGDIKEAG",
                "type": "STEER_TO",
                "duration": 1.0,
                "aliasList": [
                    "20607"
                ],
                "actionId": 239,
                "GGJHILELIMO": "ABSOLUTE",
                "GPODKINFLFH": {
                    "x": -1709.5860595703125,
                    "y": 108.00700378417969,
                    "z": 3284.882080078125
                },
                "PKKKHNGDEEE": true,
                "LGDIOPOBMPH": true,
                "NBNJEKMFIDE": true,
                "JBODIEHINII": "",
                "NNFPFPOJJOJ": ""
            },
            {
                "$type": "NFDDGDIKEAG",
                "type": "STEER_TO",
                "duration": 1.0,
                "aliasList": [
                    "20608"
                ],
                "actionId": 238,
                "GGJHILELIMO": "ABSOLUTE",
                "GPODKINFLFH": {
                    "x": -1709.5860595703125,
                    "y": 108.00700378417969,
                    "z": 3284.882080078125
                },
                "PKKKHNGDEEE": true,
                "LGDIOPOBMPH": true,
                "NBNJEKMFIDE": true,
                "JBODIEHINII": "",
                "NNFPFPOJJOJ": ""
            },
            {
                "$type": "NFDDGDIKEAG",
                "type": "STEER_TO",
                "duration": 1.0,
                "aliasList": [
                    "20606"
                ],
                "actionId": 237,
                "GGJHILELIMO": "ABSOLUTE",
                "GPODKINFLFH": {
                    "x": -1708.4339599609375,
                    "y": 108.13600158691406,
                    "z": 3283.012939453125
                },
                "PKKKHNGDEEE": true,
                "LGDIOPOBMPH": true,
                "NBNJEKMFIDE": true,
                "JBODIEHINII": "",
                "NNFPFPOJJOJ": ""
            },
            {
                "$type": "FNPNDPFBBDD",
                "type": "LOOK_AT",
                "delayTime": 0.5,
                "aliasList": [
                    "Avatar"
                ],
                "actionId": 200,
                "NKGFDJDHOBD": true,
                "useTargetPos": true,
                "LBJHJADMNBD": true,
                "EKIONHAEIBG": {
                    "x": -1709.6099853515625,
                    "y": 108.33100128173828,
                    "z": 3284.97607421875
                },
                "MNOPLOBEFLB": 0.5,
                "JBODIEHINII": "",
                "CFPBIOLLOCO": "NONE",
                "MDNPCOHCCLM": true,
                "LPCACGGCDLI": "",
                "NNFPFPOJJOJ": ""
            },
            {
                "$type": "CENEPJCONAG",
                "type": "BODY_LANG",
                "delayTime": 0.871999979019165,
                "aliasList": [
                    "1005"
                ],
                "actionId": 198,
                "OGFPAIKLDGB": 1090,
                "MHDCNDAINCK": true,
                "LHIAJOBFNAK": false,
                "GJGPNLJEIFP": true,
                "FOEKGLEJBIJ": ""
            },
            {
                "$type": "AAFOOOPNJLB",
                "type": "DIALOG_SELECT",
                "delayTime": 2.075000047683716,
                "aliasList": [
                    "Avatar"
                ],
                "KFAEOBDAAME": [
                    730180407,
                    730180411
                ],
                "ELPFMMBHOLF": [
                    3547432841,
                    3547432841
                ],
                "OEAAKJDIEFD": true
            }
        ],
        [
            {
                "$type": "KAGAFALAIGP",
                "type": "DIALOG",
                "aliasList": [
                    "1005"
                ],
                "JHEPJOMJJHH": 730180408,
                "OCILKFCPBNC": 0.5
            },
            {
                "$type": "CENEPJCONAG",
                "type": "BODY_LANG",
                "aliasList": [
                    "1005"
                ],
                "actionId": 201,
                "NNKEOHJCPOF": true,
                "MHDCNDAINCK": true,
                "LHIAJOBFNAK": false,
                "GJGPNLJEIFP": true,
                "FOEKGLEJBIJ": ""
            },
            {
                "$type": "FNPNDPFBBDD",
                "type": "LOOK_AT",
                "aliasList": [
                    "1005"
                ],
                "actionId": 207,
                "useTargetPos": true,
                "LBJHJADMNBD": true,
                "EKIONHAEIBG": {
                    "x": -1708.4610595703125,
                    "y": 108.60700225830078,
                    "z": 3284.09912109375
                },
                "MNOPLOBEFLB": 0.5,
                "JBODIEHINII": "",
                "CFPBIOLLOCO": "NONE",
                "MDNPCOHCCLM": true,
                "LPCACGGCDLI": "",
                "NNFPFPOJJOJ": ""
            },
            {
                "$type": "PBIGHFCHGCA",
                "type": "CAMERA_MOVE",
                "delayTime": 0.2680000066757202,
                "duration": 1.0,
                "actionId": 189,
                "KCFKJMMEECM": {
                    "x": -1709.0069580078125,
                    "y": 108.50599670410156,
                    "z": 3284.425048828125
                },
                "DLGJEHNPMFN": {
                    "x": -1709.68603515625,
                    "y": 108.38300323486328,
                    "z": 3285.14892578125
                },
                "NJCBGNHGINI": 30.0,
                "FNMFGIOLKBE": 6,
                "NECGMADJICG": "EaseInOutCubic",
                "BMHIHPIKAHM": {},
                "MMJMMAEAJOA": true,
                "HGGPLEMCNNG": false,
                "JBODIEHINII": "",
                "PHDIKPKLFIA": true,
                "EJCHLMIMLBO": "",
                "BIMPIKMCIHB": "",
                "MCAOJPLIJGI": ""
            },
            {
                "$type": "CENEPJCONAG",
                "type": "BODY_LANG",
                "delayTime": 0.3499999940395355,
                "aliasList": [
                    "1005"
                ],
                "actionId": 202,
                "OGFPAIKLDGB": 1190,
                "MHDCNDAINCK": true,
                "LHIAJOBFNAK": false,
                "GJGPNLJEIFP": true,
                "FOEKGLEJBIJ": ""
            },
            {
                "$type": "AAFOOOPNJLB",
                "type": "DIALOG_SELECT",
                "delayTime": 0.4000000059604645,
                "aliasList": [
                    "Avatar"
                ],
                "KFAEOBDAAME": [
                    730180409
                ],
                "ELPFMMBHOLF": [
                    3547432841
                ],
                "OEAAKJDIEFD": true
            }
        ],
        [
            {
                "$type": "PBIGHFCHGCA",
                "type": "CAMERA_MOVE",
                "duration": 1.940000057220459,
                "actionId": 209,
                "KCFKJMMEECM": {
                    "x": -1708.9859619140625,
                    "y": 108.56099700927734,
                    "z": 3284.452880859375
                },
                "DLGJEHNPMFN": {
                    "x": -1709.6650390625,
                    "y": 108.43800354003906,
                    "z": 3285.177001953125
                },
                "NJCBGNHGINI": 30.0,
                "NECGMADJICG": "EaseInOutQuart",
                "BMHIHPIKAHM": {},
                "MMJMMAEAJOA": true,
                "HGGPLEMCNNG": false,
                "JBODIEHINII": "",
                "PHDIKPKLFIA": true,
                "EJCHLMIMLBO": "",
                "BIMPIKMCIHB": "",
                "MCAOJPLIJGI": ""
            },
            {
                "$type": "KAGAFALAIGP",
                "type": "DIALOG",
                "aliasList": [
                    "1005"
                ],
                "JHEPJOMJJHH": 730180410,
                "OCILKFCPBNC": 0.5
            },
            {
                "$type": "CENEPJCONAG",
                "type": "BODY_LANG",
                "aliasList": [
                    "1005"
                ],
                "actionId": 203,
                "NNKEOHJCPOF": true,
                "MHDCNDAINCK": true,
                "LHIAJOBFNAK": false,
                "GJGPNLJEIFP": true,
                "FOEKGLEJBIJ": ""
            },
            {
                "$type": "FNPNDPFBBDD",
                "type": "LOOK_AT",
                "aliasList": [
                    "1005"
                ],
                "actionId": 208,
                "NKGFDJDHOBD": true,
                "EKIONHAEIBG": {
                    "x": -1708.4610595703125,
                    "y": 108.60700225830078,
                    "z": 3284.09912109375
                },
                "MNOPLOBEFLB": 0.5,
                "JBODIEHINII": "Avatar",
                "MDNPCOHCCLM": true,
                "LPCACGGCDLI": "",
                "NNFPFPOJJOJ": ""
            },
            {
                "$type": "LNLLGCOBDFC",
                "type": "EMO_SYNC",
                "delayTime": 0.36899998784065247,
                "aliasList": [
                    "1005"
                ],
                "actionId": 205,
                "LKHHGAGNMKM": "",
                "AIMKGPFAAAD": "Cs_Emo_Pet_Common/Cs_Emo_Paimon_None",
                "IPEKOEDCGGF": "Cs_Emo_Pet_Common/Cs_Emo_Paimon_Angry02_B",
                "EJNFMNJKDAH": "",
                "LOOOCOLIHFA": "",
                "KJDLMAPPPMG": "",
                "IMIEGJDNPNN": [
                    1796869206626684908,
                    2049648015653630001,
                    14015965774222061559,
                    873259039409222856
                ],
                "KIJHIMADJGM": [
                    17564854430185311448,
                    15336386892457435266,
                    13355413565010624331,
                    327259496702149863
                ]
            },
            {
                "$type": "CENEPJCONAG",
                "type": "BODY_LANG",
                "delayTime": 0.3959999978542328,
                "aliasList": [
                    "1005"
                ],
                "actionId": 204,
                "OGFPAIKLDGB": 1280,
                "MHDCNDAINCK": true,
                "LHIAJOBFNAK": false,
                "GJGPNLJEIFP": true,
                "FOEKGLEJBIJ": ""
            }
        ],
        [
            {
                "$type": "KAGAFALAIGP",
                "type": "DIALOG",
                "aliasList": [
                    "1005"
                ],
                "JHEPJOMJJHH": 730180412,
                "OCILKFCPBNC": 0.5
            },
            {
                "$type": "LNLLGCOBDFC",
                "type": "EMO_SYNC",
                "aliasList": [
                    "1005"
                ],
                "actionId": 231,
                "LKHHGAGNMKM": "",
                "AIMKGPFAAAD": "Cs_Emo_Pet_Common/Cs_Emo_Paimon_None",
                "IPEKOEDCGGF": "Cs_Emo_Pet_Common/Cs_Emo_Paimon_Normal01_B",
                "EJNFMNJKDAH": "",
                "LOOOCOLIHFA": "",
                "KJDLMAPPPMG": "",
                "IMIEGJDNPNN": [
                    1796869206626684908,
                    2049648015653630001,
                    14015965774222061559,
                    873259039409222856
                ],
                "KIJHIMADJGM": [
                    14892026956990897578,
                    7647528750435710781,
                    2171559387429051042,
                    15358483104891988261
                ]
            }
        ],
        [
            {
                "$type": "KAGAFALAIGP",
                "type": "DIALOG",
                "aliasList": [
                    "1005"
                ],
                "JHEPJOMJJHH": 730180413,
                "OCILKFCPBNC": 0.5
            }
        ],
        [
            {
                "$type": "PBIGHFCHGCA",
                "type": "CAMERA_MOVE",
                "duration": 1.0,
                "actionId": 296,
                "KCFKJMMEECM": {
                    "x": -1711.6109619140625,
                    "y": 109.48899841308594,
                    "z": 3281.803955078125
                },
                "DLGJEHNPMFN": {
                    "x": -1710.97802734375,
                    "y": 109.18099975585938,
                    "z": 3282.513916015625
                },
                "NJCBGNHGINI": 30.0,
                "FNMFGIOLKBE": 6,
                "NECGMADJICG": "EaseInOutCubic",
                "BMHIHPIKAHM": {},
                "MMJMMAEAJOA": true,
                "DNFHBDHNHKE": -0.003000000026077032,
                "HGGPLEMCNNG": false,
                "JBODIEHINII": "",
                "PHDIKPKLFIA": true,
                "EJCHLMIMLBO": "",
                "BIMPIKMCIHB": "",
                "MCAOJPLIJGI": ""
            },
            {
                "$type": "KAGAFALAIGP",
                "type": "DIALOG",
                "aliasList": [
                    "1005"
                ],
                "JHEPJOMJJHH": 730180415,
                "OCILKFCPBNC": 0.8040000200271606
            },
            {
                "$type": "CENEPJCONAG",
                "type": "BODY_LANG",
                "aliasList": [
                    "1005"
                ],
                "actionId": 229,
                "OGFPAIKLDGB": 1260,
                "MHDCNDAINCK": true,
                "LHIAJOBFNAK": false,
                "GJGPNLJEIFP": true,
                "FOEKGLEJBIJ": ""
            },
            {
                "$type": "LNLLGCOBDFC",
                "type": "EMO_SYNC",
                "aliasList": [
                    "1005"
                ],
                "actionId": 232,
                "LKHHGAGNMKM": "",
                "AIMKGPFAAAD": "Cs_Emo_Pet_Common/Cs_Emo_Paimon_None",
                "IPEKOEDCGGF": "Cs_Emo_Pet_Common/Cs_Emo_Paimon_Happy01",
                "EJNFMNJKDAH": "",
                "LOOOCOLIHFA": "",
                "KJDLMAPPPMG": "",
                "HCOIDDGKHJC": false,
                "IMIEGJDNPNN": [
                    1796869206626684908,
                    2049648015653630001,
                    14015965774222061559,
                    873259039409222856
                ],
                "KIJHIMADJGM": [
                    11795538569676462054,
                    5514455715760618983,
                    6871647363300542652,
                    8381196293596717205
                ]
            },
            {
                "$type": "FNPNDPFBBDD",
                "type": "LOOK_AT",
                "delayTime": 0.6340000033378601,
                "aliasList": [
                    "Avatar"
                ],
                "actionId": 234,
                "NKGFDJDHOBD": true,
                "MNOPLOBEFLB": 0.5,
                "JBODIEHINII": "1005",
                "MDNPCOHCCLM": true,
                "LPCACGGCDLI": "",
                "NNFPFPOJJOJ": ""
            },
            {
                "$type": "AAFOOOPNJLB",
                "type": "DIALOG_SELECT",
                "delayTime": 0.8040000200271606,
                "aliasList": [
                    "Avatar"
                ],
                "KFAEOBDAAME": [
                    730180416
                ],
                "ELPFMMBHOLF": [
                    3547432841
                ],
                "OEAAKJDIEFD": true
            }
        ],
        [
            {
                "$type": "PBIGHFCHGCA",
                "type": "CAMERA_MOVE",
                "duration": 1.0,
                "actionId": 235,
                "KCFKJMMEECM": {
                    "x": -1709.0069580078125,
                    "y": 108.50599670410156,
                    "z": 3284.425048828125
                },
                "DLGJEHNPMFN": {
                    "x": -1709.68603515625,
                    "y": 108.38300323486328,
                    "z": 3285.14892578125
                },
                "NJCBGNHGINI": 30.0,
                "FNMFGIOLKBE": 6,
                "NECGMADJICG": "EaseInOutCubic",
                "BMHIHPIKAHM": {},
                "MMJMMAEAJOA": true,
                "HGGPLEMCNNG": false,
                "JBODIEHINII": "",
                "PHDIKPKLFIA": true,
                "EJCHLMIMLBO": "",
                "BIMPIKMCIHB": "",
                "MCAOJPLIJGI": ""
            },
            {
                "$type": "KAGAFALAIGP",
                "type": "DIALOG",
                "aliasList": [
                    "1005"
                ],
                "JHEPJOMJJHH": 730180417,
                "OCILKFCPBNC": 2.0
            },
            {
                "$type": "FNPNDPFBBDD",
                "type": "LOOK_AT",
                "aliasList": [
                    "1005"
                ],
                "actionId": 236,
                "MNOPLOBEFLB": 0.5,
                "JBODIEHINII": "",
                "MDNPCOHCCLM": true,
                "LPCACGGCDLI": "",
                "NNFPFPOJJOJ": ""
            },
            {
                "$type": "NFDDGDIKEAG",
                "type": "STEER_TO",
                "duration": 2.0,
                "aliasList": [
                    "1005"
                ],
                "actionId": 240,
                "GGJHILELIMO": "ABSOLUTE",
                "GPODKINFLFH": {
                    "x": -1709.10205078125,
                    "y": 107.1510009765625,
                    "z": 3284.14599609375
                },
                "JBODIEHINII": "",
                "NNFPFPOJJOJ": ""
            },
            {
                "$type": "LNLLGCOBDFC",
                "type": "EMO_SYNC",
                "aliasList": [
                    "1005"
                ],
                "actionId": 241,
                "LKHHGAGNMKM": "",
                "AIMKGPFAAAD": "Cs_Emo_Pet_Common/Cs_Emo_Paimon_None",
                "IPEKOEDCGGF": "Cs_Emo_Pet_Common/Cs_Emo_Paimon_Normal02",
                "EJNFMNJKDAH": "",
                "LOOOCOLIHFA": "",
                "KJDLMAPPPMG": "",
                "IMIEGJDNPNN": [
                    1796869206626684908,
                    2049648015653630001,
                    14015965774222061559,
                    873259039409222856
                ],
                "KIJHIMADJGM": [
                    18069355584172837685,
                    15252089842078405392,
                    3912795416900241226,
                    13220211510885340510
                ]
            },
            {
                "$type": "CENEPJCONAG",
                "type": "BODY_LANG",
                "delayTime": 0.14300000667572021,
                "aliasList": [
                    "1005"
                ],
                "actionId": 233,
                "OGFPAIKLDGB": 1050,
                "MHDCNDAINCK": true,
                "LHIAJOBFNAK": false,
                "GJGPNLJEIFP": true,
                "FOEKGLEJBIJ": ""
            }
        ],
        [
            {
                "$type": "PBIGHFCHGCA",
                "type": "CAMERA_MOVE",
                "duration": 2.365999937057495,
                "actionId": 212,
                "KCFKJMMEECM": {
                    "x": -1708.6839599609375,
                    "y": 108.24199676513672,
                    "z": 3284.14892578125
                },
                "DLGJEHNPMFN": {
                    "x": -1709.510986328125,
                    "y": 108.38899993896484,
                    "z": 3284.69189453125
                },
                "NJCBGNHGINI": 30.0,
                "NECGMADJICG": "EaseInOutQuad",
                "BMHIHPIKAHM": {},
                "MMJMMAEAJOA": true,
                "HGGPLEMCNNG": false,
                "JBODIEHINII": "",
                "PHDIKPKLFIA": true,
                "EJCHLMIMLBO": "",
                "BIMPIKMCIHB": "",
                "MCAOJPLIJGI": ""
            },
            {
                "$type": "MoleMole.Config.ConfigTeleportToAction",
                "type": "TELEPORT_TO",
                "aliasList": [
                    "Avatar"
                ],
                "actionId": 249,
                "position": {
                    "x": -1708.4339599609375,
                    "y": 107.30400085449219,
                    "z": 3284.0869140625
                },
                "forward": {
                    "x": -0.828000009059906,
                    "z": -0.5609999895095825
                },
                "openLongDisTeleport": true,
                "posBindMovingTargetKey": "",
                "forwardBindMovingTargetKey": ""
            },
            {
                "$type": "NFDDGDIKEAG",
                "type": "STEER_TO",
                "duration": 1.0,
                "aliasList": [
                    "1005"
                ],
                "actionId": 216,
                "GGJHILELIMO": "ABSOLUTE",
                "GPODKINFLFH": {
                    "x": -1709.864990234375,
                    "y": 107.1510009765625,
                    "z": 3284.054931640625
                },
                "PKKKHNGDEEE": true,
                "LGDIOPOBMPH": true,
                "NBNJEKMFIDE": true,
                "JBODIEHINII": "",
                "NNFPFPOJJOJ": ""
            },
            {
                "$type": "FNPNDPFBBDD",
                "type": "LOOK_AT",
                "aliasList": [
                    "1005"
                ],
                "actionId": 217,
                "NKGFDJDHOBD": true,
                "useTargetPos": true,
                "LBJHJADMNBD": true,
                "EKIONHAEIBG": {
                    "x": -1710.9339599609375,
                    "y": 108.96800231933594,
                    "z": 3285.032958984375
                },
                "MNOPLOBEFLB": 0.5,
                "JBODIEHINII": "",
                "CFPBIOLLOCO": "NONE",
                "MDNPCOHCCLM": true,
                "LPCACGGCDLI": "",
                "NNFPFPOJJOJ": ""
            },
            {
                "$type": "LNLLGCOBDFC",
                "type": "EMO_SYNC",
                "aliasList": [
                    "1005"
                ],
                "actionId": 242,
                "LKHHGAGNMKM": "",
                "AIMKGPFAAAD": "Cs_Emo_Pet_Common/Cs_Emo_Paimon_None",
                "IPEKOEDCGGF": "Cs_Emo_Pet_Common/Cs_Emo_Paimon_Normal01_B",
                "EJNFMNJKDAH": "",
                "LOOOCOLIHFA": "",
                "KJDLMAPPPMG": "",
                "IMIEGJDNPNN": [
                    1796869206626684908,
                    2049648015653630001,
                    14015965774222061559,
                    873259039409222856
                ],
                "KIJHIMADJGM": [
                    14892026956990897578,
                    7647528750435710781,
                    2171559387429051042,
                    15358483104891988261
                ]
            },
            {
                "$type": "KAGAFALAIGP",
                "type": "DIALOG",
                "aliasList": [
                    "20607"
                ],
                "JHEPJOMJJHH": 730180418,
                "OCILKFCPBNC": 1.4299999475479126
            },
            {
                "$type": "MoleMole.Config.ConfigTeleportToAction",
                "type": "TELEPORT_TO",
                "aliasList": [
                    "20607"
                ],
                "actionId": 210,
                "position": {
                    "x": -1711.3509521484375,
                    "y": 108.61299896240234,
                    "z": 3285.06689453125
                },
                "forward": {
                    "x": 0.996999979019165,
                    "z": -0.07999999821186066
                },
                "openLongDisTeleport": true,
                "posBindMovingTargetKey": "",
                "forwardBindMovingTargetKey": ""
            },
            {
                "$type": "MoleMole.Config.ConfigTeleportToAction",
                "type": "TELEPORT_TO",
                "aliasList": [
                    "20608"
                ],
                "actionId": 214,
                "position": {
                    "x": -1712.0780029296875,
                    "y": 108.83100128173828,
                    "z": 3286.177978515625
                },
                "forward": {
                    "x": 0.9259999990463257,
                    "z": -0.3779999911785126
                },
                "openLongDisTeleport": true,
                "posBindMovingTargetKey": "",
                "forwardBindMovingTargetKey": ""
            }
        ],
        [
            {
                "$type": "MoleMole.Config.ConfigTeleportToAction",
                "type": "TELEPORT_TO",
                "aliasList": [
                    "Avatar"
                ],
                "actionId": 243,
                "position": {
                    "x": -1708.25,
                    "y": 107.30400085449219,
                    "z": 3284.2099609375
                },
                "forward": {
                    "x": -0.828000009059906,
                    "z": -0.5609999895095825
                },
                "openLongDisTeleport": true,
                "posBindMovingTargetKey": "",
                "forwardBindMovingTargetKey": ""
            },
            {
                "$type": "KAGAFALAIGP",
                "type": "DIALOG",
                "aliasList": [
                    "20607"
                ],
                "JHEPJOMJJHH": 730180419,
                "OCILKFCPBNC": 0.5
            },
            {
                "$type": "CENEPJCONAG",
                "type": "BODY_LANG",
                "aliasList": [
                    "20607"
                ],
                "actionId": 215,
                "OGFPAIKLDGB": 1040,
                "MHDCNDAINCK": true,
                "LHIAJOBFNAK": false,
                "GJGPNLJEIFP": true,
                "FOEKGLEJBIJ": ""
            },
            {
                "$type": "CENEPJCONAG",
                "type": "BODY_LANG",
                "delayTime": 1.3650000095367432,
                "aliasList": [
                    "20607"
                ],
                "actionId": 218,
                "NNKEOHJCPOF": true,
                "MHDCNDAINCK": true,
                "LHIAJOBFNAK": false,
                "GJGPNLJEIFP": true,
                "FOEKGLEJBIJ": ""
            }
        ],
        [
            {
                "$type": "KAGAFALAIGP",
                "type": "DIALOG",
                "aliasList": [
                    "20608"
                ],
                "JHEPJOMJJHH": 730180420,
                "OCILKFCPBNC": 0.5
            },
            {
                "$type": "CENEPJCONAG",
                "type": "BODY_LANG",
                "aliasList": [
                    "20608"
                ],
                "actionId": 220,
                "OGFPAIKLDGB": 4030,
                "MHDCNDAINCK": true,
                "LHIAJOBFNAK": false,
                "GJGPNLJEIFP": true,
                "FOEKGLEJBIJ": ""
            }
        ],
        [
            {
                "$type": "PBIGHFCHGCA",
                "type": "CAMERA_MOVE",
                "duration": 4.322999954223633,
                "actionId": 221,
                "KCFKJMMEECM": {
                    "x": -1706.7320556640625,
                    "y": 109.16300201416016,
                    "z": 3281.429931640625
                },
                "DLGJEHNPMFN": {
                    "x": -1707.4949951171875,
                    "y": 109.01100158691406,
                    "z": 3282.05810546875
                },
                "NJCBGNHGINI": 30.0,
                "NECGMADJICG": "EaseInOutQuart",
                "BMHIHPIKAHM": {},
                "MMJMMAEAJOA": true,
                "HGGPLEMCNNG": false,
                "JBODIEHINII": "",
                "PHDIKPKLFIA": true,
                "EJCHLMIMLBO": "",
                "BIMPIKMCIHB": "",
                "MCAOJPLIJGI": ""
            },
            {
                "$type": "FNPNDPFBBDD",
                "type": "LOOK_AT",
                "aliasList": [
                    "Avatar"
                ],
                "actionId": 246,
                "NKGFDJDHOBD": true,
                "MNOPLOBEFLB": 0.5,
                "JBODIEHINII": "20606",
                "MDNPCOHCCLM": true,
                "LPCACGGCDLI": "",
                "NNFPFPOJJOJ": ""
            },
            {
                "$type": "FNPNDPFBBDD",
                "type": "LOOK_AT",
                "aliasList": [
                    "1005"
                ],
                "actionId": 247,
                "NKGFDJDHOBD": true,
                "MNOPLOBEFLB": 0.5,
                "JBODIEHINII": "20606",
                "MDNPCOHCCLM": true,
                "LPCACGGCDLI": "",
                "NNFPFPOJJOJ": ""
            },
            {
                "$type": "MoleMole.Config.ConfigTeleportToAction",
                "type": "TELEPORT_TO",
                "aliasList": [
                    "20605"
                ],
                "actionId": 245,
                "position": {
                    "x": -1710.77294921875,
                    "y": 108.48600006103516,
                    "z": 3283.068115234375
                },
                "forward": {
                    "x": 1.1059999465942383,
                    "y": -0.28600001335144043,
                    "z": 0.8169999718666077
                },
                "openLongDisTeleport": true,
                "posBindMovingTargetKey": "",
                "forwardBindMovingTargetKey": ""
            },
            {
                "$type": "KAGAFALAIGP",
                "type": "DIALOG",
                "aliasList": [
                    "20608"
                ],
                "JHEPJOMJJHH": 730180421,
                "OCILKFCPBNC": 0.5
            },
            {
                "$type": "NFDDGDIKEAG",
                "type": "STEER_TO",
                "duration": 1.0,
                "aliasList": [
                    "20608"
                ],
                "actionId": 222,
                "GGJHILELIMO": "ABSOLUTE",
                "GPODKINFLFH": {
                    "x": -1710.06103515625,
                    "y": 108.83100128173828,
                    "z": 3284.31396484375
                },
                "PKKKHNGDEEE": true,
                "LGDIOPOBMPH": true,
                "NBNJEKMFIDE": true,
                "JBODIEHINII": "",
                "NNFPFPOJJOJ": ""
            },
            {
                "$type": "MoleMole.Config.ConfigTeleportToAction",
                "type": "TELEPORT_TO",
                "aliasList": [
                    "20606"
                ],
                "actionId": 228,
                "position": {
                    "x": -1707.9599609375,
                    "y": 108.13600158691406,
                    "z": 3282.14599609375
                },
                "forward": {
                    "x": -0.22100000083446503,
                    "z": 0.9750000238418579
                },
                "openLongDisTeleport": true,
                "posBindMovingTargetKey": "",
                "forwardBindMovingTargetKey": ""
            }
        ],
        [
            {
                "$type": "PBIGHFCHGCA",
                "type": "CAMERA_MOVE",
                "duration": 1.0,
                "actionId": 223,
                "KCFKJMMEECM": {
                    "x": -1707.9639892578125,
                    "y": 108.82499694824219,
                    "z": 3283.927001953125
                },
                "DLGJEHNPMFN": {
                    "x": -1708.02099609375,
                    "y": 108.6729965209961,
                    "z": 3282.93994140625
                },
                "NJCBGNHGINI": 30.0,
                "FNMFGIOLKBE": 6,
                "NECGMADJICG": "EaseInOutCubic",
                "BMHIHPIKAHM": {},
                "MMJMMAEAJOA": true,
                "HGGPLEMCNNG": false,
                "JBODIEHINII": "",
                "PHDIKPKLFIA": true,
                "EJCHLMIMLBO": "",
                "BIMPIKMCIHB": "",
                "MCAOJPLIJGI": ""
            },
            {
                "$type": "MoleMole.Config.ConfigTeleportToAction",
                "type": "TELEPORT_TO",
                "aliasList": [
                    "Avatar"
                ],
                "actionId": 250,
                "position": {
                    "x": -1708.4339599609375,
                    "y": 107.30400085449219,
                    "z": 3284.0869140625
                },
                "forward": {
                    "x": -0.828000009059906,
                    "z": -0.5609999895095825
                },
                "openLongDisTeleport": true,
                "posBindMovingTargetKey": "",
                "forwardBindMovingTargetKey": ""
            },
            {
                "$type": "MoleMole.Config.ConfigTeleportToAction",
                "type": "TELEPORT_TO",
                "aliasList": [
                    "20605"
                ],
                "actionId": 244,
                "position": {
                    "x": -1710.3480224609375,
                    "y": 108.20099639892578,
                    "z": 3283.153076171875
                },
                "forward": {
                    "x": 0.6809999942779541,
                    "z": 0.7319999933242798
                },
                "openLongDisTeleport": true,
                "posBindMovingTargetKey": "",
                "forwardBindMovingTargetKey": ""
            },
            {
                "$type": "KAGAFALAIGP",
                "type": "DIALOG",
                "aliasList": [
                    "20606"
                ],
                "JHEPJOMJJHH": 730180422,
                "OCILKFCPBNC": 0.5
            },
            {
                "$type": "CENEPJCONAG",
                "type": "BODY_LANG",
                "aliasList": [
                    "20606"
                ],
                "actionId": 248,
                "OGFPAIKLDGB": 4040,
                "MHDCNDAINCK": true,
                "LHIAJOBFNAK": false,
                "GJGPNLJEIFP": true,
                "FOEKGLEJBIJ": ""
            }
        ],
        [
            {
                "$type": "PBIGHFCHGCA",
                "type": "CAMERA_MOVE",
                "duration": 1.0,
                "actionId": 224,
                "KCFKJMMEECM": {
                    "x": -1708.2750244140625,
                    "y": 108.91200256347656,
                    "z": 3283.00390625
                },
                "DLGJEHNPMFN": {
                    "x": -1708.657958984375,
                    "y": 108.65399932861328,
                    "z": 3283.89111328125
                },
                "NJCBGNHGINI": 30.0,
                "FNMFGIOLKBE": 6,
                "NECGMADJICG": "EaseInOutCubic",
                "BMHIHPIKAHM": {},
                "MMJMMAEAJOA": true,
                "HGGPLEMCNNG": false,
                "JBODIEHINII": "",
                "PHDIKPKLFIA": true,
                "EJCHLMIMLBO": "",
                "BIMPIKMCIHB": "",
                "MCAOJPLIJGI": ""
            },
            {
                "$type": "FNPNDPFBBDD",
                "type": "LOOK_AT",
                "aliasList": [
                    "Avatar"
                ],
                "actionId": 251,
                "NKGFDJDHOBD": true,
                "useTargetPos": true,
                "LBJHJADMNBD": true,
                "EKIONHAEIBG": {
                    "x": -1709.6290283203125,
                    "y": 108.30599975585938,
                    "z": 3285.008056640625
                },
                "MNOPLOBEFLB": 0.5,
                "JBODIEHINII": "",
                "CFPBIOLLOCO": "NONE",
                "MDNPCOHCCLM": true,
                "LPCACGGCDLI": "",
                "NNFPFPOJJOJ": ""
            },
            {
                "$type": "KAGAFALAIGP",
                "type": "DIALOG",
                "aliasList": [
                    "1005"
                ],
                "JHEPJOMJJHH": 730180423,
                "OCILKFCPBNC": 0.5
            },
            {
                "$type": "CENEPJCONAG",
                "type": "BODY_LANG",
                "aliasList": [
                    "1005"
                ],
                "actionId": 252,
                "OGFPAIKLDGB": 1120,
                "MHDCNDAINCK": true,
                "LHIAJOBFNAK": false,
                "GJGPNLJEIFP": true,
                "FOEKGLEJBIJ": ""
            },
            {
                "$type": "CENEPJCONAG",
                "type": "BODY_LANG",
                "delayTime": 2.4809999465942383,
                "aliasList": [
                    "1005"
                ],
                "actionId": 253,
                "NNKEOHJCPOF": true,
                "MHDCNDAINCK": true,
                "LHIAJOBFNAK": false,
                "GJGPNLJEIFP": true,
                "FOEKGLEJBIJ": ""
            },
            {
                "$type": "LNLLGCOBDFC",
                "type": "EMO_SYNC",
                "delayTime": 2.6530001163482666,
                "aliasList": [
                    "1005"
                ],
                "actionId": 255,
                "LKHHGAGNMKM": "",
                "AIMKGPFAAAD": "Cs_Emo_Pet_Common/Cs_Emo_Paimon_None",
                "IPEKOEDCGGF": "Cs_Emo_Pet_Common/Cs_Emo_Paimon_Angry02",
                "EJNFMNJKDAH": "",
                "LOOOCOLIHFA": "",
                "KJDLMAPPPMG": "",
                "IMIEGJDNPNN": [
                    1796869206626684908,
                    2049648015653630001,
                    14015965774222061559,
                    873259039409222856
                ],
                "KIJHIMADJGM": [
                    13678406359050633773,
                    17836843097490474413,
                    7026439671547410784,
                    1714183703031762171
                ]
            },
            {
                "$type": "CENEPJCONAG",
                "type": "BODY_LANG",
                "delayTime": 2.8239998817443848,
                "aliasList": [
                    "1005"
                ],
                "actionId": 254,
                "OGFPAIKLDGB": 1280,
                "MHDCNDAINCK": true,
                "LHIAJOBFNAK": false,
                "GJGPNLJEIFP": true,
                "FOEKGLEJBIJ": ""
            }
        ],
        [
            {
                "$type": "KAGAFALAIGP",
                "type": "DIALOG",
                "aliasList": [
                    "1005"
                ],
                "JHEPJOMJJHH": 730180424,
                "OCILKFCPBNC": 0.5
            },
            {
                "$type": "CENEPJCONAG",
                "type": "BODY_LANG",
                "aliasList": [
                    "1005"
                ],
                "actionId": 256,
                "NNKEOHJCPOF": true,
                "MHDCNDAINCK": true,
                "LHIAJOBFNAK": false,
                "GJGPNLJEIFP": true,
                "FOEKGLEJBIJ": ""
            },
            {
                "$type": "LNLLGCOBDFC",
                "type": "EMO_SYNC",
                "aliasList": [
                    "1005"
                ],
                "actionId": 271,
                "LKHHGAGNMKM": "",
                "AIMKGPFAAAD": "Cs_Emo_Pet_Common/Cs_Emo_Paimon_None",
                "IPEKOEDCGGF": "Cs_Emo_Pet_Common/Cs_Emo_Paimon_Normal02_B",
                "EJNFMNJKDAH": "",
                "LOOOCOLIHFA": "",
                "KJDLMAPPPMG": "",
                "IMIEGJDNPNN": [
                    1796869206626684908,
                    2049648015653630001,
                    14015965774222061559,
                    873259039409222856
                ],
                "KIJHIMADJGM": [
                    8193175980003048155,
                    1264945116173066023,
                    9863698042095554948,
                    6125281388361076342
                ]
            },
            {
                "$type": "AAFOOOPNJLB",
                "type": "DIALOG_SELECT",
                "delayTime": 0.4000000059604645,
                "aliasList": [
                    "Avatar"
                ],
                "KFAEOBDAAME": [
                    730180425
                ],
                "ELPFMMBHOLF": [
                    3547432841
                ],
                "OEAAKJDIEFD": true
            },
            {
                "$type": "CENEPJCONAG",
                "type": "BODY_LANG",
                "delayTime": 0.6069999933242798,
                "aliasList": [
                    "1005"
                ],
                "actionId": 257,
                "OGFPAIKLDGB": 1050,
                "MHDCNDAINCK": true,
                "LHIAJOBFNAK": false,
                "GJGPNLJEIFP": true,
                "FOEKGLEJBIJ": ""
            },
            {
                "$type": "FNPNDPFBBDD",
                "type": "LOOK_AT",
                "delayTime": 0.6069999933242798,
                "aliasList": [
                    "1005"
                ],
                "actionId": 257,
                "MNOPLOBEFLB": 0.5,
                "JBODIEHINII": "",
                "MDNPCOHCCLM": true,
                "LPCACGGCDLI": "",
                "NNFPFPOJJOJ": ""
            }
        ],
        [
            {
                "$type": "PBIGHFCHGCA",
                "type": "CAMERA_MOVE",
                "duration": 1.0,
                "actionId": 225,
                "KCFKJMMEECM": {
                    "x": -1709.0570068359375,
                    "y": 108.5260009765625,
                    "z": 3284.0859375
                },
                "DLGJEHNPMFN": {
                    "x": -1709.5040283203125,
                    "y": 108.322998046875,
                    "z": 3284.95703125
                },
                "NJCBGNHGINI": 30.0,
                "NECGMADJICG": "EaseOutQuint",
                "BMHIHPIKAHM": {},
                "MMJMMAEAJOA": true,
                "HGGPLEMCNNG": false,
                "JBODIEHINII": "",
                "PHDIKPKLFIA": true,
                "EJCHLMIMLBO": "",
                "BIMPIKMCIHB": "",
                "MCAOJPLIJGI": ""
            },
            {
                "$type": "KAGAFALAIGP",
                "type": "DIALOG",
                "aliasList": [
                    "1005"
                ],
                "JHEPJOMJJHH": 730180426,
                "OCILKFCPBNC": 1.2100000381469727
            },
            {
                "$type": "CENEPJCONAG",
                "type": "BODY_LANG",
                "aliasList": [
                    "1005"
                ],
                "actionId": 261,
                "OGFPAIKLDGB": 1060,
                "MHDCNDAINCK": true,
                "LHIAJOBFNAK": false,
                "GJGPNLJEIFP": true,
                "FOEKGLEJBIJ": ""
            },
            {
                "$type": "NFDDGDIKEAG",
                "type": "STEER_TO",
                "duration": 1.0,
                "aliasList": [
                    "1005"
                ],
                "actionId": 269,
                "GGJHILELIMO": "ABSOLUTE",
                "GPODKINFLFH": {
                    "x": -1709.029052734375,
                    "y": 107.1510009765625,
                    "z": 3284.19091796875
                },
                "JBODIEHINII": "",
                "NNFPFPOJJOJ": ""
            },
            {
                "$type": "LNLLGCOBDFC",
                "type": "EMO_SYNC",
                "aliasList": [
                    "1005"
                ],
                "actionId": 270,
                "LKHHGAGNMKM": "",
                "AIMKGPFAAAD": "Cs_Emo_Pet_Common/Cs_Emo_Paimon_None",
                "IPEKOEDCGGF": "Cs_Emo_Pet_Common/Cs_Emo_Paimon_Angry02_B",
                "EJNFMNJKDAH": "",
                "LOOOCOLIHFA": "",
                "KJDLMAPPPMG": "",
                "IMIEGJDNPNN": [
                    1796869206626684908,
                    2049648015653630001,
                    14015965774222061559,
                    873259039409222856
                ],
                "KIJHIMADJGM": [
                    17564854430185311448,
                    15336386892457435266,
                    13355413565010624331,
                    327259496702149863
                ]
            }
        ],
        [
            {
                "$type": "PBIGHFCHGCA",
                "type": "CAMERA_MOVE",
                "duration": 1.0,
                "actionId": 226,
                "KCFKJMMEECM": {
                    "x": -1708.02099609375,
                    "y": 108.47699737548828,
                    "z": 3297.279052734375
                },
                "DLGJEHNPMFN": {
                    "x": -1708.3310546875,
                    "y": 108.50700378417969,
                    "z": 3296.3291015625
                },
                "NJCBGNHGINI": 30.0,
                "FNMFGIOLKBE": 6,
                "NECGMADJICG": "EaseInOutCubic",
                "BMHIHPIKAHM": {},
                "MMJMMAEAJOA": true,
                "HGGPLEMCNNG": false,
                "JBODIEHINII": "",
                "PHDIKPKLFIA": true,
                "EJCHLMIMLBO": "",
                "BIMPIKMCIHB": "",
                "MCAOJPLIJGI": ""
            },
            {
                "$type": "FNPNDPFBBDD",
                "type": "LOOK_AT",
                "aliasList": [
                    "Avatar"
                ],
                "actionId": 265,
                "NKGFDJDHOBD": true,
                "useTargetPos": true,
                "LBJHJADMNBD": true,
                "EKIONHAEIBG": {
                    "x": -1710.06298828125,
                    "y": 108.58599853515625,
                    "z": 3283.458984375
                },
                "MNOPLOBEFLB": 0.5,
                "JBODIEHINII": "",
                "CFPBIOLLOCO": "NONE",
                "MDNPCOHCCLM": true,
                "LPCACGGCDLI": "",
                "NNFPFPOJJOJ": ""
            },
            {
                "$type": "FNPNDPFBBDD",
                "type": "LOOK_AT",
                "aliasList": [
                    "1005"
                ],
                "actionId": 263,
                "NKGFDJDHOBD": true,
                "useTargetPos": true,
                "LBJHJADMNBD": true,
                "EKIONHAEIBG": {
                    "x": -1710.06298828125,
                    "y": 108.58599853515625,
                    "z": 3283.458984375
                },
                "MNOPLOBEFLB": 0.5,
                "JBODIEHINII": "",
                "CFPBIOLLOCO": "NONE",
                "MDNPCOHCCLM": true,
                "LPCACGGCDLI": "",
                "NNFPFPOJJOJ": ""
            },
            {
                "$type": "CENEPJCONAG",
                "type": "BODY_LANG",
                "aliasList": [
                    "1005"
                ],
                "actionId": 272,
                "NNKEOHJCPOF": true,
                "MHDCNDAINCK": true,
                "LHIAJOBFNAK": false,
                "GJGPNLJEIFP": true,
                "FOEKGLEJBIJ": ""
            },
            {
                "$type": "NFDDGDIKEAG",
                "type": "STEER_TO",
                "duration": 2.0,
                "aliasList": [
                    "1005"
                ],
                "actionId": 273,
                "GGJHILELIMO": "ABSOLUTE",
                "GPODKINFLFH": {
                    "x": -1710.300048828125,
                    "y": 108.5459976196289,
                    "z": 3283.263916015625
                },
                "JBODIEHINII": "",
                "NNFPFPOJJOJ": ""
            },
            {
                "$type": "KAGAFALAIGP",
                "type": "DIALOG",
                "aliasList": [
                    "20605"
                ],
                "JHEPJOMJJHH": 730180427,
                "OCILKFCPBNC": 2.359999895095825
            },
            {
                "$type": "PBIGHFCHGCA",
                "type": "CAMERA_MOVE",
                "delayTime": 0.19300000369548798,
                "duration": 8.0,
                "actionId": 262,
                "KCFKJMMEECM": {
                    "x": -1707.6839599609375,
                    "y": 108.47699737548828,
                    "z": 3297.1689453125
                },
                "DLGJEHNPMFN": {
                    "x": -1707.9940185546875,
                    "y": 108.50700378417969,
                    "z": 3296.218994140625
                },
                "NJCBGNHGINI": 30.0,
                "NECGMADJICG": "EaseOutQuad",
                "BMHIHPIKAHM": {},
                "MMJMMAEAJOA": true,
                "HGGPLEMCNNG": false,
                "JBODIEHINII": "",
                "PHDIKPKLFIA": true,
                "EJCHLMIMLBO": "",
                "BIMPIKMCIHB": "",
                "MCAOJPLIJGI": ""
            },
            {
                "$type": "CENEPJCONAG",
                "type": "BODY_LANG",
                "delayTime": 1.1979999542236328,
                "aliasList": [
                    "20605"
                ],
                "actionId": 266,
                "OGFPAIKLDGB": 4030,
                "MHDCNDAINCK": true,
                "LHIAJOBFNAK": false,
                "GJGPNLJEIFP": true,
                "FOEKGLEJBIJ": ""
            }
        ],
        [
            {
                "$type": "PBIGHFCHGCA",
                "type": "CAMERA_MOVE",
                "duration": 7.1620001792907715,
                "actionId": 268,
                "KCFKJMMEECM": {
                    "x": -1707.5360107421875,
                    "y": 108.45899963378906,
                    "z": 3297.1201171875
                },
                "DLGJEHNPMFN": {
                    "x": -1707.845947265625,
                    "y": 108.48899841308594,
                    "z": 3296.169921875
                },
                "NJCBGNHGINI": 30.0,
                "NECGMADJICG": "EaseOutQuad",
                "BMHIHPIKAHM": {},
                "HGGPLEMCNNG": false,
                "JBODIEHINII": "",
                "PHDIKPKLFIA": true,
                "EJCHLMIMLBO": "",
                "BIMPIKMCIHB": "",
                "MCAOJPLIJGI": ""
            },
            {
                "$type": "KAGAFALAIGP",
                "type": "DIALOG",
                "aliasList": [
                    "20607"
                ],
                "JHEPJOMJJHH": 730180428,
                "OCILKFCPBNC": 0.5
            },
            {
                "$type": "CENEPJCONAG",
                "type": "BODY_LANG",
                "delayTime": 0.34200000762939453,
                "aliasList": [
                    "20607"
                ],
                "actionId": 267,
                "OGFPAIKLDGB": 4030,
                "MHDCNDAINCK": true,
                "LHIAJOBFNAK": false,
                "GJGPNLJEIFP": true,
                "FOEKGLEJBIJ": ""
            }
        ],
        [
            {
                "$type": "PBIGHFCHGCA",
                "type": "CAMERA_MOVE",
                "duration": 1.0,
                "actionId": 227,
                "KCFKJMMEECM": {
                    "x": -1707.31298828125,
                    "y": 108.19599914550781,
                    "z": 3286.2919921875
                },
                "DLGJEHNPMFN": {
                    "x": -1708.001953125,
                    "y": 108.26799774169922,
                    "z": 3285.571044921875
                },
                "NJCBGNHGINI": 30.0,
                "FNMFGIOLKBE": 6,
                "NECGMADJICG": "EaseInOutCubic",
                "BMHIHPIKAHM": {},
                "MMJMMAEAJOA": true,
                "HGGPLEMCNNG": false,
                "JBODIEHINII": "",
                "PHDIKPKLFIA": true,
                "EJCHLMIMLBO": "",
                "BIMPIKMCIHB": "",
                "MCAOJPLIJGI": ""
            },
            {
                "$type": "KAGAFALAIGP",
                "type": "DIALOG",
                "aliasList": [
                    "20605"
                ],
                "JHEPJOMJJHH": 730180429,
                "OCILKFCPBNC": 0.5
            },
            {
                "$type": "PBIGHFCHGCA",
                "type": "CAMERA_MOVE",
                "delayTime": 0.21199999749660492,
                "duration": 9.949999809265137,
                "actionId": 274,
                "KCFKJMMEECM": {
                    "x": -1707.447021484375,
                    "y": 108.23899841308594,
                    "z": 3286.194091796875
                },
                "DLGJEHNPMFN": {
                    "x": -1708.135986328125,
                    "y": 108.31099700927734,
                    "z": 3285.472900390625
                },
                "NJCBGNHGINI": 30.0,
                "NECGMADJICG": "EaseOutQuad",
                "BMHIHPIKAHM": {},
                "MMJMMAEAJOA": true,
                "HGGPLEMCNNG": false,
                "JBODIEHINII": "",
                "PHDIKPKLFIA": true,
                "EJCHLMIMLBO": "",
                "BIMPIKMCIHB": "",
                "MCAOJPLIJGI": ""
            }
        ],
        [
            {
                "$type": "MoleMole.Config.ConfigSimpleBlackScreenAction",
                "type": "SIMPLE_BLACK_SCREEN",
                "durationToBlack": 0.5,
                "durationKeepBlack": 1.0,
                "durationFromBlack": 0.5,
                "textMapID": ""
            },
            {
                "$type": "MoleMole.Config.ConfigTimeProtectAction",
                "type": "TIME_PROTECT",
                "duration": 0.699999988079071
            },
            {
                "$type": "PBIGHFCHGCA",
                "type": "CAMERA_MOVE",
                "delayTime": 0.6000000238418579,
                "duration": 0.10000000149011612,
                "actionId": 275,
                "KCFKJMMEECM": {
                    "x": -1705.0030517578125,
                    "y": 107.7030029296875,
                    "z": 3287.919921875
                },
                "DLGJEHNPMFN": {
                    "x": -1705.6629638671875,
                    "y": 107.822998046875,
                    "z": 3287.177978515625
                },
                "FNMFGIOLKBE": 6,
                "NECGMADJICG": "EaseInOutCubic",
                "BMHIHPIKAHM": {},
                "MMJMMAEAJOA": true,
                "HGGPLEMCNNG": false,
                "JBODIEHINII": "",
                "PHDIKPKLFIA": true,
                "EJCHLMIMLBO": "",
                "BIMPIKMCIHB": "",
                "MCAOJPLIJGI": ""
            }
        ]
    ],
    "groupId": [
        {
            "grpId": 3547432842,
            "nextGrpId": 3547432843
        },
        {
            "index": 1,
            "grpId": 3547432843,
            "nextGrpId": 3547432844
        },
        {
            "index": 2,
            "grpId": 3547432844,
            "nextGrpId": 3547432845
        },
        {
            "index": 3,
            "grpId": 3547432845,
            "nextGrpId": 3547432846
        },
        {
            "index": 4,
            "grpId": 3547432846,
            "nextGrpId": 3547432847
        },
        {
            "index": 5,
            "grpId": 3547432847,
            "nextGrpId": 3547432848
        },
        {
            "index": 6,
            "grpId": 3547432848,
            "nextGrpId": 3547432849
        },
        {
            "index": 7,
            "grpId": 3547432849,
            "nextGrpId": 3547432850
        },
        {
            "index": 8,
            "grpId": 3547432850,
            "nextGrpId": 2596235754
        },
        {
            "index": 9,
            "grpId": 2596235750,
            "nextGrpId": 2596235751
        },
        {
            "index": 10,
            "grpId": 2596235751,
            "nextGrpId": 2596235754
        },
        {
            "index": 11,
            "grpId": 2596235752,
            "nextGrpId": 2596235753
        },
        {
            "index": 12,
            "grpId": 2596235753,
            "nextGrpId": 2596235754
        },
        {
            "index": 13,
            "grpId": 2596235754,
            "nextGrpId": 2596235755
        },
        {
            "index": 14,
            "grpId": 2596235755,
            "nextGrpId": 2596235756
        },
        {
            "index": 15,
            "grpId": 2596235756,
            "nextGrpId": 2596235757
        },
        {
            "index": 16,
            "grpId": 2596235757,
            "nextGrpId": 2596235758
        },
        {
            "index": 17,
            "grpId": 2596235758,
            "nextGrpId": 2596235759
        },
        {
            "index": 18,
            "grpId": 2596235759,
            "nextGrpId": 2596235781
        },
        {
            "index": 19,
            "grpId": 2596235781,
            "nextGrpId": 2596235782
        },
        {
            "index": 20,
            "grpId": 2596235782,
            "nextGrpId": 2596235783
        },
        {
            "index": 21,
            "grpId": 2596235783,
            "nextGrpId": 2596235784
        },
        {
            "index": 22,
            "grpId": 2596235784,
            "nextGrpId": 2596235785
        },
        {
            "index": 23,
            "grpId": 2596235785,
            "nextGrpId": 2596235786
        },
        {
            "index": 24,
            "grpId": 2596235786,
            "nextGrpId": 2596235787
        }
    ],
    "freeStyleDic": {
        "20605": [
            4030
        ],
        "20607": [
            1040,
            4030
        ],
        "20608": [
            4030
        ],
        "20606": [
            4040
        ]
    }
}