{
    "luaDataPath": "",
    "entityBan": "",
    "disableNpcLod": true,
    "EKDGNGHMECG": true,
    "GMFELEKFHNC": 5,
    "startFade": {
        "startFadeOutDuration": 0.0
    },
    "endFade": {
        "startFadeOutDuration": 0.0
    },
    "actors": [
        {
            "alias": "Avatar",
            "visible": true,
            "bornPointName": "",
            "relativePosType": "AVATAR_NEW",
            "relativePosNpcAlias": "",
            "bindMovingTargetKey": ""
        },
        {
            "configID": 30411,
            "alias": "30411",
            "visible": true,
            "bornPointName": "[3_340100113:3557.708,446.167,4434.160,0.000,282.658,0.000]",
            "forceCreateDaily": true,
            "relativePosType": "AVATAR_NEW",
            "relativePosNpcAlias": "",
            "bindMovingTargetKey": ""
        },
        {
            "configID": 30412,
            "alias": "30412",
            "visible": true,
            "bornPointName": "[3_340100114:3556.113,446.167,4434.126,0.000,87.261,0.000]",
            "forceCreateDaily": true,
            "relativePosType": "AVATAR_NEW",
            "relativePosNpcAlias": "",
            "bindMovingTargetKey": ""
        }
    ],
    "group": [
        [
            {
                "$type": "PBIGHFCHGCA",
                "type": "CAMERA_FOCUS",
                "duration": 0.10000000149011612,
                "actionId": 103,
                "JBODIEHINII": "",
                "EJCHLMIMLBO": "",
                "BIMPIKMCIHB": "",
                "MCAOJPLIJGI": ""
            },
            {
                "$type": "MoleMole.Config.ConfigTimeProtectAction",
                "type": "TIME_PROTECT",
                "duration": 0.10000000149011612,
                "actionId": 104
            },
            {
                "$type": "FNPNDPFBBDD",
                "type": "LOOK_AT",
                "aliasList": [
                    "30411"
                ],
                "actionId": 130,
                "flag": 64,
                "NKGFDJDHOBD": true,
                "LFFOIAAIEDN": true,
                "MNOPLOBEFLB": 0.5,
                "JBODIEHINII": "30412",
                "MDNPCOHCCLM": true,
                "CAJDMFBMGNG": 60.0,
                "LPCACGGCDLI": "",
                "NNFPFPOJJOJ": ""
            },
            {
                "$type": "FNPNDPFBBDD",
                "type": "LOOK_AT",
                "aliasList": [
                    "30412"
                ],
                "actionId": 132,
                "flag": 64,
                "NKGFDJDHOBD": true,
                "MNOPLOBEFLB": 0.5,
                "JBODIEHINII": "30411",
                "MDNPCOHCCLM": true,
                "CAJDMFBMGNG": 60.0,
                "LPCACGGCDLI": "",
                "NNFPFPOJJOJ": ""
            },
            {
                "$type": "NFDDGDIKEAG",
                "type": "STEER_TO",
                "delayTime": 0.30000001192092896,
                "duration": 0.800000011920929,
                "aliasList": [
                    "Avatar"
                ],
                "actionId": 125,
                "flag": 32,
                "GGJHILELIMO": "TO_TARGET_ADVANCED",
                "PKKKHNGDEEE": true,
                "LGDIOPOBMPH": true,
                "NBNJEKMFIDE": true,
                "JBODIEHINII": "30411",
                "OJJKHFPNNKJ": true,
                "NNFPFPOJJOJ": ""
            }
        ],
        [
            {
                "$type": "KAGAFALAIGP",
                "type": "DIALOG",
                "aliasList": [
                    "30411"
                ],
                "actionId": 107,
                "JHEPJOMJJHH": 745040201,
                "OCILKFCPBNC": 0.5
            },
            {
                "$type": "CENEPJCONAG",
                "type": "BODY_LANG",
                "aliasList": [
                    "30411"
                ],
                "actionId": 133,
                "OGFPAIKLDGB": 1171,
                "MHDCNDAINCK": true,
                "LHIAJOBFNAK": false,
                "GJGPNLJEIFP": true,
                "FOEKGLEJBIJ": ""
            },
            {
                "$type": "LNLLGCOBDFC",
                "type": "EMO_SYNC",
                "delayTime": 0.26499998569488525,
                "aliasList": [
                    "30411"
                ],
                "actionId": 160,
                "flag": 320,
                "LKHHGAGNMKM": "",
                "AIMKGPFAAAD": "Cs_Emo_NPC_Common/Cs_Emo_NPC_Normal01",
                "IPEKOEDCGGF": "Cs_Emo_NPC_Common/Cs_Emo_NPC_Normal01_B",
                "EJNFMNJKDAH": "",
                "LOOOCOLIHFA": "",
                "KJDLMAPPPMG": "",
                "IMIEGJDNPNN": [
                    12803840960998583578,
                    3437050431160283015,
                    6548526936325855136,
                    1274732080047098512
                ],
                "KIJHIMADJGM": [
                    15191155715402440098,
                    420038106395935518,
                    2651432695756251320,
                    4209314551981667660
                ]
            },
            {
                "$type": "LNLLGCOBDFC",
                "type": "EMO_SYNC",
                "delayTime": 4.289000034332275,
                "aliasList": [
                    "30411"
                ],
                "actionId": 161,
                "flag": 320,
                "LKHHGAGNMKM": "",
                "AIMKGPFAAAD": "Cs_Emo_NPC_Common/Cs_Emo_NPC_Normal01",
                "IPEKOEDCGGF": "Cs_Emo_NPC_Common/Cs_Emo_NPC_Angry01",
                "EJNFMNJKDAH": "",
                "LOOOCOLIHFA": "",
                "KJDLMAPPPMG": "",
                "IMIEGJDNPNN": [
                    12803840960998583578,
                    3437050431160283015,
                    6548526936325855136,
                    1274732080047098512
                ],
                "KIJHIMADJGM": [
                    5555574328354538894,
                    6902058826788250658,
                    16686799597816672641,
                    13665732757931042568
                ]
            }
        ],
        [
            {
                "$type": "KAGAFALAIGP",
                "type": "DIALOG",
                "aliasList": [
                    "30412"
                ],
                "actionId": 109,
                "JHEPJOMJJHH": 745040202,
                "OCILKFCPBNC": 0.5
            },
            {
                "$type": "CENEPJCONAG",
                "type": "BODY_LANG",
                "aliasList": [
                    "30412"
                ],
                "actionId": 134,
                "OGFPAIKLDGB": 1120,
                "MHDCNDAINCK": true,
                "LHIAJOBFNAK": false,
                "GJGPNLJEIFP": true,
                "FOEKGLEJBIJ": ""
            },
            {
                "$type": "LNLLGCOBDFC",
                "type": "EMO_SYNC",
                "delayTime": 0.009999999776482582,
                "aliasList": [
                    "30412"
                ],
                "actionId": 162,
                "flag": 320,
                "LKHHGAGNMKM": "",
                "AIMKGPFAAAD": "Cs_Emo_NPC_Common/Cs_Emo_NPC_Normal01",
                "IPEKOEDCGGF": "Cs_Emo_NPC_Common/Cs_Emo_NPC_Normal01_B",
                "EJNFMNJKDAH": "",
                "LOOOCOLIHFA": "",
                "KJDLMAPPPMG": "",
                "IMIEGJDNPNN": [
                    12803840960998583578,
                    3437050431160283015,
                    6548526936325855136,
                    1274732080047098512
                ],
                "KIJHIMADJGM": [
                    15191155715402440098,
                    420038106395935518,
                    2651432695756251320,
                    4209314551981667660
                ]
            },
            {
                "$type": "AAFOOOPNJLB",
                "type": "DIALOG_SELECT",
                "delayTime": 0.4000000059604645,
                "aliasList": [
                    "Avatar"
                ],
                "actionId": 110,
                "KFAEOBDAAME": [
                    745040203
                ],
                "ELPFMMBHOLF": [
                    400138009
                ],
                "OEAAKJDIEFD": true,
                "ONFBGDHPCEO": 400138005
            },
            {
                "$type": "LNLLGCOBDFC",
                "type": "EMO_SYNC",
                "delayTime": 2.9830000400543213,
                "aliasList": [
                    "30412"
                ],
                "actionId": 163,
                "flag": 320,
                "LKHHGAGNMKM": "",
                "AIMKGPFAAAD": "Cs_Emo_NPC_Common/Cs_Emo_NPC_Normal01",
                "IPEKOEDCGGF": "Cs_Emo_NPC_Common/Cs_Emo_NPC_WinkB02",
                "EJNFMNJKDAH": "",
                "LOOOCOLIHFA": "",
                "KJDLMAPPPMG": "",
                "HCOIDDGKHJC": false,
                "IMIEGJDNPNN": [
                    12803840960998583578,
                    3437050431160283015,
                    6548526936325855136,
                    1274732080047098512
                ],
                "KIJHIMADJGM": [
                    16888707106520771206,
                    5516380513410437532,
                    15911076888735783003,
                    1223289712553529107
                ]
            },
            {
                "$type": "CENEPJCONAG",
                "type": "BODY_LANG",
                "delayTime": 3.0420000553131104,
                "aliasList": [
                    "30412"
                ],
                "actionId": 136,
                "OGFPAIKLDGB": 4040,
                "MHDCNDAINCK": true,
                "LHIAJOBFNAK": false,
                "GJGPNLJEIFP": true,
                "FOEKGLEJBIJ": ""
            },
            {
                "$type": "LNLLGCOBDFC",
                "type": "EMO_SYNC",
                "delayTime": 4.566999912261963,
                "aliasList": [
                    "30412"
                ],
                "actionId": 164,
                "flag": 320,
                "LKHHGAGNMKM": "",
                "AIMKGPFAAAD": "Cs_Emo_NPC_Common/Cs_Emo_NPC_Normal01",
                "IPEKOEDCGGF": "Cs_Emo_NPC_Common/Cs_Emo_NPC_Normal01",
                "EJNFMNJKDAH": "",
                "LOOOCOLIHFA": "",
                "KJDLMAPPPMG": "",
                "IMIEGJDNPNN": [
                    12803840960998583578,
                    3437050431160283015,
                    6548526936325855136,
                    1274732080047098512
                ],
                "KIJHIMADJGM": [
                    10638823098752766568,
                    16550434959365186937,
                    16779490980036678760,
                    2038118027140397243
                ]
            }
        ],
        [
            {
                "$type": "KAGAFALAIGP",
                "type": "DIALOG",
                "aliasList": [
                    "30411"
                ],
                "actionId": 112,
                "JHEPJOMJJHH": 745040204,
                "OCILKFCPBNC": 2.1760001182556152
            },
            {
                "$type": "FNPNDPFBBDD",
                "type": "LOOK_AT",
                "aliasList": [
                    "30411"
                ],
                "actionId": 139,
                "flag": 64,
                "NKGFDJDHOBD": true,
                "MNOPLOBEFLB": 0.5,
                "JBODIEHINII": "Avatar",
                "MDNPCOHCCLM": true,
                "CAJDMFBMGNG": 60.0,
                "LPCACGGCDLI": "",
                "NNFPFPOJJOJ": ""
            },
            {
                "$type": "LNLLGCOBDFC",
                "type": "EMO_SYNC",
                "aliasList": [
                    "30411"
                ],
                "actionId": 165,
                "flag": 320,
                "LKHHGAGNMKM": "",
                "AIMKGPFAAAD": "Cs_Emo_NPC_Common/Cs_Emo_NPC_Normal01",
                "IPEKOEDCGGF": "Cs_Emo_NPC_Common/Cs_Emo_NPC_Angry01_B",
                "EJNFMNJKDAH": "",
                "LOOOCOLIHFA": "",
                "KJDLMAPPPMG": "",
                "IMIEGJDNPNN": [
                    12803840960998583578,
                    3437050431160283015,
                    6548526936325855136,
                    1274732080047098512
                ],
                "KIJHIMADJGM": [
                    7899044606840785740,
                    10175703066045221409,
                    10119021136772445063,
                    4929826079990131913
                ]
            },
            {
                "$type": "NFDDGDIKEAG",
                "type": "STEER_TO",
                "duration": 1.0,
                "aliasList": [
                    "30411"
                ],
                "actionId": 184,
                "flag": 32,
                "GGJHILELIMO": "TO_LOCAL_AVATAR_ADVANCED",
                "GPODKINFLFH": {
                    "x": 3556.73193359375,
                    "y": 446.1669921875,
                    "z": 4434.37890625
                },
                "PKKKHNGDEEE": true,
                "LGDIOPOBMPH": true,
                "NBNJEKMFIDE": true,
                "JBODIEHINII": "",
                "DMPFMDNFEHA": true,
                "OJJKHFPNNKJ": true,
                "NNFPFPOJJOJ": ""
            },
            {
                "$type": "CENEPJCONAG",
                "type": "BODY_LANG",
                "aliasList": [
                    "30412"
                ],
                "actionId": 181,
                "NNKEOHJCPOF": true,
                "MHDCNDAINCK": true,
                "LHIAJOBFNAK": false,
                "GJGPNLJEIFP": true,
                "FOEKGLEJBIJ": ""
            },
            {
                "$type": "FNPNDPFBBDD",
                "type": "LOOK_AT",
                "aliasList": [
                    "30412"
                ],
                "actionId": 182,
                "flag": 64,
                "NKGFDJDHOBD": true,
                "MNOPLOBEFLB": 0.5,
                "JBODIEHINII": "Avatar",
                "MDNPCOHCCLM": true,
                "CAJDMFBMGNG": 60.0,
                "LPCACGGCDLI": "",
                "NNFPFPOJJOJ": ""
            },
            {
                "$type": "NFDDGDIKEAG",
                "type": "STEER_TO",
                "duration": 1.0,
                "aliasList": [
                    "30412"
                ],
                "actionId": 183,
                "flag": 32,
                "GGJHILELIMO": "TO_LOCAL_AVATAR_ADVANCED",
                "GPODKINFLFH": {
                    "x": 3557.112060546875,
                    "y": 446.1669921875,
                    "z": 4434.173828125
                },
                "PKKKHNGDEEE": true,
                "LGDIOPOBMPH": true,
                "NBNJEKMFIDE": true,
                "JBODIEHINII": "",
                "DMPFMDNFEHA": true,
                "OJJKHFPNNKJ": true,
                "OHPIGBBDJDE": 160.0,
                "FPEDNFKEDIJ": 70.0,
                "NNFPFPOJJOJ": ""
            },
            {
                "$type": "CENEPJCONAG",
                "type": "BODY_LANG",
                "delayTime": 2.255000114440918,
                "aliasList": [
                    "30411"
                ],
                "actionId": 137,
                "OGFPAIKLDGB": 1180,
                "MHDCNDAINCK": true,
                "LHIAJOBFNAK": false,
                "GJGPNLJEIFP": true,
                "FOEKGLEJBIJ": ""
            },
            {
                "$type": "LNLLGCOBDFC",
                "type": "EMO_SYNC",
                "delayTime": 2.3269999027252197,
                "aliasList": [
                    "30411"
                ],
                "actionId": 166,
                "flag": 320,
                "LKHHGAGNMKM": "",
                "AIMKGPFAAAD": "Cs_Emo_NPC_Common/Cs_Emo_NPC_Normal01",
                "IPEKOEDCGGF": "Cs_Emo_NPC_Common/Cs_Emo_NPC_Normal01",
                "EJNFMNJKDAH": "",
                "LOOOCOLIHFA": "",
                "KJDLMAPPPMG": "",
                "IMIEGJDNPNN": [
                    12803840960998583578,
                    3437050431160283015,
                    6548526936325855136,
                    1274732080047098512
                ],
                "KIJHIMADJGM": [
                    10638823098752766568,
                    16550434959365186937,
                    16779490980036678760,
                    2038118027140397243
                ]
            },
            {
                "$type": "CENEPJCONAG",
                "type": "BODY_LANG",
                "delayTime": 4.718999862670898,
                "aliasList": [
                    "30411"
                ],
                "actionId": 140,
                "NNKEOHJCPOF": true,
                "MHDCNDAINCK": true,
                "LHIAJOBFNAK": false,
                "GJGPNLJEIFP": true,
                "FOEKGLEJBIJ": ""
            }
        ],
        [
            {
                "$type": "CENEPJCONAG",
                "type": "BODY_LANG",
                "aliasList": [
                    "30411"
                ],
                "actionId": 180,
                "NNKEOHJCPOF": true,
                "MHDCNDAINCK": true,
                "LHIAJOBFNAK": false,
                "GJGPNLJEIFP": true,
                "FOEKGLEJBIJ": ""
            },
            {
                "$type": "KAGAFALAIGP",
                "type": "DIALOG",
                "aliasList": [
                    "30412"
                ],
                "actionId": 114,
                "JHEPJOMJJHH": 745040205,
                "OCILKFCPBNC": 0.5
            },
            {
                "$type": "FNPNDPFBBDD",
                "type": "LOOK_AT",
                "aliasList": [
                    "30412"
                ],
                "actionId": 141,
                "flag": 64,
                "NKGFDJDHOBD": true,
                "MNOPLOBEFLB": 0.5,
                "JBODIEHINII": "Avatar",
                "MDNPCOHCCLM": true,
                "CAJDMFBMGNG": 60.0,
                "LPCACGGCDLI": "",
                "NNFPFPOJJOJ": ""
            },
            {
                "$type": "CENEPJCONAG",
                "type": "BODY_LANG",
                "aliasList": [
                    "30412"
                ],
                "actionId": 143,
                "OGFPAIKLDGB": 1171,
                "MHDCNDAINCK": true,
                "LHIAJOBFNAK": false,
                "GJGPNLJEIFP": true,
                "FOEKGLEJBIJ": ""
            },
            {
                "$type": "LNLLGCOBDFC",
                "type": "EMO_SYNC",
                "aliasList": [
                    "30412"
                ],
                "actionId": 167,
                "flag": 320,
                "LKHHGAGNMKM": "",
                "AIMKGPFAAAD": "Cs_Emo_NPC_Common/Cs_Emo_NPC_Normal01",
                "IPEKOEDCGGF": "Cs_Emo_NPC_Common/Cs_Emo_NPC_Normal01_B",
                "EJNFMNJKDAH": "",
                "LOOOCOLIHFA": "",
                "KJDLMAPPPMG": "",
                "IMIEGJDNPNN": [
                    12803840960998583578,
                    3437050431160283015,
                    6548526936325855136,
                    1274732080047098512
                ],
                "KIJHIMADJGM": [
                    15191155715402440098,
                    420038106395935518,
                    2651432695756251320,
                    4209314551981667660
                ]
            },
            {
                "$type": "LNLLGCOBDFC",
                "type": "EMO_SYNC",
                "delayTime": 3.4200000762939453,
                "aliasList": [
                    "30412"
                ],
                "actionId": 168,
                "flag": 320,
                "LKHHGAGNMKM": "",
                "AIMKGPFAAAD": "Cs_Emo_NPC_Common/Cs_Emo_NPC_Normal01",
                "IPEKOEDCGGF": "Cs_Emo_NPC_Common/Cs_Emo_NPC_WinkB02",
                "EJNFMNJKDAH": "",
                "LOOOCOLIHFA": "",
                "KJDLMAPPPMG": "",
                "HCOIDDGKHJC": false,
                "IMIEGJDNPNN": [
                    12803840960998583578,
                    3437050431160283015,
                    6548526936325855136,
                    1274732080047098512
                ],
                "KIJHIMADJGM": [
                    16888707106520771206,
                    5516380513410437532,
                    15911076888735783003,
                    1223289712553529107
                ]
            },
            {
                "$type": "CENEPJCONAG",
                "type": "BODY_LANG",
                "delayTime": 3.436000108718872,
                "aliasList": [
                    "30412"
                ],
                "actionId": 144,
                "OGFPAIKLDGB": 4040,
                "MHDCNDAINCK": true,
                "LHIAJOBFNAK": false,
                "GJGPNLJEIFP": true,
                "FOEKGLEJBIJ": ""
            },
            {
                "$type": "LNLLGCOBDFC",
                "type": "EMO_SYNC",
                "delayTime": 5.223999977111816,
                "aliasList": [
                    "30412"
                ],
                "actionId": 169,
                "flag": 320,
                "LKHHGAGNMKM": "",
                "AIMKGPFAAAD": "Cs_Emo_NPC_Common/Cs_Emo_NPC_Normal01",
                "IPEKOEDCGGF": "Cs_Emo_NPC_Common/Cs_Emo_NPC_Normal01",
                "EJNFMNJKDAH": "",
                "LOOOCOLIHFA": "",
                "KJDLMAPPPMG": "",
                "IMIEGJDNPNN": [
                    12803840960998583578,
                    3437050431160283015,
                    6548526936325855136,
                    1274732080047098512
                ],
                "KIJHIMADJGM": [
                    10638823098752766568,
                    16550434959365186937,
                    16779490980036678760,
                    2038118027140397243
                ]
            }
        ],
        [
            {
                "$type": "KAGAFALAIGP",
                "type": "DIALOG",
                "aliasList": [
                    "30411"
                ],
                "actionId": 116,
                "JHEPJOMJJHH": 745040206,
                "OCILKFCPBNC": 1.9249999523162842
            },
            {
                "$type": "CENEPJCONAG",
                "type": "BODY_LANG",
                "aliasList": [
                    "30411"
                ],
                "actionId": 145,
                "OGFPAIKLDGB": 1171,
                "MHDCNDAINCK": true,
                "LHIAJOBFNAK": false,
                "GJGPNLJEIFP": true,
                "FOEKGLEJBIJ": ""
            },
            {
                "$type": "FNPNDPFBBDD",
                "type": "LOOK_AT",
                "aliasList": [
                    "30412"
                ],
                "actionId": 190,
                "flag": 64,
                "NKGFDJDHOBD": true,
                "MNOPLOBEFLB": 0.5,
                "JBODIEHINII": "30411",
                "MDNPCOHCCLM": true,
                "CAJDMFBMGNG": 10.0,
                "LPCACGGCDLI": "",
                "NNFPFPOJJOJ": ""
            },
            {
                "$type": "NFDDGDIKEAG",
                "type": "STEER_TO",
                "duration": 1.0,
                "aliasList": [
                    "30412"
                ],
                "actionId": 191,
                "flag": 32,
                "GGJHILELIMO": "TO_TARGET_ADVANCED",
                "GPODKINFLFH": {
                    "x": 3557.41796875,
                    "y": 446.1669921875,
                    "z": 4434.21484375
                },
                "PKKKHNGDEEE": true,
                "LGDIOPOBMPH": true,
                "NBNJEKMFIDE": true,
                "JBODIEHINII": "30411",
                "DMPFMDNFEHA": true,
                "OJJKHFPNNKJ": true,
                "NNFPFPOJJOJ": ""
            },
            {
                "$type": "LNLLGCOBDFC",
                "type": "EMO_SYNC",
                "delayTime": 0.12300000339746475,
                "aliasList": [
                    "30411"
                ],
                "actionId": 172,
                "flag": 320,
                "LKHHGAGNMKM": "",
                "AIMKGPFAAAD": "Cs_Emo_NPC_Common/Cs_Emo_NPC_Normal01",
                "IPEKOEDCGGF": "Cs_Emo_NPC_Common/Cs_Emo_NPC_Sad01_B",
                "EJNFMNJKDAH": "",
                "LOOOCOLIHFA": "",
                "KJDLMAPPPMG": "",
                "IMIEGJDNPNN": [
                    12803840960998583578,
                    3437050431160283015,
                    6548526936325855136,
                    1274732080047098512
                ],
                "KIJHIMADJGM": [
                    13608203086706346087,
                    8983880955149441812,
                    6168896623321060702,
                    13508183777270633601
                ]
            },
            {
                "$type": "CENEPJCONAG",
                "type": "BODY_LANG",
                "delayTime": 3.257999897003174,
                "aliasList": [
                    "30411"
                ],
                "actionId": 146,
                "NNKEOHJCPOF": true,
                "MHDCNDAINCK": true,
                "LHIAJOBFNAK": false,
                "GJGPNLJEIFP": true,
                "FOEKGLEJBIJ": ""
            }
        ],
        [
            {
                "$type": "CENEPJCONAG",
                "type": "BODY_LANG",
                "aliasList": [
                    "30411"
                ],
                "actionId": 147,
                "NNKEOHJCPOF": true,
                "MHDCNDAINCK": true,
                "LHIAJOBFNAK": false,
                "GJGPNLJEIFP": true,
                "FOEKGLEJBIJ": ""
            },
            {
                "$type": "NFDDGDIKEAG",
                "type": "STEER_TO",
                "duration": 1.0,
                "aliasList": [
                    "30411"
                ],
                "actionId": 189,
                "flag": 32,
                "GGJHILELIMO": "TO_TARGET_ADVANCED",
                "GPODKINFLFH": {
                    "x": 3555.925048828125,
                    "y": 446.1669921875,
                    "z": 4434.0869140625
                },
                "PKKKHNGDEEE": true,
                "LGDIOPOBMPH": true,
                "NBNJEKMFIDE": true,
                "JBODIEHINII": "30412",
                "DMPFMDNFEHA": true,
                "OJJKHFPNNKJ": true,
                "NNFPFPOJJOJ": ""
            },
            {
                "$type": "FNPNDPFBBDD",
                "type": "LOOK_AT",
                "aliasList": [
                    "30411"
                ],
                "actionId": 192,
                "flag": 64,
                "NKGFDJDHOBD": true,
                "MNOPLOBEFLB": 0.5,
                "JBODIEHINII": "30412",
                "MDNPCOHCCLM": true,
                "CAJDMFBMGNG": 10.0,
                "LPCACGGCDLI": "",
                "NNFPFPOJJOJ": ""
            },
            {
                "$type": "KAGAFALAIGP",
                "type": "DIALOG",
                "aliasList": [
                    "30412"
                ],
                "actionId": 118,
                "JHEPJOMJJHH": 745040207,
                "OCILKFCPBNC": 1.2039999961853027
            },
            {
                "$type": "CENEPJCONAG",
                "type": "BODY_LANG",
                "aliasList": [
                    "30412"
                ],
                "actionId": 149,
                "OGFPAIKLDGB": 1173,
                "MHDCNDAINCK": true,
                "LHIAJOBFNAK": false,
                "GJGPNLJEIFP": true,
                "FOEKGLEJBIJ": ""
            },
            {
                "$type": "LNLLGCOBDFC",
                "type": "EMO_SYNC",
                "delayTime": 0.003000000026077032,
                "aliasList": [
                    "30412"
                ],
                "actionId": 174,
                "flag": 320,
                "LKHHGAGNMKM": "",
                "AIMKGPFAAAD": "Cs_Emo_NPC_Common/Cs_Emo_NPC_Normal01",
                "IPEKOEDCGGF": "Cs_Emo_NPC_Common/Cs_Emo_NPC_Normal01_B",
                "EJNFMNJKDAH": "",
                "LOOOCOLIHFA": "",
                "KJDLMAPPPMG": "",
                "IMIEGJDNPNN": [
                    12803840960998583578,
                    3437050431160283015,
                    6548526936325855136,
                    1274732080047098512
                ],
                "KIJHIMADJGM": [
                    15191155715402440098,
                    420038106395935518,
                    2651432695756251320,
                    4209314551981667660
                ]
            }
        ],
        [
            {
                "$type": "KAGAFALAIGP",
                "type": "DIALOG",
                "aliasList": [
                    "30411"
                ],
                "actionId": 120,
                "JHEPJOMJJHH": 745040208,
                "OCILKFCPBNC": 0.5
            },
            {
                "$type": "CENEPJCONAG",
                "type": "BODY_LANG",
                "aliasList": [
                    "30411"
                ],
                "actionId": 153,
                "OGFPAIKLDGB": 1171,
                "MHDCNDAINCK": true,
                "LHIAJOBFNAK": false,
                "GJGPNLJEIFP": true,
                "FOEKGLEJBIJ": ""
            },
            {
                "$type": "LNLLGCOBDFC",
                "type": "EMO_SYNC",
                "aliasList": [
                    "30411"
                ],
                "actionId": 175,
                "flag": 320,
                "LKHHGAGNMKM": "",
                "AIMKGPFAAAD": "Cs_Emo_NPC_Common/Cs_Emo_NPC_Normal01",
                "IPEKOEDCGGF": "Cs_Emo_NPC_Common/Cs_Emo_NPC_Normal01_B",
                "EJNFMNJKDAH": "",
                "LOOOCOLIHFA": "",
                "KJDLMAPPPMG": "",
                "IMIEGJDNPNN": [
                    12803840960998583578,
                    3437050431160283015,
                    6548526936325855136,
                    1274732080047098512
                ],
                "KIJHIMADJGM": [
                    15191155715402440098,
                    420038106395935518,
                    2651432695756251320,
                    4209314551981667660
                ]
            },
            {
                "$type": "CENEPJCONAG",
                "type": "BODY_LANG",
                "aliasList": [
                    "30412"
                ],
                "actionId": 152,
                "NNKEOHJCPOF": true,
                "MHDCNDAINCK": true,
                "LHIAJOBFNAK": false,
                "GJGPNLJEIFP": true,
                "FOEKGLEJBIJ": ""
            },
            {
                "$type": "CENEPJCONAG",
                "type": "BODY_LANG",
                "delayTime": 3.937000036239624,
                "aliasList": [
                    "30411"
                ],
                "actionId": 156,
                "OGFPAIKLDGB": 1173,
                "MHDCNDAINCK": true,
                "LHIAJOBFNAK": false,
                "GJGPNLJEIFP": true,
                "FOEKGLEJBIJ": ""
            },
            {
                "$type": "LNLLGCOBDFC",
                "type": "EMO_SYNC",
                "delayTime": 3.9790000915527344,
                "aliasList": [
                    "30411"
                ],
                "actionId": 176,
                "flag": 320,
                "LKHHGAGNMKM": "",
                "AIMKGPFAAAD": "Cs_Emo_NPC_Common/Cs_Emo_NPC_Normal01",
                "IPEKOEDCGGF": "Cs_Emo_NPC_Common/Cs_Emo_NPC_Angry01",
                "EJNFMNJKDAH": "",
                "LOOOCOLIHFA": "",
                "KJDLMAPPPMG": "",
                "IMIEGJDNPNN": [
                    12803840960998583578,
                    3437050431160283015,
                    6548526936325855136,
                    1274732080047098512
                ],
                "KIJHIMADJGM": [
                    5555574328354538894,
                    6902058826788250658,
                    16686799597816672641,
                    13665732757931042568
                ]
            }
        ],
        [
            {
                "$type": "KAGAFALAIGP",
                "type": "DIALOG",
                "aliasList": [
                    "30412"
                ],
                "actionId": 122,
                "JHEPJOMJJHH": 745040209,
                "OCILKFCPBNC": 0.5
            },
            {
                "$type": "CENEPJCONAG",
                "type": "BODY_LANG",
                "aliasList": [
                    "30412"
                ],
                "actionId": 157,
                "OGFPAIKLDGB": 1160,
                "MHDCNDAINCK": true,
                "LHIAJOBFNAK": false,
                "GJGPNLJEIFP": true,
                "FOEKGLEJBIJ": ""
            },
            {
                "$type": "FNPNDPFBBDD",
                "type": "LOOK_AT",
                "aliasList": [
                    "30412"
                ],
                "actionId": 157,
                "flag": 64,
                "MNOPLOBEFLB": 0.5,
                "JBODIEHINII": "",
                "MDNPCOHCCLM": true,
                "CAJDMFBMGNG": 10.0,
                "LPCACGGCDLI": "",
                "NNFPFPOJJOJ": ""
            },
            {
                "$type": "LNLLGCOBDFC",
                "type": "EMO_SYNC",
                "delayTime": 0.008999999612569809,
                "aliasList": [
                    "30412"
                ],
                "actionId": 177,
                "flag": 256,
                "LKHHGAGNMKM": "",
                "AIMKGPFAAAD": "Cs_Emo_NPC_Common/Cs_Emo_NPC_Normal01",
                "IPEKOEDCGGF": "Cs_Emo_NPC_Common/Cs_Emo_NPC_WinkB02",
                "EJNFMNJKDAH": "",
                "LOOOCOLIHFA": "",
                "KJDLMAPPPMG": "",
                "HCOIDDGKHJC": false,
                "IMIEGJDNPNN": [
                    12803840960998583578,
                    3437050431160283015,
                    6548526936325855136,
                    1274732080047098512
                ],
                "KIJHIMADJGM": [
                    16888707106520771206,
                    5516380513410437532,
                    15911076888735783003,
                    1223289712553529107
                ]
            }
        ],
        [
            {
                "$type": "KAGAFALAIGP",
                "type": "DIALOG",
                "aliasList": [
                    "30411"
                ],
                "actionId": 124,
                "JHEPJOMJJHH": 745040210,
                "OCILKFCPBNC": 0.5
            },
            {
                "$type": "CENEPJCONAG",
                "type": "BODY_LANG",
                "aliasList": [
                    "30411"
                ],
                "actionId": 158,
                "OGFPAIKLDGB": 4040,
                "MHDCNDAINCK": true,
                "LHIAJOBFNAK": false,
                "GJGPNLJEIFP": true,
                "FOEKGLEJBIJ": ""
            },
            {
                "$type": "LNLLGCOBDFC",
                "type": "EMO_SYNC",
                "aliasList": [
                    "30411"
                ],
                "actionId": 179,
                "flag": 320,
                "LKHHGAGNMKM": "",
                "AIMKGPFAAAD": "Cs_Emo_NPC_Common/Cs_Emo_NPC_Normal01",
                "IPEKOEDCGGF": "Cs_Emo_NPC_Common/Cs_Emo_NPC_Normal01_B",
                "EJNFMNJKDAH": "",
                "LOOOCOLIHFA": "",
                "KJDLMAPPPMG": "",
                "IMIEGJDNPNN": [
                    12803840960998583578,
                    3437050431160283015,
                    6548526936325855136,
                    1274732080047098512
                ],
                "KIJHIMADJGM": [
                    15191155715402440098,
                    420038106395935518,
                    2651432695756251320,
                    4209314551981667660
                ]
            },
            {
                "$type": "CENEPJCONAG",
                "type": "BODY_LANG",
                "aliasList": [
                    "30412"
                ],
                "actionId": 159,
                "NNKEOHJCPOF": true,
                "MHDCNDAINCK": true,
                "LHIAJOBFNAK": false,
                "GJGPNLJEIFP": true,
                "FOEKGLEJBIJ": ""
            },
            {
                "$type": "LNLLGCOBDFC",
                "type": "EMO_SYNC",
                "aliasList": [
                    "30412"
                ],
                "actionId": 178,
                "flag": 320,
                "LKHHGAGNMKM": "",
                "AIMKGPFAAAD": "Cs_Emo_NPC_Common/Cs_Emo_NPC_Normal01",
                "IPEKOEDCGGF": "Cs_Emo_NPC_Common/Cs_Emo_NPC_Normal01",
                "EJNFMNJKDAH": "",
                "LOOOCOLIHFA": "",
                "KJDLMAPPPMG": "",
                "IMIEGJDNPNN": [
                    12803840960998583578,
                    3437050431160283015,
                    6548526936325855136,
                    1274732080047098512
                ],
                "KIJHIMADJGM": [
                    10638823098752766568,
                    16550434959365186937,
                    16779490980036678760,
                    2038118027140397243
                ]
            },
            {
                "$type": "FNPNDPFBBDD",
                "type": "LOOK_AT",
                "aliasList": [
                    "30412"
                ],
                "actionId": 187,
                "flag": 64,
                "NKGFDJDHOBD": true,
                "MNOPLOBEFLB": 0.5,
                "JBODIEHINII": "30411",
                "MDNPCOHCCLM": true,
                "CAJDMFBMGNG": 10.0,
                "LPCACGGCDLI": "",
                "NNFPFPOJJOJ": ""
            }
        ],
        [
            {
                "$type": "MoleMole.Config.ConfigTimeProtectAction",
                "type": "TIME_PROTECT",
                "duration": 0.10000000149011612,
                "actionId": 105
            }
        ]
    ],
    "groupId": [
        {
            "grpId": 400138006,
            "nextGrpId": 400138007
        },
        {
            "index": 1,
            "grpId": 400138007,
            "nextGrpId": 400138008
        },
        {
            "index": 2,
            "grpId": 400138008,
            "nextGrpId": 400138009
        },
        {
            "index": 3,
            "grpId": 400138009,
            "nextGrpId": 400138010
        },
        {
            "index": 4,
            "grpId": 400138010,
            "nextGrpId": 400138011
        },
        {
            "index": 5,
            "grpId": 400138011,
            "nextGrpId": 400138012
        },
        {
            "index": 6,
            "grpId": 400138012,
            "nextGrpId": 400138013
        },
        {
            "index": 7,
            "grpId": 400138013,
            "nextGrpId": 400138014
        },
        {
            "index": 8,
            "grpId": 400138014,
            "nextGrpId": 3814343642
        },
        {
            "index": 9,
            "grpId": 3814343642,
            "nextGrpId": 3814343643
        },
        {
            "index": 10,
            "grpId": 3814343643,
            "nextGrpId": 3814343644
        }
    ],
    "freeStyleDic": {
        "30411": [
            1171,
            1180,
            1173,
            4040
        ],
        "30412": [
            1120,
            4040,
            1171,
            1173,
            1160
        ]
    },
    "EGOADMBCKDB": {
        "30411": [
            "SitChat01AS",
            "SitHoldArm01AS",
            "SitPutArm01AS",
            "SitRaiseHand01AS",
            "SitRead01AS"
        ],
        "30412": [
            "SitChat01AS",
            "SitHoldArm01AS",
            "SitPutArm01AS",
            "SitRaiseHand01AS",
            "SitRead01AS"
        ]
    }
}