{
    "sceneId": 1,
    "bornPosList": [
        {
            "id": 1,
            "configId": 20036,
            "pos": {
                "x": 2382.718994140625,
                "y": 256.43231201171875,
                "z": -1346.967041015625
            },
            "rot": {
                "y": 184.8000030517578
            },
            "groupId": 111101038,
            "platformInfo": {}
        },
        {
            "id": 2,
            "configId": 9002,
            "pos": {
                "x": 2629.034912109375,
                "y": 251.05780029296875,
                "z": -1255.3399658203125
            },
            "groupId": 111101114,
            "suiteIdList": [
                1
            ],
            "platformInfo": {}
        },
        {
            "id": 3,
            "configId": 20284,
            "pos": {
                "x": 2561.347900390625,
                "y": 228.77149963378906,
                "z": -1150.656005859375
            },
            "rot": {
                "y": 155.52059936523438
            },
            "groupId": 111101122,
            "suiteIdList": [
                2
            ],
            "platformInfo": {}
        }
    ]
}