{
    "buttonSequence": [
        {
            "button": "Left_Left",
            "time": 3829
        },
        {
            "button": "Left_Left",
            "time": 4468,
            "MOJOHCACLKE": true,
            "CDHKDJKLECG": 319
        },
        {
            "button": "Left_Left",
            "time": 34787
        },
        {
            "button": "Left_Left",
            "time": 35425,
            "MOJOHCACLKE": true,
            "CDHKDJKLECG": 319
        },
        {
            "button": "Left_Down",
            "time": 5106,
            "MOJOHCACLKE": true,
            "CDHKDJKLECG": 319
        },
        {
            "button": "Left_Down",
            "time": 9574,
            "MOJOHCACLKE": true,
            "CDHKDJKLECG": 638
        },
        {
            "button": "Left_Down",
            "time": 11489,
            "MOJOHCACLKE": true,
            "CDHKDJKLECG": 1276
        },
        {
            "button": "Left_Down",
            "time": 15319,
            "MOJOHCACLKE": true,
            "CDHKDJKLECG": 1595
        },
        {
            "button": "Left_Down",
            "time": 17234,
            "MOJOHCACLKE": true,
            "CDHKDJKLECG": 638
        },
        {
            "button": "Left_Down",
            "time": 19148,
            "MOJOHCACLKE": true,
            "CDHKDJKLECG": 320
        },
        {
            "button": "Left_Down",
            "time": 22978,
            "MOJOHCACLKE": true,
            "CDHKDJKLECG": 319
        },
        {
            "button": "Left_Down",
            "time": 28085,
            "MOJOHCACLKE": true,
            "CDHKDJKLECG": 638
        },
        {
            "button": "Left_Down",
            "time": 36063,
            "MOJOHCACLKE": true,
            "CDHKDJKLECG": 319
        },
        {
            "button": "Left_Down",
            "time": 40531,
            "MOJOHCACLKE": true,
            "CDHKDJKLECG": 638
        },
        {
            "button": "Left_Down",
            "time": 42446,
            "MOJOHCACLKE": true,
            "CDHKDJKLECG": 1276
        },
        {
            "button": "Left_Down",
            "time": 44361,
            "MOJOHCACLKE": true,
            "CDHKDJKLECG": 638
        },
        {
            "button": "Left_Down",
            "time": 48191,
            "MOJOHCACLKE": true,
            "CDHKDJKLECG": 638
        },
        {
            "button": "Left_Down",
            "time": 50106,
            "MOJOHCACLKE": true,
            "CDHKDJKLECG": 319
        },
        {
            "button": "Left_Down",
            "time": 53935,
            "MOJOHCACLKE": true,
            "CDHKDJKLECG": 319
        },
        {
            "button": "Left_Down",
            "time": 59042,
            "MOJOHCACLKE": true,
            "CDHKDJKLECG": 638
        },
        {
            "button": "Left_Down",
            "time": 65425
        },
        {
            "button": "Left_Down",
            "time": 67340,
            "MOJOHCACLKE": true,
            "CDHKDJKLECG": 1595
        },
        {
            "button": "Left_Down",
            "time": 71169,
            "MOJOHCACLKE": true,
            "CDHKDJKLECG": 1596
        },
        {
            "button": "Left_Down",
            "time": 76914,
            "MOJOHCACLKE": true,
            "CDHKDJKLECG": 1914
        },
        {
            "button": "Left_Down",
            "time": 80106,
            "MOJOHCACLKE": true,
            "CDHKDJKLECG": 319
        },
        {
            "button": "Left_Down",
            "time": 80744,
            "MOJOHCACLKE": true,
            "CDHKDJKLECG": 319
        },
        {
            "button": "Left_Down",
            "time": 84574,
            "MOJOHCACLKE": true,
            "CDHKDJKLECG": 319
        },
        {
            "button": "Left_Down",
            "time": 90957,
            "MOJOHCACLKE": true,
            "CDHKDJKLECG": 957
        },
        {
            "button": "Left_Down",
            "time": 92233,
            "MOJOHCACLKE": true,
            "CDHKDJKLECG": 1914
        },
        {
            "button": "Left_Down",
            "time": 96382,
            "MOJOHCACLKE": true,
            "CDHKDJKLECG": 1915
        },
        {
            "button": "Left_Down",
            "time": 100532,
            "MOJOHCACLKE": true,
            "CDHKDJKLECG": 1914
        },
        {
            "button": "Left_Down",
            "time": 106595
        },
        {
            "button": "Left_Down",
            "time": 106915
        },
        {
            "button": "Left_Down",
            "time": 107234
        },
        {
            "button": "Left_Down",
            "time": 107553,
            "MOJOHCACLKE": true,
            "CDHKDJKLECG": 638
        },
        {
            "button": "Left_Down",
            "time": 108830
        },
        {
            "button": "Left_Down",
            "time": 109149
        },
        {
            "button": "Left_Down",
            "time": 109468
        },
        {
            "button": "Left_Down",
            "time": 109787,
            "MOJOHCACLKE": true,
            "CDHKDJKLECG": 638
        },
        {
            "button": "Left_Down",
            "time": 110745
        },
        {
            "button": "Left_Down",
            "time": 111064
        },
        {
            "button": "Left_Down",
            "time": 111383
        },
        {
            "button": "Left_Down",
            "time": 111702,
            "MOJOHCACLKE": true,
            "CDHKDJKLECG": 638
        },
        {
            "button": "Left_Down",
            "time": 112659
        },
        {
            "button": "Left_Down",
            "time": 112979
        },
        {
            "button": "Left_Down",
            "time": 114893,
            "MOJOHCACLKE": true,
            "CDHKDJKLECG": 7341
        },
        {
            "button": "Left_Right",
            "time": 5744,
            "MOJOHCACLKE": true,
            "CDHKDJKLECG": 319
        },
        {
            "button": "Left_Right",
            "time": 19787,
            "MOJOHCACLKE": true,
            "CDHKDJKLECG": 319
        },
        {
            "button": "Left_Right",
            "time": 23617,
            "MOJOHCACLKE": true,
            "CDHKDJKLECG": 319
        },
        {
            "button": "Left_Right",
            "time": 25531,
            "MOJOHCACLKE": true,
            "CDHKDJKLECG": 319
        },
        {
            "button": "Left_Right",
            "time": 29361,
            "MOJOHCACLKE": true,
            "CDHKDJKLECG": 957
        },
        {
            "button": "Left_Right",
            "time": 30638,
            "MOJOHCACLKE": true,
            "CDHKDJKLECG": 1914
        },
        {
            "button": "Left_Right",
            "time": 36701,
            "MOJOHCACLKE": true,
            "CDHKDJKLECG": 320
        },
        {
            "button": "Left_Right",
            "time": 50744,
            "MOJOHCACLKE": true,
            "CDHKDJKLECG": 319
        },
        {
            "button": "Left_Right",
            "time": 54574,
            "MOJOHCACLKE": true,
            "CDHKDJKLECG": 319
        },
        {
            "button": "Left_Right",
            "time": 56489,
            "MOJOHCACLKE": true,
            "CDHKDJKLECG": 319
        },
        {
            "button": "Left_Right",
            "time": 60318,
            "MOJOHCACLKE": true,
            "CDHKDJKLECG": 957
        },
        {
            "button": "Left_Right",
            "time": 61595,
            "MOJOHCACLKE": true,
            "CDHKDJKLECG": 1914
        },
        {
            "button": "Left_Right",
            "time": 65744
        },
        {
            "button": "Left_Right",
            "time": 67021
        },
        {
            "button": "Left_Right",
            "time": 74361,
            "MOJOHCACLKE": true,
            "CDHKDJKLECG": 319
        },
        {
            "button": "Left_Right",
            "time": 81382,
            "MOJOHCACLKE": true,
            "CDHKDJKLECG": 319
        },
        {
            "button": "Left_Right",
            "time": 85212,
            "MOJOHCACLKE": true,
            "CDHKDJKLECG": 319
        },
        {
            "button": "Left_Right",
            "time": 87127,
            "MOJOHCACLKE": true,
            "CDHKDJKLECG": 319
        },
        {
            "button": "Left_Right",
            "time": 108510
        },
        {
            "button": "Right_Left",
            "time": 6382,
            "MOJOHCACLKE": true,
            "CDHKDJKLECG": 320
        },
        {
            "button": "Right_Left",
            "time": 20425,
            "MOJOHCACLKE": true,
            "CDHKDJKLECG": 319
        },
        {
            "button": "Right_Left",
            "time": 24255,
            "MOJOHCACLKE": true,
            "CDHKDJKLECG": 638
        },
        {
            "button": "Right_Left",
            "time": 26170,
            "MOJOHCACLKE": true,
            "CDHKDJKLECG": 319
        },
        {
            "button": "Right_Left",
            "time": 32553,
            "MOJOHCACLKE": true,
            "CDHKDJKLECG": 1276
        },
        {
            "button": "Right_Left",
            "time": 37340,
            "MOJOHCACLKE": true,
            "CDHKDJKLECG": 319
        },
        {
            "button": "Right_Left",
            "time": 51382,
            "MOJOHCACLKE": true,
            "CDHKDJKLECG": 319
        },
        {
            "button": "Right_Left",
            "time": 55212,
            "MOJOHCACLKE": true,
            "CDHKDJKLECG": 638
        },
        {
            "button": "Right_Left",
            "time": 57127,
            "MOJOHCACLKE": true,
            "CDHKDJKLECG": 319
        },
        {
            "button": "Right_Left",
            "time": 63510,
            "MOJOHCACLKE": true,
            "CDHKDJKLECG": 1276
        },
        {
            "button": "Right_Left",
            "time": 66063
        },
        {
            "button": "Right_Left",
            "time": 66701
        },
        {
            "button": "Right_Left",
            "time": 73084,
            "MOJOHCACLKE": true,
            "CDHKDJKLECG": 1277
        },
        {
            "button": "Right_Left",
            "time": 82021,
            "MOJOHCACLKE": true,
            "CDHKDJKLECG": 638
        },
        {
            "button": "Right_Left",
            "time": 85850,
            "MOJOHCACLKE": true,
            "CDHKDJKLECG": 638
        },
        {
            "button": "Right_Left",
            "time": 87765,
            "MOJOHCACLKE": true,
            "CDHKDJKLECG": 319
        },
        {
            "button": "Right_Left",
            "time": 108510
        },
        {
            "button": "Right_Down",
            "time": 7021,
            "MOJOHCACLKE": true,
            "CDHKDJKLECG": 319
        },
        {
            "button": "Right_Down",
            "time": 10212,
            "MOJOHCACLKE": true,
            "CDHKDJKLECG": 957
        },
        {
            "button": "Right_Down",
            "time": 14042,
            "MOJOHCACLKE": true,
            "CDHKDJKLECG": 958
        },
        {
            "button": "Right_Down",
            "time": 17872,
            "MOJOHCACLKE": true,
            "CDHKDJKLECG": 638
        },
        {
            "button": "Right_Down",
            "time": 21702,
            "MOJOHCACLKE": true,
            "CDHKDJKLECG": 957
        },
        {
            "button": "Right_Down",
            "time": 26808,
            "MOJOHCACLKE": true,
            "CDHKDJKLECG": 1276
        },
        {
            "button": "Right_Down",
            "time": 28723,
            "MOJOHCACLKE": true,
            "CDHKDJKLECG": 638
        },
        {
            "button": "Right_Down",
            "time": 37978,
            "MOJOHCACLKE": true,
            "CDHKDJKLECG": 319
        },
        {
            "button": "Right_Down",
            "time": 41169,
            "MOJOHCACLKE": true,
            "CDHKDJKLECG": 638
        },
        {
            "button": "Right_Down",
            "time": 44999,
            "MOJOHCACLKE": true,
            "CDHKDJKLECG": 639
        },
        {
            "button": "Right_Down",
            "time": 46276,
            "MOJOHCACLKE": true,
            "CDHKDJKLECG": 1913
        },
        {
            "button": "Right_Down",
            "time": 48829,
            "MOJOHCACLKE": true,
            "CDHKDJKLECG": 637
        },
        {
            "button": "Right_Down",
            "time": 52659,
            "MOJOHCACLKE": true,
            "CDHKDJKLECG": 638
        },
        {
            "button": "Right_Down",
            "time": 57765,
            "MOJOHCACLKE": true,
            "CDHKDJKLECG": 1276
        },
        {
            "button": "Right_Down",
            "time": 59680,
            "MOJOHCACLKE": true,
            "CDHKDJKLECG": 638
        },
        {
            "button": "Right_Down",
            "time": 66382
        },
        {
            "button": "Right_Down",
            "time": 69255,
            "MOJOHCACLKE": true,
            "CDHKDJKLECG": 1595
        },
        {
            "button": "Right_Down",
            "time": 75638,
            "MOJOHCACLKE": true,
            "CDHKDJKLECG": 957
        },
        {
            "button": "Right_Down",
            "time": 78829,
            "MOJOHCACLKE": true,
            "CDHKDJKLECG": 319
        },
        {
            "button": "Right_Down",
            "time": 79467,
            "MOJOHCACLKE": true,
            "CDHKDJKLECG": 319
        },
        {
            "button": "Right_Down",
            "time": 83297,
            "MOJOHCACLKE": true,
            "CDHKDJKLECG": 957
        },
        {
            "button": "Right_Down",
            "time": 88404,
            "MOJOHCACLKE": true,
            "CDHKDJKLECG": 1276
        },
        {
            "button": "Right_Down",
            "time": 90318,
            "MOJOHCACLKE": true,
            "CDHKDJKLECG": 638
        },
        {
            "button": "Right_Down",
            "time": 94148,
            "MOJOHCACLKE": true,
            "CDHKDJKLECG": 1276
        },
        {
            "button": "Right_Down",
            "time": 98297,
            "MOJOHCACLKE": true,
            "CDHKDJKLECG": 1915
        },
        {
            "button": "Right_Down",
            "time": 102446,
            "MOJOHCACLKE": true,
            "CDHKDJKLECG": 1915
        },
        {
            "button": "Right_Down",
            "time": 104681
        },
        {
            "button": "Right_Down",
            "time": 105000
        },
        {
            "button": "Right_Down",
            "time": 105319
        },
        {
            "button": "Right_Down",
            "time": 105638,
            "MOJOHCACLKE": true,
            "CDHKDJKLECG": 638
        },
        {
            "button": "Right_Down",
            "time": 108829
        },
        {
            "button": "Right_Down",
            "time": 109149
        },
        {
            "button": "Right_Down",
            "time": 109468
        },
        {
            "button": "Right_Down",
            "time": 109787,
            "MOJOHCACLKE": true,
            "CDHKDJKLECG": 638
        },
        {
            "button": "Right_Down",
            "time": 110745
        },
        {
            "button": "Right_Down",
            "time": 111064
        },
        {
            "button": "Right_Down",
            "time": 111383
        },
        {
            "button": "Right_Down",
            "time": 111702,
            "MOJOHCACLKE": true,
            "CDHKDJKLECG": 638
        },
        {
            "button": "Right_Down",
            "time": 112659
        },
        {
            "button": "Right_Down",
            "time": 112979
        },
        {
            "button": "Right_Down",
            "time": 114894,
            "MOJOHCACLKE": true,
            "CDHKDJKLECG": 7340
        },
        {
            "button": "Right_Right",
            "time": 3829
        },
        {
            "button": "Right_Right",
            "time": 7659,
            "MOJOHCACLKE": true,
            "CDHKDJKLECG": 1914
        },
        {
            "button": "Right_Right",
            "time": 38616,
            "MOJOHCACLKE": true,
            "CDHKDJKLECG": 1276
        }
    ],
    "playMusicEvent": {
        "text": "Play_ui_activity_FleurFairV2_musicgame_BGM_fengmolong"
    },
    "stopMusicEvent": {
        "text": "Stop_ui_activity_FleurFairV2_musicgame_BGM_fengmolong"
    },
    "pauseMusicEvent": {
        "text": "Pause_ui_activity_FleurFairV2_musicgame_BGM_fengmolong"
    },
    "resumeMusicEvent": {
        "text": "Resume_ui_activity_FleurFairV2_musicgame_BGM_fengmolong"
    },
    "PCJMNDEOCNL": {
        "text": "Play_ui_activity_FleurFairV2_musicgame_BGM_fengmolong_Preview"
    },
    "CALCJGCOLCO": {
        "text": "Stop_ui_activity_FleurFairV2_musicgame_BGM_fengmolong_Preview"
    }
}