{
    "luaDataPath": "",
    "entityBan": "",
    "disableNpcLod": true,
    "startFade": {
        "startFadeOutDuration": 0.0
    },
    "endFade": {
        "startFadeOutDuration": 0.0
    },
    "actors": [
        {
            "alias": "Avatar",
            "visible": true,
            "bornPointName": "",
            "relativePosNpcAlias": "",
            "bindMovingTargetKey": ""
        },
        {
            "configID": 9038,
            "alias": "9038",
            "visible": true,
            "bornPointName": "",
            "relativePosNpcAlias": "",
            "bindMovingTargetKey": ""
        }
    ],
    "group": [
        [
            {
                "$type": "NFDDGDIKEAG",
                "type": "STEER_TO",
                "duration": 1.0,
                "aliasList": [
                    "9038"
                ],
                "GGJHILELIMO": "TO_LOCAL_AVATAR_ADVANCED",
                "PKKKHNGDEEE": true,
                "LGDIOPOBMPH": true,
                "NBNJEKMFIDE": true,
                "JBODIEHINII": "",
                "NNFPFPOJJOJ": ""
            },
            {
                "$type": "FNPNDPFBBDD",
                "type": "LOOK_AT",
                "aliasList": [
                    "9038"
                ],
                "NKGFDJDHOBD": true,
                "MNOPLOBEFLB": 0.5,
                "JBODIEHINII": "Avatar",
                "LPCACGGCDLI": "",
                "NNFPFPOJJOJ": ""
            },
            {
                "$type": "FNPNDPFBBDD",
                "type": "LOOK_AT",
                "aliasList": [
                    "Avatar"
                ],
                "NKGFDJDHOBD": true,
                "MNOPLOBEFLB": 0.5,
                "JBODIEHINII": "9038",
                "LPCACGGCDLI": "",
                "NNFPFPOJJOJ": ""
            },
            {
                "$type": "PBIGHFCHGCA",
                "type": "CAMERA_FOCUS",
                "duration": 0.5,
                "JBODIEHINII": "",
                "EJCHLMIMLBO": "",
                "BIMPIKMCIHB": "",
                "MCAOJPLIJGI": ""
            },
            {
                "$type": "MoleMole.Config.ConfigTimeProtectAction",
                "type": "TIME_PROTECT",
                "duration": 0.5
            }
        ],
        [
            {
                "$type": "CENEPJCONAG",
                "type": "BODY_LANG",
                "aliasList": [
                    "9038"
                ],
                "OGFPAIKLDGB": 1190,
                "MHDCNDAINCK": true,
                "LHIAJOBFNAK": false,
                "FOEKGLEJBIJ": ""
            },
            {
                "$type": "FNPNDPFBBDD",
                "type": "LOOK_AT",
                "aliasList": [
                    "9038"
                ],
                "MNOPLOBEFLB": 0.5,
                "JBODIEHINII": "",
                "LPCACGGCDLI": "",
                "NNFPFPOJJOJ": ""
            },
            {
                "$type": "LNLLGCOBDFC",
                "type": "EMO_SYNC",
                "aliasList": [
                    "9038"
                ],
                "LKHHGAGNMKM": "Cs_Emo_Avatar_Simple_Common_Set/Cs_Emo_Avatar_Talk/Cs_Emo_HomeWorld/Cs_Emo_Avatar_Albedo/Cs_Emo_690381101",
                "AIMKGPFAAAD": "",
                "IPEKOEDCGGF": "",
                "EJNFMNJKDAH": "",
                "LOOOCOLIHFA": "",
                "KJDLMAPPPMG": "",
                "EKJHPKFBONG": [
                    17439287124418808564,
                    15501247242972042261,
                    351117823308804076,
                    1649990788555071233
                ]
            },
            {
                "$type": "KAGAFALAIGP",
                "type": "DIALOG",
                "aliasList": [
                    "9038"
                ],
                "JHEPJOMJJHH": 690381101,
                "OCILKFCPBNC": 0.5
            },
            {
                "$type": "NFDDGDIKEAG",
                "type": "STEER_TO",
                "delayTime": 0.4000000059604645,
                "duration": 1.0,
                "aliasList": [
                    "Avatar"
                ],
                "GGJHILELIMO": "TO_TARGET_ADVANCED",
                "PKKKHNGDEEE": true,
                "LGDIOPOBMPH": true,
                "NBNJEKMFIDE": true,
                "JBODIEHINII": "9038",
                "NNFPFPOJJOJ": ""
            },
            {
                "$type": "FNPNDPFBBDD",
                "type": "LOOK_AT",
                "delayTime": 2.5999999046325684,
                "aliasList": [
                    "9038"
                ],
                "NKGFDJDHOBD": true,
                "MNOPLOBEFLB": 0.5,
                "JBODIEHINII": "Avatar",
                "LPCACGGCDLI": "",
                "NNFPFPOJJOJ": ""
            },
            {
                "$type": "CENEPJCONAG",
                "type": "BODY_LANG",
                "delayTime": 2.5999999046325684,
                "aliasList": [
                    "9038"
                ],
                "NNKEOHJCPOF": true,
                "MHDCNDAINCK": true,
                "LHIAJOBFNAK": false,
                "FOEKGLEJBIJ": ""
            },
            {
                "$type": "MoleMole.Config.ConfigEmojiBubbleAction",
                "type": "EMOJI_BUBBLE",
                "delayTime": 2.799999952316284,
                "aliasList": [
                    "9038"
                ],
                "pattarnName": "EmojiBubble_Emoji_Exciting"
            }
        ],
        [
            {
                "$type": "FNPNDPFBBDD",
                "type": "LOOK_AT",
                "aliasList": [
                    "9038"
                ],
                "NKGFDJDHOBD": true,
                "MNOPLOBEFLB": 0.5,
                "JBODIEHINII": "Avatar",
                "LPCACGGCDLI": "",
                "NNFPFPOJJOJ": ""
            },
            {
                "$type": "CENEPJCONAG",
                "type": "BODY_LANG",
                "aliasList": [
                    "9038"
                ],
                "MHDCNDAINCK": true,
                "LHIAJOBFNAK": false,
                "FOEKGLEJBIJ": ""
            },
            {
                "$type": "MoleMole.Config.ConfigTimeProtectAction",
                "type": "TIME_PROTECT",
                "duration": 0.10000000149011612
            }
        ]
    ],
    "groupId": [
        {
            "grpId": 3249239012,
            "nextGrpId": 3249239013
        },
        {
            "index": 1,
            "grpId": 3249239013,
            "nextGrpId": 3249239014
        },
        {
            "index": 2,
            "grpId": 3249239014,
            "nextGrpId": 3249239015
        }
    ],
    "freeStyleDic": {
        "9038": [
            1190
        ]
    }
}