{
    "luaDataPath": "",
    "startBlackKeepTime": 0.5,
    "entityBan": "",
    "disableNpcLod": true,
    "BHNKJKDADLC": true,
    "JJFIGGKCCCF": true,
    "EKDGNGHMECG": true,
    "startFade": {
        "startFadeInDuration": 0.5,
        "startFadeOutDuration": 0.5
    },
    "endFade": {
        "startFadeOutDuration": 0.0
    },
    "actors": [
        {
            "alias": "Avatar",
            "visible": true,
            "bornPointName": "",
            "relativePosNpcAlias": "",
            "bindMovingTargetKey": ""
        },
        {
            "configID": 20729,
            "alias": "20729",
            "visible": true,
            "bornPointName": "guide_Q7902102",
            "removeActorType": "REMOVE",
            "relativePosNpcAlias": "",
            "bindMovingTargetKey": ""
        },
        {
            "configID": 1005,
            "alias": "1005",
            "visible": true,
            "bornPointName": "Q7902102_N1005",
            "relativePos": {
                "x": -0.5,
                "z": 0.5
            },
            "removeActorType": "REMOVE_WITH_DISAPPEAR",
            "relativePosNpcAlias": "",
            "bindMovingTargetKey": ""
        }
    ],
    "group": [
        [
            {
                "$type": "MoleMole.Config.ConfigLuaAction",
                "type": "LUA_ACTION",
                "duration": 0.10000000149011612,
                "invoke": true,
                "invokeAlias": "79021"
            },
            {
                "$type": "MoleMole.Config.ConfigTimeProtectAction",
                "type": "TIME_PROTECT",
                "duration": 0.10000000149011612
            },
            {
                "$type": "MoleMole.Config.ConfigBlackScreenAction",
                "type": "BLACK_SCREEN",
                "actionId": 154,
                "blackScreenType": "KEEP_BLACK",
                "durationKeepBlack": 0.5,
                "inteePos": "",
                "textMapID": "",
                "useTextFade": true
            },
            {
                "$type": "MoleMole.Config.ConfigLocalGadgetOP",
                "type": "LOCAL_GADGET_OP",
                "actionId": 184,
                "gadgetId": 70710743,
                "oprCode": 1,
                "slotName": "",
                "position": {
                    "x": 46.40999984741211,
                    "y": 120.0,
                    "z": -731.8499755859375
                },
                "euler": {
                    "y": 123.86499786376953
                },
                "gvKey": ""
            },
            {
                "$type": "MoleMole.Config.ConfigVisibleInterAction",
                "type": "VISIBLE",
                "target": "VEHICLE_SKIFF",
                "extraParam": ""
            },
            {
                "$type": "MoleMole.Config.ConfigTeleportToAction",
                "type": "TELEPORT_TO",
                "aliasList": [
                    "Avatar"
                ],
                "actionId": 170,
                "position": {
                    "x": 52.24800109863281,
                    "y": 120.0,
                    "z": -735.1580200195312
                },
                "forward": {
                    "x": -7.293000221252441,
                    "y": -0.6570000052452087,
                    "z": 3.7290000915527344
                },
                "openLongDisTeleport": true,
                "posBindMovingTargetKey": "",
                "forwardBindMovingTargetKey": ""
            },
            {
                "$type": "FNPNDPFBBDD",
                "type": "LOOK_AT",
                "aliasList": [
                    "Avatar"
                ],
                "actionId": 172,
                "NKGFDJDHOBD": true,
                "useTargetPos": true,
                "LBJHJADMNBD": true,
                "EKIONHAEIBG": {
                    "x": 45.29800033569336,
                    "y": 121.33799743652344,
                    "z": -731.8900146484375
                },
                "MNOPLOBEFLB": 0.5,
                "JBODIEHINII": "",
                "CFPBIOLLOCO": "NONE",
                "LPCACGGCDLI": "",
                "NNFPFPOJJOJ": ""
            },
            {
                "$type": "CENEPJCONAG",
                "type": "BODY_LANG",
                "aliasList": [
                    "Avatar"
                ],
                "actionId": 174,
                "NNKEOHJCPOF": true,
                "MHDCNDAINCK": true,
                "LHIAJOBFNAK": false,
                "FOEKGLEJBIJ": ""
            },
            {
                "$type": "MoleMole.Config.ConfigTeleportToAction",
                "type": "TELEPORT_TO",
                "aliasList": [
                    "1005"
                ],
                "actionId": 170,
                "position": {
                    "x": 51.801998138427734,
                    "y": 120.0,
                    "z": -735.8989868164062
                },
                "forward": {
                    "x": -6.047999858856201,
                    "y": -0.6570000052452087,
                    "z": 6.915999889373779
                },
                "openLongDisTeleport": true,
                "posBindMovingTargetKey": "",
                "forwardBindMovingTargetKey": ""
            },
            {
                "$type": "FNPNDPFBBDD",
                "type": "LOOK_AT",
                "aliasList": [
                    "1005"
                ],
                "actionId": 172,
                "NKGFDJDHOBD": true,
                "useTargetPos": true,
                "LBJHJADMNBD": true,
                "EKIONHAEIBG": {
                    "x": 46.27899932861328,
                    "y": 121.33799743652344,
                    "z": -730.156005859375
                },
                "MNOPLOBEFLB": 0.5,
                "JBODIEHINII": "",
                "CFPBIOLLOCO": "NONE",
                "LPCACGGCDLI": "",
                "NNFPFPOJJOJ": ""
            }
        ],
        [
            {
                "$type": "MoleMole.Config.ConfigBlackScreenAction",
                "type": "BLACK_SCREEN",
                "actionId": 154,
                "blackScreenType": "FROM_BLACK",
                "durationFromBlack": 0.5,
                "inteePos": "",
                "textMapID": "",
                "useTextFade": true
            },
            {
                "$type": "PBIGHFCHGCA",
                "type": "CAMERA_MOVE",
                "duration": 0.10000000149011612,
                "actionId": 161,
                "KCFKJMMEECM": {
                    "x": 70.16000366210938,
                    "y": 155.24200439453125,
                    "z": -764.9130249023438
                },
                "DLGJEHNPMFN": {
                    "x": 70.0479965209961,
                    "y": 154.5399932861328,
                    "z": -764.208984375
                },
                "NJCBGNHGINI": 30.0,
                "FNMFGIOLKBE": 6,
                "NECGMADJICG": "EaseInOutCubic",
                "BMHIHPIKAHM": {},
                "MMJMMAEAJOA": true,
                "HGGPLEMCNNG": false,
                "JBODIEHINII": "",
                "PHDIKPKLFIA": true,
                "EJCHLMIMLBO": "",
                "BIMPIKMCIHB": "",
                "MCAOJPLIJGI": ""
            },
            {
                "$type": "MoleMole.Config.ConfigLocalGadgetOP",
                "type": "LOCAL_GADGET_OP",
                "actionId": 184,
                "gadgetId": 70710743,
                "oprCode": 3,
                "slotName": "",
                "position": {
                    "x": 46.40999984741211,
                    "y": 120.0,
                    "z": -731.8499755859375
                },
                "euler": {
                    "y": 123.86499786376953
                },
                "gvKey": "is_talk",
                "gvValue": 1.0
            },
            {
                "$type": "KAGAFALAIGP",
                "type": "DIALOG",
                "aliasList": [
                    "20729"
                ],
                "JHEPJOMJJHH": 790210201,
                "OCILKFCPBNC": 1.5
            },
            {
                "$type": "LNLLGCOBDFC",
                "type": "EMO_SYNC",
                "aliasList": [
                    "20729"
                ],
                "LKHHGAGNMKM": "Cs_Emo_Avatar_Simple_Common_Set/Cs_Emo_Avatar_Talk/Cs_Emo_WorldQuest/Cs_Emo_IsLand_790/Cs_Emo_790210201",
                "AIMKGPFAAAD": "",
                "IPEKOEDCGGF": "",
                "EJNFMNJKDAH": "",
                "LOOOCOLIHFA": "",
                "KJDLMAPPPMG": "",
                "EKJHPKFBONG": [
                    3279779518191174313,
                    6720907255462667901,
                    4920175665014142437,
                    14898806930579577516
                ]
            },
            {
                "$type": "PBIGHFCHGCA",
                "type": "CAMERA_MOVE",
                "delayTime": 0.05000000074505806,
                "duration": 30.952999114990234,
                "actionId": 161,
                "KCFKJMMEECM": {
                    "x": 54.77000045776367,
                    "y": 144.8489990234375,
                    "z": -761.27001953125
                },
                "DLGJEHNPMFN": {
                    "x": 54.7599983215332,
                    "y": 144.18499755859375,
                    "z": -760.5230102539062
                },
                "NJCBGNHGINI": 30.0,
                "NECGMADJICG": "EaseOutQuad",
                "BMHIHPIKAHM": {},
                "MMJMMAEAJOA": true,
                "HGGPLEMCNNG": false,
                "JBODIEHINII": "",
                "PHDIKPKLFIA": true,
                "EJCHLMIMLBO": "",
                "BIMPIKMCIHB": "",
                "MCAOJPLIJGI": ""
            }
        ],
        [
            {
                "$type": "MoleMole.Config.ConfigLocalGadgetOP",
                "type": "LOCAL_GADGET_OP",
                "actionId": 184,
                "gadgetId": 70710743,
                "oprCode": 3,
                "slotName": "",
                "position": {
                    "x": 46.40999984741211,
                    "y": 120.0,
                    "z": -731.8499755859375
                },
                "euler": {
                    "y": 123.86499786376953
                },
                "gvKey": "is_talk"
            },
            {
                "$type": "CENEPJCONAG",
                "type": "BODY_LANG",
                "aliasList": [
                    "Avatar"
                ],
                "actionId": 175,
                "OGFPAIKLDGB": 1230,
                "MHDCNDAINCK": true,
                "LHIAJOBFNAK": false,
                "FOEKGLEJBIJ": ""
            },
            {
                "$type": "KAGAFALAIGP",
                "type": "DIALOG",
                "aliasList": [
                    "1005"
                ],
                "JHEPJOMJJHH": 790210202,
                "OCILKFCPBNC": 0.5
            },
            {
                "$type": "CENEPJCONAG",
                "type": "BODY_LANG",
                "aliasList": [
                    "1005"
                ],
                "actionId": 176,
                "OGFPAIKLDGB": 1280,
                "MHDCNDAINCK": true,
                "LHIAJOBFNAK": false,
                "FOEKGLEJBIJ": ""
            },
            {
                "$type": "LNLLGCOBDFC",
                "type": "EMO_SYNC",
                "aliasList": [
                    "1005"
                ],
                "LKHHGAGNMKM": "Cs_Emo_Avatar_Simple_Common_Set/Cs_Emo_Avatar_Talk/Cs_Emo_WorldQuest/Cs_Emo_IsLand_790/Cs_Emo_790210202",
                "AIMKGPFAAAD": "",
                "IPEKOEDCGGF": "",
                "EJNFMNJKDAH": "",
                "LOOOCOLIHFA": "",
                "KJDLMAPPPMG": "",
                "EKJHPKFBONG": [
                    11730067203586399637,
                    18413738191821794168,
                    6394606540550041242,
                    16143421677908213886
                ]
            },
            {
                "$type": "AAFOOOPNJLB",
                "type": "DIALOG_SELECT",
                "delayTime": 0.4000000059604645,
                "aliasList": [
                    "Avatar"
                ],
                "KFAEOBDAAME": [
                    790210203
                ],
                "ELPFMMBHOLF": [
                    895578162
                ],
                "OEAAKJDIEFD": true
            }
        ],
        [
            {
                "$type": "PBIGHFCHGCA",
                "type": "CAMERA_MOVE",
                "duration": 0.10000000149011612,
                "actionId": 161,
                "KCFKJMMEECM": {
                    "x": 53.6870002746582,
                    "y": 131.35899353027344,
                    "z": -750.0469970703125
                },
                "DLGJEHNPMFN": {
                    "x": 53.47200012207031,
                    "y": 130.81100463867188,
                    "z": -749.2379760742188
                },
                "NJCBGNHGINI": 30.0,
                "FNMFGIOLKBE": 6,
                "NECGMADJICG": "EaseInOutCubic",
                "BMHIHPIKAHM": {},
                "MMJMMAEAJOA": true,
                "HGGPLEMCNNG": false,
                "JBODIEHINII": "",
                "PHDIKPKLFIA": true,
                "EJCHLMIMLBO": "",
                "BIMPIKMCIHB": "",
                "MCAOJPLIJGI": ""
            },
            {
                "$type": "KAGAFALAIGP",
                "type": "DIALOG",
                "aliasList": [
                    "1005"
                ],
                "JHEPJOMJJHH": 790210204,
                "OCILKFCPBNC": 0.5
            },
            {
                "$type": "CENEPJCONAG",
                "type": "BODY_LANG",
                "aliasList": [
                    "1005"
                ],
                "actionId": 179,
                "OGFPAIKLDGB": 1120,
                "MHDCNDAINCK": true,
                "LHIAJOBFNAK": false,
                "FOEKGLEJBIJ": ""
            },
            {
                "$type": "LNLLGCOBDFC",
                "type": "EMO_SYNC",
                "aliasList": [
                    "1005"
                ],
                "LKHHGAGNMKM": "Cs_Emo_Avatar_Simple_Common_Set/Cs_Emo_Avatar_Talk/Cs_Emo_WorldQuest/Cs_Emo_IsLand_790/Cs_Emo_790210204",
                "AIMKGPFAAAD": "",
                "IPEKOEDCGGF": "",
                "EJNFMNJKDAH": "",
                "LOOOCOLIHFA": "",
                "KJDLMAPPPMG": "",
                "EKJHPKFBONG": [
                    11606860732610144018,
                    17067772680537871669,
                    2384895607263067889,
                    9905550350536488383
                ]
            },
            {
                "$type": "PBIGHFCHGCA",
                "type": "CAMERA_MOVE",
                "delayTime": 0.05000000074505806,
                "duration": 12.116999626159668,
                "actionId": 161,
                "KCFKJMMEECM": {
                    "x": 51.354000091552734,
                    "y": 129.82200622558594,
                    "z": -747.9539794921875
                },
                "DLGJEHNPMFN": {
                    "x": 51.2130012512207,
                    "y": 129.2740020751953,
                    "z": -747.1290283203125
                },
                "NJCBGNHGINI": 30.0,
                "NECGMADJICG": "EaseOutQuad",
                "BMHIHPIKAHM": {},
                "MMJMMAEAJOA": true,
                "HGGPLEMCNNG": false,
                "JBODIEHINII": "",
                "PHDIKPKLFIA": true,
                "EJCHLMIMLBO": "",
                "BIMPIKMCIHB": "",
                "MCAOJPLIJGI": ""
            }
        ],
        [
            {
                "$type": "MoleMole.Config.ConfigLocalGadgetOP",
                "type": "LOCAL_GADGET_OP",
                "actionId": 184,
                "gadgetId": 70710743,
                "oprCode": 3,
                "slotName": "",
                "position": {
                    "x": 46.40999984741211,
                    "y": 120.0,
                    "z": -731.8499755859375
                },
                "euler": {
                    "y": 123.86499786376953
                },
                "gvKey": "is_talk",
                "gvValue": 1.0
            },
            {
                "$type": "KAGAFALAIGP",
                "type": "DIALOG",
                "aliasList": [
                    "20729"
                ],
                "JHEPJOMJJHH": 790210205,
                "OCILKFCPBNC": 0.5
            },
            {
                "$type": "LNLLGCOBDFC",
                "type": "EMO_SYNC",
                "aliasList": [
                    "20729"
                ],
                "LKHHGAGNMKM": "Cs_Emo_Avatar_Simple_Common_Set/Cs_Emo_Avatar_Talk/Cs_Emo_WorldQuest/Cs_Emo_IsLand_790/Cs_Emo_790210205",
                "AIMKGPFAAAD": "",
                "IPEKOEDCGGF": "",
                "EJNFMNJKDAH": "",
                "LOOOCOLIHFA": "",
                "KJDLMAPPPMG": "",
                "EKJHPKFBONG": [
                    16024886357542824043,
                    7546936429835700114,
                    6451432542653306398,
                    8666475443555847466
                ]
            }
        ],
        [
            {
                "$type": "PBIGHFCHGCA",
                "type": "CAMERA_MOVE",
                "duration": 0.10000000149011612,
                "actionId": 161,
                "KCFKJMMEECM": {
                    "x": 49.250999450683594,
                    "y": 121.03700256347656,
                    "z": -738.8389892578125
                },
                "DLGJEHNPMFN": {
                    "x": 48.99300003051758,
                    "y": 120.93199920654297,
                    "z": -737.8790283203125
                },
                "NJCBGNHGINI": 30.0,
                "FNMFGIOLKBE": 6,
                "NECGMADJICG": "EaseInOutCubic",
                "BMHIHPIKAHM": {},
                "MMJMMAEAJOA": true,
                "HGGPLEMCNNG": false,
                "JBODIEHINII": "",
                "PHDIKPKLFIA": true,
                "EJCHLMIMLBO": "",
                "BIMPIKMCIHB": "",
                "MCAOJPLIJGI": ""
            },
            {
                "$type": "KAGAFALAIGP",
                "type": "DIALOG",
                "aliasList": [
                    "20729"
                ],
                "JHEPJOMJJHH": 790210206,
                "OCILKFCPBNC": 0.5
            },
            {
                "$type": "LNLLGCOBDFC",
                "type": "EMO_SYNC",
                "aliasList": [
                    "20729"
                ],
                "LKHHGAGNMKM": "Cs_Emo_Avatar_Simple_Common_Set/Cs_Emo_Avatar_Talk/Cs_Emo_WorldQuest/Cs_Emo_IsLand_790/Cs_Emo_790210206",
                "AIMKGPFAAAD": "",
                "IPEKOEDCGGF": "",
                "EJNFMNJKDAH": "",
                "LOOOCOLIHFA": "",
                "KJDLMAPPPMG": "",
                "EKJHPKFBONG": [
                    7152455982293687513,
                    8846172285749754071,
                    10192364369522805802,
                    4843689464392591157
                ]
            },
            {
                "$type": "PBIGHFCHGCA",
                "type": "CAMERA_MOVE",
                "delayTime": 0.05000000074505806,
                "duration": 14.97599983215332,
                "actionId": 161,
                "KCFKJMMEECM": {
                    "x": 48.6879997253418,
                    "y": 121.072998046875,
                    "z": -738.5139770507812
                },
                "DLGJEHNPMFN": {
                    "x": 48.43000030517578,
                    "y": 120.96800231933594,
                    "z": -737.5540161132812
                },
                "NJCBGNHGINI": 30.0,
                "NECGMADJICG": "EaseOutQuad",
                "BMHIHPIKAHM": {},
                "MMJMMAEAJOA": true,
                "HGGPLEMCNNG": false,
                "JBODIEHINII": "",
                "PHDIKPKLFIA": true,
                "EJCHLMIMLBO": "",
                "BIMPIKMCIHB": "",
                "MCAOJPLIJGI": ""
            }
        ],
        [
            {
                "$type": "KAGAFALAIGP",
                "type": "DIALOG",
                "aliasList": [
                    "20729"
                ],
                "JHEPJOMJJHH": 790210207,
                "OCILKFCPBNC": 0.5
            },
            {
                "$type": "LNLLGCOBDFC",
                "type": "EMO_SYNC",
                "aliasList": [
                    "20729"
                ],
                "LKHHGAGNMKM": "Cs_Emo_Avatar_Simple_Common_Set/Cs_Emo_Avatar_Talk/Cs_Emo_WorldQuest/Cs_Emo_IsLand_790/Cs_Emo_790210207",
                "AIMKGPFAAAD": "",
                "IPEKOEDCGGF": "",
                "EJNFMNJKDAH": "",
                "LOOOCOLIHFA": "",
                "KJDLMAPPPMG": "",
                "EKJHPKFBONG": [
                    4205232869499402656,
                    14971440885037145107,
                    8973272710517695519,
                    10376562888248199694
                ]
            }
        ],
        [
            {
                "$type": "PBIGHFCHGCA",
                "type": "CAMERA_MOVE",
                "duration": 0.10000000149011612,
                "actionId": 161,
                "KCFKJMMEECM": {
                    "x": 40.50899887084961,
                    "y": 121.96900177001953,
                    "z": -731.5549926757812
                },
                "DLGJEHNPMFN": {
                    "x": 41.486000061035156,
                    "y": 121.80999755859375,
                    "z": -731.6959838867188
                },
                "NJCBGNHGINI": 20.0,
                "FNMFGIOLKBE": 6,
                "NECGMADJICG": "EaseInOutCubic",
                "BMHIHPIKAHM": {},
                "MMJMMAEAJOA": true,
                "HGGPLEMCNNG": false,
                "JBODIEHINII": "",
                "PHDIKPKLFIA": true,
                "EJCHLMIMLBO": "",
                "BIMPIKMCIHB": "",
                "MCAOJPLIJGI": ""
            },
            {
                "$type": "MoleMole.Config.ConfigLocalGadgetOP",
                "type": "LOCAL_GADGET_OP",
                "actionId": 184,
                "gadgetId": 70710743,
                "oprCode": 3,
                "slotName": "",
                "position": {
                    "x": 46.40999984741211,
                    "y": 120.0,
                    "z": -731.8499755859375
                },
                "euler": {
                    "y": 123.86499786376953
                },
                "gvKey": "is_talk"
            },
            {
                "$type": "LNLLGCOBDFC",
                "type": "EMO_SYNC",
                "aliasList": [
                    "Avatar"
                ],
                "actionId": 287,
                "LKHHGAGNMKM": "",
                "AIMKGPFAAAD": "Cs_Emo_Avatar_Common/Cs_Emo_Avatar_Angry01",
                "IPEKOEDCGGF": "Cs_Emo_Avatar_Common/Cs_Emo_Avatar_Angry01_B",
                "EJNFMNJKDAH": "",
                "LOOOCOLIHFA": "",
                "KJDLMAPPPMG": "",
                "IMIEGJDNPNN": [
                    14296606849723709100,
                    5508348580450379567,
                    7627497203169383327,
                    8979581647593659876
                ],
                "KIJHIMADJGM": [
                    12827270931485377071,
                    477271327041930928,
                    15631992893087520179,
                    3915791412555494663
                ]
            },
            {
                "$type": "KAGAFALAIGP",
                "type": "DIALOG",
                "aliasList": [
                    "1005"
                ],
                "JHEPJOMJJHH": 790210208,
                "OCILKFCPBNC": 0.5
            },
            {
                "$type": "CENEPJCONAG",
                "type": "BODY_LANG",
                "aliasList": [
                    "1005"
                ],
                "actionId": 182,
                "OGFPAIKLDGB": 1060,
                "MHDCNDAINCK": true,
                "LHIAJOBFNAK": false,
                "FOEKGLEJBIJ": ""
            },
            {
                "$type": "LNLLGCOBDFC",
                "type": "EMO_SYNC",
                "aliasList": [
                    "1005"
                ],
                "LKHHGAGNMKM": "Cs_Emo_Avatar_Simple_Common_Set/Cs_Emo_Avatar_Talk/Cs_Emo_WorldQuest/Cs_Emo_IsLand_790/Cs_Emo_790210208",
                "AIMKGPFAAAD": "",
                "IPEKOEDCGGF": "",
                "EJNFMNJKDAH": "",
                "LOOOCOLIHFA": "",
                "KJDLMAPPPMG": "",
                "EKJHPKFBONG": [
                    14332162729309257734,
                    9626148693007516817,
                    640759269359882500,
                    2244588591744146983
                ]
            },
            {
                "$type": "PBIGHFCHGCA",
                "type": "CAMERA_MOVE",
                "delayTime": 0.05000000074505806,
                "duration": 11.097999572753906,
                "actionId": 161,
                "KCFKJMMEECM": {
                    "x": 40.47200012207031,
                    "y": 121.85600280761719,
                    "z": -731.6099853515625
                },
                "DLGJEHNPMFN": {
                    "x": 41.44499969482422,
                    "y": 121.73899841308594,
                    "z": -731.8079833984375
                },
                "NJCBGNHGINI": 20.0,
                "NECGMADJICG": "EaseOutQuad",
                "BMHIHPIKAHM": {},
                "MMJMMAEAJOA": true,
                "HGGPLEMCNNG": false,
                "JBODIEHINII": "",
                "PHDIKPKLFIA": true,
                "EJCHLMIMLBO": "",
                "BIMPIKMCIHB": "",
                "MCAOJPLIJGI": ""
            }
        ],
        [
            {
                "$type": "MoleMole.Config.ConfigLocalGadgetOP",
                "type": "LOCAL_GADGET_OP",
                "actionId": 184,
                "gadgetId": 70710743,
                "oprCode": 3,
                "slotName": "",
                "position": {
                    "x": 46.40999984741211,
                    "y": 120.0,
                    "z": -731.8499755859375
                },
                "euler": {
                    "y": 123.86499786376953
                },
                "gvKey": "is_talk",
                "gvValue": 1.0
            },
            {
                "$type": "KAGAFALAIGP",
                "type": "DIALOG",
                "aliasList": [
                    "20729"
                ],
                "JHEPJOMJJHH": 790210209,
                "OCILKFCPBNC": 0.5
            },
            {
                "$type": "LNLLGCOBDFC",
                "type": "EMO_SYNC",
                "aliasList": [
                    "20729"
                ],
                "LKHHGAGNMKM": "Cs_Emo_Avatar_Simple_Common_Set/Cs_Emo_Avatar_Talk/Cs_Emo_WorldQuest/Cs_Emo_IsLand_790/Cs_Emo_790210209",
                "AIMKGPFAAAD": "",
                "IPEKOEDCGGF": "",
                "EJNFMNJKDAH": "",
                "LOOOCOLIHFA": "",
                "KJDLMAPPPMG": "",
                "EKJHPKFBONG": [
                    9751644169721652207,
                    7568906163878992035,
                    15936058553517838277,
                    1360415137204360956
                ]
            },
            {
                "$type": "CENEPJCONAG",
                "type": "BODY_LANG",
                "delayTime": 0.26899999380111694,
                "aliasList": [
                    "1005"
                ],
                "actionId": 190,
                "NNKEOHJCPOF": true,
                "MHDCNDAINCK": true,
                "LHIAJOBFNAK": false,
                "FOEKGLEJBIJ": ""
            }
        ],
        [
            {
                "$type": "PBIGHFCHGCA",
                "type": "CAMERA_MOVE",
                "duration": 0.10000000149011612,
                "actionId": 161,
                "KCFKJMMEECM": {
                    "x": 50.599998474121094,
                    "y": 121.37100219726562,
                    "z": -735.2410278320312
                },
                "DLGJEHNPMFN": {
                    "x": 51.48500061035156,
                    "y": 121.25399780273438,
                    "z": -735.6909790039062
                },
                "NJCBGNHGINI": 20.0,
                "FNMFGIOLKBE": 6,
                "NECGMADJICG": "EaseInOutCubic",
                "BMHIHPIKAHM": {},
                "MMJMMAEAJOA": true,
                "HGGPLEMCNNG": false,
                "JBODIEHINII": "",
                "PHDIKPKLFIA": true,
                "EJCHLMIMLBO": "",
                "BIMPIKMCIHB": "",
                "MCAOJPLIJGI": ""
            },
            {
                "$type": "MoleMole.Config.ConfigLocalGadgetOP",
                "type": "LOCAL_GADGET_OP",
                "actionId": 184,
                "gadgetId": 70710743,
                "oprCode": 3,
                "slotName": "",
                "position": {
                    "x": 46.40999984741211,
                    "y": 120.0,
                    "z": -731.8499755859375
                },
                "euler": {
                    "y": 123.86499786376953
                },
                "gvKey": "is_talk"
            },
            {
                "$type": "KAGAFALAIGP",
                "type": "DIALOG",
                "aliasList": [
                    "1005"
                ],
                "JHEPJOMJJHH": 790210210,
                "OCILKFCPBNC": 0.5
            },
            {
                "$type": "CENEPJCONAG",
                "type": "BODY_LANG",
                "aliasList": [
                    "1005"
                ],
                "actionId": 190,
                "OGFPAIKLDGB": 1170,
                "MHDCNDAINCK": true,
                "LHIAJOBFNAK": false,
                "FOEKGLEJBIJ": ""
            },
            {
                "$type": "LNLLGCOBDFC",
                "type": "EMO_SYNC",
                "aliasList": [
                    "1005"
                ],
                "LKHHGAGNMKM": "Cs_Emo_Avatar_Simple_Common_Set/Cs_Emo_Avatar_Talk/Cs_Emo_WorldQuest/Cs_Emo_IsLand_790/Cs_Emo_790210210",
                "AIMKGPFAAAD": "",
                "IPEKOEDCGGF": "",
                "EJNFMNJKDAH": "",
                "LOOOCOLIHFA": "",
                "KJDLMAPPPMG": "",
                "EKJHPKFBONG": [
                    173438231371244527,
                    10607444777734130502,
                    6866596175003758930,
                    1550731402270044330
                ]
            },
            {
                "$type": "CENEPJCONAG",
                "type": "BODY_LANG",
                "delayTime": 1.569000005722046,
                "aliasList": [
                    "1005"
                ],
                "actionId": 290,
                "NNKEOHJCPOF": true,
                "MHDCNDAINCK": true,
                "LHIAJOBFNAK": false,
                "FOEKGLEJBIJ": ""
            },
            {
                "$type": "CENEPJCONAG",
                "type": "BODY_LANG",
                "delayTime": 2.0789999961853027,
                "aliasList": [
                    "1005"
                ],
                "actionId": 191,
                "OGFPAIKLDGB": 1230,
                "MHDCNDAINCK": true,
                "LHIAJOBFNAK": false,
                "FOEKGLEJBIJ": ""
            }
        ],
        [
            {
                "$type": "PBIGHFCHGCA",
                "type": "CAMERA_MOVE",
                "duration": 0.10000000149011612,
                "actionId": 161,
                "KCFKJMMEECM": {
                    "x": 50.231998443603516,
                    "y": 121.18399810791016,
                    "z": -734.8109741210938
                },
                "DLGJEHNPMFN": {
                    "x": 51.15399932861328,
                    "y": 121.14099884033203,
                    "z": -735.1959838867188
                },
                "NJCBGNHGINI": 30.0,
                "FNMFGIOLKBE": 6,
                "NECGMADJICG": "EaseInOutCubic",
                "BMHIHPIKAHM": {},
                "MMJMMAEAJOA": true,
                "HGGPLEMCNNG": false,
                "JBODIEHINII": "",
                "PHDIKPKLFIA": true,
                "EJCHLMIMLBO": "",
                "BIMPIKMCIHB": "",
                "MCAOJPLIJGI": ""
            },
            {
                "$type": "MoleMole.Config.ConfigTeleportToAction",
                "type": "TELEPORT_TO",
                "aliasList": [
                    "Avatar"
                ],
                "actionId": 197,
                "position": {
                    "x": 52.24800109863281,
                    "y": 119.95600128173828,
                    "z": -735.1580200195312
                },
                "forward": {
                    "x": -0.9750000238418579,
                    "z": 0.23999999463558197
                },
                "openLongDisTeleport": true,
                "posBindMovingTargetKey": "",
                "forwardBindMovingTargetKey": ""
            },
            {
                "$type": "KAGAFALAIGP",
                "type": "DIALOG",
                "aliasList": [
                    "1005"
                ],
                "JHEPJOMJJHH": 790210211,
                "OCILKFCPBNC": 1.0
            },
            {
                "$type": "CENEPJCONAG",
                "type": "BODY_LANG",
                "aliasList": [
                    "1005"
                ],
                "actionId": 193,
                "NNKEOHJCPOF": true,
                "MHDCNDAINCK": true,
                "LHIAJOBFNAK": false,
                "FOEKGLEJBIJ": ""
            },
            {
                "$type": "FNPNDPFBBDD",
                "type": "LOOK_AT",
                "aliasList": [
                    "1005"
                ],
                "actionId": 195,
                "NKGFDJDHOBD": true,
                "useTargetPos": true,
                "LBJHJADMNBD": true,
                "EKIONHAEIBG": {
                    "x": 51.763999938964844,
                    "y": 121.28399658203125,
                    "z": -735.093017578125
                },
                "MNOPLOBEFLB": 0.5,
                "JBODIEHINII": "",
                "CFPBIOLLOCO": "NONE",
                "LPCACGGCDLI": "",
                "NNFPFPOJJOJ": ""
            },
            {
                "$type": "LNLLGCOBDFC",
                "type": "EMO_SYNC",
                "aliasList": [
                    "1005"
                ],
                "LKHHGAGNMKM": "Cs_Emo_Avatar_Simple_Common_Set/Cs_Emo_Avatar_Talk/Cs_Emo_WorldQuest/Cs_Emo_IsLand_790/Cs_Emo_790210211",
                "AIMKGPFAAAD": "",
                "IPEKOEDCGGF": "",
                "EJNFMNJKDAH": "",
                "LOOOCOLIHFA": "",
                "KJDLMAPPPMG": "",
                "EKJHPKFBONG": [
                    17048659283751517397,
                    10603422331653360934,
                    5977234185296597728,
                    15814706103054495060
                ]
            },
            {
                "$type": "FNPNDPFBBDD",
                "type": "LOOK_AT",
                "delayTime": 0.30000001192092896,
                "aliasList": [
                    "Avatar"
                ],
                "actionId": 195,
                "NKGFDJDHOBD": true,
                "useTargetPos": true,
                "LBJHJADMNBD": true,
                "EKIONHAEIBG": {
                    "x": 51.78499984741211,
                    "y": 121.28399658203125,
                    "z": -735.448974609375
                },
                "MNOPLOBEFLB": 0.5,
                "JBODIEHINII": "",
                "CFPBIOLLOCO": "NONE",
                "LPCACGGCDLI": "",
                "NNFPFPOJJOJ": ""
            },
            {
                "$type": "CENEPJCONAG",
                "type": "BODY_LANG",
                "delayTime": 0.30000001192092896,
                "aliasList": [
                    "1005"
                ],
                "actionId": 199,
                "OGFPAIKLDGB": 1180,
                "MHDCNDAINCK": true,
                "LHIAJOBFNAK": false,
                "FOEKGLEJBIJ": ""
            },
            {
                "$type": "LNLLGCOBDFC",
                "type": "EMO_SYNC",
                "delayTime": 0.38600000739097595,
                "aliasList": [
                    "Avatar"
                ],
                "actionId": 291,
                "LKHHGAGNMKM": "",
                "AIMKGPFAAAD": "Cs_Emo_Avatar_Common/Cs_Emo_Avatar_Default01",
                "IPEKOEDCGGF": "Cs_Emo_Avatar_Common/Cs_Emo_Avatar_Default01_B",
                "EJNFMNJKDAH": "",
                "LOOOCOLIHFA": "",
                "KJDLMAPPPMG": "",
                "IMIEGJDNPNN": [
                    1010565500959774114,
                    17914558573000180712,
                    14498871351621154070,
                    14348654671849899985
                ],
                "KIJHIMADJGM": [
                    12199605016063642592,
                    6659610500948409138,
                    10783156204328777859,
                    13383650154785247612
                ]
            },
            {
                "$type": "CENEPJCONAG",
                "type": "BODY_LANG",
                "delayTime": 0.4000000059604645,
                "aliasList": [
                    "Avatar"
                ],
                "actionId": 198,
                "NNKEOHJCPOF": true,
                "MHDCNDAINCK": true,
                "LHIAJOBFNAK": false,
                "FOEKGLEJBIJ": ""
            },
            {
                "$type": "AAFOOOPNJLB",
                "type": "DIALOG_SELECT",
                "delayTime": 1.0,
                "aliasList": [
                    "Avatar"
                ],
                "KFAEOBDAAME": [
                    790210212,
                    790210215
                ],
                "ELPFMMBHOLF": [
                    1993119203,
                    1993119205
                ],
                "OEAAKJDIEFD": true
            },
            {
                "$type": "CENEPJCONAG",
                "type": "BODY_LANG",
                "delayTime": 1.9199999570846558,
                "aliasList": [
                    "1005"
                ],
                "actionId": 200,
                "OGFPAIKLDGB": 1170,
                "MHDCNDAINCK": true,
                "LHIAJOBFNAK": false,
                "FOEKGLEJBIJ": ""
            },
            {
                "$type": "CENEPJCONAG",
                "type": "BODY_LANG",
                "delayTime": 3.746999979019165,
                "aliasList": [
                    "1005"
                ],
                "actionId": 302,
                "NNKEOHJCPOF": true,
                "MHDCNDAINCK": true,
                "LHIAJOBFNAK": false,
                "FOEKGLEJBIJ": ""
            }
        ],
        [
            {
                "$type": "PBIGHFCHGCA",
                "type": "CAMERA_MOVE",
                "duration": 0.10000000149011612,
                "actionId": 161,
                "KCFKJMMEECM": {
                    "x": 53.15599822998047,
                    "y": 121.34200286865234,
                    "z": -736.2999877929688
                },
                "DLGJEHNPMFN": {
                    "x": 52.33700180053711,
                    "y": 121.21600341796875,
                    "z": -735.739990234375
                },
                "NJCBGNHGINI": 30.0,
                "FNMFGIOLKBE": 6,
                "NECGMADJICG": "EaseInOutCubic",
                "BMHIHPIKAHM": {},
                "MMJMMAEAJOA": true,
                "HGGPLEMCNNG": false,
                "JBODIEHINII": "",
                "PHDIKPKLFIA": true,
                "EJCHLMIMLBO": "",
                "BIMPIKMCIHB": "",
                "MCAOJPLIJGI": ""
            },
            {
                "$type": "MoleMole.Config.ConfigLocalGadgetOP",
                "type": "LOCAL_GADGET_OP",
                "actionId": 184,
                "gadgetId": 70710743,
                "oprCode": 3,
                "slotName": "",
                "position": {
                    "x": 46.40999984741211,
                    "y": 120.0,
                    "z": -731.8499755859375
                },
                "euler": {
                    "y": 123.86499786376953
                },
                "gvKey": "is_talk",
                "gvValue": 1.0
            },
            {
                "$type": "FNPNDPFBBDD",
                "type": "LOOK_AT",
                "aliasList": [
                    "Avatar"
                ],
                "actionId": 195,
                "NKGFDJDHOBD": true,
                "useTargetPos": true,
                "LBJHJADMNBD": true,
                "EKIONHAEIBG": {
                    "x": 46.89799880981445,
                    "y": 121.28399658203125,
                    "z": -732.4140014648438
                },
                "MNOPLOBEFLB": 0.5,
                "JBODIEHINII": "",
                "CFPBIOLLOCO": "NONE",
                "LPCACGGCDLI": "",
                "NNFPFPOJJOJ": ""
            },
            {
                "$type": "KAGAFALAIGP",
                "type": "DIALOG",
                "aliasList": [
                    "20729"
                ],
                "JHEPJOMJJHH": 790210213,
                "OCILKFCPBNC": 0.5
            },
            {
                "$type": "LNLLGCOBDFC",
                "type": "EMO_SYNC",
                "aliasList": [
                    "20729"
                ],
                "LKHHGAGNMKM": "Cs_Emo_Avatar_Simple_Common_Set/Cs_Emo_Avatar_Talk/Cs_Emo_WorldQuest/Cs_Emo_IsLand_790/Cs_Emo_790210213",
                "AIMKGPFAAAD": "",
                "IPEKOEDCGGF": "",
                "EJNFMNJKDAH": "",
                "LOOOCOLIHFA": "",
                "KJDLMAPPPMG": "",
                "EKJHPKFBONG": [
                    12403760150810528294,
                    14816005702905438746,
                    9438214442816715814,
                    13822951151228737064
                ]
            },
            {
                "$type": "CENEPJCONAG",
                "type": "BODY_LANG",
                "aliasList": [
                    "1005"
                ],
                "actionId": 200,
                "NNKEOHJCPOF": true,
                "MHDCNDAINCK": true,
                "LHIAJOBFNAK": false,
                "FOEKGLEJBIJ": ""
            },
            {
                "$type": "FNPNDPFBBDD",
                "type": "LOOK_AT",
                "aliasList": [
                    "1005"
                ],
                "actionId": 195,
                "NKGFDJDHOBD": true,
                "useTargetPos": true,
                "LBJHJADMNBD": true,
                "EKIONHAEIBG": {
                    "x": 47.78200149536133,
                    "y": 121.28399658203125,
                    "z": -732.2239990234375
                },
                "MNOPLOBEFLB": 0.5,
                "JBODIEHINII": "",
                "CFPBIOLLOCO": "NONE",
                "LPCACGGCDLI": "",
                "NNFPFPOJJOJ": ""
            },
            {
                "$type": "PBIGHFCHGCA",
                "type": "CAMERA_MOVE",
                "delayTime": 0.05000000074505806,
                "duration": 10.47599983215332,
                "actionId": 161,
                "KCFKJMMEECM": {
                    "x": 52.90299987792969,
                    "y": 121.3030014038086,
                    "z": -736.1270141601562
                },
                "DLGJEHNPMFN": {
                    "x": 52.08399963378906,
                    "y": 121.177001953125,
                    "z": -735.5670166015625
                },
                "NJCBGNHGINI": 30.0,
                "NECGMADJICG": "EaseOutQuad",
                "BMHIHPIKAHM": {},
                "MMJMMAEAJOA": true,
                "HGGPLEMCNNG": false,
                "JBODIEHINII": "",
                "PHDIKPKLFIA": true,
                "EJCHLMIMLBO": "",
                "BIMPIKMCIHB": "",
                "MCAOJPLIJGI": ""
            }
        ],
        [
            {
                "$type": "KAGAFALAIGP",
                "type": "DIALOG",
                "aliasList": [
                    "20729"
                ],
                "JHEPJOMJJHH": 790210214,
                "OCILKFCPBNC": 0.5
            },
            {
                "$type": "LNLLGCOBDFC",
                "type": "EMO_SYNC",
                "aliasList": [
                    "20729"
                ],
                "LKHHGAGNMKM": "Cs_Emo_Avatar_Simple_Common_Set/Cs_Emo_Avatar_Talk/Cs_Emo_WorldQuest/Cs_Emo_IsLand_790/Cs_Emo_790210214",
                "AIMKGPFAAAD": "",
                "IPEKOEDCGGF": "",
                "EJNFMNJKDAH": "",
                "LOOOCOLIHFA": "",
                "KJDLMAPPPMG": "",
                "EKJHPKFBONG": [
                    4761383744050392330,
                    12581664094036269121,
                    9552618333061031497,
                    13376935859769812719
                ]
            }
        ],
        [
            {
                "$type": "PBIGHFCHGCA",
                "type": "CAMERA_MOVE",
                "duration": 0.10000000149011612,
                "actionId": 161,
                "KCFKJMMEECM": {
                    "x": 53.15599822998047,
                    "y": 121.34200286865234,
                    "z": -736.2999877929688
                },
                "DLGJEHNPMFN": {
                    "x": 52.33700180053711,
                    "y": 121.21600341796875,
                    "z": -735.739990234375
                },
                "NJCBGNHGINI": 30.0,
                "FNMFGIOLKBE": 6,
                "NECGMADJICG": "EaseInOutCubic",
                "BMHIHPIKAHM": {},
                "MMJMMAEAJOA": true,
                "HGGPLEMCNNG": false,
                "JBODIEHINII": "",
                "PHDIKPKLFIA": true,
                "EJCHLMIMLBO": "",
                "BIMPIKMCIHB": "",
                "MCAOJPLIJGI": ""
            },
            {
                "$type": "MoleMole.Config.ConfigLocalGadgetOP",
                "type": "LOCAL_GADGET_OP",
                "actionId": 184,
                "gadgetId": 70710743,
                "oprCode": 3,
                "slotName": "",
                "position": {
                    "x": 46.40999984741211,
                    "y": 120.0,
                    "z": -731.8499755859375
                },
                "euler": {
                    "y": 123.86499786376953
                },
                "gvKey": "is_talk",
                "gvValue": 1.0
            },
            {
                "$type": "FNPNDPFBBDD",
                "type": "LOOK_AT",
                "aliasList": [
                    "Avatar"
                ],
                "actionId": 195,
                "NKGFDJDHOBD": true,
                "useTargetPos": true,
                "LBJHJADMNBD": true,
                "EKIONHAEIBG": {
                    "x": 46.89799880981445,
                    "y": 121.28399658203125,
                    "z": -732.4140014648438
                },
                "MNOPLOBEFLB": 0.5,
                "JBODIEHINII": "",
                "CFPBIOLLOCO": "NONE",
                "LPCACGGCDLI": "",
                "NNFPFPOJJOJ": ""
            },
            {
                "$type": "KAGAFALAIGP",
                "type": "DIALOG",
                "aliasList": [
                    "20729"
                ],
                "JHEPJOMJJHH": 790210216,
                "OCILKFCPBNC": 0.5
            },
            {
                "$type": "LNLLGCOBDFC",
                "type": "EMO_SYNC",
                "aliasList": [
                    "20729"
                ],
                "LKHHGAGNMKM": "Cs_Emo_Avatar_Simple_Common_Set/Cs_Emo_Avatar_Talk/Cs_Emo_WorldQuest/Cs_Emo_IsLand_790/Cs_Emo_790210216",
                "AIMKGPFAAAD": "",
                "IPEKOEDCGGF": "",
                "EJNFMNJKDAH": "",
                "LOOOCOLIHFA": "",
                "KJDLMAPPPMG": "",
                "EKJHPKFBONG": [
                    5258925227802460336,
                    7610738142554279620,
                    8024908484668814733,
                    9108057890606922861
                ]
            },
            {
                "$type": "FNPNDPFBBDD",
                "type": "LOOK_AT",
                "aliasList": [
                    "1005"
                ],
                "actionId": 195,
                "NKGFDJDHOBD": true,
                "useTargetPos": true,
                "LBJHJADMNBD": true,
                "EKIONHAEIBG": {
                    "x": 47.78200149536133,
                    "y": 121.28399658203125,
                    "z": -732.2239990234375
                },
                "MNOPLOBEFLB": 0.5,
                "JBODIEHINII": "",
                "CFPBIOLLOCO": "NONE",
                "LPCACGGCDLI": "",
                "NNFPFPOJJOJ": ""
            },
            {
                "$type": "CENEPJCONAG",
                "type": "BODY_LANG",
                "aliasList": [
                    "1005"
                ],
                "actionId": 200,
                "NNKEOHJCPOF": true,
                "MHDCNDAINCK": true,
                "LHIAJOBFNAK": false,
                "FOEKGLEJBIJ": ""
            },
            {
                "$type": "PBIGHFCHGCA",
                "type": "CAMERA_MOVE",
                "delayTime": 0.05000000074505806,
                "duration": 11.833999633789062,
                "actionId": 161,
                "KCFKJMMEECM": {
                    "x": 52.90299987792969,
                    "y": 121.3030014038086,
                    "z": -736.1270141601562
                },
                "DLGJEHNPMFN": {
                    "x": 52.08399963378906,
                    "y": 121.177001953125,
                    "z": -735.5670166015625
                },
                "NJCBGNHGINI": 30.0,
                "NECGMADJICG": "EaseOutQuad",
                "BMHIHPIKAHM": {},
                "MMJMMAEAJOA": true,
                "HGGPLEMCNNG": false,
                "JBODIEHINII": "",
                "PHDIKPKLFIA": true,
                "EJCHLMIMLBO": "",
                "BIMPIKMCIHB": "",
                "MCAOJPLIJGI": ""
            }
        ],
        [
            {
                "$type": "KAGAFALAIGP",
                "type": "DIALOG",
                "aliasList": [
                    "20729"
                ],
                "JHEPJOMJJHH": 790210217,
                "OCILKFCPBNC": 0.5
            },
            {
                "$type": "LNLLGCOBDFC",
                "type": "EMO_SYNC",
                "aliasList": [
                    "20729"
                ],
                "LKHHGAGNMKM": "Cs_Emo_Avatar_Simple_Common_Set/Cs_Emo_Avatar_Talk/Cs_Emo_WorldQuest/Cs_Emo_IsLand_790/Cs_Emo_790210217",
                "AIMKGPFAAAD": "",
                "IPEKOEDCGGF": "",
                "EJNFMNJKDAH": "",
                "LOOOCOLIHFA": "",
                "KJDLMAPPPMG": "",
                "EKJHPKFBONG": [
                    1180246594535739004,
                    5306506206675568418,
                    6288482047128125449,
                    17073627168641514690
                ]
            }
        ],
        [
            {
                "$type": "PBIGHFCHGCA",
                "type": "CAMERA_MOVE",
                "duration": 0.10000000149011612,
                "actionId": 161,
                "KCFKJMMEECM": {
                    "x": 50.599998474121094,
                    "y": 121.30899810791016,
                    "z": -734.6500244140625
                },
                "DLGJEHNPMFN": {
                    "x": 49.77799987792969,
                    "y": 121.15599822998047,
                    "z": -734.1019897460938
                },
                "NJCBGNHGINI": 20.0,
                "FNMFGIOLKBE": 6,
                "NECGMADJICG": "EaseInOutCubic",
                "BMHIHPIKAHM": {},
                "MMJMMAEAJOA": true,
                "HGGPLEMCNNG": false,
                "JBODIEHINII": "",
                "PHDIKPKLFIA": true,
                "EJCHLMIMLBO": "",
                "BIMPIKMCIHB": "",
                "MCAOJPLIJGI": ""
            },
            {
                "$type": "KAGAFALAIGP",
                "type": "DIALOG",
                "aliasList": [
                    "20729"
                ],
                "JHEPJOMJJHH": 790210218,
                "OCILKFCPBNC": 0.5
            },
            {
                "$type": "LNLLGCOBDFC",
                "type": "EMO_SYNC",
                "aliasList": [
                    "20729"
                ],
                "LKHHGAGNMKM": "Cs_Emo_Avatar_Simple_Common_Set/Cs_Emo_Avatar_Talk/Cs_Emo_WorldQuest/Cs_Emo_IsLand_790/Cs_Emo_790210218",
                "AIMKGPFAAAD": "",
                "IPEKOEDCGGF": "",
                "EJNFMNJKDAH": "",
                "LOOOCOLIHFA": "",
                "KJDLMAPPPMG": "",
                "EKJHPKFBONG": [
                    6376348905233777257,
                    14059257608881774823,
                    3084529409879160097,
                    9336489371951265883
                ]
            },
            {
                "$type": "PBIGHFCHGCA",
                "type": "CAMERA_MOVE",
                "delayTime": 0.04899999871850014,
                "duration": 10.906000137329102,
                "actionId": 161,
                "KCFKJMMEECM": {
                    "x": 50.25699996948242,
                    "y": 121.24600219726562,
                    "z": -734.4210205078125
                },
                "DLGJEHNPMFN": {
                    "x": 49.435001373291016,
                    "y": 121.09300231933594,
                    "z": -733.8729858398438
                },
                "NJCBGNHGINI": 20.0,
                "NECGMADJICG": "EaseOutQuad",
                "BMHIHPIKAHM": {},
                "MMJMMAEAJOA": true,
                "HGGPLEMCNNG": false,
                "JBODIEHINII": "",
                "PHDIKPKLFIA": true,
                "EJCHLMIMLBO": "",
                "BIMPIKMCIHB": "",
                "MCAOJPLIJGI": ""
            }
        ],
        [
            {
                "$type": "PBIGHFCHGCA",
                "type": "CAMERA_MOVE",
                "duration": 0.10000000149011612,
                "actionId": 161,
                "KCFKJMMEECM": {
                    "x": 50.84000015258789,
                    "y": 121.25599670410156,
                    "z": -734.9119873046875
                },
                "DLGJEHNPMFN": {
                    "x": 51.52799987792969,
                    "y": 121.23999786376953,
                    "z": -735.6380004882812
                },
                "NJCBGNHGINI": 20.0,
                "FNMFGIOLKBE": 6,
                "NECGMADJICG": "EaseInOutCubic",
                "BMHIHPIKAHM": {},
                "MMJMMAEAJOA": true,
                "HGGPLEMCNNG": false,
                "JBODIEHINII": "",
                "PHDIKPKLFIA": true,
                "EJCHLMIMLBO": "",
                "BIMPIKMCIHB": "",
                "MCAOJPLIJGI": ""
            },
            {
                "$type": "MoleMole.Config.ConfigLocalGadgetOP",
                "type": "LOCAL_GADGET_OP",
                "actionId": 184,
                "gadgetId": 70710743,
                "oprCode": 3,
                "slotName": "",
                "position": {
                    "x": 46.40999984741211,
                    "y": 120.0,
                    "z": -731.8499755859375
                },
                "euler": {
                    "y": 123.86499786376953
                },
                "gvKey": "is_talk"
            },
            {
                "$type": "FNPNDPFBBDD",
                "type": "LOOK_AT",
                "aliasList": [
                    "Avatar"
                ],
                "actionId": 195,
                "NKGFDJDHOBD": true,
                "useTargetPos": true,
                "LBJHJADMNBD": true,
                "EKIONHAEIBG": {
                    "x": 51.78499984741211,
                    "y": 121.28399658203125,
                    "z": -735.448974609375
                },
                "MNOPLOBEFLB": 0.5,
                "JBODIEHINII": "",
                "CFPBIOLLOCO": "NONE",
                "LPCACGGCDLI": "",
                "NNFPFPOJJOJ": ""
            },
            {
                "$type": "KAGAFALAIGP",
                "type": "DIALOG",
                "aliasList": [
                    "1005"
                ],
                "JHEPJOMJJHH": 790210219,
                "OCILKFCPBNC": 0.5
            },
            {
                "$type": "LNLLGCOBDFC",
                "type": "EMO_SYNC",
                "aliasList": [
                    "1005"
                ],
                "LKHHGAGNMKM": "Cs_Emo_Avatar_Simple_Common_Set/Cs_Emo_Avatar_Talk/Cs_Emo_WorldQuest/Cs_Emo_IsLand_790/Cs_Emo_790210219",
                "AIMKGPFAAAD": "",
                "IPEKOEDCGGF": "",
                "EJNFMNJKDAH": "",
                "LOOOCOLIHFA": "",
                "KJDLMAPPPMG": "",
                "EKJHPKFBONG": [
                    3928690325924509604,
                    7281543581880314001,
                    9157181603738226159,
                    16491229569091344035
                ]
            },
            {
                "$type": "CENEPJCONAG",
                "type": "BODY_LANG",
                "aliasList": [
                    "1005"
                ],
                "actionId": 292,
                "OGFPAIKLDGB": 1050,
                "MHDCNDAINCK": true,
                "LHIAJOBFNAK": false,
                "FOEKGLEJBIJ": ""
            },
            {
                "$type": "FNPNDPFBBDD",
                "type": "LOOK_AT",
                "aliasList": [
                    "1005"
                ],
                "actionId": 292,
                "MNOPLOBEFLB": 0.5,
                "JBODIEHINII": "",
                "LPCACGGCDLI": "",
                "NNFPFPOJJOJ": ""
            },
            {
                "$type": "CENEPJCONAG",
                "type": "BODY_LANG",
                "delayTime": 1.7869999408721924,
                "aliasList": [
                    "1005"
                ],
                "actionId": 294,
                "NNKEOHJCPOF": true,
                "MHDCNDAINCK": true,
                "LHIAJOBFNAK": false,
                "FOEKGLEJBIJ": ""
            },
            {
                "$type": "FNPNDPFBBDD",
                "type": "LOOK_AT",
                "delayTime": 1.8919999599456787,
                "aliasList": [
                    "1005"
                ],
                "actionId": 195,
                "NKGFDJDHOBD": true,
                "useTargetPos": true,
                "LBJHJADMNBD": true,
                "EKIONHAEIBG": {
                    "x": 47.78200149536133,
                    "y": 121.28399658203125,
                    "z": -732.2239990234375
                },
                "MNOPLOBEFLB": 0.5,
                "JBODIEHINII": "",
                "CFPBIOLLOCO": "NONE",
                "LPCACGGCDLI": "",
                "NNFPFPOJJOJ": ""
            },
            {
                "$type": "CENEPJCONAG",
                "type": "BODY_LANG",
                "delayTime": 2.802000045776367,
                "aliasList": [
                    "1005"
                ],
                "actionId": 214,
                "OGFPAIKLDGB": 1110,
                "MHDCNDAINCK": true,
                "LHIAJOBFNAK": false,
                "FOEKGLEJBIJ": ""
            },
            {
                "$type": "CENEPJCONAG",
                "type": "BODY_LANG",
                "delayTime": 4.776000022888184,
                "aliasList": [
                    "1005"
                ],
                "actionId": 215,
                "NNKEOHJCPOF": true,
                "MHDCNDAINCK": true,
                "LHIAJOBFNAK": false,
                "FOEKGLEJBIJ": ""
            }
        ],
        [
            {
                "$type": "KAGAFALAIGP",
                "type": "DIALOG",
                "aliasList": [
                    "1005"
                ],
                "JHEPJOMJJHH": 790210232,
                "OCILKFCPBNC": 0.5
            },
            {
                "$type": "CENEPJCONAG",
                "type": "BODY_LANG",
                "aliasList": [
                    "1005"
                ],
                "actionId": 212,
                "OGFPAIKLDGB": 1190,
                "MHDCNDAINCK": true,
                "LHIAJOBFNAK": false,
                "FOEKGLEJBIJ": ""
            },
            {
                "$type": "FNPNDPFBBDD",
                "type": "LOOK_AT",
                "aliasList": [
                    "1005"
                ],
                "actionId": 213,
                "MNOPLOBEFLB": 0.5,
                "JBODIEHINII": "",
                "LPCACGGCDLI": "",
                "NNFPFPOJJOJ": ""
            },
            {
                "$type": "LNLLGCOBDFC",
                "type": "EMO_SYNC",
                "aliasList": [
                    "1005"
                ],
                "LKHHGAGNMKM": "Cs_Emo_Avatar_Simple_Common_Set/Cs_Emo_Avatar_Talk/Cs_Emo_WorldQuest/Cs_Emo_IsLand_790/Cs_Emo_790210232",
                "AIMKGPFAAAD": "",
                "IPEKOEDCGGF": "",
                "EJNFMNJKDAH": "",
                "LOOOCOLIHFA": "",
                "KJDLMAPPPMG": "",
                "EKJHPKFBONG": [
                    13394168938832017128,
                    7194550202511164584,
                    13487188392854801339,
                    17286679870494120798
                ]
            },
            {
                "$type": "AAFOOOPNJLB",
                "type": "DIALOG_SELECT",
                "delayTime": 0.4000000059604645,
                "aliasList": [
                    "Avatar"
                ],
                "KFAEOBDAAME": [
                    790210220
                ],
                "ELPFMMBHOLF": [
                    1993119210
                ],
                "OEAAKJDIEFD": true
            }
        ],
        [
            {
                "$type": "PBIGHFCHGCA",
                "type": "CAMERA_MOVE",
                "duration": 0.10000000149011612,
                "actionId": 161,
                "KCFKJMMEECM": {
                    "x": 51.95100021362305,
                    "y": 121.26499938964844,
                    "z": -733.5700073242188
                },
                "DLGJEHNPMFN": {
                    "x": 51.97700119018555,
                    "y": 121.25499725341797,
                    "z": -734.5700073242188
                },
                "NJCBGNHGINI": 20.0,
                "FNMFGIOLKBE": 6,
                "NECGMADJICG": "EaseInOutCubic",
                "BMHIHPIKAHM": {},
                "MMJMMAEAJOA": true,
                "HGGPLEMCNNG": false,
                "JBODIEHINII": "",
                "PHDIKPKLFIA": true,
                "EJCHLMIMLBO": "",
                "BIMPIKMCIHB": "",
                "MCAOJPLIJGI": ""
            },
            {
                "$type": "KAGAFALAIGP",
                "type": "DIALOG",
                "aliasList": [
                    "1005"
                ],
                "JHEPJOMJJHH": 790210221,
                "OCILKFCPBNC": 0.5
            },
            {
                "$type": "CENEPJCONAG",
                "type": "BODY_LANG",
                "aliasList": [
                    "1005"
                ],
                "actionId": 212,
                "OGFPAIKLDGB": 1090,
                "MHDCNDAINCK": true,
                "LHIAJOBFNAK": false,
                "FOEKGLEJBIJ": ""
            },
            {
                "$type": "FNPNDPFBBDD",
                "type": "LOOK_AT",
                "aliasList": [
                    "1005"
                ],
                "actionId": 195,
                "NKGFDJDHOBD": true,
                "useTargetPos": true,
                "LBJHJADMNBD": true,
                "EKIONHAEIBG": {
                    "x": 51.95199966430664,
                    "y": 121.28399658203125,
                    "z": -735.1199951171875
                },
                "MNOPLOBEFLB": 0.5,
                "JBODIEHINII": "",
                "CFPBIOLLOCO": "NONE",
                "LPCACGGCDLI": "",
                "NNFPFPOJJOJ": ""
            },
            {
                "$type": "MoleMole.Config.ConfigTeleportToAction",
                "type": "TELEPORT_TO",
                "aliasList": [
                    "1005"
                ],
                "actionId": 224,
                "position": {
                    "x": 51.801998138427734,
                    "y": 119.94999694824219,
                    "z": -735.8989868164062
                },
                "forward": {
                    "x": -0.4449999928474426,
                    "z": 0.8379999995231628
                },
                "openLongDisTeleport": true,
                "posBindMovingTargetKey": "",
                "forwardBindMovingTargetKey": ""
            },
            {
                "$type": "LNLLGCOBDFC",
                "type": "EMO_SYNC",
                "aliasList": [
                    "1005"
                ],
                "LKHHGAGNMKM": "Cs_Emo_Avatar_Simple_Common_Set/Cs_Emo_Avatar_Talk/Cs_Emo_WorldQuest/Cs_Emo_IsLand_790/Cs_Emo_790210221",
                "AIMKGPFAAAD": "",
                "IPEKOEDCGGF": "",
                "EJNFMNJKDAH": "",
                "LOOOCOLIHFA": "",
                "KJDLMAPPPMG": "",
                "HCOIDDGKHJC": false,
                "EKJHPKFBONG": [
                    7539125122556966281,
                    1865196180092036665,
                    1808210079804444122,
                    1130498015719572419
                ]
            },
            {
                "$type": "AAFOOOPNJLB",
                "type": "DIALOG_SELECT",
                "delayTime": 0.4000000059604645,
                "aliasList": [
                    "Avatar"
                ],
                "KFAEOBDAAME": [
                    790210222
                ],
                "ELPFMMBHOLF": [
                    1993119232
                ],
                "OEAAKJDIEFD": true
            },
            {
                "$type": "CENEPJCONAG",
                "type": "BODY_LANG",
                "delayTime": 1.8489999771118164,
                "aliasList": [
                    "1005"
                ],
                "actionId": 299,
                "OGFPAIKLDGB": 4030,
                "MHDCNDAINCK": true,
                "LHIAJOBFNAK": false,
                "FOEKGLEJBIJ": ""
            }
        ],
        [
            {
                "$type": "PBIGHFCHGCA",
                "type": "CAMERA_MOVE",
                "duration": 0.10000000149011612,
                "actionId": 161,
                "KCFKJMMEECM": {
                    "x": 39.98400115966797,
                    "y": 124.15299987792969,
                    "z": -727.2579956054688
                },
                "DLGJEHNPMFN": {
                    "x": 40.757999420166016,
                    "y": 123.85099792480469,
                    "z": -727.8150024414062
                },
                "NJCBGNHGINI": 20.0,
                "FNMFGIOLKBE": 6,
                "NECGMADJICG": "EaseInOutCubic",
                "BMHIHPIKAHM": {},
                "MMJMMAEAJOA": true,
                "HGGPLEMCNNG": false,
                "JBODIEHINII": "",
                "PHDIKPKLFIA": true,
                "EJCHLMIMLBO": "",
                "BIMPIKMCIHB": "",
                "MCAOJPLIJGI": ""
            },
            {
                "$type": "MoleMole.Config.ConfigLocalGadgetOP",
                "type": "LOCAL_GADGET_OP",
                "actionId": 184,
                "gadgetId": 70710743,
                "oprCode": 3,
                "slotName": "",
                "position": {
                    "x": 46.40999984741211,
                    "y": 120.0,
                    "z": -731.8499755859375
                },
                "euler": {
                    "y": 123.86499786376953
                },
                "gvKey": "is_talk",
                "gvValue": 1.0
            },
            {
                "$type": "FNPNDPFBBDD",
                "type": "LOOK_AT",
                "aliasList": [
                    "Avatar"
                ],
                "actionId": 195,
                "NKGFDJDHOBD": true,
                "useTargetPos": true,
                "LBJHJADMNBD": true,
                "EKIONHAEIBG": {
                    "x": 45.448001861572266,
                    "y": 121.28399658203125,
                    "z": -732.0960083007812
                },
                "MNOPLOBEFLB": 0.5,
                "JBODIEHINII": "",
                "CFPBIOLLOCO": "NONE",
                "LPCACGGCDLI": "",
                "NNFPFPOJJOJ": ""
            },
            {
                "$type": "KAGAFALAIGP",
                "type": "DIALOG",
                "aliasList": [
                    "20729"
                ],
                "JHEPJOMJJHH": 790210223,
                "OCILKFCPBNC": 0.5
            },
            {
                "$type": "LNLLGCOBDFC",
                "type": "EMO_SYNC",
                "aliasList": [
                    "20729"
                ],
                "LKHHGAGNMKM": "Cs_Emo_Avatar_Simple_Common_Set/Cs_Emo_Avatar_Talk/Cs_Emo_WorldQuest/Cs_Emo_IsLand_790/Cs_Emo_790210223",
                "AIMKGPFAAAD": "",
                "IPEKOEDCGGF": "",
                "EJNFMNJKDAH": "",
                "LOOOCOLIHFA": "",
                "KJDLMAPPPMG": "",
                "EKJHPKFBONG": [
                    730437571512046476,
                    9334649633224701766,
                    12929813101077996142,
                    16401345449339064421
                ]
            },
            {
                "$type": "FNPNDPFBBDD",
                "type": "LOOK_AT",
                "aliasList": [
                    "1005"
                ],
                "actionId": 195,
                "NKGFDJDHOBD": true,
                "useTargetPos": true,
                "LBJHJADMNBD": true,
                "EKIONHAEIBG": {
                    "x": 46.10499954223633,
                    "y": 121.28399658203125,
                    "z": -730.9920043945312
                },
                "MNOPLOBEFLB": 0.5,
                "JBODIEHINII": "",
                "CFPBIOLLOCO": "NONE",
                "LPCACGGCDLI": "",
                "NNFPFPOJJOJ": ""
            },
            {
                "$type": "CENEPJCONAG",
                "type": "BODY_LANG",
                "aliasList": [
                    "1005"
                ],
                "actionId": 229,
                "NNKEOHJCPOF": true,
                "MHDCNDAINCK": true,
                "LHIAJOBFNAK": false,
                "FOEKGLEJBIJ": ""
            },
            {
                "$type": "LNLLGCOBDFC",
                "type": "EMO_SYNC",
                "aliasList": [
                    "1005"
                ],
                "actionId": 300,
                "LKHHGAGNMKM": "",
                "AIMKGPFAAAD": "Cs_Emo_Pet_Common/Cs_Emo_Paimon_None",
                "IPEKOEDCGGF": "Cs_Emo_Pet_Common/Cs_Emo_Paimon_Normal01",
                "EJNFMNJKDAH": "",
                "LOOOCOLIHFA": "",
                "KJDLMAPPPMG": "",
                "IMIEGJDNPNN": [
                    1796869206626684908,
                    2049648015653630001,
                    14015965774222061559,
                    873259039409222856
                ],
                "KIJHIMADJGM": [
                    312453201720762420,
                    9562322946389574798,
                    18422542724361145117,
                    17949024460815132449
                ]
            },
            {
                "$type": "PBIGHFCHGCA",
                "type": "CAMERA_MOVE",
                "delayTime": 0.05000000074505806,
                "duration": 16.520999908447266,
                "actionId": 161,
                "KCFKJMMEECM": {
                    "x": 39.801998138427734,
                    "y": 123.62300109863281,
                    "z": -727.2230224609375
                },
                "DLGJEHNPMFN": {
                    "x": 40.57600021362305,
                    "y": 123.32099914550781,
                    "z": -727.780029296875
                },
                "NJCBGNHGINI": 20.0,
                "NECGMADJICG": "EaseOutQuad",
                "BMHIHPIKAHM": {},
                "MMJMMAEAJOA": true,
                "HGGPLEMCNNG": false,
                "JBODIEHINII": "",
                "PHDIKPKLFIA": true,
                "EJCHLMIMLBO": "",
                "BIMPIKMCIHB": "",
                "MCAOJPLIJGI": ""
            }
        ],
        [
            {
                "$type": "KAGAFALAIGP",
                "type": "DIALOG",
                "aliasList": [
                    "20729"
                ],
                "JHEPJOMJJHH": 790210224,
                "OCILKFCPBNC": 0.5
            },
            {
                "$type": "LNLLGCOBDFC",
                "type": "EMO_SYNC",
                "aliasList": [
                    "20729"
                ],
                "LKHHGAGNMKM": "Cs_Emo_Avatar_Simple_Common_Set/Cs_Emo_Avatar_Talk/Cs_Emo_WorldQuest/Cs_Emo_IsLand_790/Cs_Emo_790210224",
                "AIMKGPFAAAD": "",
                "IPEKOEDCGGF": "",
                "EJNFMNJKDAH": "",
                "LOOOCOLIHFA": "",
                "KJDLMAPPPMG": "",
                "EKJHPKFBONG": [
                    14330091678714999139,
                    6225411912064784363,
                    10964550895484444938,
                    11584555920772160671
                ]
            }
        ],
        [
            {
                "$type": "PBIGHFCHGCA",
                "type": "CAMERA_MOVE",
                "duration": 0.10000000149011612,
                "actionId": 161,
                "KCFKJMMEECM": {
                    "x": 50.29999923706055,
                    "y": 121.0469970703125,
                    "z": -736.0460205078125
                },
                "DLGJEHNPMFN": {
                    "x": 51.25400161743164,
                    "y": 121.06999969482422,
                    "z": -735.7470092773438
                },
                "NJCBGNHGINI": 30.0,
                "FNMFGIOLKBE": 6,
                "NECGMADJICG": "EaseInOutCubic",
                "BMHIHPIKAHM": {},
                "MMJMMAEAJOA": true,
                "HGGPLEMCNNG": false,
                "JBODIEHINII": "",
                "PHDIKPKLFIA": true,
                "EJCHLMIMLBO": "",
                "BIMPIKMCIHB": "",
                "MCAOJPLIJGI": ""
            },
            {
                "$type": "MoleMole.Config.ConfigLocalGadgetOP",
                "type": "LOCAL_GADGET_OP",
                "actionId": 184,
                "gadgetId": 70710743,
                "oprCode": 3,
                "slotName": "",
                "position": {
                    "x": 46.40999984741211,
                    "y": 120.0,
                    "z": -731.8499755859375
                },
                "euler": {
                    "y": 123.86499786376953
                },
                "gvKey": "is_talk"
            },
            {
                "$type": "KAGAFALAIGP",
                "type": "DIALOG",
                "aliasList": [
                    "1005"
                ],
                "JHEPJOMJJHH": 790210225,
                "OCILKFCPBNC": 1.0
            },
            {
                "$type": "CENEPJCONAG",
                "type": "BODY_LANG",
                "aliasList": [
                    "1005"
                ],
                "actionId": 232,
                "OGFPAIKLDGB": 1230,
                "MHDCNDAINCK": true,
                "LHIAJOBFNAK": false,
                "FOEKGLEJBIJ": ""
            },
            {
                "$type": "LNLLGCOBDFC",
                "type": "EMO_SYNC",
                "aliasList": [
                    "1005"
                ],
                "LKHHGAGNMKM": "Cs_Emo_Avatar_Simple_Common_Set/Cs_Emo_Avatar_Talk/Cs_Emo_WorldQuest/Cs_Emo_IsLand_790/Cs_Emo_790210225_2",
                "AIMKGPFAAAD": "",
                "IPEKOEDCGGF": "",
                "EJNFMNJKDAH": "",
                "LOOOCOLIHFA": "",
                "KJDLMAPPPMG": "",
                "EKJHPKFBONG": [
                    7046902872055025282,
                    10803952789711557989,
                    7311522479988025196,
                    17491243399186756750
                ]
            },
            {
                "$type": "CENEPJCONAG",
                "type": "BODY_LANG",
                "delayTime": 0.800000011920929,
                "aliasList": [
                    "Avatar"
                ],
                "actionId": 231,
                "OGFPAIKLDGB": 1130,
                "MHDCNDAINCK": true,
                "LHIAJOBFNAK": false,
                "FOEKGLEJBIJ": ""
            },
            {
                "$type": "AAFOOOPNJLB",
                "type": "DIALOG_SELECT",
                "delayTime": 1.0,
                "aliasList": [
                    "Avatar"
                ],
                "KFAEOBDAAME": [
                    790210226,
                    790210227
                ],
                "ELPFMMBHOLF": [
                    1993119235,
                    1993119235
                ],
                "OEAAKJDIEFD": true
            }
        ],
        [
            {
                "$type": "PBIGHFCHGCA",
                "type": "CAMERA_MOVE",
                "duration": 0.10000000149011612,
                "actionId": 161,
                "KCFKJMMEECM": {
                    "x": 48.76599884033203,
                    "y": 120.87899780273438,
                    "z": -735.7039794921875
                },
                "DLGJEHNPMFN": {
                    "x": 48.35499954223633,
                    "y": 120.8030014038086,
                    "z": -734.7949829101562
                },
                "NJCBGNHGINI": 30.0,
                "FNMFGIOLKBE": 6,
                "NECGMADJICG": "EaseInOutCubic",
                "BMHIHPIKAHM": {},
                "HGGPLEMCNNG": false,
                "JBODIEHINII": "",
                "PHDIKPKLFIA": true,
                "EJCHLMIMLBO": "",
                "BIMPIKMCIHB": "",
                "MCAOJPLIJGI": ""
            },
            {
                "$type": "MoleMole.Config.ConfigLocalGadgetOP",
                "type": "LOCAL_GADGET_OP",
                "actionId": 184,
                "gadgetId": 70710743,
                "oprCode": 3,
                "slotName": "",
                "position": {
                    "x": 46.40999984741211,
                    "y": 120.0,
                    "z": -731.8499755859375
                },
                "euler": {
                    "y": 123.86499786376953
                },
                "gvKey": "is_talk",
                "gvValue": 1.0
            },
            {
                "$type": "KAGAFALAIGP",
                "type": "DIALOG",
                "aliasList": [
                    "20729"
                ],
                "JHEPJOMJJHH": 790210228,
                "OCILKFCPBNC": 0.5
            },
            {
                "$type": "LNLLGCOBDFC",
                "type": "EMO_SYNC",
                "aliasList": [
                    "20729"
                ],
                "LKHHGAGNMKM": "Cs_Emo_Avatar_Simple_Common_Set/Cs_Emo_Avatar_Talk/Cs_Emo_WorldQuest/Cs_Emo_IsLand_790/Cs_Emo_790210228",
                "AIMKGPFAAAD": "",
                "IPEKOEDCGGF": "",
                "EJNFMNJKDAH": "",
                "LOOOCOLIHFA": "",
                "KJDLMAPPPMG": "",
                "EKJHPKFBONG": [
                    12787080055544507099,
                    13098132775665101231,
                    16343786705674438003,
                    14893521704032202797
                ]
            }
        ],
        [
            {
                "$type": "PBIGHFCHGCA",
                "type": "CAMERA_MOVE",
                "duration": 0.10000000149011612,
                "actionId": 161,
                "KCFKJMMEECM": {
                    "x": 40.95899963378906,
                    "y": 121.16600036621094,
                    "z": -731.5889892578125
                },
                "DLGJEHNPMFN": {
                    "x": 41.94300079345703,
                    "y": 121.08999633789062,
                    "z": -731.7490234375
                },
                "NJCBGNHGINI": 20.0,
                "FNMFGIOLKBE": 6,
                "NECGMADJICG": "EaseInOutCubic",
                "BMHIHPIKAHM": {},
                "MMJMMAEAJOA": true,
                "HGGPLEMCNNG": false,
                "JBODIEHINII": "",
                "PHDIKPKLFIA": true,
                "EJCHLMIMLBO": "",
                "BIMPIKMCIHB": "",
                "MCAOJPLIJGI": ""
            },
            {
                "$type": "CENEPJCONAG",
                "type": "BODY_LANG",
                "aliasList": [
                    "Avatar"
                ],
                "actionId": 257,
                "NNKEOHJCPOF": true,
                "MHDCNDAINCK": true,
                "LHIAJOBFNAK": false,
                "FOEKGLEJBIJ": ""
            },
            {
                "$type": "KAGAFALAIGP",
                "type": "DIALOG",
                "aliasList": [
                    "20729"
                ],
                "JHEPJOMJJHH": 790210229,
                "OCILKFCPBNC": 0.5
            },
            {
                "$type": "LNLLGCOBDFC",
                "type": "EMO_SYNC",
                "aliasList": [
                    "20729"
                ],
                "LKHHGAGNMKM": "Cs_Emo_Avatar_Simple_Common_Set/Cs_Emo_Avatar_Talk/Cs_Emo_WorldQuest/Cs_Emo_IsLand_790/Cs_Emo_790210229",
                "AIMKGPFAAAD": "",
                "IPEKOEDCGGF": "",
                "EJNFMNJKDAH": "",
                "LOOOCOLIHFA": "",
                "KJDLMAPPPMG": "",
                "EKJHPKFBONG": [
                    6772081531349974110,
                    3029852299453298685,
                    18082406045510099527,
                    17958193201398365030
                ]
            },
            {
                "$type": "PBIGHFCHGCA",
                "type": "CAMERA_MOVE",
                "delayTime": 0.05000000074505806,
                "duration": 8.644000053405762,
                "actionId": 161,
                "KCFKJMMEECM": {
                    "x": 40.91999816894531,
                    "y": 121.17500305175781,
                    "z": -731.8350219726562
                },
                "DLGJEHNPMFN": {
                    "x": 41.90399932861328,
                    "y": 121.0989990234375,
                    "z": -731.9949951171875
                },
                "NJCBGNHGINI": 20.0,
                "NECGMADJICG": "EaseOutQuad",
                "BMHIHPIKAHM": {},
                "MMJMMAEAJOA": true,
                "HGGPLEMCNNG": false,
                "JBODIEHINII": "",
                "PHDIKPKLFIA": true,
                "EJCHLMIMLBO": "",
                "BIMPIKMCIHB": "",
                "MCAOJPLIJGI": ""
            }
        ],
        [
            {
                "$type": "MoleMole.Config.ConfigLocalGadgetOP",
                "type": "LOCAL_GADGET_OP",
                "actionId": 184,
                "gadgetId": 70710743,
                "oprCode": 3,
                "slotName": "",
                "position": {
                    "x": 46.40999984741211,
                    "y": 120.0,
                    "z": -731.8499755859375
                },
                "euler": {
                    "y": 123.86499786376953
                },
                "gvKey": "is_talk"
            },
            {
                "$type": "KAGAFALAIGP",
                "type": "DIALOG",
                "aliasList": [
                    "1005"
                ],
                "JHEPJOMJJHH": 790210230,
                "OCILKFCPBNC": 0.5
            },
            {
                "$type": "LNLLGCOBDFC",
                "type": "EMO_SYNC",
                "aliasList": [
                    "1005"
                ],
                "LKHHGAGNMKM": "Cs_Emo_Avatar_Simple_Common_Set/Cs_Emo_Avatar_Talk/Cs_Emo_WorldQuest/Cs_Emo_IsLand_790/Cs_Emo_790210230",
                "AIMKGPFAAAD": "",
                "IPEKOEDCGGF": "",
                "EJNFMNJKDAH": "",
                "LOOOCOLIHFA": "",
                "KJDLMAPPPMG": "",
                "HCOIDDGKHJC": false,
                "EKJHPKFBONG": [
                    5738800823751976447,
                    8198400140263935692,
                    10660509567908057687,
                    14675266024955438547
                ]
            }
        ],
        [
            {
                "$type": "MoleMole.Config.ConfigLocalGadgetOP",
                "type": "LOCAL_GADGET_OP",
                "actionId": 184,
                "gadgetId": 70710743,
                "oprCode": 3,
                "slotName": "",
                "position": {
                    "x": 46.40999984741211,
                    "y": 120.0,
                    "z": -731.8499755859375
                },
                "euler": {
                    "y": 123.86499786376953
                },
                "gvKey": "is_talk",
                "gvValue": 1.0
            },
            {
                "$type": "PBIGHFCHGCA",
                "type": "CAMERA_MOVE",
                "duration": 0.10000000149011612,
                "actionId": 161,
                "KCFKJMMEECM": {
                    "x": 52.49100112915039,
                    "y": 126.6500015258789,
                    "z": -743.35400390625
                },
                "DLGJEHNPMFN": {
                    "x": 52.24599838256836,
                    "y": 126.09500122070312,
                    "z": -742.5590209960938
                },
                "FNMFGIOLKBE": 6,
                "NECGMADJICG": "EaseInOutCubic",
                "BMHIHPIKAHM": {},
                "MMJMMAEAJOA": true,
                "HGGPLEMCNNG": false,
                "JBODIEHINII": "",
                "PHDIKPKLFIA": true,
                "EJCHLMIMLBO": "",
                "BIMPIKMCIHB": "",
                "MCAOJPLIJGI": ""
            },
            {
                "$type": "KAGAFALAIGP",
                "type": "DIALOG",
                "aliasList": [
                    "20729"
                ],
                "JHEPJOMJJHH": 790210231,
                "OCILKFCPBNC": 0.5
            },
            {
                "$type": "LNLLGCOBDFC",
                "type": "EMO_SYNC",
                "aliasList": [
                    "20729"
                ],
                "LKHHGAGNMKM": "Cs_Emo_Avatar_Simple_Common_Set/Cs_Emo_Avatar_Talk/Cs_Emo_WorldQuest/Cs_Emo_IsLand_790/Cs_Emo_790210231",
                "AIMKGPFAAAD": "",
                "IPEKOEDCGGF": "",
                "EJNFMNJKDAH": "",
                "LOOOCOLIHFA": "",
                "KJDLMAPPPMG": "",
                "EKJHPKFBONG": [
                    3576916045835991317,
                    4796281031850153189,
                    12699515133389131243,
                    1971696427405339917
                ]
            },
            {
                "$type": "CENEPJCONAG",
                "type": "BODY_LANG",
                "aliasList": [
                    "1005"
                ],
                "actionId": 258,
                "NNKEOHJCPOF": true,
                "MHDCNDAINCK": true,
                "LHIAJOBFNAK": false,
                "FOEKGLEJBIJ": ""
            },
            {
                "$type": "LNLLGCOBDFC",
                "type": "EMO_SYNC",
                "aliasList": [
                    "1005"
                ],
                "actionId": 301,
                "LKHHGAGNMKM": "",
                "AIMKGPFAAAD": "Cs_Emo_Pet_Common/Cs_Emo_Paimon_None",
                "IPEKOEDCGGF": "Cs_Emo_Pet_Common/Cs_Emo_Paimon_Normal01",
                "EJNFMNJKDAH": "",
                "LOOOCOLIHFA": "",
                "KJDLMAPPPMG": "",
                "IMIEGJDNPNN": [
                    1796869206626684908,
                    2049648015653630001,
                    14015965774222061559,
                    873259039409222856
                ],
                "KIJHIMADJGM": [
                    312453201720762420,
                    9562322946389574798,
                    18422542724361145117,
                    17949024460815132449
                ]
            },
            {
                "$type": "PBIGHFCHGCA",
                "type": "CAMERA_MOVE",
                "delayTime": 0.05000000074505806,
                "duration": 6.370999813079834,
                "actionId": 161,
                "KCFKJMMEECM": {
                    "x": 52.75899887084961,
                    "y": 127.25800323486328,
                    "z": -744.2239990234375
                },
                "DLGJEHNPMFN": {
                    "x": 52.513999938964844,
                    "y": 126.7030029296875,
                    "z": -743.4290161132812
                },
                "NECGMADJICG": "EaseOutQuad",
                "BMHIHPIKAHM": {},
                "MMJMMAEAJOA": true,
                "HGGPLEMCNNG": false,
                "JBODIEHINII": "",
                "PHDIKPKLFIA": true,
                "EJCHLMIMLBO": "",
                "BIMPIKMCIHB": "",
                "MCAOJPLIJGI": ""
            },
            {
                "$type": "CENEPJCONAG",
                "type": "BODY_LANG",
                "delayTime": 1.2000000476837158,
                "aliasList": [
                    "1005"
                ],
                "actionId": 259,
                "OGFPAIKLDGB": 1270,
                "MHDCNDAINCK": true,
                "LHIAJOBFNAK": false,
                "FOEKGLEJBIJ": ""
            }
        ],
        [
            {
                "$type": "MoleMole.Config.ConfigSimpleBlackScreenAction",
                "type": "SIMPLE_BLACK_SCREEN",
                "durationToBlack": 0.5,
                "durationKeepBlack": 2.0,
                "durationFromBlack": 0.5,
                "textMapID": ""
            },
            {
                "$type": "MoleMole.Config.ConfigTimeProtectAction",
                "type": "TIME_PROTECT",
                "duration": 0.699999988079071
            },
            {
                "$type": "PBIGHFCHGCA",
                "type": "CAMERA_MOVE",
                "delayTime": 0.6000000238418579,
                "duration": 0.10000000149011612,
                "actionId": 161,
                "KCFKJMMEECM": {
                    "x": 54.20199966430664,
                    "y": 121.49600219726562,
                    "z": -736.1950073242188
                },
                "DLGJEHNPMFN": {
                    "x": 53.345001220703125,
                    "y": 121.23999786376953,
                    "z": -735.7490234375
                },
                "FNMFGIOLKBE": 6,
                "NECGMADJICG": "EaseInOutCubic",
                "BMHIHPIKAHM": {},
                "MMJMMAEAJOA": true,
                "HGGPLEMCNNG": false,
                "JBODIEHINII": "",
                "PHDIKPKLFIA": true,
                "EJCHLMIMLBO": "",
                "BIMPIKMCIHB": "",
                "MCAOJPLIJGI": ""
            },
            {
                "$type": "MoleMole.Config.ConfigLocalGadgetOP",
                "type": "LOCAL_GADGET_OP",
                "delayTime": 0.6000000238418579,
                "actionId": 184,
                "gadgetId": 70710743,
                "oprCode": 2,
                "slotName": "",
                "position": {
                    "x": 46.40999984741211,
                    "y": 120.0,
                    "z": -731.8499755859375
                },
                "euler": {
                    "y": 123.86499786376953
                },
                "gvKey": ""
            },
            {
                "$type": "MoleMole.Config.ConfigVisibleInterAction",
                "type": "VISIBLE",
                "delayTime": 1.0,
                "isVisible": true,
                "target": "VEHICLE_SKIFF",
                "extraParam": ""
            }
        ]
    ],
    "groupId": [
        {
            "grpId": 895578159,
            "nextGrpId": 895578160
        },
        {
            "index": 1,
            "grpId": 895578160,
            "nextGrpId": 895578161
        },
        {
            "index": 2,
            "grpId": 895578161,
            "nextGrpId": 895578162
        },
        {
            "index": 3,
            "grpId": 895578162,
            "nextGrpId": 895578163
        },
        {
            "index": 4,
            "grpId": 895578163,
            "nextGrpId": 895578164
        },
        {
            "index": 5,
            "grpId": 895578164,
            "nextGrpId": 895578165
        },
        {
            "index": 6,
            "grpId": 895578165,
            "nextGrpId": 895578166
        },
        {
            "index": 7,
            "grpId": 895578166,
            "nextGrpId": 895578167
        },
        {
            "index": 8,
            "grpId": 895578167,
            "nextGrpId": 1993119201
        },
        {
            "index": 9,
            "grpId": 1993119201,
            "nextGrpId": 1993119202
        },
        {
            "index": 10,
            "grpId": 1993119202,
            "nextGrpId": 1993119203
        },
        {
            "index": 11,
            "grpId": 1993119203,
            "nextGrpId": 1993119204
        },
        {
            "index": 12,
            "grpId": 1993119204,
            "nextGrpId": 1993119207
        },
        {
            "index": 13,
            "grpId": 1993119205,
            "nextGrpId": 1993119206
        },
        {
            "index": 14,
            "grpId": 1993119206,
            "nextGrpId": 1993119207
        },
        {
            "index": 15,
            "grpId": 1993119207,
            "nextGrpId": 1993119208
        },
        {
            "index": 16,
            "grpId": 1993119208,
            "nextGrpId": 1993119209
        },
        {
            "index": 17,
            "grpId": 1993119209,
            "nextGrpId": 1993119210
        },
        {
            "index": 18,
            "grpId": 1993119210,
            "nextGrpId": 1993119232
        },
        {
            "index": 19,
            "grpId": 1993119232,
            "nextGrpId": 1993119233
        },
        {
            "index": 20,
            "grpId": 1993119233,
            "nextGrpId": 1993119234
        },
        {
            "index": 21,
            "grpId": 1993119234,
            "nextGrpId": 1993119235
        },
        {
            "index": 22,
            "grpId": 1993119235,
            "nextGrpId": 1993119236
        },
        {
            "index": 23,
            "grpId": 1993119236,
            "nextGrpId": 1993119237
        },
        {
            "index": 24,
            "grpId": 1993119237,
            "nextGrpId": 1993119238
        },
        {
            "index": 25,
            "grpId": 1993119238,
            "nextGrpId": 1993119239
        },
        {
            "index": 26,
            "grpId": 1993119239,
            "nextGrpId": 1993119240
        }
    ]
}