{
    "7": {
        "position": {
            "x": 7.070671791290162e-41,
            "z": -7.307019821505192e-33
        }
    },
    "8880": {
        "position": {
            "y": -1.8615736425551062e+24
        },
        "OKCEMLFFNLD": {
            "y": -5.026434247736264e+32
        }
    },
    "8460": {
        "position": {
            "x": 1.055291558667314e-34,
            "y": -2418.66455078125,
            "z": -18.878698348999023
        },
        "OKCEMLFFNLD": {
            "x": 1.4872512942834454e-34,
            "y": -2440.011474609375,
            "z": 40.93556594848633
        }
    },
    "122": {},
    "8881": {
        "position": {
            "y": -7.444948534363796e+24
        },
        "OKCEMLFFNLD": {
            "x": -3.753509097809238e-20,
            "y": -5.039283337282541e-07
        }
    },
    "8883": {
        "position": {
            "x": 1.998447302697181e+33
        },
        "OKCEMLFFNLD": {
            "z": -2957090304.0
        }
    },
    "2805": {
        "position": {}
    },
    "111": {
        "position": {
            "x": 5835.88427734375,
            "y": 1.4211339992764216e-26,
            "z": -6.166608281904092e+33
        },
        "OKCEMLFFNLD": {}
    },
    "29": {
        "OKCEMLFFNLD": {
            "x": 5.063226655123652e+35,
            "z": 2.684025534142548e+35
        }
    },
    "8348": {
        "position": {
            "z": -2.6052493052217866e-32
        },
        "OKCEMLFFNLD": {
            "x": 6.502028516292002e-12,
            "z": -2.85122344748053e+28
        }
    },
    "38": {
        "OKCEMLFFNLD": {
            "x": 3.6863021850585938,
            "z": 5665.013671875
        }
    }
}