{
    "AOOGPAEJDFN": {
        "x": -2576.929443359375,
        "y": -35.0,
        "z": 5733.62646484375
    },
    "ELJHMKDBOIJ": {
        "x": -2518.2509765625,
        "y": 20.0,
        "z": 5769.76025390625
    },
    "DELPMEEHPHO": [
        {
            "x": -2544.685546875,
            "y": -20.78723907470703,
            "z": 5766.62646484375
        },
        {
            "x": -2576.129638671875,
            "y": -18.22138214111328,
            "z": 5769.76025390625
        },
        {
            "x": -2576.929443359375,
            "y": -18.30448341369629,
            "z": 5750.11083984375
        },
        {
            "x": -2539.832763671875,
            "y": -23.409038543701172,
            "z": 5733.62646484375
        },
        {
            "x": -2518.2509765625,
            "y": -27.862688064575195,
            "z": 5753.4423828125
        }
    ]
}