{
    "AOOGPAEJDFN": {
        "x": 507.605224609375,
        "z": 707.254150390625
    },
    "ELJHMKDBOIJ": {
        "x": 517.4171142578125,
        "z": 711.716796875
    },
    "DELPMEEHPHO": [
        {
            "x": 508.00323486328125,
            "y": 369.55999755859375,
            "z": 710.1114501953125
        },
        {
            "x": 509.0841369628906,
            "y": 369.55999755859375,
            "z": 711.716796875
        },
        {
            "x": 517.4171142578125,
            "y": 369.55999755859375,
            "z": 710.8092041015625
        },
        {
            "x": 517.1336669921875,
            "y": 371.4490661621094,
            "z": 707.6860961914062
        },
        {
            "x": 509.60235595703125,
            "y": 371.0023193359375,
            "z": 707.254150390625
        },
        {
            "x": 507.605224609375,
            "y": 370.6658630371094,
            "z": 707.7891845703125
        }
    ]
}