[
    {
        "OHGIJNLMIAM": 721587,
        "CGNCKDLOCAC": 131075.078125,
        "MJAMNGNGKKE": 66
    },
    {
        "CGNCKDLOCAC": 1.4874131543454239e-34,
        "MJAMNGNGKKE": 5071
    },
    {
        "OHGIJNLMIAM": 69,
        "CGNCKDLOCAC": -13385265577984.0
    },
    {
        "OHGIJNLMIAM": 8887,
        "CGNCKDLOCAC": 2.3206496925003022e+19
    },
    {
        "OHGIJNLMIAM": 12741,
        "CGNCKDLOCAC": 1.4354561783098233e+22
    },
    {
        "OHGIJNLMIAM": 8886,
        "CGNCKDLOCAC": 5.961762659066616e-13
    },
    {
        "OHGIJNLMIAM": 9975,
        "MJAMNGNGKKE": 123
    },
    {
        "CGNCKDLOCAC": 5827.8076171875
    },
    {
        "OHGIJNLMIAM": 35,
        "CGNCKDLOCAC": 1.4346142052090727e-09,
        "MJAMNGNGKKE": 15594
    },
    {
        "CGNCKDLOCAC": 5825.5029296875
    },
    {
        "OHGIJNLMIAM": 721587,
        "CGNCKDLOCAC": -2.238459545795319e-33,
        "MJAMNGNGKKE": 66
    },
    {
        "OHGIJNLMIAM": 1137490
    },
    {
        "OHGIJNLMIAM": 72,
        "CGNCKDLOCAC": -7.998224749949483e+33,
        "MJAMNGNGKKE": 1082902
    },
    {
        "OHGIJNLMIAM": 91,
        "MJAMNGNGKKE": 8887
    }
]