{
    "AOOGPAEJDFN": {
        "x": -1015.7406005859375,
        "z": 2640.76318359375
    },
    "ELJHMKDBOIJ": {
        "x": -1004.328857421875,
        "z": 2652.168212890625
    },
    "DELPMEEHPHO": [
        {
            "x": -1010.60205078125,
            "y": 200.0,
            "z": 2648.313720703125
        },
        {
            "x": -1015.7406005859375,
            "y": 200.0,
            "z": 2643.392822265625
        },
        {
            "x": -1011.5110473632812,
            "y": 200.68466186523438,
            "z": 2640.76318359375
        },
        {
            "x": -1007.3632202148438,
            "y": 200.61094665527344,
            "z": 2644.46533203125
        },
        {
            "x": -1004.328857421875,
            "y": 200.38601684570312,
            "z": 2648.8486328125
        },
        {
            "x": -1005.9140625,
            "y": 200.0,
            "z": 2652.168212890625
        }
    ]
}