{
    "crowdSpawnInfos": [
        {
            "crowdTypeID": 247,
            "spawnPosition": {
                "x": -2041.259033203125,
                "y": 204.45120239257812,
                "z": 2586.375
            },
            "spawnFaceFwd": {
                "x": 0.5633711814880371,
                "z": 0.8262038826942444
            },
            "hairColor": {
                "r": 0.32156863808631897,
                "g": 0.21568627655506134,
                "b": 0.18039216101169586,
                "a": 1.0
            },
            "bodyColors": [
                {
                    "r": 0.9058823585510254,
                    "g": 0.7882353067398071,
                    "b": 0.7333333492279053,
                    "a": 1.0
                },
                {
                    "r": 0.38823530077934265,
                    "g": 0.46666666865348816,
                    "b": 0.5490196347236633,
                    "a": 1.0
                },
                {
                    "r": 0.8117647171020508,
                    "g": 0.8078431487083435,
                    "b": 0.7960784435272217,
                    "a": 1.0
                },
                {
                    "r": 0.7098039388656616,
                    "g": 0.5686274766921997,
                    "b": 0.32549020648002625,
                    "a": 1.0
                }
            ],
            "IMEGGKJGAHB": 210001
        },
        {
            "crowdTypeID": 251,
            "spawnPosition": {
                "x": -2048.93994140625,
                "y": 202.4683074951172,
                "z": 2591.873046875
            },
            "spawnFaceFwd": {
                "x": -0.5604990124702454,
                "z": 0.8281551003456116
            },
            "hairColor": {
                "r": 0.25882354378700256,
                "g": 0.25882354378700256,
                "b": 0.25882354378700256,
                "a": 1.0
            },
            "bodyColors": [
                {
                    "r": 0.7921568751335144,
                    "g": 0.6549019813537598,
                    "b": 0.5843137502670288,
                    "a": 1.0
                },
                {
                    "r": 0.20392157137393951,
                    "g": 0.27450981736183167,
                    "b": 0.3921568691730499,
                    "a": 1.0
                },
                {
                    "r": 0.4901960790157318,
                    "g": 0.19607843458652496,
                    "b": 0.239215686917305,
                    "a": 1.0
                },
                {
                    "r": 0.8627451062202454,
                    "g": 0.8549019694328308,
                    "b": 0.8039215803146362,
                    "a": 1.0
                }
            ],
            "IMEGGKJGAHB": 210002
        },
        {
            "crowdTypeID": 244,
            "spawnPosition": {
                "x": -2044.8399658203125,
                "y": 202.4071044921875,
                "z": 2596.0419921875
            },
            "spawnFaceFwd": {
                "x": -0.9420106410980225,
                "z": 0.33558303117752075
            },
            "hairColor": {
                "r": 0.5215686559677124,
                "g": 0.40392157435417175,
                "b": 0.2549019753932953,
                "a": 1.0
            },
            "bodyColors": [
                {
                    "r": 0.7921568751335144,
                    "g": 0.6549019813537598,
                    "b": 0.5843137502670288,
                    "a": 1.0
                },
                {
                    "r": 0.20392157137393951,
                    "g": 0.27450981736183167,
                    "b": 0.3921568691730499,
                    "a": 1.0
                },
                {
                    "r": 0.4901960790157318,
                    "g": 0.19607843458652496,
                    "b": 0.239215686917305,
                    "a": 1.0
                },
                {
                    "r": 0.8627451062202454,
                    "g": 0.8549019694328308,
                    "b": 0.8039215803146362,
                    "a": 1.0
                }
            ],
            "IMEGGKJGAHB": 210003
        },
        {
            "crowdTypeID": 235,
            "spawnPosition": {
                "x": -2052.7490234375,
                "y": 202.40679931640625,
                "z": 2600.325927734375
            },
            "spawnFaceFwd": {
                "x": 0.23887257277965546,
                "z": -0.9710508584976196
            },
            "hairColor": {
                "r": 0.8392156958580017,
                "g": 0.8392156958580017,
                "b": 0.8392156958580017,
                "a": 1.0
            },
            "bodyColors": [
                {
                    "r": 0.7921568751335144,
                    "g": 0.6549019813537598,
                    "b": 0.5843137502670288,
                    "a": 1.0
                },
                {
                    "r": 0.38823530077934265,
                    "g": 0.46666666865348816,
                    "b": 0.5490196347236633,
                    "a": 1.0
                },
                {
                    "r": 0.8117647171020508,
                    "g": 0.8078431487083435,
                    "b": 0.7960784435272217,
                    "a": 1.0
                },
                {
                    "r": 0.7098039388656616,
                    "g": 0.5686274766921997,
                    "b": 0.32549020648002625,
                    "a": 1.0
                }
            ],
            "IMEGGKJGAHB": 210004
        }
    ]
}