{
    "crowdSpawnInfos": [
        {
            "crowdTypeID": 161,
            "spawnPosition": {
                "x": -2566.902099609375,
                "y": 214.2126007080078,
                "z": -3842.5791015625
            },
            "spawnFaceFwd": {
                "z": 1.0
            },
            "hairColor": {
                "r": 0.25882354378700256,
                "g": 0.25882354378700256,
                "b": 0.25882354378700256,
                "a": 1.0
            },
            "bodyColors": [
                {
                    "r": 0.9058823585510254,
                    "g": 0.7882353067398071,
                    "b": 0.7333333492279053,
                    "a": 1.0
                },
                {
                    "r": 0.5372549295425415,
                    "g": 0.364705890417099,
                    "b": 0.34117648005485535,
                    "a": 1.0
                },
                {
                    "r": 0.26274511218070984,
                    "g": 0.2078431397676468,
                    "b": 0.18039216101169586,
                    "a": 1.0
                },
                {
                    "r": 0.41960784792900085,
                    "g": 0.43529412150382996,
                    "b": 0.4941176474094391,
                    "a": 1.0
                }
            ],
            "IMEGGKJGAHB": 50001
        },
        {
            "crowdTypeID": 131,
            "animConfigID": 3,
            "spawnPosition": {
                "x": -2560.218017578125,
                "y": 214.2126007080078,
                "z": -3846.06689453125
            },
            "spawnFaceFwd": {
                "x": 0.4648420512676239,
                "z": 0.8853936195373535
            },
            "hairColor": {
                "r": 0.25882354378700256,
                "g": 0.25882354378700256,
                "b": 0.25882354378700256,
                "a": 1.0
            },
            "bodyColors": [
                {
                    "r": 0.9058823585510254,
                    "g": 0.7882353067398071,
                    "b": 0.7333333492279053,
                    "a": 1.0
                },
                {
                    "r": 0.5372549295425415,
                    "g": 0.364705890417099,
                    "b": 0.34117648005485535,
                    "a": 1.0
                },
                {
                    "r": 0.26274511218070984,
                    "g": 0.2078431397676468,
                    "b": 0.18039216101169586,
                    "a": 1.0
                },
                {
                    "r": 0.41960784792900085,
                    "g": 0.43529412150382996,
                    "b": 0.4941176474094391,
                    "a": 1.0
                }
            ],
            "IMEGGKJGAHB": 50003
        },
        {
            "crowdTypeID": 128,
            "animConfigID": 1,
            "spawnPosition": {
                "x": -2560.087890625,
                "y": 214.2126007080078,
                "z": -3845.01904296875
            },
            "spawnFaceFwd": {
                "x": 0.0888943299651146,
                "z": -0.9960410594940186
            },
            "hairColor": {
                "r": 0.25882354378700256,
                "g": 0.25882354378700256,
                "b": 0.25882354378700256,
                "a": 1.0
            },
            "bodyColors": [
                {
                    "r": 0.9333333373069763,
                    "g": 0.8666666746139526,
                    "b": 0.843137264251709,
                    "a": 1.0
                },
                {
                    "r": 0.7450980544090271,
                    "g": 0.6941176652908325,
                    "b": 0.6431372761726379,
                    "a": 1.0
                },
                {
                    "r": 0.34117648005485535,
                    "g": 0.2666666805744171,
                    "b": 0.24705882370471954,
                    "a": 1.0
                },
                {
                    "r": 0.48627451062202454,
                    "g": 0.38823530077934265,
                    "b": 0.3019607961177826,
                    "a": 1.0
                }
            ],
            "IMEGGKJGAHB": 50004
        },
        {
            "crowdTypeID": 146,
            "animConfigID": 3,
            "spawnPosition": {
                "x": -2584.27587890625,
                "y": 214.2126007080078,
                "z": -3845.9970703125
            },
            "spawnFaceFwd": {
                "x": -0.45554524660110474,
                "z": 0.8902126550674438
            },
            "hairColor": {
                "r": 0.25882354378700256,
                "g": 0.25882354378700256,
                "b": 0.25882354378700256,
                "a": 1.0
            },
            "bodyColors": [
                {
                    "r": 0.9333333373069763,
                    "g": 0.8666666746139526,
                    "b": 0.843137264251709,
                    "a": 1.0
                },
                {
                    "r": 0.545098066329956,
                    "g": 0.3529411852359772,
                    "b": 0.37254902720451355,
                    "a": 1.0
                },
                {
                    "r": 0.3176470696926117,
                    "g": 0.2666666805744171,
                    "b": 0.23137255012989044,
                    "a": 1.0
                },
                {
                    "r": 0.7411764860153198,
                    "g": 0.686274528503418,
                    "b": 0.615686297416687,
                    "a": 1.0
                }
            ],
            "IMEGGKJGAHB": 50005
        },
        {
            "crowdTypeID": 150,
            "spawnPosition": {
                "x": -2584.837890625,
                "y": 214.2126007080078,
                "z": -3845.26611328125
            },
            "spawnFaceFwd": {
                "x": 0.733729898929596,
                "z": -0.6794412136077881
            },
            "hairColor": {
                "r": 0.25882354378700256,
                "g": 0.25882354378700256,
                "b": 0.25882354378700256,
                "a": 1.0
            },
            "bodyColors": [
                {
                    "r": 0.9058823585510254,
                    "g": 0.7882353067398071,
                    "b": 0.7333333492279053,
                    "a": 1.0
                },
                {
                    "r": 0.4156862795352936,
                    "g": 0.45490196347236633,
                    "b": 0.4745098054409027,
                    "a": 1.0
                },
                {
                    "r": 0.6352941393852234,
                    "g": 0.6117647290229797,
                    "b": 0.5921568870544434,
                    "a": 1.0
                },
                {
                    "r": 0.2980392277240753,
                    "g": 0.27450981736183167,
                    "b": 0.25882354378700256,
                    "a": 1.0
                }
            ],
            "IMEGGKJGAHB": 50006
        }
    ]
}