{
    "crowdSpawnInfos": [
        {
            "crowdTypeID": 137,
            "animConfigID": 1,
            "spawnPosition": {
                "x": -2582.60888671875,
                "y": 274.0869140625,
                "z": -4628.8779296875
            },
            "spawnFaceFwd": {
                "x": 0.33545157313346863,
                "z": 0.9420574307441711
            },
            "hairColor": {
                "r": 0.25882354378700256,
                "g": 0.25882354378700256,
                "b": 0.25882354378700256,
                "a": 1.0
            },
            "bodyColors": [
                {
                    "r": 0.9333333373069763,
                    "g": 0.8666666746139526,
                    "b": 0.843137264251709,
                    "a": 1.0
                },
                {
                    "r": 0.545098066329956,
                    "g": 0.3529411852359772,
                    "b": 0.37254902720451355,
                    "a": 1.0
                },
                {
                    "r": 0.7411764860153198,
                    "g": 0.686274528503418,
                    "b": 0.615686297416687,
                    "a": 1.0
                },
                {
                    "r": 0.3176470696926117,
                    "g": 0.2666666805744171,
                    "b": 0.23137255012989044,
                    "a": 1.0
                }
            ],
            "IMEGGKJGAHB": 90001
        },
        {
            "crowdTypeID": 155,
            "animConfigID": 12,
            "spawnPosition": {
                "x": -2581.7470703125,
                "y": 274.164794921875,
                "z": -4602.22119140625
            },
            "spawnFaceFwd": {
                "x": -0.3174881637096405,
                "z": -0.9482622146606445
            },
            "hairColor": {
                "r": 0.29019609093666077,
                "g": 0.3176470696926117,
                "b": 0.3529411852359772,
                "a": 1.0
            },
            "bodyColors": [
                {
                    "r": 0.9058823585510254,
                    "g": 0.7882353067398071,
                    "b": 0.7333333492279053,
                    "a": 1.0
                },
                {
                    "r": 0.35686275362968445,
                    "g": 0.29411765933036804,
                    "b": 0.239215686917305,
                    "a": 1.0
                },
                {
                    "r": 0.5803921818733215,
                    "g": 0.5803921818733215,
                    "b": 0.48627451062202454,
                    "a": 1.0
                },
                {
                    "r": 0.2980392277240753,
                    "g": 0.2823529541492462,
                    "b": 0.27843138575553894,
                    "a": 1.0
                }
            ],
            "IMEGGKJGAHB": 90002
        },
        {
            "crowdTypeID": 127,
            "animConfigID": 1,
            "spawnPosition": {
                "x": -2583.6259765625,
                "y": 274.32958984375,
                "z": -4626.90478515625
            },
            "spawnFaceFwd": {
                "x": 0.6832737922668457,
                "z": 0.7301622629165649
            },
            "hairColor": {
                "r": 0.25882354378700256,
                "g": 0.25882354378700256,
                "b": 0.25882354378700256,
                "a": 1.0
            },
            "bodyColors": [
                {
                    "r": 0.9333333373069763,
                    "g": 0.8666666746139526,
                    "b": 0.843137264251709,
                    "a": 1.0
                },
                {
                    "r": 0.2980392277240753,
                    "g": 0.2823529541492462,
                    "b": 0.27843138575553894,
                    "a": 1.0
                },
                {
                    "r": 0.5803921818733215,
                    "g": 0.5803921818733215,
                    "b": 0.48627451062202454,
                    "a": 1.0
                },
                {
                    "r": 0.2980392277240753,
                    "g": 0.2823529541492462,
                    "b": 0.27843138575553894,
                    "a": 1.0
                }
            ],
            "IMEGGKJGAHB": 90004
        }
    ]
}