{
    "crowdSpawnInfos": [
        {
            "crowdTypeID": 299,
            "spawnPosition": {
                "x": -391.43310546875,
                "y": 234.38340759277344,
                "z": 2778.0
            },
            "spawnFaceFwd": {
                "x": 0.9191325306892395,
                "z": 0.39394837617874146
            },
            "hairColor": {
                "r": 0.3960784375667572,
                "g": 0.27843138575553894,
                "b": 0.1882352977991104,
                "a": 1.0
            },
            "bodyColors": [
                {
                    "r": 0.9058823585510254,
                    "g": 0.7882353067398071,
                    "b": 0.7333333492279053,
                    "a": 1.0
                },
                {
                    "r": 0.22745098173618317,
                    "g": 0.2862745225429535,
                    "b": 0.3137255012989044,
                    "a": 1.0
                },
                {
                    "r": 0.6196078658103943,
                    "g": 0.5568627715110779,
                    "b": 0.42352941632270813,
                    "a": 1.0
                },
                {
                    "r": 0.8313725590705872,
                    "g": 0.8235294222831726,
                    "b": 0.8078431487083435,
                    "a": 1.0
                }
            ],
            "IMEGGKJGAHB": 110018
        },
        {
            "crowdTypeID": 291,
            "spawnPosition": {
                "x": -390.03009033203125,
                "y": 234.3874969482422,
                "z": 2778.485107421875
            },
            "spawnFaceFwd": {
                "x": -0.9447494149208069,
                "z": -0.3277937173843384
            },
            "hairColor": {
                "r": 0.3960784375667572,
                "g": 0.27843138575553894,
                "b": 0.1882352977991104,
                "a": 1.0
            },
            "bodyColors": [
                {
                    "r": 0.9333333373069763,
                    "g": 0.8666666746139526,
                    "b": 0.843137264251709,
                    "a": 1.0
                },
                {
                    "r": 0.6509804129600525,
                    "g": 0.5921568870544434,
                    "b": 0.34117648005485535,
                    "a": 1.0
                },
                {
                    "r": 0.364705890417099,
                    "g": 0.38823530077934265,
                    "b": 0.2666666805744171,
                    "a": 1.0
                },
                {
                    "r": 0.47058823704719543,
                    "g": 0.32156863808631897,
                    "b": 0.239215686917305,
                    "a": 1.0
                }
            ],
            "IMEGGKJGAHB": 110019
        },
        {
            "crowdTypeID": 234,
            "animConfigID": 1,
            "spawnPosition": {
                "x": -389.76220703125,
                "y": 234.41969299316406,
                "z": 2796.89697265625
            },
            "spawnFaceFwd": {
                "x": 0.5889806151390076,
                "z": -0.8081471920013428
            },
            "hairColor": {
                "r": 0.25882354378700256,
                "g": 0.25882354378700256,
                "b": 0.25882354378700256,
                "a": 1.0
            },
            "bodyColors": [
                {
                    "r": 0.9333333373069763,
                    "g": 0.8666666746139526,
                    "b": 0.843137264251709,
                    "a": 1.0
                },
                {
                    "r": 0.20392157137393951,
                    "g": 0.27450981736183167,
                    "b": 0.3921568691730499,
                    "a": 1.0
                },
                {
                    "r": 0.4901960790157318,
                    "g": 0.19607843458652496,
                    "b": 0.239215686917305,
                    "a": 1.0
                },
                {
                    "r": 0.8627451062202454,
                    "g": 0.8549019694328308,
                    "b": 0.8039215803146362,
                    "a": 1.0
                }
            ],
            "IMEGGKJGAHB": 110020
        },
        {
            "crowdTypeID": 288,
            "spawnPosition": {
                "x": -388.80889892578125,
                "y": 234.38340759277344,
                "z": 2797.087890625
            },
            "spawnFaceFwd": {
                "x": 0.07928211241960526,
                "z": -0.9968521595001221
            },
            "hairColor": {
                "r": 0.25882354378700256,
                "g": 0.25882354378700256,
                "b": 0.25882354378700256,
                "a": 1.0
            },
            "bodyColors": [
                {
                    "r": 0.9333333373069763,
                    "g": 0.8666666746139526,
                    "b": 0.843137264251709,
                    "a": 1.0
                },
                {
                    "r": 0.38823530077934265,
                    "g": 0.46666666865348816,
                    "b": 0.5490196347236633,
                    "a": 1.0
                },
                {
                    "r": 0.8117647171020508,
                    "g": 0.8078431487083435,
                    "b": 0.7960784435272217,
                    "a": 1.0
                },
                {
                    "r": 0.7098039388656616,
                    "g": 0.5686274766921997,
                    "b": 0.32549020648002625,
                    "a": 1.0
                }
            ],
            "IMEGGKJGAHB": 110022
        }
    ]
}