{
    "crowdSpawnInfos": [
        {
            "crowdTypeID": 284,
            "spawnPosition": {
                "x": -394.8163146972656,
                "y": 234.38340759277344,
                "z": 2803.970947265625
            },
            "spawnFaceFwd": {
                "x": -0.9132733345031738,
                "z": 0.40734726190567017
            },
            "hairColor": {
                "r": 0.25882354378700256,
                "g": 0.25882354378700256,
                "b": 0.25882354378700256,
                "a": 1.0
            },
            "bodyColors": [
                {
                    "r": 1.0,
                    "g": 1.0,
                    "b": 1.0,
                    "a": 1.0
                },
                {
                    "r": 0.4156862795352936,
                    "g": 0.45490196347236633,
                    "b": 0.4745098054409027,
                    "a": 1.0
                },
                {
                    "r": 0.6352941393852234,
                    "g": 0.6117647290229797,
                    "b": 0.5921568870544434,
                    "a": 1.0
                },
                {
                    "r": 0.2980392277240753,
                    "g": 0.27450981736183167,
                    "b": 0.25882354378700256,
                    "a": 1.0
                }
            ],
            "IMEGGKJGAHB": 290001,
            "ADBCDEJPNKD": "Middle"
        },
        {
            "crowdTypeID": 307,
            "spawnPosition": {
                "x": -394.6488037109375,
                "y": 234.38340759277344,
                "z": 2804.631103515625
            },
            "spawnFaceFwd": {
                "x": -0.9966127276420593,
                "z": -0.08223772048950195
            },
            "hairColor": {
                "r": 0.3960784375667572,
                "g": 0.27843138575553894,
                "b": 0.1882352977991104,
                "a": 1.0
            },
            "bodyColors": [
                {
                    "r": 1.0,
                    "g": 1.0,
                    "b": 1.0,
                    "a": 1.0
                },
                {
                    "r": 0.41960784792900085,
                    "g": 0.43529412150382996,
                    "b": 0.4941176474094391,
                    "a": 1.0
                },
                {
                    "r": 0.5372549295425415,
                    "g": 0.364705890417099,
                    "b": 0.34117648005485535,
                    "a": 1.0
                },
                {
                    "r": 0.26274511218070984,
                    "g": 0.2078431397676468,
                    "b": 0.18039216101169586,
                    "a": 1.0
                }
            ],
            "IMEGGKJGAHB": 290002,
            "ADBCDEJPNKD": "Middle"
        }
    ]
}