{
    "normal": {
        "type": "VIDEO",
        "videoConfig": {
            "heroDiff": true,
            "videoName": "Cs_LiYue_LQ10310601_FusheStory.usm",
            "videoNameOther": "Cs_LiYue_LQ10310601_FusheStory.usm",
            "subtitleId": 300082,
            "subtitleIdOther": 300082,
            "canSkip": true,
            "bgColor": {
                "a": 1.0
            },
            "fadeInDuration": 1.5,
            "fadeOutDuration": 1.5,
            "BLGMIPGIPFF": 1
        }
    }
}