{
    "normal": {
        "cutsceneConfig": {
            "type": "TIME_LINE_PREFAB",
            "luaDataPath": "",
            "resPath": "ART/Cutscene/Cs_Sumeru_AQ30180401_AlAp_Convert",
            "castListPath": "Cs_CastList_Q30180401",
            "entityBan": "",
            "JDNNDEJPMPJ": true,
            "syncLoad": true,
            "fadeInDuration": 0.0,
            "fadeOutDuration": 2.5
        }
    }
}