{
    "normal": {
        "cutsceneConfig": {
            "type": "TIME_LINE_PREFAB",
            "canSkip": false,
            "luaDataPath": "",
            "resPath": "ART/Cutscene/Cs_WQ3316_AfterGiveLight_Convert",
            "castListPath": "",
            "entityBan": "",
            "JDNNDEJPMPJ": true,
            "syncLoad": true,
            "fadeInDuration": 0.5,
            "fadeOutDuration": 0.5
        }
    }
}