{
    "luaDataPath": "",
    "dontUseDefaultFinish": true,
    "startBlackKeepTime": 0.5,
    "entityBan": "",
    "disableNpcLod": true,
    "BHNKJKDADLC": true,
    "JJFIGGKCCCF": true,
    "EKDGNGHMECG": true,
    "startFade": {
        "startFadeInDuration": 0.5,
        "startFadeOutDuration": 0.5
    },
    "endFade": {
        "startFadeOutDuration": 0.0
    },
    "actors": [
        {
            "alias": "Avatar",
            "visible": true,
            "bornPointName": "DUMMY_POS 330300167",
            "relativePosType": "AVATAR_NEW",
            "relativePosNpcAlias": "",
            "bindMovingTargetKey": ""
        },
        {
            "configID": 1005,
            "alias": "1005",
            "visible": true,
            "bornPointName": "",
            "useRelativePos": true,
            "relativePos": {
                "x": 0.5,
                "z": 0.5
            },
            "removeActorType": "REMOVE_WITH_DISAPPEAR",
            "relativePosType": "AVATAR_NEW",
            "relativePosNpcAlias": "",
            "bindMovingTargetKey": ""
        },
        {
            "configID": 20646,
            "alias": "20646",
            "visible": true,
            "bornPointName": "",
            "relativePosType": "AVATAR_NEW",
            "relativePosNpcAlias": "",
            "bindMovingTargetKey": ""
        }
    ],
    "group": [
        [
            {
                "$type": "MoleMole.Config.ConfigTimeProtectAction",
                "type": "TIME_PROTECT",
                "duration": 0.10000000149011612
            }
        ],
        [
            {
                "$type": "KAGAFALAIGP",
                "type": "DIALOG",
                "aliasList": [
                    "1005"
                ],
                "JHEPJOMJJHH": 730701301,
                "OCILKFCPBNC": 0.5
            }
        ],
        [
            {
                "$type": "KAGAFALAIGP",
                "type": "DIALOG",
                "aliasList": [
                    "20646"
                ],
                "JHEPJOMJJHH": 730701302,
                "OCILKFCPBNC": 0.5
            }
        ],
        [
            {
                "$type": "KAGAFALAIGP",
                "type": "DIALOG",
                "aliasList": [
                    "20646"
                ],
                "JHEPJOMJJHH": 730701303,
                "OCILKFCPBNC": 0.5
            }
        ],
        [
            {
                "$type": "KAGAFALAIGP",
                "type": "DIALOG",
                "aliasList": [
                    "1005"
                ],
                "JHEPJOMJJHH": 730701304,
                "OCILKFCPBNC": 0.5
            }
        ],
        [
            {
                "$type": "KAGAFALAIGP",
                "type": "DIALOG",
                "aliasList": [
                    "20646"
                ],
                "JHEPJOMJJHH": 730701305,
                "OCILKFCPBNC": 0.5
            }
        ],
        [
            {
                "$type": "KAGAFALAIGP",
                "type": "DIALOG",
                "aliasList": [
                    "20646"
                ],
                "JHEPJOMJJHH": 730701306,
                "OCILKFCPBNC": 0.5
            }
        ],
        [
            {
                "$type": "KAGAFALAIGP",
                "type": "DIALOG",
                "aliasList": [
                    "20646"
                ],
                "JHEPJOMJJHH": 730701307,
                "OCILKFCPBNC": 0.5
            },
            {
                "$type": "AAFOOOPNJLB",
                "type": "DIALOG_SELECT",
                "delayTime": 0.4000000059604645,
                "aliasList": [
                    "Avatar"
                ],
                "KFAEOBDAAME": [
                    730701308,
                    730701310
                ],
                "ELPFMMBHOLF": [
                    918767663,
                    2711993577
                ],
                "OEAAKJDIEFD": true
            }
        ],
        [
            {
                "$type": "KAGAFALAIGP",
                "type": "DIALOG",
                "aliasList": [
                    "1005"
                ],
                "JHEPJOMJJHH": 730701309,
                "OCILKFCPBNC": 0.5
            }
        ],
        [
            {
                "$type": "KAGAFALAIGP",
                "type": "DIALOG",
                "aliasList": [
                    "20646"
                ],
                "JHEPJOMJJHH": 730701311,
                "OCILKFCPBNC": 0.5
            }
        ],
        [
            {
                "$type": "KAGAFALAIGP",
                "type": "DIALOG",
                "aliasList": [
                    "1005"
                ],
                "JHEPJOMJJHH": 730701312,
                "OCILKFCPBNC": 0.5
            }
        ],
        [
            {
                "$type": "KAGAFALAIGP",
                "type": "DIALOG",
                "aliasList": [
                    "20646"
                ],
                "JHEPJOMJJHH": 730701313,
                "OCILKFCPBNC": 0.5
            }
        ],
        [
            {
                "$type": "MoleMole.Config.ConfigTimeProtectAction",
                "type": "TIME_PROTECT",
                "duration": 0.10000000149011612
            }
        ]
    ],
    "groupId": [
        {
            "grpId": 918767655,
            "nextGrpId": 918767656
        },
        {
            "index": 1,
            "grpId": 918767656,
            "nextGrpId": 918767657
        },
        {
            "index": 2,
            "grpId": 918767657,
            "nextGrpId": 918767658
        },
        {
            "index": 3,
            "grpId": 918767658,
            "nextGrpId": 918767659
        },
        {
            "index": 4,
            "grpId": 918767659,
            "nextGrpId": 918767660
        },
        {
            "index": 5,
            "grpId": 918767660,
            "nextGrpId": 918767661
        },
        {
            "index": 6,
            "grpId": 918767661,
            "nextGrpId": 918767662
        },
        {
            "index": 7,
            "grpId": 918767662,
            "nextGrpId": 918767663
        },
        {
            "index": 8,
            "grpId": 918767663,
            "nextGrpId": 2711993577
        },
        {
            "index": 9,
            "grpId": 2711993577,
            "nextGrpId": 2711993578
        },
        {
            "index": 10,
            "grpId": 2711993578,
            "nextGrpId": 2711993579
        },
        {
            "index": 11,
            "grpId": 2711993579,
            "nextGrpId": 2711993580
        },
        {
            "index": 12,
            "grpId": 2711993580,
            "nextGrpId": 2711993581
        }
    ]
}