{
    "talkId": 6320802,
    "type": "FREE",
    "dialogList": [
        {
            "id": 632080201,
            "nextDialogs": [
                632080202
            ],
            "talkShowType": "TALK_SHOW_FORCE_SELECT",
            "talkRole": {
                "type": "TALK_ROLE_PLAYER",
                "id": ""
            },
            "talkContentTextMapHash": 235721370,
            "talkAssetPath": "",
            "talkAssetPathAlter": "",
            "talkAudioName": "",
            "actionBefore": "",
            "actionWhile": "",
            "actionAfter": "",
            "optionIcon": ""
        },
        {
            "id": 632080202,
            "talkRole": {
                "type": "TALK_ROLE_NPC",
                "id": "3208"
            },
            "talkContentTextMapHash": 642421866,
            "talkAssetPath": "",
            "talkAssetPathAlter": "",
            "talkAudioName": "",
            "actionBefore": "",
            "actionWhile": "",
            "actionAfter": "",
            "optionIcon": ""
        }
    ]
}