{
    "talkId": 6320806,
    "type": "FREE",
    "dialogList": [
        {
            "id": 632080601,
            "nextDialogs": [
                632080602
            ],
            "talkShowType": "TALK_SHOW_FORCE_SELECT",
            "talkRole": {
                "type": "TALK_ROLE_PLAYER",
                "id": ""
            },
            "talkContentTextMapHash": 1489035938,
            "talkAssetPath": "",
            "talkAssetPathAlter": "",
            "talkAudioName": "",
            "actionBefore": "",
            "actionWhile": "",
            "actionAfter": "",
            "optionIcon": ""
        },
        {
            "id": 632080602,
            "nextDialogs": [
                632080603
            ],
            "talkRole": {
                "type": "TALK_ROLE_NPC",
                "id": "3208"
            },
            "talkContentTextMapHash": 3557650346,
            "talkAssetPath": "",
            "talkAssetPathAlter": "",
            "talkAudioName": "",
            "actionBefore": "",
            "actionWhile": "",
            "actionAfter": "",
            "optionIcon": ""
        },
        {
            "id": 632080603,
            "nextDialogs": [
                632080604
            ],
            "talkRole": {
                "type": "TALK_ROLE_NPC",
                "id": "3208"
            },
            "talkContentTextMapHash": 2499013610,
            "talkAssetPath": "",
            "talkAssetPathAlter": "",
            "talkAudioName": "",
            "actionBefore": "",
            "actionWhile": "",
            "actionAfter": "",
            "optionIcon": ""
        },
        {
            "id": 632080604,
            "talkRole": {
                "type": "TALK_ROLE_NPC",
                "id": "3208"
            },
            "talkContentTextMapHash": 3784697274,
            "talkAssetPath": "",
            "talkAssetPathAlter": "",
            "talkAudioName": "",
            "actionBefore": "",
            "actionWhile": "",
            "actionAfter": "",
            "optionIcon": ""
        }
    ]
}