{
    "talkId": 6446206,
    "type": "FREE",
    "dialogList": [
        {
            "id": 644620601,
            "nextDialogs": [
                644620602
            ],
            "talkShowType": "TALK_SHOW_FORCE_SELECT",
            "talkRole": {
                "type": "TALK_ROLE_PLAYER",
                "id": ""
            },
            "talkContentTextMapHash": 2659400154,
            "talkAssetPath": "",
            "talkAssetPathAlter": "",
            "talkAudioName": "",
            "actionBefore": "",
            "actionWhile": "",
            "actionAfter": "",
            "optionIcon": ""
        },
        {
            "id": 644620602,
            "nextDialogs": [
                644620603
            ],
            "talkRole": {
                "type": "TALK_ROLE_NPC",
                "id": "4462"
            },
            "talkContentTextMapHash": 1611834906,
            "talkAssetPath": "",
            "talkAssetPathAlter": "",
            "talkAudioName": "",
            "actionBefore": "",
            "actionWhile": "",
            "actionAfter": "",
            "optionIcon": ""
        },
        {
            "id": 644620603,
            "talkRole": {
                "type": "TALK_ROLE_NPC",
                "id": "4462"
            },
            "talkContentTextMapHash": 2546172706,
            "talkAssetPath": "",
            "talkAssetPathAlter": "",
            "talkAudioName": "",
            "actionBefore": "",
            "actionWhile": "",
            "actionAfter": "",
            "optionIcon": ""
        }
    ]
}