{
    "talkId": 6500305,
    "type": "FREE",
    "dialogList": [
        {
            "id": 650030501,
            "nextDialogs": [
                650030502
            ],
            "talkShowType": "TALK_SHOW_FORCE_SELECT",
            "talkRole": {
                "type": "TALK_ROLE_PLAYER",
                "id": ""
            },
            "talkContentTextMapHash": 1437872786,
            "talkAssetPath": "",
            "talkAssetPathAlter": "",
            "talkAudioName": "",
            "actionBefore": "",
            "actionWhile": "",
            "actionAfter": "",
            "optionIcon": ""
        },
        {
            "id": 650030502,
            "nextDialogs": [
                650030503
            ],
            "talkRole": {
                "type": "TALK_ROLE_NPC",
                "id": "5003"
            },
            "talkContentTextMapHash": 1981034186,
            "talkAssetPath": "",
            "talkAssetPathAlter": "",
            "talkAudioName": "",
            "actionBefore": "",
            "actionWhile": "SimpleTalk/Think",
            "actionAfter": "",
            "optionIcon": ""
        },
        {
            "id": 650030503,
            "nextDialogs": [
                650030504
            ],
            "talkRole": {
                "type": "TALK_ROLE_NPC",
                "id": "5003"
            },
            "talkContentTextMapHash": 721181162,
            "talkAssetPath": "",
            "talkAssetPathAlter": "",
            "talkAudioName": "",
            "actionBefore": "",
            "actionWhile": "",
            "actionAfter": "",
            "optionIcon": ""
        },
        {
            "id": 650030504,
            "nextDialogs": [
                650030505
            ],
            "talkRole": {
                "type": "TALK_ROLE_NPC",
                "id": "5003"
            },
            "talkContentTextMapHash": 4036650250,
            "talkAssetPath": "",
            "talkAssetPathAlter": "",
            "talkAudioName": "",
            "actionBefore": "",
            "actionWhile": "",
            "actionAfter": "",
            "optionIcon": ""
        },
        {
            "id": 650030505,
            "nextDialogs": [
                650030506
            ],
            "talkRole": {
                "type": "TALK_ROLE_NPC",
                "id": "5003"
            },
            "talkContentTextMapHash": 1992382242,
            "talkAssetPath": "",
            "talkAssetPathAlter": "",
            "talkAudioName": "",
            "actionBefore": "",
            "actionWhile": "",
            "actionAfter": "",
            "optionIcon": ""
        },
        {
            "id": 650030506,
            "talkRole": {
                "type": "TALK_ROLE_NPC",
                "id": "5003"
            },
            "talkContentTextMapHash": 3208746690,
            "talkAssetPath": "",
            "talkAssetPathAlter": "",
            "talkAudioName": "",
            "actionBefore": "",
            "actionWhile": "SimpleTalk/Confuse",
            "actionAfter": "SimpleTalk/Idle_End",
            "optionIcon": ""
        }
    ]
}