{
    "talkId": 6501802,
    "type": "FREE",
    "dialogList": [
        {
            "id": 650180201,
            "nextDialogs": [
                650180202
            ],
            "talkShowType": "TALK_SHOW_FORCE_SELECT",
            "talkRole": {
                "type": "TALK_ROLE_PLAYER",
                "id": ""
            },
            "talkContentTextMapHash": 2630350434,
            "talkAssetPath": "",
            "talkAssetPathAlter": "",
            "talkAudioName": "",
            "actionBefore": "",
            "actionWhile": "TEST/LerpInNpc",
            "actionAfter": "",
            "optionIcon": ""
        },
        {
            "id": 650180202,
            "nextDialogs": [
                650180203
            ],
            "talkRole": {
                "type": "TALK_ROLE_NPC",
                "id": "5018"
            },
            "talkContentTextMapHash": 3526402674,
            "talkAssetPath": "",
            "talkAssetPathAlter": "",
            "talkAudioName": "",
            "actionBefore": "",
            "actionWhile": "TEST/LerpInNpc",
            "actionAfter": "",
            "optionIcon": ""
        },
        {
            "id": 650180203,
            "talkRole": {
                "type": "TALK_ROLE_NPC",
                "id": "5018"
            },
            "talkContentTextMapHash": 14274594,
            "talkAssetPath": "",
            "talkAssetPathAlter": "",
            "talkAudioName": "",
            "actionBefore": "",
            "actionWhile": "",
            "actionAfter": "",
            "optionIcon": ""
        }
    ]
}