{
    "talkId": 6501706,
    "type": "FREE",
    "dialogList": [
        {
            "id": 650170601,
            "nextDialogs": [
                650170602
            ],
            "talkShowType": "TALK_SHOW_FORCE_SELECT",
            "talkRole": {
                "type": "TALK_ROLE_PLAYER",
                "id": ""
            },
            "talkContentTextMapHash": 2560472154,
            "talkAssetPath": "",
            "talkAssetPathAlter": "",
            "talkAudioName": "",
            "actionBefore": "",
            "actionWhile": "",
            "actionAfter": "",
            "optionIcon": ""
        },
        {
            "id": 650170602,
            "nextDialogs": [
                650170603
            ],
            "talkRole": {
                "type": "TALK_ROLE_NPC",
                "id": "5017"
            },
            "talkContentTextMapHash": 3242103690,
            "talkAssetPath": "",
            "talkAssetPathAlter": "",
            "talkAudioName": "",
            "actionBefore": "",
            "actionWhile": "",
            "actionAfter": "",
            "optionIcon": ""
        },
        {
            "id": 650170603,
            "nextDialogs": [
                650170604
            ],
            "talkRole": {
                "type": "TALK_ROLE_NPC",
                "id": "5017"
            },
            "talkContentTextMapHash": 190121538,
            "talkAssetPath": "",
            "talkAssetPathAlter": "",
            "talkAudioName": "",
            "actionBefore": "",
            "actionWhile": "",
            "actionAfter": "",
            "optionIcon": ""
        },
        {
            "id": 650170604,
            "nextDialogs": [
                650170605
            ],
            "talkRole": {
                "type": "TALK_ROLE_NPC",
                "id": "5017"
            },
            "talkContentTextMapHash": 2360108434,
            "talkAssetPath": "",
            "talkAssetPathAlter": "",
            "talkAudioName": "",
            "actionBefore": "",
            "actionWhile": "",
            "actionAfter": "",
            "optionIcon": ""
        },
        {
            "id": 650170605,
            "talkRole": {
                "type": "TALK_ROLE_NPC",
                "id": "5017"
            },
            "talkContentTextMapHash": 2883657658,
            "talkAssetPath": "",
            "talkAssetPathAlter": "",
            "talkAudioName": "",
            "actionBefore": "",
            "actionWhile": "",
            "actionAfter": "",
            "optionIcon": ""
        }
    ]
}