{
    "talkId": 6502301,
    "type": "FREE",
    "dialogList": [
        {
            "id": 650230101,
            "nextDialogs": [
                650230102
            ],
            "talkRole": {
                "type": "TALK_ROLE_NPC",
                "id": "5023"
            },
            "talkContentTextMapHash": 3425653242,
            "talkAssetPath": "",
            "talkAssetPathAlter": "",
            "talkAudioName": "",
            "actionBefore": "",
            "actionWhile": "SimpleTalk/LerpInNpcNoSteer_Start",
            "actionAfter": "",
            "optionIcon": ""
        },
        {
            "id": 650230102,
            "nextDialogs": [
                650230103
            ],
            "talkRole": {
                "type": "TALK_ROLE_NPC",
                "id": "5022"
            },
            "talkContentTextMapHash": 1618288810,
            "talkAssetPath": "",
            "talkAssetPathAlter": "",
            "talkAudioName": "",
            "actionBefore": "",
            "actionWhile": "",
            "actionAfter": "",
            "optionIcon": ""
        },
        {
            "id": 650230103,
            "nextDialogs": [
                650230104
            ],
            "talkRole": {
                "type": "TALK_ROLE_NPC",
                "id": "5023"
            },
            "talkContentTextMapHash": 2154010066,
            "talkAssetPath": "",
            "talkAssetPathAlter": "",
            "talkAudioName": "",
            "actionBefore": "",
            "actionWhile": "",
            "actionAfter": "",
            "optionIcon": ""
        },
        {
            "id": 650230104,
            "nextDialogs": [
                650230105
            ],
            "talkRole": {
                "type": "TALK_ROLE_NPC",
                "id": "5022"
            },
            "talkContentTextMapHash": 512289658,
            "talkAssetPath": "",
            "talkAssetPathAlter": "",
            "talkAudioName": "",
            "actionBefore": "",
            "actionWhile": "",
            "actionAfter": "",
            "optionIcon": ""
        },
        {
            "id": 650230105,
            "nextDialogs": [
                650230106
            ],
            "talkRole": {
                "type": "TALK_ROLE_NPC",
                "id": "5023"
            },
            "talkContentTextMapHash": 857764938,
            "talkAssetPath": "",
            "talkAssetPathAlter": "",
            "talkAudioName": "",
            "actionBefore": "",
            "actionWhile": "",
            "actionAfter": "",
            "optionIcon": ""
        },
        {
            "id": 650230106,
            "nextDialogs": [
                650230107
            ],
            "talkRole": {
                "type": "TALK_ROLE_NPC",
                "id": "5022"
            },
            "talkContentTextMapHash": 751736258,
            "talkAssetPath": "",
            "talkAssetPathAlter": "",
            "talkAudioName": "",
            "actionBefore": "",
            "actionWhile": "",
            "actionAfter": "",
            "optionIcon": ""
        },
        {
            "id": 650230107,
            "nextDialogs": [
                650230108
            ],
            "talkRole": {
                "type": "TALK_ROLE_NPC",
                "id": "5023"
            },
            "talkContentTextMapHash": 3761211122,
            "talkAssetPath": "",
            "talkAssetPathAlter": "",
            "talkAudioName": "",
            "actionBefore": "",
            "actionWhile": "",
            "actionAfter": "",
            "optionIcon": ""
        },
        {
            "id": 650230108,
            "nextDialogs": [
                650230109
            ],
            "talkRole": {
                "type": "TALK_ROLE_NPC",
                "id": "5023"
            },
            "talkContentTextMapHash": 1050638914,
            "talkAssetPath": "",
            "talkAssetPathAlter": "",
            "talkAudioName": "",
            "actionBefore": "",
            "actionWhile": "",
            "actionAfter": "",
            "optionIcon": ""
        },
        {
            "id": 650230109,
            "nextDialogs": [
                650230110
            ],
            "talkRole": {
                "type": "TALK_ROLE_NPC",
                "id": "5023"
            },
            "talkContentTextMapHash": 1294981186,
            "talkAssetPath": "",
            "talkAssetPathAlter": "",
            "talkAudioName": "",
            "actionBefore": "",
            "actionWhile": "",
            "actionAfter": "",
            "optionIcon": ""
        },
        {
            "id": 650230110,
            "talkRole": {
                "type": "TALK_ROLE_NPC",
                "id": "5022"
            },
            "talkContentTextMapHash": 3078987250,
            "talkAssetPath": "",
            "talkAssetPathAlter": "",
            "talkAudioName": "",
            "actionBefore": "",
            "actionWhile": "",
            "actionAfter": "SimpleTalk/LerpOutNpcNoSteer_End",
            "optionIcon": ""
        }
    ]
}