{
    "talkId": 6504202,
    "type": "FREE",
    "dialogList": [
        {
            "id": 650420201,
            "nextDialogs": [
                650420202
            ],
            "talkShowType": "TALK_SHOW_FORCE_SELECT",
            "talkRole": {
                "type": "TALK_ROLE_PLAYER",
                "id": ""
            },
            "talkContentTextMapHash": 3464912562,
            "talkAssetPath": "",
            "talkAssetPathAlter": "",
            "talkAudioName": "",
            "actionBefore": "",
            "actionWhile": "",
            "actionAfter": "",
            "optionIcon": "UI_Icon_Intee_Reputation"
        },
        {
            "id": 650420202,
            "talkRole": {
                "type": "TALK_ROLE_NPC",
                "id": "5042"
            },
            "talkContentTextMapHash": 2729323290,
            "talkAssetPath": "",
            "talkAssetPathAlter": "",
            "talkAudioName": "",
            "actionBefore": "",
            "actionWhile": "",
            "actionAfter": "UI/open_reputation_page",
            "optionIcon": ""
        }
    ]
}