{
    "talkId": 6505103,
    "type": "FREE",
    "dialogList": [
        {
            "id": 650510301,
            "nextDialogs": [
                650510302
            ],
            "talkShowType": "TALK_SHOW_FORCE_SELECT",
            "talkRole": {
                "type": "TALK_ROLE_PLAYER",
                "id": ""
            },
            "talkContentTextMapHash": 515564762,
            "talkAssetPath": "",
            "talkAssetPathAlter": "",
            "talkAudioName": "",
            "actionBefore": "",
            "actionWhile": "",
            "actionAfter": "",
            "optionIcon": ""
        },
        {
            "id": 650510302,
            "nextDialogs": [
                650510303
            ],
            "talkRole": {
                "type": "TALK_ROLE_NPC",
                "id": "5051"
            },
            "talkContentTextMapHash": 3563162402,
            "talkAssetPath": "",
            "talkAssetPathAlter": "",
            "talkAudioName": "",
            "actionBefore": "",
            "actionWhile": "",
            "actionAfter": "",
            "optionIcon": ""
        },
        {
            "id": 650510303,
            "nextDialogs": [
                650510304
            ],
            "talkRole": {
                "type": "TALK_ROLE_NPC",
                "id": "5051"
            },
            "talkContentTextMapHash": 780207562,
            "talkAssetPath": "",
            "talkAssetPathAlter": "",
            "talkAudioName": "",
            "actionBefore": "",
            "actionWhile": "",
            "actionAfter": "",
            "optionIcon": ""
        },
        {
            "id": 650510304,
            "nextDialogs": [
                650510305
            ],
            "talkRole": {
                "type": "TALK_ROLE_NPC",
                "id": "5051"
            },
            "talkContentTextMapHash": 2813386474,
            "talkAssetPath": "",
            "talkAssetPathAlter": "",
            "talkAudioName": "",
            "actionBefore": "",
            "actionWhile": "",
            "actionAfter": "",
            "optionIcon": ""
        },
        {
            "id": 650510305,
            "talkRole": {
                "type": "TALK_ROLE_NPC",
                "id": "5051"
            },
            "talkContentTextMapHash": 1293705906,
            "talkAssetPath": "",
            "talkAssetPathAlter": "",
            "talkAudioName": "",
            "actionBefore": "",
            "actionWhile": "",
            "actionAfter": "",
            "optionIcon": ""
        }
    ]
}