{
    "talkId": 6506404,
    "type": "FREE",
    "dialogList": [
        {
            "id": 650640401,
            "nextDialogs": [
                650640402
            ],
            "talkShowType": "TALK_SHOW_FORCE_SELECT",
            "talkRole": {
                "type": "TALK_ROLE_PLAYER",
                "id": ""
            },
            "talkContentTextMapHash": 4014788338,
            "talkAssetPath": "",
            "talkAssetPathAlter": "",
            "talkAudioName": "",
            "actionBefore": "",
            "actionWhile": "",
            "actionAfter": "",
            "optionIcon": ""
        },
        {
            "id": 650640402,
            "talkRole": {
                "type": "TALK_ROLE_NPC",
                "id": "5064"
            },
            "talkContentTextMapHash": 3124649234,
            "talkAssetPath": "",
            "talkAssetPathAlter": "",
            "talkAudioName": "",
            "actionBefore": "",
            "actionWhile": "",
            "actionAfter": "",
            "optionIcon": ""
        }
    ]
}