{
    "talkId": 6509403,
    "type": "FREE",
    "dialogList": [
        {
            "id": 650940301,
            "nextDialogs": [
                650940302
            ],
            "talkShowType": "TALK_SHOW_FORCE_SELECT",
            "talkRole": {
                "type": "TALK_ROLE_PLAYER",
                "id": ""
            },
            "talkContentTextMapHash": 1893252410,
            "talkAssetPath": "",
            "talkAssetPathAlter": "",
            "talkAudioName": "",
            "actionBefore": "",
            "actionWhile": "",
            "actionAfter": "",
            "optionIcon": ""
        },
        {
            "id": 650940302,
            "talkRole": {
                "type": "TALK_ROLE_NPC",
                "id": "5094"
            },
            "talkContentTextMapHash": 188364482,
            "talkAssetPath": "",
            "talkAssetPathAlter": "",
            "talkAudioName": "",
            "actionBefore": "",
            "actionWhile": "",
            "actionAfter": "",
            "optionIcon": ""
        }
    ]
}