{
    "talkId": 6509101,
    "type": "FREE",
    "dialogList": [
        {
            "id": 650910101,
            "talkRole": {
                "type": "TALK_ROLE_NPC",
                "id": "5091"
            },
            "talkContentTextMapHash": 747175226,
            "talkAssetPath": "",
            "talkAssetPathAlter": "",
            "talkAudioName": "",
            "actionBefore": "",
            "actionWhile": "",
            "actionAfter": "",
            "optionIcon": ""
        }
    ]
}