{
    "talkId": 6512701,
    "type": "FREE",
    "dialogList": [
        {
            "id": 651270101,
            "talkRole": {
                "type": "TALK_ROLE_NPC",
                "id": "5127"
            },
            "talkContentTextMapHash": 817193370,
            "talkAssetPath": "",
            "talkAssetPathAlter": "",
            "talkAudioName": "",
            "actionBefore": "",
            "actionWhile": "SimpleTalk/LerpInNpcDailyTalk_Start",
            "actionAfter": "",
            "optionIcon": ""
        }
    ]
}