{
    "talkId": 6526601,
    "type": "FREE",
    "dialogList": [
        {
            "id": 652660101,
            "talkRole": {
                "type": "TALK_ROLE_NPC",
                "id": "5266"
            },
            "talkContentTextMapHash": 43227530,
            "talkAssetPath": "",
            "talkAssetPathAlter": "",
            "talkAudioName": "",
            "actionBefore": "",
            "actionWhile": "SimpleTalk/LerpInNpcDailyTalk_Start",
            "actionAfter": "",
            "optionIcon": ""
        }
    ]
}