{
    "talkId": 6531105,
    "type": "FREE",
    "dialogList": [
        {
            "id": 653110501,
            "nextDialogs": [
                653110502
            ],
            "talkShowType": "TALK_SHOW_FORCE_SELECT",
            "talkRole": {
                "type": "TALK_ROLE_PLAYER",
                "id": ""
            },
            "talkContentTextMapHash": 1003100290,
            "talkAssetPath": "",
            "talkAssetPathAlter": "",
            "talkAudioName": "",
            "actionBefore": "",
            "actionWhile": "",
            "actionAfter": "",
            "optionIcon": ""
        },
        {
            "id": 653110502,
            "talkRole": {
                "type": "TALK_ROLE_NPC",
                "id": "5311"
            },
            "talkContentTextMapHash": 342542570,
            "talkAssetPath": "",
            "talkAssetPathAlter": "",
            "talkAudioName": "",
            "actionBefore": "",
            "actionWhile": "",
            "actionAfter": "",
            "optionIcon": ""
        }
    ]
}