{
    "talkId": 6531609,
    "type": "FREE",
    "dialogList": [
        {
            "id": 653160901,
            "nextDialogs": [
                653160902
            ],
            "talkShowType": "TALK_SHOW_FORCE_SELECT",
            "talkRole": {
                "type": "TALK_ROLE_PLAYER",
                "id": ""
            },
            "talkContentTextMapHash": 395031546,
            "talkAssetPath": "",
            "talkAssetPathAlter": "",
            "talkAudioName": "",
            "actionBefore": "",
            "actionWhile": "",
            "actionAfter": "",
            "optionIcon": ""
        },
        {
            "id": 653160902,
            "nextDialogs": [
                653160903
            ],
            "talkRole": {
                "type": "TALK_ROLE_NPC",
                "id": "5316"
            },
            "talkContentTextMapHash": 4231123930,
            "talkAssetPath": "",
            "talkAssetPathAlter": "",
            "talkAudioName": "",
            "actionBefore": "",
            "actionWhile": "",
            "actionAfter": "",
            "optionIcon": ""
        },
        {
            "id": 653160903,
            "talkRole": {
                "type": "TALK_ROLE_NPC",
                "id": "5316"
            },
            "talkContentTextMapHash": 2962491514,
            "talkAssetPath": "",
            "talkAssetPathAlter": "",
            "talkAudioName": "",
            "actionBefore": "",
            "actionWhile": "",
            "actionAfter": "",
            "optionIcon": ""
        }
    ]
}