{
    "talkId": 6954603,
    "type": "FREE",
    "dialogList": [
        {
            "id": 695460301,
            "nextDialogs": [
                695460302
            ],
            "talkRole": {
                "type": "TALK_ROLE_PLAYER",
                "id": ""
            },
            "talkContentTextMapHash": 3895399018,
            "talkAssetPath": "",
            "talkAssetPathAlter": "",
            "talkAudioName": "",
            "actionBefore": "",
            "actionWhile": "",
            "actionAfter": "",
            "optionIcon": ""
        },
        {
            "id": 695460302,
            "talkRole": {
                "type": "TALK_ROLE_NPC",
                "id": "9546"
            },
            "talkContentTextMapHash": 4047511666,
            "talkAssetPath": "",
            "talkAssetPathAlter": "",
            "talkAudioName": "",
            "actionBefore": "",
            "actionWhile": "",
            "actionAfter": "",
            "optionIcon": ""
        }
    ]
}