{
    "talkId": 7370302,
    "type": "FREE",
    "dialogList": [
        {
            "id": 737030201,
            "nextDialogs": [
                737030202
            ],
            "talkRole": {
                "type": "TALK_ROLE_NPC",
                "id": "13356"
            },
            "talkContentTextMapHash": 505988938,
            "talkAssetPath": "",
            "talkAssetPathAlter": "",
            "talkAudioName": "",
            "actionBefore": "",
            "actionWhile": "",
            "actionAfter": "",
            "optionIcon": ""
        },
        {
            "id": 737030202,
            "talkRole": {
                "type": "TALK_ROLE_NPC",
                "id": "13356"
            },
            "talkContentTextMapHash": 3929314778,
            "talkAssetPath": "",
            "talkAssetPathAlter": "",
            "talkAudioName": "",
            "actionBefore": "",
            "actionWhile": "",
            "actionAfter": "",
            "optionIcon": ""
        }
    ]
}