{
    "talkId": 7400013,
    "type": "FREE",
    "dialogList": [
        {
            "id": 740001301,
            "talkRole": {
                "type": "TALK_ROLE_NPC",
                "id": "21235"
            },
            "talkContentTextMapHash": 397599034,
            "talkAssetPath": "",
            "talkAssetPathAlter": "",
            "talkAudioName": "",
            "actionBefore": "",
            "actionWhile": "",
            "actionAfter": "",
            "optionIcon": ""
        }
    ]
}