{
    "talkId": 7403404,
    "type": "FREE",
    "dialogList": [
        {
            "id": 740340401,
            "talkRole": {
                "type": "TALK_ROLE_NPC",
                "id": "5084"
            },
            "talkContentTextMapHash": 3045179026,
            "talkAssetPath": "",
            "talkAssetPathAlter": "",
            "talkAudioName": "",
            "actionBefore": "",
            "actionWhile": "",
            "actionAfter": "",
            "optionIcon": ""
        }
    ]
}