{
    "luaDataPath": "",
    "dontUseDefaultFinish": true,
    "startBlackKeepTime": 0.5,
    "entityBan": "",
    "disableNpcLod": true,
    "BHNKJKDADLC": true,
    "JJFIGGKCCCF": true,
    "EKDGNGHMECG": true,
    "startFade": {
        "startFadeInDuration": 0.5,
        "startFadeOutDuration": 0.0
    },
    "endFade": {
        "startFadeOutDuration": 0.0
    },
    "actors": [
        {
            "alias": "Avatar",
            "visible": true,
            "bornPointName": "Q1300614_N10000005",
            "relativePosType": "AVATAR_NEW",
            "relativePosNpcAlias": "",
            "bindMovingTargetKey": ""
        },
        {
            "configID": 1054,
            "alias": "1054",
            "visible": true,
            "bornPointName": "Q1300614_N1054",
            "relativePosType": "AVATAR_NEW",
            "relativePosNpcAlias": "",
            "bindMovingTargetKey": ""
        },
        {
            "configID": 1005,
            "alias": "1005",
            "visible": true,
            "bornPointName": "Q1300614_N1005",
            "removeActorType": "REMOVE_WITH_DISAPPEAR",
            "relativePosType": "AVATAR_NEW",
            "relativePosNpcAlias": "",
            "bindMovingTargetKey": ""
        }
    ],
    "group": [
        [
            {
                "$type": "MoleMole.Config.ConfigTimeProtectAction",
                "type": "TIME_PROTECT",
                "duration": 0.10000000149011612
            },
            {
                "$type": "MoleMole.Config.ConfigBlackScreenAction",
                "type": "BLACK_SCREEN",
                "actionId": 130,
                "blackScreenType": "KEEP_BLACK",
                "durationKeepBlack": 0.5,
                "inteePos": "",
                "textMapID": "",
                "useTextFade": true
            },
            {
                "$type": "PBIGHFCHGCA",
                "type": "CAMERA_MOVE",
                "duration": 0.10000000149011612,
                "actionId": 268,
                "KCFKJMMEECM": {
                    "x": -406.9429931640625,
                    "y": 237.4040069580078,
                    "z": 2808.8701171875
                },
                "DLGJEHNPMFN": {
                    "x": -406.15301513671875,
                    "y": 237.22999572753906,
                    "z": 2808.281982421875
                },
                "NJCBGNHGINI": 30.0,
                "FNMFGIOLKBE": 6,
                "NECGMADJICG": "EaseInOutCubic",
                "BMHIHPIKAHM": {},
                "MMJMMAEAJOA": true,
                "HGGPLEMCNNG": false,
                "JBODIEHINII": "",
                "PHDIKPKLFIA": true,
                "EJCHLMIMLBO": "",
                "BIMPIKMCIHB": "",
                "MCAOJPLIJGI": ""
            },
            {
                "$type": "MoleMole.Config.ConfigTeleportToAction",
                "type": "TELEPORT_TO",
                "aliasList": [
                    "Avatar"
                ],
                "actionId": 135,
                "position": {
                    "x": -391.64599609375,
                    "y": 234.38299560546875,
                    "z": 2794.56396484375
                },
                "forward": {
                    "x": 0.796999990940094,
                    "z": -1.2109999656677246
                },
                "openLongDisTeleport": true,
                "posBindMovingTargetKey": "",
                "forwardBindMovingTargetKey": ""
            },
            {
                "$type": "FNPNDPFBBDD",
                "type": "LOOK_AT",
                "aliasList": [
                    "Avatar"
                ],
                "actionId": 136,
                "MNOPLOBEFLB": 0.5,
                "JBODIEHINII": "",
                "MDNPCOHCCLM": true,
                "LPCACGGCDLI": "",
                "NNFPFPOJJOJ": ""
            },
            {
                "$type": "MoleMole.Config.ConfigTeleportToAction",
                "type": "TELEPORT_TO",
                "aliasList": [
                    "1054"
                ],
                "actionId": 133,
                "position": {
                    "x": -391.1210021972656,
                    "y": 234.38299560546875,
                    "z": 2792.822021484375
                },
                "forward": {
                    "x": -0.32899999618530273,
                    "z": 0.6150000095367432
                },
                "openLongDisTeleport": true,
                "posBindMovingTargetKey": "",
                "forwardBindMovingTargetKey": ""
            },
            {
                "$type": "FNPNDPFBBDD",
                "type": "LOOK_AT",
                "aliasList": [
                    "1054"
                ],
                "actionId": 137,
                "MNOPLOBEFLB": 0.5,
                "JBODIEHINII": "",
                "MDNPCOHCCLM": true,
                "LPCACGGCDLI": "",
                "NNFPFPOJJOJ": ""
            },
            {
                "$type": "MoleMole.Config.ConfigTeleportToAction",
                "type": "TELEPORT_TO",
                "aliasList": [
                    "1005"
                ],
                "actionId": 134,
                "position": {
                    "x": -392.1289978027344,
                    "y": 234.38299560546875,
                    "z": 2794.197021484375
                },
                "forward": {
                    "x": 1.555999994277954,
                    "z": -2.2239999771118164
                },
                "openLongDisTeleport": true,
                "posBindMovingTargetKey": "",
                "forwardBindMovingTargetKey": ""
            },
            {
                "$type": "FNPNDPFBBDD",
                "type": "LOOK_AT",
                "aliasList": [
                    "1005"
                ],
                "actionId": 138,
                "MNOPLOBEFLB": 0.5,
                "JBODIEHINII": "",
                "MDNPCOHCCLM": true,
                "LPCACGGCDLI": "",
                "NNFPFPOJJOJ": ""
            }
        ],
        [
            {
                "$type": "PBIGHFCHGCA",
                "type": "CAMERA_MOVE",
                "duration": 0.5,
                "actionId": 127,
                "KCFKJMMEECM": {
                    "x": -406.9429931640625,
                    "y": 237.4040069580078,
                    "z": 2808.8701171875
                },
                "DLGJEHNPMFN": {
                    "x": -406.15301513671875,
                    "y": 237.22999572753906,
                    "z": 2808.281982421875
                },
                "NJCBGNHGINI": 30.0,
                "FNMFGIOLKBE": 6,
                "NECGMADJICG": "EaseInOutCubic",
                "BMHIHPIKAHM": {},
                "MMJMMAEAJOA": true,
                "HGGPLEMCNNG": false,
                "JBODIEHINII": "",
                "PHDIKPKLFIA": true,
                "EJCHLMIMLBO": "",
                "BIMPIKMCIHB": "",
                "MCAOJPLIJGI": ""
            },
            {
                "$type": "MoleMole.Config.ConfigBlackScreenAction",
                "type": "BLACK_SCREEN",
                "actionId": 128,
                "blackScreenType": "FROM_BLACK",
                "durationFromBlack": 0.5,
                "inteePos": "",
                "textMapID": "",
                "useTextFade": true
            },
            {
                "$type": "KAGAFALAIGP",
                "type": "DIALOG",
                "aliasList": [
                    "1054"
                ],
                "JHEPJOMJJHH": 130062601,
                "OCILKFCPBNC": 0.5
            },
            {
                "$type": "CENEPJCONAG",
                "type": "BODY_LANG",
                "aliasList": [
                    "1054"
                ],
                "actionId": 142,
                "OGFPAIKLDGB": 1170,
                "MHDCNDAINCK": true,
                "LHIAJOBFNAK": false,
                "GJGPNLJEIFP": true,
                "FOEKGLEJBIJ": ""
            },
            {
                "$type": "PCKGCMJKAFG",
                "type": "LOOK_AT_EYECTRL",
                "aliasList": [
                    "1054"
                ],
                "actionId": 275,
                "useTargetPos": false,
                "KIIEOLGDJKJ": {
                    "z": -1.0
                },
                "JMJDEGALFIP": {
                    "z": -1.0
                },
                "OEJLBIFJKEL": 0.20000000298023224,
                "JBODIEHINII": "",
                "FEHKBOLJIOO": "Face"
            },
            {
                "$type": "LNLLGCOBDFC",
                "type": "EMO_SYNC",
                "aliasList": [
                    "1054"
                ],
                "actionId": 245,
                "LKHHGAGNMKM": "Cs_Emo_Avatar_Simple_Common_Set/Cs_Emo_Avatar_Talk/Cs_Emo_Avatar_PersonalLine/Cs_Emo_Avatar_Nilou/Cs_Emo_130062601",
                "AIMKGPFAAAD": "",
                "IPEKOEDCGGF": "",
                "EJNFMNJKDAH": "",
                "LOOOCOLIHFA": "",
                "KJDLMAPPPMG": "",
                "EKJHPKFBONG": [
                    6496299657856218154,
                    60896567726281747,
                    15480611504878830555,
                    2049179492105949698
                ]
            },
            {
                "$type": "PBIGHFCHGCA",
                "type": "CAMERA_MOVE",
                "delayTime": 0.10000000149011612,
                "duration": 4.4710001945495605,
                "actionId": 139,
                "KCFKJMMEECM": {
                    "x": -407.09698486328125,
                    "y": 237.40499877929688,
                    "z": 2808.6630859375
                },
                "DLGJEHNPMFN": {
                    "x": -406.3070068359375,
                    "y": 237.2310028076172,
                    "z": 2808.074951171875
                },
                "NJCBGNHGINI": 30.0,
                "NECGMADJICG": "EaseOutQuad",
                "BMHIHPIKAHM": {},
                "MMJMMAEAJOA": true,
                "HGGPLEMCNNG": false,
                "JBODIEHINII": "",
                "PHDIKPKLFIA": true,
                "EJCHLMIMLBO": "",
                "BIMPIKMCIHB": "",
                "MCAOJPLIJGI": ""
            },
            {
                "$type": "PCKGCMJKAFG",
                "type": "LOOK_AT_EYECTRL",
                "delayTime": 1.0980000495910645,
                "aliasList": [
                    "1054"
                ],
                "actionId": 276,
                "useTargetPos": false,
                "KIIEOLGDJKJ": {
                    "x": 2.0,
                    "z": -1.0
                },
                "JMJDEGALFIP": {
                    "x": 2.0,
                    "z": -1.0
                },
                "OEJLBIFJKEL": 0.20000000298023224,
                "JBODIEHINII": "",
                "FEHKBOLJIOO": "Face"
            },
            {
                "$type": "PCKGCMJKAFG",
                "type": "LOOK_AT_EYECTRL",
                "delayTime": 2.7070000171661377,
                "aliasList": [
                    "1054"
                ],
                "actionId": 277,
                "useTargetPos": false,
                "KIIEOLGDJKJ": {
                    "x": -1.0,
                    "z": -1.0
                },
                "JMJDEGALFIP": {
                    "x": -1.0,
                    "z": -1.0
                },
                "OEJLBIFJKEL": 0.20000000298023224,
                "JBODIEHINII": "",
                "FEHKBOLJIOO": "Face"
            },
            {
                "$type": "CENEPJCONAG",
                "type": "BODY_LANG",
                "delayTime": 3.4730000495910645,
                "aliasList": [
                    "1054"
                ],
                "actionId": 144,
                "NNKEOHJCPOF": true,
                "MHDCNDAINCK": true,
                "LHIAJOBFNAK": false,
                "GJGPNLJEIFP": true,
                "FOEKGLEJBIJ": ""
            },
            {
                "$type": "PBIGHFCHGCA",
                "type": "CAMERA_MOVE",
                "delayTime": 4.591000080108643,
                "duration": 0.5,
                "actionId": 140,
                "KCFKJMMEECM": {
                    "x": -393.7300109863281,
                    "y": 235.85299682617188,
                    "z": 2795.172119140625
                },
                "DLGJEHNPMFN": {
                    "x": -392.86700439453125,
                    "y": 235.73300170898438,
                    "z": 2794.681884765625
                },
                "NJCBGNHGINI": 25.0,
                "FNMFGIOLKBE": 6,
                "NECGMADJICG": "EaseInOutCubic",
                "BMHIHPIKAHM": {},
                "MMJMMAEAJOA": true,
                "HGGPLEMCNNG": false,
                "JBODIEHINII": "",
                "PHDIKPKLFIA": true,
                "EJCHLMIMLBO": "",
                "BIMPIKMCIHB": "",
                "MCAOJPLIJGI": ""
            },
            {
                "$type": "PBIGHFCHGCA",
                "type": "CAMERA_MOVE",
                "delayTime": 4.64300012588501,
                "duration": 4.0269999504089355,
                "actionId": 141,
                "KCFKJMMEECM": {
                    "x": -393.77899169921875,
                    "y": 235.86000061035156,
                    "z": 2795.0849609375
                },
                "DLGJEHNPMFN": {
                    "x": -392.9159851074219,
                    "y": 235.74000549316406,
                    "z": 2794.594970703125
                },
                "NJCBGNHGINI": 25.0,
                "NECGMADJICG": "EaseOutQuad",
                "BMHIHPIKAHM": {},
                "MMJMMAEAJOA": true,
                "HGGPLEMCNNG": false,
                "JBODIEHINII": "",
                "PHDIKPKLFIA": true,
                "EJCHLMIMLBO": "",
                "BIMPIKMCIHB": "",
                "MCAOJPLIJGI": ""
            },
            {
                "$type": "PCKGCMJKAFG",
                "type": "LOOK_AT_EYECTRL",
                "delayTime": 4.817999839782715,
                "aliasList": [
                    "1054"
                ],
                "actionId": 146,
                "useTargetPos": false,
                "KIIEOLGDJKJ": {
                    "z": 4.0
                },
                "JMJDEGALFIP": {
                    "z": 4.0
                },
                "OEJLBIFJKEL": 0.20000000298023224,
                "JBODIEHINII": "",
                "FEHKBOLJIOO": "Face"
            },
            {
                "$type": "CENEPJCONAG",
                "type": "BODY_LANG",
                "delayTime": 4.817999839782715,
                "aliasList": [
                    "1054"
                ],
                "actionId": 143,
                "OGFPAIKLDGB": 1130,
                "MHDCNDAINCK": true,
                "LHIAJOBFNAK": false,
                "GJGPNLJEIFP": true,
                "FOEKGLEJBIJ": ""
            },
            {
                "$type": "FNPNDPFBBDD",
                "type": "LOOK_AT",
                "delayTime": 4.817999839782715,
                "aliasList": [
                    "1054"
                ],
                "actionId": 145,
                "NKGFDJDHOBD": true,
                "useTargetPos": true,
                "LBJHJADMNBD": true,
                "EKIONHAEIBG": {
                    "x": -391.6000061035156,
                    "y": 235.56300354003906,
                    "z": 2793.5400390625
                },
                "MNOPLOBEFLB": 0.5,
                "JBODIEHINII": "",
                "CFPBIOLLOCO": "NONE",
                "MDNPCOHCCLM": true,
                "LPCACGGCDLI": "",
                "NNFPFPOJJOJ": ""
            },
            {
                "$type": "PCKGCMJKAFG",
                "type": "LOOK_AT_EYECTRL",
                "delayTime": 5.927000045776367,
                "aliasList": [
                    "1054"
                ],
                "actionId": 279,
                "useTargetPos": false,
                "KIIEOLGDJKJ": {
                    "x": 2.0,
                    "z": 1.0
                },
                "JMJDEGALFIP": {
                    "x": 2.0,
                    "z": 1.0
                },
                "OEJLBIFJKEL": 0.20000000298023224,
                "JBODIEHINII": "",
                "FEHKBOLJIOO": "Face"
            },
            {
                "$type": "PCKGCMJKAFG",
                "type": "LOOK_AT_EYECTRL",
                "delayTime": 7.241000175476074,
                "aliasList": [
                    "1054"
                ],
                "actionId": 280,
                "useTargetPos": false,
                "OEJLBIFJKEL": 0.20000000298023224,
                "JBODIEHINII": "",
                "FEHKBOLJIOO": "Face"
            }
        ],
        [
            {
                "$type": "PBIGHFCHGCA",
                "type": "CAMERA_MOVE",
                "duration": 0.5,
                "actionId": 147,
                "KCFKJMMEECM": {
                    "x": -391.9049987792969,
                    "y": 235.2689971923828,
                    "z": 2787.385009765625
                },
                "DLGJEHNPMFN": {
                    "x": -391.8009948730469,
                    "y": 235.2740020751953,
                    "z": 2788.3798828125
                },
                "NJCBGNHGINI": 25.0,
                "FNMFGIOLKBE": 6,
                "NECGMADJICG": "EaseInOutCubic",
                "BMHIHPIKAHM": {},
                "MMJMMAEAJOA": true,
                "HGGPLEMCNNG": false,
                "JBODIEHINII": "",
                "PHDIKPKLFIA": true,
                "EJCHLMIMLBO": "",
                "BIMPIKMCIHB": "",
                "MCAOJPLIJGI": ""
            },
            {
                "$type": "CENEPJCONAG",
                "type": "BODY_LANG",
                "aliasList": [
                    "1005"
                ],
                "actionId": 151,
                "OGFPAIKLDGB": 1150,
                "MHDCNDAINCK": true,
                "LHIAJOBFNAK": false,
                "GJGPNLJEIFP": true,
                "FOEKGLEJBIJ": ""
            },
            {
                "$type": "FNPNDPFBBDD",
                "type": "LOOK_AT",
                "aliasList": [
                    "1005"
                ],
                "actionId": 149,
                "NKGFDJDHOBD": true,
                "MNOPLOBEFLB": 0.5,
                "JBODIEHINII": "1054",
                "MDNPCOHCCLM": true,
                "LPCACGGCDLI": "",
                "NNFPFPOJJOJ": ""
            },
            {
                "$type": "KAGAFALAIGP",
                "type": "DIALOG",
                "aliasList": [
                    "1005"
                ],
                "JHEPJOMJJHH": 130062602,
                "OCILKFCPBNC": 1.0
            },
            {
                "$type": "CENEPJCONAG",
                "type": "BODY_LANG",
                "aliasList": [
                    "1054"
                ],
                "actionId": 165,
                "NNKEOHJCPOF": true,
                "MHDCNDAINCK": true,
                "LHIAJOBFNAK": false,
                "GJGPNLJEIFP": true,
                "FOEKGLEJBIJ": ""
            },
            {
                "$type": "LNLLGCOBDFC",
                "type": "EMO_SYNC",
                "aliasList": [
                    "1005"
                ],
                "actionId": 252,
                "LKHHGAGNMKM": "Cs_Emo_Avatar_Simple_Common_Set/Cs_Emo_Avatar_Talk/Cs_Emo_Avatar_PersonalLine/Cs_Emo_Avatar_Nilou/Cs_Emo_130062602",
                "AIMKGPFAAAD": "",
                "IPEKOEDCGGF": "",
                "EJNFMNJKDAH": "",
                "LOOOCOLIHFA": "",
                "KJDLMAPPPMG": "",
                "EKJHPKFBONG": [
                    8269119813689283020,
                    5360890449523747486,
                    5058803535200748769,
                    12242603669702043094
                ]
            },
            {
                "$type": "FNPNDPFBBDD",
                "type": "LOOK_AT",
                "aliasList": [
                    "Avatar"
                ],
                "actionId": 148,
                "NKGFDJDHOBD": true,
                "MNOPLOBEFLB": 0.5,
                "JBODIEHINII": "1054",
                "MDNPCOHCCLM": true,
                "LPCACGGCDLI": "",
                "NNFPFPOJJOJ": ""
            },
            {
                "$type": "PBIGHFCHGCA",
                "type": "CAMERA_MOVE",
                "delayTime": 0.1080000028014183,
                "duration": 3.4100000858306885,
                "actionId": 153,
                "KCFKJMMEECM": {
                    "x": -392.0849914550781,
                    "y": 235.25399780273438,
                    "z": 2787.404052734375
                },
                "DLGJEHNPMFN": {
                    "x": -391.9809875488281,
                    "y": 235.25900268554688,
                    "z": 2788.39892578125
                },
                "NJCBGNHGINI": 25.0,
                "NECGMADJICG": "EaseOutQuad",
                "BMHIHPIKAHM": {},
                "MMJMMAEAJOA": true,
                "HGGPLEMCNNG": false,
                "JBODIEHINII": "",
                "PHDIKPKLFIA": true,
                "EJCHLMIMLBO": "",
                "BIMPIKMCIHB": "",
                "MCAOJPLIJGI": ""
            },
            {
                "$type": "LNLLGCOBDFC",
                "type": "EMO_SYNC",
                "delayTime": 0.6930000185966492,
                "aliasList": [
                    "Avatar"
                ],
                "actionId": 150,
                "LKHHGAGNMKM": "",
                "AIMKGPFAAAD": "Cs_Emo_Avatar_Common/Cs_Emo_Avatar_Normal01",
                "IPEKOEDCGGF": "Cs_Emo_Avatar_Common/Cs_Emo_Avatar_Normal01_B",
                "EJNFMNJKDAH": "",
                "LOOOCOLIHFA": "",
                "KJDLMAPPPMG": "",
                "IMIEGJDNPNN": [
                    9445916536337636767,
                    14128686126614747219,
                    10779105391569104182,
                    11659242061757756269
                ],
                "KIJHIMADJGM": [
                    12958401574658666588,
                    15474241282904027449,
                    9323653209111416134,
                    8508374650737503979
                ]
            },
            {
                "$type": "CENEPJCONAG",
                "type": "BODY_LANG",
                "delayTime": 1.6039999723434448,
                "aliasList": [
                    "1005"
                ],
                "actionId": 152,
                "OGFPAIKLDGB": 1110,
                "MHDCNDAINCK": true,
                "LHIAJOBFNAK": false,
                "GJGPNLJEIFP": true,
                "FOEKGLEJBIJ": ""
            },
            {
                "$type": "PBIGHFCHGCA",
                "type": "CAMERA_MOVE",
                "delayTime": 3.4760000705718994,
                "duration": 0.5,
                "actionId": 154,
                "KCFKJMMEECM": {
                    "x": -392.02801513671875,
                    "y": 235.6909942626953,
                    "z": 2792.7509765625
                },
                "DLGJEHNPMFN": {
                    "x": -392.00201416015625,
                    "y": 235.66900634765625,
                    "z": 2793.75
                },
                "NJCBGNHGINI": 25.0,
                "FNMFGIOLKBE": 6,
                "NECGMADJICG": "EaseInOutCubic",
                "BMHIHPIKAHM": {},
                "MMJMMAEAJOA": true,
                "HGGPLEMCNNG": false,
                "JBODIEHINII": "",
                "PHDIKPKLFIA": true,
                "EJCHLMIMLBO": "",
                "BIMPIKMCIHB": "",
                "MCAOJPLIJGI": ""
            },
            {
                "$type": "PBIGHFCHGCA",
                "type": "CAMERA_MOVE",
                "delayTime": 3.5380001068115234,
                "duration": 6.375999927520752,
                "actionId": 159,
                "KCFKJMMEECM": {
                    "x": -391.989013671875,
                    "y": 235.69000244140625,
                    "z": 2792.75
                },
                "DLGJEHNPMFN": {
                    "x": -391.9630126953125,
                    "y": 235.66799926757812,
                    "z": 2793.75
                },
                "NJCBGNHGINI": 25.0,
                "NECGMADJICG": "EaseOutQuad",
                "BMHIHPIKAHM": {},
                "MMJMMAEAJOA": true,
                "HGGPLEMCNNG": false,
                "JBODIEHINII": "",
                "PHDIKPKLFIA": true,
                "EJCHLMIMLBO": "",
                "BIMPIKMCIHB": "",
                "MCAOJPLIJGI": ""
            },
            {
                "$type": "CENEPJCONAG",
                "type": "BODY_LANG",
                "delayTime": 3.7760000228881836,
                "aliasList": [
                    "1005"
                ],
                "actionId": 156,
                "OGFPAIKLDGB": 1050,
                "MHDCNDAINCK": true,
                "LHIAJOBFNAK": false,
                "GJGPNLJEIFP": true,
                "FOEKGLEJBIJ": ""
            },
            {
                "$type": "FNPNDPFBBDD",
                "type": "LOOK_AT",
                "delayTime": 3.9210000038146973,
                "aliasList": [
                    "Avatar"
                ],
                "actionId": 161,
                "NKGFDJDHOBD": true,
                "MNOPLOBEFLB": 1.0,
                "JBODIEHINII": "1005",
                "MDNPCOHCCLM": true,
                "LPCACGGCDLI": "",
                "NNFPFPOJJOJ": ""
            },
            {
                "$type": "PCKGCMJKAFG",
                "type": "LOOK_AT_EYECTRL",
                "delayTime": 3.941999912261963,
                "aliasList": [
                    "Avatar"
                ],
                "actionId": 162,
                "useTargetPos": false,
                "KIIEOLGDJKJ": {
                    "x": 4.0
                },
                "JMJDEGALFIP": {
                    "x": 4.0
                },
                "OEJLBIFJKEL": 0.20000000298023224,
                "JBODIEHINII": "",
                "FEHKBOLJIOO": "Face"
            },
            {
                "$type": "LNLLGCOBDFC",
                "type": "EMO_SYNC",
                "delayTime": 4.142000198364258,
                "aliasList": [
                    "Avatar"
                ],
                "actionId": 176,
                "LKHHGAGNMKM": "",
                "AIMKGPFAAAD": "Cs_Emo_Avatar_Common/Cs_Emo_Avatar_Normal01",
                "IPEKOEDCGGF": "Cs_Emo_Avatar_Common/Cs_Emo_Avatar_Normal01_B",
                "EJNFMNJKDAH": "",
                "LOOOCOLIHFA": "",
                "KJDLMAPPPMG": "",
                "IMIEGJDNPNN": [
                    9445916536337636767,
                    14128686126614747219,
                    10779105391569104182,
                    11659242061757756269
                ],
                "KIJHIMADJGM": [
                    12958401574658666588,
                    15474241282904027449,
                    9323653209111416134,
                    8508374650737503979
                ]
            },
            {
                "$type": "CENEPJCONAG",
                "type": "BODY_LANG",
                "delayTime": 5.763000011444092,
                "aliasList": [
                    "1005"
                ],
                "actionId": 155,
                "OGFPAIKLDGB": 1180,
                "MHDCNDAINCK": true,
                "LHIAJOBFNAK": false,
                "GJGPNLJEIFP": true,
                "FOEKGLEJBIJ": ""
            },
            {
                "$type": "CENEPJCONAG",
                "type": "BODY_LANG",
                "delayTime": 7.5269999504089355,
                "aliasList": [
                    "1005"
                ],
                "actionId": 157,
                "NNKEOHJCPOF": true,
                "MHDCNDAINCK": true,
                "LHIAJOBFNAK": false,
                "GJGPNLJEIFP": true,
                "FOEKGLEJBIJ": ""
            }
        ],
        [
            {
                "$type": "PBIGHFCHGCA",
                "type": "CAMERA_MOVE",
                "duration": 0.5,
                "actionId": 163,
                "KCFKJMMEECM": {
                    "x": -391.42999267578125,
                    "y": 235.74099731445312,
                    "z": 2791.35595703125
                },
                "DLGJEHNPMFN": {
                    "x": -391.4639892578125,
                    "y": 235.64199829101562,
                    "z": 2792.35009765625
                },
                "NJCBGNHGINI": 25.0,
                "FNMFGIOLKBE": 6,
                "NECGMADJICG": "EaseInOutCubic",
                "BMHIHPIKAHM": {},
                "MMJMMAEAJOA": true,
                "HGGPLEMCNNG": false,
                "JBODIEHINII": "",
                "PHDIKPKLFIA": true,
                "EJCHLMIMLBO": "",
                "BIMPIKMCIHB": "",
                "MCAOJPLIJGI": ""
            },
            {
                "$type": "FNPNDPFBBDD",
                "type": "LOOK_AT",
                "aliasList": [
                    "Avatar"
                ],
                "actionId": 175,
                "NKGFDJDHOBD": true,
                "MNOPLOBEFLB": 0.5,
                "JBODIEHINII": "1054",
                "MDNPCOHCCLM": true,
                "LPCACGGCDLI": "",
                "NNFPFPOJJOJ": ""
            },
            {
                "$type": "LNLLGCOBDFC",
                "type": "EMO_SYNC",
                "aliasList": [
                    "Avatar"
                ],
                "actionId": 177,
                "LKHHGAGNMKM": "",
                "AIMKGPFAAAD": "Cs_Emo_Avatar_Common/Cs_Emo_Avatar_Normal01",
                "IPEKOEDCGGF": "Cs_Emo_Avatar_Common/Cs_Emo_Avatar_Normal01_B",
                "EJNFMNJKDAH": "",
                "LOOOCOLIHFA": "",
                "KJDLMAPPPMG": "",
                "IMIEGJDNPNN": [
                    9445916536337636767,
                    14128686126614747219,
                    10779105391569104182,
                    11659242061757756269
                ],
                "KIJHIMADJGM": [
                    12958401574658666588,
                    15474241282904027449,
                    9323653209111416134,
                    8508374650737503979
                ]
            },
            {
                "$type": "PCKGCMJKAFG",
                "type": "LOOK_AT_EYECTRL",
                "aliasList": [
                    "Avatar"
                ],
                "actionId": 178,
                "useTargetPos": false,
                "OEJLBIFJKEL": 0.20000000298023224,
                "JBODIEHINII": "",
                "FEHKBOLJIOO": "Face"
            },
            {
                "$type": "KAGAFALAIGP",
                "type": "DIALOG",
                "aliasList": [
                    "1005"
                ],
                "JHEPJOMJJHH": 130062603,
                "OCILKFCPBNC": 0.5
            },
            {
                "$type": "CENEPJCONAG",
                "type": "BODY_LANG",
                "aliasList": [
                    "1005"
                ],
                "actionId": 158,
                "NNKEOHJCPOF": true,
                "MHDCNDAINCK": true,
                "LHIAJOBFNAK": false,
                "GJGPNLJEIFP": true,
                "FOEKGLEJBIJ": ""
            },
            {
                "$type": "LNLLGCOBDFC",
                "type": "EMO_SYNC",
                "aliasList": [
                    "1005"
                ],
                "actionId": 253,
                "LKHHGAGNMKM": "Cs_Emo_Avatar_Simple_Common_Set/Cs_Emo_Avatar_Talk/Cs_Emo_Avatar_PersonalLine/Cs_Emo_Avatar_Nilou/Cs_Emo_130062603",
                "AIMKGPFAAAD": "",
                "IPEKOEDCGGF": "",
                "EJNFMNJKDAH": "",
                "LOOOCOLIHFA": "",
                "KJDLMAPPPMG": "",
                "EKJHPKFBONG": [
                    7223170307550642065,
                    196860278427665388,
                    6693830413623955427,
                    13645800115215371267
                ]
            },
            {
                "$type": "PBIGHFCHGCA",
                "type": "CAMERA_MOVE",
                "delayTime": 0.10000000149011612,
                "duration": 7.36899995803833,
                "actionId": 166,
                "KCFKJMMEECM": {
                    "x": -391.42498779296875,
                    "y": 235.80799865722656,
                    "z": 2791.363037109375
                },
                "DLGJEHNPMFN": {
                    "x": -391.4590148925781,
                    "y": 235.70899963378906,
                    "z": 2792.35693359375
                },
                "NJCBGNHGINI": 25.0,
                "NECGMADJICG": "EaseOutQuad",
                "BMHIHPIKAHM": {},
                "MMJMMAEAJOA": true,
                "HGGPLEMCNNG": false,
                "JBODIEHINII": "",
                "PHDIKPKLFIA": true,
                "EJCHLMIMLBO": "",
                "BIMPIKMCIHB": "",
                "MCAOJPLIJGI": ""
            },
            {
                "$type": "CENEPJCONAG",
                "type": "BODY_LANG",
                "delayTime": 0.6200000047683716,
                "aliasList": [
                    "1005"
                ],
                "actionId": 168,
                "OGFPAIKLDGB": 1170,
                "MHDCNDAINCK": true,
                "LHIAJOBFNAK": false,
                "GJGPNLJEIFP": true,
                "FOEKGLEJBIJ": ""
            },
            {
                "$type": "CENEPJCONAG",
                "type": "BODY_LANG",
                "delayTime": 3.00600004196167,
                "aliasList": [
                    "1005"
                ],
                "actionId": 167,
                "OGFPAIKLDGB": 1110,
                "MHDCNDAINCK": true,
                "LHIAJOBFNAK": false,
                "GJGPNLJEIFP": true,
                "FOEKGLEJBIJ": ""
            }
        ],
        [
            {
                "$type": "PBIGHFCHGCA",
                "type": "CAMERA_MOVE",
                "duration": 0.5,
                "actionId": 171,
                "KCFKJMMEECM": {
                    "x": -392.4200134277344,
                    "y": 236.2030029296875,
                    "z": 2793.382080078125
                },
                "DLGJEHNPMFN": {
                    "x": -391.5669860839844,
                    "y": 235.8280029296875,
                    "z": 2793.01806640625
                },
                "NJCBGNHGINI": 25.0,
                "FNMFGIOLKBE": 6,
                "NECGMADJICG": "EaseInOutCubic",
                "BMHIHPIKAHM": {},
                "MMJMMAEAJOA": true,
                "DNFHBDHNHKE": 2.0,
                "HGGPLEMCNNG": false,
                "JBODIEHINII": "",
                "PHDIKPKLFIA": true,
                "EJCHLMIMLBO": "",
                "BIMPIKMCIHB": "",
                "MCAOJPLIJGI": ""
            },
            {
                "$type": "KAGAFALAIGP",
                "type": "DIALOG",
                "aliasList": [
                    "1054"
                ],
                "JHEPJOMJJHH": 130062604,
                "OCILKFCPBNC": 0.5
            },
            {
                "$type": "FNPNDPFBBDD",
                "type": "LOOK_AT",
                "aliasList": [
                    "1054"
                ],
                "actionId": 180,
                "NKGFDJDHOBD": true,
                "useTargetPos": true,
                "LBJHJADMNBD": true,
                "EKIONHAEIBG": {
                    "x": -392.010986328125,
                    "y": 235.78399658203125,
                    "z": 2793.927001953125
                },
                "MNOPLOBEFLB": 0.5,
                "JBODIEHINII": "",
                "CFPBIOLLOCO": "NONE",
                "MDNPCOHCCLM": true,
                "LPCACGGCDLI": "",
                "NNFPFPOJJOJ": ""
            },
            {
                "$type": "PCKGCMJKAFG",
                "type": "LOOK_AT_EYECTRL",
                "aliasList": [
                    "1054"
                ],
                "actionId": 182,
                "useTargetPos": false,
                "OEJLBIFJKEL": 0.20000000298023224,
                "JBODIEHINII": "",
                "FEHKBOLJIOO": "Face"
            },
            {
                "$type": "LNLLGCOBDFC",
                "type": "EMO_SYNC",
                "aliasList": [
                    "1054"
                ],
                "actionId": 246,
                "LKHHGAGNMKM": "Cs_Emo_Avatar_Simple_Common_Set/Cs_Emo_Avatar_Talk/Cs_Emo_Avatar_PersonalLine/Cs_Emo_Avatar_Nilou/Cs_Emo_130062604",
                "AIMKGPFAAAD": "",
                "IPEKOEDCGGF": "",
                "EJNFMNJKDAH": "",
                "LOOOCOLIHFA": "",
                "KJDLMAPPPMG": "",
                "EKJHPKFBONG": [
                    16385599384944554533,
                    10790704547183464500,
                    18421325380907174177,
                    12998565201489680031
                ]
            },
            {
                "$type": "CENEPJCONAG",
                "type": "BODY_LANG",
                "aliasList": [
                    "1054"
                ],
                "actionId": 274,
                "OGFPAIKLDGB": 4030,
                "MHDCNDAINCK": true,
                "LHIAJOBFNAK": false,
                "GJGPNLJEIFP": true,
                "FOEKGLEJBIJ": ""
            },
            {
                "$type": "CENEPJCONAG",
                "type": "BODY_LANG",
                "aliasList": [
                    "1005"
                ],
                "actionId": 170,
                "NNKEOHJCPOF": true,
                "MHDCNDAINCK": true,
                "LHIAJOBFNAK": false,
                "GJGPNLJEIFP": true,
                "FOEKGLEJBIJ": ""
            },
            {
                "$type": "PBIGHFCHGCA",
                "type": "CAMERA_MOVE",
                "delayTime": 0.10000000149011612,
                "duration": 9.064000129699707,
                "actionId": 174,
                "KCFKJMMEECM": {
                    "x": -392.2879943847656,
                    "y": 236.14500427246094,
                    "z": 2793.325927734375
                },
                "DLGJEHNPMFN": {
                    "x": -391.43499755859375,
                    "y": 235.77000427246094,
                    "z": 2792.9619140625
                },
                "NJCBGNHGINI": 25.0,
                "NECGMADJICG": "EaseOutQuad",
                "BMHIHPIKAHM": {},
                "MMJMMAEAJOA": true,
                "DNFHBDHNHKE": 2.0,
                "HGGPLEMCNNG": false,
                "JBODIEHINII": "",
                "PHDIKPKLFIA": true,
                "EJCHLMIMLBO": "",
                "BIMPIKMCIHB": "",
                "MCAOJPLIJGI": ""
            },
            {
                "$type": "FNPNDPFBBDD",
                "type": "LOOK_AT",
                "delayTime": 3.5480000972747803,
                "aliasList": [
                    "1054"
                ],
                "actionId": 172,
                "NKGFDJDHOBD": true,
                "useTargetPos": true,
                "LBJHJADMNBD": true,
                "EKIONHAEIBG": {
                    "x": -392.052001953125,
                    "y": 235.5659942626953,
                    "z": 2793.904052734375
                },
                "MNOPLOBEFLB": 0.5,
                "JBODIEHINII": "1005",
                "CFPBIOLLOCO": "NONE",
                "MDNPCOHCCLM": true,
                "LPCACGGCDLI": "",
                "NNFPFPOJJOJ": ""
            },
            {
                "$type": "CENEPJCONAG",
                "type": "BODY_LANG",
                "delayTime": 3.6029999256134033,
                "aliasList": [
                    "1054"
                ],
                "actionId": 173,
                "OGFPAIKLDGB": 1130,
                "MHDCNDAINCK": true,
                "LHIAJOBFNAK": false,
                "GJGPNLJEIFP": true,
                "FOEKGLEJBIJ": ""
            },
            {
                "$type": "PCKGCMJKAFG",
                "type": "LOOK_AT_EYECTRL",
                "delayTime": 3.878999948501587,
                "aliasList": [
                    "1054"
                ],
                "actionId": 181,
                "useTargetPos": false,
                "KIIEOLGDJKJ": {
                    "z": 5.0
                },
                "JMJDEGALFIP": {
                    "z": 5.0
                },
                "OEJLBIFJKEL": 0.019999999552965164,
                "JBODIEHINII": "",
                "FEHKBOLJIOO": "Face"
            }
        ],
        [
            {
                "$type": "PBIGHFCHGCA",
                "type": "CAMERA_MOVE",
                "duration": 0.5,
                "actionId": 186,
                "KCFKJMMEECM": {
                    "x": -395.00299072265625,
                    "y": 235.63999938964844,
                    "z": 2794.8759765625
                },
                "DLGJEHNPMFN": {
                    "x": -394.0459899902344,
                    "y": 235.5919952392578,
                    "z": 2794.591064453125
                },
                "NJCBGNHGINI": 25.0,
                "FNMFGIOLKBE": 6,
                "NECGMADJICG": "EaseInOutCubic",
                "BMHIHPIKAHM": {},
                "MMJMMAEAJOA": true,
                "HGGPLEMCNNG": false,
                "JBODIEHINII": "",
                "PHDIKPKLFIA": true,
                "EJCHLMIMLBO": "",
                "BIMPIKMCIHB": "",
                "MCAOJPLIJGI": ""
            },
            {
                "$type": "MoleMole.Config.ConfigTeleportToAction",
                "type": "TELEPORT_TO",
                "aliasList": [
                    "Avatar"
                ],
                "actionId": 255,
                "position": {
                    "x": -391.91400146484375,
                    "y": 234.38299560546875,
                    "z": 2794.56396484375
                },
                "forward": {
                    "x": 0.6919999718666077,
                    "z": -1.4709999561309814
                },
                "openLongDisTeleport": true,
                "posBindMovingTargetKey": "",
                "forwardBindMovingTargetKey": ""
            },
            {
                "$type": "KAGAFALAIGP",
                "type": "DIALOG",
                "aliasList": [
                    "1054"
                ],
                "JHEPJOMJJHH": 130062605,
                "OCILKFCPBNC": 3.5
            },
            {
                "$type": "CENEPJCONAG",
                "type": "BODY_LANG",
                "aliasList": [
                    "1054"
                ],
                "actionId": 189,
                "NNKEOHJCPOF": true,
                "MHDCNDAINCK": true,
                "LHIAJOBFNAK": false,
                "GJGPNLJEIFP": true,
                "FOEKGLEJBIJ": ""
            },
            {
                "$type": "LNLLGCOBDFC",
                "type": "EMO_SYNC",
                "aliasList": [
                    "1054"
                ],
                "actionId": 247,
                "LKHHGAGNMKM": "Cs_Emo_Avatar_Simple_Common_Set/Cs_Emo_Avatar_Talk/Cs_Emo_Avatar_PersonalLine/Cs_Emo_Avatar_Nilou/Cs_Emo_130062605",
                "AIMKGPFAAAD": "",
                "IPEKOEDCGGF": "",
                "EJNFMNJKDAH": "",
                "LOOOCOLIHFA": "",
                "KJDLMAPPPMG": "",
                "EKJHPKFBONG": [
                    1642933745741439715,
                    14471482991391216924,
                    3577808564629264748,
                    13438600989905578268
                ]
            },
            {
                "$type": "FNPNDPFBBDD",
                "type": "LOOK_AT",
                "aliasList": [
                    "1054"
                ],
                "actionId": 265,
                "NKGFDJDHOBD": true,
                "useTargetPos": true,
                "LBJHJADMNBD": true,
                "EKIONHAEIBG": {
                    "x": -391.8940124511719,
                    "y": 235.84500122070312,
                    "z": 2794.587890625
                },
                "MNOPLOBEFLB": 0.5,
                "JBODIEHINII": "",
                "CFPBIOLLOCO": "NONE",
                "MDNPCOHCCLM": true,
                "LPCACGGCDLI": "",
                "NNFPFPOJJOJ": ""
            },
            {
                "$type": "PCKGCMJKAFG",
                "type": "LOOK_AT_EYECTRL",
                "aliasList": [
                    "1054"
                ],
                "actionId": 266,
                "useTargetPos": false,
                "OEJLBIFJKEL": 0.20000000298023224,
                "JBODIEHINII": "",
                "FEHKBOLJIOO": "Face"
            },
            {
                "$type": "MoleMole.Config.ConfigTeleportToAction",
                "type": "TELEPORT_TO",
                "aliasList": [
                    "1005"
                ],
                "actionId": 256,
                "position": {
                    "x": -392.3760070800781,
                    "y": 234.38299560546875,
                    "z": 2794.197021484375
                },
                "forward": {
                    "x": 0.6019999980926514,
                    "z": -0.7990000247955322
                },
                "openLongDisTeleport": true,
                "posBindMovingTargetKey": "",
                "forwardBindMovingTargetKey": ""
            },
            {
                "$type": "PBIGHFCHGCA",
                "type": "CAMERA_MOVE",
                "delayTime": 0.10000000149011612,
                "duration": 4.614999771118164,
                "actionId": 185,
                "KCFKJMMEECM": {
                    "x": -395.0299987792969,
                    "y": 235.63999938964844,
                    "z": 2794.785888671875
                },
                "DLGJEHNPMFN": {
                    "x": -394.072998046875,
                    "y": 235.5919952392578,
                    "z": 2794.5
                },
                "NJCBGNHGINI": 25.0,
                "NECGMADJICG": "EaseOutQuad",
                "BMHIHPIKAHM": {},
                "MMJMMAEAJOA": true,
                "HGGPLEMCNNG": false,
                "JBODIEHINII": "",
                "PHDIKPKLFIA": true,
                "EJCHLMIMLBO": "",
                "BIMPIKMCIHB": "",
                "MCAOJPLIJGI": ""
            },
            {
                "$type": "CENEPJCONAG",
                "type": "BODY_LANG",
                "delayTime": 0.3370000123977661,
                "aliasList": [
                    "1054"
                ],
                "actionId": 264,
                "OGFPAIKLDGB": 1172,
                "MHDCNDAINCK": true,
                "LHIAJOBFNAK": false,
                "GJGPNLJEIFP": true,
                "FOEKGLEJBIJ": ""
            },
            {
                "$type": "PCKGCMJKAFG",
                "type": "LOOK_AT_EYECTRL",
                "delayTime": 4.343999862670898,
                "aliasList": [
                    "1054"
                ],
                "actionId": 188,
                "useTargetPos": false,
                "KIIEOLGDJKJ": {
                    "z": -3.0
                },
                "JMJDEGALFIP": {
                    "z": -3.0
                },
                "OEJLBIFJKEL": 0.20000000298023224,
                "JBODIEHINII": "",
                "FEHKBOLJIOO": "Face"
            },
            {
                "$type": "FNPNDPFBBDD",
                "type": "LOOK_AT",
                "delayTime": 4.373000144958496,
                "aliasList": [
                    "1054"
                ],
                "actionId": 184,
                "NKGFDJDHOBD": true,
                "useTargetPos": true,
                "LBJHJADMNBD": true,
                "EKIONHAEIBG": {
                    "x": -391.5870056152344,
                    "y": 235.9429931640625,
                    "z": 2793.740966796875
                },
                "MNOPLOBEFLB": 0.5,
                "JBODIEHINII": "",
                "CFPBIOLLOCO": "NONE",
                "MDNPCOHCCLM": true,
                "LPCACGGCDLI": "",
                "NNFPFPOJJOJ": ""
            },
            {
                "$type": "PBIGHFCHGCA",
                "type": "CAMERA_MOVE",
                "delayTime": 4.6519999504089355,
                "duration": 0.5,
                "actionId": 187,
                "KCFKJMMEECM": {
                    "x": -391.13800048828125,
                    "y": 234.61399841308594,
                    "z": 2791.10302734375
                },
                "DLGJEHNPMFN": {
                    "x": -391.43499755859375,
                    "y": 234.99600219726562,
                    "z": 2791.97802734375
                },
                "FNMFGIOLKBE": 6,
                "NECGMADJICG": "EaseInOutCubic",
                "BMHIHPIKAHM": {},
                "MMJMMAEAJOA": true,
                "HGGPLEMCNNG": false,
                "JBODIEHINII": "",
                "PHDIKPKLFIA": true,
                "EJCHLMIMLBO": "",
                "BIMPIKMCIHB": "",
                "MCAOJPLIJGI": ""
            },
            {
                "$type": "PBIGHFCHGCA",
                "type": "CAMERA_MOVE",
                "delayTime": 4.73799991607666,
                "duration": 9.149999618530273,
                "actionId": 192,
                "KCFKJMMEECM": {
                    "x": -391.3450012207031,
                    "y": 234.64199829101562,
                    "z": 2791.02294921875
                },
                "DLGJEHNPMFN": {
                    "x": -391.6210021972656,
                    "y": 235.02200317382812,
                    "z": 2791.906005859375
                },
                "NECGMADJICG": "EaseOutQuad",
                "BMHIHPIKAHM": {},
                "MMJMMAEAJOA": true,
                "HGGPLEMCNNG": false,
                "JBODIEHINII": "",
                "PHDIKPKLFIA": true,
                "EJCHLMIMLBO": "",
                "BIMPIKMCIHB": "",
                "MCAOJPLIJGI": ""
            }
        ],
        [
            {
                "$type": "PBIGHFCHGCA",
                "type": "CAMERA_MOVE",
                "duration": 0.5,
                "actionId": 206,
                "KCFKJMMEECM": {
                    "x": -392.2550048828125,
                    "y": 235.93099975585938,
                    "z": 2795.31396484375
                },
                "DLGJEHNPMFN": {
                    "x": -391.7959899902344,
                    "y": 235.78199768066406,
                    "z": 2794.43798828125
                },
                "NJCBGNHGINI": 30.0,
                "FNMFGIOLKBE": 6,
                "NECGMADJICG": "EaseInOutCubic",
                "BMHIHPIKAHM": {},
                "MMJMMAEAJOA": true,
                "HGGPLEMCNNG": false,
                "JBODIEHINII": "",
                "PHDIKPKLFIA": true,
                "EJCHLMIMLBO": "",
                "BIMPIKMCIHB": "",
                "MCAOJPLIJGI": ""
            },
            {
                "$type": "MoleMole.Config.ConfigTeleportToAction",
                "type": "TELEPORT_TO",
                "aliasList": [
                    "Avatar"
                ],
                "actionId": 258,
                "position": {
                    "x": -391.64599609375,
                    "y": 234.38299560546875,
                    "z": 2794.56396484375
                },
                "forward": {
                    "x": 0.28600001335144043,
                    "z": -0.8240000009536743
                },
                "openLongDisTeleport": true,
                "posBindMovingTargetKey": "",
                "forwardBindMovingTargetKey": ""
            },
            {
                "$type": "KAGAFALAIGP",
                "type": "DIALOG",
                "aliasList": [
                    "1054"
                ],
                "JHEPJOMJJHH": 130062606,
                "OCILKFCPBNC": 3.0
            },
            {
                "$type": "CENEPJCONAG",
                "type": "BODY_LANG",
                "aliasList": [
                    "1054"
                ],
                "actionId": 214,
                "OGFPAIKLDGB": 1190,
                "MHDCNDAINCK": true,
                "LHIAJOBFNAK": false,
                "GJGPNLJEIFP": true,
                "FOEKGLEJBIJ": ""
            },
            {
                "$type": "FNPNDPFBBDD",
                "type": "LOOK_AT",
                "aliasList": [
                    "1054"
                ],
                "actionId": 217,
                "NKGFDJDHOBD": true,
                "MNOPLOBEFLB": 0.5,
                "JBODIEHINII": "Avatar",
                "MDNPCOHCCLM": true,
                "LPCACGGCDLI": "",
                "NNFPFPOJJOJ": ""
            },
            {
                "$type": "PCKGCMJKAFG",
                "type": "LOOK_AT_EYECTRL",
                "aliasList": [
                    "1054"
                ],
                "actionId": 218,
                "useTargetPos": false,
                "OEJLBIFJKEL": 0.20000000298023224,
                "JBODIEHINII": "",
                "FEHKBOLJIOO": "Face"
            },
            {
                "$type": "LNLLGCOBDFC",
                "type": "EMO_SYNC",
                "aliasList": [
                    "1054"
                ],
                "actionId": 248,
                "LKHHGAGNMKM": "Cs_Emo_Avatar_Simple_Common_Set/Cs_Emo_Avatar_Talk/Cs_Emo_Avatar_PersonalLine/Cs_Emo_Avatar_Nilou/Cs_Emo_130062606",
                "AIMKGPFAAAD": "",
                "IPEKOEDCGGF": "",
                "EJNFMNJKDAH": "",
                "LOOOCOLIHFA": "",
                "KJDLMAPPPMG": "",
                "EKJHPKFBONG": [
                    7143356578496882897,
                    9788324208419219856,
                    3275113878489540272,
                    2915543591415512046
                ]
            },
            {
                "$type": "MoleMole.Config.ConfigTeleportToAction",
                "type": "TELEPORT_TO",
                "aliasList": [
                    "1005"
                ],
                "actionId": 257,
                "position": {
                    "x": -392.1289978027344,
                    "y": 234.38299560546875,
                    "z": 2794.197021484375
                },
                "forward": {
                    "x": 0.5789999961853027,
                    "z": -0.796999990940094
                },
                "openLongDisTeleport": true,
                "posBindMovingTargetKey": "",
                "forwardBindMovingTargetKey": ""
            },
            {
                "$type": "PBIGHFCHGCA",
                "type": "CAMERA_MOVE",
                "delayTime": 0.10000000149011612,
                "duration": 10.984999656677246,
                "actionId": 198,
                "KCFKJMMEECM": {
                    "x": -392.31201171875,
                    "y": 235.93499755859375,
                    "z": 2795.282958984375
                },
                "DLGJEHNPMFN": {
                    "x": -391.8529968261719,
                    "y": 235.78599548339844,
                    "z": 2794.406982421875
                },
                "NJCBGNHGINI": 30.0,
                "NECGMADJICG": "EaseOutQuad",
                "BMHIHPIKAHM": {},
                "MMJMMAEAJOA": true,
                "HGGPLEMCNNG": false,
                "JBODIEHINII": "",
                "PHDIKPKLFIA": true,
                "EJCHLMIMLBO": "",
                "BIMPIKMCIHB": "",
                "MCAOJPLIJGI": ""
            },
            {
                "$type": "AAFOOOPNJLB",
                "type": "DIALOG_SELECT",
                "delayTime": 0.4000000059604645,
                "aliasList": [
                    "Avatar"
                ],
                "KFAEOBDAAME": [
                    130062607
                ],
                "ELPFMMBHOLF": [
                    1830452510
                ],
                "OEAAKJDIEFD": true
            },
            {
                "$type": "CENEPJCONAG",
                "type": "BODY_LANG",
                "delayTime": 2.750999927520752,
                "aliasList": [
                    "1054"
                ],
                "actionId": 267,
                "OGFPAIKLDGB": 4041,
                "MHDCNDAINCK": true,
                "LHIAJOBFNAK": false,
                "GJGPNLJEIFP": true,
                "FOEKGLEJBIJ": ""
            }
        ],
        [
            {
                "$type": "PBIGHFCHGCA",
                "type": "CAMERA_MOVE",
                "duration": 0.5,
                "actionId": 207,
                "KCFKJMMEECM": {
                    "x": -391.31500244140625,
                    "y": 235.58399963378906,
                    "z": 2792.89599609375
                },
                "DLGJEHNPMFN": {
                    "x": -391.7250061035156,
                    "y": 235.6230010986328,
                    "z": 2793.806884765625
                },
                "NJCBGNHGINI": 30.0,
                "FNMFGIOLKBE": 6,
                "NECGMADJICG": "EaseInOutCubic",
                "BMHIHPIKAHM": {},
                "MMJMMAEAJOA": true,
                "HGGPLEMCNNG": false,
                "JBODIEHINII": "",
                "PHDIKPKLFIA": true,
                "EJCHLMIMLBO": "",
                "BIMPIKMCIHB": "",
                "MCAOJPLIJGI": ""
            },
            {
                "$type": "PCKGCMJKAFG",
                "type": "LOOK_AT_EYECTRL",
                "aliasList": [
                    "Avatar"
                ],
                "actionId": 260,
                "useTargetPos": false,
                "OEJLBIFJKEL": 0.20000000298023224,
                "JBODIEHINII": "",
                "FEHKBOLJIOO": "Face"
            },
            {
                "$type": "KAGAFALAIGP",
                "type": "DIALOG",
                "aliasList": [
                    "1054"
                ],
                "JHEPJOMJJHH": 130062608,
                "OCILKFCPBNC": 0.5
            },
            {
                "$type": "FNPNDPFBBDD",
                "type": "LOOK_AT",
                "aliasList": [
                    "1054"
                ],
                "actionId": 208,
                "NKGFDJDHOBD": true,
                "MNOPLOBEFLB": 0.5,
                "JBODIEHINII": "Avatar",
                "MDNPCOHCCLM": true,
                "LPCACGGCDLI": "",
                "NNFPFPOJJOJ": ""
            },
            {
                "$type": "CENEPJCONAG",
                "type": "BODY_LANG",
                "aliasList": [
                    "1054"
                ],
                "actionId": 216,
                "NNKEOHJCPOF": true,
                "MHDCNDAINCK": true,
                "LHIAJOBFNAK": false,
                "GJGPNLJEIFP": true,
                "FOEKGLEJBIJ": ""
            },
            {
                "$type": "LNLLGCOBDFC",
                "type": "EMO_SYNC",
                "aliasList": [
                    "1054"
                ],
                "actionId": 249,
                "LKHHGAGNMKM": "Cs_Emo_Avatar_Simple_Common_Set/Cs_Emo_Avatar_Talk/Cs_Emo_Avatar_PersonalLine/Cs_Emo_Avatar_Nilou/Cs_Emo_130062608",
                "AIMKGPFAAAD": "",
                "IPEKOEDCGGF": "",
                "EJNFMNJKDAH": "",
                "LOOOCOLIHFA": "",
                "KJDLMAPPPMG": "",
                "EKJHPKFBONG": [
                    12539292339840294979,
                    6267522150440606676,
                    13798786062683595646,
                    908044979723047694
                ]
            },
            {
                "$type": "LNLLGCOBDFC",
                "type": "EMO_SYNC",
                "aliasList": [
                    "1005"
                ],
                "actionId": 227,
                "LKHHGAGNMKM": "",
                "AIMKGPFAAAD": "Cs_Emo_Pet_Common/Cs_Emo_Paimon_Angry01",
                "IPEKOEDCGGF": "Cs_Emo_Pet_Common/Cs_Emo_Paimon_Normal01_B",
                "EJNFMNJKDAH": "",
                "LOOOCOLIHFA": "",
                "KJDLMAPPPMG": "",
                "IMIEGJDNPNN": [
                    8887624181441475292,
                    18209086005751125871,
                    3291038487434063407,
                    2002509548947436691
                ],
                "KIJHIMADJGM": [
                    14892026956990897578,
                    7647528750435710781,
                    2171559387429051042,
                    15358483104891988261
                ]
            },
            {
                "$type": "PCKGCMJKAFG",
                "type": "LOOK_AT_EYECTRL",
                "aliasList": [
                    "1005"
                ],
                "actionId": 263,
                "useTargetPos": false,
                "OEJLBIFJKEL": 0.20000000298023224,
                "JBODIEHINII": "",
                "FEHKBOLJIOO": "Face"
            },
            {
                "$type": "CENEPJCONAG",
                "type": "BODY_LANG",
                "aliasList": [
                    "1005"
                ],
                "actionId": 269,
                "OGFPAIKLDGB": 1090,
                "MHDCNDAINCK": true,
                "LHIAJOBFNAK": false,
                "GJGPNLJEIFP": true,
                "FOEKGLEJBIJ": ""
            },
            {
                "$type": "PBIGHFCHGCA",
                "type": "CAMERA_MOVE",
                "delayTime": 0.10000000149011612,
                "duration": 8.0,
                "actionId": 213,
                "KCFKJMMEECM": {
                    "x": -391.2560119628906,
                    "y": 235.59800720214844,
                    "z": 2792.923095703125
                },
                "DLGJEHNPMFN": {
                    "x": -391.6659851074219,
                    "y": 235.63699340820312,
                    "z": 2793.833984375
                },
                "NJCBGNHGINI": 30.0,
                "NECGMADJICG": "EaseOutQuad",
                "BMHIHPIKAHM": {},
                "MMJMMAEAJOA": true,
                "HGGPLEMCNNG": false,
                "JBODIEHINII": "",
                "PHDIKPKLFIA": true,
                "EJCHLMIMLBO": "",
                "BIMPIKMCIHB": "",
                "MCAOJPLIJGI": ""
            },
            {
                "$type": "CENEPJCONAG",
                "type": "BODY_LANG",
                "delayTime": 0.8820000290870667,
                "aliasList": [
                    "1054"
                ],
                "actionId": 209,
                "OGFPAIKLDGB": 1173,
                "MHDCNDAINCK": true,
                "LHIAJOBFNAK": false,
                "GJGPNLJEIFP": true,
                "FOEKGLEJBIJ": ""
            },
            {
                "$type": "LNLLGCOBDFC",
                "type": "EMO_SYNC",
                "delayTime": 1.246999979019165,
                "aliasList": [
                    "Avatar"
                ],
                "actionId": 226,
                "LKHHGAGNMKM": "",
                "AIMKGPFAAAD": "Cs_Emo_Avatar_Common/Cs_Emo_Avatar_Normal01",
                "IPEKOEDCGGF": "Cs_Emo_Avatar_Common/Cs_Emo_Avatar_Normal01_B",
                "EJNFMNJKDAH": "",
                "LOOOCOLIHFA": "",
                "KJDLMAPPPMG": "",
                "IMIEGJDNPNN": [
                    9445916536337636767,
                    14128686126614747219,
                    10779105391569104182,
                    11659242061757756269
                ],
                "KIJHIMADJGM": [
                    12958401574658666588,
                    15474241282904027449,
                    9323653209111416134,
                    8508374650737503979
                ]
            },
            {
                "$type": "CENEPJCONAG",
                "type": "BODY_LANG",
                "delayTime": 4.769000053405762,
                "aliasList": [
                    "1054"
                ],
                "actionId": 211,
                "NNKEOHJCPOF": true,
                "MHDCNDAINCK": true,
                "LHIAJOBFNAK": false,
                "GJGPNLJEIFP": true,
                "FOEKGLEJBIJ": ""
            }
        ],
        [
            {
                "$type": "PBIGHFCHGCA",
                "type": "CAMERA_MOVE",
                "duration": 0.5,
                "actionId": 219,
                "KCFKJMMEECM": {
                    "x": -391.5069885253906,
                    "y": 235.76199340820312,
                    "z": 2793.739013671875
                },
                "DLGJEHNPMFN": {
                    "x": -391.14300537109375,
                    "y": 235.72000122070312,
                    "z": 2792.80810546875
                },
                "NJCBGNHGINI": 25.0,
                "FNMFGIOLKBE": 6,
                "NECGMADJICG": "EaseInOutCubic",
                "BMHIHPIKAHM": {},
                "MMJMMAEAJOA": true,
                "HGGPLEMCNNG": false,
                "JBODIEHINII": "",
                "PHDIKPKLFIA": true,
                "EJCHLMIMLBO": "",
                "BIMPIKMCIHB": "",
                "MCAOJPLIJGI": ""
            },
            {
                "$type": "KAGAFALAIGP",
                "type": "DIALOG",
                "aliasList": [
                    "1054"
                ],
                "JHEPJOMJJHH": 130062609,
                "OCILKFCPBNC": 0.5
            },
            {
                "$type": "CENEPJCONAG",
                "type": "BODY_LANG",
                "aliasList": [
                    "1054"
                ],
                "actionId": 225,
                "OGFPAIKLDGB": 1190,
                "MHDCNDAINCK": true,
                "LHIAJOBFNAK": false,
                "GJGPNLJEIFP": true,
                "FOEKGLEJBIJ": ""
            },
            {
                "$type": "LNLLGCOBDFC",
                "type": "EMO_SYNC",
                "aliasList": [
                    "1054"
                ],
                "actionId": 250,
                "LKHHGAGNMKM": "Cs_Emo_Avatar_Simple_Common_Set/Cs_Emo_Avatar_Talk/Cs_Emo_Avatar_PersonalLine/Cs_Emo_Avatar_Nilou/Cs_Emo_130062609",
                "AIMKGPFAAAD": "",
                "IPEKOEDCGGF": "",
                "EJNFMNJKDAH": "",
                "LOOOCOLIHFA": "",
                "KJDLMAPPPMG": "",
                "EKJHPKFBONG": [
                    18286771538091201319,
                    3558893522090577083,
                    12407575746173105206,
                    10528633513799414067
                ]
            },
            {
                "$type": "PCKGCMJKAFG",
                "type": "LOOK_AT_EYECTRL",
                "aliasList": [
                    "1054"
                ],
                "actionId": 283,
                "useTargetPos": false,
                "KIIEOLGDJKJ": {
                    "x": -2.0
                },
                "JMJDEGALFIP": {
                    "x": -2.0
                },
                "OEJLBIFJKEL": 0.20000000298023224,
                "JBODIEHINII": "",
                "FEHKBOLJIOO": "Face"
            },
            {
                "$type": "PBIGHFCHGCA",
                "type": "CAMERA_MOVE",
                "delayTime": 0.10000000149011612,
                "duration": 8.0,
                "actionId": 224,
                "KCFKJMMEECM": {
                    "x": -391.4700012207031,
                    "y": 235.75999450683594,
                    "z": 2793.75390625
                },
                "DLGJEHNPMFN": {
                    "x": -391.1059875488281,
                    "y": 235.71800231933594,
                    "z": 2792.822998046875
                },
                "NJCBGNHGINI": 25.0,
                "NECGMADJICG": "EaseOutQuad",
                "BMHIHPIKAHM": {},
                "MMJMMAEAJOA": true,
                "HGGPLEMCNNG": false,
                "JBODIEHINII": "",
                "PHDIKPKLFIA": true,
                "EJCHLMIMLBO": "",
                "BIMPIKMCIHB": "",
                "MCAOJPLIJGI": ""
            },
            {
                "$type": "PCKGCMJKAFG",
                "type": "LOOK_AT_EYECTRL",
                "delayTime": 1.1260000467300415,
                "aliasList": [
                    "1054"
                ],
                "actionId": 281,
                "useTargetPos": false,
                "KIIEOLGDJKJ": {
                    "x": 2.0,
                    "z": 1.0
                },
                "JMJDEGALFIP": {
                    "x": 2.0,
                    "z": 1.0
                },
                "OEJLBIFJKEL": 0.20000000298023224,
                "JBODIEHINII": "",
                "FEHKBOLJIOO": "Face"
            },
            {
                "$type": "PCKGCMJKAFG",
                "type": "LOOK_AT_EYECTRL",
                "delayTime": 2.2799999713897705,
                "aliasList": [
                    "1054"
                ],
                "actionId": 282,
                "useTargetPos": false,
                "KIIEOLGDJKJ": {
                    "x": 4.0,
                    "z": 1.0
                },
                "JMJDEGALFIP": {
                    "x": 4.0,
                    "z": 1.0
                },
                "OEJLBIFJKEL": 0.20000000298023224,
                "JBODIEHINII": "",
                "FEHKBOLJIOO": "Face"
            },
            {
                "$type": "PCKGCMJKAFG",
                "type": "LOOK_AT_EYECTRL",
                "delayTime": 3.5850000381469727,
                "aliasList": [
                    "1054"
                ],
                "actionId": 284,
                "useTargetPos": false,
                "KIIEOLGDJKJ": {
                    "x": -2.0,
                    "z": 1.0
                },
                "JMJDEGALFIP": {
                    "x": -2.0,
                    "z": 1.0
                },
                "OEJLBIFJKEL": 0.20000000298023224,
                "JBODIEHINII": "",
                "FEHKBOLJIOO": "Face"
            },
            {
                "$type": "CENEPJCONAG",
                "type": "BODY_LANG",
                "delayTime": 4.1020002365112305,
                "aliasList": [
                    "1054"
                ],
                "actionId": 221,
                "NNKEOHJCPOF": true,
                "MHDCNDAINCK": true,
                "LHIAJOBFNAK": false,
                "GJGPNLJEIFP": true,
                "FOEKGLEJBIJ": ""
            },
            {
                "$type": "PCKGCMJKAFG",
                "type": "LOOK_AT_EYECTRL",
                "delayTime": 4.857999801635742,
                "aliasList": [
                    "1054"
                ],
                "actionId": 285,
                "useTargetPos": false,
                "KIIEOLGDJKJ": {
                    "z": -1.0
                },
                "JMJDEGALFIP": {
                    "z": -1.0
                },
                "OEJLBIFJKEL": 0.20000000298023224,
                "JBODIEHINII": "",
                "FEHKBOLJIOO": "Face"
            }
        ],
        [
            {
                "$type": "PBIGHFCHGCA",
                "type": "CAMERA_MOVE",
                "duration": 0.5,
                "actionId": 228,
                "KCFKJMMEECM": {
                    "x": -391.5150146484375,
                    "y": 235.64599609375,
                    "z": 2796.160888671875
                },
                "DLGJEHNPMFN": {
                    "x": -391.5069885253906,
                    "y": 235.6320037841797,
                    "z": 2795.160888671875
                },
                "NJCBGNHGINI": 26.492000579833984,
                "FNMFGIOLKBE": 6,
                "NECGMADJICG": "EaseInOutCubic",
                "BMHIHPIKAHM": {},
                "MMJMMAEAJOA": true,
                "HGGPLEMCNNG": false,
                "JBODIEHINII": "",
                "PHDIKPKLFIA": true,
                "EJCHLMIMLBO": "",
                "BIMPIKMCIHB": "",
                "MCAOJPLIJGI": ""
            },
            {
                "$type": "KAGAFALAIGP",
                "type": "DIALOG",
                "aliasList": [
                    "1054"
                ],
                "JHEPJOMJJHH": 130062610,
                "OCILKFCPBNC": 0.5
            },
            {
                "$type": "CENEPJCONAG",
                "type": "BODY_LANG",
                "aliasList": [
                    "1054"
                ],
                "actionId": 222,
                "MHDCNDAINCK": true,
                "LHIAJOBFNAK": false,
                "GJGPNLJEIFP": true,
                "FOEKGLEJBIJ": ""
            },
            {
                "$type": "LNLLGCOBDFC",
                "type": "EMO_SYNC",
                "aliasList": [
                    "1054"
                ],
                "actionId": 251,
                "LKHHGAGNMKM": "Cs_Emo_Avatar_Simple_Common_Set/Cs_Emo_Avatar_Talk/Cs_Emo_Avatar_PersonalLine/Cs_Emo_Avatar_Nilou/Cs_Emo_130062610",
                "AIMKGPFAAAD": "",
                "IPEKOEDCGGF": "",
                "EJNFMNJKDAH": "",
                "LOOOCOLIHFA": "",
                "KJDLMAPPPMG": "",
                "EKJHPKFBONG": [
                    12104268782962491298,
                    9775452757578014492,
                    826226896611150915,
                    990274251039441759
                ]
            },
            {
                "$type": "CENEPJCONAG",
                "type": "BODY_LANG",
                "aliasList": [
                    "1005"
                ],
                "actionId": 273,
                "NNKEOHJCPOF": true,
                "MHDCNDAINCK": true,
                "LHIAJOBFNAK": false,
                "GJGPNLJEIFP": true,
                "FOEKGLEJBIJ": ""
            },
            {
                "$type": "PBIGHFCHGCA",
                "type": "CAMERA_MOVE",
                "delayTime": 0.10000000149011612,
                "duration": 15.145000457763672,
                "actionId": 229,
                "KCFKJMMEECM": {
                    "x": -391.31298828125,
                    "y": 235.66299438476562,
                    "z": 2796.22998046875
                },
                "DLGJEHNPMFN": {
                    "x": -391.4159851074219,
                    "y": 235.64500427246094,
                    "z": 2795.236083984375
                },
                "NJCBGNHGINI": 25.0,
                "NECGMADJICG": "EaseOutQuad",
                "BMHIHPIKAHM": {},
                "MMJMMAEAJOA": true,
                "HGGPLEMCNNG": false,
                "JBODIEHINII": "",
                "PHDIKPKLFIA": true,
                "EJCHLMIMLBO": "",
                "BIMPIKMCIHB": "",
                "MCAOJPLIJGI": ""
            },
            {
                "$type": "CENEPJCONAG",
                "type": "BODY_LANG",
                "delayTime": 0.6110000014305115,
                "aliasList": [
                    "1054"
                ],
                "actionId": 230,
                "OGFPAIKLDGB": 1171,
                "MHDCNDAINCK": true,
                "LHIAJOBFNAK": false,
                "GJGPNLJEIFP": true,
                "FOEKGLEJBIJ": ""
            }
        ],
        [
            {
                "$type": "PBIGHFCHGCA",
                "type": "CAMERA_MOVE",
                "duration": 0.5,
                "actionId": 233,
                "KCFKJMMEECM": {
                    "x": -390.3970031738281,
                    "y": 235.6750030517578,
                    "z": 2794.22900390625
                },
                "DLGJEHNPMFN": {
                    "x": -391.3919982910156,
                    "y": 235.66299438476562,
                    "z": 2794.323974609375
                },
                "NJCBGNHGINI": 25.0,
                "FNMFGIOLKBE": 6,
                "NECGMADJICG": "EaseInOutCubic",
                "BMHIHPIKAHM": {},
                "MMJMMAEAJOA": true,
                "HGGPLEMCNNG": false,
                "JBODIEHINII": "",
                "PHDIKPKLFIA": true,
                "EJCHLMIMLBO": "",
                "BIMPIKMCIHB": "",
                "MCAOJPLIJGI": ""
            },
            {
                "$type": "FNPNDPFBBDD",
                "type": "LOOK_AT",
                "aliasList": [
                    "Avatar"
                ],
                "actionId": 244,
                "NKGFDJDHOBD": true,
                "MNOPLOBEFLB": 0.5,
                "JBODIEHINII": "1054",
                "MDNPCOHCCLM": true,
                "LPCACGGCDLI": "",
                "NNFPFPOJJOJ": ""
            },
            {
                "$type": "CENEPJCONAG",
                "type": "BODY_LANG",
                "aliasList": [
                    "1054"
                ],
                "actionId": 232,
                "NNKEOHJCPOF": true,
                "MHDCNDAINCK": true,
                "LHIAJOBFNAK": false,
                "GJGPNLJEIFP": true,
                "FOEKGLEJBIJ": ""
            },
            {
                "$type": "KAGAFALAIGP",
                "type": "DIALOG",
                "aliasList": [
                    "1005"
                ],
                "JHEPJOMJJHH": 130062611,
                "OCILKFCPBNC": 0.5
            },
            {
                "$type": "CENEPJCONAG",
                "type": "BODY_LANG",
                "aliasList": [
                    "1005"
                ],
                "actionId": 235,
                "OGFPAIKLDGB": 1110,
                "MHDCNDAINCK": true,
                "LHIAJOBFNAK": false,
                "GJGPNLJEIFP": true,
                "FOEKGLEJBIJ": ""
            },
            {
                "$type": "LNLLGCOBDFC",
                "type": "EMO_SYNC",
                "aliasList": [
                    "1005"
                ],
                "actionId": 254,
                "LKHHGAGNMKM": "Cs_Emo_Avatar_Simple_Common_Set/Cs_Emo_Avatar_Talk/Cs_Emo_Avatar_PersonalLine/Cs_Emo_Avatar_Nilou/Cs_Emo_130062611",
                "AIMKGPFAAAD": "",
                "IPEKOEDCGGF": "",
                "EJNFMNJKDAH": "",
                "LOOOCOLIHFA": "",
                "KJDLMAPPPMG": "",
                "EKJHPKFBONG": [
                    15401482817789854205,
                    12816497009890930949,
                    733673335997707498,
                    5744656024961423881
                ]
            },
            {
                "$type": "PBIGHFCHGCA",
                "type": "CAMERA_MOVE",
                "delayTime": 0.10000000149011612,
                "duration": 6.0,
                "actionId": 234,
                "KCFKJMMEECM": {
                    "x": -390.40399169921875,
                    "y": 235.6739959716797,
                    "z": 2794.1650390625
                },
                "DLGJEHNPMFN": {
                    "x": -391.39898681640625,
                    "y": 235.66200256347656,
                    "z": 2794.260009765625
                },
                "NJCBGNHGINI": 25.0,
                "NECGMADJICG": "EaseOutQuad",
                "BMHIHPIKAHM": {},
                "MMJMMAEAJOA": true,
                "HGGPLEMCNNG": false,
                "JBODIEHINII": "",
                "PHDIKPKLFIA": true,
                "EJCHLMIMLBO": "",
                "BIMPIKMCIHB": "",
                "MCAOJPLIJGI": ""
            },
            {
                "$type": "LNLLGCOBDFC",
                "type": "EMO_SYNC",
                "delayTime": 0.7839999794960022,
                "aliasList": [
                    "Avatar"
                ],
                "actionId": 240,
                "LKHHGAGNMKM": "",
                "AIMKGPFAAAD": "Cs_Emo_Avatar_Common/Cs_Emo_Avatar_Normal01",
                "IPEKOEDCGGF": "Cs_Emo_Avatar_Common/Cs_Emo_Avatar_Normal01_B",
                "EJNFMNJKDAH": "",
                "LOOOCOLIHFA": "",
                "KJDLMAPPPMG": "",
                "IMIEGJDNPNN": [
                    9445916536337636767,
                    14128686126614747219,
                    10779105391569104182,
                    11659242061757756269
                ],
                "KIJHIMADJGM": [
                    12958401574658666588,
                    15474241282904027449,
                    9323653209111416134,
                    8508374650737503979
                ]
            },
            {
                "$type": "CENEPJCONAG",
                "type": "BODY_LANG",
                "delayTime": 2.1010000705718994,
                "aliasList": [
                    "1005"
                ],
                "actionId": 236,
                "OGFPAIKLDGB": 1120,
                "MHDCNDAINCK": true,
                "LHIAJOBFNAK": false,
                "GJGPNLJEIFP": true,
                "FOEKGLEJBIJ": ""
            }
        ],
        [
            {
                "$type": "MoleMole.Config.ConfigTimeProtectAction",
                "type": "TIME_PROTECT",
                "duration": 0.10000000149011612
            },
            {
                "$type": "CENEPJCONAG",
                "type": "BODY_LANG",
                "aliasList": [
                    "1005"
                ],
                "actionId": 239,
                "NNKEOHJCPOF": true,
                "MHDCNDAINCK": true,
                "LHIAJOBFNAK": false,
                "GJGPNLJEIFP": true,
                "FOEKGLEJBIJ": ""
            }
        ]
    ],
    "groupId": [
        {
            "grpId": 1830452503,
            "nextGrpId": 1830452504
        },
        {
            "index": 1,
            "grpId": 1830452504,
            "nextGrpId": 1830452505
        },
        {
            "index": 2,
            "grpId": 1830452505,
            "nextGrpId": 1830452506
        },
        {
            "index": 3,
            "grpId": 1830452506,
            "nextGrpId": 1830452507
        },
        {
            "index": 4,
            "grpId": 1830452507,
            "nextGrpId": 1830452508
        },
        {
            "index": 5,
            "grpId": 1830452508,
            "nextGrpId": 1830452509
        },
        {
            "index": 6,
            "grpId": 1830452509,
            "nextGrpId": 1830452510
        },
        {
            "index": 7,
            "grpId": 1830452510,
            "nextGrpId": 1830452511
        },
        {
            "index": 8,
            "grpId": 1830452511,
            "nextGrpId": 909452793
        },
        {
            "index": 9,
            "grpId": 909452793,
            "nextGrpId": 909452794
        },
        {
            "index": 10,
            "grpId": 909452794,
            "nextGrpId": 909452795
        },
        {
            "index": 11,
            "grpId": 909452795,
            "nextGrpId": 909452796
        }
    ],
    "freeStyleDic": {
        "1054": [
            1170,
            1130,
            4030,
            1172,
            1190,
            4041,
            1173,
            1171
        ]
    }
}