{
    "luaDataPath": "",
    "entityBan": "",
    "group": [
        [
            {
                "$type": "MoleMole.Config.ConfigSetAnimatorAction",
                "type": "SET_ANIMATOR",
                "paramType": "Bool",
                "paramName": "Talk",
                "extraParam": ""
            },
            {
                "$type": "NFDDGDIKEAG",
                "type": "STEER_TO",
                "duration": 0.75,
                "GGJHILELIMO": "RETURN",
                "PKKKHNGDEEE": true,
                "LGDIOPOBMPH": true,
                "JBODIEHINII": "",
                "NNFPFPOJJOJ": ""
            },
            {
                "$type": "PBIGHFCHGCA",
                "type": "CAMERA_FOCUS",
                "duration": 1.0,
                "CGCNCKNJOFB": "EXIT",
                "JOBAHIHHJIB": "TO_INTEE",
                "COBIBPMPAPO": 2.0,
                "FNMFGIOLKBE": 9,
                "JBODIEHINII": "",
                "EJCHLMIMLBO": "",
                "BIMPIKMCIHB": "",
                "MCAOJPLIJGI": ""
            },
            {
                "$type": "KAGAFALAIGP",
                "type": "DIALOG_CLEAR",
                "GHCDJEIDDME": false
            }
        ]
    ]
}