{
    "LAJACBDEKLO": {
        "Character_Albedo_Q_Golden": {
            "IMEKODELOGJ": 3448607136991962660,
            "NEELDDOHLFI": 15514521437195712489
        },
        "Character_Albedo_Q_Normal": {
            "IMEKODELOGJ": 13658826808538064195,
            "NEELDDOHLFI": 2688283565190769813
        },
        "Character_Ambor_Q_Golden": {
            "IMEKODELOGJ": 604846124411745510,
            "NEELDDOHLFI": 3844347690906895740
        },
        "Character_Ambor_Q_Normal": {
            "IMEKODELOGJ": 4531496973777693789,
            "NEELDDOHLFI": 9340448065757556149
        },
        "Character_Ayaka_Q_Golden": {
            "IMEKODELOGJ": 16015744681998102724,
            "NEELDDOHLFI": 17785478847149700466
        },
        "Character_Ayaka_Q_Normal": {
            "IMEKODELOGJ": 14664132392743980471,
            "NEELDDOHLFI": 10073079657709816280
        },
        "Character_Ayato_Q_Golden": {
            "IMEKODELOGJ": 11146343497646273097,
            "NEELDDOHLFI": 17981075929706507676
        },
        "Character_Ayato_Q_Normal": {
            "IMEKODELOGJ": 6867601660346104048,
            "NEELDDOHLFI": 9419085402550186726
        },
        "Character_Barbara_Q_Golden": {
            "IMEKODELOGJ": 13619066275946736819,
            "NEELDDOHLFI": 4580746853318413752
        },
        "Character_Barbara_Q_Normal": {
            "IMEKODELOGJ": 1316099145178748410,
            "NEELDDOHLFI": 16973018101735321713
        },
        "Character_Beidou_Q_Golden": {
            "IMEKODELOGJ": 671526218960650219,
            "NEELDDOHLFI": 5503067657710681086
        },
        "Character_Beidou_Q_Normal": {
            "IMEKODELOGJ": 2990905453025354533,
            "NEELDDOHLFI": 12956341501613459075
        },
        "Character_Beidou_Leishou": {
            "IMEKODELOGJ": 2990905453025354533,
            "NEELDDOHLFI": 12956341501613459075
        },
        "Character_Bennett_Q_Golden": {
            "IMEKODELOGJ": 12257022022468137745,
            "NEELDDOHLFI": 15906928986955097852
        },
        "Character_Bennett_Q_Normal": {
            "IMEKODELOGJ": 9871456953837044095,
            "NEELDDOHLFI": 2801813786511948018
        },
        "Character_Candace_Q_Golden": {
            "IMEKODELOGJ": 2774309500110185740,
            "NEELDDOHLFI": 10111056143095190555
        },
        "Character_Candace_Q_Normal": {
            "IMEKODELOGJ": 14988185972710225256,
            "NEELDDOHLFI": 8367981030039324333
        },
        "Character_Candace_Buff": {
            "IMEKODELOGJ": 14988185972710225256,
            "NEELDDOHLFI": 8367981030039324333
        },
        "Character_Chongyun_Q_Golden": {
            "IMEKODELOGJ": 4539293649921583953,
            "NEELDDOHLFI": 4959614524092752546
        },
        "Character_Chongyun_Q_Normal": {
            "IMEKODELOGJ": 4886290219513403384,
            "NEELDDOHLFI": 7562666623684312614
        },
        "Character_Collei_Q_Golden": {
            "IMEKODELOGJ": 9496780161154740369,
            "NEELDDOHLFI": 16585005146231194681
        },
        "Character_Collei_Q_Normal": {
            "IMEKODELOGJ": 2033512203498151090,
            "NEELDDOHLFI": 13160219959636611497
        },
        "Character_Cyno_Q_Golden": {
            "IMEKODELOGJ": 13923052539082573616,
            "NEELDDOHLFI": 283916866857260720
        },
        "Character_Cyno_Q_Normal": {
            "IMEKODELOGJ": 13455196341572534861,
            "NEELDDOHLFI": 16992942615109552929
        },
        "Character_Diluc_Q_Golden": {
            "IMEKODELOGJ": 17375288288793147498,
            "NEELDDOHLFI": 267713514935903495
        },
        "Character_Diluc_Q_Normal": {
            "IMEKODELOGJ": 9039161185233902991,
            "NEELDDOHLFI": 18133920154106140392
        },
        "Character_Diona_Q_Golden": {
            "IMEKODELOGJ": 5211367019451530320,
            "NEELDDOHLFI": 13265778946628238890
        },
        "Character_Diona_Q_Normal": {
            "IMEKODELOGJ": 9510950090854065931,
            "NEELDDOHLFI": 5033429042836059109
        },
        "Character_Diona_Jiuwu": {
            "IMEKODELOGJ": 9510950090854065931,
            "NEELDDOHLFI": 5033429042836059109
        },
        "Character_Eula_Q_Golden": {
            "IMEKODELOGJ": 7274386535835329385,
            "NEELDDOHLFI": 13728024317213317814
        },
        "Character_Eula_Q_Normal": {
            "IMEKODELOGJ": 8980222388014638520,
            "NEELDDOHLFI": 6358900584436639073
        },
        "Character_Eula_Guangjian": {
            "IMEKODELOGJ": 8980222388014638520,
            "NEELDDOHLFI": 6358900584436639073
        },
        "Character_Feiyan_Q_Golden": {
            "IMEKODELOGJ": 14652407518141369623,
            "NEELDDOHLFI": 10271226112421933348
        },
        "Character_Feiyan_Q_Normal": {
            "IMEKODELOGJ": 73132749322730446,
            "NEELDDOHLFI": 7005832318446196559
        },
        "Character_Fischel_Q_Golden": {
            "IMEKODELOGJ": 8128538607474647562,
            "NEELDDOHLFI": 3729965497104197756
        },
        "Character_Fischel_Q_Normal": {
            "IMEKODELOGJ": 1995640454260521108,
            "NEELDDOHLFI": 11194537470888193119
        },
        "Character_Ganyu_Q_Golden": {
            "IMEKODELOGJ": 10757257828979881862,
            "NEELDDOHLFI": 10089854843155374371
        },
        "Character_Ganyu_E_Normal": {
            "IMEKODELOGJ": 2256801372941703648,
            "NEELDDOHLFI": 4301212300325039892
        },
        "Character_Ganyu_Q_Normal": {
            "IMEKODELOGJ": 2256801372941703648,
            "NEELDDOHLFI": 4301212300325039892
        },
        "Character_Ganyu_Binglinzhu": {
            "IMEKODELOGJ": 2256801372941703648,
            "NEELDDOHLFI": 4301212300325039892
        },
        "Character_Hutao_Q_Golden": {
            "IMEKODELOGJ": 4301689520586302944,
            "NEELDDOHLFI": 7982924282269414656
        },
        "Character_Hutao_Q_Normal": {
            "IMEKODELOGJ": 10673017423305635712,
            "NEELDDOHLFI": 15087016600876827086
        },
        "Character_Hutao_Xuemeixiang": {
            "IMEKODELOGJ": 10673017423305635712,
            "NEELDDOHLFI": 15087016600876827086
        },
        "Character_Itto_Q_Golden": {
            "IMEKODELOGJ": 1435328116745362115,
            "NEELDDOHLFI": 2305036287230890455
        },
        "Character_Itto_Q_Normal": {
            "IMEKODELOGJ": 7238584438334545861,
            "NEELDDOHLFI": 8762360132934568094
        },
        "Character_Kaeya_Q_Golden": {
            "IMEKODELOGJ": 7847812141393966807,
            "NEELDDOHLFI": 10649198563483386342
        },
        "Character_Kaeya_Q_Normal": {
            "IMEKODELOGJ": 14787189756416702677,
            "NEELDDOHLFI": 16692482200348604990
        },
        "Character_Kaeya_Binglin": {
            "IMEKODELOGJ": 14787189756416702677,
            "NEELDDOHLFI": 16692482200348604990
        },
        "Character_Kazuha_Q_Golden": {
            "IMEKODELOGJ": 11472682043645275455,
            "NEELDDOHLFI": 16886888777042880794
        },
        "Character_Kazuha_Q_Normal": {
            "IMEKODELOGJ": 4168039896834218875,
            "NEELDDOHLFI": 14560295752387265299
        },
        "Character_Keqing_Q_Golden": {
            "IMEKODELOGJ": 13438932212269897518,
            "NEELDDOHLFI": 6872300214121717329
        },
        "Character_Keqing_Q_Normal": {
            "IMEKODELOGJ": 17573077528057906553,
            "NEELDDOHLFI": 13863551906649166352
        },
        "Character_Klee_Q_Golden": {
            "IMEKODELOGJ": 9165697886029456879,
            "NEELDDOHLFI": 2885436430838544894
        },
        "Character_Klee_Q_Normal": {
            "IMEKODELOGJ": 1731110603471483595,
            "NEELDDOHLFI": 2657140708272924969
        },
        "Character_Klee_Zhadan": {
            "IMEKODELOGJ": 1731110603471483595,
            "NEELDDOHLFI": 2657140708272924969
        },
        "Character_Kokomi_Q_Golden": {
            "IMEKODELOGJ": 11509833199755729982,
            "NEELDDOHLFI": 17304463468986554244
        },
        "Character_Kokomi_Q_Normal": {
            "IMEKODELOGJ": 16525763916045282495,
            "NEELDDOHLFI": 14894260024188988368
        },
        "Character_Kokomi_Shuiqiu": {
            "IMEKODELOGJ": 16525763916045282495,
            "NEELDDOHLFI": 14894260024188988368
        },
        "Character_Kokomi_Heal": {
            "IMEKODELOGJ": 16525763916045282495,
            "NEELDDOHLFI": 14894260024188988368
        },
        "Character_Lisa_Q_Golden": {
            "IMEKODELOGJ": 17361371230912627459,
            "NEELDDOHLFI": 15323467616049522232
        },
        "Character_Lisa_Q_Normal": {
            "IMEKODELOGJ": 14469753359787329946,
            "NEELDDOHLFI": 7531320941796329530
        },
        "Character_Mona_Q_Golden": {
            "IMEKODELOGJ": 10073707236457308375,
            "NEELDDOHLFI": 14725844217233627781
        },
        "Character_Mona_Q_Normal": {
            "IMEKODELOGJ": 17845467955647966820,
            "NEELDDOHLFI": 8514559077687224723
        },
        "Character_Nahida_Q_Golden": {
            "IMEKODELOGJ": 4527975496107076865,
            "NEELDDOHLFI": 3155589424572328153
        },
        "Character_Nahida_Q_Normal": {
            "IMEKODELOGJ": 12005542562955537785,
            "NEELDDOHLFI": 17918900741645261331
        },
        "Character_Nahida_Lianxian": {
            "IMEKODELOGJ": 12005542562955537785,
            "NEELDDOHLFI": 17918900741645261331
        },
        "Character_Ningguang_Q_Golden": {
            "IMEKODELOGJ": 4561986782857508644,
            "NEELDDOHLFI": 8803659826769275199
        },
        "Character_Ningguang_Q_Normal": {
            "IMEKODELOGJ": 11706066519961695865,
            "NEELDDOHLFI": 16480650762914138989
        },
        "Character_Noel_Q_Golden": {
            "IMEKODELOGJ": 13818951953000324025,
            "NEELDDOHLFI": 4057607963393174595
        },
        "Character_Noel_Q_Normal": {
            "IMEKODELOGJ": 3260257160984082333,
            "NEELDDOHLFI": 9868854487245810510
        },
        "Character_Noel_Daoguang": {
            "IMEKODELOGJ": 3260257160984082333,
            "NEELDDOHLFI": 9868854487245810510
        },
        "Character_Qin_Q_Golden": {
            "IMEKODELOGJ": 11165869555226208870,
            "NEELDDOHLFI": 14803148546202726532
        },
        "Character_Qin_Q_Normal": {
            "IMEKODELOGJ": 5102858103972883493,
            "NEELDDOHLFI": 15590508496153919375
        },
        "Character_Qin_Pugongying": {
            "IMEKODELOGJ": 5102858103972883493,
            "NEELDDOHLFI": 15590508496153919375
        },
        "Character_Qiqi_Q_Golden": {
            "IMEKODELOGJ": 13997508360288367273,
            "NEELDDOHLFI": 9099865140991881815
        },
        "Character_Qiqi_Q_Normal": {
            "IMEKODELOGJ": 6659937078272745845,
            "NEELDDOHLFI": 16799449484255738205
        },
        "Character_Razor_Q_Golden": {
            "IMEKODELOGJ": 8655752399834160722,
            "NEELDDOHLFI": 7489237772784125114
        },
        "Character_Razor_E_Normal": {
            "IMEKODELOGJ": 8957873157373539582,
            "NEELDDOHLFI": 1039625714346207763
        },
        "Character_Razor_Q_Normal": {
            "IMEKODELOGJ": 8957873157373539582,
            "NEELDDOHLFI": 1039625714346207763
        },
        "Character_Sara_Q_Golden": {
            "IMEKODELOGJ": 550534441520405806,
            "NEELDDOHLFI": 18191707856951291669
        },
        "Character_Sara_Q_Normal": {
            "IMEKODELOGJ": 12377247954144636482,
            "NEELDDOHLFI": 3399203620074519875
        },
        "Character_Shenhe_Q_Golden": {
            "IMEKODELOGJ": 14199593533056370568,
            "NEELDDOHLFI": 16875274702124814796
        },
        "Character_Shenhe_Q_Normal": {
            "IMEKODELOGJ": 10458073010018203676,
            "NEELDDOHLFI": 16532202275662405533
        },
        "Character_Shougun_Q_Golden": {
            "IMEKODELOGJ": 7280603594907590374,
            "NEELDDOHLFI": 4861035829321879457
        },
        "Character_Shougun_Q_Normal": {
            "IMEKODELOGJ": 9558237677002213580,
            "NEELDDOHLFI": 2078578685302676962
        },
        "Character_Sucrose_Q_Golden": {
            "IMEKODELOGJ": 18129888649181496816,
            "NEELDDOHLFI": 8534415403799355209
        },
        "Character_Sucrose_Q_Normal": {
            "IMEKODELOGJ": 8284396689953419733,
            "NEELDDOHLFI": 10148307077573869429
        },
        "Character_Sucrose_Fengling": {
            "IMEKODELOGJ": 8284396689953419733,
            "NEELDDOHLFI": 10148307077573869429
        },
        "Character_Tartaglia01_Q_Golden": {
            "IMEKODELOGJ": 5056940404921065731,
            "NEELDDOHLFI": 3760789479610187316
        },
        "Character_Tartaglia01_Q_Normal": {
            "IMEKODELOGJ": 1695025759240879680,
            "NEELDDOHLFI": 9535148438227000097
        },
        "Character_Tartaglia_E": {
            "IMEKODELOGJ": 1695025759240879680,
            "NEELDDOHLFI": 9535148438227000097
        },
        "Character_Tartaglia_A": {
            "IMEKODELOGJ": 1695025759240879680,
            "NEELDDOHLFI": 9535148438227000097
        },
        "Character_Tartaglia_Duanliu": {
            "IMEKODELOGJ": 1695025759240879680,
            "NEELDDOHLFI": 9535148438227000097
        },
        "Character_Tartaglia02_Q_Golden": {
            "IMEKODELOGJ": 8343419204398437884,
            "NEELDDOHLFI": 18046635907641325847
        },
        "Character_Tartaglia02_Q_Normal": {
            "IMEKODELOGJ": 7149294680220852336,
            "NEELDDOHLFI": 13439673708343634324
        },
        "Character_Tighnari_Q_Golden": {
            "IMEKODELOGJ": 6627561711567316407,
            "NEELDDOHLFI": 4451751871801908134
        },
        "Character_Tighnari_Q_Normal": {
            "IMEKODELOGJ": 15375866142173323490,
            "NEELDDOHLFI": 15289418153138323214
        },
        "Character_Venti_Q_Golden": {
            "IMEKODELOGJ": 10524309110426533890,
            "NEELDDOHLFI": 6621948117910677142
        },
        "Character_Venti_Q_Normal": {
            "IMEKODELOGJ": 8660100822064378954,
            "NEELDDOHLFI": 8458401224125989865
        },
        "Character_Xiangling_Q_Golden": {
            "IMEKODELOGJ": 13550123812988879274,
            "NEELDDOHLFI": 4431248617247900482
        },
        "Character_Xiangling_E_Normal": {
            "IMEKODELOGJ": 15919044745600133939,
            "NEELDDOHLFI": 4701344954474029889
        },
        "Character_Xiangling_Q_Normal": {
            "IMEKODELOGJ": 15919044745600133939,
            "NEELDDOHLFI": 4701344954474029889
        },
        "Character_Xiangling_Xuanhuolun": {
            "IMEKODELOGJ": 15919044745600133939,
            "NEELDDOHLFI": 4701344954474029889
        },
        "Character_Xiao_Q_Golden": {
            "IMEKODELOGJ": 18439798668377076930,
            "NEELDDOHLFI": 3202186810709581267
        },
        "Character_Xiao_Q_Normal": {
            "IMEKODELOGJ": 4538310389769237532,
            "NEELDDOHLFI": 4205011462931117836
        },
        "Character_Xingqiu_Q_Golden": {
            "IMEKODELOGJ": 6336982864037858384,
            "NEELDDOHLFI": 12620706171294439839
        },
        "Character_Xingqiu_Q_Normal": {
            "IMEKODELOGJ": 5947157320835816502,
            "NEELDDOHLFI": 14221979986928062430
        },
        "Character_Xingqiu_Hongjianshi": {
            "IMEKODELOGJ": 5947157320835816502,
            "NEELDDOHLFI": 14221979986928062430
        },
        "Character_Yae_Q_Golden": {
            "IMEKODELOGJ": 11946384992052500766,
            "NEELDDOHLFI": 12698648070212604108
        },
        "Character_Yae_Q_Normal": {
            "IMEKODELOGJ": 956491687449688426,
            "NEELDDOHLFI": 16270585392094105070
        },
        "Character_Yae_Leidian": {
            "IMEKODELOGJ": 956491687449688426,
            "NEELDDOHLFI": 16270585392094105070
        },
        "Character_Yoimiya_Q_Golden": {
            "IMEKODELOGJ": 9548739586607745807,
            "NEELDDOHLFI": 16952219686739386946
        },
        "Character_Yoimiya_Q_Normal": {
            "IMEKODELOGJ": 11437830433015074570,
            "NEELDDOHLFI": 10638511928830737439
        },
        "Character_Yoimiya_Huoguang": {
            "IMEKODELOGJ": 11437830433015074570,
            "NEELDDOHLFI": 10638511928830737439
        },
        "Character_Zhongli_Q_Golden": {
            "IMEKODELOGJ": 11657729248457037969,
            "NEELDDOHLFI": 14199205315282843469
        },
        "Character_Zhongli_Q_Normal": {
            "IMEKODELOGJ": 10346511989654363390,
            "NEELDDOHLFI": 916450701117403840
        },
        "Common_Creation": {
            "IMEKODELOGJ": 7443284733768486818,
            "NEELDDOHLFI": 5395197047059241189
        },
        "Common_Creation_Small": {
            "IMEKODELOGJ": 7443284733768486818,
            "NEELDDOHLFI": 5395197047059241189
        },
        "Common_Heal": {
            "IMEKODELOGJ": 7443284733768486818,
            "NEELDDOHLFI": 5395197047059241189
        },
        "Common_Heal_Used": {
            "IMEKODELOGJ": 7443284733768486818,
            "NEELDDOHLFI": 5395197047059241189
        },
        "Common_Heal_Small": {
            "IMEKODELOGJ": 7443284733768486818,
            "NEELDDOHLFI": 5395197047059241189
        },
        "CommonBehaviour": {
            "IMEKODELOGJ": 7443284733768486818,
            "NEELDDOHLFI": 5395197047059241189
        },
        "Character_E_Normal": {
            "IMEKODELOGJ": 7443284733768486818,
            "NEELDDOHLFI": 5395197047059241189
        },
        "Character_A_Normal": {
            "IMEKODELOGJ": 7443284733768486818,
            "NEELDDOHLFI": 5395197047059241189
        },
        "Field_Fire": {
            "IMEKODELOGJ": 8382284488381001462,
            "NEELDDOHLFI": 5733547072291567244
        },
        "Common_Idle": {
            "IMEKODELOGJ": 1771903712857007615,
            "NEELDDOHLFI": 4555860368575718067
        },
        "Monster_AbyssWater_WaterBubble_Normal": {
            "IMEKODELOGJ": 16367227927448225372,
            "NEELDDOHLFI": 18284692285780732777
        },
        "Monster_Actitivy_Baozha_Normal": {
            "IMEKODELOGJ": 8738206742873666246,
            "NEELDDOHLFI": 1100758316281387510
        },
        "Monster_Bruterock_Q_Golden": {
            "IMEKODELOGJ": 2268788120549176119,
            "NEELDDOHLFI": 16652560887177389860
        },
        "Monster_Bruterock_Q_Normal": {
            "IMEKODELOGJ": 2854723030572795290,
            "NEELDDOHLFI": 9962610392433825441
        },
        "Monster_Deaconfire_Q_Golden": {
            "IMEKODELOGJ": 10299189944511861675,
            "NEELDDOHLFI": 6401575618508180204
        },
        "Monster_Deaconfire_Q_Normal": {
            "IMEKODELOGJ": 1633519665884359534,
            "NEELDDOHLFI": 5670298967023035432
        },
        "Monster_Deaconfire_Zhaohuanwu": {
            "IMEKODELOGJ": 1633519665884359534,
            "NEELDDOHLFI": 5670298967023035432
        },
        "Monster_Effigyelectric_Q_Golden": {
            "IMEKODELOGJ": 7805090948293279680,
            "NEELDDOHLFI": 5063803894530387735
        },
        "Monster_Effigyelectric_Q_Normal": {
            "IMEKODELOGJ": 3571136048497234293,
            "NEELDDOHLFI": 8353587821510533049
        },
        "Monster_Fatuus_Q_Golden": {
            "IMEKODELOGJ": 15097234228996742293,
            "NEELDDOHLFI": 18420605556432687484
        },
        "Monster_Fatuus_Q_Normal": {
            "IMEKODELOGJ": 13757003673998557507,
            "NEELDDOHLFI": 12193132534400714866
        },
        "Monster_Fungusgrass_Q_Golden": {
            "IMEKODELOGJ": 9833335799708500374,
            "NEELDDOHLFI": 3621828443196739078
        },
        "Monster_Fungusgrass_Q_Normal": {
            "IMEKODELOGJ": 1669726676469861729,
            "NEELDDOHLFI": 11947939561275697621
        },
        "Monster_Mageice_Q_Golden": {
            "IMEKODELOGJ": 1299637875427707573,
            "NEELDDOHLFI": 1142558160898855823
        },
        "Monster_Mageice_Q_Normal": {
            "IMEKODELOGJ": 17630494154601066249,
            "NEELDDOHLFI": 1953536329927454563
        },
        "Monster_Maidenwater_Q_Golden": {
            "IMEKODELOGJ": 8838470132768520377,
            "NEELDDOHLFI": 2606403107010948385
        },
        "Monster_Maidenwater_Q_Normal": {
            "IMEKODELOGJ": 4123287905371078849,
            "NEELDDOHLFI": 10527458455565144357
        },
        "Monster_Ningyo_Q_Golden": {
            "IMEKODELOGJ": 17612570882806790346,
            "NEELDDOHLFI": 18180598687988363638
        },
        "Monster_Ningyo_Q_Normal": {
            "IMEKODELOGJ": 17980270972601887661,
            "NEELDDOHLFI": 10968669697041512059
        },
        "Monster_Oceanid_Q_Golden": {
            "IMEKODELOGJ": 10541837470337164973,
            "NEELDDOHLFI": 17520399269172324454
        },
        "Monster_Oceanid_Q_Normal": {
            "IMEKODELOGJ": 9757678282766604477,
            "NEELDDOHLFI": 14139639915682979347
        },
        "Monster_Rockdog_Liuxue_Normal": {
            "IMEKODELOGJ": 10392355304108900868,
            "NEELDDOHLFI": 12111065044191817078
        },
        "Monster_Skimisherfatwater_Attack_Normal": {
            "IMEKODELOGJ": 14809562864332214837,
            "NEELDDOHLFI": 17066278238249658764
        },
        "Reaction_ElectroCharged": {
            "IMEKODELOGJ": 7395017084946506130,
            "NEELDDOHLFI": 8042234438863470943
        },
        "Reaction_Swirlfire": {
            "IMEKODELOGJ": 7395017084946506130,
            "NEELDDOHLFI": 8042234438863470943
        },
        "Reaction_Frozen": {
            "IMEKODELOGJ": 7395017084946506130,
            "NEELDDOHLFI": 8042234438863470943
        },
        "Reaction_Swirlwater": {
            "IMEKODELOGJ": 7395017084946506130,
            "NEELDDOHLFI": 8042234438863470943
        },
        "Reaction_Swirlelectric": {
            "IMEKODELOGJ": 7395017084946506130,
            "NEELDDOHLFI": 8042234438863470943
        },
        "Reaction_Swirlice": {
            "IMEKODELOGJ": 7395017084946506130,
            "NEELDDOHLFI": 8042234438863470943
        },
        "Summon_Bullet_Fire": {
            "IMEKODELOGJ": 8950118448871172815,
            "NEELDDOHLFI": 17642458807434784245
        },
        "Summon_Bullet_Water": {
            "IMEKODELOGJ": 8950118448871172815,
            "NEELDDOHLFI": 17642458807434784245
        },
        "Summon_Bullet_Electric": {
            "IMEKODELOGJ": 8950118448871172815,
            "NEELDDOHLFI": 17642458807434784245
        },
        "Summon_Bullet_Ice": {
            "IMEKODELOGJ": 8950118448871172815,
            "NEELDDOHLFI": 17642458807434784245
        },
        "Summon_Bullet_Wind": {
            "IMEKODELOGJ": 8950118448871172815,
            "NEELDDOHLFI": 17642458807434784245
        },
        "Summon_Bullet_Rock": {
            "IMEKODELOGJ": 8950118448871172815,
            "NEELDDOHLFI": 17642458807434784245
        },
        "Summon_Bullet_Grass": {
            "IMEKODELOGJ": 8950118448871172815,
            "NEELDDOHLFI": 17642458807434784245
        }
    },
    "ECOOEANPGOP": {
        "Card_Event_3032081": {
            "IMEKODELOGJ": 18147337844504590676,
            "NEELDDOHLFI": 14183717708593202385
        },
        "Card_Event_3032151": {
            "IMEKODELOGJ": 16641892639939780038,
            "NEELDDOHLFI": 13145414120444670587
        },
        "Card_Support_3220032_COPY": {
            "IMEKODELOGJ": 5775454261999761311,
            "NEELDDOHLFI": 1923218889103555774
        },
        "Card_Support_4210011_COPY": {
            "IMEKODELOGJ": 313386319098557137,
            "NEELDDOHLFI": 11954602488387337362
        },
        "Card_Support_4210012": {
            "IMEKODELOGJ": 15148043730911846385,
            "NEELDDOHLFI": 3255636420257879032
        },
        "Char_Skill_11012": {
            "IMEKODELOGJ": 7565267531792198003,
            "NEELDDOHLFI": 13582458820972183397
        },
        "Char_Skill_11013": {
            "IMEKODELOGJ": 5059520007603439124,
            "NEELDDOHLFI": 13865386250366544299
        },
        "Char_Skill_11014": {
            "IMEKODELOGJ": 4477741808157706978,
            "NEELDDOHLFI": 1504448564103735590
        },
        "Char_Skill_11022": {
            "IMEKODELOGJ": 16643914393598580630,
            "NEELDDOHLFI": 8063518459499963091
        },
        "Char_Skill_11023": {
            "IMEKODELOGJ": 14567771185952568705,
            "NEELDDOHLFI": 17559854560059986969
        },
        "Char_Skill_11032": {
            "IMEKODELOGJ": 14434412292341422453,
            "NEELDDOHLFI": 8269724908811419618
        },
        "Char_Skill_11033": {
            "IMEKODELOGJ": 16280824330201914479,
            "NEELDDOHLFI": 14180124273624958212
        },
        "Char_Skill_11042": {
            "IMEKODELOGJ": 17717811577857437654,
            "NEELDDOHLFI": 1145083211186291952
        },
        "Char_Skill_11053": {
            "IMEKODELOGJ": 4021356972655300794,
            "NEELDDOHLFI": 10588695507505978687
        },
        "Char_Skill_11054": {
            "IMEKODELOGJ": 17210180579468670943,
            "NEELDDOHLFI": 16407325112207116384
        },
        "Char_Skill_11054_Talent_2": {
            "IMEKODELOGJ": 4938788871709619163,
            "NEELDDOHLFI": 9831031814931233594
        },
        "Char_Skill_11061": {
            "IMEKODELOGJ": 5189963908084149919,
            "NEELDDOHLFI": 18051201153648956314
        },
        "Char_Skill_11062": {
            "IMEKODELOGJ": 10091930238522358716,
            "NEELDDOHLFI": 14395167760037256083
        },
        "Char_Skill_11063": {
            "IMEKODELOGJ": 6746527030045306115,
            "NEELDDOHLFI": 10401578759540890244
        },
        "Char_Skill_11072": {
            "IMEKODELOGJ": 12804863705842430557,
            "NEELDDOHLFI": 4245841837665774228
        },
        "Char_Skill_11073": {
            "IMEKODELOGJ": 12522442656574748776,
            "NEELDDOHLFI": 8266653735766690244
        },
        "Char_Skill_11082": {
            "IMEKODELOGJ": 16509116654509169612,
            "NEELDDOHLFI": 6748945621237795018
        },
        "Char_Skill_11083": {
            "IMEKODELOGJ": 1617009678450829594,
            "NEELDDOHLFI": 10716305274823427921
        },
        "Char_Skill_12012": {
            "IMEKODELOGJ": 687689217478861521,
            "NEELDDOHLFI": 11987573148273361163
        },
        "Char_Skill_12013": {
            "IMEKODELOGJ": 10568810117058948913,
            "NEELDDOHLFI": 1423980245327564269
        },
        "Char_Skill_12022": {
            "IMEKODELOGJ": 5897742608088909915,
            "NEELDDOHLFI": 708135418921586570
        },
        "Char_Skill_12023": {
            "IMEKODELOGJ": 9634749137755236647,
            "NEELDDOHLFI": 9323163162103963873
        },
        "Char_Skill_12032": {
            "IMEKODELOGJ": 16960885328373039903,
            "NEELDDOHLFI": 3288735646712949460
        },
        "Char_Skill_12033": {
            "IMEKODELOGJ": 6968545070822630570,
            "NEELDDOHLFI": 5135839536480396068
        },
        "Char_Skill_12034": {
            "IMEKODELOGJ": 16674581972585317917,
            "NEELDDOHLFI": 5323516530077864716
        },
        "Char_Skill_12041": {
            "IMEKODELOGJ": 9698392740403080081,
            "NEELDDOHLFI": 1942472194828169156
        },
        "Char_Skill_12042": {
            "IMEKODELOGJ": 12273993293741962103,
            "NEELDDOHLFI": 13152846399540546356
        },
        "Char_Skill_12043": {
            "IMEKODELOGJ": 9308320457043520253,
            "NEELDDOHLFI": 7646967675713650399
        },
        "Char_Skill_12044": {
            "IMEKODELOGJ": 6885294523740967551,
            "NEELDDOHLFI": 1038863628423215117
        },
        "Char_Skill_12045": {
            "IMEKODELOGJ": 2761591689456463551,
            "NEELDDOHLFI": 9347662300968773716
        },
        "Char_Skill_12046": {
            "IMEKODELOGJ": 9371114325754602905,
            "NEELDDOHLFI": 9759509200630323476
        },
        "Char_Skill_12052": {
            "IMEKODELOGJ": 693531790740077496,
            "NEELDDOHLFI": 12668452704565149337
        },
        "Char_Skill_12053": {
            "IMEKODELOGJ": 17972278314967746853,
            "NEELDDOHLFI": 17143164864405107282
        },
        "Char_Skill_12062": {
            "IMEKODELOGJ": 13903879235254831583,
            "NEELDDOHLFI": 16509534658877870646
        },
        "Char_Skill_12063": {
            "IMEKODELOGJ": 11230161179501952785,
            "NEELDDOHLFI": 8681682179234941393
        },
        "Char_Skill_12072": {
            "IMEKODELOGJ": 1808104529088717522,
            "NEELDDOHLFI": 7944541250465712973
        },
        "Char_Skill_12073": {
            "IMEKODELOGJ": 8536248477147710518,
            "NEELDDOHLFI": 13056999111040202216
        },
        "Char_Skill_12074": {
            "IMEKODELOGJ": 9085654774057055557,
            "NEELDDOHLFI": 17856314297657680598
        },
        "Char_Skill_13012": {
            "IMEKODELOGJ": 796615816391773394,
            "NEELDDOHLFI": 12885389449898479300
        },
        "Char_Skill_13013": {
            "IMEKODELOGJ": 12929694038220768166,
            "NEELDDOHLFI": 16933652737079223233
        },
        "Char_Skill_13022": {
            "IMEKODELOGJ": 1336124929537022688,
            "NEELDDOHLFI": 12901986570129258658
        },
        "Char_Skill_13022_Ex_1": {
            "IMEKODELOGJ": 15881381408561924239,
            "NEELDDOHLFI": 9155475809298634302
        },
        "Char_Skill_13023": {
            "IMEKODELOGJ": 3577644766677201436,
            "NEELDDOHLFI": 2697553184073172696
        },
        "Char_Skill_13033": {
            "IMEKODELOGJ": 11425223696685719119,
            "NEELDDOHLFI": 18118864874409804580
        },
        "Char_Skill_13042": {
            "IMEKODELOGJ": 17829224593963654999,
            "NEELDDOHLFI": 10760499106813271420
        },
        "Char_Skill_13043": {
            "IMEKODELOGJ": 9606864800246678625,
            "NEELDDOHLFI": 15498660360279517448
        },
        "Char_Skill_13052": {
            "IMEKODELOGJ": 8344976432301129927,
            "NEELDDOHLFI": 7861986577283878119
        },
        "Char_Skill_13053": {
            "IMEKODELOGJ": 9993907160384658589,
            "NEELDDOHLFI": 9095162600447263641
        },
        "Char_Skill_13062": {
            "IMEKODELOGJ": 7776580834863789310,
            "NEELDDOHLFI": 3246723774713409327
        },
        "Char_Skill_13063": {
            "IMEKODELOGJ": 15109508445501701267,
            "NEELDDOHLFI": 16678698842693177825
        },
        "Char_Skill_13071": {
            "IMEKODELOGJ": 2645536662923374486,
            "NEELDDOHLFI": 6858466825622495151
        },
        "Char_Skill_13072": {
            "IMEKODELOGJ": 12043748149212241042,
            "NEELDDOHLFI": 15095179794836234498
        },
        "Char_Skill_13073": {
            "IMEKODELOGJ": 4119832608695847111,
            "NEELDDOHLFI": 7986725786243791133
        },
        "Char_Skill_13082": {
            "IMEKODELOGJ": 8401156524500079591,
            "NEELDDOHLFI": 4202338129245126126
        },
        "Char_Skill_13083": {
            "IMEKODELOGJ": 13890305881926530904,
            "NEELDDOHLFI": 7224799335706819441
        },
        "Char_Skill_14012": {
            "IMEKODELOGJ": 14188227460749661494,
            "NEELDDOHLFI": 10087721311759463373
        },
        "Char_Skill_14013": {
            "IMEKODELOGJ": 4342805890017404699,
            "NEELDDOHLFI": 8261746891906956251
        },
        "Char_Skill_14022": {
            "IMEKODELOGJ": 1628467719991126236,
            "NEELDDOHLFI": 4896813073581214725
        },
        "Char_Skill_14023": {
            "IMEKODELOGJ": 11763502768695335822,
            "NEELDDOHLFI": 18440930196296943092
        },
        "Char_Skill_14032": {
            "IMEKODELOGJ": 10074500327718351895,
            "NEELDDOHLFI": 6423130221143928228
        },
        "Char_Skill_14032_Ex_1_COPY": {
            "IMEKODELOGJ": 13896940604404195490,
            "NEELDDOHLFI": 16096878126256846601
        },
        "Char_Skill_14033": {
            "IMEKODELOGJ": 17889958658656393851,
            "NEELDDOHLFI": 7432227955079619118
        },
        "Char_Skill_14044": {
            "IMEKODELOGJ": 14711935634456016181,
            "NEELDDOHLFI": 5261167489697113676
        },
        "Char_Skill_14052": {
            "IMEKODELOGJ": 14669194069709345461,
            "NEELDDOHLFI": 598138647272360931
        },
        "Char_Skill_14053": {
            "IMEKODELOGJ": 13039598156110188517,
            "NEELDDOHLFI": 1401603939877577455
        },
        "Char_Skill_14054": {
            "IMEKODELOGJ": 15259430219627020965,
            "NEELDDOHLFI": 1217494174588559906
        },
        "Char_Skill_14062": {
            "IMEKODELOGJ": 861090558088157124,
            "NEELDDOHLFI": 8277826254118911772
        },
        "Char_Skill_14063": {
            "IMEKODELOGJ": 6738306357341858632,
            "NEELDDOHLFI": 2647627463870031430
        },
        "Char_Skill_14072": {
            "IMEKODELOGJ": 5907504953677395129,
            "NEELDDOHLFI": 9651626038917653770
        },
        "Char_Skill_14073": {
            "IMEKODELOGJ": 1018728140332370691,
            "NEELDDOHLFI": 12826820684750038669
        },
        "Char_Skill_14074": {
            "IMEKODELOGJ": 3190411019540536946,
            "NEELDDOHLFI": 16396903928292428842
        },
        "Char_Skill_14082": {
            "IMEKODELOGJ": 5273793471241414949,
            "NEELDDOHLFI": 17332477204622205424
        },
        "Char_Skill_14083": {
            "IMEKODELOGJ": 13607718898160160945,
            "NEELDDOHLFI": 11570466177639396234
        },
        "Char_Skill_14091": {
            "IMEKODELOGJ": 14480574215198353984,
            "NEELDDOHLFI": 1932844656529152075
        },
        "Char_Skill_14092": {
            "IMEKODELOGJ": 9417906663817287879,
            "NEELDDOHLFI": 3076400271195165508
        },
        "Char_Skill_14093": {
            "IMEKODELOGJ": 9012615298615394002,
            "NEELDDOHLFI": 3327871933101233084
        },
        "Char_Skill_15012": {
            "IMEKODELOGJ": 7470568810253722741,
            "NEELDDOHLFI": 3723455717227246196
        },
        "Char_Skill_15013": {
            "IMEKODELOGJ": 10696634755409824167,
            "NEELDDOHLFI": 6456057825486655365
        },
        "Char_Skill_15022": {
            "IMEKODELOGJ": 7827973635389159,
            "NEELDDOHLFI": 18441215911622888212
        },
        "Char_Skill_15023": {
            "IMEKODELOGJ": 32312188901582378,
            "NEELDDOHLFI": 10476331880642986388
        },
        "Char_Skill_15032": {
            "IMEKODELOGJ": 14684125615749351464,
            "NEELDDOHLFI": 4265072909869426265
        },
        "Char_Skill_15033": {
            "IMEKODELOGJ": 17177650138250832945,
            "NEELDDOHLFI": 2257189845066329862
        },
        "Char_Skill_15043": {
            "IMEKODELOGJ": 14201940717447712388,
            "NEELDDOHLFI": 463818499996567870
        },
        "Char_Skill_15051": {
            "IMEKODELOGJ": 12845369367502528376,
            "NEELDDOHLFI": 8513079789122874243
        },
        "Char_Skill_15052": {
            "IMEKODELOGJ": 8850193130450126863,
            "NEELDDOHLFI": 5171111092257429907
        },
        "Char_Skill_15053": {
            "IMEKODELOGJ": 10345381368339607419,
            "NEELDDOHLFI": 12502947168654441884
        },
        "Char_Skill_15054": {
            "IMEKODELOGJ": 5022085072288899394,
            "NEELDDOHLFI": 8474996862830830271
        },
        "Char_Skill_16012": {
            "IMEKODELOGJ": 4945351050677838422,
            "NEELDDOHLFI": 12270911357614088418
        },
        "Char_Skill_16013": {
            "IMEKODELOGJ": 10307086803702818486,
            "NEELDDOHLFI": 3310009231746611061
        },
        "Char_Skill_16022": {
            "IMEKODELOGJ": 12500429450639219630,
            "NEELDDOHLFI": 13654457395981489046
        },
        "Char_Skill_16023": {
            "IMEKODELOGJ": 6832619924069352534,
            "NEELDDOHLFI": 7997972678531682176
        },
        "Char_Skill_16032": {
            "IMEKODELOGJ": 4668108065254235858,
            "NEELDDOHLFI": 8606515808178461281
        },
        "Char_Skill_16033": {
            "IMEKODELOGJ": 13153312801693298023,
            "NEELDDOHLFI": 15628515356669585804
        },
        "Char_Skill_16034": {
            "IMEKODELOGJ": 2577327564376376460,
            "NEELDDOHLFI": 17399832420389801895
        },
        "Char_Skill_16042": {
            "IMEKODELOGJ": 11804979683903267084,
            "NEELDDOHLFI": 16165465485360267508
        },
        "Char_Skill_16043": {
            "IMEKODELOGJ": 14438438020538197043,
            "NEELDDOHLFI": 15688857447544640004
        },
        "Char_Skill_16052": {
            "IMEKODELOGJ": 12604293232094919946,
            "NEELDDOHLFI": 1238572523734023836
        },
        "Char_Skill_16053": {
            "IMEKODELOGJ": 1051663220395559403,
            "NEELDDOHLFI": 2429539824335053586
        },
        "Char_Skill_17012": {
            "IMEKODELOGJ": 10740121892227719657,
            "NEELDDOHLFI": 14668080190769549343
        },
        "Char_Skill_17013": {
            "IMEKODELOGJ": 179994883146050281,
            "NEELDDOHLFI": 3499538908402633115
        },
        "Char_Skill_17013_Talent_2": {
            "IMEKODELOGJ": 8839979305939318069,
            "NEELDDOHLFI": 8482111809522899168
        },
        "Char_Skill_17022": {
            "IMEKODELOGJ": 15036756284755161132,
            "NEELDDOHLFI": 13480491314658576607
        },
        "Char_Skill_17023": {
            "IMEKODELOGJ": 15596538237785586254,
            "NEELDDOHLFI": 7471767096228524272
        },
        "Char_Skill_17032": {
            "IMEKODELOGJ": 1201455667128758049,
            "NEELDDOHLFI": 2878197419682598204
        },
        "Char_Skill_17033": {
            "IMEKODELOGJ": 4488341191780014547,
            "NEELDDOHLFI": 1647587985373298959
        },
        "Char_Skill_17034": {
            "IMEKODELOGJ": 14927042945593187305,
            "NEELDDOHLFI": 16982705669276415574
        },
        "Char_Skill_21012": {
            "IMEKODELOGJ": 3552914546092198618,
            "NEELDDOHLFI": 10010127735474494512
        },
        "Char_Skill_21013": {
            "IMEKODELOGJ": 11921361174521417092,
            "NEELDDOHLFI": 4943104944939527058
        },
        "Char_Skill_22012": {
            "IMEKODELOGJ": 3200121187024756679,
            "NEELDDOHLFI": 17877801054689289516
        },
        "Char_Skill_22013": {
            "IMEKODELOGJ": 12316628847696585148,
            "NEELDDOHLFI": 17542839360083488657
        },
        "Char_Skill_22014": {
            "IMEKODELOGJ": 13808513501817130555,
            "NEELDDOHLFI": 13060760195365723336
        },
        "Char_Skill_22022": {
            "IMEKODELOGJ": 11499832702379855664,
            "NEELDDOHLFI": 15935680578611376062
        },
        "Char_Skill_23012": {
            "IMEKODELOGJ": 16626337173558194174,
            "NEELDDOHLFI": 2366322170622959358
        },
        "Char_Skill_23014": {
            "IMEKODELOGJ": 11130219432878029730,
            "NEELDDOHLFI": 3144680036423947128
        },
        "Char_Skill_23023": {
            "IMEKODELOGJ": 7987083763524164994,
            "NEELDDOHLFI": 16436590265996889037
        },
        "Char_Skill_23024": {
            "IMEKODELOGJ": 15445768008862555029,
            "NEELDDOHLFI": 9811419135320296182
        },
        "Char_Skill_23025": {
            "IMEKODELOGJ": 2756184399455454051,
            "NEELDDOHLFI": 5861015176625434466
        },
        "Char_Skill_23026": {
            "IMEKODELOGJ": 11199221632530613481,
            "NEELDDOHLFI": 2795786243164880056
        },
        "Char_Skill_24012": {
            "IMEKODELOGJ": 8252753332643040200,
            "NEELDDOHLFI": 10498779803348937967
        },
        "Char_Skill_24013": {
            "IMEKODELOGJ": 3015616791126585771,
            "NEELDDOHLFI": 9224537197525601895
        },
        "Char_Skill_24014": {
            "IMEKODELOGJ": 31329803551464228,
            "NEELDDOHLFI": 18005857716112391652
        },
        "Char_Skill_24015": {
            "IMEKODELOGJ": 14685872590698296679,
            "NEELDDOHLFI": 8629918070579514040
        },
        "Char_Skill_24017": {
            "IMEKODELOGJ": 11612643439468868249,
            "NEELDDOHLFI": 12346904376927830916
        },
        "Char_Skill_24018": {
            "IMEKODELOGJ": 4971755779730433379,
            "NEELDDOHLFI": 16736813532579712610
        },
        "Char_Skill_25010_Ex_2": {
            "IMEKODELOGJ": 7203031315438174463,
            "NEELDDOHLFI": 10864057901126921794
        },
        "Char_Skill_25010_Ex_3": {
            "IMEKODELOGJ": 4731812946890805012,
            "NEELDDOHLFI": 11682461065766940907
        },
        "Char_Skill_25012": {
            "IMEKODELOGJ": 6129249991005848808,
            "NEELDDOHLFI": 15778108001982085901
        },
        "Char_Skill_25013": {
            "IMEKODELOGJ": 5232746756140609536,
            "NEELDDOHLFI": 16042249227779585344
        },
        "Char_Skill_26014": {
            "IMEKODELOGJ": 9783449922328647440,
            "NEELDDOHLFI": 2124114273467777097
        },
        "Char_Skill_27012": {
            "IMEKODELOGJ": 12058949610168630576,
            "NEELDDOHLFI": 14231346865895063831
        },
        "Char_Skill_27013": {
            "IMEKODELOGJ": 18274163834740018846,
            "NEELDDOHLFI": 4012809785883319257
        },
        "Char_Skill_27014": {
            "IMEKODELOGJ": 5377208673134937725,
            "NEELDDOHLFI": 14906562463812501195
        },
        "Char_Skill_30023": {
            "IMEKODELOGJ": 15794184800699022572,
            "NEELDDOHLFI": 10289254209144156066
        },
        "Char_Skill_30033": {
            "IMEKODELOGJ": 12212398433975504210,
            "NEELDDOHLFI": 11517448323803406079
        },
        "Char_Skill_30035": {
            "IMEKODELOGJ": 11995388749625872693,
            "NEELDDOHLFI": 188525528099754672
        },
        "Char_Skill_30036": {
            "IMEKODELOGJ": 16229719067301318958,
            "NEELDDOHLFI": 16736259868150840238
        },
        "Char_Skill_31014": {
            "IMEKODELOGJ": 11951605300223892500,
            "NEELDDOHLFI": 13535982961494494265
        },
        "Char_Skill_31015": {
            "IMEKODELOGJ": 10989466347882422059,
            "NEELDDOHLFI": 11898558854705269949
        },
        "Char_Skill_31034": {
            "IMEKODELOGJ": 5848450206533545809,
            "NEELDDOHLFI": 11660672418621635204
        },
        "Char_Skill_31035": {
            "IMEKODELOGJ": 16253496915346257341,
            "NEELDDOHLFI": 4407175607111846334
        },
        "Char_Skill_31043": {
            "IMEKODELOGJ": 16224172410992864126,
            "NEELDDOHLFI": 14154674782086703215
        },
        "Char_Skill_31045": {
            "IMEKODELOGJ": 1632455490801130424,
            "NEELDDOHLFI": 42996000460977440
        },
        "Char_Skill_32012": {
            "IMEKODELOGJ": 543930679724358570,
            "NEELDDOHLFI": 1668889533127641310
        },
        "Char_Skill_32013": {
            "IMEKODELOGJ": 3679428821891859523,
            "NEELDDOHLFI": 18399170632992523846
        },
        "Char_Skill_32014": {
            "IMEKODELOGJ": 11968552461828975613,
            "NEELDDOHLFI": 7037724544084821567
        },
        "Char_Skill_32015": {
            "IMEKODELOGJ": 4664965400589511850,
            "NEELDDOHLFI": 13916784178177188643
        },
        "Char_Skill_32016": {
            "IMEKODELOGJ": 11102977858005473975,
            "NEELDDOHLFI": 11536167546725143525
        },
        "Char_Skill_32022": {
            "IMEKODELOGJ": 12864175064174777635,
            "NEELDDOHLFI": 11609575643507083786
        },
        "Char_Skill_32032": {
            "IMEKODELOGJ": 16834280452795174293,
            "NEELDDOHLFI": 14899998471564164858
        },
        "Char_Skill_32033": {
            "IMEKODELOGJ": 3280506820445002213,
            "NEELDDOHLFI": 672915292136272048
        },
        "Char_Skill_32034": {
            "IMEKODELOGJ": 9179574064453376923,
            "NEELDDOHLFI": 12431126260530340755
        },
        "Char_Skill_32035": {
            "IMEKODELOGJ": 15792624319502353747,
            "NEELDDOHLFI": 7019011953533719588
        },
        "Char_Skill_32043": {
            "IMEKODELOGJ": 17642526422333773049,
            "NEELDDOHLFI": 12619046897561163152
        },
        "Char_Skill_32054": {
            "IMEKODELOGJ": 251269880773513043,
            "NEELDDOHLFI": 3953108754943612335
        },
        "Char_Skill_33013": {
            "IMEKODELOGJ": 13640035536224945451,
            "NEELDDOHLFI": 15615386421632889802
        },
        "Char_Skill_33014": {
            "IMEKODELOGJ": 1472860952101366753,
            "NEELDDOHLFI": 8348958508573573602
        },
        "Char_Skill_33015": {
            "IMEKODELOGJ": 18434002753489896208,
            "NEELDDOHLFI": 6133141952183769588
        },
        "Char_Skill_33016": {
            "IMEKODELOGJ": 470644067979250496,
            "NEELDDOHLFI": 4195370124784409564
        },
        "Char_Skill_33024": {
            "IMEKODELOGJ": 15513956733524253535,
            "NEELDDOHLFI": 14415468152992806600
        },
        "Char_Skill_33024_Ex_1": {
            "IMEKODELOGJ": 4021149945960069316,
            "NEELDDOHLFI": 15923436614898206854
        },
        "Char_Skill_33024_Ex_2": {
            "IMEKODELOGJ": 12258251715489599011,
            "NEELDDOHLFI": 7605159253031149566
        },
        "Char_Skill_33024_Ex_3": {
            "IMEKODELOGJ": 18378512701534145732,
            "NEELDDOHLFI": 11818038577890126088
        },
        "Char_Skill_33033": {
            "IMEKODELOGJ": 4827244564444122328,
            "NEELDDOHLFI": 10510891232611991724
        },
        "Char_Skill_33033_Ex_1_COPY": {
            "IMEKODELOGJ": 17073285168626538505,
            "NEELDDOHLFI": 17704623391682655634
        },
        "Char_Skill_33034": {
            "IMEKODELOGJ": 16637730758594073075,
            "NEELDDOHLFI": 8783141032693144812
        },
        "Char_Skill_33034_Ex_2": {
            "IMEKODELOGJ": 13986665301116243605,
            "NEELDDOHLFI": 10953299565783034626
        },
        "Char_Skill_33034_Ex_3": {
            "IMEKODELOGJ": 9706427359637118616,
            "NEELDDOHLFI": 17722595763264312147
        },
        "Char_Skill_33035": {
            "IMEKODELOGJ": 11414436110146852493,
            "NEELDDOHLFI": 16581629089145891729
        },
        "Char_Skill_33036": {
            "IMEKODELOGJ": 14764051400660908415,
            "NEELDDOHLFI": 12783368604599101583
        },
        "Char_Skill_33037": {
            "IMEKODELOGJ": 216101343944310585,
            "NEELDDOHLFI": 2893223366495529929
        },
        "Char_Skill_33052": {
            "IMEKODELOGJ": 5710367020897339046,
            "NEELDDOHLFI": 10250191225218396805
        },
        "Char_Skill_33053": {
            "IMEKODELOGJ": 16606890135060779923,
            "NEELDDOHLFI": 720531461685860072
        },
        "Char_Skill_33053_Ex_1": {
            "IMEKODELOGJ": 7525752296446316882,
            "NEELDDOHLFI": 15368449877296026067
        },
        "Char_Skill_33063": {
            "IMEKODELOGJ": 4829296419251629271,
            "NEELDDOHLFI": 3825042264430958197
        },
        "Char_Skill_33065": {
            "IMEKODELOGJ": 6832427280113405264,
            "NEELDDOHLFI": 2803329276526865587
        },
        "Char_Skill_34013": {
            "IMEKODELOGJ": 17284746391230706393,
            "NEELDDOHLFI": 15242171596953497407
        },
        "Char_Skill_34014": {
            "IMEKODELOGJ": 3811040688265954860,
            "NEELDDOHLFI": 2157506061775723431
        },
        "Char_Skill_34014_Ex_2": {
            "IMEKODELOGJ": 10144537751157116560,
            "NEELDDOHLFI": 16842908902521367201
        },
        "Char_Skill_34014_Ex_3": {
            "IMEKODELOGJ": 10220560673012395882,
            "NEELDDOHLFI": 3622067393407775631
        },
        "Char_Skill_34015": {
            "IMEKODELOGJ": 8414531438632560836,
            "NEELDDOHLFI": 13071677688296880048
        },
        "Char_Skill_34016": {
            "IMEKODELOGJ": 4439599280497154548,
            "NEELDDOHLFI": 13478955603896757089
        },
        "Char_Skill_34017": {
            "IMEKODELOGJ": 5144739070075917067,
            "NEELDDOHLFI": 8370965221715174900
        },
        "Char_Skill_34034": {
            "IMEKODELOGJ": 13037745402363639660,
            "NEELDDOHLFI": 13389539093407091888
        },
        "Char_Skill_34034_Ex_2": {
            "IMEKODELOGJ": 15373005220739568774,
            "NEELDDOHLFI": 10945206670014456088
        },
        "Char_Skill_34034_Ex_3": {
            "IMEKODELOGJ": 13995812702883562099,
            "NEELDDOHLFI": 11665692652731922683
        },
        "Char_Skill_34042": {
            "IMEKODELOGJ": 14326007812221595335,
            "NEELDDOHLFI": 10490624846396166007
        },
        "Char_Skill_34043": {
            "IMEKODELOGJ": 12719281950109549281,
            "NEELDDOHLFI": 13218817841894981589
        },
        "Char_Skill_34044": {
            "IMEKODELOGJ": 3976522040677696643,
            "NEELDDOHLFI": 11033913175340175670
        },
        "Char_Skill_34045": {
            "IMEKODELOGJ": 2817728660316879451,
            "NEELDDOHLFI": 6908851939122346506
        },
        "Char_Skill_34053": {
            "IMEKODELOGJ": 18431160082670351185,
            "NEELDDOHLFI": 9986270880000799692
        },
        "Char_Skill_34053_Ex_1": {
            "IMEKODELOGJ": 16583432224418682257,
            "NEELDDOHLFI": 5659049823184741374
        },
        "Char_Skill_34063": {
            "IMEKODELOGJ": 7958334517282397079,
            "NEELDDOHLFI": 13356816035428833822
        },
        "Char_Skill_34073": {
            "IMEKODELOGJ": 6901924824569533334,
            "NEELDDOHLFI": 10119217908720483210
        },
        "Char_Skill_34075": {
            "IMEKODELOGJ": 14897420660729137853,
            "NEELDDOHLFI": 5757403297661881901
        },
        "Char_Skill_35012": {
            "IMEKODELOGJ": 13054164589039665000,
            "NEELDDOHLFI": 13227167758578806458
        },
        "Char_Skill_35022": {
            "IMEKODELOGJ": 15790472964939158535,
            "NEELDDOHLFI": 12729890613245533643
        },
        "Char_Skill_35023": {
            "IMEKODELOGJ": 12698446562714035591,
            "NEELDDOHLFI": 919369262450672650
        },
        "Char_Skill_35024": {
            "IMEKODELOGJ": 1607677434630352943,
            "NEELDDOHLFI": 13251711166219378338
        },
        "Char_Skill_35025": {
            "IMEKODELOGJ": 3712638492698157934,
            "NEELDDOHLFI": 4610383316696122493
        },
        "Char_Skill_36014": {
            "IMEKODELOGJ": 1179954801257837484,
            "NEELDDOHLFI": 17333330869422604244
        },
        "Char_Skill_36021": {
            "IMEKODELOGJ": 857209534208500405,
            "NEELDDOHLFI": 18350111075998426444
        },
        "Char_Skill_36022": {
            "IMEKODELOGJ": 1732593285563035553,
            "NEELDDOHLFI": 13244915385495964907
        },
        "Char_Skill_36023": {
            "IMEKODELOGJ": 10897156349851594199,
            "NEELDDOHLFI": 12302021625934461609
        },
        "Char_Skill_36024": {
            "IMEKODELOGJ": 14962886690804556663,
            "NEELDDOHLFI": 219491448914953939
        },
        "Char_Skill_36032": {
            "IMEKODELOGJ": 16718496258949020050,
            "NEELDDOHLFI": 17063098713316696282
        },
        "Char_Skill_36043": {
            "IMEKODELOGJ": 2146866758641078469,
            "NEELDDOHLFI": 1786178136297416700
        },
        "Char_Skill_37014": {
            "IMEKODELOGJ": 2170407417610442029,
            "NEELDDOHLFI": 11608527615170252538
        },
        "Char_Skill_37024": {
            "IMEKODELOGJ": 13376288752129410564,
            "NEELDDOHLFI": 17719748441394388164
        },
        "Char_Skill_37025": {
            "IMEKODELOGJ": 12511068764940509560,
            "NEELDDOHLFI": 5586778001950857983
        },
        "Char_Skill_37032": {
            "IMEKODELOGJ": 11087274226445526110,
            "NEELDDOHLFI": 664559000143126259
        },
        "Effect_Damage_Elec_1": {
            "IMEKODELOGJ": 2151425847798044889,
            "NEELDDOHLFI": 8915123771353969627
        },
        "Effect_Damage_Elec_3": {
            "IMEKODELOGJ": 16525287056885689679,
            "NEELDDOHLFI": 3928197426624205478
        },
        "Effect_Damage_Elec_4": {
            "IMEKODELOGJ": 14979021334730988864,
            "NEELDDOHLFI": 12920521798920272577
        },
        "Effect_Damage_Fire_1": {
            "IMEKODELOGJ": 9018127219957836844,
            "NEELDDOHLFI": 14746187032597399586
        },
        "Effect_Damage_Fire_2": {
            "IMEKODELOGJ": 15204503992153431274,
            "NEELDDOHLFI": 2729488856780013490
        },
        "Effect_Damage_Fire_3": {
            "IMEKODELOGJ": 12164255675684495804,
            "NEELDDOHLFI": 13276824827355698268
        },
        "Effect_Damage_Fire_4": {
            "IMEKODELOGJ": 16393573877908813859,
            "NEELDDOHLFI": 7347996750794186032
        },
        "Effect_Damage_Fire_5": {
            "IMEKODELOGJ": 5579421989198565498,
            "NEELDDOHLFI": 903054356249442937
        },
        "Effect_Damage_Grass_1": {
            "IMEKODELOGJ": 1127443763348840244,
            "NEELDDOHLFI": 3983684157768901509
        },
        "Effect_Damage_Grass_3": {
            "IMEKODELOGJ": 998939507118609952,
            "NEELDDOHLFI": 7429040287627368013
        },
        "Effect_Damage_Grass_5": {
            "IMEKODELOGJ": 11606833590285549516,
            "NEELDDOHLFI": 13818830350777747192
        },
        "Effect_Damage_Ice_1": {
            "IMEKODELOGJ": 5465431686717202869,
            "NEELDDOHLFI": 16151065807302733750
        },
        "Effect_Damage_Ice_3": {
            "IMEKODELOGJ": 16313635524554534278,
            "NEELDDOHLFI": 11606724856667927616
        },
        "Effect_Damage_Ice_4": {
            "IMEKODELOGJ": 13155524228678703522,
            "NEELDDOHLFI": 9843779203053013728
        },
        "Effect_Damage_Ice_5": {
            "IMEKODELOGJ": 4451580396522007911,
            "NEELDDOHLFI": 14155167454433152076
        },
        "Effect_Damage_Ice_7": {
            "IMEKODELOGJ": 5948466518207822017,
            "NEELDDOHLFI": 11369058486636285894
        },
        "Effect_Damage_Physic_1": {
            "IMEKODELOGJ": 6268985820842797606,
            "NEELDDOHLFI": 15879866670391130360
        },
        "Effect_Damage_Physic_10": {
            "IMEKODELOGJ": 14159248872083149008,
            "NEELDDOHLFI": 6640622954975133304
        },
        "Effect_Damage_Physic_2": {
            "IMEKODELOGJ": 12705748602776265718,
            "NEELDDOHLFI": 6126407089879847100
        },
        "Effect_Damage_Physic_3": {
            "IMEKODELOGJ": 1725658417193991903,
            "NEELDDOHLFI": 981809321913250841
        },
        "Effect_Damage_Physic_4": {
            "IMEKODELOGJ": 8145715250466017119,
            "NEELDDOHLFI": 7215254111644490741
        },
        "Effect_Damage_Physic_5": {
            "IMEKODELOGJ": 3147811553631350259,
            "NEELDDOHLFI": 12036532414914933334
        },
        "Effect_Damage_Physic_6": {
            "IMEKODELOGJ": 3441659769129053305,
            "NEELDDOHLFI": 11426385440960562757
        },
        "Effect_Damage_Rock_1": {
            "IMEKODELOGJ": 17855783235226934108,
            "NEELDDOHLFI": 17579472990835866295
        },
        "Effect_Damage_Rock_3": {
            "IMEKODELOGJ": 1236603467265979000,
            "NEELDDOHLFI": 6021624249591638047
        },
        "Effect_Damage_Rock_5": {
            "IMEKODELOGJ": 13638670694757924470,
            "NEELDDOHLFI": 12066291669876945468
        },
        "Effect_Damage_Water_1": {
            "IMEKODELOGJ": 7499258774647977141,
            "NEELDDOHLFI": 3115135874083408833
        },
        "Effect_Damage_Water_3": {
            "IMEKODELOGJ": 14173863654512529642,
            "NEELDDOHLFI": 16467216110115773840
        },
        "Effect_Damage_Water_4": {
            "IMEKODELOGJ": 3961197050929728764,
            "NEELDDOHLFI": 14412562234946659440
        },
        "Effect_Damage_Water_5": {
            "IMEKODELOGJ": 1039892235981625507,
            "NEELDDOHLFI": 3847000836988817084
        },
        "Effect_Damage_Wind_1": {
            "IMEKODELOGJ": 18281281623899662797,
            "NEELDDOHLFI": 18101427598798301108
        },
        "Effect_Damage_Wind_3": {
            "IMEKODELOGJ": 18067947044154119060,
            "NEELDDOHLFI": 659216731919445600
        },
        "Effect_Damage_Wind_4": {
            "IMEKODELOGJ": 18109019906411648460,
            "NEELDDOHLFI": 1059976564824820604
        },
        "Effect_Damage_Wind_5": {
            "IMEKODELOGJ": 15010506813621926927,
            "NEELDDOHLFI": 6664975430181797557
        },
        "Attached_LifeAsShield_Once_Per1_Elec": {
            "IMEKODELOGJ": 14771849031600328982,
            "NEELDDOHLFI": 5696435575273397434
        },
        "Attached_LifeAsShield_Once_Per1_Fire": {
            "IMEKODELOGJ": 2416299118552597369,
            "NEELDDOHLFI": 17431763117875559123
        }
    },
    "HPCHNAHMGMN": {
        "Card_111041": {
            "IMEKODELOGJ": 2445673441552564469,
            "NEELDDOHLFI": 13701631699207474518
        },
        "Card_111042": {
            "IMEKODELOGJ": 8061358262224309853,
            "NEELDDOHLFI": 14155540680629119550
        },
        "Card_111061": {
            "IMEKODELOGJ": 5756293962713230220,
            "NEELDDOHLFI": 3972473604119073344
        },
        "Card_112072": {
            "IMEKODELOGJ": 2860181638690992664,
            "NEELDDOHLFI": 17897698196777427347
        },
        "Card_114041": {
            "IMEKODELOGJ": 3544696784271868522,
            "NEELDDOHLFI": 11278640631832303866
        },
        "Card_114041_2": {
            "IMEKODELOGJ": 15530236074854506085,
            "NEELDDOHLFI": 11573152823535647078
        },
        "Card_126012": {
            "IMEKODELOGJ": 5956582438985853275,
            "NEELDDOHLFI": 7883193345845873145
        },
        "Card_127011": {
            "IMEKODELOGJ": 5836321373684432120,
            "NEELDDOHLFI": 4781335574484057611
        },
        "Card_127011_2": {
            "IMEKODELOGJ": 15134360480153455796,
            "NEELDDOHLFI": 9957991707763758430
        },
        "Card_127011_3": {
            "IMEKODELOGJ": 8575544635039291385,
            "NEELDDOHLFI": 3066728260600715288
        },
        "Card_127011_4": {
            "IMEKODELOGJ": 1139631542845690602,
            "NEELDDOHLFI": 15020124380158418865
        },
        "Card_136022": {
            "IMEKODELOGJ": 8723972005691669240,
            "NEELDDOHLFI": 9737554214189330855
        },
        "Card_213071": {
            "IMEKODELOGJ": 13589149507344046769,
            "NEELDDOHLFI": 8857556589713291431
        },
        "Card_312014": {
            "IMEKODELOGJ": 15687887081410458685,
            "NEELDDOHLFI": 11941599106596392326
        },
        "Card_422005": {
            "IMEKODELOGJ": 1530553498996857190,
            "NEELDDOHLFI": 16930221035475993462
        },
        "Card_422005_2": {
            "IMEKODELOGJ": 10516265537083419028,
            "NEELDDOHLFI": 3033244891981958690
        },
        "Card_422005_3": {
            "IMEKODELOGJ": 12420757492648569544,
            "NEELDDOHLFI": 4975497732961178475
        },
        "Enchant_Elec": {
            "IMEKODELOGJ": 7719885517157675849,
            "NEELDDOHLFI": 9128196731057642526
        },
        "Enchant_Fire": {
            "IMEKODELOGJ": 7097757136855915403,
            "NEELDDOHLFI": 13411551092282948315
        },
        "Enchant_Grass": {
            "IMEKODELOGJ": 4515125456229479586,
            "NEELDDOHLFI": 7233855256467725101
        },
        "Enchant_Ice": {
            "IMEKODELOGJ": 14110535066973773183,
            "NEELDDOHLFI": 16529060943744982021
        },
        "Enchant_Rock": {
            "IMEKODELOGJ": 5695087535989681905,
            "NEELDDOHLFI": 5918357771452169001
        },
        "Enchant_Water": {
            "IMEKODELOGJ": 2555661023965563378,
            "NEELDDOHLFI": 17096186887111554153
        },
        "Enchant_Wind": {
            "IMEKODELOGJ": 12485378398279315654,
            "NEELDDOHLFI": 10252214944108202074
        },
        "Weapon_1": {
            "IMEKODELOGJ": 17042347617090104524,
            "NEELDDOHLFI": 15802044246431627991
        },
        "Weapon_1_A": {
            "IMEKODELOGJ": 14699450351378924992,
            "NEELDDOHLFI": 3151676918498588163
        },
        "Weapon_1_A_Sky": {
            "IMEKODELOGJ": 952556667716670845,
            "NEELDDOHLFI": 3020608613716730615
        },
        "Weapon_1_E": {
            "IMEKODELOGJ": 13835347152929945227,
            "NEELDDOHLFI": 4427109221190490028
        },
        "Weapon_1_Q": {
            "IMEKODELOGJ": 12917123913845893775,
            "NEELDDOHLFI": 10180875416056991568
        },
        "Weapon_2": {
            "IMEKODELOGJ": 7046012329305422452,
            "NEELDDOHLFI": 12826067812302885051
        },
        "Weapon_2_A": {
            "IMEKODELOGJ": 8407018813038896724,
            "NEELDDOHLFI": 15697415923165252549
        },
        "Weapon_2_E": {
            "IMEKODELOGJ": 11304758983252275942,
            "NEELDDOHLFI": 3996746641249499682
        },
        "Weapon_2_Q": {
            "IMEKODELOGJ": 7350539585104710591,
            "NEELDDOHLFI": 9402390593994188201
        },
        "Weapon_3_E": {
            "IMEKODELOGJ": 7215004009984473938,
            "NEELDDOHLFI": 1285632960538192429
        },
        "Weapon_3_Q": {
            "IMEKODELOGJ": 5348139411878369323,
            "NEELDDOHLFI": 4977153327226518558
        }
    },
    "EIIFAJGIMIG": {
        "Hint_01": {
            "IMEKODELOGJ": 11369053698506569309,
            "NEELDDOHLFI": 15773864441757217208
        },
        "Story_50301": {
            "IMEKODELOGJ": 1091548708434267140,
            "NEELDDOHLFI": 6224943674642644579
        },
        "Tutorial_1_1": {
            "IMEKODELOGJ": 655348645786972008,
            "NEELDDOHLFI": 8675580692910285928
        },
        "Tutorial_1_2": {
            "IMEKODELOGJ": 1007552799167109097,
            "NEELDDOHLFI": 12964705904432844215
        },
        "Tutorial_1_4": {
            "IMEKODELOGJ": 11054011260623343222,
            "NEELDDOHLFI": 13784761797531830720
        },
        "Tutorial_1_5": {
            "IMEKODELOGJ": 16294357850346454355,
            "NEELDDOHLFI": 18049058190133368121
        },
        "Tutorial_2_1": {
            "IMEKODELOGJ": 11514873411024406800,
            "NEELDDOHLFI": 14621790612430148122
        },
        "Tutorial_2_2": {
            "IMEKODELOGJ": 13501925462183944026,
            "NEELDDOHLFI": 8276104860290449860
        }
    },
    "HOJLAIDNFEN": {
        "SkinEffectConfig_Character_Albedo": {
            "IMEKODELOGJ": 2872040056532781116,
            "NEELDDOHLFI": 16308497653951766888
        },
        "SkinEffectConfig_Character_Ambor": {
            "IMEKODELOGJ": 6121424594826130374,
            "NEELDDOHLFI": 11819694812717549110
        },
        "SkinEffectConfig_Character_Ayaka": {
            "IMEKODELOGJ": 1571284997508283258,
            "NEELDDOHLFI": 10096555986354367571
        },
        "SkinEffectConfig_Character_Ayato": {
            "IMEKODELOGJ": 3896302766876077117,
            "NEELDDOHLFI": 15933269086772984646
        },
        "SkinEffectConfig_Character_Barbara": {
            "IMEKODELOGJ": 1450098122885858732,
            "NEELDDOHLFI": 16670900700252835417
        },
        "SkinEffectConfig_Character_Beidou": {
            "IMEKODELOGJ": 14338474525326661851,
            "NEELDDOHLFI": 7532160846106364160
        },
        "SkinEffectConfig_Character_Bennett": {
            "IMEKODELOGJ": 10621268605369288795,
            "NEELDDOHLFI": 2356645760325554938
        },
        "SkinEffectConfig_Character_Candace": {
            "IMEKODELOGJ": 14048673633425615927,
            "NEELDDOHLFI": 12346722903577569559
        },
        "SkinEffectConfig_Character_Chongyun": {
            "IMEKODELOGJ": 9209312582678840924,
            "NEELDDOHLFI": 14723496885102670744
        },
        "SkinEffectConfig_Character_Collei": {
            "IMEKODELOGJ": 7582968879744186382,
            "NEELDDOHLFI": 9259331557653391647
        },
        "SkinEffectConfig_Character_Cyno1": {
            "IMEKODELOGJ": 17034314670304986180,
            "NEELDDOHLFI": 2023785289853818588
        },
        "SkinEffectConfig_Character_Cyno2": {
            "IMEKODELOGJ": 9688858480656962154,
            "NEELDDOHLFI": 16181549436591853779
        },
        "SkinEffectConfig_Character_Diluc": {
            "IMEKODELOGJ": 1520605092509907276,
            "NEELDDOHLFI": 12861037893189792238
        },
        "SkinEffectConfig_Character_Diona": {
            "IMEKODELOGJ": 14360502854427264828,
            "NEELDDOHLFI": 4927861240460395282
        },
        "SkinEffectConfig_Character_Eula": {
            "IMEKODELOGJ": 15198483158352661241,
            "NEELDDOHLFI": 6825985353850614471
        },
        "SkinEffectConfig_Character_Feiyan": {
            "IMEKODELOGJ": 17507785340467145304,
            "NEELDDOHLFI": 6915622935910590417
        },
        "SkinEffectConfig_Character_Fischl": {
            "IMEKODELOGJ": 5923281905868052614,
            "NEELDDOHLFI": 12018240069910191642
        },
        "SkinEffectConfig_Character_Ganyu": {
            "IMEKODELOGJ": 18339493300690508047,
            "NEELDDOHLFI": 7780470224161404949
        },
        "SkinEffectConfig_Character_Hutao": {
            "IMEKODELOGJ": 14426111801280352769,
            "NEELDDOHLFI": 2668815201980564000
        },
        "SkinEffectConfig_Character_Itto": {
            "IMEKODELOGJ": 2741131135439107492,
            "NEELDDOHLFI": 2313084363185530975
        },
        "SkinEffectConfig_Character_Kaeya": {
            "IMEKODELOGJ": 12177195261821668893,
            "NEELDDOHLFI": 13334112386570321916
        },
        "SkinEffectConfig_Character_Kazuha": {
            "IMEKODELOGJ": 14739531966302757076,
            "NEELDDOHLFI": 14400819004055320924
        },
        "SkinEffectConfig_Character_Keqing": {
            "IMEKODELOGJ": 14706474768515475428,
            "NEELDDOHLFI": 5496969223607336629
        },
        "SkinEffectConfig_Character_Kokomi": {
            "IMEKODELOGJ": 3478658255150488938,
            "NEELDDOHLFI": 6951213176651270234
        },
        "SkinEffectConfig_Character_Lisa": {
            "IMEKODELOGJ": 14765591920039583149,
            "NEELDDOHLFI": 4914846940394286663
        },
        "SkinEffectConfig_Character_Mona": {
            "IMEKODELOGJ": 10003056416189286520,
            "NEELDDOHLFI": 8823643247559845526
        },
        "SkinEffectConfig_Character_Nahida": {
            "IMEKODELOGJ": 6056713407111262311,
            "NEELDDOHLFI": 12965486471397741163
        },
        "SkinEffectConfig_Character_Ningguang": {
            "IMEKODELOGJ": 15235491265507055608,
            "NEELDDOHLFI": 1650212399639542166
        },
        "SkinEffectConfig_Character_Noel": {
            "IMEKODELOGJ": 11146903111548834470,
            "NEELDDOHLFI": 6246488298722526056
        },
        "SkinEffectConfig_Character_Qin": {
            "IMEKODELOGJ": 7789436859065921611,
            "NEELDDOHLFI": 2910412624286275866
        },
        "SkinEffectConfig_Character_Qiqi": {
            "IMEKODELOGJ": 7118333153320837401,
            "NEELDDOHLFI": 5198918896477654137
        },
        "SkinEffectConfig_Character_Razor": {
            "IMEKODELOGJ": 589956631751283803,
            "NEELDDOHLFI": 16258631260389058828
        },
        "SkinEffectConfig_Character_Sara": {
            "IMEKODELOGJ": 14324806321028342063,
            "NEELDDOHLFI": 11335166011286250692
        },
        "SkinEffectConfig_Character_Shenhe": {
            "IMEKODELOGJ": 11900297424276167355,
            "NEELDDOHLFI": 1927911234101053609
        },
        "SkinEffectConfig_Character_Shougun": {
            "IMEKODELOGJ": 3325108276234802286,
            "NEELDDOHLFI": 18255936146579989373
        },
        "SkinEffectConfig_Character_Sucrose": {
            "IMEKODELOGJ": 1895152564276733733,
            "NEELDDOHLFI": 16385317054556073634
        },
        "SkinEffectConfig_Character_Tartaglia": {
            "IMEKODELOGJ": 6506794241973747742,
            "NEELDDOHLFI": 8676563197593252913
        },
        "SkinEffectConfig_Character_Tartaglia02": {
            "IMEKODELOGJ": 12250074557256316050,
            "NEELDDOHLFI": 7168536202913691782
        },
        "SkinEffectConfig_Character_Tighnari": {
            "IMEKODELOGJ": 16362777298375818962,
            "NEELDDOHLFI": 4728471722336134106
        },
        "SkinEffectConfig_Character_Venti": {
            "IMEKODELOGJ": 12994107574448923088,
            "NEELDDOHLFI": 14470968050601534187
        },
        "SkinEffectConfig_Character_Xiangling": {
            "IMEKODELOGJ": 1504248198495481802,
            "NEELDDOHLFI": 14686745466905625723
        },
        "SkinEffectConfig_Character_Xiao": {
            "IMEKODELOGJ": 4355162403832619492,
            "NEELDDOHLFI": 2776267821905224482
        },
        "SkinEffectConfig_Character_Xiao2": {
            "IMEKODELOGJ": 11065203971473646372,
            "NEELDDOHLFI": 10712556546296232783
        },
        "SkinEffectConfig_Character_Xingqiu": {
            "IMEKODELOGJ": 12341269615020658093,
            "NEELDDOHLFI": 18037787734183559230
        },
        "SkinEffectConfig_Character_Yae": {
            "IMEKODELOGJ": 9653096327116303861,
            "NEELDDOHLFI": 10626512788760617619
        },
        "SkinEffectConfig_Character_Yoimiya": {
            "IMEKODELOGJ": 5071458373522915505,
            "NEELDDOHLFI": 12042167055053467709
        },
        "SkinEffectConfig_Character_Zhongli": {
            "IMEKODELOGJ": 9278610299952013556,
            "NEELDDOHLFI": 3567893629580409997
        },
        "SkinEffectConfig_Monster_Bruterock": {
            "IMEKODELOGJ": 8401202944970104869,
            "NEELDDOHLFI": 6496709519473886176
        },
        "SkinEffectConfig_Monster_DeaconFire": {
            "IMEKODELOGJ": 17700818458455125704,
            "NEELDDOHLFI": 13020404218461880142
        },
        "SkinEffectConfig_Monster_Effigyelectric": {
            "IMEKODELOGJ": 7096866825017831163,
            "NEELDDOHLFI": 9768621475085170738
        },
        "SkinEffectConfig_Monster_Fatuus": {
            "IMEKODELOGJ": 2997025929106547413,
            "NEELDDOHLFI": 6436223590809342717
        },
        "SkinEffectConfig_Monster_Fungusgrass": {
            "IMEKODELOGJ": 1109532773035637736,
            "NEELDDOHLFI": 13687298257264801072
        },
        "SkinEffectConfig_Monster_Mageice": {
            "IMEKODELOGJ": 113492044417610973,
            "NEELDDOHLFI": 10359608084241135025
        },
        "SkinEffectConfig_Monster_Maidenwater": {
            "IMEKODELOGJ": 17704139241066996066,
            "NEELDDOHLFI": 8787743376158195434
        },
        "SkinEffectConfig_Monster_Ningyo": {
            "IMEKODELOGJ": 16606600468119487072,
            "NEELDDOHLFI": 5391158299950739471
        },
        "SkinEffectConfig_Monster_Oceanid": {
            "IMEKODELOGJ": 5446540495002612919,
            "NEELDDOHLFI": 14504553311651343986
        }
    },
    "NMKKOOMCBPE": {
        "CommonCharacterBornMove": "Data/GCG/Motions/CardMotions/CommonCharacterBornMove",
        "CommonMove": "Data/GCG/Motions/CardMotions/CommonMove",
        "CommonOpponentDeckToHand": "Data/GCG/Motions/CardMotions/CommonOpponentDeckToHand",
        "CommonOpponentHandToDeck": "Data/GCG/Motions/CardMotions/CommonOpponentHandToDeck",
        "CommonOpponentHandToShow": "Data/GCG/Motions/CardMotions/CommonOpponentHandToShow",
        "CommonSelfDeckToShow": "Data/GCG/Motions/CardMotions/CommonSelfDeckToShow",
        "CommonSelfDraw": "Data/GCG/Motions/CardMotions/CommonSelfDraw",
        "CommonSelfDrawTest": "Data/GCG/Motions/CardMotions/CommonSelfDrawTest",
        "CommonSelfHandToShow": "Data/GCG/Motions/CardMotions/CommonSelfHandToShow",
        "CommonSelfShowToDeck": "Data/GCG/Motions/CardMotions/CommonSelfShowToDeck",
        "CommonSelfShowToHand": "Data/GCG/Motions/CardMotions/CommonSelfShowToHand",
        "CommonSelfShowToHandTwoStage": "Data/GCG/Motions/CardMotions/CommonSelfShowToHandTwoStage",
        "ExamplePattern": "Data/GCG/Motions/CardMotions/ExamplePattern",
        "Eff_Gcg_Motion_Avatar_Ayaka_ElementBurst": "Data/GCG/Motions/EffectMotions/Eff_Gcg_Motion_Avatar_Ayaka_ElementBurst",
        "Eff_Gcg_Motion_Avatar_Collei_ElementBurst": "Data/GCG/Motions/EffectMotions/Eff_Gcg_Motion_Avatar_Collei_ElementBurst",
        "Eff_Gcg_Motion_Avatar_Diluc_ElementBurst": "Data/GCG/Motions/EffectMotions/Eff_Gcg_Motion_Avatar_Diluc_ElementBurst",
        "Eff_Gcg_Motion_Avatar_Diona_ElementBurst": "Data/GCG/Motions/EffectMotions/Eff_Gcg_Motion_Avatar_Diona_ElementBurst",
        "Eff_Gcg_Motion_Avatar_Fischl_ElementBurst": "Data/GCG/Motions/EffectMotions/Eff_Gcg_Motion_Avatar_Fischl_ElementBurst",
        "Eff_Gcg_Motion_Avatar_Kaeya_ElementBurst": "Data/GCG/Motions/EffectMotions/Eff_Gcg_Motion_Avatar_Kaeya_ElementBurst",
        "Eff_Gcg_Motion_Avatar_Klee_ElementBurst": "Data/GCG/Motions/EffectMotions/Eff_Gcg_Motion_Avatar_Klee_ElementBurst",
        "Eff_Gcg_Motion_Avatar_Klee_ElementBurst_02": "Data/GCG/Motions/EffectMotions/Eff_Gcg_Motion_Avatar_Klee_ElementBurst_02",
        "Eff_Gcg_Motion_Avatar_Ningguang_ElementBurst_01": "Data/GCG/Motions/EffectMotions/Eff_Gcg_Motion_Avatar_Ningguang_ElementBurst_01",
        "Eff_Gcg_Motion_Avatar_Ningguang_ElementBurst_02": "Data/GCG/Motions/EffectMotions/Eff_Gcg_Motion_Avatar_Ningguang_ElementBurst_02",
        "Eff_Gcg_Motion_Avatar_Ningguang_ElementBurst_03": "Data/GCG/Motions/EffectMotions/Eff_Gcg_Motion_Avatar_Ningguang_ElementBurst_03",
        "Eff_Gcg_Motion_Avatar_Ningguang_ElementBurst_04": "Data/GCG/Motions/EffectMotions/Eff_Gcg_Motion_Avatar_Ningguang_ElementBurst_04",
        "Eff_Gcg_Motion_Avatar_Ningguang_ElementBurst_05": "Data/GCG/Motions/EffectMotions/Eff_Gcg_Motion_Avatar_Ningguang_ElementBurst_05",
        "Eff_Gcg_Motion_Avatar_Ningguang_ElementBurst_06": "Data/GCG/Motions/EffectMotions/Eff_Gcg_Motion_Avatar_Ningguang_ElementBurst_06",
        "Eff_Gcg_Motion_Avatar_Sucrose_ElementBurst": "Data/GCG/Motions/EffectMotions/Eff_Gcg_Motion_Avatar_Sucrose_ElementBurst",
        "Eff_Gcg_Motion_Avatar_Tighnari_ElementBurst_01": "Data/GCG/Motions/EffectMotions/Eff_Gcg_Motion_Avatar_Tighnari_ElementBurst_01",
        "Eff_Gcg_Motion_Avatar_Tighnari_ElementBurst_02": "Data/GCG/Motions/EffectMotions/Eff_Gcg_Motion_Avatar_Tighnari_ElementBurst_02",
        "Eff_Gcg_Motion_Avatar_Tighnari_ElementBurst_03": "Data/GCG/Motions/EffectMotions/Eff_Gcg_Motion_Avatar_Tighnari_ElementBurst_03",
        "Eff_Gcg_Motion_Avatar_Tighnari_ElementBurst_04": "Data/GCG/Motions/EffectMotions/Eff_Gcg_Motion_Avatar_Tighnari_ElementBurst_04",
        "Eff_Gcg_Motion_Avatar_Tighnari_ElementBurst_05": "Data/GCG/Motions/EffectMotions/Eff_Gcg_Motion_Avatar_Tighnari_ElementBurst_05",
        "Eff_Gcg_Motion_Avatar_Tighnari_ElementBurst_06": "Data/GCG/Motions/EffectMotions/Eff_Gcg_Motion_Avatar_Tighnari_ElementBurst_06",
        "Eff_Gcg_Motion_Avatar_Tighnari_ElementBurst_07": "Data/GCG/Motions/EffectMotions/Eff_Gcg_Motion_Avatar_Tighnari_ElementBurst_07",
        "Eff_Gcg_Motion_Avatar_Tighnari_ElementBurst_08": "Data/GCG/Motions/EffectMotions/Eff_Gcg_Motion_Avatar_Tighnari_ElementBurst_08",
        "Eff_Gcg_Motion_Avatar_Venti_ElementBurst": "Data/GCG/Motions/EffectMotions/Eff_Gcg_Motion_Avatar_Venti_ElementBurst",
        "Eff_Gcg_Motion_Avatar_Xiangling_ElementBurst": "Data/GCG/Motions/EffectMotions/Eff_Gcg_Motion_Avatar_Xiangling_ElementBurst",
        "Eff_Gcg_Motion_Avatar_Xingqiu_ElementBurst_01": "Data/GCG/Motions/EffectMotions/Eff_Gcg_Motion_Avatar_Xingqiu_ElementBurst_01",
        "Eff_Gcg_Motion_Avatar_Xingqiu_ElementBurst_02": "Data/GCG/Motions/EffectMotions/Eff_Gcg_Motion_Avatar_Xingqiu_ElementBurst_02",
        "Eff_Gcg_Motion_Avatar_Xingqiu_ElementBurst_03": "Data/GCG/Motions/EffectMotions/Eff_Gcg_Motion_Avatar_Xingqiu_ElementBurst_03",
        "Eff_Gcg_Motion_Avatar_Xingqiu_ElementBurst_04": "Data/GCG/Motions/EffectMotions/Eff_Gcg_Motion_Avatar_Xingqiu_ElementBurst_04",
        "Eff_Gcg_Motion_Avatar_Xingqiu_ElementBurst_05": "Data/GCG/Motions/EffectMotions/Eff_Gcg_Motion_Avatar_Xingqiu_ElementBurst_05",
        "Eff_Gcg_Motion_Avatar_Xingqiu_ElementBurst_06": "Data/GCG/Motions/EffectMotions/Eff_Gcg_Motion_Avatar_Xingqiu_ElementBurst_06",
        "Eff_Gcg_Motion_Avatar_Xingqiu_ElementBurst_07": "Data/GCG/Motions/EffectMotions/Eff_Gcg_Motion_Avatar_Xingqiu_ElementBurst_07",
        "Eff_Gcg_Motion_Avatar_Xingqiu_ElementBurst_08": "Data/GCG/Motions/EffectMotions/Eff_Gcg_Motion_Avatar_Xingqiu_ElementBurst_08",
        "Eff_Gcg_Motion_Avatar_Xingqiu_ElementBurst_09": "Data/GCG/Motions/EffectMotions/Eff_Gcg_Motion_Avatar_Xingqiu_ElementBurst_09",
        "Eff_Gcg_Motion_Avatar_Xingqiu_ElementBurst_10": "Data/GCG/Motions/EffectMotions/Eff_Gcg_Motion_Avatar_Xingqiu_ElementBurst_10",
        "Eff_Gcg_Motion_Avatar_Yoimiya_ElementBurst": "Data/GCG/Motions/EffectMotions/Eff_Gcg_Motion_Avatar_Yoimiya_ElementBurst",
        "Eff_Gcg_Motion_Common_Gadget_Bullet": "Data/GCG/Motions/EffectMotions/Eff_Gcg_Motion_Common_Gadget_Bullet",
        "Eff_Gcg_Motion_ElementalArt_Special_Bullet": "Data/GCG/Motions/EffectMotions/Eff_Gcg_Motion_ElementalArt_Special_Bullet",
        "Eff_Gcg_Motion_Monster_Fungusgrass_ElementalBurst": "Data/GCG/Motions/EffectMotions/Eff_Gcg_Motion_Monster_Fungusgrass_ElementalBurst",
        "Eff_Gcg_Motion_Monster_Ningyo_ElementBurst": "Data/GCG/Motions/EffectMotions/Eff_Gcg_Motion_Monster_Ningyo_ElementBurst",
        "Eff_Gcg_Motion_Monster_Oceanid_ElementBurst": "Data/GCG/Motions/EffectMotions/Eff_Gcg_Motion_Monster_Oceanid_ElementBurst",
        "Eff_Gcg_Motion_Monster_Oceanid_ElementBurst_01": "Data/GCG/Motions/EffectMotions/Eff_Gcg_Motion_Monster_Oceanid_ElementBurst_01",
        "Eff_Gcg_Motion_Monster_Oceanid_ElementBurst_02": "Data/GCG/Motions/EffectMotions/Eff_Gcg_Motion_Monster_Oceanid_ElementBurst_02",
        "Eff_Gcg_Motion_Monster_Oceanid_ElementBurst_03": "Data/GCG/Motions/EffectMotions/Eff_Gcg_Motion_Monster_Oceanid_ElementBurst_03",
        "Eff_Gcg_Motion_Monster_Oceanid_ElementBurst_04": "Data/GCG/Motions/EffectMotions/Eff_Gcg_Motion_Monster_Oceanid_ElementBurst_04",
        "Eff_Gcg_Motion_Monster_Oceanid_ElementBurst_05": "Data/GCG/Motions/EffectMotions/Eff_Gcg_Motion_Monster_Oceanid_ElementBurst_05",
        "GcgMotion_Character_Diluc_Skill_A_Test2_01": "Data/GCG/Motions/EffectMotions/GcgMotion_Character_Diluc_Skill_A_Test2_01",
        "GcgMotion_Character_Diluc_Skill_A_Test2_02": "Data/GCG/Motions/EffectMotions/GcgMotion_Character_Diluc_Skill_A_Test2_02",
        "GcgMotion_Character_Diluc_Skill_A_Test2_03": "Data/GCG/Motions/EffectMotions/GcgMotion_Character_Diluc_Skill_A_Test2_03",
        "GcgMotion_Character_Diluc_Skill_A_Test3_All": "Data/GCG/Motions/EffectMotions/GcgMotion_Character_Diluc_Skill_A_Test3_All",
        "GcgMotion_Character_Diluc_Skill_A_Test_01": "Data/GCG/Motions/EffectMotions/GcgMotion_Character_Diluc_Skill_A_Test_01",
        "GcgMotion_Character_Diluc_Skill_A_Test_02": "Data/GCG/Motions/EffectMotions/GcgMotion_Character_Diluc_Skill_A_Test_02",
        "GcgMotion_Hit04_01": "Data/GCG/Motions/EffectMotions/GcgMotion_Hit04_01",
        "GcgMotion_Hit04_02": "Data/GCG/Motions/EffectMotions/GcgMotion_Hit04_02",
        "GcgMotion_Hit04_03": "Data/GCG/Motions/EffectMotions/GcgMotion_Hit04_03",
        "GcgMotion_Hit04_04": "Data/GCG/Motions/EffectMotions/GcgMotion_Hit04_04",
        "GcgMotion_Hit04_05": "Data/GCG/Motions/EffectMotions/GcgMotion_Hit04_05",
        "GcgMotion_Skill_A_Test_01": "Data/GCG/Motions/EffectMotions/GcgMotion_Skill_A_Test_01",
        "Gcg_Character_Skill_Q_Test": "Data/GCG/Motions/EffectMotions/Gcg_Character_Skill_Q_Test"
    },
    "EDJLPPILABK": {
        "Common_ShakeScreen_Test_A": "Data/GCG/ShakeScreens/Common_ShakeScreen_Test_A",
        "Common_ShakeScreen_Test_E": "Data/GCG/ShakeScreens/Common_ShakeScreen_Test_E",
        "Common_ShakeScreen_Test_Q": "Data/GCG/ShakeScreens/Common_ShakeScreen_Test_Q",
        "Common_ShakeScreen_Test_Weak": "Data/GCG/ShakeScreens/Common_ShakeScreen_Test_Weak"
    }
}