{
    "luaDataPath": "",
    "entityBan": "",
    "disableNpcLod": true,
    "EKDGNGHMECG": true,
    "GMFELEKFHNC": 5,
    "startFade": {
        "startFadeOutDuration": 0.0
    },
    "endFade": {
        "startFadeOutDuration": 0.0
    },
    "actors": [
        {
            "alias": "Avatar",
            "visible": true,
            "bornPointName": "",
            "relativePosType": "AVATAR_NEW",
            "relativePosNpcAlias": "",
            "bindMovingTargetKey": ""
        },
        {
            "configID": 1054,
            "alias": "1054",
            "visible": true,
            "bornPointName": "",
            "relativePosType": "AVATAR_NEW",
            "relativePosNpcAlias": "",
            "bindMovingTargetKey": ""
        },
        {
            "configID": 1053,
            "alias": "1053",
            "visible": true,
            "bornPointName": "",
            "relativePosType": "AVATAR_NEW",
            "relativePosNpcAlias": "",
            "bindMovingTargetKey": ""
        }
    ],
    "group": [
        [
            {
                "$type": "PBIGHFCHGCA",
                "type": "CAMERA_FOCUS",
                "duration": 0.10000000149011612,
                "actionId": 103,
                "JBODIEHINII": "",
                "EJCHLMIMLBO": "",
                "BIMPIKMCIHB": "",
                "MCAOJPLIJGI": ""
            },
            {
                "$type": "MoleMole.Config.ConfigTimeProtectAction",
                "type": "TIME_PROTECT",
                "duration": 0.10000000149011612,
                "actionId": 104
            },
            {
                "$type": "FNPNDPFBBDD",
                "type": "LOOK_AT",
                "aliasList": [
                    "Avatar"
                ],
                "actionId": 122,
                "NKGFDJDHOBD": true,
                "MNOPLOBEFLB": 0.5,
                "JBODIEHINII": "1054",
                "MDNPCOHCCLM": true,
                "LPCACGGCDLI": "",
                "NNFPFPOJJOJ": ""
            },
            {
                "$type": "FNPNDPFBBDD",
                "type": "LOOK_AT",
                "aliasList": [
                    "1054"
                ],
                "actionId": 116,
                "NKGFDJDHOBD": true,
                "MNOPLOBEFLB": 0.5,
                "JBODIEHINII": "1053",
                "MDNPCOHCCLM": true,
                "LPCACGGCDLI": "",
                "NNFPFPOJJOJ": ""
            },
            {
                "$type": "LNLLGCOBDFC",
                "type": "EMO_SYNC",
                "aliasList": [
                    "1054"
                ],
                "actionId": 130,
                "LKHHGAGNMKM": "",
                "AIMKGPFAAAD": "Cs_Emo_Avatar_Common/Cs_Emo_Avatar_Default01",
                "IPEKOEDCGGF": "Cs_Emo_Avatar_Common/Cs_Emo_Avatar_Default01",
                "EJNFMNJKDAH": "",
                "LOOOCOLIHFA": "",
                "KJDLMAPPPMG": "",
                "IMIEGJDNPNN": [
                    1010565500959774114,
                    17914558573000180712,
                    14498871351621154070,
                    14348654671849899985
                ],
                "KIJHIMADJGM": [
                    17551147554270584215,
                    11567349927864383394,
                    11535483659151300012,
                    3124390413002392171
                ]
            },
            {
                "$type": "FNPNDPFBBDD",
                "type": "LOOK_AT",
                "aliasList": [
                    "1053"
                ],
                "actionId": 115,
                "NKGFDJDHOBD": true,
                "MNOPLOBEFLB": 0.5,
                "JBODIEHINII": "1054",
                "MDNPCOHCCLM": true,
                "LPCACGGCDLI": "",
                "NNFPFPOJJOJ": ""
            },
            {
                "$type": "LNLLGCOBDFC",
                "type": "EMO_SYNC",
                "aliasList": [
                    "1053"
                ],
                "actionId": 133,
                "LKHHGAGNMKM": "",
                "AIMKGPFAAAD": "Cs_Emo_Avatar_Common/Cs_Emo_Avatar_Default01",
                "IPEKOEDCGGF": "Cs_Emo_Avatar_Common/Cs_Emo_Avatar_Default01",
                "EJNFMNJKDAH": "",
                "LOOOCOLIHFA": "",
                "KJDLMAPPPMG": "",
                "IMIEGJDNPNN": [
                    1010565500959774114,
                    17914558573000180712,
                    14498871351621154070,
                    14348654671849899985
                ],
                "KIJHIMADJGM": [
                    17551147554270584215,
                    11567349927864383394,
                    11535483659151300012,
                    3124390413002392171
                ]
            },
            {
                "$type": "NFDDGDIKEAG",
                "type": "STEER_TO",
                "delayTime": 0.30000001192092896,
                "duration": 0.800000011920929,
                "aliasList": [
                    "Avatar"
                ],
                "actionId": 110,
                "GGJHILELIMO": "TO_TARGET_ADVANCED",
                "PKKKHNGDEEE": true,
                "LGDIOPOBMPH": true,
                "NBNJEKMFIDE": true,
                "JBODIEHINII": "1054",
                "OJJKHFPNNKJ": true,
                "NNFPFPOJJOJ": ""
            }
        ],
        [
            {
                "$type": "KAGAFALAIGP",
                "type": "DIALOG",
                "aliasList": [
                    "1054"
                ],
                "actionId": 107,
                "JHEPJOMJJHH": 401015101,
                "OCILKFCPBNC": 1.0
            },
            {
                "$type": "LNLLGCOBDFC",
                "type": "EMO_SYNC",
                "aliasList": [
                    "1054"
                ],
                "actionId": 128,
                "LKHHGAGNMKM": "Cs_Emo_Avatar_Simple_Common_Set/Cs_Emo_Avatar_Talk/Cs_Emo_Avatar_Event/Cs_Emo_AkaFes/Cs_Emo_401015101",
                "AIMKGPFAAAD": "",
                "IPEKOEDCGGF": "",
                "EJNFMNJKDAH": "",
                "LOOOCOLIHFA": "",
                "KJDLMAPPPMG": "",
                "EKJHPKFBONG": [
                    9663342122656453971,
                    901190539496410371,
                    14165947710125968551,
                    16998446060575925709
                ]
            },
            {
                "$type": "CENEPJCONAG",
                "type": "BODY_LANG",
                "aliasList": [
                    "1054"
                ],
                "actionId": 140,
                "OGFPAIKLDGB": 1172,
                "LHIAJOBFNAK": false,
                "GJGPNLJEIFP": true,
                "FOEKGLEJBIJ": ""
            }
        ],
        [
            {
                "$type": "FNPNDPFBBDD",
                "type": "LOOK_AT",
                "aliasList": [
                    "Avatar"
                ],
                "actionId": 123,
                "NKGFDJDHOBD": true,
                "MNOPLOBEFLB": 0.5,
                "JBODIEHINII": "1053",
                "MDNPCOHCCLM": true,
                "LPCACGGCDLI": "",
                "NNFPFPOJJOJ": ""
            },
            {
                "$type": "LNLLGCOBDFC",
                "type": "EMO_SYNC",
                "aliasList": [
                    "1054"
                ],
                "actionId": 134,
                "LKHHGAGNMKM": "",
                "AIMKGPFAAAD": "Cs_Emo_Avatar_Common/Cs_Emo_Avatar_Normal01",
                "IPEKOEDCGGF": "Cs_Emo_Avatar_Common/Cs_Emo_Avatar_Default01",
                "EJNFMNJKDAH": "",
                "LOOOCOLIHFA": "",
                "KJDLMAPPPMG": "",
                "IMIEGJDNPNN": [
                    9445916536337636767,
                    14128686126614747219,
                    10779105391569104182,
                    11659242061757756269
                ],
                "KIJHIMADJGM": [
                    17551147554270584215,
                    11567349927864383394,
                    11535483659151300012,
                    3124390413002392171
                ]
            },
            {
                "$type": "KAGAFALAIGP",
                "type": "DIALOG",
                "aliasList": [
                    "1053"
                ],
                "actionId": 109,
                "JHEPJOMJJHH": 401015102,
                "OCILKFCPBNC": 1.0
            },
            {
                "$type": "LNLLGCOBDFC",
                "type": "EMO_SYNC",
                "aliasList": [
                    "1053"
                ],
                "actionId": 129,
                "LKHHGAGNMKM": "Cs_Emo_Avatar_Simple_Common_Set/Cs_Emo_Avatar_Talk/Cs_Emo_Avatar_Event/Cs_Emo_AkaFes/Cs_Emo_401015102",
                "AIMKGPFAAAD": "",
                "IPEKOEDCGGF": "",
                "EJNFMNJKDAH": "",
                "LOOOCOLIHFA": "",
                "KJDLMAPPPMG": "",
                "EKJHPKFBONG": [
                    3734976933355104968,
                    9883268396335964021,
                    9551463096383739284,
                    9557038524462561390
                ]
            }
        ],
        [
            {
                "$type": "MoleMole.Config.ConfigTimeProtectAction",
                "type": "TIME_PROTECT",
                "duration": 0.10000000149011612,
                "actionId": 105
            },
            {
                "$type": "FNPNDPFBBDD",
                "type": "LOOK_AT",
                "aliasList": [
                    "1054"
                ],
                "actionId": 120,
                "MNOPLOBEFLB": 0.5,
                "JBODIEHINII": "",
                "MDNPCOHCCLM": true,
                "LPCACGGCDLI": "",
                "NNFPFPOJJOJ": ""
            },
            {
                "$type": "LNLLGCOBDFC",
                "type": "EMO_SYNC",
                "aliasList": [
                    "1054"
                ],
                "actionId": 131,
                "LKHHGAGNMKM": "",
                "AIMKGPFAAAD": "Cs_Emo_Avatar_Common/Cs_Emo_Avatar_Default01",
                "IPEKOEDCGGF": "Cs_Emo_Avatar_Common/Cs_Emo_Avatar_Default01",
                "EJNFMNJKDAH": "",
                "LOOOCOLIHFA": "",
                "KJDLMAPPPMG": "",
                "IMIEGJDNPNN": [
                    1010565500959774114,
                    17914558573000180712,
                    14498871351621154070,
                    14348654671849899985
                ],
                "KIJHIMADJGM": [
                    17551147554270584215,
                    11567349927864383394,
                    11535483659151300012,
                    3124390413002392171
                ]
            },
            {
                "$type": "CENEPJCONAG",
                "type": "BODY_LANG",
                "aliasList": [
                    "1054"
                ],
                "actionId": 141,
                "NNKEOHJCPOF": true,
                "LHIAJOBFNAK": false,
                "GJGPNLJEIFP": true,
                "FOEKGLEJBIJ": ""
            },
            {
                "$type": "FNPNDPFBBDD",
                "type": "LOOK_AT",
                "aliasList": [
                    "1053"
                ],
                "actionId": 121,
                "MNOPLOBEFLB": 0.5,
                "JBODIEHINII": "",
                "MDNPCOHCCLM": true,
                "LPCACGGCDLI": "",
                "NNFPFPOJJOJ": ""
            },
            {
                "$type": "LNLLGCOBDFC",
                "type": "EMO_SYNC",
                "aliasList": [
                    "1053"
                ],
                "actionId": 132,
                "LKHHGAGNMKM": "",
                "AIMKGPFAAAD": "Cs_Emo_Avatar_Common/Cs_Emo_Avatar_Default01",
                "IPEKOEDCGGF": "Cs_Emo_Avatar_Common/Cs_Emo_Avatar_Default01",
                "EJNFMNJKDAH": "",
                "LOOOCOLIHFA": "",
                "KJDLMAPPPMG": "",
                "IMIEGJDNPNN": [
                    1010565500959774114,
                    17914558573000180712,
                    14498871351621154070,
                    14348654671849899985
                ],
                "KIJHIMADJGM": [
                    17551147554270584215,
                    11567349927864383394,
                    11535483659151300012,
                    3124390413002392171
                ]
            },
            {
                "$type": "CENEPJCONAG",
                "type": "BODY_LANG",
                "aliasList": [
                    "1053"
                ],
                "actionId": 142,
                "NNKEOHJCPOF": true,
                "LHIAJOBFNAK": false,
                "GJGPNLJEIFP": true,
                "FOEKGLEJBIJ": ""
            }
        ]
    ],
    "groupId": [
        {
            "grpId": 3833328243,
            "nextGrpId": 3833328244
        },
        {
            "index": 1,
            "grpId": 3833328244,
            "nextGrpId": 3833328245
        },
        {
            "index": 2,
            "grpId": 3833328245,
            "nextGrpId": 3833328246
        },
        {
            "index": 3,
            "grpId": 3833328246,
            "nextGrpId": 3833328247
        }
    ],
    "freeStyleDic": {
        "1054": [
            1172
        ],
        "1053": []
    }
}