{
    "luaDataPath": "",
    "dontUseDefaultFinish": true,
    "entityBan": "",
    "disableNpcLod": true,
    "BHNKJKDADLC": true,
    "JJFIGGKCCCF": true,
    "EKDGNGHMECG": true,
    "GMFELEKFHNC": 7,
    "startFade": {
        "startFadeOutDuration": 0.0
    },
    "endFade": {
        "startFadeOutDuration": 0.0
    },
    "actors": [
        {
            "alias": "Avatar",
            "visible": true,
            "bornPointName": "",
            "relativePosType": "AVATAR_NEW",
            "relativePosNpcAlias": "",
            "bindMovingTargetKey": ""
        },
        {
            "alias": "AvatarNpc",
            "visible": true,
            "bornPointName": "",
            "removeActorType": "NEW_REMOVE",
            "relativePosType": "AVATAR_NEW",
            "relativePosNpcAlias": "",
            "bindMovingTargetKey": ""
        },
        {
            "configID": 21026,
            "alias": "21026",
            "visible": true,
            "bornPointName": "",
            "relativePosType": "AVATAR_NEW",
            "relativePosNpcAlias": "",
            "bindMovingTargetKey": ""
        },
        {
            "configID": 21025,
            "alias": "21025",
            "visible": true,
            "bornPointName": "",
            "relativePosType": "AVATAR_NEW",
            "relativePosNpcAlias": "",
            "bindMovingTargetKey": ""
        }
    ],
    "group": [
        [
            {
                "$type": "MoleMole.Config.ConfigTimeProtectAction",
                "type": "TIME_PROTECT",
                "duration": 0.10000000149011612,
                "actionId": 104
            },
            {
                "$type": "MoleMole.Config.ConfigSitOrStandAction",
                "type": "SIT_OR_STAND",
                "aliasList": [
                    "Avatar"
                ],
                "actionId": 119,
                "banResetFreestyle": true
            },
            {
                "$type": "MoleMole.Config.ConfigPlayerNPCEnergyTypeAction",
                "type": "SET_PLAYER_NPC_ENERGY_TYPE",
                "aliasList": [
                    "AvatarNpc"
                ],
                "actionId": 120,
                "setHeroEngergyType": true
            },
            {
                "$type": "CENEPJCONAG",
                "type": "BODY_LANG",
                "aliasList": [
                    "AvatarNpc"
                ],
                "actionId": 121,
                "NNKEOHJCPOF": true,
                "MHDCNDAINCK": true,
                "LHIAJOBFNAK": false,
                "FOEKGLEJBIJ": ""
            },
            {
                "$type": "CENEPJCONAG",
                "type": "BODY_LANG",
                "aliasList": [
                    "21026"
                ],
                "actionId": 114,
                "NNKEOHJCPOF": true,
                "MHDCNDAINCK": true,
                "LHIAJOBFNAK": false,
                "FOEKGLEJBIJ": ""
            },
            {
                "$type": "CENEPJCONAG",
                "type": "BODY_LANG",
                "aliasList": [
                    "21025"
                ],
                "actionId": 116,
                "NNKEOHJCPOF": true,
                "MHDCNDAINCK": true,
                "LHIAJOBFNAK": false,
                "FOEKGLEJBIJ": ""
            }
        ],
        [
            {
                "$type": "PBIGHFCHGCA",
                "type": "CAMERA_MOVE",
                "duration": 1.0,
                "actionId": 130,
                "KCFKJMMEECM": {
                    "x": 2674.889892578125,
                    "y": 444.3599853515625,
                    "z": 4772.673828125
                },
                "DLGJEHNPMFN": {
                    "x": 2675.68505859375,
                    "y": 444.3599853515625,
                    "z": 4772.06787109375
                },
                "NJCBGNHGINI": 20.371000289916992,
                "FNMFGIOLKBE": 6,
                "NECGMADJICG": "EaseInOutCubic",
                "BMHIHPIKAHM": {},
                "HGGPLEMCNNG": false,
                "JBODIEHINII": "",
                "PHDIKPKLFIA": true,
                "EJCHLMIMLBO": "",
                "BIMPIKMCIHB": "",
                "MCAOJPLIJGI": ""
            },
            {
                "$type": "FNPNDPFBBDD",
                "type": "LOOK_AT",
                "aliasList": [
                    "Avatar"
                ],
                "actionId": 124,
                "flag": 64,
                "NKGFDJDHOBD": true,
                "MNOPLOBEFLB": 0.5,
                "JBODIEHINII": "21026",
                "MDNPCOHCCLM": true,
                "CAJDMFBMGNG": 10.0,
                "LPCACGGCDLI": "",
                "NNFPFPOJJOJ": ""
            },
            {
                "$type": "FNPNDPFBBDD",
                "type": "LOOK_AT",
                "aliasList": [
                    "AvatarNpc"
                ],
                "actionId": 125,
                "flag": 64,
                "NKGFDJDHOBD": true,
                "MNOPLOBEFLB": 0.5,
                "JBODIEHINII": "21026",
                "MDNPCOHCCLM": true,
                "CAJDMFBMGNG": 10.0,
                "LPCACGGCDLI": "",
                "NNFPFPOJJOJ": ""
            },
            {
                "$type": "KAGAFALAIGP",
                "type": "DIALOG",
                "aliasList": [
                    "21026"
                ],
                "actionId": 107,
                "JHEPJOMJJHH": 740050802,
                "OCILKFCPBNC": 2.0
            },
            {
                "$type": "CENEPJCONAG",
                "type": "BODY_LANG",
                "aliasList": [
                    "21026"
                ],
                "actionId": 136,
                "OGFPAIKLDGB": 1230,
                "MHDCNDAINCK": true,
                "LHIAJOBFNAK": false,
                "GJGPNLJEIFP": true,
                "FOEKGLEJBIJ": ""
            },
            {
                "$type": "FNPNDPFBBDD",
                "type": "LOOK_AT",
                "aliasList": [
                    "21025"
                ],
                "actionId": 126,
                "flag": 64,
                "NKGFDJDHOBD": true,
                "MNOPLOBEFLB": 0.5,
                "JBODIEHINII": "21026",
                "MDNPCOHCCLM": true,
                "CAJDMFBMGNG": 10.0,
                "LPCACGGCDLI": "",
                "NNFPFPOJJOJ": ""
            },
            {
                "$type": "PBIGHFCHGCA",
                "type": "CAMERA_MOVE",
                "delayTime": 0.10000000149011612,
                "duration": 6.650000095367432,
                "actionId": 133,
                "KCFKJMMEECM": {
                    "x": 2674.93994140625,
                    "y": 444.36199951171875,
                    "z": 4772.634765625
                },
                "DLGJEHNPMFN": {
                    "x": 2675.735107421875,
                    "y": 444.36199951171875,
                    "z": 4772.02880859375
                },
                "NJCBGNHGINI": 20.371000289916992,
                "BMHIHPIKAHM": {},
                "HGGPLEMCNNG": false,
                "JBODIEHINII": "",
                "PHDIKPKLFIA": true,
                "EJCHLMIMLBO": "",
                "BIMPIKMCIHB": "",
                "MCAOJPLIJGI": ""
            }
        ],
        [
            {
                "$type": "PBIGHFCHGCA",
                "type": "CAMERA_MOVE",
                "duration": 1.0,
                "actionId": 131,
                "KCFKJMMEECM": {
                    "x": 2674.10888671875,
                    "y": 444.7149963378906,
                    "z": 4772.47412109375
                },
                "DLGJEHNPMFN": {
                    "x": 2674.876953125,
                    "y": 444.48699951171875,
                    "z": 4771.8759765625
                },
                "NJCBGNHGINI": 30.607999801635742,
                "FNMFGIOLKBE": 6,
                "NECGMADJICG": "EaseInOutCubic",
                "BMHIHPIKAHM": {},
                "MMJMMAEAJOA": true,
                "HGGPLEMCNNG": false,
                "JBODIEHINII": "",
                "PHDIKPKLFIA": true,
                "EJCHLMIMLBO": "",
                "BIMPIKMCIHB": "",
                "MCAOJPLIJGI": ""
            },
            {
                "$type": "KAGAFALAIGP",
                "type": "DIALOG",
                "aliasList": [
                    "21026"
                ],
                "actionId": 109,
                "JHEPJOMJJHH": 740050803,
                "OCILKFCPBNC": 2.0
            },
            {
                "$type": "CENEPJCONAG",
                "type": "BODY_LANG",
                "aliasList": [
                    "21026"
                ],
                "actionId": 137,
                "OGFPAIKLDGB": 1173,
                "MHDCNDAINCK": true,
                "LHIAJOBFNAK": false,
                "GJGPNLJEIFP": true,
                "FOEKGLEJBIJ": ""
            },
            {
                "$type": "PBIGHFCHGCA",
                "type": "CAMERA_MOVE",
                "delayTime": 0.10000000149011612,
                "duration": 6.650000095367432,
                "actionId": 134,
                "KCFKJMMEECM": {
                    "x": 2674.18994140625,
                    "y": 444.7149963378906,
                    "z": 4772.578125
                },
                "DLGJEHNPMFN": {
                    "x": 2674.9580078125,
                    "y": 444.48699951171875,
                    "z": 4771.97998046875
                },
                "NJCBGNHGINI": 30.607999801635742,
                "BMHIHPIKAHM": {},
                "MMJMMAEAJOA": true,
                "HGGPLEMCNNG": false,
                "JBODIEHINII": "",
                "PHDIKPKLFIA": true,
                "EJCHLMIMLBO": "",
                "BIMPIKMCIHB": "",
                "MCAOJPLIJGI": ""
            },
            {
                "$type": "FNPNDPFBBDD",
                "type": "LOOK_AT",
                "delayTime": 1.75,
                "aliasList": [
                    "21026"
                ],
                "actionId": 139,
                "flag": 64,
                "NKGFDJDHOBD": true,
                "MNOPLOBEFLB": 0.5,
                "JBODIEHINII": "21025",
                "MDNPCOHCCLM": true,
                "CAJDMFBMGNG": 10.0,
                "LPCACGGCDLI": "",
                "NNFPFPOJJOJ": ""
            }
        ],
        [
            {
                "$type": "PBIGHFCHGCA",
                "type": "CAMERA_MOVE",
                "duration": 1.0,
                "actionId": 132,
                "KCFKJMMEECM": {
                    "x": 2676.677978515625,
                    "y": 444.3330078125,
                    "z": 4772.56689453125
                },
                "DLGJEHNPMFN": {
                    "x": 2675.89599609375,
                    "y": 444.3580017089844,
                    "z": 4771.94384765625
                },
                "NJCBGNHGINI": 30.607999801635742,
                "FNMFGIOLKBE": 6,
                "NECGMADJICG": "EaseInOutCubic",
                "BMHIHPIKAHM": {},
                "HGGPLEMCNNG": false,
                "JBODIEHINII": "",
                "PHDIKPKLFIA": true,
                "EJCHLMIMLBO": "",
                "BIMPIKMCIHB": "",
                "MCAOJPLIJGI": ""
            },
            {
                "$type": "FNPNDPFBBDD",
                "type": "LOOK_AT",
                "aliasList": [
                    "Avatar"
                ],
                "actionId": 127,
                "flag": 64,
                "NKGFDJDHOBD": true,
                "MNOPLOBEFLB": 0.5,
                "JBODIEHINII": "21025",
                "MDNPCOHCCLM": true,
                "CAJDMFBMGNG": 10.0,
                "LPCACGGCDLI": "",
                "NNFPFPOJJOJ": ""
            },
            {
                "$type": "FNPNDPFBBDD",
                "type": "LOOK_AT",
                "aliasList": [
                    "AvatarNpc"
                ],
                "actionId": 128,
                "flag": 64,
                "NKGFDJDHOBD": true,
                "MNOPLOBEFLB": 0.5,
                "JBODIEHINII": "21025",
                "MDNPCOHCCLM": true,
                "CAJDMFBMGNG": 10.0,
                "LPCACGGCDLI": "",
                "NNFPFPOJJOJ": ""
            },
            {
                "$type": "FNPNDPFBBDD",
                "type": "LOOK_AT",
                "aliasList": [
                    "21026"
                ],
                "actionId": 129,
                "flag": 64,
                "NKGFDJDHOBD": true,
                "MNOPLOBEFLB": 0.5,
                "JBODIEHINII": "21025",
                "MDNPCOHCCLM": true,
                "CAJDMFBMGNG": 10.0,
                "LPCACGGCDLI": "",
                "NNFPFPOJJOJ": ""
            },
            {
                "$type": "KAGAFALAIGP",
                "type": "DIALOG",
                "aliasList": [
                    "21025"
                ],
                "actionId": 111,
                "JHEPJOMJJHH": 740050804,
                "OCILKFCPBNC": 2.0
            },
            {
                "$type": "CENEPJCONAG",
                "type": "BODY_LANG",
                "aliasList": [
                    "21025"
                ],
                "actionId": 140,
                "OGFPAIKLDGB": 1170,
                "MHDCNDAINCK": true,
                "LHIAJOBFNAK": false,
                "GJGPNLJEIFP": true,
                "FOEKGLEJBIJ": ""
            },
            {
                "$type": "PBIGHFCHGCA",
                "type": "CAMERA_MOVE",
                "delayTime": 0.10000000149011612,
                "duration": 5.900000095367432,
                "actionId": 135,
                "KCFKJMMEECM": {
                    "x": 2676.596923828125,
                    "y": 444.3330078125,
                    "z": 4772.66796875
                },
                "DLGJEHNPMFN": {
                    "x": 2675.81494140625,
                    "y": 444.3580017089844,
                    "z": 4772.044921875
                },
                "NJCBGNHGINI": 30.607999801635742,
                "BMHIHPIKAHM": {},
                "MMJMMAEAJOA": true,
                "HGGPLEMCNNG": false,
                "JBODIEHINII": "",
                "PHDIKPKLFIA": true,
                "EJCHLMIMLBO": "",
                "BIMPIKMCIHB": "",
                "MCAOJPLIJGI": ""
            }
        ],
        [
            {
                "$type": "MoleMole.Config.ConfigTimeProtectAction",
                "type": "TIME_PROTECT",
                "duration": 0.10000000149011612,
                "actionId": 105
            },
            {
                "$type": "MoleMole.Config.ConfigSimpleBlackScreenAction",
                "type": "SIMPLE_BLACK_SCREEN",
                "actionId": 112,
                "durationToBlack": 0.5,
                "durationKeepBlack": 1.5,
                "durationFromBlack": 0.5,
                "textMapID": ""
            },
            {
                "$type": "MoleMole.Config.ConfigTimeProtectAction",
                "type": "TIME_PROTECT",
                "duration": 0.699999988079071,
                "actionId": 113
            },
            {
                "$type": "PBIGHFCHGCA",
                "type": "CAMERA_MOVE",
                "delayTime": 0.5,
                "duration": 0.10000000149011612,
                "actionId": 118,
                "CGCNCKNJOFB": "EXIT",
                "DLGJEHNPMFN": {
                    "z": 1.0
                },
                "NJCBGNHGINI": 30.0,
                "FNMFGIOLKBE": 5,
                "NECGMADJICG": "EaseInOutCubic",
                "BMHIHPIKAHM": {},
                "HGGPLEMCNNG": false,
                "JBODIEHINII": "",
                "PHDIKPKLFIA": true,
                "EJCHLMIMLBO": "",
                "BIMPIKMCIHB": "",
                "MCAOJPLIJGI": ""
            },
            {
                "$type": "MoleMole.Config.ConfigVisibleInterAction",
                "type": "VISIBLE",
                "delayTime": 0.6000000238418579,
                "aliasList": [
                    "Avatar"
                ],
                "actionId": 123,
                "isVisible": true,
                "extraParam": ""
            },
            {
                "$type": "CENEPJCONAG",
                "type": "BODY_LANG",
                "delayTime": 0.6000000238418579,
                "aliasList": [
                    "AvatarNpc"
                ],
                "actionId": 122,
                "NNKEOHJCPOF": true,
                "MHDCNDAINCK": true,
                "LHIAJOBFNAK": false,
                "FOEKGLEJBIJ": ""
            },
            {
                "$type": "CENEPJCONAG",
                "type": "BODY_LANG",
                "delayTime": 0.6000000238418579,
                "aliasList": [
                    "21026"
                ],
                "actionId": 115,
                "NNKEOHJCPOF": true,
                "MHDCNDAINCK": true,
                "LHIAJOBFNAK": false,
                "FOEKGLEJBIJ": ""
            },
            {
                "$type": "CENEPJCONAG",
                "type": "BODY_LANG",
                "delayTime": 0.6000000238418579,
                "aliasList": [
                    "21025"
                ],
                "actionId": 117,
                "NNKEOHJCPOF": true,
                "MHDCNDAINCK": true,
                "LHIAJOBFNAK": false,
                "FOEKGLEJBIJ": ""
            }
        ]
    ],
    "groupId": [
        {
            "grpId": 2915392028,
            "nextGrpId": 2915392029
        },
        {
            "index": 1,
            "grpId": 2915392029,
            "nextGrpId": 2915392030
        },
        {
            "index": 2,
            "grpId": 2915392030,
            "nextGrpId": 2915392031
        },
        {
            "index": 3,
            "grpId": 2915392031,
            "nextGrpId": 2915392032
        },
        {
            "index": 4,
            "grpId": 2915392032,
            "nextGrpId": 2915392033
        }
    ],
    "freeStyleDic": {
        "1025": [],
        "1026": [],
        "21026": [
            1230,
            1173
        ],
        "21025": [
            1170
        ]
    },
    "EGOADMBCKDB": {
        "21026": [
            "SitHoldArm01AS",
            "SitPutArm01AS",
            "SitRaiseHand01AS"
        ],
        "21025": [
            "SitChat01AS",
            "SitHoldArm01AS",
            "SitPutArm01AS",
            "SitRaiseHand01AS",
            "SitRead01AS"
        ]
    }
}