{
    "luaDataPath": "",
    "dontUseDefaultFinish": true,
    "startBlackKeepTime": 0.5,
    "entityBan": "",
    "disableNpcLod": true,
    "BHNKJKDADLC": true,
    "JJFIGGKCCCF": true,
    "EKDGNGHMECG": true,
    "GMFELEKFHNC": 7,
    "startFade": {
        "startFadeInDuration": 0.5,
        "startFadeOutDuration": 0.5
    },
    "endFade": {
        "startFadeOutDuration": 0.0
    },
    "actors": [
        {
            "alias": "Avatar",
            "visible": true,
            "bornPointName": "[3_5275:2697.550,221.465,4987.817,0.000,99.020,0.000]",
            "relativePosType": "AVATAR_NEW",
            "relativePosNpcAlias": "",
            "bindMovingTargetKey": ""
        },
        {
            "alias": "AvatarNpc",
            "visible": true,
            "bornPointName": "[3_5275:2697.550,221.465,4987.817,0.000,99.020,0.000]",
            "removeActorType": "NEW_REMOVE",
            "relativePosType": "AVATAR_NEW",
            "relativePosNpcAlias": "",
            "bindMovingTargetKey": ""
        },
        {
            "configID": 1005,
            "alias": "1005",
            "visible": true,
            "bornPointName": "",
            "useRelativePos": true,
            "relativePos": {
                "x": -0.5,
                "z": 0.5
            },
            "removeActorType": "NEW_REMOVE_WITH_DISAPPEAR",
            "relativePosType": "AVATAR_NEW",
            "relativePosNpcAlias": "",
            "bindMovingTargetKey": ""
        },
        {
            "configID": 5301,
            "alias": "5301",
            "visible": true,
            "bornPointName": "[3_5276:2700.264,222.019,4987.380,0.000,275.555,0.000]",
            "relativePosType": "AVATAR_NEW",
            "relativePosNpcAlias": "",
            "bindMovingTargetKey": ""
        }
    ],
    "group": [
        [
            {
                "$type": "MoleMole.Config.ConfigTimeProtectAction",
                "type": "TIME_PROTECT",
                "duration": 1.0,
                "actionId": 104
            },
            {
                "$type": "MoleMole.Config.ConfigBlackScreenAction",
                "type": "BLACK_SCREEN",
                "duration": 1.0,
                "actionId": 169,
                "blackScreenType": "KEEP_BLACK",
                "durationToBlack": 0.5,
                "durationKeepBlack": 1.0,
                "durationFromBlack": 0.5,
                "inteePos": "",
                "textMapID": "",
                "useTextFade": true
            },
            {
                "$type": "MoleMole.Config.ConfigSitOrStandAction",
                "type": "SIT_OR_STAND",
                "aliasList": [
                    "Avatar"
                ],
                "actionId": 173,
                "banResetFreestyle": true
            },
            {
                "$type": "MoleMole.Config.ConfigVisibleInterAction",
                "type": "VISIBLE",
                "aliasList": [
                    "Avatar"
                ],
                "actionId": 178,
                "extraParam": ""
            },
            {
                "$type": "MoleMole.Config.ConfigTeleportToAction",
                "type": "TELEPORT_TO",
                "aliasList": [
                    "Avatar"
                ],
                "actionId": 217,
                "position": {
                    "x": 2697.550048828125,
                    "y": 221.46499633789062,
                    "z": 4987.81689453125
                },
                "forward": {
                    "x": 0.9879999756813049,
                    "z": -0.15700000524520874
                },
                "openLongDisTeleport": true,
                "syncForward": true,
                "posBindMovingTargetKey": "",
                "forwardBindMovingTargetKey": ""
            },
            {
                "$type": "MoleMole.Config.ConfigPlayerNPCEnergyTypeAction",
                "type": "SET_PLAYER_NPC_ENERGY_TYPE",
                "aliasList": [
                    "AvatarNpc"
                ],
                "actionId": 174,
                "setHeroEngergyType": true
            },
            {
                "$type": "CENEPJCONAG",
                "type": "BODY_LANG",
                "aliasList": [
                    "AvatarNpc"
                ],
                "actionId": 175,
                "NNKEOHJCPOF": true,
                "MHDCNDAINCK": true,
                "LHIAJOBFNAK": false,
                "FOEKGLEJBIJ": ""
            },
            {
                "$type": "MoleMole.Config.ConfigTeleportToAction",
                "type": "TELEPORT_TO",
                "aliasList": [
                    "AvatarNpc"
                ],
                "actionId": 181,
                "position": {
                    "x": 2697.550048828125,
                    "y": 221.46499633789062,
                    "z": 4987.81689453125
                },
                "forward": {
                    "x": 0.9879999756813049,
                    "z": -0.15700000524520874
                },
                "openLongDisTeleport": true,
                "syncForward": true,
                "posBindMovingTargetKey": "",
                "forwardBindMovingTargetKey": ""
            },
            {
                "$type": "FNPNDPFBBDD",
                "type": "LOOK_AT",
                "aliasList": [
                    "AvatarNpc"
                ],
                "actionId": 188,
                "flag": 64,
                "NKGFDJDHOBD": true,
                "useTargetPos": true,
                "LBJHJADMNBD": true,
                "EKIONHAEIBG": {
                    "x": 2700.19091796875,
                    "y": 222.95799255371094,
                    "z": 4987.4111328125
                },
                "MNOPLOBEFLB": 0.5,
                "JBODIEHINII": "",
                "CFPBIOLLOCO": "NONE",
                "MDNPCOHCCLM": true,
                "CAJDMFBMGNG": 10.0,
                "LPCACGGCDLI": "",
                "NNFPFPOJJOJ": ""
            },
            {
                "$type": "CENEPJCONAG",
                "type": "BODY_LANG",
                "aliasList": [
                    "1005"
                ],
                "actionId": 165,
                "NNKEOHJCPOF": true,
                "MHDCNDAINCK": true,
                "LHIAJOBFNAK": false,
                "FOEKGLEJBIJ": ""
            },
            {
                "$type": "MoleMole.Config.ConfigTeleportToAction",
                "type": "TELEPORT_TO",
                "aliasList": [
                    "1005"
                ],
                "actionId": 180,
                "position": {
                    "x": 2698.18896484375,
                    "y": 221.43499755859375,
                    "z": 4988.30712890625
                },
                "forward": {
                    "x": 0.9739999771118164,
                    "z": -0.5320000052452087
                },
                "openLongDisTeleport": true,
                "syncForward": true,
                "posBindMovingTargetKey": "",
                "forwardBindMovingTargetKey": ""
            },
            {
                "$type": "FNPNDPFBBDD",
                "type": "LOOK_AT",
                "aliasList": [
                    "1005"
                ],
                "actionId": 187,
                "flag": 64,
                "NKGFDJDHOBD": true,
                "useTargetPos": true,
                "LBJHJADMNBD": true,
                "EKIONHAEIBG": {
                    "x": 2700.19091796875,
                    "y": 222.95799255371094,
                    "z": 4987.4111328125
                },
                "MNOPLOBEFLB": 0.5,
                "JBODIEHINII": "",
                "CFPBIOLLOCO": "NONE",
                "MDNPCOHCCLM": true,
                "CAJDMFBMGNG": 10.0,
                "LPCACGGCDLI": "",
                "NNFPFPOJJOJ": ""
            },
            {
                "$type": "CENEPJCONAG",
                "type": "BODY_LANG",
                "aliasList": [
                    "5301"
                ],
                "actionId": 167,
                "NNKEOHJCPOF": true,
                "MHDCNDAINCK": true,
                "LHIAJOBFNAK": false,
                "FOEKGLEJBIJ": ""
            },
            {
                "$type": "MoleMole.Config.ConfigTeleportToAction",
                "type": "TELEPORT_TO",
                "aliasList": [
                    "5301"
                ],
                "actionId": 182,
                "position": {
                    "x": 2700.263916015625,
                    "y": 222.0189971923828,
                    "z": 4987.3798828125
                },
                "forward": {
                    "x": -0.9879999756813049,
                    "z": 0.22300000488758087
                },
                "openLongDisTeleport": true,
                "syncForward": true,
                "posBindMovingTargetKey": "",
                "forwardBindMovingTargetKey": ""
            },
            {
                "$type": "FNPNDPFBBDD",
                "type": "LOOK_AT",
                "aliasList": [
                    "5301"
                ],
                "actionId": 186,
                "flag": 64,
                "NKGFDJDHOBD": true,
                "useTargetPos": true,
                "LBJHJADMNBD": true,
                "EKIONHAEIBG": {
                    "x": 2698.2451171875,
                    "y": 222.57699584960938,
                    "z": 4988.31298828125
                },
                "MNOPLOBEFLB": 0.5,
                "JBODIEHINII": "",
                "CFPBIOLLOCO": "NONE",
                "MDNPCOHCCLM": true,
                "CAJDMFBMGNG": 10.0,
                "LPCACGGCDLI": "",
                "NNFPFPOJJOJ": ""
            }
        ],
        [
            {
                "$type": "MoleMole.Config.ConfigBlackScreenAction",
                "type": "BLACK_SCREEN",
                "duration": 0.5,
                "actionId": 170,
                "blackScreenType": "FROM_BLACK",
                "durationToBlack": 0.5,
                "durationKeepBlack": 0.5,
                "durationFromBlack": 0.5,
                "inteePos": "",
                "textMapID": "",
                "useTextFade": true
            },
            {
                "$type": "PBIGHFCHGCA",
                "type": "CAMERA_MOVE",
                "duration": 0.5,
                "actionId": 179,
                "KCFKJMMEECM": {
                    "x": 2701.76904296875,
                    "y": 223.16400146484375,
                    "z": 4987.8349609375
                },
                "DLGJEHNPMFN": {
                    "x": 2700.785888671875,
                    "y": 222.97999572753906,
                    "z": 4987.8017578125
                },
                "NJCBGNHGINI": 25.0,
                "FNMFGIOLKBE": 6,
                "NECGMADJICG": "EaseInOutCubic",
                "BMHIHPIKAHM": {},
                "MMJMMAEAJOA": true,
                "DNFHBDHNHKE": 359.7690124511719,
                "HGGPLEMCNNG": false,
                "JBODIEHINII": "",
                "PHDIKPKLFIA": true,
                "EJCHLMIMLBO": "",
                "BIMPIKMCIHB": "",
                "MCAOJPLIJGI": ""
            },
            {
                "$type": "KAGAFALAIGP",
                "type": "DIALOG",
                "aliasList": [
                    "1005"
                ],
                "actionId": 107,
                "JHEPJOMJJHH": 740051201,
                "OCILKFCPBNC": 0.5
            },
            {
                "$type": "CENEPJCONAG",
                "type": "BODY_LANG",
                "aliasList": [
                    "1005"
                ],
                "actionId": 183,
                "OGFPAIKLDGB": 1300,
                "MHDCNDAINCK": true,
                "LHIAJOBFNAK": false,
                "GJGPNLJEIFP": true,
                "FOEKGLEJBIJ": ""
            }
        ],
        [
            {
                "$type": "PBIGHFCHGCA",
                "type": "CAMERA_MOVE",
                "duration": 0.5,
                "actionId": 185,
                "KCFKJMMEECM": {
                    "x": 2695.02392578125,
                    "y": 221.34800720214844,
                    "z": 4993.93115234375
                },
                "DLGJEHNPMFN": {
                    "x": 2695.575927734375,
                    "y": 221.48699951171875,
                    "z": 4993.10791015625
                },
                "NJCBGNHGINI": 25.0,
                "FNMFGIOLKBE": 6,
                "NECGMADJICG": "EaseInOutCubic",
                "BMHIHPIKAHM": {},
                "MMJMMAEAJOA": true,
                "DNFHBDHNHKE": 359.7699890136719,
                "HGGPLEMCNNG": false,
                "JBODIEHINII": "",
                "PHDIKPKLFIA": true,
                "EJCHLMIMLBO": "",
                "BIMPIKMCIHB": "",
                "MCAOJPLIJGI": ""
            },
            {
                "$type": "KAGAFALAIGP",
                "type": "DIALOG",
                "aliasList": [
                    "5301"
                ],
                "actionId": 109,
                "JHEPJOMJJHH": 740051202,
                "OCILKFCPBNC": 0.5
            },
            {
                "$type": "CENEPJCONAG",
                "type": "BODY_LANG",
                "aliasList": [
                    "5301"
                ],
                "actionId": 189,
                "OGFPAIKLDGB": 1171,
                "MHDCNDAINCK": true,
                "LHIAJOBFNAK": false,
                "GJGPNLJEIFP": true,
                "FOEKGLEJBIJ": ""
            },
            {
                "$type": "PBIGHFCHGCA",
                "type": "CAMERA_MOVE",
                "delayTime": 0.10000000149011612,
                "duration": 10.506999969482422,
                "actionId": 193,
                "KCFKJMMEECM": {
                    "x": 2694.6650390625,
                    "y": 221.3560028076172,
                    "z": 4993.69091796875
                },
                "DLGJEHNPMFN": {
                    "x": 2695.217041015625,
                    "y": 221.4949951171875,
                    "z": 4992.869140625
                },
                "NJCBGNHGINI": 25.0,
                "NECGMADJICG": "EaseOutQuad",
                "BMHIHPIKAHM": {},
                "MMJMMAEAJOA": true,
                "DNFHBDHNHKE": 359.7699890136719,
                "HGGPLEMCNNG": false,
                "JBODIEHINII": "",
                "PHDIKPKLFIA": true,
                "EJCHLMIMLBO": "",
                "BIMPIKMCIHB": "",
                "MCAOJPLIJGI": ""
            },
            {
                "$type": "FNPNDPFBBDD",
                "type": "LOOK_AT",
                "delayTime": 2.7799999713897705,
                "aliasList": [
                    "5301"
                ],
                "actionId": 190,
                "flag": 64,
                "NKGFDJDHOBD": true,
                "useTargetPos": true,
                "LBJHJADMNBD": true,
                "EKIONHAEIBG": {
                    "x": 2697.555908203125,
                    "y": 222.89199829101562,
                    "z": 4987.78515625
                },
                "MNOPLOBEFLB": 0.5,
                "JBODIEHINII": "",
                "CFPBIOLLOCO": "NONE",
                "MDNPCOHCCLM": true,
                "CAJDMFBMGNG": 10.0,
                "LPCACGGCDLI": "",
                "NNFPFPOJJOJ": ""
            },
            {
                "$type": "FNPNDPFBBDD",
                "type": "LOOK_AT",
                "delayTime": 4.415999889373779,
                "aliasList": [
                    "5301"
                ],
                "actionId": 191,
                "flag": 64,
                "NKGFDJDHOBD": true,
                "useTargetPos": true,
                "LBJHJADMNBD": true,
                "EKIONHAEIBG": {
                    "x": 2698.1708984375,
                    "y": 222.74000549316406,
                    "z": 4988.22802734375
                },
                "MNOPLOBEFLB": 0.5,
                "JBODIEHINII": "",
                "CFPBIOLLOCO": "NONE",
                "MDNPCOHCCLM": true,
                "CAJDMFBMGNG": 10.0,
                "LPCACGGCDLI": "",
                "NNFPFPOJJOJ": ""
            }
        ],
        [
            {
                "$type": "PBIGHFCHGCA",
                "type": "CAMERA_MOVE",
                "duration": 0.5,
                "actionId": 194,
                "KCFKJMMEECM": {
                    "x": 2699.887939453125,
                    "y": 222.67300415039062,
                    "z": 4988.14892578125
                },
                "DLGJEHNPMFN": {
                    "x": 2698.89111328125,
                    "y": 222.6649932861328,
                    "z": 4988.06884765625
                },
                "NJCBGNHGINI": 25.0,
                "FNMFGIOLKBE": 6,
                "NECGMADJICG": "EaseInOutCubic",
                "BMHIHPIKAHM": {},
                "MMJMMAEAJOA": true,
                "DNFHBDHNHKE": 359.77301025390625,
                "HGGPLEMCNNG": false,
                "JBODIEHINII": "",
                "PHDIKPKLFIA": true,
                "EJCHLMIMLBO": "",
                "BIMPIKMCIHB": "",
                "MCAOJPLIJGI": ""
            },
            {
                "$type": "KAGAFALAIGP",
                "type": "DIALOG",
                "aliasList": [
                    "1005"
                ],
                "actionId": 111,
                "JHEPJOMJJHH": 740051203,
                "OCILKFCPBNC": 0.5
            },
            {
                "$type": "CENEPJCONAG",
                "type": "BODY_LANG",
                "aliasList": [
                    "1005"
                ],
                "actionId": 195,
                "OGFPAIKLDGB": 1090,
                "MHDCNDAINCK": true,
                "LHIAJOBFNAK": false,
                "GJGPNLJEIFP": true,
                "FOEKGLEJBIJ": ""
            },
            {
                "$type": "LNLLGCOBDFC",
                "type": "EMO_SYNC",
                "aliasList": [
                    "1005"
                ],
                "actionId": 196,
                "flag": 256,
                "LKHHGAGNMKM": "",
                "AIMKGPFAAAD": "Cs_Emo_Pet_Common/Cs_Emo_Paimon_Smile01",
                "IPEKOEDCGGF": "Cs_Emo_Pet_Common/Cs_Emo_Paimon_Happy01",
                "EJNFMNJKDAH": "",
                "LOOOCOLIHFA": "",
                "KJDLMAPPPMG": "",
                "HCOIDDGKHJC": false,
                "IMIEGJDNPNN": [
                    14444568113189515118,
                    6334906583242748066,
                    8352861918685421043,
                    6062231986990823827
                ],
                "KIJHIMADJGM": [
                    11795538569676462054,
                    5514455715760618983,
                    6871647363300542652,
                    8381196293596717205
                ]
            },
            {
                "$type": "CENEPJCONAG",
                "type": "BODY_LANG",
                "delayTime": 1.5670000314712524,
                "aliasList": [
                    "AvatarNpc"
                ],
                "actionId": 197,
                "OGFPAIKLDGB": 4030,
                "MHDCNDAINCK": true,
                "LHIAJOBFNAK": false,
                "GJGPNLJEIFP": true,
                "FOEKGLEJBIJ": ""
            }
        ],
        [
            {
                "$type": "PBIGHFCHGCA",
                "type": "CAMERA_MOVE",
                "duration": 0.5,
                "actionId": 198,
                "KCFKJMMEECM": {
                    "x": 2696.466064453125,
                    "y": 222.86500549316406,
                    "z": 4988.3701171875
                },
                "DLGJEHNPMFN": {
                    "x": 2697.43408203125,
                    "y": 222.7969970703125,
                    "z": 4988.12890625
                },
                "NJCBGNHGINI": 25.0,
                "FNMFGIOLKBE": 6,
                "NECGMADJICG": "EaseInOutCubic",
                "BMHIHPIKAHM": {},
                "MMJMMAEAJOA": true,
                "DNFHBDHNHKE": 359.7720031738281,
                "HGGPLEMCNNG": false,
                "JBODIEHINII": "",
                "PHDIKPKLFIA": true,
                "EJCHLMIMLBO": "",
                "BIMPIKMCIHB": "",
                "MCAOJPLIJGI": ""
            },
            {
                "$type": "LNLLGCOBDFC",
                "type": "EMO_SYNC",
                "aliasList": [
                    "1005"
                ],
                "actionId": 202,
                "flag": 256,
                "LKHHGAGNMKM": "",
                "AIMKGPFAAAD": "Cs_Emo_Pet_Common/Cs_Emo_Paimon_Smile01",
                "IPEKOEDCGGF": "Cs_Emo_Pet_Common/Cs_Emo_Paimon_Normal01",
                "EJNFMNJKDAH": "",
                "LOOOCOLIHFA": "",
                "KJDLMAPPPMG": "",
                "IMIEGJDNPNN": [
                    14444568113189515118,
                    6334906583242748066,
                    8352861918685421043,
                    6062231986990823827
                ],
                "KIJHIMADJGM": [
                    312453201720762420,
                    9562322946389574798,
                    18422542724361145117,
                    17949024460815132449
                ]
            },
            {
                "$type": "KAGAFALAIGP",
                "type": "DIALOG",
                "aliasList": [
                    "5301"
                ],
                "actionId": 113,
                "JHEPJOMJJHH": 740051204,
                "OCILKFCPBNC": 0.5
            },
            {
                "$type": "CENEPJCONAG",
                "type": "BODY_LANG",
                "aliasList": [
                    "5301"
                ],
                "actionId": 199,
                "OGFPAIKLDGB": 4030,
                "MHDCNDAINCK": true,
                "LHIAJOBFNAK": false,
                "GJGPNLJEIFP": true,
                "FOEKGLEJBIJ": ""
            },
            {
                "$type": "CENEPJCONAG",
                "type": "BODY_LANG",
                "delayTime": 0.35100001096725464,
                "aliasList": [
                    "5301"
                ],
                "actionId": 201,
                "OGFPAIKLDGB": 1190,
                "MHDCNDAINCK": true,
                "LHIAJOBFNAK": false,
                "GJGPNLJEIFP": true,
                "FOEKGLEJBIJ": ""
            }
        ],
        [
            {
                "$type": "PBIGHFCHGCA",
                "type": "CAMERA_MOVE",
                "duration": 0.5,
                "actionId": 203,
                "KCFKJMMEECM": {
                    "x": 2701.778076171875,
                    "y": 223.3260040283203,
                    "z": 4987.83984375
                },
                "DLGJEHNPMFN": {
                    "x": 2700.80908203125,
                    "y": 223.08900451660156,
                    "z": 4987.77197265625
                },
                "NJCBGNHGINI": 25.0,
                "FNMFGIOLKBE": 6,
                "NECGMADJICG": "EaseInOutCubic",
                "BMHIHPIKAHM": {},
                "MMJMMAEAJOA": true,
                "DNFHBDHNHKE": 359.7659912109375,
                "HGGPLEMCNNG": false,
                "JBODIEHINII": "",
                "PHDIKPKLFIA": true,
                "EJCHLMIMLBO": "",
                "BIMPIKMCIHB": "",
                "MCAOJPLIJGI": ""
            },
            {
                "$type": "KAGAFALAIGP",
                "type": "DIALOG",
                "aliasList": [
                    "1005"
                ],
                "actionId": 115,
                "JHEPJOMJJHH": 740051205,
                "OCILKFCPBNC": 0.5
            },
            {
                "$type": "CENEPJCONAG",
                "type": "BODY_LANG",
                "aliasList": [
                    "1005"
                ],
                "actionId": 204,
                "NNKEOHJCPOF": true,
                "MHDCNDAINCK": true,
                "LHIAJOBFNAK": false,
                "GJGPNLJEIFP": true,
                "FOEKGLEJBIJ": ""
            },
            {
                "$type": "LNLLGCOBDFC",
                "type": "EMO_SYNC",
                "aliasList": [
                    "1005"
                ],
                "actionId": 208,
                "flag": 256,
                "LKHHGAGNMKM": "",
                "AIMKGPFAAAD": "Cs_Emo_Pet_Common/Cs_Emo_Paimon_None",
                "IPEKOEDCGGF": "Cs_Emo_Pet_Common/Cs_Emo_Paimon_Normal03_B",
                "EJNFMNJKDAH": "",
                "LOOOCOLIHFA": "",
                "KJDLMAPPPMG": "",
                "IMIEGJDNPNN": [
                    1796869206626684908,
                    2049648015653630001,
                    14015965774222061559,
                    873259039409222856
                ],
                "KIJHIMADJGM": [
                    14912093781062014899,
                    15194069477213898188,
                    8302863847694511414,
                    1263332498188810234
                ]
            },
            {
                "$type": "CENEPJCONAG",
                "type": "BODY_LANG",
                "delayTime": 0.6159999966621399,
                "aliasList": [
                    "1005"
                ],
                "actionId": 205,
                "OGFPAIKLDGB": 1110,
                "MHDCNDAINCK": true,
                "LHIAJOBFNAK": false,
                "GJGPNLJEIFP": true,
                "FOEKGLEJBIJ": ""
            }
        ],
        [
            {
                "$type": "PBIGHFCHGCA",
                "type": "CAMERA_MOVE",
                "duration": 0.5,
                "actionId": 215,
                "KCFKJMMEECM": {
                    "x": 2695.02392578125,
                    "y": 221.34800720214844,
                    "z": 4993.93115234375
                },
                "DLGJEHNPMFN": {
                    "x": 2695.575927734375,
                    "y": 221.48699951171875,
                    "z": 4993.10791015625
                },
                "NJCBGNHGINI": 25.0,
                "FNMFGIOLKBE": 6,
                "NECGMADJICG": "EaseInOutCubic",
                "BMHIHPIKAHM": {},
                "MMJMMAEAJOA": true,
                "DNFHBDHNHKE": 359.7699890136719,
                "HGGPLEMCNNG": false,
                "JBODIEHINII": "",
                "PHDIKPKLFIA": true,
                "EJCHLMIMLBO": "",
                "BIMPIKMCIHB": "",
                "MCAOJPLIJGI": ""
            },
            {
                "$type": "CENEPJCONAG",
                "type": "BODY_LANG",
                "aliasList": [
                    "1005"
                ],
                "actionId": 206,
                "NNKEOHJCPOF": true,
                "MHDCNDAINCK": true,
                "LHIAJOBFNAK": false,
                "GJGPNLJEIFP": true,
                "FOEKGLEJBIJ": ""
            },
            {
                "$type": "LNLLGCOBDFC",
                "type": "EMO_SYNC",
                "aliasList": [
                    "1005"
                ],
                "actionId": 209,
                "flag": 320,
                "LKHHGAGNMKM": "",
                "AIMKGPFAAAD": "Cs_Emo_Pet_Common/Cs_Emo_Paimon_None",
                "IPEKOEDCGGF": "Cs_Emo_Pet_Common/Cs_Emo_Paimon_Normal01_B",
                "EJNFMNJKDAH": "",
                "LOOOCOLIHFA": "",
                "KJDLMAPPPMG": "",
                "IMIEGJDNPNN": [
                    1796869206626684908,
                    2049648015653630001,
                    14015965774222061559,
                    873259039409222856
                ],
                "KIJHIMADJGM": [
                    14892026956990897578,
                    7647528750435710781,
                    2171559387429051042,
                    15358483104891988261
                ]
            },
            {
                "$type": "KAGAFALAIGP",
                "type": "DIALOG",
                "aliasList": [
                    "5301"
                ],
                "actionId": 117,
                "JHEPJOMJJHH": 740051206,
                "OCILKFCPBNC": 0.5
            },
            {
                "$type": "CENEPJCONAG",
                "type": "BODY_LANG",
                "aliasList": [
                    "5301"
                ],
                "actionId": 211,
                "NNKEOHJCPOF": true,
                "MHDCNDAINCK": true,
                "LHIAJOBFNAK": false,
                "GJGPNLJEIFP": true,
                "FOEKGLEJBIJ": ""
            },
            {
                "$type": "PBIGHFCHGCA",
                "type": "CAMERA_MOVE",
                "delayTime": 0.10000000149011612,
                "duration": 10.506999969482422,
                "actionId": 216,
                "KCFKJMMEECM": {
                    "x": 2694.6650390625,
                    "y": 221.3560028076172,
                    "z": 4993.69091796875
                },
                "DLGJEHNPMFN": {
                    "x": 2695.217041015625,
                    "y": 221.4949951171875,
                    "z": 4992.869140625
                },
                "NJCBGNHGINI": 25.0,
                "NECGMADJICG": "EaseOutQuad",
                "BMHIHPIKAHM": {},
                "MMJMMAEAJOA": true,
                "DNFHBDHNHKE": 359.7699890136719,
                "HGGPLEMCNNG": false,
                "JBODIEHINII": "",
                "PHDIKPKLFIA": true,
                "EJCHLMIMLBO": "",
                "BIMPIKMCIHB": "",
                "MCAOJPLIJGI": ""
            },
            {
                "$type": "CENEPJCONAG",
                "type": "BODY_LANG",
                "delayTime": 0.6460000276565552,
                "aliasList": [
                    "5301"
                ],
                "actionId": 213,
                "OGFPAIKLDGB": 1171,
                "MHDCNDAINCK": true,
                "LHIAJOBFNAK": false,
                "GJGPNLJEIFP": true,
                "FOEKGLEJBIJ": ""
            }
        ],
        [
            {
                "$type": "KAGAFALAIGP",
                "type": "DIALOG",
                "aliasList": [
                    "5301"
                ],
                "actionId": 119,
                "JHEPJOMJJHH": 740051207,
                "OCILKFCPBNC": 0.5
            },
            {
                "$type": "CENEPJCONAG",
                "type": "BODY_LANG",
                "aliasList": [
                    "5301"
                ],
                "actionId": 214,
                "OGFPAIKLDGB": 1171,
                "MHDCNDAINCK": true,
                "LHIAJOBFNAK": false,
                "GJGPNLJEIFP": true,
                "FOEKGLEJBIJ": ""
            }
        ],
        [
            {
                "$type": "PBIGHFCHGCA",
                "type": "CAMERA_MOVE",
                "duration": 0.5,
                "actionId": 219,
                "KCFKJMMEECM": {
                    "x": 2699.887939453125,
                    "y": 222.67300415039062,
                    "z": 4988.14892578125
                },
                "DLGJEHNPMFN": {
                    "x": 2698.89111328125,
                    "y": 222.6649932861328,
                    "z": 4988.06884765625
                },
                "NJCBGNHGINI": 25.0,
                "FNMFGIOLKBE": 6,
                "NECGMADJICG": "EaseInOutCubic",
                "BMHIHPIKAHM": {},
                "MMJMMAEAJOA": true,
                "DNFHBDHNHKE": 359.77301025390625,
                "HGGPLEMCNNG": false,
                "JBODIEHINII": "",
                "PHDIKPKLFIA": true,
                "EJCHLMIMLBO": "",
                "BIMPIKMCIHB": "",
                "MCAOJPLIJGI": ""
            },
            {
                "$type": "FNPNDPFBBDD",
                "type": "LOOK_AT",
                "aliasList": [
                    "AvatarNpc"
                ],
                "actionId": 222,
                "flag": 64,
                "NKGFDJDHOBD": true,
                "useTargetPos": true,
                "LBJHJADMNBD": true,
                "EKIONHAEIBG": {
                    "x": 2698.239013671875,
                    "y": 222.75799560546875,
                    "z": 4988.2880859375
                },
                "MNOPLOBEFLB": 0.5,
                "JBODIEHINII": "",
                "CFPBIOLLOCO": "NONE",
                "MDNPCOHCCLM": true,
                "CAJDMFBMGNG": 10.0,
                "LPCACGGCDLI": "",
                "NNFPFPOJJOJ": ""
            },
            {
                "$type": "KAGAFALAIGP",
                "type": "DIALOG",
                "aliasList": [
                    "1005"
                ],
                "actionId": 121,
                "JHEPJOMJJHH": 740051208,
                "OCILKFCPBNC": 0.5
            },
            {
                "$type": "CENEPJCONAG",
                "type": "BODY_LANG",
                "delayTime": 0.026000000536441803,
                "aliasList": [
                    "1005"
                ],
                "actionId": 220,
                "OGFPAIKLDGB": 1170,
                "MHDCNDAINCK": true,
                "LHIAJOBFNAK": false,
                "GJGPNLJEIFP": true,
                "FOEKGLEJBIJ": ""
            },
            {
                "$type": "CENEPJCONAG",
                "type": "BODY_LANG",
                "delayTime": 2.568000078201294,
                "aliasList": [
                    "1005"
                ],
                "actionId": 221,
                "NNKEOHJCPOF": true,
                "MHDCNDAINCK": true,
                "LHIAJOBFNAK": false,
                "GJGPNLJEIFP": true,
                "FOEKGLEJBIJ": ""
            }
        ],
        [
            {
                "$type": "FNPNDPFBBDD",
                "type": "LOOK_AT",
                "aliasList": [
                    "AvatarNpc"
                ],
                "actionId": 224,
                "flag": 64,
                "NKGFDJDHOBD": true,
                "useTargetPos": true,
                "LBJHJADMNBD": true,
                "EKIONHAEIBG": {
                    "x": 2700.18896484375,
                    "y": 222.95399475097656,
                    "z": 4987.4091796875
                },
                "MNOPLOBEFLB": 0.5,
                "JBODIEHINII": "",
                "CFPBIOLLOCO": "NONE",
                "MDNPCOHCCLM": true,
                "CAJDMFBMGNG": 10.0,
                "LPCACGGCDLI": "",
                "NNFPFPOJJOJ": ""
            },
            {
                "$type": "KAGAFALAIGP",
                "type": "DIALOG",
                "aliasList": [
                    "1005"
                ],
                "actionId": 123,
                "JHEPJOMJJHH": 740051209,
                "OCILKFCPBNC": 0.5
            },
            {
                "$type": "CENEPJCONAG",
                "type": "BODY_LANG",
                "aliasList": [
                    "1005"
                ],
                "actionId": 225,
                "OGFPAIKLDGB": 1180,
                "MHDCNDAINCK": true,
                "LHIAJOBFNAK": false,
                "GJGPNLJEIFP": true,
                "FOEKGLEJBIJ": ""
            },
            {
                "$type": "CENEPJCONAG",
                "type": "BODY_LANG",
                "delayTime": 2.244999885559082,
                "aliasList": [
                    "1005"
                ],
                "actionId": 226,
                "NNKEOHJCPOF": true,
                "MHDCNDAINCK": true,
                "LHIAJOBFNAK": false,
                "GJGPNLJEIFP": true,
                "FOEKGLEJBIJ": ""
            }
        ],
        [
            {
                "$type": "PBIGHFCHGCA",
                "type": "CAMERA_MOVE",
                "duration": 0.5,
                "actionId": 227,
                "KCFKJMMEECM": {
                    "x": 2696.466064453125,
                    "y": 222.86500549316406,
                    "z": 4988.3701171875
                },
                "DLGJEHNPMFN": {
                    "x": 2697.43408203125,
                    "y": 222.7969970703125,
                    "z": 4988.12890625
                },
                "NJCBGNHGINI": 25.0,
                "FNMFGIOLKBE": 6,
                "NECGMADJICG": "EaseInOutCubic",
                "BMHIHPIKAHM": {},
                "MMJMMAEAJOA": true,
                "DNFHBDHNHKE": 359.7720031738281,
                "HGGPLEMCNNG": false,
                "JBODIEHINII": "",
                "PHDIKPKLFIA": true,
                "EJCHLMIMLBO": "",
                "BIMPIKMCIHB": "",
                "MCAOJPLIJGI": ""
            },
            {
                "$type": "KAGAFALAIGP",
                "type": "DIALOG",
                "aliasList": [
                    "5301"
                ],
                "actionId": 125,
                "JHEPJOMJJHH": 740051210,
                "OCILKFCPBNC": 0.5
            },
            {
                "$type": "CENEPJCONAG",
                "type": "BODY_LANG",
                "aliasList": [
                    "5301"
                ],
                "actionId": 228,
                "OGFPAIKLDGB": 1060,
                "MHDCNDAINCK": true,
                "LHIAJOBFNAK": false,
                "GJGPNLJEIFP": true,
                "FOEKGLEJBIJ": ""
            }
        ],
        [
            {
                "$type": "KAGAFALAIGP",
                "type": "DIALOG",
                "aliasList": [
                    "5301"
                ],
                "actionId": 127,
                "JHEPJOMJJHH": 740051211,
                "OCILKFCPBNC": 0.5
            },
            {
                "$type": "CENEPJCONAG",
                "type": "BODY_LANG",
                "aliasList": [
                    "5301"
                ],
                "actionId": 229,
                "NNKEOHJCPOF": true,
                "MHDCNDAINCK": true,
                "LHIAJOBFNAK": false,
                "GJGPNLJEIFP": true,
                "FOEKGLEJBIJ": ""
            },
            {
                "$type": "CENEPJCONAG",
                "type": "BODY_LANG",
                "delayTime": 0.4749999940395355,
                "aliasList": [
                    "5301"
                ],
                "actionId": 230,
                "OGFPAIKLDGB": 1172,
                "MHDCNDAINCK": true,
                "LHIAJOBFNAK": false,
                "GJGPNLJEIFP": true,
                "FOEKGLEJBIJ": ""
            }
        ],
        [
            {
                "$type": "KAGAFALAIGP",
                "type": "DIALOG",
                "aliasList": [
                    "1005"
                ],
                "actionId": 129,
                "JHEPJOMJJHH": 740051212,
                "OCILKFCPBNC": 0.5
            },
            {
                "$type": "CENEPJCONAG",
                "type": "BODY_LANG",
                "aliasList": [
                    "1005"
                ],
                "actionId": 232,
                "OGFPAIKLDGB": 1110,
                "MHDCNDAINCK": true,
                "LHIAJOBFNAK": false,
                "GJGPNLJEIFP": true,
                "FOEKGLEJBIJ": ""
            },
            {
                "$type": "PBIGHFCHGCA",
                "type": "CAMERA_MOVE",
                "delayTime": 0.017000000923871994,
                "duration": 0.5,
                "actionId": 231,
                "KCFKJMMEECM": {
                    "x": 2701.6640625,
                    "y": 223.29299926757812,
                    "z": 4987.8017578125
                },
                "DLGJEHNPMFN": {
                    "x": 2700.693115234375,
                    "y": 223.0679931640625,
                    "z": 4987.71923828125
                },
                "NJCBGNHGINI": 25.0,
                "FNMFGIOLKBE": 6,
                "NECGMADJICG": "EaseInOutCubic",
                "BMHIHPIKAHM": {},
                "MMJMMAEAJOA": true,
                "DNFHBDHNHKE": 359.7669982910156,
                "HGGPLEMCNNG": false,
                "JBODIEHINII": "",
                "PHDIKPKLFIA": true,
                "EJCHLMIMLBO": "",
                "BIMPIKMCIHB": "",
                "MCAOJPLIJGI": ""
            }
        ],
        [
            {
                "$type": "CENEPJCONAG",
                "type": "BODY_LANG",
                "aliasList": [
                    "1005"
                ],
                "actionId": 233,
                "NNKEOHJCPOF": true,
                "MHDCNDAINCK": true,
                "LHIAJOBFNAK": false,
                "GJGPNLJEIFP": true,
                "FOEKGLEJBIJ": ""
            },
            {
                "$type": "KAGAFALAIGP",
                "type": "DIALOG",
                "aliasList": [
                    "5301"
                ],
                "actionId": 131,
                "JHEPJOMJJHH": 740051213,
                "OCILKFCPBNC": 0.5
            },
            {
                "$type": "CENEPJCONAG",
                "type": "BODY_LANG",
                "aliasList": [
                    "5301"
                ],
                "actionId": 236,
                "OGFPAIKLDGB": 4040,
                "MHDCNDAINCK": true,
                "LHIAJOBFNAK": false,
                "GJGPNLJEIFP": true,
                "FOEKGLEJBIJ": ""
            }
        ],
        [
            {
                "$type": "PBIGHFCHGCA",
                "type": "CAMERA_MOVE",
                "duration": 0.5,
                "actionId": 239,
                "KCFKJMMEECM": {
                    "x": 2698.95703125,
                    "y": 222.80499267578125,
                    "z": 4988.1181640625
                },
                "DLGJEHNPMFN": {
                    "x": 2697.988037109375,
                    "y": 222.62399291992188,
                    "z": 4988.2880859375
                },
                "NJCBGNHGINI": 25.0,
                "FNMFGIOLKBE": 6,
                "NECGMADJICG": "EaseInOutCubic",
                "BMHIHPIKAHM": {},
                "MMJMMAEAJOA": true,
                "DNFHBDHNHKE": 359.7690124511719,
                "HGGPLEMCNNG": false,
                "JBODIEHINII": "",
                "PHDIKPKLFIA": true,
                "EJCHLMIMLBO": "",
                "BIMPIKMCIHB": "",
                "MCAOJPLIJGI": ""
            },
            {
                "$type": "KAGAFALAIGP",
                "type": "DIALOG",
                "aliasList": [
                    "1005"
                ],
                "actionId": 133,
                "JHEPJOMJJHH": 740051214,
                "OCILKFCPBNC": 0.5
            },
            {
                "$type": "CENEPJCONAG",
                "type": "BODY_LANG",
                "aliasList": [
                    "1005"
                ],
                "actionId": 235,
                "OGFPAIKLDGB": 1190,
                "MHDCNDAINCK": true,
                "LHIAJOBFNAK": false,
                "GJGPNLJEIFP": true,
                "FOEKGLEJBIJ": ""
            }
        ],
        [
            {
                "$type": "PBIGHFCHGCA",
                "type": "CAMERA_MOVE",
                "duration": 0.5,
                "actionId": 238,
                "KCFKJMMEECM": {
                    "x": 2696.0439453125,
                    "y": 222.88299560546875,
                    "z": 4988.47314453125
                },
                "DLGJEHNPMFN": {
                    "x": 2697.011962890625,
                    "y": 222.8090057373047,
                    "z": 4988.23486328125
                },
                "NJCBGNHGINI": 25.0,
                "FNMFGIOLKBE": 6,
                "NECGMADJICG": "EaseInOutCubic",
                "BMHIHPIKAHM": {},
                "MMJMMAEAJOA": true,
                "DNFHBDHNHKE": 359.7720031738281,
                "HGGPLEMCNNG": false,
                "JBODIEHINII": "",
                "PHDIKPKLFIA": true,
                "EJCHLMIMLBO": "",
                "BIMPIKMCIHB": "",
                "MCAOJPLIJGI": ""
            },
            {
                "$type": "CENEPJCONAG",
                "type": "BODY_LANG",
                "aliasList": [
                    "1005"
                ],
                "actionId": 237,
                "NNKEOHJCPOF": true,
                "MHDCNDAINCK": true,
                "LHIAJOBFNAK": false,
                "GJGPNLJEIFP": true,
                "FOEKGLEJBIJ": ""
            },
            {
                "$type": "KAGAFALAIGP",
                "type": "DIALOG",
                "aliasList": [
                    "5301"
                ],
                "actionId": 135,
                "JHEPJOMJJHH": 740051215,
                "OCILKFCPBNC": 0.5
            },
            {
                "$type": "CENEPJCONAG",
                "type": "BODY_LANG",
                "aliasList": [
                    "5301"
                ],
                "actionId": 240,
                "OGFPAIKLDGB": 4030,
                "MHDCNDAINCK": true,
                "LHIAJOBFNAK": false,
                "GJGPNLJEIFP": true,
                "FOEKGLEJBIJ": ""
            }
        ],
        [
            {
                "$type": "KAGAFALAIGP",
                "type": "DIALOG",
                "aliasList": [
                    "5301"
                ],
                "actionId": 137,
                "JHEPJOMJJHH": 740051216,
                "OCILKFCPBNC": 0.5
            },
            {
                "$type": "CENEPJCONAG",
                "type": "BODY_LANG",
                "aliasList": [
                    "5301"
                ],
                "actionId": 241,
                "OGFPAIKLDGB": 1171,
                "MHDCNDAINCK": true,
                "LHIAJOBFNAK": false,
                "GJGPNLJEIFP": true,
                "FOEKGLEJBIJ": ""
            }
        ],
        [
            {
                "$type": "PBIGHFCHGCA",
                "type": "CAMERA_MOVE",
                "duration": 0.5,
                "actionId": 242,
                "KCFKJMMEECM": {
                    "x": 2699.705078125,
                    "y": 222.72000122070312,
                    "z": 4988.19189453125
                },
                "DLGJEHNPMFN": {
                    "x": 2698.7080078125,
                    "y": 222.70599365234375,
                    "z": 4988.11083984375
                },
                "NJCBGNHGINI": 25.0,
                "FNMFGIOLKBE": 6,
                "NECGMADJICG": "EaseInOutCubic",
                "BMHIHPIKAHM": {},
                "MMJMMAEAJOA": true,
                "DNFHBDHNHKE": 359.7720031738281,
                "HGGPLEMCNNG": false,
                "JBODIEHINII": "",
                "PHDIKPKLFIA": true,
                "EJCHLMIMLBO": "",
                "BIMPIKMCIHB": "",
                "MCAOJPLIJGI": ""
            },
            {
                "$type": "KAGAFALAIGP",
                "type": "DIALOG",
                "aliasList": [
                    "1005"
                ],
                "actionId": 139,
                "JHEPJOMJJHH": 740051217,
                "OCILKFCPBNC": 3.635999917984009
            },
            {
                "$type": "CENEPJCONAG",
                "type": "BODY_LANG",
                "aliasList": [
                    "1005"
                ],
                "actionId": 244,
                "OGFPAIKLDGB": 1110,
                "MHDCNDAINCK": true,
                "LHIAJOBFNAK": false,
                "GJGPNLJEIFP": true,
                "FOEKGLEJBIJ": ""
            },
            {
                "$type": "PBIGHFCHGCA",
                "type": "CAMERA_MOVE",
                "delayTime": 0.10000000149011612,
                "duration": 6.7769999504089355,
                "actionId": 243,
                "KCFKJMMEECM": {
                    "x": 2699.697998046875,
                    "y": 222.7209930419922,
                    "z": 4988.27783203125
                },
                "DLGJEHNPMFN": {
                    "x": 2698.701904296875,
                    "y": 222.70700073242188,
                    "z": 4988.1982421875
                },
                "NJCBGNHGINI": 25.0,
                "NECGMADJICG": "EaseOutQuad",
                "BMHIHPIKAHM": {},
                "MMJMMAEAJOA": true,
                "DNFHBDHNHKE": 359.7720031738281,
                "HGGPLEMCNNG": false,
                "JBODIEHINII": "",
                "PHDIKPKLFIA": true,
                "EJCHLMIMLBO": "",
                "BIMPIKMCIHB": "",
                "MCAOJPLIJGI": ""
            },
            {
                "$type": "FNPNDPFBBDD",
                "type": "LOOK_AT",
                "delayTime": 1.718999981880188,
                "aliasList": [
                    "1005"
                ],
                "actionId": 258,
                "flag": 64,
                "NKGFDJDHOBD": true,
                "useTargetPos": true,
                "LBJHJADMNBD": true,
                "EKIONHAEIBG": {
                    "x": 2701.864013671875,
                    "y": 224.41099548339844,
                    "z": 4986.30517578125
                },
                "MNOPLOBEFLB": 0.5,
                "JBODIEHINII": "",
                "CFPBIOLLOCO": "NONE",
                "MDNPCOHCCLM": true,
                "CAJDMFBMGNG": 10.0,
                "LPCACGGCDLI": "",
                "NNFPFPOJJOJ": ""
            },
            {
                "$type": "FNPNDPFBBDD",
                "type": "LOOK_AT",
                "delayTime": 1.9980000257492065,
                "aliasList": [
                    "AvatarNpc"
                ],
                "actionId": 259,
                "flag": 64,
                "NKGFDJDHOBD": true,
                "useTargetPos": true,
                "LBJHJADMNBD": true,
                "EKIONHAEIBG": {
                    "x": 2701.864013671875,
                    "y": 224.60299682617188,
                    "z": 4985.9208984375
                },
                "MNOPLOBEFLB": 0.5,
                "JBODIEHINII": "",
                "CFPBIOLLOCO": "NONE",
                "MDNPCOHCCLM": true,
                "CAJDMFBMGNG": 10.0,
                "LPCACGGCDLI": "",
                "NNFPFPOJJOJ": ""
            },
            {
                "$type": "PBIGHFCHGCA",
                "type": "CAMERA_MOVE",
                "delayTime": 2.381999969482422,
                "duration": 0.5,
                "actionId": 260,
                "KCFKJMMEECM": {
                    "x": 2691.031982421875,
                    "y": 220.85400390625,
                    "z": 4996.12890625
                },
                "DLGJEHNPMFN": {
                    "x": 2691.72802734375,
                    "y": 221.0189971923828,
                    "z": 4995.43115234375
                },
                "NJCBGNHGINI": 25.0,
                "FNMFGIOLKBE": 6,
                "NECGMADJICG": "EaseInOutCubic",
                "BMHIHPIKAHM": {},
                "MMJMMAEAJOA": true,
                "DNFHBDHNHKE": 359.7690124511719,
                "HGGPLEMCNNG": false,
                "JBODIEHINII": "",
                "PHDIKPKLFIA": true,
                "EJCHLMIMLBO": "",
                "BIMPIKMCIHB": "",
                "MCAOJPLIJGI": ""
            },
            {
                "$type": "CENEPJCONAG",
                "type": "BODY_LANG",
                "delayTime": 2.440000057220459,
                "aliasList": [
                    "1005"
                ],
                "actionId": 266,
                "OGFPAIKLDGB": 1060,
                "MHDCNDAINCK": true,
                "LHIAJOBFNAK": false,
                "GJGPNLJEIFP": true,
                "FOEKGLEJBIJ": ""
            },
            {
                "$type": "PBIGHFCHGCA",
                "type": "CAMERA_MOVE",
                "delayTime": 2.4820001125335693,
                "duration": 15.0,
                "actionId": 261,
                "KCFKJMMEECM": {
                    "x": 2691.238037109375,
                    "y": 219.77099609375,
                    "z": 4995.9990234375
                },
                "DLGJEHNPMFN": {
                    "x": 2691.910888671875,
                    "y": 220.06199645996094,
                    "z": 4995.31884765625
                },
                "NJCBGNHGINI": 25.0,
                "NECGMADJICG": "EaseOutQuad",
                "BMHIHPIKAHM": {},
                "MMJMMAEAJOA": true,
                "DNFHBDHNHKE": 359.7619934082031,
                "HGGPLEMCNNG": false,
                "JBODIEHINII": "",
                "PHDIKPKLFIA": true,
                "EJCHLMIMLBO": "",
                "BIMPIKMCIHB": "",
                "MCAOJPLIJGI": ""
            },
            {
                "$type": "NFDDGDIKEAG",
                "type": "STEER_TO",
                "delayTime": 2.88100004196167,
                "duration": 1.0,
                "aliasList": [
                    "5301"
                ],
                "actionId": 262,
                "flag": 32,
                "GGJHILELIMO": "ABSOLUTE",
                "GPODKINFLFH": {
                    "x": 2704.806884765625,
                    "y": 218.8979949951172,
                    "z": 4985.2431640625
                },
                "PKKKHNGDEEE": true,
                "LGDIOPOBMPH": true,
                "NBNJEKMFIDE": true,
                "JBODIEHINII": "",
                "DMPFMDNFEHA": true,
                "OJJKHFPNNKJ": true,
                "NNFPFPOJJOJ": ""
            },
            {
                "$type": "FNPNDPFBBDD",
                "type": "LOOK_AT",
                "delayTime": 2.9860000610351562,
                "aliasList": [
                    "5301"
                ],
                "actionId": 263,
                "flag": 64,
                "NKGFDJDHOBD": true,
                "useTargetPos": true,
                "LBJHJADMNBD": true,
                "EKIONHAEIBG": {
                    "x": 2704.8310546875,
                    "y": 225.2270050048828,
                    "z": 4984.84521484375
                },
                "MNOPLOBEFLB": 0.5,
                "JBODIEHINII": "",
                "CFPBIOLLOCO": "NONE",
                "MDNPCOHCCLM": true,
                "CAJDMFBMGNG": 10.0,
                "LPCACGGCDLI": "",
                "NNFPFPOJJOJ": ""
            },
            {
                "$type": "CENEPJCONAG",
                "type": "BODY_LANG",
                "delayTime": 7.5269999504089355,
                "aliasList": [
                    "1005"
                ],
                "actionId": 268,
                "NNKEOHJCPOF": true,
                "MHDCNDAINCK": true,
                "LHIAJOBFNAK": false,
                "GJGPNLJEIFP": true,
                "FOEKGLEJBIJ": ""
            }
        ],
        [
            {
                "$type": "PBIGHFCHGCA",
                "type": "CAMERA_MOVE",
                "duration": 0.5,
                "actionId": 264,
                "KCFKJMMEECM": {
                    "x": 2701.23095703125,
                    "y": 224.0469970703125,
                    "z": 4987.6162109375
                },
                "DLGJEHNPMFN": {
                    "x": 2700.339111328125,
                    "y": 223.62600708007812,
                    "z": 4987.77880859375
                },
                "NJCBGNHGINI": 25.0,
                "FNMFGIOLKBE": 6,
                "NECGMADJICG": "EaseInOutCubic",
                "BMHIHPIKAHM": {},
                "MMJMMAEAJOA": true,
                "DNFHBDHNHKE": 359.7489929199219,
                "HGGPLEMCNNG": false,
                "JBODIEHINII": "",
                "PHDIKPKLFIA": true,
                "EJCHLMIMLBO": "",
                "BIMPIKMCIHB": "",
                "MCAOJPLIJGI": ""
            },
            {
                "$type": "KAGAFALAIGP",
                "type": "DIALOG",
                "aliasList": [
                    "1005"
                ],
                "actionId": 256,
                "JHEPJOMJJHH": 740051226,
                "OCILKFCPBNC": 0.5
            },
            {
                "$type": "CENEPJCONAG",
                "type": "BODY_LANG",
                "aliasList": [
                    "1005"
                ],
                "actionId": 267,
                "OGFPAIKLDGB": 1100,
                "MHDCNDAINCK": true,
                "LHIAJOBFNAK": false,
                "GJGPNLJEIFP": true,
                "FOEKGLEJBIJ": ""
            }
        ],
        [
            {
                "$type": "PBIGHFCHGCA",
                "type": "CAMERA_MOVE",
                "duration": 1.7890000343322754,
                "actionId": 269,
                "KCFKJMMEECM": {
                    "x": 2701.447998046875,
                    "y": 223.27000427246094,
                    "z": 4987.5068359375
                },
                "DLGJEHNPMFN": {
                    "x": 2700.47900390625,
                    "y": 223.03900146484375,
                    "z": 4987.59423828125
                },
                "NJCBGNHGINI": 25.0,
                "NECGMADJICG": "EaseInOutCubic",
                "BMHIHPIKAHM": {},
                "MMJMMAEAJOA": true,
                "DNFHBDHNHKE": 359.7659912109375,
                "HGGPLEMCNNG": false,
                "JBODIEHINII": "",
                "PHDIKPKLFIA": true,
                "EJCHLMIMLBO": "",
                "BIMPIKMCIHB": "",
                "MCAOJPLIJGI": ""
            },
            {
                "$type": "FNPNDPFBBDD",
                "type": "LOOK_AT",
                "aliasList": [
                    "AvatarNpc"
                ],
                "actionId": 271,
                "flag": 64,
                "NKGFDJDHOBD": true,
                "MNOPLOBEFLB": 0.5,
                "JBODIEHINII": "5301",
                "MDNPCOHCCLM": true,
                "CAJDMFBMGNG": 10.0,
                "LPCACGGCDLI": "",
                "NNFPFPOJJOJ": ""
            },
            {
                "$type": "FNPNDPFBBDD",
                "type": "LOOK_AT",
                "aliasList": [
                    "1005"
                ],
                "actionId": 272,
                "flag": 64,
                "NKGFDJDHOBD": true,
                "MNOPLOBEFLB": 0.5,
                "JBODIEHINII": "5301",
                "MDNPCOHCCLM": true,
                "CAJDMFBMGNG": 10.0,
                "LPCACGGCDLI": "",
                "NNFPFPOJJOJ": ""
            },
            {
                "$type": "KAGAFALAIGP",
                "type": "DIALOG",
                "aliasList": [
                    "5301"
                ],
                "actionId": 257,
                "JHEPJOMJJHH": 740051227,
                "OCILKFCPBNC": 0.5
            },
            {
                "$type": "CENEPJCONAG",
                "type": "BODY_LANG",
                "aliasList": [
                    "5301"
                ],
                "actionId": 270,
                "OGFPAIKLDGB": 1230,
                "MHDCNDAINCK": true,
                "LHIAJOBFNAK": false,
                "GJGPNLJEIFP": true,
                "FOEKGLEJBIJ": ""
            }
        ],
        [
            {
                "$type": "PBIGHFCHGCA",
                "type": "CAMERA_MOVE",
                "duration": 0.5,
                "actionId": 273,
                "KCFKJMMEECM": {
                    "x": 2698.297119140625,
                    "y": 223.4409942626953,
                    "z": 4988.97509765625
                },
                "DLGJEHNPMFN": {
                    "x": 2699.10693359375,
                    "y": 223.79400634765625,
                    "z": 4988.5068359375
                },
                "NJCBGNHGINI": 25.0,
                "FNMFGIOLKBE": 6,
                "NECGMADJICG": "EaseInOutCubic",
                "BMHIHPIKAHM": {},
                "MMJMMAEAJOA": true,
                "DNFHBDHNHKE": 359.7569885253906,
                "HGGPLEMCNNG": false,
                "JBODIEHINII": "",
                "PHDIKPKLFIA": true,
                "EJCHLMIMLBO": "",
                "BIMPIKMCIHB": "",
                "MCAOJPLIJGI": ""
            },
            {
                "$type": "KAGAFALAIGP",
                "type": "DIALOG",
                "aliasList": [
                    "1005"
                ],
                "actionId": 158,
                "JHEPJOMJJHH": 740051228,
                "OCILKFCPBNC": 0.5
            },
            {
                "$type": "CENEPJCONAG",
                "type": "BODY_LANG",
                "aliasList": [
                    "5301"
                ],
                "actionId": 278,
                "NNKEOHJCPOF": true,
                "MHDCNDAINCK": true,
                "LHIAJOBFNAK": false,
                "GJGPNLJEIFP": true,
                "FOEKGLEJBIJ": ""
            },
            {
                "$type": "PBIGHFCHGCA",
                "type": "CAMERA_MOVE",
                "delayTime": 0.10000000149011612,
                "duration": 10.0,
                "actionId": 274,
                "KCFKJMMEECM": {
                    "x": 2699.1201171875,
                    "y": 223.8070068359375,
                    "z": 4988.48876953125
                },
                "DLGJEHNPMFN": {
                    "x": 2699.929931640625,
                    "y": 224.16000366210938,
                    "z": 4988.02099609375
                },
                "NJCBGNHGINI": 25.0,
                "NECGMADJICG": "EaseOutQuad",
                "BMHIHPIKAHM": {},
                "MMJMMAEAJOA": true,
                "DNFHBDHNHKE": 359.7569885253906,
                "HGGPLEMCNNG": false,
                "JBODIEHINII": "",
                "PHDIKPKLFIA": true,
                "EJCHLMIMLBO": "",
                "BIMPIKMCIHB": "",
                "MCAOJPLIJGI": ""
            }
        ],
        [
            {
                "$type": "PBIGHFCHGCA",
                "type": "CAMERA_MOVE",
                "duration": 0.5,
                "actionId": 275,
                "KCFKJMMEECM": {
                    "x": 2695.59912109375,
                    "y": 221.17100524902344,
                    "z": 4991.6728515625
                },
                "DLGJEHNPMFN": {
                    "x": 2696.239013671875,
                    "y": 221.45599365234375,
                    "z": 4990.9599609375
                },
                "NJCBGNHGINI": 25.0,
                "FNMFGIOLKBE": 6,
                "NECGMADJICG": "EaseInOutCubic",
                "BMHIHPIKAHM": {},
                "MMJMMAEAJOA": true,
                "DNFHBDHNHKE": 359.76300048828125,
                "HGGPLEMCNNG": false,
                "JBODIEHINII": "",
                "PHDIKPKLFIA": true,
                "EJCHLMIMLBO": "",
                "BIMPIKMCIHB": "",
                "MCAOJPLIJGI": ""
            },
            {
                "$type": "KAGAFALAIGP",
                "type": "DIALOG",
                "aliasList": [
                    "5301"
                ],
                "actionId": 160,
                "JHEPJOMJJHH": 740051229,
                "OCILKFCPBNC": 1.5989999771118164
            },
            {
                "$type": "NFDDGDIKEAG",
                "type": "STEER_TO",
                "duration": 1.0,
                "aliasList": [
                    "5301"
                ],
                "actionId": 277,
                "flag": 32,
                "GGJHILELIMO": "ABSOLUTE",
                "GPODKINFLFH": {
                    "x": 2723.969970703125,
                    "y": 214.7519989013672,
                    "z": 4963.9189453125
                },
                "PKKKHNGDEEE": true,
                "LGDIOPOBMPH": true,
                "NBNJEKMFIDE": true,
                "JBODIEHINII": "",
                "DMPFMDNFEHA": true,
                "OJJKHFPNNKJ": true,
                "NNFPFPOJJOJ": ""
            },
            {
                "$type": "PBIGHFCHGCA",
                "type": "CAMERA_MOVE",
                "delayTime": 0.10000000149011612,
                "duration": 11.795000076293945,
                "actionId": 280,
                "KCFKJMMEECM": {
                    "x": 2695.75390625,
                    "y": 221.16600036621094,
                    "z": 4991.81103515625
                },
                "DLGJEHNPMFN": {
                    "x": 2696.39404296875,
                    "y": 221.4510040283203,
                    "z": 4991.09716796875
                },
                "NJCBGNHGINI": 25.0,
                "NECGMADJICG": "EaseOutQuad",
                "BMHIHPIKAHM": {},
                "MMJMMAEAJOA": true,
                "DNFHBDHNHKE": 359.76300048828125,
                "HGGPLEMCNNG": false,
                "JBODIEHINII": "",
                "PHDIKPKLFIA": true,
                "EJCHLMIMLBO": "",
                "BIMPIKMCIHB": "",
                "MCAOJPLIJGI": ""
            },
            {
                "$type": "CENEPJCONAG",
                "type": "BODY_LANG",
                "delayTime": 1.190999984741211,
                "aliasList": [
                    "5301"
                ],
                "actionId": 279,
                "OGFPAIKLDGB": 1171,
                "MHDCNDAINCK": true,
                "LHIAJOBFNAK": false,
                "GJGPNLJEIFP": true,
                "FOEKGLEJBIJ": ""
            }
        ],
        [
            {
                "$type": "PBIGHFCHGCA",
                "type": "CAMERA_MOVE",
                "duration": 0.5,
                "actionId": 281,
                "KCFKJMMEECM": {
                    "x": 2702.095947265625,
                    "y": 223.43800354003906,
                    "z": 4987.7138671875
                },
                "DLGJEHNPMFN": {
                    "x": 2701.123046875,
                    "y": 223.20700073242188,
                    "z": 4987.7158203125
                },
                "NJCBGNHGINI": 20.0,
                "FNMFGIOLKBE": 6,
                "NECGMADJICG": "EaseInOutCubic",
                "BMHIHPIKAHM": {},
                "MMJMMAEAJOA": true,
                "DNFHBDHNHKE": 359.7659912109375,
                "HGGPLEMCNNG": false,
                "JBODIEHINII": "",
                "PHDIKPKLFIA": true,
                "EJCHLMIMLBO": "",
                "BIMPIKMCIHB": "",
                "MCAOJPLIJGI": ""
            },
            {
                "$type": "KAGAFALAIGP",
                "type": "DIALOG",
                "aliasList": [
                    "1005"
                ],
                "actionId": 162,
                "JHEPJOMJJHH": 740051230,
                "OCILKFCPBNC": 0.5
            },
            {
                "$type": "CENEPJCONAG",
                "type": "BODY_LANG",
                "aliasList": [
                    "1005"
                ],
                "actionId": 282,
                "OGFPAIKLDGB": 1270,
                "MHDCNDAINCK": true,
                "LHIAJOBFNAK": false,
                "GJGPNLJEIFP": true,
                "FOEKGLEJBIJ": ""
            },
            {
                "$type": "CENEPJCONAG",
                "type": "BODY_LANG",
                "delayTime": 2.302999973297119,
                "aliasList": [
                    "1005"
                ],
                "actionId": 283,
                "OGFPAIKLDGB": 1170,
                "MHDCNDAINCK": true,
                "LHIAJOBFNAK": false,
                "GJGPNLJEIFP": true,
                "FOEKGLEJBIJ": ""
            },
            {
                "$type": "CENEPJCONAG",
                "type": "BODY_LANG",
                "delayTime": 3.313999891281128,
                "aliasList": [
                    "AvatarNpc"
                ],
                "actionId": 285,
                "OGFPAIKLDGB": 4031,
                "MHDCNDAINCK": true,
                "LHIAJOBFNAK": false,
                "GJGPNLJEIFP": true,
                "FOEKGLEJBIJ": ""
            },
            {
                "$type": "CENEPJCONAG",
                "type": "BODY_LANG",
                "delayTime": 4.567999839782715,
                "aliasList": [
                    "1005"
                ],
                "actionId": 284,
                "NNKEOHJCPOF": true,
                "MHDCNDAINCK": true,
                "LHIAJOBFNAK": false,
                "GJGPNLJEIFP": true,
                "FOEKGLEJBIJ": ""
            }
        ],
        [
            {
                "$type": "MoleMole.Config.ConfigTimeProtectAction",
                "type": "TIME_PROTECT",
                "duration": 0.10000000149011612,
                "actionId": 105
            },
            {
                "$type": "MoleMole.Config.ConfigSimpleBlackScreenAction",
                "type": "SIMPLE_BLACK_SCREEN",
                "actionId": 163,
                "durationToBlack": 0.5,
                "durationKeepBlack": 1.5,
                "durationFromBlack": 0.5,
                "textMapID": ""
            },
            {
                "$type": "MoleMole.Config.ConfigTimeProtectAction",
                "type": "TIME_PROTECT",
                "duration": 0.699999988079071,
                "actionId": 164
            },
            {
                "$type": "PBIGHFCHGCA",
                "type": "CAMERA_MOVE",
                "delayTime": 0.5,
                "duration": 0.10000000149011612,
                "actionId": 171,
                "CGCNCKNJOFB": "EXIT",
                "DLGJEHNPMFN": {
                    "z": 1.0
                },
                "NJCBGNHGINI": 30.0,
                "FNMFGIOLKBE": 5,
                "NECGMADJICG": "EaseInOutCubic",
                "BMHIHPIKAHM": {},
                "HGGPLEMCNNG": false,
                "JBODIEHINII": "",
                "PHDIKPKLFIA": true,
                "EJCHLMIMLBO": "",
                "BIMPIKMCIHB": "",
                "MCAOJPLIJGI": ""
            },
            {
                "$type": "MoleMole.Config.ConfigVisibleInterAction",
                "type": "VISIBLE",
                "delayTime": 0.6000000238418579,
                "aliasList": [
                    "Avatar"
                ],
                "actionId": 177,
                "isVisible": true,
                "extraParam": ""
            },
            {
                "$type": "CENEPJCONAG",
                "type": "BODY_LANG",
                "delayTime": 0.6000000238418579,
                "aliasList": [
                    "AvatarNpc"
                ],
                "actionId": 176,
                "NNKEOHJCPOF": true,
                "MHDCNDAINCK": true,
                "LHIAJOBFNAK": false,
                "FOEKGLEJBIJ": ""
            },
            {
                "$type": "CENEPJCONAG",
                "type": "BODY_LANG",
                "delayTime": 0.6000000238418579,
                "aliasList": [
                    "1005"
                ],
                "actionId": 166,
                "NNKEOHJCPOF": true,
                "MHDCNDAINCK": true,
                "LHIAJOBFNAK": false,
                "FOEKGLEJBIJ": ""
            },
            {
                "$type": "CENEPJCONAG",
                "type": "BODY_LANG",
                "delayTime": 0.6000000238418579,
                "aliasList": [
                    "5301"
                ],
                "actionId": 168,
                "NNKEOHJCPOF": true,
                "MHDCNDAINCK": true,
                "LHIAJOBFNAK": false,
                "FOEKGLEJBIJ": ""
            }
        ]
    ],
    "groupId": [
        {
            "grpId": 2915416053,
            "nextGrpId": 2915416054
        },
        {
            "index": 1,
            "grpId": 2915416054,
            "nextGrpId": 2915416055
        },
        {
            "index": 2,
            "grpId": 2915416055,
            "nextGrpId": 2915416056
        },
        {
            "index": 3,
            "grpId": 2915416056,
            "nextGrpId": 2915416057
        },
        {
            "index": 4,
            "grpId": 2915416057,
            "nextGrpId": 2915416058
        },
        {
            "index": 5,
            "grpId": 2915416058,
            "nextGrpId": 2915416059
        },
        {
            "index": 6,
            "grpId": 2915416059,
            "nextGrpId": 2915416060
        },
        {
            "index": 7,
            "grpId": 2915416060,
            "nextGrpId": 2915416061
        },
        {
            "index": 8,
            "grpId": 2915416061,
            "nextGrpId": 183584475
        },
        {
            "index": 9,
            "grpId": 183584475,
            "nextGrpId": 183584476
        },
        {
            "index": 10,
            "grpId": 183584476,
            "nextGrpId": 183584477
        },
        {
            "index": 11,
            "grpId": 183584477,
            "nextGrpId": 183584478
        },
        {
            "index": 12,
            "grpId": 183584478,
            "nextGrpId": 183584479
        },
        {
            "index": 13,
            "grpId": 183584479,
            "nextGrpId": 183584480
        },
        {
            "index": 14,
            "grpId": 183584480,
            "nextGrpId": 183584481
        },
        {
            "index": 15,
            "grpId": 183584481,
            "nextGrpId": 183584482
        },
        {
            "index": 16,
            "grpId": 183584482,
            "nextGrpId": 183584483
        },
        {
            "index": 17,
            "grpId": 183584483,
            "nextGrpId": 183584484
        },
        {
            "index": 18,
            "grpId": 183584484,
            "nextGrpId": 183584506
        },
        {
            "index": 19,
            "grpId": 183584506,
            "nextGrpId": 183584507
        },
        {
            "index": 20,
            "grpId": 183584507,
            "nextGrpId": 183584508
        },
        {
            "index": 21,
            "grpId": 183584508,
            "nextGrpId": 183584509
        },
        {
            "index": 22,
            "grpId": 183584509,
            "nextGrpId": 183584510
        },
        {
            "index": 23,
            "grpId": 183584510,
            "nextGrpId": 183584511
        }
    ],
    "freeStyleDic": {
        "1025": [
            4030,
            4031
        ],
        "1026": [
            4030,
            4031
        ],
        "5301": [
            1171,
            4030,
            1190,
            1060,
            1172,
            4040,
            1230
        ]
    },
    "EGOADMBCKDB": {
        "AvatarNpc": [
            "SitChat01AS",
            "SitHoldArm01AS",
            "SitShrug01AS",
            "SitThink01AS"
        ]
    }
}