{
    "luaDataPath": "",
    "startBlackKeepTime": 0.5,
    "entityBan": "",
    "disableNpcLod": true,
    "BHNKJKDADLC": true,
    "JJFIGGKCCCF": true,
    "EKDGNGHMECG": true,
    "FHIPBIIGHDJ": [
        {
            "isBlack": true,
            "entityType": "NPC",
            "entityIds": [
                5102,
                5111,
                5115,
                5117,
                5119,
                5118,
                5106,
                5107
            ]
        }
    ],
    "GMFELEKFHNC": 5,
    "startFade": {
        "startFadeInDuration": 0.5,
        "startFadeOutDuration": 0.5
    },
    "endFade": {
        "startFadeOutDuration": 0.0
    },
    "actors": [
        {
            "alias": "Avatar",
            "visible": true,
            "bornPointName": "[3_340200004:3459.602,492.011,3672.352,0.000,180.000,0.000]",
            "relativePosType": "AVATAR_NEW",
            "relativePosNpcAlias": "",
            "bindMovingTargetKey": ""
        },
        {
            "alias": "AvatarNpc",
            "visible": true,
            "bornPointName": "[3_340200004:3459.602,492.011,3672.352,0.000,180.000,0.000]",
            "removeActorType": "NEW_REMOVE",
            "relativePosType": "AVATAR_NEW",
            "relativePosNpcAlias": "",
            "bindMovingTargetKey": ""
        },
        {
            "configID": 13314,
            "alias": "13314",
            "visible": true,
            "bornPointName": "[3_4327:3458.836,492.000,3666.871]",
            "relativePosType": "AVATAR_NEW",
            "relativePosNpcAlias": "",
            "bindMovingTargetKey": ""
        }
    ],
    "group": [
        [
            {
                "$type": "MoleMole.Config.ConfigTimeProtectAction",
                "type": "TIME_PROTECT",
                "duration": 2.200000047683716,
                "actionId": 104
            },
            {
                "$type": "MoleMole.Config.ConfigBlackScreenAction",
                "type": "BLACK_SCREEN",
                "duration": 2.200000047683716,
                "actionId": 162,
                "blackScreenType": "KEEP_BLACK",
                "durationToBlack": 0.5,
                "durationKeepBlack": 2.200000047683716,
                "durationFromBlack": 0.5,
                "inteePos": "",
                "textMapID": "",
                "useTextFade": true
            },
            {
                "$type": "MoleMole.Config.ConfigSimpleUIShowInterAction",
                "type": "SIMPLE_UI_SHOW",
                "actionId": 185,
                "contextName": "BlinkDialog",
                "param": ""
            },
            {
                "$type": "PBIGHFCHGCA",
                "type": "CAMERA_MOVE",
                "duration": 0.5,
                "actionId": 189,
                "KCFKJMMEECM": {
                    "x": 3459.697998046875,
                    "y": 492.0610046386719,
                    "z": 3673.044921875
                },
                "DLGJEHNPMFN": {
                    "x": 3459.68310546875,
                    "y": 491.31298828125,
                    "z": 3672.382080078125
                },
                "NJCBGNHGINI": 25.0,
                "FNMFGIOLKBE": 6,
                "NECGMADJICG": "EaseInOutCubic",
                "BMHIHPIKAHM": {},
                "MMJMMAEAJOA": true,
                "HGGPLEMCNNG": false,
                "JBODIEHINII": "",
                "PHDIKPKLFIA": true,
                "EJCHLMIMLBO": "",
                "BIMPIKMCIHB": "",
                "MCAOJPLIJGI": ""
            },
            {
                "$type": "MoleMole.Config.ConfigCameraDOFAction",
                "type": "CAMERA_DOF",
                "duration": 0.10000000149011612,
                "actionId": 306,
                "enabled": true,
                "focusDistance": 5.0,
                "focusRange": 10.0,
                "nearFocalDistance": 1.0,
                "nearFocalTransDistance": 1.0,
                "dofBlurAmount": 1.0,
                "quality": 3
            },
            {
                "$type": "MoleMole.Config.ConfigSitOrStandAction",
                "type": "SIT_OR_STAND",
                "aliasList": [
                    "Avatar"
                ],
                "actionId": 175,
                "banResetFreestyle": true
            },
            {
                "$type": "MoleMole.Config.ConfigVisibleInterAction",
                "type": "VISIBLE",
                "aliasList": [
                    "Avatar"
                ],
                "actionId": 181,
                "extraParam": ""
            },
            {
                "$type": "MoleMole.Config.ConfigTeleportToAction",
                "type": "TELEPORT_TO",
                "aliasList": [
                    "Avatar"
                ],
                "actionId": 279,
                "position": {
                    "x": 3459.60205078125,
                    "y": 490.7239990234375,
                    "z": 3672.35205078125
                },
                "forward": {
                    "y": -0.0020000000949949026,
                    "z": -1.0
                },
                "openLongDisTeleport": true,
                "posBindMovingTargetKey": "",
                "forwardBindMovingTargetKey": ""
            },
            {
                "$type": "MoleMole.Config.ConfigPlayerNPCEnergyTypeAction",
                "type": "SET_PLAYER_NPC_ENERGY_TYPE",
                "aliasList": [
                    "AvatarNpc"
                ],
                "actionId": 176,
                "setHeroEngergyType": true
            },
            {
                "$type": "CENEPJCONAG",
                "type": "BODY_LANG",
                "aliasList": [
                    "AvatarNpc"
                ],
                "actionId": 177,
                "NNKEOHJCPOF": true,
                "MHDCNDAINCK": true,
                "LHIAJOBFNAK": false,
                "FOEKGLEJBIJ": ""
            },
            {
                "$type": "MoleMole.Config.ConfigTeleportToAction",
                "type": "TELEPORT_TO",
                "aliasList": [
                    "AvatarNpc"
                ],
                "actionId": 190,
                "position": {
                    "x": 3459.60205078125,
                    "y": 490.7239990234375,
                    "z": 3672.35205078125
                },
                "forward": {
                    "y": -0.0020000000949949026,
                    "z": -1.0
                },
                "openLongDisTeleport": true,
                "posBindMovingTargetKey": "",
                "forwardBindMovingTargetKey": ""
            },
            {
                "$type": "MoleMole.Config.ConfigVisibleInterAction",
                "type": "VISIBLE",
                "aliasList": [
                    "AvatarNpc"
                ],
                "actionId": 192,
                "extraParam": ""
            },
            {
                "$type": "MoleMole.Config.ConfigTeleportToAction",
                "type": "TELEPORT_TO",
                "aliasList": [
                    "13314"
                ],
                "actionId": 191,
                "position": {
                    "x": 3459.611083984375,
                    "y": 490.7130126953125,
                    "z": 3669.4189453125
                },
                "forward": {
                    "x": 0.18199999630451202,
                    "y": 0.014999999664723873,
                    "z": -1.7920000553131104
                },
                "openLongDisTeleport": true,
                "posBindMovingTargetKey": "",
                "forwardBindMovingTargetKey": ""
            },
            {
                "$type": "CENEPJCONAG",
                "type": "BODY_LANG",
                "aliasList": [
                    "13314"
                ],
                "actionId": 214,
                "NNKEOHJCPOF": true,
                "MHDCNDAINCK": true,
                "LHIAJOBFNAK": false,
                "GJGPNLJEIFP": true,
                "FOEKGLEJBIJ": ""
            },
            {
                "$type": "MoleMole.Config.ConfigPlayUIEffectAction",
                "type": "PLAY_UI_EFFECT",
                "delayTime": 0.5,
                "actionId": 182,
                "uiCameraEffectPath": "",
                "mainCameraEffectPath": "ART/Effect/SceneInteractive/Stages/Eff_SceneObj_Fd_MS_SlushaMovingShell_01",
                "mainCameraEffectCreateOption": {},
                "uiCameraEffectCreateOption": {}
            }
        ],
        [
            {
                "$type": "MoleMole.Config.ConfigBlackScreenAction",
                "type": "BLACK_SCREEN",
                "duration": 0.5,
                "actionId": 187,
                "blackScreenType": "FROM_BLACK",
                "durationToBlack": 0.5,
                "durationKeepBlack": 0.5,
                "durationFromBlack": 0.5,
                "inteePos": "",
                "textMapID": "",
                "useTextFade": true
            },
            {
                "$type": "MoleMole.Config.ConfigTimeProtectAction",
                "type": "TIME_PROTECT",
                "duration": 3.0,
                "actionId": 194
            },
            {
                "$type": "PBIGHFCHGCA",
                "type": "CAMERA_MOVE",
                "duration": 3.0,
                "actionId": 195,
                "KCFKJMMEECM": {
                    "x": 3459.698974609375,
                    "y": 492.0459899902344,
                    "z": 3673.4951171875
                },
                "DLGJEHNPMFN": {
                    "x": 3459.694091796875,
                    "y": 491.97100830078125,
                    "z": 3672.498046875
                },
                "NJCBGNHGINI": 25.0,
                "BMHIHPIKAHM": {},
                "MMJMMAEAJOA": true,
                "HGGPLEMCNNG": false,
                "JBODIEHINII": "",
                "PHDIKPKLFIA": true,
                "EJCHLMIMLBO": "",
                "BIMPIKMCIHB": "",
                "MCAOJPLIJGI": ""
            },
            {
                "$type": "MoleMole.Config.ConfigCameraDOFAction",
                "type": "CAMERA_DOF",
                "duration": 0.10000000149011612,
                "actionId": 305,
                "focusDistance": 5.0,
                "focusRange": 10.0,
                "nearFocalDistance": 1.0,
                "nearFocalTransDistance": 1.0,
                "dofBlurAmount": 1.0,
                "quality": 3
            },
            {
                "$type": "LNLLGCOBDFC",
                "type": "EMO_SYNC",
                "aliasList": [
                    "AvatarNpc"
                ],
                "actionId": 199,
                "flag": 320,
                "LKHHGAGNMKM": "",
                "AIMKGPFAAAD": "Cs_Emo_Avatar_Common/Cs_Emo_Avatar_Angry01",
                "IPEKOEDCGGF": "Cs_Emo_Avatar_Common/Cs_Emo_Avatar_Doubt01_B",
                "EJNFMNJKDAH": "",
                "LOOOCOLIHFA": "",
                "KJDLMAPPPMG": "",
                "IMIEGJDNPNN": [
                    14296606849723709100,
                    5508348580450379567,
                    7627497203169383327,
                    8979581647593659876
                ],
                "KIJHIMADJGM": [
                    2728448682492692904,
                    1898638695637929735,
                    6744657920390554177,
                    3457791262489437525
                ]
            },
            {
                "$type": "FNPNDPFBBDD",
                "type": "LOOK_AT",
                "aliasList": [
                    "AvatarNpc"
                ],
                "actionId": 200,
                "flag": 64,
                "NKGFDJDHOBD": true,
                "useTargetPos": true,
                "LBJHJADMNBD": true,
                "EKIONHAEIBG": {
                    "x": 3459.611083984375,
                    "y": 491.61199951171875,
                    "z": 3669.4189453125
                },
                "MNOPLOBEFLB": 0.5,
                "JBODIEHINII": "13314",
                "CFPBIOLLOCO": "NONE",
                "MDNPCOHCCLM": true,
                "CAJDMFBMGNG": 60.0,
                "LPCACGGCDLI": "",
                "NNFPFPOJJOJ": ""
            }
        ],
        [
            {
                "$type": "PBIGHFCHGCA",
                "type": "CAMERA_MOVE",
                "duration": 0.5,
                "actionId": 201,
                "KCFKJMMEECM": {
                    "x": 3460.72705078125,
                    "y": 493.0719909667969,
                    "z": 3668.01806640625
                },
                "DLGJEHNPMFN": {
                    "x": 3460.35205078125,
                    "y": 492.7799987792969,
                    "z": 3668.89697265625
                },
                "NJCBGNHGINI": 25.0,
                "FNMFGIOLKBE": 6,
                "NECGMADJICG": "EaseInOutCubic",
                "BMHIHPIKAHM": {},
                "MMJMMAEAJOA": true,
                "HGGPLEMCNNG": false,
                "JBODIEHINII": "",
                "PHDIKPKLFIA": true,
                "EJCHLMIMLBO": "",
                "BIMPIKMCIHB": "",
                "MCAOJPLIJGI": ""
            },
            {
                "$type": "MoleMole.Config.ConfigVisibleInterAction",
                "type": "VISIBLE",
                "aliasList": [
                    "AvatarNpc"
                ],
                "actionId": 193,
                "isVisible": true,
                "extraParam": ""
            },
            {
                "$type": "KAGAFALAIGP",
                "type": "DIALOG",
                "aliasList": [
                    "13314"
                ],
                "actionId": 107,
                "JHEPJOMJJHH": 40000301,
                "OCILKFCPBNC": 0.5
            },
            {
                "$type": "LNLLGCOBDFC",
                "type": "EMO_SYNC",
                "aliasList": [
                    "13314"
                ],
                "actionId": 258,
                "flag": 256,
                "LKHHGAGNMKM": "Cs_Emo_Avatar_Simple_Common_Set/Cs_Emo_Avatar_Talk/Cs_Emo_Avatar_MainLine/Cs_Emo_Avatar_Fontaine/Cs_Emo_40000301",
                "AIMKGPFAAAD": "",
                "IPEKOEDCGGF": "",
                "EJNFMNJKDAH": "",
                "LOOOCOLIHFA": "",
                "KJDLMAPPPMG": "",
                "EKJHPKFBONG": [
                    9065184407163145917,
                    5976672723978131587,
                    16312299994284374637,
                    4570098720682670409
                ]
            },
            {
                "$type": "PBIGHFCHGCA",
                "type": "CAMERA_MOVE",
                "delayTime": 0.10000000149011612,
                "duration": 3.0,
                "actionId": 197,
                "KCFKJMMEECM": {
                    "x": 3460.573974609375,
                    "y": 493.0669860839844,
                    "z": 3667.950927734375
                },
                "DLGJEHNPMFN": {
                    "x": 3460.198974609375,
                    "y": 492.77398681640625,
                    "z": 3668.830078125
                },
                "NJCBGNHGINI": 25.0,
                "NECGMADJICG": "EaseOutQuad",
                "BMHIHPIKAHM": {},
                "MMJMMAEAJOA": true,
                "HGGPLEMCNNG": false,
                "JBODIEHINII": "",
                "PHDIKPKLFIA": true,
                "EJCHLMIMLBO": "",
                "BIMPIKMCIHB": "",
                "MCAOJPLIJGI": ""
            },
            {
                "$type": "AAFOOOPNJLB",
                "type": "DIALOG_SELECT",
                "delayTime": 0.4000000059604645,
                "aliasList": [
                    "AvatarNpc"
                ],
                "actionId": 165,
                "KFAEOBDAAME": [
                    40000302,
                    40000303
                ],
                "ELPFMMBHOLF": [
                    639911020,
                    639911020
                ],
                "OEAAKJDIEFD": true,
                "ONFBGDHPCEO": 639911016
            },
            {
                "$type": "LNLLGCOBDFC",
                "type": "EMO_SYNC",
                "delayTime": 0.4000000059604645,
                "aliasList": [
                    "AvatarNpc"
                ],
                "actionId": 281,
                "flag": 320,
                "LKHHGAGNMKM": "",
                "AIMKGPFAAAD": "Cs_Emo_Avatar_Common/Cs_Emo_Avatar_Normal01",
                "IPEKOEDCGGF": "Cs_Emo_Avatar_Common/Cs_Emo_Avatar_Default01_B",
                "EJNFMNJKDAH": "",
                "LOOOCOLIHFA": "",
                "KJDLMAPPPMG": "",
                "IMIEGJDNPNN": [
                    9445916536337636767,
                    14128686126614747219,
                    10779105391569104182,
                    11659242061757756269
                ],
                "KIJHIMADJGM": [
                    12199605016063642592,
                    6659610500948409138,
                    10783156204328777859,
                    13383650154785247612
                ]
            },
            {
                "$type": "FNPNDPFBBDD",
                "type": "LOOK_AT",
                "delayTime": 0.4000000059604645,
                "aliasList": [
                    "AvatarNpc"
                ],
                "actionId": 282,
                "flag": 64,
                "NKGFDJDHOBD": true,
                "useTargetPos": true,
                "LBJHJADMNBD": true,
                "EKIONHAEIBG": {
                    "x": 3459.611083984375,
                    "y": 492.94000244140625,
                    "z": 3669.4189453125
                },
                "MNOPLOBEFLB": 0.699999988079071,
                "JBODIEHINII": "13314",
                "CFPBIOLLOCO": "NONE",
                "MDNPCOHCCLM": true,
                "CAJDMFBMGNG": 60.0,
                "LPCACGGCDLI": "",
                "NNFPFPOJJOJ": ""
            }
        ],
        [
            {
                "$type": "KAGAFALAIGP",
                "type": "DIALOG",
                "aliasList": [
                    "13314"
                ],
                "actionId": 110,
                "JHEPJOMJJHH": 40000304,
                "OCILKFCPBNC": 2.1760001182556152
            },
            {
                "$type": "NFDDGDIKEAG",
                "type": "STEER_TO",
                "duration": 0.800000011920929,
                "aliasList": [
                    "13314"
                ],
                "actionId": 215,
                "flag": 32,
                "GGJHILELIMO": "ABSOLUTE",
                "GPODKINFLFH": {
                    "x": 3459.64111328125,
                    "y": 490.7239990234375,
                    "z": 3670.4189453125
                },
                "PKKKHNGDEEE": true,
                "LGDIOPOBMPH": true,
                "NBNJEKMFIDE": true,
                "JBODIEHINII": "",
                "DMPFMDNFEHA": true,
                "OJJKHFPNNKJ": true,
                "NNFPFPOJJOJ": ""
            },
            {
                "$type": "LNLLGCOBDFC",
                "type": "EMO_SYNC",
                "aliasList": [
                    "13314"
                ],
                "actionId": 259,
                "flag": 256,
                "LKHHGAGNMKM": "Cs_Emo_Avatar_Simple_Common_Set/Cs_Emo_Avatar_Talk/Cs_Emo_Avatar_MainLine/Cs_Emo_Avatar_Fontaine/Cs_Emo_40000304",
                "AIMKGPFAAAD": "",
                "IPEKOEDCGGF": "",
                "EJNFMNJKDAH": "",
                "LOOOCOLIHFA": "",
                "KJDLMAPPPMG": "",
                "EKJHPKFBONG": [
                    15168163034894724574,
                    6611648952342673742,
                    13887747308487464876,
                    6407076486876765366
                ]
            },
            {
                "$type": "PBIGHFCHGCA",
                "type": "CAMERA_MOVE",
                "delayTime": 0.5,
                "duration": 0.5,
                "actionId": 212,
                "KCFKJMMEECM": {
                    "x": 3461.0029296875,
                    "y": 492.2179870605469,
                    "z": 3671.51904296875
                },
                "DLGJEHNPMFN": {
                    "x": 3460.407958984375,
                    "y": 492.3139953613281,
                    "z": 3670.721923828125
                },
                "NJCBGNHGINI": 25.0,
                "FNMFGIOLKBE": 6,
                "NECGMADJICG": "EaseInOutCubic",
                "BMHIHPIKAHM": {},
                "MMJMMAEAJOA": true,
                "HGGPLEMCNNG": false,
                "JBODIEHINII": "",
                "PHDIKPKLFIA": true,
                "EJCHLMIMLBO": "",
                "BIMPIKMCIHB": "",
                "MCAOJPLIJGI": ""
            }
        ],
        [
            {
                "$type": "KAGAFALAIGP",
                "type": "DIALOG",
                "aliasList": [
                    "13314"
                ],
                "actionId": 112,
                "JHEPJOMJJHH": 40000305,
                "OCILKFCPBNC": 2.0
            },
            {
                "$type": "CENEPJCONAG",
                "type": "BODY_LANG",
                "aliasList": [
                    "13314"
                ],
                "actionId": 218,
                "OGFPAIKLDGB": 4,
                "MHDCNDAINCK": true,
                "LHIAJOBFNAK": false,
                "GJGPNLJEIFP": true,
                "FOEKGLEJBIJ": ""
            },
            {
                "$type": "LNLLGCOBDFC",
                "type": "EMO_SYNC",
                "aliasList": [
                    "13314"
                ],
                "actionId": 260,
                "flag": 256,
                "LKHHGAGNMKM": "Cs_Emo_Avatar_Simple_Common_Set/Cs_Emo_Avatar_Talk/Cs_Emo_Avatar_MainLine/Cs_Emo_Avatar_Fontaine/Cs_Emo_40000305",
                "AIMKGPFAAAD": "",
                "IPEKOEDCGGF": "",
                "EJNFMNJKDAH": "",
                "LOOOCOLIHFA": "",
                "KJDLMAPPPMG": "",
                "EKJHPKFBONG": [
                    5898798488129069762,
                    16657137578052168257,
                    9706152484287183941,
                    17342825633507382078
                ]
            },
            {
                "$type": "PBIGHFCHGCA",
                "type": "CAMERA_MOVE",
                "delayTime": 2.0,
                "duration": 0.5,
                "actionId": 207,
                "KCFKJMMEECM": {
                    "x": 3460.458984375,
                    "y": 493.02099609375,
                    "z": 3668.18310546875
                },
                "DLGJEHNPMFN": {
                    "x": 3460.1259765625,
                    "y": 492.7340087890625,
                    "z": 3669.0810546875
                },
                "NJCBGNHGINI": 25.0,
                "FNMFGIOLKBE": 6,
                "NECGMADJICG": "EaseInOutCubic",
                "BMHIHPIKAHM": {},
                "MMJMMAEAJOA": true,
                "HGGPLEMCNNG": false,
                "JBODIEHINII": "",
                "PHDIKPKLFIA": true,
                "EJCHLMIMLBO": "",
                "BIMPIKMCIHB": "",
                "MCAOJPLIJGI": ""
            },
            {
                "$type": "AAFOOOPNJLB",
                "type": "DIALOG_SELECT",
                "delayTime": 2.0,
                "aliasList": [
                    "AvatarNpc"
                ],
                "actionId": 166,
                "KFAEOBDAAME": [
                    40000306,
                    40000307
                ],
                "ELPFMMBHOLF": [
                    639911022,
                    639911022
                ],
                "OEAAKJDIEFD": true,
                "ONFBGDHPCEO": 639911016
            },
            {
                "$type": "CENEPJCONAG",
                "type": "BODY_LANG",
                "delayTime": 2.0,
                "aliasList": [
                    "AvatarNpc"
                ],
                "actionId": 219,
                "OGFPAIKLDGB": 1130,
                "MHDCNDAINCK": true,
                "LHIAJOBFNAK": false,
                "GJGPNLJEIFP": true,
                "FOEKGLEJBIJ": ""
            }
        ],
        [
            {
                "$type": "PBIGHFCHGCA",
                "type": "CAMERA_MOVE",
                "duration": 0.5,
                "actionId": 216,
                "KCFKJMMEECM": {
                    "x": 3460.156005859375,
                    "y": 492.01300048828125,
                    "z": 3673.35791015625
                },
                "DLGJEHNPMFN": {
                    "x": 3459.887939453125,
                    "y": 492.093994140625,
                    "z": 3672.39794921875
                },
                "NJCBGNHGINI": 25.0,
                "FNMFGIOLKBE": 6,
                "NECGMADJICG": "EaseInOutCubic",
                "BMHIHPIKAHM": {},
                "MMJMMAEAJOA": true,
                "HGGPLEMCNNG": false,
                "JBODIEHINII": "",
                "PHDIKPKLFIA": true,
                "EJCHLMIMLBO": "",
                "BIMPIKMCIHB": "",
                "MCAOJPLIJGI": ""
            },
            {
                "$type": "CENEPJCONAG",
                "type": "BODY_LANG",
                "aliasList": [
                    "AvatarNpc"
                ],
                "actionId": 220,
                "NNKEOHJCPOF": true,
                "MHDCNDAINCK": true,
                "LHIAJOBFNAK": false,
                "GJGPNLJEIFP": true,
                "FOEKGLEJBIJ": ""
            },
            {
                "$type": "KAGAFALAIGP",
                "type": "DIALOG",
                "aliasList": [
                    "13314"
                ],
                "actionId": 115,
                "JHEPJOMJJHH": 40000308,
                "OCILKFCPBNC": 0.5
            },
            {
                "$type": "LNLLGCOBDFC",
                "type": "EMO_SYNC",
                "aliasList": [
                    "13314"
                ],
                "actionId": 261,
                "flag": 256,
                "LKHHGAGNMKM": "Cs_Emo_Avatar_Simple_Common_Set/Cs_Emo_Avatar_Talk/Cs_Emo_Avatar_MainLine/Cs_Emo_Avatar_Fontaine/Cs_Emo_40000308",
                "AIMKGPFAAAD": "",
                "IPEKOEDCGGF": "",
                "EJNFMNJKDAH": "",
                "LOOOCOLIHFA": "",
                "KJDLMAPPPMG": "",
                "EKJHPKFBONG": [
                    12673096673524845469,
                    62308461431839948,
                    2276235112456835481,
                    1329314371001454079
                ]
            }
        ],
        [
            {
                "$type": "KAGAFALAIGP",
                "type": "DIALOG",
                "aliasList": [
                    "13314"
                ],
                "actionId": 117,
                "JHEPJOMJJHH": 40000309,
                "OCILKFCPBNC": 0.5
            },
            {
                "$type": "CENEPJCONAG",
                "type": "BODY_LANG",
                "aliasList": [
                    "13314"
                ],
                "actionId": 247,
                "OGFPAIKLDGB": 5,
                "MHDCNDAINCK": true,
                "LHIAJOBFNAK": false,
                "GJGPNLJEIFP": true,
                "FOEKGLEJBIJ": ""
            },
            {
                "$type": "LNLLGCOBDFC",
                "type": "EMO_SYNC",
                "aliasList": [
                    "13314"
                ],
                "actionId": 262,
                "flag": 256,
                "LKHHGAGNMKM": "Cs_Emo_Avatar_Simple_Common_Set/Cs_Emo_Avatar_Talk/Cs_Emo_Avatar_MainLine/Cs_Emo_Avatar_Fontaine/Cs_Emo_40000309",
                "AIMKGPFAAAD": "",
                "IPEKOEDCGGF": "",
                "EJNFMNJKDAH": "",
                "LOOOCOLIHFA": "",
                "KJDLMAPPPMG": "",
                "EKJHPKFBONG": [
                    11097424657954676221,
                    824118165589079280,
                    14343488391711755054,
                    12957875391530389039
                ]
            }
        ],
        [
            {
                "$type": "KAGAFALAIGP",
                "type": "DIALOG",
                "aliasList": [
                    "13314"
                ],
                "actionId": 119,
                "JHEPJOMJJHH": 40000310,
                "OCILKFCPBNC": 2.5
            },
            {
                "$type": "CENEPJCONAG",
                "type": "BODY_LANG",
                "aliasList": [
                    "13314"
                ],
                "actionId": 248,
                "NNKEOHJCPOF": true,
                "MHDCNDAINCK": true,
                "LHIAJOBFNAK": false,
                "GJGPNLJEIFP": true,
                "FOEKGLEJBIJ": ""
            },
            {
                "$type": "LNLLGCOBDFC",
                "type": "EMO_SYNC",
                "aliasList": [
                    "13314"
                ],
                "actionId": 263,
                "flag": 256,
                "LKHHGAGNMKM": "Cs_Emo_Avatar_Simple_Common_Set/Cs_Emo_Avatar_Talk/Cs_Emo_Avatar_MainLine/Cs_Emo_Avatar_Fontaine/Cs_Emo_40000310",
                "AIMKGPFAAAD": "",
                "IPEKOEDCGGF": "",
                "EJNFMNJKDAH": "",
                "LOOOCOLIHFA": "",
                "KJDLMAPPPMG": "",
                "EKJHPKFBONG": [
                    7143278417255792673,
                    8832210003953372284,
                    17696295555534548578,
                    541042700112817810
                ]
            },
            {
                "$type": "PBIGHFCHGCA",
                "type": "CAMERA_MOVE",
                "delayTime": 2.5,
                "duration": 0.5,
                "actionId": 221,
                "KCFKJMMEECM": {
                    "x": 3460.06494140625,
                    "y": 492.39898681640625,
                    "z": 3670.819091796875
                },
                "DLGJEHNPMFN": {
                    "x": 3459.785888671875,
                    "y": 492.1929931640625,
                    "z": 3671.757080078125
                },
                "NJCBGNHGINI": 20.0,
                "FNMFGIOLKBE": 6,
                "NECGMADJICG": "EaseInOutCubic",
                "BMHIHPIKAHM": {},
                "MMJMMAEAJOA": true,
                "HGGPLEMCNNG": false,
                "JBODIEHINII": "",
                "PHDIKPKLFIA": true,
                "EJCHLMIMLBO": "",
                "BIMPIKMCIHB": "",
                "MCAOJPLIJGI": ""
            },
            {
                "$type": "AAFOOOPNJLB",
                "type": "DIALOG_SELECT",
                "delayTime": 2.5,
                "aliasList": [
                    "AvatarNpc"
                ],
                "actionId": 167,
                "KFAEOBDAAME": [
                    40000311,
                    40000312
                ],
                "ELPFMMBHOLF": [
                    639911025,
                    639911025
                ],
                "OEAAKJDIEFD": true,
                "ONFBGDHPCEO": 639911016
            },
            {
                "$type": "LNLLGCOBDFC",
                "type": "EMO_SYNC",
                "delayTime": 2.5,
                "aliasList": [
                    "AvatarNpc"
                ],
                "actionId": 222,
                "flag": 256,
                "LKHHGAGNMKM": "",
                "AIMKGPFAAAD": "Cs_Emo_Avatar_Common/Cs_Emo_Avatar_Angry01",
                "IPEKOEDCGGF": "Cs_Emo_Avatar_Common/Cs_Emo_Avatar_Surprise01_B",
                "EJNFMNJKDAH": "",
                "LOOOCOLIHFA": "",
                "KJDLMAPPPMG": "",
                "IMIEGJDNPNN": [
                    14296606849723709100,
                    5508348580450379567,
                    7627497203169383327,
                    8979581647593659876
                ],
                "KIJHIMADJGM": [
                    6153869480550727162,
                    9261362047431754885,
                    6726934536050703614,
                    7997694774031189167
                ]
            }
        ],
        [
            {
                "$type": "PBIGHFCHGCA",
                "type": "CAMERA_MOVE",
                "duration": 0.5,
                "actionId": 224,
                "KCFKJMMEECM": {
                    "x": 3461.375,
                    "y": 492.5060119628906,
                    "z": 3671.409912109375
                },
                "DLGJEHNPMFN": {
                    "x": 3460.694091796875,
                    "y": 492.5150146484375,
                    "z": 3670.677978515625
                },
                "NJCBGNHGINI": 20.0,
                "FNMFGIOLKBE": 6,
                "NECGMADJICG": "EaseInOutCubic",
                "BMHIHPIKAHM": {},
                "MMJMMAEAJOA": true,
                "HGGPLEMCNNG": false,
                "JBODIEHINII": "",
                "PHDIKPKLFIA": true,
                "EJCHLMIMLBO": "",
                "BIMPIKMCIHB": "",
                "MCAOJPLIJGI": ""
            },
            {
                "$type": "LNLLGCOBDFC",
                "type": "EMO_SYNC",
                "aliasList": [
                    "AvatarNpc"
                ],
                "actionId": 223,
                "flag": 320,
                "LKHHGAGNMKM": "",
                "AIMKGPFAAAD": "Cs_Emo_Avatar_Common/Cs_Emo_Avatar_Angry01",
                "IPEKOEDCGGF": "Cs_Emo_Avatar_Common/Cs_Emo_Avatar_Default01_B",
                "EJNFMNJKDAH": "",
                "LOOOCOLIHFA": "",
                "KJDLMAPPPMG": "",
                "IMIEGJDNPNN": [
                    14296606849723709100,
                    5508348580450379567,
                    7627497203169383327,
                    8979581647593659876
                ],
                "KIJHIMADJGM": [
                    12199605016063642592,
                    6659610500948409138,
                    10783156204328777859,
                    13383650154785247612
                ]
            },
            {
                "$type": "KAGAFALAIGP",
                "type": "DIALOG",
                "aliasList": [
                    "13314"
                ],
                "actionId": 122,
                "JHEPJOMJJHH": 40000313,
                "OCILKFCPBNC": 0.5
            },
            {
                "$type": "LNLLGCOBDFC",
                "type": "EMO_SYNC",
                "aliasList": [
                    "13314"
                ],
                "actionId": 264,
                "flag": 256,
                "LKHHGAGNMKM": "Cs_Emo_Avatar_Simple_Common_Set/Cs_Emo_Avatar_Talk/Cs_Emo_Avatar_MainLine/Cs_Emo_Avatar_Fontaine/Cs_Emo_40000313",
                "AIMKGPFAAAD": "",
                "IPEKOEDCGGF": "",
                "EJNFMNJKDAH": "",
                "LOOOCOLIHFA": "",
                "KJDLMAPPPMG": "",
                "EKJHPKFBONG": [
                    4422163775353133044,
                    14153517804103013927,
                    9194555663763986731,
                    2585593337202153928
                ]
            },
            {
                "$type": "AAFOOOPNJLB",
                "type": "DIALOG_SELECT",
                "delayTime": 0.4000000059604645,
                "aliasList": [
                    "AvatarNpc"
                ],
                "actionId": 168,
                "KFAEOBDAAME": [
                    40000314
                ],
                "ELPFMMBHOLF": [
                    2657372391
                ],
                "OEAAKJDIEFD": true,
                "ONFBGDHPCEO": 639911016
            }
        ],
        [
            {
                "$type": "KAGAFALAIGP",
                "type": "DIALOG",
                "aliasList": [
                    "13314"
                ],
                "actionId": 125,
                "JHEPJOMJJHH": 40000315,
                "OCILKFCPBNC": 0.5
            },
            {
                "$type": "CENEPJCONAG",
                "type": "BODY_LANG",
                "aliasList": [
                    "13314"
                ],
                "actionId": 225,
                "OGFPAIKLDGB": 4,
                "MHDCNDAINCK": true,
                "LHIAJOBFNAK": false,
                "GJGPNLJEIFP": true,
                "FOEKGLEJBIJ": ""
            },
            {
                "$type": "LNLLGCOBDFC",
                "type": "EMO_SYNC",
                "aliasList": [
                    "13314"
                ],
                "actionId": 265,
                "flag": 256,
                "LKHHGAGNMKM": "Cs_Emo_Avatar_Simple_Common_Set/Cs_Emo_Avatar_Talk/Cs_Emo_Avatar_MainLine/Cs_Emo_Avatar_Fontaine/Cs_Emo_40000315",
                "AIMKGPFAAAD": "",
                "IPEKOEDCGGF": "",
                "EJNFMNJKDAH": "",
                "LOOOCOLIHFA": "",
                "KJDLMAPPPMG": "",
                "EKJHPKFBONG": [
                    9034088391392656550,
                    1452914375936696940,
                    1453910122156547877,
                    2213926018613298088
                ]
            },
            {
                "$type": "AAFOOOPNJLB",
                "type": "DIALOG_SELECT",
                "delayTime": 0.4000000059604645,
                "aliasList": [
                    "AvatarNpc"
                ],
                "actionId": 169,
                "KFAEOBDAAME": [
                    40000316,
                    40000317
                ],
                "ELPFMMBHOLF": [
                    2657372392,
                    2657372392
                ],
                "OEAAKJDIEFD": true,
                "ONFBGDHPCEO": 639911016
            }
        ],
        [
            {
                "$type": "PBIGHFCHGCA",
                "type": "CAMERA_MOVE",
                "duration": 0.5,
                "actionId": 226,
                "KCFKJMMEECM": {
                    "x": 3465.468994140625,
                    "y": 491.93701171875,
                    "z": 3670.195068359375
                },
                "DLGJEHNPMFN": {
                    "x": 3464.47509765625,
                    "y": 491.9729919433594,
                    "z": 3670.297119140625
                },
                "NJCBGNHGINI": 30.0,
                "FNMFGIOLKBE": 6,
                "NECGMADJICG": "EaseInOutCubic",
                "BMHIHPIKAHM": {},
                "MMJMMAEAJOA": true,
                "HGGPLEMCNNG": false,
                "JBODIEHINII": "",
                "PHDIKPKLFIA": true,
                "EJCHLMIMLBO": "",
                "BIMPIKMCIHB": "",
                "MCAOJPLIJGI": ""
            },
            {
                "$type": "KAGAFALAIGP",
                "type": "DIALOG",
                "aliasList": [
                    "13314"
                ],
                "actionId": 128,
                "JHEPJOMJJHH": 40000318,
                "OCILKFCPBNC": 0.5
            },
            {
                "$type": "LNLLGCOBDFC",
                "type": "EMO_SYNC",
                "aliasList": [
                    "13314"
                ],
                "actionId": 266,
                "flag": 256,
                "LKHHGAGNMKM": "Cs_Emo_Avatar_Simple_Common_Set/Cs_Emo_Avatar_Talk/Cs_Emo_Avatar_MainLine/Cs_Emo_Avatar_Fontaine/Cs_Emo_40000318",
                "AIMKGPFAAAD": "",
                "IPEKOEDCGGF": "",
                "EJNFMNJKDAH": "",
                "LOOOCOLIHFA": "",
                "KJDLMAPPPMG": "",
                "EKJHPKFBONG": [
                    14186289215994806689,
                    2342142682893048668,
                    1176386054592186172,
                    12854683392701996102
                ]
            }
        ],
        [
            {
                "$type": "KAGAFALAIGP",
                "type": "DIALOG",
                "aliasList": [
                    "13314"
                ],
                "actionId": 130,
                "JHEPJOMJJHH": 40000319,
                "OCILKFCPBNC": 0.5
            },
            {
                "$type": "LNLLGCOBDFC",
                "type": "EMO_SYNC",
                "aliasList": [
                    "13314"
                ],
                "actionId": 267,
                "flag": 256,
                "LKHHGAGNMKM": "Cs_Emo_Avatar_Simple_Common_Set/Cs_Emo_Avatar_Talk/Cs_Emo_Avatar_MainLine/Cs_Emo_Avatar_Fontaine/Cs_Emo_40000319",
                "AIMKGPFAAAD": "",
                "IPEKOEDCGGF": "",
                "EJNFMNJKDAH": "",
                "LOOOCOLIHFA": "",
                "KJDLMAPPPMG": "",
                "EKJHPKFBONG": [
                    16081405453945429392,
                    16188131391588873408,
                    4635994480481494371,
                    5129253819709727401
                ]
            }
        ],
        [
            {
                "$type": "KAGAFALAIGP",
                "type": "DIALOG",
                "aliasList": [
                    "13314"
                ],
                "actionId": 132,
                "JHEPJOMJJHH": 40000320,
                "OCILKFCPBNC": 0.5
            },
            {
                "$type": "CENEPJCONAG",
                "type": "BODY_LANG",
                "aliasList": [
                    "13314"
                ],
                "actionId": 249,
                "OGFPAIKLDGB": 5,
                "MHDCNDAINCK": true,
                "LHIAJOBFNAK": false,
                "GJGPNLJEIFP": true,
                "FOEKGLEJBIJ": ""
            },
            {
                "$type": "LNLLGCOBDFC",
                "type": "EMO_SYNC",
                "aliasList": [
                    "13314"
                ],
                "actionId": 268,
                "flag": 256,
                "LKHHGAGNMKM": "Cs_Emo_Avatar_Simple_Common_Set/Cs_Emo_Avatar_Talk/Cs_Emo_Avatar_MainLine/Cs_Emo_Avatar_Fontaine/Cs_Emo_40000320",
                "AIMKGPFAAAD": "",
                "IPEKOEDCGGF": "",
                "EJNFMNJKDAH": "",
                "LOOOCOLIHFA": "",
                "KJDLMAPPPMG": "",
                "EKJHPKFBONG": [
                    17993908265704667615,
                    2560658096787868288,
                    16846932132727015806,
                    8740516990876906114
                ]
            },
            {
                "$type": "AAFOOOPNJLB",
                "type": "DIALOG_SELECT",
                "delayTime": 0.5,
                "aliasList": [
                    "AvatarNpc"
                ],
                "actionId": 170,
                "KFAEOBDAAME": [
                    40000321
                ],
                "ELPFMMBHOLF": [
                    2657372395
                ],
                "OEAAKJDIEFD": true,
                "ONFBGDHPCEO": 639911016
            },
            {
                "$type": "PBIGHFCHGCA",
                "type": "CAMERA_MOVE",
                "delayTime": 5.0,
                "duration": 0.5,
                "actionId": 227,
                "KCFKJMMEECM": {
                    "x": 3459.783935546875,
                    "y": 492.364990234375,
                    "z": 3670.699951171875
                },
                "DLGJEHNPMFN": {
                    "x": 3459.653076171875,
                    "y": 492.19500732421875,
                    "z": 3671.677001953125
                },
                "NJCBGNHGINI": 20.0,
                "FNMFGIOLKBE": 6,
                "NECGMADJICG": "EaseInOutCubic",
                "BMHIHPIKAHM": {},
                "MMJMMAEAJOA": true,
                "HGGPLEMCNNG": false,
                "JBODIEHINII": "",
                "PHDIKPKLFIA": true,
                "EJCHLMIMLBO": "",
                "BIMPIKMCIHB": "",
                "MCAOJPLIJGI": ""
            },
            {
                "$type": "CENEPJCONAG",
                "type": "BODY_LANG",
                "delayTime": 5.0,
                "aliasList": [
                    "AvatarNpc"
                ],
                "actionId": 228,
                "OGFPAIKLDGB": 1130,
                "MHDCNDAINCK": true,
                "LHIAJOBFNAK": false,
                "GJGPNLJEIFP": true,
                "FOEKGLEJBIJ": ""
            },
            {
                "$type": "CENEPJCONAG",
                "type": "BODY_LANG",
                "delayTime": 5.0,
                "aliasList": [
                    "13314"
                ],
                "actionId": 251,
                "NNKEOHJCPOF": true,
                "MHDCNDAINCK": true,
                "LHIAJOBFNAK": false,
                "GJGPNLJEIFP": true,
                "FOEKGLEJBIJ": ""
            }
        ],
        [
            {
                "$type": "PBIGHFCHGCA",
                "type": "CAMERA_MOVE",
                "duration": 0.5,
                "actionId": 229,
                "KCFKJMMEECM": {
                    "x": 3459.989990234375,
                    "y": 492.2850036621094,
                    "z": 3672.287109375
                },
                "DLGJEHNPMFN": {
                    "x": 3459.85009765625,
                    "y": 492.37200927734375,
                    "z": 3671.301025390625
                },
                "NJCBGNHGINI": 20.0,
                "FNMFGIOLKBE": 6,
                "NECGMADJICG": "EaseInOutCubic",
                "BMHIHPIKAHM": {},
                "MMJMMAEAJOA": true,
                "HGGPLEMCNNG": false,
                "JBODIEHINII": "",
                "PHDIKPKLFIA": true,
                "EJCHLMIMLBO": "",
                "BIMPIKMCIHB": "",
                "MCAOJPLIJGI": ""
            },
            {
                "$type": "CENEPJCONAG",
                "type": "BODY_LANG",
                "aliasList": [
                    "AvatarNpc"
                ],
                "actionId": 252,
                "NNKEOHJCPOF": true,
                "MHDCNDAINCK": true,
                "LHIAJOBFNAK": false,
                "GJGPNLJEIFP": true,
                "FOEKGLEJBIJ": ""
            },
            {
                "$type": "KAGAFALAIGP",
                "type": "DIALOG",
                "aliasList": [
                    "13314"
                ],
                "actionId": 135,
                "JHEPJOMJJHH": 40000322,
                "OCILKFCPBNC": 1.0
            },
            {
                "$type": "CENEPJCONAG",
                "type": "BODY_LANG",
                "aliasList": [
                    "13314"
                ],
                "actionId": 253,
                "NNKEOHJCPOF": true,
                "MHDCNDAINCK": true,
                "LHIAJOBFNAK": false,
                "GJGPNLJEIFP": true,
                "FOEKGLEJBIJ": ""
            },
            {
                "$type": "LNLLGCOBDFC",
                "type": "EMO_SYNC",
                "aliasList": [
                    "13314"
                ],
                "actionId": 269,
                "flag": 256,
                "LKHHGAGNMKM": "Cs_Emo_Avatar_Simple_Common_Set/Cs_Emo_Avatar_Talk/Cs_Emo_Avatar_MainLine/Cs_Emo_Avatar_Fontaine/Cs_Emo_40000322",
                "AIMKGPFAAAD": "",
                "IPEKOEDCGGF": "",
                "EJNFMNJKDAH": "",
                "LOOOCOLIHFA": "",
                "KJDLMAPPPMG": "",
                "EKJHPKFBONG": [
                    2504579784424561292,
                    6534794370022912818,
                    14552512071915490890,
                    4260424713351365606
                ]
            },
            {
                "$type": "CENEPJCONAG",
                "type": "BODY_LANG",
                "delayTime": 2.4779999256134033,
                "aliasList": [
                    "13314"
                ],
                "actionId": 230,
                "OGFPAIKLDGB": 4,
                "MHDCNDAINCK": true,
                "LHIAJOBFNAK": false,
                "GJGPNLJEIFP": true,
                "FOEKGLEJBIJ": ""
            }
        ],
        [
            {
                "$type": "KAGAFALAIGP",
                "type": "DIALOG",
                "aliasList": [
                    "13314"
                ],
                "actionId": 137,
                "JHEPJOMJJHH": 40000323,
                "OCILKFCPBNC": 0.5
            },
            {
                "$type": "LNLLGCOBDFC",
                "type": "EMO_SYNC",
                "aliasList": [
                    "13314"
                ],
                "actionId": 270,
                "flag": 256,
                "LKHHGAGNMKM": "Cs_Emo_Avatar_Simple_Common_Set/Cs_Emo_Avatar_Talk/Cs_Emo_Avatar_MainLine/Cs_Emo_Avatar_Fontaine/Cs_Emo_40000323",
                "AIMKGPFAAAD": "",
                "IPEKOEDCGGF": "",
                "EJNFMNJKDAH": "",
                "LOOOCOLIHFA": "",
                "KJDLMAPPPMG": "",
                "EKJHPKFBONG": [
                    4391856688589530406,
                    7468848999570350277,
                    14341687737246587987,
                    10390941410532392662
                ]
            }
        ],
        [
            {
                "$type": "PBIGHFCHGCA",
                "type": "CAMERA_MOVE",
                "duration": 0.5,
                "actionId": 232,
                "KCFKJMMEECM": {
                    "x": 3459.06396484375,
                    "y": 492.08599853515625,
                    "z": 3673.305908203125
                },
                "DLGJEHNPMFN": {
                    "x": 3459.251953125,
                    "y": 492.1669921875,
                    "z": 3672.326904296875
                },
                "NJCBGNHGINI": 25.0,
                "FNMFGIOLKBE": 6,
                "NECGMADJICG": "EaseInOutCubic",
                "BMHIHPIKAHM": {},
                "MMJMMAEAJOA": true,
                "HGGPLEMCNNG": false,
                "JBODIEHINII": "",
                "PHDIKPKLFIA": true,
                "EJCHLMIMLBO": "",
                "BIMPIKMCIHB": "",
                "MCAOJPLIJGI": ""
            },
            {
                "$type": "KAGAFALAIGP",
                "type": "DIALOG",
                "aliasList": [
                    "13314"
                ],
                "actionId": 139,
                "JHEPJOMJJHH": 40000324,
                "OCILKFCPBNC": 0.5
            },
            {
                "$type": "LNLLGCOBDFC",
                "type": "EMO_SYNC",
                "aliasList": [
                    "13314"
                ],
                "actionId": 271,
                "flag": 256,
                "LKHHGAGNMKM": "Cs_Emo_Avatar_Simple_Common_Set/Cs_Emo_Avatar_Talk/Cs_Emo_Avatar_MainLine/Cs_Emo_Avatar_Fontaine/Cs_Emo_40000324",
                "AIMKGPFAAAD": "",
                "IPEKOEDCGGF": "",
                "EJNFMNJKDAH": "",
                "LOOOCOLIHFA": "",
                "KJDLMAPPPMG": "",
                "EKJHPKFBONG": [
                    15366126625909301734,
                    8443905408123878214,
                    1236876142333238647,
                    87564162157406452
                ]
            },
            {
                "$type": "AAFOOOPNJLB",
                "type": "DIALOG_SELECT",
                "delayTime": 0.4000000059604645,
                "aliasList": [
                    "AvatarNpc"
                ],
                "actionId": 171,
                "KFAEOBDAAME": [
                    40000325
                ],
                "ELPFMMBHOLF": [
                    2657372398
                ],
                "OEAAKJDIEFD": true,
                "ONFBGDHPCEO": 639911016
            }
        ],
        [
            {
                "$type": "PBIGHFCHGCA",
                "type": "CAMERA_MOVE",
                "duration": 0.5,
                "actionId": 284,
                "KCFKJMMEECM": {
                    "x": 3456.327880859375,
                    "y": 491.3689880371094,
                    "z": 3675.029052734375
                },
                "DLGJEHNPMFN": {
                    "x": 3456.9541015625,
                    "y": 491.4590148925781,
                    "z": 3674.2529296875
                },
                "NJCBGNHGINI": 35.0,
                "FNMFGIOLKBE": 6,
                "NECGMADJICG": "EaseInOutCubic",
                "BMHIHPIKAHM": {},
                "MMJMMAEAJOA": true,
                "HGGPLEMCNNG": false,
                "JBODIEHINII": "",
                "PHDIKPKLFIA": true,
                "EJCHLMIMLBO": "",
                "BIMPIKMCIHB": "",
                "MCAOJPLIJGI": ""
            },
            {
                "$type": "KAGAFALAIGP",
                "type": "DIALOG",
                "aliasList": [
                    "13314"
                ],
                "actionId": 142,
                "JHEPJOMJJHH": 40000326,
                "OCILKFCPBNC": 0.5
            },
            {
                "$type": "LNLLGCOBDFC",
                "type": "EMO_SYNC",
                "aliasList": [
                    "13314"
                ],
                "actionId": 272,
                "flag": 256,
                "LKHHGAGNMKM": "Cs_Emo_Avatar_Simple_Common_Set/Cs_Emo_Avatar_Talk/Cs_Emo_Avatar_MainLine/Cs_Emo_Avatar_Fontaine/Cs_Emo_40000326",
                "AIMKGPFAAAD": "",
                "IPEKOEDCGGF": "",
                "EJNFMNJKDAH": "",
                "LOOOCOLIHFA": "",
                "KJDLMAPPPMG": "",
                "EKJHPKFBONG": [
                    5120175820622411406,
                    17626794188132036498,
                    10250430481939897983,
                    18088015509926428003
                ]
            },
            {
                "$type": "PBIGHFCHGCA",
                "type": "CAMERA_MOVE",
                "delayTime": 0.10000000149011612,
                "duration": 20.0,
                "actionId": 283,
                "KCFKJMMEECM": {
                    "x": 3454.60400390625,
                    "y": 491.2720031738281,
                    "z": 3671.65087890625
                },
                "DLGJEHNPMFN": {
                    "x": 3455.590087890625,
                    "y": 491.38299560546875,
                    "z": 3671.528076171875
                },
                "NJCBGNHGINI": 35.0,
                "NECGMADJICG": "Linear",
                "BMHIHPIKAHM": {},
                "MMJMMAEAJOA": true,
                "HGGPLEMCNNG": false,
                "JBODIEHINII": "",
                "PHDIKPKLFIA": true,
                "EJCHLMIMLBO": "",
                "BIMPIKMCIHB": "",
                "MCAOJPLIJGI": ""
            }
        ],
        [
            {
                "$type": "KAGAFALAIGP",
                "type": "DIALOG",
                "aliasList": [
                    "13314"
                ],
                "actionId": 144,
                "JHEPJOMJJHH": 40000327,
                "OCILKFCPBNC": 0.5
            },
            {
                "$type": "CENEPJCONAG",
                "type": "BODY_LANG",
                "aliasList": [
                    "13314"
                ],
                "actionId": 234,
                "OGFPAIKLDGB": 4,
                "MHDCNDAINCK": true,
                "LHIAJOBFNAK": false,
                "GJGPNLJEIFP": true,
                "FOEKGLEJBIJ": ""
            },
            {
                "$type": "LNLLGCOBDFC",
                "type": "EMO_SYNC",
                "aliasList": [
                    "13314"
                ],
                "actionId": 273,
                "flag": 256,
                "LKHHGAGNMKM": "Cs_Emo_Avatar_Simple_Common_Set/Cs_Emo_Avatar_Talk/Cs_Emo_Avatar_MainLine/Cs_Emo_Avatar_Fontaine/Cs_Emo_40000327",
                "AIMKGPFAAAD": "",
                "IPEKOEDCGGF": "",
                "EJNFMNJKDAH": "",
                "LOOOCOLIHFA": "",
                "KJDLMAPPPMG": "",
                "EKJHPKFBONG": [
                    18042112968719853527,
                    3743074451963050549,
                    12246126009237590328,
                    1577884834220757925
                ]
            },
            {
                "$type": "AAFOOOPNJLB",
                "type": "DIALOG_SELECT",
                "delayTime": 0.5,
                "aliasList": [
                    "AvatarNpc"
                ],
                "actionId": 172,
                "KFAEOBDAAME": [
                    40000328,
                    40000329
                ],
                "ELPFMMBHOLF": [
                    2657372400,
                    2657372400
                ],
                "OEAAKJDIEFD": true,
                "ONFBGDHPCEO": 639911016
            }
        ],
        [
            {
                "$type": "PBIGHFCHGCA",
                "type": "CAMERA_MOVE",
                "duration": 0.5,
                "actionId": 235,
                "KCFKJMMEECM": {
                    "x": 3458.548095703125,
                    "y": 492.1820068359375,
                    "z": 3672.028076171875
                },
                "DLGJEHNPMFN": {
                    "x": 3458.926025390625,
                    "y": 492.3080139160156,
                    "z": 3671.111083984375
                },
                "NJCBGNHGINI": 20.0,
                "FNMFGIOLKBE": 6,
                "NECGMADJICG": "EaseInOutCubic",
                "BMHIHPIKAHM": {},
                "MMJMMAEAJOA": true,
                "HGGPLEMCNNG": false,
                "JBODIEHINII": "",
                "PHDIKPKLFIA": true,
                "EJCHLMIMLBO": "",
                "BIMPIKMCIHB": "",
                "MCAOJPLIJGI": ""
            },
            {
                "$type": "KAGAFALAIGP",
                "type": "DIALOG",
                "aliasList": [
                    "13314"
                ],
                "actionId": 147,
                "JHEPJOMJJHH": 40000330,
                "OCILKFCPBNC": 0.5
            },
            {
                "$type": "LNLLGCOBDFC",
                "type": "EMO_SYNC",
                "aliasList": [
                    "13314"
                ],
                "actionId": 274,
                "flag": 256,
                "LKHHGAGNMKM": "Cs_Emo_Avatar_Simple_Common_Set/Cs_Emo_Avatar_Talk/Cs_Emo_Avatar_MainLine/Cs_Emo_Avatar_Fontaine/Cs_Emo_40000330",
                "AIMKGPFAAAD": "",
                "IPEKOEDCGGF": "",
                "EJNFMNJKDAH": "",
                "LOOOCOLIHFA": "",
                "KJDLMAPPPMG": "",
                "EKJHPKFBONG": [
                    3178802499009764002,
                    16243462598010428640,
                    2973999662994120168,
                    6747497708944657810
                ]
            }
        ],
        [
            {
                "$type": "KAGAFALAIGP",
                "type": "DIALOG",
                "aliasList": [
                    "13314"
                ],
                "actionId": 149,
                "JHEPJOMJJHH": 40000331,
                "OCILKFCPBNC": 0.5
            },
            {
                "$type": "CENEPJCONAG",
                "type": "BODY_LANG",
                "aliasList": [
                    "13314"
                ],
                "actionId": 254,
                "OGFPAIKLDGB": 4,
                "MHDCNDAINCK": true,
                "LHIAJOBFNAK": false,
                "GJGPNLJEIFP": true,
                "FOEKGLEJBIJ": ""
            },
            {
                "$type": "LNLLGCOBDFC",
                "type": "EMO_SYNC",
                "aliasList": [
                    "13314"
                ],
                "actionId": 275,
                "flag": 256,
                "LKHHGAGNMKM": "Cs_Emo_Avatar_Simple_Common_Set/Cs_Emo_Avatar_Talk/Cs_Emo_Avatar_MainLine/Cs_Emo_Avatar_Fontaine/Cs_Emo_40000331",
                "AIMKGPFAAAD": "",
                "IPEKOEDCGGF": "",
                "EJNFMNJKDAH": "",
                "LOOOCOLIHFA": "",
                "KJDLMAPPPMG": "",
                "EKJHPKFBONG": [
                    10081493859047077350,
                    4260318227850456937,
                    18006396379329855580,
                    1340559226435188497
                ]
            }
        ],
        [
            {
                "$type": "PBIGHFCHGCA",
                "type": "CAMERA_MOVE",
                "duration": 0.5,
                "actionId": 237,
                "KCFKJMMEECM": {
                    "x": 3458.26806640625,
                    "y": 493.3370056152344,
                    "z": 3667.675048828125
                },
                "DLGJEHNPMFN": {
                    "x": 3458.655029296875,
                    "y": 493.0159912109375,
                    "z": 3668.5400390625
                },
                "NJCBGNHGINI": 25.0,
                "FNMFGIOLKBE": 6,
                "NECGMADJICG": "EaseInOutCubic",
                "BMHIHPIKAHM": {},
                "MMJMMAEAJOA": true,
                "HGGPLEMCNNG": false,
                "JBODIEHINII": "",
                "PHDIKPKLFIA": true,
                "EJCHLMIMLBO": "",
                "BIMPIKMCIHB": "",
                "MCAOJPLIJGI": ""
            },
            {
                "$type": "KAGAFALAIGP",
                "type": "DIALOG",
                "aliasList": [
                    "13314"
                ],
                "actionId": 151,
                "JHEPJOMJJHH": 40000332,
                "OCILKFCPBNC": 3.0
            },
            {
                "$type": "LNLLGCOBDFC",
                "type": "EMO_SYNC",
                "aliasList": [
                    "13314"
                ],
                "actionId": 276,
                "flag": 256,
                "LKHHGAGNMKM": "Cs_Emo_Avatar_Simple_Common_Set/Cs_Emo_Avatar_Talk/Cs_Emo_Avatar_MainLine/Cs_Emo_Avatar_Fontaine/Cs_Emo_40000332",
                "AIMKGPFAAAD": "",
                "IPEKOEDCGGF": "",
                "EJNFMNJKDAH": "",
                "LOOOCOLIHFA": "",
                "KJDLMAPPPMG": "",
                "EKJHPKFBONG": [
                    12928634928663999499,
                    12640467508978054983,
                    8549416612257371032,
                    15598356969596122123
                ]
            },
            {
                "$type": "PBIGHFCHGCA",
                "type": "CAMERA_MOVE",
                "delayTime": 0.10000000149011612,
                "duration": 15.0,
                "actionId": 236,
                "KCFKJMMEECM": {
                    "x": 3458.237060546875,
                    "y": 493.2909851074219,
                    "z": 3667.737060546875
                },
                "DLGJEHNPMFN": {
                    "x": 3458.6240234375,
                    "y": 492.968994140625,
                    "z": 3668.60205078125
                },
                "NJCBGNHGINI": 25.0,
                "NECGMADJICG": "EaseOutQuad",
                "BMHIHPIKAHM": {},
                "MMJMMAEAJOA": true,
                "HGGPLEMCNNG": false,
                "JBODIEHINII": "",
                "PHDIKPKLFIA": true,
                "EJCHLMIMLBO": "",
                "BIMPIKMCIHB": "",
                "MCAOJPLIJGI": ""
            },
            {
                "$type": "AAFOOOPNJLB",
                "type": "DIALOG_SELECT",
                "delayTime": 3.0,
                "aliasList": [
                    "AvatarNpc"
                ],
                "actionId": 173,
                "KFAEOBDAAME": [
                    40000333,
                    40000334
                ],
                "ELPFMMBHOLF": [
                    2657372424,
                    2657372424
                ],
                "OEAAKJDIEFD": true,
                "ONFBGDHPCEO": 639911016
            },
            {
                "$type": "CENEPJCONAG",
                "type": "BODY_LANG",
                "delayTime": 3.0,
                "aliasList": [
                    "AvatarNpc"
                ],
                "actionId": 238,
                "OGFPAIKLDGB": 1190,
                "MHDCNDAINCK": true,
                "LHIAJOBFNAK": false,
                "GJGPNLJEIFP": true,
                "FOEKGLEJBIJ": ""
            },
            {
                "$type": "FNPNDPFBBDD",
                "type": "LOOK_AT",
                "delayTime": 3.0,
                "aliasList": [
                    "AvatarNpc"
                ],
                "actionId": 239,
                "flag": 64,
                "MNOPLOBEFLB": 0.5,
                "JBODIEHINII": "",
                "MDNPCOHCCLM": true,
                "CAJDMFBMGNG": 60.0,
                "LPCACGGCDLI": "",
                "NNFPFPOJJOJ": ""
            }
        ],
        [
            {
                "$type": "PBIGHFCHGCA",
                "type": "CAMERA_MOVE",
                "duration": 0.5,
                "actionId": 241,
                "KCFKJMMEECM": {
                    "x": 3458.864013671875,
                    "y": 492.6809997558594,
                    "z": 3670.56689453125
                },
                "DLGJEHNPMFN": {
                    "x": 3459.25,
                    "y": 492.3599853515625,
                    "z": 3671.431884765625
                },
                "NJCBGNHGINI": 20.0,
                "FNMFGIOLKBE": 6,
                "NECGMADJICG": "EaseInOutCubic",
                "BMHIHPIKAHM": {},
                "MMJMMAEAJOA": true,
                "HGGPLEMCNNG": false,
                "JBODIEHINII": "",
                "PHDIKPKLFIA": true,
                "EJCHLMIMLBO": "",
                "BIMPIKMCIHB": "",
                "MCAOJPLIJGI": ""
            },
            {
                "$type": "KAGAFALAIGP",
                "type": "DIALOG",
                "aliasList": [
                    "13314"
                ],
                "actionId": 154,
                "JHEPJOMJJHH": 40000335,
                "OCILKFCPBNC": 0.5
            },
            {
                "$type": "LNLLGCOBDFC",
                "type": "EMO_SYNC",
                "aliasList": [
                    "13314"
                ],
                "actionId": 277,
                "flag": 256,
                "LKHHGAGNMKM": "Cs_Emo_Avatar_Simple_Common_Set/Cs_Emo_Avatar_Talk/Cs_Emo_Avatar_MainLine/Cs_Emo_Avatar_Fontaine/Cs_Emo_40000335",
                "AIMKGPFAAAD": "",
                "IPEKOEDCGGF": "",
                "EJNFMNJKDAH": "",
                "LOOOCOLIHFA": "",
                "KJDLMAPPPMG": "",
                "EKJHPKFBONG": [
                    15186329918976332456,
                    15509777552330021000,
                    11498827312910788161,
                    12361042807866754532
                ]
            },
            {
                "$type": "AAFOOOPNJLB",
                "type": "DIALOG_SELECT",
                "delayTime": 0.4000000059604645,
                "aliasList": [
                    "AvatarNpc"
                ],
                "actionId": 174,
                "KFAEOBDAAME": [
                    40000336,
                    40000337
                ],
                "ELPFMMBHOLF": [
                    2657372425,
                    2657372425
                ],
                "OEAAKJDIEFD": true,
                "ONFBGDHPCEO": 639911016
            },
            {
                "$type": "FNPNDPFBBDD",
                "type": "LOOK_AT",
                "delayTime": 0.4000000059604645,
                "aliasList": [
                    "AvatarNpc"
                ],
                "actionId": 240,
                "flag": 64,
                "NKGFDJDHOBD": true,
                "EKIONHAEIBG": {
                    "x": 3459.611083984375,
                    "y": 493.0,
                    "z": 3669.4189453125
                },
                "OCIADBJCDPC": {
                    "y": 5.0
                },
                "MNOPLOBEFLB": 0.5,
                "JBODIEHINII": "13314",
                "CFPBIOLLOCO": "NONE",
                "MDNPCOHCCLM": true,
                "CAJDMFBMGNG": 60.0,
                "LPCACGGCDLI": "",
                "NNFPFPOJJOJ": ""
            },
            {
                "$type": "CENEPJCONAG",
                "type": "BODY_LANG",
                "delayTime": 0.800000011920929,
                "aliasList": [
                    "AvatarNpc"
                ],
                "actionId": 242,
                "NNKEOHJCPOF": true,
                "MHDCNDAINCK": true,
                "LHIAJOBFNAK": false,
                "GJGPNLJEIFP": true,
                "FOEKGLEJBIJ": ""
            },
            {
                "$type": "FNPNDPFBBDD",
                "type": "LOOK_AT",
                "delayTime": 1.4620000123977661,
                "aliasList": [
                    "AvatarNpc"
                ],
                "actionId": 285,
                "flag": 64,
                "NKGFDJDHOBD": true,
                "EKIONHAEIBG": {
                    "x": 3459.611083984375,
                    "y": 493.0,
                    "z": 3669.4189453125
                },
                "OCIADBJCDPC": {
                    "x": -15.0,
                    "y": 5.0
                },
                "MNOPLOBEFLB": 0.6000000238418579,
                "JBODIEHINII": "13314",
                "CFPBIOLLOCO": "NONE",
                "MDNPCOHCCLM": true,
                "CAJDMFBMGNG": 60.0,
                "LPCACGGCDLI": "",
                "NNFPFPOJJOJ": ""
            },
            {
                "$type": "FNPNDPFBBDD",
                "type": "LOOK_AT",
                "delayTime": 2.8480000495910645,
                "aliasList": [
                    "AvatarNpc"
                ],
                "actionId": 286,
                "flag": 64,
                "NKGFDJDHOBD": true,
                "EKIONHAEIBG": {
                    "x": 3459.611083984375,
                    "y": 493.0,
                    "z": 3669.4189453125
                },
                "OCIADBJCDPC": {
                    "x": 15.0,
                    "y": 5.0
                },
                "MNOPLOBEFLB": 0.699999988079071,
                "JBODIEHINII": "13314",
                "CFPBIOLLOCO": "NONE",
                "MDNPCOHCCLM": true,
                "CAJDMFBMGNG": 60.0,
                "LPCACGGCDLI": "",
                "NNFPFPOJJOJ": ""
            }
        ],
        [
            {
                "$type": "PBIGHFCHGCA",
                "type": "CAMERA_MOVE",
                "duration": 0.5,
                "actionId": 245,
                "KCFKJMMEECM": {
                    "x": 3458.51904296875,
                    "y": 491.9049987792969,
                    "z": 3673.760986328125
                },
                "DLGJEHNPMFN": {
                    "x": 3458.93896484375,
                    "y": 491.9949951171875,
                    "z": 3672.85791015625
                },
                "NJCBGNHGINI": 30.0,
                "FNMFGIOLKBE": 6,
                "NECGMADJICG": "EaseInOutCubic",
                "BMHIHPIKAHM": {},
                "MMJMMAEAJOA": true,
                "HGGPLEMCNNG": false,
                "JBODIEHINII": "",
                "PHDIKPKLFIA": true,
                "EJCHLMIMLBO": "",
                "BIMPIKMCIHB": "",
                "MCAOJPLIJGI": ""
            },
            {
                "$type": "FNPNDPFBBDD",
                "type": "LOOK_AT",
                "aliasList": [
                    "AvatarNpc"
                ],
                "actionId": 287,
                "flag": 64,
                "NKGFDJDHOBD": true,
                "useTargetPos": true,
                "LBJHJADMNBD": true,
                "EKIONHAEIBG": {
                    "x": 3459.611083984375,
                    "y": 493.0,
                    "z": 3669.4189453125
                },
                "MNOPLOBEFLB": 0.5,
                "JBODIEHINII": "13314",
                "CFPBIOLLOCO": "NONE",
                "MDNPCOHCCLM": true,
                "CAJDMFBMGNG": 60.0,
                "LPCACGGCDLI": "",
                "NNFPFPOJJOJ": ""
            },
            {
                "$type": "KAGAFALAIGP",
                "type": "DIALOG",
                "aliasList": [
                    "13314"
                ],
                "actionId": 157,
                "JHEPJOMJJHH": 40000338,
                "OCILKFCPBNC": 0.5
            },
            {
                "$type": "LNLLGCOBDFC",
                "type": "EMO_SYNC",
                "aliasList": [
                    "13314"
                ],
                "actionId": 278,
                "flag": 320,
                "LKHHGAGNMKM": "Cs_Emo_Avatar_Simple_Common_Set/Cs_Emo_Avatar_Talk/Cs_Emo_Avatar_MainLine/Cs_Emo_Avatar_Fontaine/Cs_Emo_40000338",
                "AIMKGPFAAAD": "",
                "IPEKOEDCGGF": "",
                "EJNFMNJKDAH": "",
                "LOOOCOLIHFA": "",
                "KJDLMAPPPMG": "",
                "EKJHPKFBONG": [
                    18081701834951030981,
                    17674948280849510257,
                    18206341912722415074,
                    11122652858825119292
                ]
            },
            {
                "$type": "PBIGHFCHGCA",
                "type": "CAMERA_MOVE",
                "delayTime": 0.10000000149011612,
                "duration": 10.0,
                "actionId": 243,
                "KCFKJMMEECM": {
                    "x": 3458.376953125,
                    "y": 491.89898681640625,
                    "z": 3673.694091796875
                },
                "DLGJEHNPMFN": {
                    "x": 3458.797119140625,
                    "y": 491.989013671875,
                    "z": 3672.7919921875
                },
                "NJCBGNHGINI": 30.0,
                "NECGMADJICG": "EaseOutQuad",
                "BMHIHPIKAHM": {},
                "MMJMMAEAJOA": true,
                "HGGPLEMCNNG": false,
                "JBODIEHINII": "",
                "PHDIKPKLFIA": true,
                "EJCHLMIMLBO": "",
                "BIMPIKMCIHB": "",
                "MCAOJPLIJGI": ""
            },
            {
                "$type": "CENEPJCONAG",
                "type": "BODY_LANG",
                "delayTime": 6.4730000495910645,
                "aliasList": [
                    "13314"
                ],
                "actionId": 255,
                "OGFPAIKLDGB": 4,
                "MHDCNDAINCK": true,
                "LHIAJOBFNAK": false,
                "GJGPNLJEIFP": true,
                "FOEKGLEJBIJ": ""
            }
        ],
        [
            {
                "$type": "PBIGHFCHGCA",
                "type": "CAMERA_MOVE",
                "duration": 0.5,
                "actionId": 291,
                "KCFKJMMEECM": {
                    "x": 3459.48388671875,
                    "y": 492.2070007324219,
                    "z": 3670.35400390625
                },
                "DLGJEHNPMFN": {
                    "x": 3459.52294921875,
                    "y": 492.1510009765625,
                    "z": 3671.35205078125
                },
                "NJCBGNHGINI": 15.0,
                "FNMFGIOLKBE": 6,
                "NECGMADJICG": "EaseInOutCubic",
                "BMHIHPIKAHM": {},
                "MMJMMAEAJOA": true,
                "HGGPLEMCNNG": false,
                "JBODIEHINII": "",
                "PHDIKPKLFIA": true,
                "EJCHLMIMLBO": "",
                "BIMPIKMCIHB": "",
                "MCAOJPLIJGI": ""
            },
            {
                "$type": "MoleMole.Config.ConfigTimeProtectAction",
                "type": "TIME_PROTECT",
                "duration": 1.7000000476837158,
                "actionId": 299
            },
            {
                "$type": "KAGAFALAIGP",
                "type": "DIALOG_CLEAR",
                "actionId": 302
            },
            {
                "$type": "FNPNDPFBBDD",
                "type": "LOOK_AT",
                "aliasList": [
                    "AvatarNpc"
                ],
                "actionId": 292,
                "flag": 64,
                "NKGFDJDHOBD": true,
                "MNOPLOBEFLB": 0.5,
                "JBODIEHINII": "",
                "CFPBIOLLOCO": "NONE",
                "MDNPCOHCCLM": true,
                "CAJDMFBMGNG": 60.0,
                "LPCACGGCDLI": "",
                "NNFPFPOJJOJ": ""
            },
            {
                "$type": "PBIGHFCHGCA",
                "type": "CAMERA_MOVE",
                "delayTime": 0.10000000149011612,
                "duration": 1.0,
                "actionId": 290,
                "KCFKJMMEECM": {
                    "x": 3459.530029296875,
                    "y": 492.1700134277344,
                    "z": 3671.19189453125
                },
                "DLGJEHNPMFN": {
                    "x": 3459.569091796875,
                    "y": 492.1130065917969,
                    "z": 3672.18896484375
                },
                "NJCBGNHGINI": 15.0,
                "NECGMADJICG": "EaseOutQuad",
                "BMHIHPIKAHM": {},
                "MMJMMAEAJOA": true,
                "HGGPLEMCNNG": false,
                "JBODIEHINII": "",
                "PHDIKPKLFIA": true,
                "EJCHLMIMLBO": "",
                "BIMPIKMCIHB": "",
                "MCAOJPLIJGI": ""
            },
            {
                "$type": "MoleMole.Config.ConfigCameraDOFAction",
                "type": "CAMERA_DOF",
                "delayTime": 0.30000001192092896,
                "duration": 1.0,
                "actionId": 296,
                "enabled": true,
                "focusDistance": -2.890000104904175,
                "focusRange": 5.290999889373779,
                "nearFocalDistance": -6.889999866485596,
                "nearFocalTransDistance": 1.0,
                "dofBlurAmount": 10.0,
                "quality": 3,
                "useBlendType": true,
                "blendType": "EaseOutQuad"
            },
            {
                "$type": "LNLLGCOBDFC",
                "type": "EMO_SYNC",
                "delayTime": 0.30000001192092896,
                "aliasList": [
                    "AvatarNpc"
                ],
                "actionId": 293,
                "flag": 320,
                "LKHHGAGNMKM": "",
                "AIMKGPFAAAD": "Cs_Emo_Avatar_Common/Cs_Emo_Avatar_Angry01",
                "IPEKOEDCGGF": "Cs_Emo_Avatar_Common/Cs_Emo_Avatar_LowClosed01",
                "EJNFMNJKDAH": "",
                "LOOOCOLIHFA": "",
                "KJDLMAPPPMG": "",
                "HCOIDDGKHJC": false,
                "IMIEGJDNPNN": [
                    14296606849723709100,
                    5508348580450379567,
                    7627497203169383327,
                    8979581647593659876
                ],
                "KIJHIMADJGM": [
                    13948284213264595615,
                    7688108384441439599,
                    13936602145956991039,
                    10261157731837374257
                ]
            },
            {
                "$type": "MoleMole.Config.ConfigBlackScreenAction",
                "type": "BLACK_SCREEN",
                "delayTime": 0.699999988079071,
                "duration": 0.5,
                "actionId": 300,
                "blackScreenType": "TO_BLACK",
                "durationToBlack": 0.5,
                "durationKeepBlack": 0.5,
                "durationFromBlack": 0.5,
                "inteePos": "",
                "textMapID": "",
                "useTextFade": true,
                "changeAudioState": true
            },
            {
                "$type": "MoleMole.Config.ConfigBlackScreenAction",
                "type": "BLACK_SCREEN",
                "delayTime": 1.2000000476837158,
                "duration": 0.5,
                "actionId": 297,
                "blackScreenType": "KEEP_BLACK",
                "durationToBlack": 0.5,
                "durationKeepBlack": 0.5,
                "durationFromBlack": 0.5,
                "inteePos": "",
                "textMapID": "",
                "useTextFade": true,
                "changeAudioState": true
            }
        ],
        [
            {
                "$type": "MoleMole.Config.ConfigPlayUIEffectAction",
                "type": "PLAY_UI_EFFECT",
                "actionId": 183,
                "uiCameraEffectPath": "",
                "mainCameraEffectPath": "ART/Effect/SceneInteractive/Stages/Eff_SceneObj_Fd_MS_SlushaMovingShell_01",
                "isRemove": true,
                "mainCameraEffectCreateOption": {},
                "uiCameraEffectCreateOption": {}
            },
            {
                "$type": "DKLMLAFNEFF",
                "type": "CUTSCENE",
                "actionId": 184,
                "DOAJDIBEEBD": {
                    "$type": "LKIMJCPPNNB",
                    "preTaskCfg": {
                        "BOHJKFPDNME": ""
                    },
                    "luaDataPath": "",
                    "resPath": "",
                    "castListPath": "",
                    "entityBan": ""
                },
                "FKIDEMAJMNK": 400004
            },
            {
                "$type": "MoleMole.Config.ConfigBlackScreenAction",
                "type": "BLACK_SCREEN",
                "duration": 2.0,
                "actionId": 301,
                "blackScreenType": "KEEP_BLACK",
                "durationToBlack": 0.5,
                "durationKeepBlack": 2.0,
                "durationFromBlack": 0.5,
                "inteePos": "",
                "textMapID": "",
                "useTextFade": true,
                "changeAudioState": true
            },
            {
                "$type": "MoleMole.Config.ConfigCameraDOFAction",
                "type": "CAMERA_DOF",
                "actionId": 303,
                "focusDistance": 5.0,
                "focusRange": 10.0,
                "nearFocalDistance": 1.0,
                "nearFocalTransDistance": 1.0,
                "dofBlurAmount": 1.0,
                "quality": 3
            },
            {
                "$type": "CENEPJCONAG",
                "type": "BODY_LANG",
                "aliasList": [
                    "AvatarNpc"
                ],
                "actionId": 178,
                "NNKEOHJCPOF": true,
                "MHDCNDAINCK": true,
                "LHIAJOBFNAK": false,
                "FOEKGLEJBIJ": ""
            },
            {
                "$type": "CENEPJCONAG",
                "type": "BODY_LANG",
                "aliasList": [
                    "13314"
                ],
                "actionId": 161,
                "NNKEOHJCPOF": true,
                "MHDCNDAINCK": true,
                "LHIAJOBFNAK": false,
                "FOEKGLEJBIJ": ""
            },
            {
                "$type": "MoleMole.Config.ConfigVisibleInterAction",
                "type": "VISIBLE",
                "delayTime": 0.6000000238418579,
                "aliasList": [
                    "Avatar"
                ],
                "actionId": 179,
                "isVisible": true,
                "extraParam": ""
            },
            {
                "$type": "MoleMole.Config.ConfigVisibleInterAction",
                "type": "VISIBLE",
                "delayTime": 0.6000000238418579,
                "aliasList": [
                    "AvatarNpc"
                ],
                "actionId": 180,
                "extraParam": ""
            }
        ]
    ],
    "groupId": [
        {
            "grpId": 639911017,
            "nextGrpId": 639911018
        },
        {
            "index": 1,
            "grpId": 639911018,
            "nextGrpId": 639911019
        },
        {
            "index": 2,
            "grpId": 639911019,
            "nextGrpId": 639911020
        },
        {
            "index": 3,
            "grpId": 639911020,
            "nextGrpId": 639911021
        },
        {
            "index": 4,
            "grpId": 639911021,
            "nextGrpId": 639911022
        },
        {
            "index": 5,
            "grpId": 639911022,
            "nextGrpId": 639911023
        },
        {
            "index": 6,
            "grpId": 639911023,
            "nextGrpId": 639911024
        },
        {
            "index": 7,
            "grpId": 639911024,
            "nextGrpId": 639911025
        },
        {
            "index": 8,
            "grpId": 639911025,
            "nextGrpId": 2657372391
        },
        {
            "index": 9,
            "grpId": 2657372391,
            "nextGrpId": 2657372392
        },
        {
            "index": 10,
            "grpId": 2657372392,
            "nextGrpId": 2657372393
        },
        {
            "index": 11,
            "grpId": 2657372393,
            "nextGrpId": 2657372394
        },
        {
            "index": 12,
            "grpId": 2657372394,
            "nextGrpId": 2657372395
        },
        {
            "index": 13,
            "grpId": 2657372395,
            "nextGrpId": 2657372396
        },
        {
            "index": 14,
            "grpId": 2657372396,
            "nextGrpId": 2657372397
        },
        {
            "index": 15,
            "grpId": 2657372397,
            "nextGrpId": 2657372398
        },
        {
            "index": 16,
            "grpId": 2657372398,
            "nextGrpId": 2657372399
        },
        {
            "index": 17,
            "grpId": 2657372399,
            "nextGrpId": 2657372400
        },
        {
            "index": 18,
            "grpId": 2657372400,
            "nextGrpId": 2657372422
        },
        {
            "index": 19,
            "grpId": 2657372422,
            "nextGrpId": 2657372423
        },
        {
            "index": 20,
            "grpId": 2657372423,
            "nextGrpId": 2657372424
        },
        {
            "index": 21,
            "grpId": 2657372424,
            "nextGrpId": 2657372425
        },
        {
            "index": 22,
            "grpId": 2657372425,
            "nextGrpId": 2657372426
        },
        {
            "index": 23,
            "grpId": 2657372426,
            "nextGrpId": 2657372427
        },
        {
            "index": 24,
            "grpId": 2657372427,
            "nextGrpId": 2657372428
        }
    ],
    "freeStyleDic": {
        "1025": [
            1130,
            1190
        ],
        "1026": [
            1130,
            1190
        ]
    },
    "EGOADMBCKDB": {
        "AvatarNpc": [
            "SitChat01AS",
            "SitHoldArm01AS",
            "SitShrug01AS",
            "SitThink01AS"
        ]
    }
}