{
    "luaDataPath": "",
    "startBlackKeepTime": 1.0,
    "entityBan": "",
    "disableNpcLod": true,
    "startFade": {
        "startFadeInDuration": 0.30000001192092896,
        "startFadeOutDuration": 0.30000001192092896
    },
    "endFade": {
        "startFadeOutDuration": 0.0
    },
    "actors": [
        {
            "alias": "Avatar",
            "visible": true,
            "bornPointName": "Q19065ChallengeMidPlayer",
            "relativePosNpcAlias": "",
            "bindMovingTargetKey": ""
        },
        {
            "configID": 1027,
            "alias": "1027",
            "visible": true,
            "bornPointName": "Q19065ChallengeMidNoel",
            "relativePosNpcAlias": "",
            "bindMovingTargetKey": ""
        }
    ],
    "group": [
        [
            {
                "$type": "NFDDGDIKEAG",
                "type": "STEER_TO",
                "aliasList": [
                    "1027"
                ],
                "GGJHILELIMO": "ABSOLUTE",
                "GPODKINFLFH": {
                    "x": 2476.35107421875,
                    "y": 307.4700012207031,
                    "z": -339.1860046386719
                },
                "JBODIEHINII": "",
                "NNFPFPOJJOJ": ""
            },
            {
                "$type": "FNPNDPFBBDD",
                "type": "LOOK_AT",
                "aliasList": [
                    "1027"
                ],
                "JBODIEHINII": "",
                "CFPBIOLLOCO": "NONE",
                "LPCACGGCDLI": "",
                "NNFPFPOJJOJ": ""
            },
            {
                "$type": "MoleMole.Config.ConfigVisibleInterAction",
                "type": "VISIBLE",
                "aliasList": [
                    "Avatar"
                ],
                "extraParam": ""
            },
            {
                "$type": "MoleMole.Config.ConfigTimeProtectAction",
                "type": "TIME_PROTECT",
                "duration": 0.30000001192092896
            },
            {
                "$type": "PBIGHFCHGCA",
                "type": "CAMERA_MOVE",
                "delayTime": 0.20000000298023224,
                "duration": 1.0,
                "CGCNCKNJOFB": "RELATIVE_TO_TARGET_ENTITY",
                "JOBAHIHHJIB": "RELATIVE_TO_TARGET_ENTITY",
                "NJCBGNHGINI": 30.0,
                "FNMFGIOLKBE": 6,
                "NECGMADJICG": "EaseInOutCubic",
                "BMHIHPIKAHM": {},
                "JBODIEHINII": "1027",
                "EJCHLMIMLBO": "",
                "BIMPIKMCIHB": "",
                "MCAOJPLIJGI": ""
            },
            {
                "$type": "MoleMole.Config.ConfigEmotionTemplateAction",
                "type": "EMOTION_TEMPLATE",
                "delayTime": 0.2669999897480011,
                "aliasList": [
                    "1027"
                ],
                "emoTemplateID": 10100
            }
        ],
        [
            {
                "$type": "MoleMole.Config.ConfigEmotionTemplateAction",
                "type": "EMOTION_TEMPLATE",
                "aliasList": [
                    "1027"
                ],
                "emoTemplateID": 10100
            },
            {
                "$type": "LNLLGCOBDFC",
                "type": "EMO_SYNC",
                "aliasList": [
                    "1027"
                ],
                "LKHHGAGNMKM": "Cs_Emo_Avatar_Simple_Common_Set/Cs_Emo_Avatar_Talk/Cs_Emo_Coop_Common/Cs_Emo_Coop_Noel_01/Cs_Emo_1906501201",
                "AIMKGPFAAAD": "",
                "IPEKOEDCGGF": "",
                "EJNFMNJKDAH": "",
                "LOOOCOLIHFA": "",
                "KJDLMAPPPMG": "",
                "EKJHPKFBONG": [
                    1749593336930507606,
                    10497088012429429693,
                    17549048246638238269,
                    14292034652307801457
                ]
            },
            {
                "$type": "PBIGHFCHGCA",
                "type": "CAMERA_MOVE",
                "duration": 1.0,
                "CGCNCKNJOFB": "RELATIVE_TO_TARGET_ENTITY",
                "JOBAHIHHJIB": "RELATIVE_TO_TARGET_ENTITY",
                "NJCBGNHGINI": 30.0,
                "FNMFGIOLKBE": 6,
                "NECGMADJICG": "EaseInOutCubic",
                "BMHIHPIKAHM": {},
                "JBODIEHINII": "1027",
                "EJCHLMIMLBO": "",
                "BIMPIKMCIHB": "",
                "MCAOJPLIJGI": ""
            },
            {
                "$type": "KAGAFALAIGP",
                "type": "DIALOG",
                "aliasList": [
                    "1027"
                ],
                "JHEPJOMJJHH": 1906501201,
                "OCILKFCPBNC": 0.5
            }
        ],
        [
            {
                "$type": "LNLLGCOBDFC",
                "type": "EMO_SYNC",
                "aliasList": [
                    "1027"
                ],
                "LKHHGAGNMKM": "Cs_Emo_Avatar_Simple_Common_Set/Cs_Emo_Avatar_Talk/Cs_Emo_Coop_Common/Cs_Emo_Coop_Noel_01/Cs_Emo_1906501202",
                "AIMKGPFAAAD": "",
                "IPEKOEDCGGF": "",
                "EJNFMNJKDAH": "",
                "LOOOCOLIHFA": "",
                "KJDLMAPPPMG": "",
                "EKJHPKFBONG": [
                    8994375912127704314,
                    12105871872093924039,
                    17543538533100193741,
                    1334667837878213052
                ]
            },
            {
                "$type": "MoleMole.Config.ConfigEmotionTemplateAction",
                "type": "EMOTION_TEMPLATE",
                "aliasList": [
                    "1027"
                ],
                "emoTemplateID": 10301
            },
            {
                "$type": "KAGAFALAIGP",
                "type": "DIALOG",
                "aliasList": [
                    "1027"
                ],
                "JHEPJOMJJHH": 1906501202,
                "OCILKFCPBNC": 0.5
            }
        ],
        [
            {
                "$type": "LNLLGCOBDFC",
                "type": "EMO_SYNC",
                "aliasList": [
                    "1027"
                ],
                "LKHHGAGNMKM": "Cs_Emo_Avatar_Simple_Common_Set/Cs_Emo_Avatar_Talk/Cs_Emo_Coop_Common/Cs_Emo_Coop_Noel_01/Cs_Emo_1906501203",
                "AIMKGPFAAAD": "",
                "IPEKOEDCGGF": "",
                "EJNFMNJKDAH": "",
                "LOOOCOLIHFA": "",
                "KJDLMAPPPMG": "",
                "EKJHPKFBONG": [
                    10526403343100426930,
                    6157694226456481665,
                    15923639612271462412,
                    3063562653744128083
                ]
            },
            {
                "$type": "MoleMole.Config.ConfigEmotionTemplateAction",
                "type": "EMOTION_TEMPLATE",
                "aliasList": [
                    "1027"
                ],
                "emoTemplateID": 10100
            },
            {
                "$type": "KAGAFALAIGP",
                "type": "DIALOG",
                "aliasList": [
                    "1027"
                ],
                "JHEPJOMJJHH": 1906501203,
                "OCILKFCPBNC": 0.5
            },
            {
                "$type": "AAFOOOPNJLB",
                "type": "DIALOG_SELECT",
                "delayTime": 0.36800000071525574,
                "aliasList": [
                    "Avatar"
                ],
                "KFAEOBDAAME": [
                    1906501204
                ],
                "ELPFMMBHOLF": [
                    1381705866
                ],
                "OEAAKJDIEFD": true
            }
        ],
        [
            {
                "$type": "MoleMole.Config.ConfigEmotionTemplateAction",
                "type": "EMOTION_TEMPLATE",
                "aliasList": [
                    "1027"
                ],
                "emoTemplateID": 10701
            },
            {
                "$type": "LNLLGCOBDFC",
                "type": "EMO_SYNC",
                "aliasList": [
                    "1027"
                ],
                "LKHHGAGNMKM": "Cs_Emo_Avatar_Simple_Common_Set/Cs_Emo_Avatar_Talk/Cs_Emo_Coop_Common/Cs_Emo_Coop_Noel_01/Cs_Emo_1906501205",
                "AIMKGPFAAAD": "",
                "IPEKOEDCGGF": "",
                "EJNFMNJKDAH": "",
                "LOOOCOLIHFA": "",
                "KJDLMAPPPMG": "",
                "EKJHPKFBONG": [
                    15406565896600841851,
                    9921657098765104491,
                    17349638241267106981,
                    8305464431892385900
                ]
            },
            {
                "$type": "KAGAFALAIGP",
                "type": "DIALOG",
                "aliasList": [
                    "1027"
                ],
                "JHEPJOMJJHH": 1906501205,
                "OCILKFCPBNC": 0.5
            },
            {
                "$type": "AAFOOOPNJLB",
                "type": "DIALOG_SELECT",
                "delayTime": 0.4000000059604645,
                "aliasList": [
                    "Avatar"
                ],
                "KFAEOBDAAME": [
                    1906501206,
                    1906501207
                ],
                "ELPFMMBHOLF": [
                    1381705867,
                    1381705867
                ],
                "OEAAKJDIEFD": true
            }
        ],
        [
            {
                "$type": "LNLLGCOBDFC",
                "type": "EMO_SYNC",
                "aliasList": [
                    "1027"
                ],
                "LKHHGAGNMKM": "Cs_Emo_Avatar_Simple_Common_Set/Cs_Emo_Avatar_Talk/Cs_Emo_Coop_Common/Cs_Emo_Coop_Noel_01/Cs_Emo_1906501208",
                "AIMKGPFAAAD": "",
                "IPEKOEDCGGF": "",
                "EJNFMNJKDAH": "",
                "LOOOCOLIHFA": "",
                "KJDLMAPPPMG": "",
                "EKJHPKFBONG": [
                    14585666134642224810,
                    12560958459844434872,
                    11848391254731245986,
                    9998581793311972672
                ]
            },
            {
                "$type": "MoleMole.Config.ConfigEmotionTemplateAction",
                "type": "EMOTION_TEMPLATE",
                "aliasList": [
                    "1027"
                ],
                "emoTemplateID": 10100
            },
            {
                "$type": "KAGAFALAIGP",
                "type": "DIALOG",
                "aliasList": [
                    "1027"
                ],
                "JHEPJOMJJHH": 1906501208,
                "OCILKFCPBNC": 0.5
            }
        ],
        [
            {
                "$type": "MoleMole.Config.ConfigEmotionTemplateAction",
                "type": "EMOTION_TEMPLATE",
                "aliasList": [
                    "1027"
                ],
                "emoTemplateID": 10601
            },
            {
                "$type": "LNLLGCOBDFC",
                "type": "EMO_SYNC",
                "aliasList": [
                    "1027"
                ],
                "LKHHGAGNMKM": "Cs_Emo_Avatar_Simple_Common_Set/Cs_Emo_Avatar_Talk/Cs_Emo_Coop_Common/Cs_Emo_Coop_Noel_01/Cs_Emo_1906501209",
                "AIMKGPFAAAD": "",
                "IPEKOEDCGGF": "",
                "EJNFMNJKDAH": "",
                "LOOOCOLIHFA": "",
                "KJDLMAPPPMG": "",
                "EKJHPKFBONG": [
                    17609910831101178343,
                    2370066893098003018,
                    13335085790279799586,
                    11395225833893665266
                ]
            },
            {
                "$type": "KAGAFALAIGP",
                "type": "DIALOG",
                "aliasList": [
                    "1027"
                ],
                "JHEPJOMJJHH": 1906501209,
                "OCILKFCPBNC": 0.5
            }
        ],
        [
            {
                "$type": "MoleMole.Config.ConfigEmotionTemplateAction",
                "type": "EMOTION_TEMPLATE",
                "aliasList": [
                    "1027"
                ],
                "emoTemplateID": 10100
            },
            {
                "$type": "LNLLGCOBDFC",
                "type": "EMO_SYNC",
                "aliasList": [
                    "1027"
                ],
                "LKHHGAGNMKM": "Cs_Emo_Avatar_Simple_Common_Set/Cs_Emo_Avatar_Talk/Cs_Emo_Coop_Common/Cs_Emo_Coop_Noel_01/Cs_Emo_1906501210",
                "AIMKGPFAAAD": "",
                "IPEKOEDCGGF": "",
                "EJNFMNJKDAH": "",
                "LOOOCOLIHFA": "",
                "KJDLMAPPPMG": "",
                "EKJHPKFBONG": [
                    15012059997050002011,
                    12692164813951381818,
                    5840760475018713741,
                    8769036033813479363
                ]
            },
            {
                "$type": "KAGAFALAIGP",
                "type": "DIALOG",
                "aliasList": [
                    "1027"
                ],
                "JHEPJOMJJHH": 1906501210,
                "OCILKFCPBNC": 0.5
            }
        ],
        [
            {
                "$type": "MoleMole.Config.ConfigEmotionTemplateAction",
                "type": "EMOTION_TEMPLATE",
                "aliasList": [
                    "1027"
                ],
                "emoTemplateID": 10301
            },
            {
                "$type": "LNLLGCOBDFC",
                "type": "EMO_SYNC",
                "aliasList": [
                    "1027"
                ],
                "LKHHGAGNMKM": "Cs_Emo_Avatar_Simple_Common_Set/Cs_Emo_Avatar_Talk/Cs_Emo_Coop_Common/Cs_Emo_Coop_Noel_01/Cs_Emo_1906501211",
                "AIMKGPFAAAD": "",
                "IPEKOEDCGGF": "",
                "EJNFMNJKDAH": "",
                "LOOOCOLIHFA": "",
                "KJDLMAPPPMG": "",
                "EKJHPKFBONG": [
                    16716987773231220670,
                    11646038198075722242,
                    2768252883655272525,
                    17186935180991355239
                ]
            },
            {
                "$type": "KAGAFALAIGP",
                "type": "DIALOG",
                "aliasList": [
                    "1027"
                ],
                "JHEPJOMJJHH": 1906501211,
                "OCILKFCPBNC": 0.5
            },
            {
                "$type": "AAFOOOPNJLB",
                "type": "DIALOG_SELECT",
                "delayTime": 0.4000000059604645,
                "aliasList": [
                    "Avatar"
                ],
                "KFAEOBDAAME": [
                    1906501212
                ],
                "ELPFMMBHOLF": [
                    4178176106
                ],
                "OEAAKJDIEFD": true
            }
        ],
        [
            {
                "$type": "MoleMole.Config.ConfigEmotionTemplateAction",
                "type": "EMOTION_TEMPLATE",
                "aliasList": [
                    "1027"
                ],
                "emoTemplateID": 10701
            },
            {
                "$type": "LNLLGCOBDFC",
                "type": "EMO_SYNC",
                "aliasList": [
                    "1027"
                ],
                "LKHHGAGNMKM": "Cs_Emo_Avatar_Simple_Common_Set/Cs_Emo_Avatar_Talk/Cs_Emo_Coop_Common/Cs_Emo_Coop_Noel_01/Cs_Emo_1906501213",
                "AIMKGPFAAAD": "",
                "IPEKOEDCGGF": "",
                "EJNFMNJKDAH": "",
                "LOOOCOLIHFA": "",
                "KJDLMAPPPMG": "",
                "EKJHPKFBONG": [
                    17214114327339107282,
                    5622933905348656730,
                    8726030202718647370,
                    4734741082736379343
                ]
            },
            {
                "$type": "KAGAFALAIGP",
                "type": "DIALOG",
                "aliasList": [
                    "1027"
                ],
                "JHEPJOMJJHH": 1906501213,
                "OCILKFCPBNC": 0.5
            },
            {
                "$type": "AAFOOOPNJLB",
                "type": "DIALOG_SELECT",
                "delayTime": 0.4000000059604645,
                "aliasList": [
                    "Avatar"
                ],
                "KFAEOBDAAME": [
                    1906501214
                ],
                "ELPFMMBHOLF": [
                    4178176107
                ],
                "OEAAKJDIEFD": true
            }
        ],
        [
            {
                "$type": "LNLLGCOBDFC",
                "type": "EMO_SYNC",
                "aliasList": [
                    "1027"
                ],
                "LKHHGAGNMKM": "Cs_Emo_Avatar_Simple_Common_Set/Cs_Emo_Avatar_Talk/Cs_Emo_Coop_Common/Cs_Emo_Coop_Noel_01/Cs_Emo_1906501215",
                "AIMKGPFAAAD": "",
                "IPEKOEDCGGF": "",
                "EJNFMNJKDAH": "",
                "LOOOCOLIHFA": "",
                "KJDLMAPPPMG": "",
                "EKJHPKFBONG": [
                    12923500919140513151,
                    2000624957336908469,
                    18176768284568870212,
                    8147679444749577827
                ]
            },
            {
                "$type": "MoleMole.Config.ConfigEmotionTemplateAction",
                "type": "EMOTION_TEMPLATE",
                "aliasList": [
                    "1027"
                ],
                "emoTemplateID": 10100
            },
            {
                "$type": "KAGAFALAIGP",
                "type": "DIALOG",
                "aliasList": [
                    "1027"
                ],
                "JHEPJOMJJHH": 1906501215,
                "OCILKFCPBNC": 0.5
            }
        ],
        [
            {
                "$type": "LNLLGCOBDFC",
                "type": "EMO_SYNC",
                "aliasList": [
                    "1027"
                ],
                "LKHHGAGNMKM": "Cs_Emo_Avatar_Simple_Common_Set/Cs_Emo_Avatar_Talk/Cs_Emo_Coop_Common/Cs_Emo_Coop_Noel_01/Cs_Emo_1906501216",
                "AIMKGPFAAAD": "",
                "IPEKOEDCGGF": "",
                "EJNFMNJKDAH": "",
                "LOOOCOLIHFA": "",
                "KJDLMAPPPMG": "",
                "EKJHPKFBONG": [
                    5423976764436993481,
                    17317413871587986764,
                    6367057463409194952,
                    17985142435301787044
                ]
            },
            {
                "$type": "MoleMole.Config.ConfigEmotionTemplateAction",
                "type": "EMOTION_TEMPLATE",
                "aliasList": [
                    "1027"
                ],
                "emoTemplateID": 10601
            },
            {
                "$type": "KAGAFALAIGP",
                "type": "DIALOG",
                "aliasList": [
                    "1027"
                ],
                "JHEPJOMJJHH": 1906501216,
                "OCILKFCPBNC": 0.5
            }
        ],
        [
            {
                "$type": "LNLLGCOBDFC",
                "type": "EMO_SYNC",
                "aliasList": [
                    "1027"
                ],
                "LKHHGAGNMKM": "Cs_Emo_Avatar_Simple_Common_Set/Cs_Emo_Avatar_Talk/Cs_Emo_Coop_Common/Cs_Emo_Coop_Noel_01/Cs_Emo_1906501217",
                "AIMKGPFAAAD": "",
                "IPEKOEDCGGF": "",
                "EJNFMNJKDAH": "",
                "LOOOCOLIHFA": "",
                "KJDLMAPPPMG": "",
                "EKJHPKFBONG": [
                    10560587019343826950,
                    9026434631283073031,
                    17590053034582395201,
                    11396224384119791792
                ]
            },
            {
                "$type": "MoleMole.Config.ConfigEmotionTemplateAction",
                "type": "EMOTION_TEMPLATE",
                "aliasList": [
                    "1027"
                ],
                "emoTemplateID": 10701
            },
            {
                "$type": "KAGAFALAIGP",
                "type": "DIALOG",
                "aliasList": [
                    "1027"
                ],
                "JHEPJOMJJHH": 1906501217,
                "OCILKFCPBNC": 0.5
            }
        ],
        [
            {
                "$type": "MoleMole.Config.ConfigEmotionTemplateAction",
                "type": "EMOTION_TEMPLATE",
                "aliasList": [
                    "1027"
                ],
                "emoTemplateID": 10100
            },
            {
                "$type": "LNLLGCOBDFC",
                "type": "EMO_SYNC",
                "aliasList": [
                    "1027"
                ],
                "LKHHGAGNMKM": "Cs_Emo_Avatar_Simple_Common_Set/Cs_Emo_Avatar_Talk/Cs_Emo_Coop_Common/Cs_Emo_Coop_Noel_01/Cs_Emo_1906501218",
                "AIMKGPFAAAD": "",
                "IPEKOEDCGGF": "",
                "EJNFMNJKDAH": "",
                "LOOOCOLIHFA": "",
                "KJDLMAPPPMG": "",
                "EKJHPKFBONG": [
                    1505980498302213434,
                    17711749003714292159,
                    6506634795847209921,
                    5731687469950197024
                ]
            },
            {
                "$type": "KAGAFALAIGP",
                "type": "DIALOG",
                "aliasList": [
                    "1027"
                ],
                "JHEPJOMJJHH": 1906501218,
                "OCILKFCPBNC": 0.5
            }
        ],
        [
            {
                "$type": "MoleMole.Config.ConfigEmotionTemplateAction",
                "type": "EMOTION_TEMPLATE",
                "aliasList": [
                    "1027"
                ],
                "emoTemplateID": 10601
            },
            {
                "$type": "LNLLGCOBDFC",
                "type": "EMO_SYNC",
                "aliasList": [
                    "1027"
                ],
                "LKHHGAGNMKM": "Cs_Emo_Avatar_Simple_Common_Set/Cs_Emo_Avatar_Talk/Cs_Emo_Coop_Common/Cs_Emo_Coop_Noel_01/Cs_Emo_1906501219",
                "AIMKGPFAAAD": "",
                "IPEKOEDCGGF": "",
                "EJNFMNJKDAH": "",
                "LOOOCOLIHFA": "",
                "KJDLMAPPPMG": "",
                "EKJHPKFBONG": [
                    1755822730579969685,
                    15286653962368564658,
                    8806390372975184986,
                    18059014356122742805
                ]
            },
            {
                "$type": "KAGAFALAIGP",
                "type": "DIALOG",
                "aliasList": [
                    "1027"
                ],
                "JHEPJOMJJHH": 1906501219,
                "OCILKFCPBNC": 0.5
            }
        ],
        [
            {
                "$type": "MoleMole.Config.ConfigEmotionTemplateAction",
                "type": "EMOTION_TEMPLATE",
                "aliasList": [
                    "1027"
                ],
                "emoTemplateID": 10100
            },
            {
                "$type": "LNLLGCOBDFC",
                "type": "EMO_SYNC",
                "aliasList": [
                    "1027"
                ],
                "LKHHGAGNMKM": "Cs_Emo_Avatar_Simple_Common_Set/Cs_Emo_Avatar_Talk/Cs_Emo_Coop_Common/Cs_Emo_Coop_Noel_01/Cs_Emo_1906501220",
                "AIMKGPFAAAD": "",
                "IPEKOEDCGGF": "",
                "EJNFMNJKDAH": "",
                "LOOOCOLIHFA": "",
                "KJDLMAPPPMG": "",
                "EKJHPKFBONG": [
                    10104815764022998507,
                    7475489893384498546,
                    8599712678713814724,
                    5518844480593574880
                ]
            },
            {
                "$type": "KAGAFALAIGP",
                "type": "DIALOG",
                "aliasList": [
                    "1027"
                ],
                "JHEPJOMJJHH": 1906501220,
                "OCILKFCPBNC": 0.5
            },
            {
                "$type": "AAFOOOPNJLB",
                "type": "DIALOG_SELECT",
                "delayTime": 0.4000000059604645,
                "aliasList": [
                    "Avatar"
                ],
                "KFAEOBDAAME": [
                    1906501221
                ],
                "ELPFMMBHOLF": [
                    4178176113
                ],
                "OEAAKJDIEFD": true
            }
        ],
        [
            {
                "$type": "LNLLGCOBDFC",
                "type": "EMO_SYNC",
                "aliasList": [
                    "1027"
                ],
                "LKHHGAGNMKM": "Cs_Emo_Avatar_Simple_Common_Set/Cs_Emo_Avatar_Talk/Cs_Emo_Coop_Common/Cs_Emo_Coop_Noel_01/Cs_Emo_1906501222",
                "AIMKGPFAAAD": "",
                "IPEKOEDCGGF": "",
                "EJNFMNJKDAH": "",
                "LOOOCOLIHFA": "",
                "KJDLMAPPPMG": "",
                "EKJHPKFBONG": [
                    4770151350656924265,
                    8096333099779267711,
                    12890625799817974568,
                    5017084858113548000
                ]
            },
            {
                "$type": "MoleMole.Config.ConfigEmotionTemplateAction",
                "type": "EMOTION_TEMPLATE",
                "aliasList": [
                    "1027"
                ],
                "emoTemplateID": 10201
            },
            {
                "$type": "KAGAFALAIGP",
                "type": "DIALOG",
                "aliasList": [
                    "1027"
                ],
                "JHEPJOMJJHH": 1906501222,
                "OCILKFCPBNC": 0.5
            }
        ],
        [
            {
                "$type": "MoleMole.Config.ConfigSimpleBlackScreenAction",
                "type": "SIMPLE_BLACK_SCREEN",
                "durationToBlack": 0.5,
                "durationKeepBlack": 1.0,
                "durationFromBlack": 0.5,
                "textMapID": ""
            },
            {
                "$type": "MoleMole.Config.ConfigTimeProtectAction",
                "type": "TIME_PROTECT",
                "duration": 0.699999988079071
            },
            {
                "$type": "MoleMole.Config.ConfigVisibleInterAction",
                "type": "VISIBLE",
                "delayTime": 0.6000000238418579,
                "aliasList": [
                    "1027"
                ],
                "extraParam": ""
            },
            {
                "$type": "MoleMole.Config.ConfigVisibleInterAction",
                "type": "VISIBLE",
                "delayTime": 0.6000000238418579,
                "aliasList": [
                    "Avatar"
                ],
                "isVisible": true,
                "extraParam": ""
            },
            {
                "$type": "PBIGHFCHGCA",
                "type": "CAMERA_MOVE",
                "delayTime": 0.6000000238418579,
                "duration": 0.10000000149011612,
                "CGCNCKNJOFB": "EXIT",
                "JOBAHIHHJIB": "Other",
                "FNMFGIOLKBE": 6,
                "NECGMADJICG": "EaseInOutCubic",
                "BMHIHPIKAHM": {},
                "HGGPLEMCNNG": false,
                "JBODIEHINII": "",
                "EJCHLMIMLBO": "",
                "BIMPIKMCIHB": "",
                "MCAOJPLIJGI": ""
            }
        ]
    ],
    "groupId": [
        {
            "grpId": 1381705862,
            "nextGrpId": 1381705863
        },
        {
            "index": 1,
            "grpId": 1381705863,
            "nextGrpId": 1381705864
        },
        {
            "index": 2,
            "grpId": 1381705864,
            "nextGrpId": 1381705865
        },
        {
            "index": 3,
            "grpId": 1381705865,
            "nextGrpId": 1381705866
        },
        {
            "index": 4,
            "grpId": 1381705866,
            "nextGrpId": 1381705867
        },
        {
            "index": 5,
            "grpId": 1381705867,
            "nextGrpId": 1381705868
        },
        {
            "index": 6,
            "grpId": 1381705868,
            "nextGrpId": 1381705869
        },
        {
            "index": 7,
            "grpId": 1381705869,
            "nextGrpId": 1381705870
        },
        {
            "index": 8,
            "grpId": 1381705870,
            "nextGrpId": 4178176106
        },
        {
            "index": 9,
            "grpId": 4178176106,
            "nextGrpId": 4178176107
        },
        {
            "index": 10,
            "grpId": 4178176107,
            "nextGrpId": 4178176108
        },
        {
            "index": 11,
            "grpId": 4178176108,
            "nextGrpId": 4178176109
        },
        {
            "index": 12,
            "grpId": 4178176109,
            "nextGrpId": 4178176110
        },
        {
            "index": 13,
            "grpId": 4178176110,
            "nextGrpId": 4178176111
        },
        {
            "index": 14,
            "grpId": 4178176111,
            "nextGrpId": 4178176112
        },
        {
            "index": 15,
            "grpId": 4178176112,
            "nextGrpId": 4178176113
        },
        {
            "index": 16,
            "grpId": 4178176113,
            "nextGrpId": 4178176114
        },
        {
            "index": 17,
            "grpId": 4178176114,
            "nextGrpId": 4178176115
        }
    ],
    "freeStyleDic": {
        "1027": [
            10100,
            10301,
            10701,
            10601,
            10201
        ]
    }
}