{
    "radius": 5.0,
    "height": 5.0,
    "furnitureUnits": [
        {
            "furnitureID": 361316,
            "position": {
                "x": 0.204376220703125,
                "z": 1.2735214233398438
            },
            "rotation": {
                "y": 179.9998321533203
            }
        },
        {
            "furnitureID": 360407,
            "position": {
                "x": 1.190999984741211,
                "y": 0.5410000085830688,
                "z": 0.013000000268220901
            },
            "rotation": {
                "y": 180.0001678466797
            },
            "parentIndex": 0
        },
        {
            "furnitureID": 363206,
            "position": {
                "x": -1.2130000591278076,
                "y": 0.5440000295639038,
                "z": -0.006996512413024902
            },
            "rotation": {
                "y": 270.0
            },
            "parentIndex": 0
        },
        {
            "furnitureID": 363314,
            "position": {
                "x": 0.43199974298477173,
                "y": 0.5479999780654907,
                "z": -0.08200138807296753
            },
            "rotation": {
                "y": 270.2097473144531
            },
            "parentIndex": 0
        },
        {
            "furnitureID": 373325,
            "position": {
                "x": -2.3916015625,
                "z": 0.26851654052734375
            },
            "rotation": {
                "x": 2.5044785161298933e-06,
                "y": 89.99983215332031
            }
        },
        {
            "furnitureID": 362210,
            "position": {
                "x": 0.1423797607421875,
                "z": 2.5945472717285156
            },
            "rotation": {
                "y": 89.99983215332031
            }
        },
        {
            "furnitureID": 362213,
            "position": {
                "x": -0.8576202392578125,
                "z": 3.2535362243652344
            },
            "rotation": {
                "y": 179.9998321533203
            }
        },
        {
            "furnitureID": 362213,
            "position": {
                "x": 1.1423797607421875,
                "z": 3.2535362243652344
            },
            "rotation": {
                "y": 179.9998321533203
            }
        },
        {
            "furnitureID": 361210,
            "position": {
                "x": -0.1256103515625,
                "z": -2.946453094482422
            },
            "rotation": {
                "y": -0.00016733963275328279
            }
        },
        {
            "furnitureID": 361209,
            "position": {
                "x": 3.0343780517578125,
                "z": 2.1535377502441406
            },
            "rotation": {
                "y": 270.0001525878906
            }
        },
        {
            "furnitureID": 360410,
            "position": {
                "x": -2.282623291015625,
                "z": 1.7855339050292969
            },
            "rotation": {
                "y": 89.99983215332031
            }
        },
        {
            "furnitureID": 361209,
            "position": {
                "x": -2.005615234375,
                "z": -2.7434768676757812
            },
            "rotation": {
                "y": -0.00016733963275328279
            }
        }
    ],
    "AEEHOJEHMEI": [
        {
            "position": {
                "x": -2.3864288330078125,
                "z": -1.4832534790039062
            },
            "rotation": {
                "y": 90.241455078125
            }
        },
        {
            "position": {
                "x": 2.965776205062866,
                "z": -0.6455256342887878
            },
            "rotation": {
                "y": 270.57049560546875
            }
        },
        {
            "position": {
                "x": -0.903990626335144,
                "z": 2.5449113845825195
            },
            "rotation": {
                "y": 180.0594482421875
            }
        },
        {
            "position": {
                "x": 1.8793065547943115,
                "z": 2.4666872024536133
            },
            "rotation": {
                "y": 194.35943603515625
            }
        },
        {
            "position": {
                "x": 1.6051732301712036,
                "z": -2.279228448867798
            }
        }
    ]
}