{
    "radius": 21.399999618530273,
    "height": 5.0,
    "furnitureUnits": [
        {
            "furnitureID": 372227,
            "position": {
                "x": -11.579999923706055,
                "z": -10.469999313354492
            },
            "rotation": {
                "x": 9.334723472420592e-06,
                "y": 28.545907974243164,
                "z": -3.053332109717588e-12
            }
        },
        {
            "furnitureID": 371227,
            "position": {
                "x": 6.820000171661377,
                "z": -2.4800000190734863
            },
            "rotation": {
                "x": 9.334661626780871e-06,
                "y": 91.71615600585938,
                "z": -3.2568880318356586e-12
            }
        },
        {
            "furnitureID": 371227,
            "position": {
                "x": 9.65999984741211,
                "z": -0.3400001525878906
            },
            "rotation": {
                "x": 9.334667993243784e-06,
                "y": 178.2108917236328,
                "z": -4.859887232228077e-12
            }
        },
        {
            "furnitureID": 371229,
            "position": {
                "x": 11.821999549865723,
                "z": 10.770000457763672
            },
            "rotation": {
                "x": 9.334667993243784e-06
            }
        },
        {
            "furnitureID": 372226,
            "position": {
                "x": -0.5899999737739563,
                "z": -9.819999694824219
            },
            "rotation": {
                "y": 23.35232925415039
            }
        },
        {
            "furnitureID": 372327,
            "position": {
                "x": 10.620000839233398,
                "z": 8.670000076293945
            },
            "rotation": {
                "y": 28.697771072387695
            }
        },
        {
            "furnitureID": 371228,
            "position": {
                "x": 12.420000076293945,
                "z": -11.34000015258789
            },
            "rotation": {
                "x": 9.334664355264977e-06,
                "y": 133.30955505371094,
                "z": -9.159997413354937e-12
            }
        },
        {
            "furnitureID": 372325,
            "position": {
                "x": -10.710000991821289,
                "z": -7.930000305175781
            },
            "rotation": {
                "y": 180.00033569335938
            }
        },
        {
            "furnitureID": 372439,
            "position": {
                "x": 7.950000286102295,
                "z": 7.449999809265137
            }
        },
        {
            "furnitureID": 371228,
            "position": {
                "x": 13.520000457763672,
                "z": 2.9000000953674316
            },
            "rotation": {
                "x": 9.334663445770275e-06,
                "y": 97.67101287841797,
                "z": -2.8497766212803866e-12
            }
        },
        {
            "furnitureID": 371228,
            "position": {
                "x": 13.727999687194824,
                "z": 5.2769999504089355
            },
            "rotation": {
                "x": 9.334662536275573e-06,
                "y": 92.38103485107422,
                "z": -4.071110202424899e-12
            }
        },
        {
            "furnitureID": 371228,
            "position": {
                "x": 13.3100004196167,
                "z": -9.119999885559082
            },
            "rotation": {
                "x": 9.334662536275573e-06,
                "y": 92.38103485107422,
                "z": -4.071110202424899e-12
            }
        },
        {
            "furnitureID": 371228,
            "position": {
                "x": 8.350000381469727,
                "z": 12.569999694824219
            },
            "rotation": {
                "x": 9.334664355264977e-06,
                "y": 2.3811936378479004,
                "z": -3.4986098219891293e-12
            }
        },
        {
            "furnitureID": 372439,
            "position": {
                "x": -9.149999618530273,
                "z": -8.860000610351562
            }
        },
        {
            "furnitureID": 372225,
            "position": {
                "x": -2.6700000762939453,
                "z": -9.010000228881836
            },
            "rotation": {
                "y": 51.81095504760742
            }
        },
        {
            "furnitureID": 371116,
            "position": {
                "x": -5.690000057220459,
                "z": 3.2100000381469727
            },
            "rotation": {
                "y": 90.0
            }
        },
        {
            "furnitureID": 371230,
            "position": {
                "x": 13.350000381469727,
                "z": -3.0999999046325684
            },
            "rotation": {
                "y": 90.0
            }
        },
        {
            "furnitureID": 371228,
            "position": {
                "x": 13.800999641418457,
                "z": 7.646999835968018
            },
            "rotation": {
                "x": 9.334662536275573e-06,
                "y": 92.38103485107422,
                "z": -4.071110202424899e-12
            }
        }
    ],
    "AEEHOJEHMEI": [
        {
            "position": {
                "x": 8.167291641235352,
                "z": -11.778034210205078
            },
            "rotation": {
                "y": 348.3602600097656
            }
        },
        {
            "position": {
                "x": -6.925012588500977,
                "z": -9.270367622375488
            },
            "rotation": {
                "y": 90.6657485961914
            }
        },
        {
            "position": {
                "x": 11.83236026763916,
                "z": -9.603961944580078
            },
            "rotation": {
                "y": 270.79681396484375
            }
        },
        {
            "position": {
                "x": 10.124505043029785,
                "z": -2.138913154602051
            },
            "rotation": {
                "y": 180.53387451171875
            }
        },
        {
            "position": {
                "x": 4.984553337097168,
                "z": -11.549002647399902
            }
        }
    ]
}