{
    "luaDataPath": "",
    "entityBan": "",
    "disableNpcLod": true,
    "BHNKJKDADLC": true,
    "startFade": {
        "startFadeInDuration": 0.5,
        "startFadeOutDuration": 0.5
    },
    "endFade": {
        "startFadeOutDuration": 0.0
    },
    "actors": [
        {
            "alias": "Avatar",
            "visible": true,
            "bornPointName": "Q1203410_N10000005",
            "relativePosNpcAlias": "",
            "bindMovingTargetKey": ""
        },
        {
            "configID": 3023,
            "alias": "3023",
            "visible": true,
            "bornPointName": "Q1203410_N3023",
            "relativePosNpcAlias": "",
            "bindMovingTargetKey": ""
        },
        {
            "configID": 3005,
            "alias": "3005",
            "visible": true,
            "bornPointName": "Q1203410_N3005",
            "relativePosNpcAlias": "",
            "bindMovingTargetKey": ""
        },
        {
            "configID": 1005,
            "alias": "1005",
            "visible": true,
            "bornPointName": "Q1203410_N10000005",
            "removeActorType": "REMOVE_WITH_DISAPPEAR",
            "relativePosNpcAlias": "",
            "bindMovingTargetKey": ""
        },
        {
            "configID": 1047,
            "alias": "1047",
            "visible": true,
            "bornPointName": "Q1203410_N1047",
            "removeActorType": "REMOVE",
            "forceCreateDaily": true,
            "relativePosNpcAlias": "",
            "bindMovingTargetKey": ""
        }
    ],
    "group": [
        [
            {
                "$type": "MoleMole.Config.ConfigTeleportToAction",
                "type": "TELEPORT_TO",
                "aliasList": [
                    "1005"
                ],
                "position": {
                    "x": -3106.820068359375,
                    "y": 251.177001953125,
                    "z": -4427.47705078125
                },
                "forward": {
                    "x": -0.7129999995231628,
                    "z": 0.24300000071525574
                },
                "openLongDisTeleport": true,
                "posBindMovingTargetKey": "",
                "forwardBindMovingTargetKey": ""
            },
            {
                "$type": "MoleMole.Config.ConfigTeleportToAction",
                "type": "TELEPORT_TO",
                "aliasList": [
                    "3005"
                ],
                "position": {
                    "x": -3108.0849609375,
                    "y": 251.177001953125,
                    "z": -4426.580078125
                },
                "forward": {
                    "x": -0.7310000061988831,
                    "z": 0.11400000005960464
                },
                "openLongDisTeleport": true,
                "posBindMovingTargetKey": "",
                "forwardBindMovingTargetKey": ""
            },
            {
                "$type": "FNPNDPFBBDD",
                "type": "LOOK_AT",
                "aliasList": [
                    "1005"
                ],
                "NKGFDJDHOBD": true,
                "useTargetPos": true,
                "LBJHJADMNBD": true,
                "EKIONHAEIBG": {
                    "x": -3109.6708984375,
                    "y": 253.01400756835938,
                    "z": -4425.1328125
                },
                "MNOPLOBEFLB": 0.5,
                "JBODIEHINII": "",
                "CFPBIOLLOCO": "NONE",
                "LPCACGGCDLI": "",
                "NNFPFPOJJOJ": ""
            },
            {
                "$type": "FNPNDPFBBDD",
                "type": "LOOK_AT",
                "aliasList": [
                    "1047"
                ],
                "NKGFDJDHOBD": true,
                "useTargetPos": true,
                "LBJHJADMNBD": true,
                "EKIONHAEIBG": {
                    "x": -3108.73291015625,
                    "y": 252.86700439453125,
                    "z": -4426.0478515625
                },
                "MNOPLOBEFLB": 0.5,
                "JBODIEHINII": "",
                "CFPBIOLLOCO": "NONE",
                "LPCACGGCDLI": "",
                "NNFPFPOJJOJ": ""
            },
            {
                "$type": "MoleMole.Config.ConfigTeleportToAction",
                "type": "TELEPORT_TO",
                "aliasList": [
                    "1047"
                ],
                "position": {
                    "x": -3106.6279296875,
                    "y": 251.177001953125,
                    "z": -4425.9140625
                },
                "forward": {
                    "x": -1.8289999961853027,
                    "z": -0.3140000104904175
                },
                "openLongDisTeleport": true,
                "posBindMovingTargetKey": "",
                "forwardBindMovingTargetKey": ""
            },
            {
                "$type": "MoleMole.Config.ConfigTeleportToAction",
                "type": "TELEPORT_TO",
                "aliasList": [
                    "Avatar"
                ],
                "position": {
                    "x": -3106.60205078125,
                    "y": 251.177001953125,
                    "z": -4426.93603515625
                },
                "forward": {
                    "x": -1.3619999885559082,
                    "z": 0.24400000274181366
                },
                "openLongDisTeleport": true,
                "posBindMovingTargetKey": "",
                "forwardBindMovingTargetKey": ""
            },
            {
                "$type": "MoleMole.Config.ConfigBlackScreenAction",
                "type": "BLACK_SCREEN",
                "blackScreenType": "KEEP_BLACK",
                "durationKeepBlack": 0.5,
                "inteePos": "",
                "textMapID": "",
                "useTextFade": true
            },
            {
                "$type": "FNPNDPFBBDD",
                "type": "LOOK_AT",
                "aliasList": [
                    "Avatar"
                ],
                "NKGFDJDHOBD": true,
                "useTargetPos": true,
                "LBJHJADMNBD": true,
                "EKIONHAEIBG": {
                    "x": -3108.197998046875,
                    "y": 252.79299926757812,
                    "z": -4426.19580078125
                },
                "MNOPLOBEFLB": 0.5,
                "JBODIEHINII": "",
                "CFPBIOLLOCO": "NONE",
                "LPCACGGCDLI": "",
                "NNFPFPOJJOJ": ""
            },
            {
                "$type": "MoleMole.Config.ConfigTeleportToAction",
                "type": "TELEPORT_TO",
                "aliasList": [
                    "3023"
                ],
                "position": {
                    "x": -3108.501953125,
                    "y": 251.177001953125,
                    "z": -4425.962890625
                },
                "forward": {
                    "x": -0.3109999895095825,
                    "z": -0.9010000228881836
                },
                "openLongDisTeleport": true,
                "posBindMovingTargetKey": "",
                "forwardBindMovingTargetKey": ""
            },
            {
                "$type": "MoleMole.Config.ConfigHideWidgetPet",
                "type": "HIDE_WIDGET_PET",
                "aliasList": [
                    "Avatar"
                ],
                "isHide": true
            }
        ],
        [
            {
                "$type": "LNLLGCOBDFC",
                "type": "EMO_SYNC",
                "aliasList": [
                    "3023"
                ],
                "LKHHGAGNMKM": "Cs_Emo_Avatar_Simple_Common_Set/Cs_Emo_Avatar_Talk/Cs_Emo_Avatar_PersonalLine/Cs_Emo_Avatar_Ayato/Cs_Emo_120340501",
                "AIMKGPFAAAD": "",
                "IPEKOEDCGGF": "",
                "EJNFMNJKDAH": "",
                "LOOOCOLIHFA": "",
                "KJDLMAPPPMG": "",
                "EKJHPKFBONG": [
                    16979112719056726417,
                    1856888457957799715,
                    1906926385631686957,
                    735638414955873619
                ]
            },
            {
                "$type": "KAGAFALAIGP",
                "type": "DIALOG",
                "aliasList": [
                    "3023"
                ],
                "JHEPJOMJJHH": 120340501,
                "OCILKFCPBNC": 1.7039999961853027
            },
            {
                "$type": "CENEPJCONAG",
                "type": "BODY_LANG",
                "aliasList": [
                    "3023"
                ],
                "OGFPAIKLDGB": 1141,
                "MHDCNDAINCK": true,
                "LHIAJOBFNAK": false,
                "FOEKGLEJBIJ": ""
            },
            {
                "$type": "MoleMole.Config.ConfigBlackScreenAction",
                "type": "BLACK_SCREEN",
                "blackScreenType": "FROM_BLACK",
                "durationFromBlack": 0.5,
                "inteePos": "",
                "textMapID": "",
                "useTextFade": true
            },
            {
                "$type": "PBIGHFCHGCA",
                "type": "CAMERA_MOVE",
                "duration": 0.5,
                "KCFKJMMEECM": {
                    "x": -3109.60693359375,
                    "y": 252.10699462890625,
                    "z": -4418.51513671875
                },
                "DLGJEHNPMFN": {
                    "x": -3109.324951171875,
                    "y": 252.1060028076172,
                    "z": -4419.47509765625
                },
                "FNMFGIOLKBE": 6,
                "NECGMADJICG": "EaseInOutCubic",
                "BMHIHPIKAHM": {},
                "MMJMMAEAJOA": true,
                "DNFHBDHNHKE": -0.0010000000474974513,
                "HGGPLEMCNNG": false,
                "JBODIEHINII": "",
                "PHDIKPKLFIA": true,
                "EJCHLMIMLBO": "",
                "BIMPIKMCIHB": "",
                "MCAOJPLIJGI": ""
            },
            {
                "$type": "PBIGHFCHGCA",
                "type": "CAMERA_MOVE",
                "delayTime": 0.10000000149011612,
                "duration": 3.5899999141693115,
                "KCFKJMMEECM": {
                    "x": -3109.669921875,
                    "y": 252.1020050048828,
                    "z": -4418.5341796875
                },
                "DLGJEHNPMFN": {
                    "x": -3109.387939453125,
                    "y": 252.1009979248047,
                    "z": -4419.494140625
                },
                "NECGMADJICG": "EaseOutQuad",
                "BMHIHPIKAHM": {},
                "MMJMMAEAJOA": true,
                "DNFHBDHNHKE": -0.0010000000474974513,
                "HGGPLEMCNNG": false,
                "JBODIEHINII": "",
                "PHDIKPKLFIA": true,
                "EJCHLMIMLBO": "",
                "BIMPIKMCIHB": "",
                "MCAOJPLIJGI": ""
            },
            {
                "$type": "FNPNDPFBBDD",
                "type": "LOOK_AT",
                "delayTime": 1.121000051498413,
                "aliasList": [
                    "3005"
                ],
                "NKGFDJDHOBD": true,
                "useTargetPos": true,
                "LBJHJADMNBD": true,
                "EKIONHAEIBG": {
                    "x": -3108.85302734375,
                    "y": 252.81500244140625,
                    "z": -4427.2421875
                },
                "MNOPLOBEFLB": 0.5,
                "JBODIEHINII": "",
                "CFPBIOLLOCO": "NONE",
                "LPCACGGCDLI": "",
                "NNFPFPOJJOJ": ""
            },
            {
                "$type": "CENEPJCONAG",
                "type": "BODY_LANG",
                "delayTime": 2.6670000553131104,
                "aliasList": [
                    "3023"
                ],
                "NNKEOHJCPOF": true,
                "MHDCNDAINCK": true,
                "LHIAJOBFNAK": false,
                "FOEKGLEJBIJ": ""
            },
            {
                "$type": "FNPNDPFBBDD",
                "type": "LOOK_AT",
                "delayTime": 2.878999948501587,
                "aliasList": [
                    "3023"
                ],
                "NKGFDJDHOBD": true,
                "MNOPLOBEFLB": 0.5,
                "JBODIEHINII": "3005",
                "LPCACGGCDLI": "",
                "NNFPFPOJJOJ": ""
            },
            {
                "$type": "PCKGCMJKAFG",
                "type": "LOOK_AT_EYECTRL",
                "delayTime": 3.0,
                "aliasList": [
                    "3023"
                ],
                "useTargetPos": false,
                "KIIEOLGDJKJ": {
                    "x": -5.0
                },
                "JMJDEGALFIP": {
                    "x": -5.0
                },
                "OEJLBIFJKEL": 1.0,
                "JBODIEHINII": "",
                "FEHKBOLJIOO": "Face"
            },
            {
                "$type": "PBIGHFCHGCA",
                "type": "CAMERA_MOVE",
                "delayTime": 3.700000047683716,
                "duration": 0.5,
                "KCFKJMMEECM": {
                    "x": -3108.653076171875,
                    "y": 252.91799926757812,
                    "z": -4427.9609375
                },
                "DLGJEHNPMFN": {
                    "x": -3108.416015625,
                    "y": 252.79200744628906,
                    "z": -4426.998046875
                },
                "NJCBGNHGINI": 25.0,
                "FNMFGIOLKBE": 6,
                "NECGMADJICG": "EaseInOutCubic",
                "BMHIHPIKAHM": {},
                "MMJMMAEAJOA": true,
                "DNFHBDHNHKE": -0.0010000000474974513,
                "HGGPLEMCNNG": false,
                "JBODIEHINII": "",
                "PHDIKPKLFIA": true,
                "EJCHLMIMLBO": "",
                "BIMPIKMCIHB": "",
                "MCAOJPLIJGI": ""
            },
            {
                "$type": "PBIGHFCHGCA",
                "type": "CAMERA_MOVE",
                "delayTime": 3.799999952316284,
                "duration": 6.288000106811523,
                "KCFKJMMEECM": {
                    "x": -3108.614013671875,
                    "y": 252.89700317382812,
                    "z": -4427.80517578125
                },
                "DLGJEHNPMFN": {
                    "x": -3108.3759765625,
                    "y": 252.77099609375,
                    "z": -4426.841796875
                },
                "NJCBGNHGINI": 25.0,
                "NECGMADJICG": "EaseOutQuad",
                "BMHIHPIKAHM": {},
                "MMJMMAEAJOA": true,
                "DNFHBDHNHKE": -0.0010000000474974513,
                "HGGPLEMCNNG": false,
                "JBODIEHINII": "",
                "PHDIKPKLFIA": true,
                "EJCHLMIMLBO": "",
                "BIMPIKMCIHB": "",
                "MCAOJPLIJGI": ""
            },
            {
                "$type": "FNPNDPFBBDD",
                "type": "LOOK_AT",
                "delayTime": 3.9690001010894775,
                "aliasList": [
                    "3005"
                ],
                "NKGFDJDHOBD": true,
                "MNOPLOBEFLB": 0.5,
                "JBODIEHINII": "3023",
                "LPCACGGCDLI": "",
                "NNFPFPOJJOJ": ""
            },
            {
                "$type": "CENEPJCONAG",
                "type": "BODY_LANG",
                "delayTime": 4.514999866485596,
                "aliasList": [
                    "3023"
                ],
                "OGFPAIKLDGB": 1173,
                "MHDCNDAINCK": true,
                "LHIAJOBFNAK": false,
                "FOEKGLEJBIJ": ""
            },
            {
                "$type": "CENEPJCONAG",
                "type": "BODY_LANG",
                "delayTime": 5.242000102996826,
                "aliasList": [
                    "3005"
                ],
                "OGFPAIKLDGB": 4030,
                "MHDCNDAINCK": true,
                "LHIAJOBFNAK": false,
                "FOEKGLEJBIJ": ""
            }
        ],
        [
            {
                "$type": "MoleMole.Config.ConfigTeleportToAction",
                "type": "TELEPORT_TO",
                "aliasList": [
                    "3005"
                ],
                "position": {
                    "x": -3108.0849609375,
                    "y": 251.177001953125,
                    "z": -4426.580078125
                },
                "forward": {
                    "x": -0.9879999756813049,
                    "z": 0.15399999916553497
                },
                "openLongDisTeleport": true,
                "posBindMovingTargetKey": "",
                "forwardBindMovingTargetKey": ""
            },
            {
                "$type": "CENEPJCONAG",
                "type": "BODY_LANG",
                "aliasList": [
                    "3005"
                ],
                "OGFPAIKLDGB": 1050,
                "MHDCNDAINCK": true,
                "LHIAJOBFNAK": false,
                "FOEKGLEJBIJ": ""
            },
            {
                "$type": "FNPNDPFBBDD",
                "type": "LOOK_AT",
                "aliasList": [
                    "3005"
                ],
                "NKGFDJDHOBD": true,
                "MNOPLOBEFLB": 0.5,
                "JBODIEHINII": "3023",
                "LPCACGGCDLI": "",
                "NNFPFPOJJOJ": ""
            },
            {
                "$type": "LNLLGCOBDFC",
                "type": "EMO_SYNC",
                "aliasList": [
                    "3005"
                ],
                "LKHHGAGNMKM": "Cs_Emo_Avatar_Simple_Common_Set/Cs_Emo_Avatar_Talk/Cs_Emo_Avatar_PersonalLine/Cs_Emo_Avatar_Ayato/Cs_Emo_120340502",
                "AIMKGPFAAAD": "",
                "IPEKOEDCGGF": "",
                "EJNFMNJKDAH": "",
                "LOOOCOLIHFA": "",
                "KJDLMAPPPMG": "",
                "EKJHPKFBONG": [
                    8035480309784549269,
                    7295544478215524916,
                    5992202154943712629,
                    10142938497080792656
                ]
            },
            {
                "$type": "KAGAFALAIGP",
                "type": "DIALOG",
                "aliasList": [
                    "3005"
                ],
                "JHEPJOMJJHH": 120340502,
                "OCILKFCPBNC": 0.5
            },
            {
                "$type": "FNPNDPFBBDD",
                "type": "LOOK_AT",
                "aliasList": [
                    "3023"
                ],
                "NKGFDJDHOBD": true,
                "MNOPLOBEFLB": 0.5,
                "JBODIEHINII": "3005",
                "LPCACGGCDLI": "",
                "NNFPFPOJJOJ": ""
            },
            {
                "$type": "PBIGHFCHGCA",
                "type": "CAMERA_MOVE",
                "duration": 0.5,
                "KCFKJMMEECM": {
                    "x": -3107.173095703125,
                    "y": 252.95199584960938,
                    "z": -4421.89892578125
                },
                "DLGJEHNPMFN": {
                    "x": -3107.260009765625,
                    "y": 252.8260040283203,
                    "z": -4422.88720703125
                },
                "NJCBGNHGINI": 25.0,
                "FNMFGIOLKBE": 6,
                "NECGMADJICG": "EaseInOutCubic",
                "BMHIHPIKAHM": {},
                "MMJMMAEAJOA": true,
                "DNFHBDHNHKE": -0.0010000000474974513,
                "HGGPLEMCNNG": false,
                "JBODIEHINII": "",
                "PHDIKPKLFIA": true,
                "EJCHLMIMLBO": "",
                "BIMPIKMCIHB": "",
                "MCAOJPLIJGI": ""
            },
            {
                "$type": "CENEPJCONAG",
                "type": "BODY_LANG",
                "aliasList": [
                    "3023"
                ],
                "NNKEOHJCPOF": true,
                "MHDCNDAINCK": true,
                "LHIAJOBFNAK": false,
                "FOEKGLEJBIJ": ""
            },
            {
                "$type": "PBIGHFCHGCA",
                "type": "CAMERA_MOVE",
                "delayTime": 0.10000000149011612,
                "duration": 8.59000015258789,
                "KCFKJMMEECM": {
                    "x": -3107.18798828125,
                    "y": 252.9290008544922,
                    "z": -4422.078125
                },
                "DLGJEHNPMFN": {
                    "x": -3107.27490234375,
                    "y": 252.80299377441406,
                    "z": -4423.06591796875
                },
                "NJCBGNHGINI": 25.0,
                "NECGMADJICG": "EaseOutQuad",
                "BMHIHPIKAHM": {},
                "MMJMMAEAJOA": true,
                "DNFHBDHNHKE": -0.0010000000474974513,
                "HGGPLEMCNNG": false,
                "JBODIEHINII": "",
                "PHDIKPKLFIA": true,
                "EJCHLMIMLBO": "",
                "BIMPIKMCIHB": "",
                "MCAOJPLIJGI": ""
            },
            {
                "$type": "CENEPJCONAG",
                "type": "BODY_LANG",
                "delayTime": 4.001999855041504,
                "aliasList": [
                    "3005"
                ],
                "NNKEOHJCPOF": true,
                "MHDCNDAINCK": true,
                "LHIAJOBFNAK": false,
                "FOEKGLEJBIJ": ""
            }
        ],
        [
            {
                "$type": "LNLLGCOBDFC",
                "type": "EMO_SYNC",
                "aliasList": [
                    "3023"
                ],
                "LKHHGAGNMKM": "Cs_Emo_Avatar_Simple_Common_Set/Cs_Emo_Avatar_Talk/Cs_Emo_Avatar_PersonalLine/Cs_Emo_Avatar_Ayato/Cs_Emo_120340503",
                "AIMKGPFAAAD": "",
                "IPEKOEDCGGF": "",
                "EJNFMNJKDAH": "",
                "LOOOCOLIHFA": "",
                "KJDLMAPPPMG": "",
                "EKJHPKFBONG": [
                    528638503408737741,
                    11687712660595962489,
                    4398280734494739144,
                    2184083496152437921
                ]
            },
            {
                "$type": "FNPNDPFBBDD",
                "type": "LOOK_AT",
                "aliasList": [
                    "3023"
                ],
                "NKGFDJDHOBD": true,
                "useTargetPos": true,
                "LBJHJADMNBD": true,
                "EKIONHAEIBG": {
                    "x": -3108.027099609375,
                    "y": 252.6909942626953,
                    "z": -4426.9501953125
                },
                "MNOPLOBEFLB": 0.5,
                "JBODIEHINII": "",
                "CFPBIOLLOCO": "NONE",
                "LPCACGGCDLI": "",
                "NNFPFPOJJOJ": ""
            },
            {
                "$type": "MoleMole.Config.ConfigTeleportToAction",
                "type": "TELEPORT_TO",
                "aliasList": [
                    "3005"
                ],
                "position": {
                    "x": -3108.1630859375,
                    "y": 251.177001953125,
                    "z": -4428.59521484375
                },
                "forward": {
                    "x": -0.9100000262260437,
                    "z": 2.1689999103546143
                },
                "openLongDisTeleport": true,
                "posBindMovingTargetKey": "",
                "forwardBindMovingTargetKey": ""
            },
            {
                "$type": "CENEPJCONAG",
                "type": "BODY_LANG",
                "aliasList": [
                    "3005"
                ],
                "NNKEOHJCPOF": true,
                "MHDCNDAINCK": true,
                "LHIAJOBFNAK": false,
                "FOEKGLEJBIJ": ""
            },
            {
                "$type": "PBIGHFCHGCA",
                "type": "CAMERA_MOVE",
                "duration": 0.5,
                "KCFKJMMEECM": {
                    "x": -3108.178955078125,
                    "y": 252.86399841308594,
                    "z": -4427.0
                },
                "DLGJEHNPMFN": {
                    "x": -3108.468017578125,
                    "y": 252.6840057373047,
                    "z": -4426.06005859375
                },
                "NJCBGNHGINI": 25.0,
                "FNMFGIOLKBE": 6,
                "NECGMADJICG": "EaseInOutCubic",
                "BMHIHPIKAHM": {},
                "MMJMMAEAJOA": true,
                "DNFHBDHNHKE": -0.0010000000474974513,
                "HGGPLEMCNNG": false,
                "JBODIEHINII": "",
                "PHDIKPKLFIA": true,
                "EJCHLMIMLBO": "",
                "BIMPIKMCIHB": "",
                "MCAOJPLIJGI": ""
            },
            {
                "$type": "KAGAFALAIGP",
                "type": "DIALOG",
                "aliasList": [
                    "3023"
                ],
                "JHEPJOMJJHH": 120340503,
                "OCILKFCPBNC": 0.5
            },
            {
                "$type": "PCKGCMJKAFG",
                "type": "LOOK_AT_EYECTRL",
                "aliasList": [
                    "3023"
                ],
                "useTargetPos": false,
                "OEJLBIFJKEL": 1.0,
                "JBODIEHINII": "",
                "FEHKBOLJIOO": "Face"
            },
            {
                "$type": "CENEPJCONAG",
                "type": "BODY_LANG",
                "aliasList": [
                    "3023"
                ],
                "OGFPAIKLDGB": 1130,
                "MHDCNDAINCK": true,
                "LHIAJOBFNAK": false,
                "FOEKGLEJBIJ": ""
            },
            {
                "$type": "CENEPJCONAG",
                "type": "BODY_LANG",
                "delayTime": 3.2890000343322754,
                "aliasList": [
                    "3023"
                ],
                "OGFPAIKLDGB": 4040,
                "MHDCNDAINCK": true,
                "LHIAJOBFNAK": false,
                "FOEKGLEJBIJ": ""
            }
        ],
        [
            {
                "$type": "KAGAFALAIGP",
                "type": "DIALOG",
                "aliasList": [
                    "3005"
                ],
                "JHEPJOMJJHH": 120340504,
                "OCILKFCPBNC": 0.5
            },
            {
                "$type": "CENEPJCONAG",
                "type": "BODY_LANG",
                "aliasList": [
                    "3005"
                ],
                "OGFPAIKLDGB": 1171,
                "MHDCNDAINCK": true,
                "LHIAJOBFNAK": false,
                "FOEKGLEJBIJ": ""
            },
            {
                "$type": "MoleMole.Config.ConfigTeleportToAction",
                "type": "TELEPORT_TO",
                "aliasList": [
                    "3005"
                ],
                "position": {
                    "x": -3108.0849609375,
                    "y": 251.177001953125,
                    "z": -4426.580078125
                },
                "forward": {
                    "x": -0.9879999756813049,
                    "z": 0.15399999916553497
                },
                "openLongDisTeleport": true,
                "posBindMovingTargetKey": "",
                "forwardBindMovingTargetKey": ""
            },
            {
                "$type": "LNLLGCOBDFC",
                "type": "EMO_SYNC",
                "aliasList": [
                    "3005"
                ],
                "LKHHGAGNMKM": "Cs_Emo_Avatar_Simple_Common_Set/Cs_Emo_Avatar_Talk/Cs_Emo_Avatar_PersonalLine/Cs_Emo_Avatar_Ayato/Cs_Emo_120340504",
                "AIMKGPFAAAD": "",
                "IPEKOEDCGGF": "",
                "EJNFMNJKDAH": "",
                "LOOOCOLIHFA": "",
                "KJDLMAPPPMG": "",
                "EKJHPKFBONG": [
                    3465661017791183807,
                    16791185437638629238,
                    3422356065617734857,
                    322102410340873106
                ]
            },
            {
                "$type": "PBIGHFCHGCA",
                "type": "CAMERA_MOVE",
                "duration": 0.5,
                "KCFKJMMEECM": {
                    "x": -3111.89794921875,
                    "y": 256.3280029296875,
                    "z": -4423.4677734375
                },
                "DLGJEHNPMFN": {
                    "x": -3111.22998046875,
                    "y": 255.7220001220703,
                    "z": -4423.89892578125
                },
                "FNMFGIOLKBE": 6,
                "NECGMADJICG": "EaseInOutCubic",
                "BMHIHPIKAHM": {},
                "MMJMMAEAJOA": true,
                "DNFHBDHNHKE": -0.0010000000474974513,
                "HGGPLEMCNNG": false,
                "JBODIEHINII": "",
                "PHDIKPKLFIA": true,
                "EJCHLMIMLBO": "",
                "BIMPIKMCIHB": "",
                "MCAOJPLIJGI": ""
            },
            {
                "$type": "CENEPJCONAG",
                "type": "BODY_LANG",
                "aliasList": [
                    "3023"
                ],
                "NNKEOHJCPOF": true,
                "MHDCNDAINCK": true,
                "LHIAJOBFNAK": false,
                "FOEKGLEJBIJ": ""
            },
            {
                "$type": "PBIGHFCHGCA",
                "type": "CAMERA_MOVE",
                "delayTime": 0.10000000149011612,
                "duration": 8.5,
                "KCFKJMMEECM": {
                    "x": -3112.4150390625,
                    "y": 256.7959899902344,
                    "z": -4423.134765625
                },
                "DLGJEHNPMFN": {
                    "x": -3111.7470703125,
                    "y": 256.19000244140625,
                    "z": -4423.56591796875
                },
                "NECGMADJICG": "EaseOutQuad",
                "BMHIHPIKAHM": {},
                "MMJMMAEAJOA": true,
                "DNFHBDHNHKE": -0.0010000000474974513,
                "HGGPLEMCNNG": false,
                "JBODIEHINII": "",
                "PHDIKPKLFIA": true,
                "EJCHLMIMLBO": "",
                "BIMPIKMCIHB": "",
                "MCAOJPLIJGI": ""
            },
            {
                "$type": "CENEPJCONAG",
                "type": "BODY_LANG",
                "delayTime": 1.4149999618530273,
                "aliasList": [
                    "3023"
                ],
                "OGFPAIKLDGB": 4030,
                "MHDCNDAINCK": true,
                "LHIAJOBFNAK": false,
                "FOEKGLEJBIJ": ""
            }
        ],
        [
            {
                "$type": "KAGAFALAIGP",
                "type": "DIALOG_CLEAR",
                "JHEPJOMJJHH": 120340504
            },
            {
                "$type": "FNPNDPFBBDD",
                "type": "LOOK_AT",
                "aliasList": [
                    "3005"
                ],
                "NKGFDJDHOBD": true,
                "useTargetPos": true,
                "LBJHJADMNBD": true,
                "EKIONHAEIBG": {
                    "x": -3108.76806640625,
                    "y": 252.81700134277344,
                    "z": -4426.9658203125
                },
                "MNOPLOBEFLB": 0.5,
                "JBODIEHINII": "",
                "CFPBIOLLOCO": "NONE",
                "LPCACGGCDLI": "",
                "NNFPFPOJJOJ": ""
            },
            {
                "$type": "FNPNDPFBBDD",
                "type": "LOOK_AT",
                "aliasList": [
                    "3023"
                ],
                "NKGFDJDHOBD": true,
                "useTargetPos": true,
                "LBJHJADMNBD": true,
                "EKIONHAEIBG": {
                    "x": -3109.125,
                    "y": 252.6959991455078,
                    "z": -4426.8388671875
                },
                "MNOPLOBEFLB": 0.5,
                "JBODIEHINII": "",
                "CFPBIOLLOCO": "NONE",
                "LPCACGGCDLI": "",
                "NNFPFPOJJOJ": ""
            },
            {
                "$type": "MoleMole.Config.ConfigSimpleBlackScreenAction",
                "type": "SIMPLE_BLACK_SCREEN",
                "durationToBlack": 0.5,
                "durationKeepBlack": 1.0,
                "durationFromBlack": 0.5,
                "textMapID": ""
            },
            {
                "$type": "MoleMole.Config.ConfigTimeProtectAction",
                "type": "TIME_PROTECT",
                "duration": 0.10000000149011612
            },
            {
                "$type": "MoleMole.Config.ConfigTimeProtectAction",
                "type": "TIME_PROTECT",
                "duration": 0.699999988079071
            },
            {
                "$type": "MoleMole.Config.ConfigTeleportToAction",
                "type": "TELEPORT_TO",
                "delayTime": 0.6000000238418579,
                "aliasList": [
                    "3005"
                ],
                "position": {
                    "x": -3108.0849609375,
                    "y": 251.177001953125,
                    "z": -4426.580078125
                },
                "forward": {
                    "x": -0.7310000061988831,
                    "z": 0.11400000005960464
                },
                "openLongDisTeleport": true,
                "posBindMovingTargetKey": "",
                "forwardBindMovingTargetKey": ""
            },
            {
                "$type": "MoleMole.Config.ConfigVisibleInterAction",
                "type": "VISIBLE",
                "delayTime": 0.6000000238418579,
                "aliasList": [
                    "1047"
                ],
                "extraParam": ""
            },
            {
                "$type": "PBIGHFCHGCA",
                "type": "CAMERA_MOVE",
                "delayTime": 0.6000000238418579,
                "duration": 0.10000000149011612,
                "KCFKJMMEECM": {
                    "x": -3104.0009765625,
                    "y": 252.96099853515625,
                    "z": -4428.4267578125
                },
                "DLGJEHNPMFN": {
                    "x": -3104.89599609375,
                    "y": 252.7779998779297,
                    "z": -4428.02099609375
                },
                "FNMFGIOLKBE": 6,
                "NECGMADJICG": "EaseInOutCubic",
                "BMHIHPIKAHM": {},
                "MMJMMAEAJOA": true,
                "DNFHBDHNHKE": -0.0010000000474974513,
                "HGGPLEMCNNG": false,
                "JBODIEHINII": "",
                "PHDIKPKLFIA": true,
                "EJCHLMIMLBO": "",
                "BIMPIKMCIHB": "",
                "MCAOJPLIJGI": ""
            },
            {
                "$type": "MoleMole.Config.ConfigHideWidgetPet",
                "type": "HIDE_WIDGET_PET",
                "delayTime": 0.6000000238418579,
                "aliasList": [
                    "Avatar"
                ]
            },
            {
                "$type": "MoleMole.Config.ConfigTeleportToAction",
                "type": "TELEPORT_TO",
                "delayTime": 0.6000000238418579,
                "aliasList": [
                    "3023"
                ],
                "position": {
                    "x": -3108.501953125,
                    "y": 251.177001953125,
                    "z": -4425.962890625
                },
                "forward": {
                    "x": -0.3109999895095825,
                    "z": -0.9010000228881836
                },
                "openLongDisTeleport": true,
                "posBindMovingTargetKey": "",
                "forwardBindMovingTargetKey": ""
            }
        ]
    ],
    "groupId": [
        {
            "grpId": 972314501,
            "nextGrpId": 972314502
        },
        {
            "index": 1,
            "grpId": 972314502,
            "nextGrpId": 972314503
        },
        {
            "index": 2,
            "grpId": 972314503,
            "nextGrpId": 972314504
        },
        {
            "index": 3,
            "grpId": 972314504,
            "nextGrpId": 972314505
        },
        {
            "index": 4,
            "grpId": 972314505,
            "nextGrpId": 972314506
        },
        {
            "index": 5,
            "grpId": 972314506,
            "nextGrpId": 972314507
        }
    ],
    "freeStyleDic": {
        "3023": [
            1173,
            1141,
            1130,
            4040,
            4030
        ],
        "3005": [
            4030,
            1050,
            1171
        ],
        "1047": []
    }
}