{
    "luaDataPath": "",
    "startBlackKeepTime": 0.5,
    "entityBan": "",
    "disableNpcLod": true,
    "startFade": {
        "startFadeInDuration": 0.5,
        "startFadeOutDuration": 0.5
    },
    "endFade": {
        "startFadeOutDuration": 0.0
    },
    "actors": [
        {
            "alias": "Avatar",
            "visible": true,
            "bornPointName": "",
            "relativePosNpcAlias": "",
            "bindMovingTargetKey": ""
        },
        {
            "configID": 3193,
            "alias": "3193",
            "visible": true,
            "bornPointName": "Q3_72233_1",
            "relativePosNpcAlias": "",
            "bindMovingTargetKey": ""
        },
        {
            "configID": 1005,
            "alias": "1005",
            "visible": true,
            "bornPointName": "",
            "useRelativePos": true,
            "relativePos": {
                "x": -0.5,
                "z": 0.5
            },
            "removeActorType": "REMOVE_WITH_DISAPPEAR",
            "relativePosNpcAlias": "",
            "bindMovingTargetKey": ""
        }
    ],
    "group": [
        [
            {
                "$type": "FNPNDPFBBDD",
                "type": "LOOK_AT",
                "aliasList": [
                    "3193"
                ],
                "NKGFDJDHOBD": true,
                "LFFOIAAIEDN": true,
                "MNOPLOBEFLB": 0.5,
                "JBODIEHINII": "Avatar",
                "LPCACGGCDLI": "",
                "NNFPFPOJJOJ": ""
            },
            {
                "$type": "MoleMole.Config.ConfigTeleportToAction",
                "type": "TELEPORT_TO",
                "aliasList": [
                    "3193"
                ],
                "position": {
                    "x": -3809.904052734375,
                    "y": 163.74000549316406,
                    "z": -766.68701171875
                },
                "forward": {
                    "x": 1.2059999704360962,
                    "y": 0.18000000715255737,
                    "z": 0.17900000512599945
                },
                "openLongDisTeleport": true,
                "posBindMovingTargetKey": "",
                "forwardBindMovingTargetKey": ""
            },
            {
                "$type": "FNPNDPFBBDD",
                "type": "LOOK_AT",
                "aliasList": [
                    "1005"
                ],
                "NKGFDJDHOBD": true,
                "MNOPLOBEFLB": 0.5,
                "JBODIEHINII": "3193",
                "LPCACGGCDLI": "",
                "NNFPFPOJJOJ": ""
            },
            {
                "$type": "MoleMole.Config.ConfigTeleportToAction",
                "type": "TELEPORT_TO",
                "aliasList": [
                    "1005"
                ],
                "position": {
                    "x": -3808.681884765625,
                    "y": 163.88400268554688,
                    "z": -765.9429931640625
                },
                "forward": {
                    "x": -1.1150000095367432,
                    "y": 0.035999998450279236,
                    "z": -0.7400000095367432
                },
                "openLongDisTeleport": true,
                "posBindMovingTargetKey": "",
                "forwardBindMovingTargetKey": ""
            },
            {
                "$type": "MoleMole.Config.ConfigTimeProtectAction",
                "type": "TIME_PROTECT",
                "duration": 1.0
            },
            {
                "$type": "MoleMole.Config.ConfigSimpleBlackScreenAction",
                "type": "SIMPLE_BLACK_SCREEN",
                "duration": 1.0,
                "durationToBlack": 0.5,
                "durationKeepBlack": 0.5,
                "durationFromBlack": 0.5,
                "textMapID": ""
            },
            {
                "$type": "FNPNDPFBBDD",
                "type": "LOOK_AT",
                "aliasList": [
                    "Avatar"
                ],
                "NKGFDJDHOBD": true,
                "MNOPLOBEFLB": 0.5,
                "JBODIEHINII": "3193",
                "LPCACGGCDLI": "",
                "NNFPFPOJJOJ": ""
            },
            {
                "$type": "MoleMole.Config.ConfigTeleportToAction",
                "type": "TELEPORT_TO",
                "aliasList": [
                    "Avatar"
                ],
                "position": {
                    "x": -3808.387939453125,
                    "y": 163.87899780273438,
                    "z": -766.9569702148438
                },
                "forward": {
                    "x": -0.597000002861023,
                    "y": 0.03999999910593033,
                    "z": 0.08299999684095383
                },
                "openLongDisTeleport": true,
                "posBindMovingTargetKey": "",
                "forwardBindMovingTargetKey": ""
            }
        ],
        [
            {
                "$type": "PBIGHFCHGCA",
                "type": "CAMERA_MOVE",
                "duration": 1.0,
                "KCFKJMMEECM": {
                    "x": -3805.951904296875,
                    "y": 165.59300231933594,
                    "z": -765.9739990234375
                },
                "DLGJEHNPMFN": {
                    "x": -3806.916015625,
                    "y": 165.39300537109375,
                    "z": -766.1489868164062
                },
                "NJCBGNHGINI": 30.0,
                "FNMFGIOLKBE": 6,
                "NECGMADJICG": "EaseInOutCubic",
                "BMHIHPIKAHM": {},
                "HGGPLEMCNNG": false,
                "JBODIEHINII": "",
                "PHDIKPKLFIA": true,
                "EJCHLMIMLBO": "",
                "BIMPIKMCIHB": "",
                "MCAOJPLIJGI": ""
            },
            {
                "$type": "KAGAFALAIGP",
                "type": "DIALOG",
                "aliasList": [
                    "3193"
                ],
                "JHEPJOMJJHH": 722330301,
                "OCILKFCPBNC": 0.5
            },
            {
                "$type": "MoleMole.Config.ConfigBlackScreenAction",
                "type": "BLACK_SCREEN",
                "blackScreenType": "FROM_BLACK",
                "durationFromBlack": 0.5,
                "inteePos": "",
                "textMapID": "",
                "useTextFade": true
            },
            {
                "$type": "PBIGHFCHGCA",
                "type": "CAMERA_MOVE",
                "delayTime": 0.10000000149011612,
                "duration": 4.175000190734863,
                "KCFKJMMEECM": {
                    "x": -3805.93896484375,
                    "y": 165.5290069580078,
                    "z": -765.9730224609375
                },
                "DLGJEHNPMFN": {
                    "x": -3806.903076171875,
                    "y": 165.32899475097656,
                    "z": -766.1480102539062
                },
                "NJCBGNHGINI": 30.0,
                "NECGMADJICG": "EaseOutQuad",
                "BMHIHPIKAHM": {},
                "HGGPLEMCNNG": false,
                "JBODIEHINII": "",
                "PHDIKPKLFIA": true,
                "EJCHLMIMLBO": "",
                "BIMPIKMCIHB": "",
                "MCAOJPLIJGI": ""
            },
            {
                "$type": "LNLLGCOBDFC",
                "type": "EMO_SYNC",
                "delayTime": 1.4500000476837158,
                "aliasList": [
                    "3193"
                ],
                "LKHHGAGNMKM": "",
                "AIMKGPFAAAD": "Cs_Emo_NPC_Common/Cs_Emo_NPC_Normal01",
                "IPEKOEDCGGF": "Cs_Emo_NPC_Common/Cs_Emo_NPC_Normal01_B",
                "EJNFMNJKDAH": "",
                "LOOOCOLIHFA": "",
                "KJDLMAPPPMG": "",
                "IMIEGJDNPNN": [
                    12803840960998583578,
                    3437050431160283015,
                    6548526936325855136,
                    1274732080047098512
                ],
                "KIJHIMADJGM": [
                    15191155715402440098,
                    420038106395935518,
                    2651432695756251320,
                    4209314551981667660
                ]
            },
            {
                "$type": "FNPNDPFBBDD",
                "type": "LOOK_AT",
                "delayTime": 1.4670000076293945,
                "aliasList": [
                    "3193"
                ],
                "NKGFDJDHOBD": true,
                "MNOPLOBEFLB": 0.5,
                "JBODIEHINII": "1005",
                "LPCACGGCDLI": "",
                "NNFPFPOJJOJ": ""
            }
        ],
        [
            {
                "$type": "FNPNDPFBBDD",
                "type": "LOOK_AT",
                "aliasList": [
                    "3193"
                ],
                "NKGFDJDHOBD": true,
                "MNOPLOBEFLB": 0.5,
                "JBODIEHINII": "1005",
                "LPCACGGCDLI": "",
                "NNFPFPOJJOJ": ""
            },
            {
                "$type": "KAGAFALAIGP",
                "type": "DIALOG",
                "aliasList": [
                    "1005"
                ],
                "JHEPJOMJJHH": 722330302,
                "OCILKFCPBNC": 0.5
            },
            {
                "$type": "CENEPJCONAG",
                "type": "BODY_LANG",
                "aliasList": [
                    "1005"
                ],
                "OGFPAIKLDGB": 1170,
                "MHDCNDAINCK": true,
                "LHIAJOBFNAK": false,
                "FOEKGLEJBIJ": ""
            },
            {
                "$type": "PBIGHFCHGCA",
                "type": "CAMERA_MOVE",
                "duration": 1.0,
                "KCFKJMMEECM": {
                    "x": -3810.697021484375,
                    "y": 165.51199340820312,
                    "z": -767.97998046875
                },
                "DLGJEHNPMFN": {
                    "x": -3809.972900390625,
                    "y": 165.30599975585938,
                    "z": -767.322021484375
                },
                "NJCBGNHGINI": 30.0,
                "FNMFGIOLKBE": 6,
                "NECGMADJICG": "EaseInOutCubic",
                "BMHIHPIKAHM": {},
                "HGGPLEMCNNG": false,
                "JBODIEHINII": "",
                "PHDIKPKLFIA": true,
                "EJCHLMIMLBO": "",
                "BIMPIKMCIHB": "",
                "MCAOJPLIJGI": ""
            },
            {
                "$type": "PBIGHFCHGCA",
                "type": "CAMERA_MOVE",
                "delayTime": 0.10000000149011612,
                "duration": 2.6670000553131104,
                "KCFKJMMEECM": {
                    "x": -3810.718994140625,
                    "y": 165.51100158691406,
                    "z": -767.9569702148438
                },
                "DLGJEHNPMFN": {
                    "x": -3809.9951171875,
                    "y": 165.30499267578125,
                    "z": -767.2990112304688
                },
                "NJCBGNHGINI": 30.0,
                "NECGMADJICG": "EaseOutQuad",
                "BMHIHPIKAHM": {},
                "HGGPLEMCNNG": false,
                "JBODIEHINII": "",
                "PHDIKPKLFIA": true,
                "EJCHLMIMLBO": "",
                "BIMPIKMCIHB": "",
                "MCAOJPLIJGI": ""
            },
            {
                "$type": "FNPNDPFBBDD",
                "type": "LOOK_AT",
                "delayTime": 0.125,
                "aliasList": [
                    "Avatar"
                ],
                "NKGFDJDHOBD": true,
                "MNOPLOBEFLB": 0.5,
                "JBODIEHINII": "1005",
                "LPCACGGCDLI": "",
                "NNFPFPOJJOJ": ""
            },
            {
                "$type": "CENEPJCONAG",
                "type": "BODY_LANG",
                "delayTime": 1.6330000162124634,
                "aliasList": [
                    "1005"
                ],
                "NNKEOHJCPOF": true,
                "MHDCNDAINCK": true,
                "LHIAJOBFNAK": false,
                "FOEKGLEJBIJ": ""
            }
        ],
        [
            {
                "$type": "LNLLGCOBDFC",
                "type": "EMO_SYNC",
                "aliasList": [
                    "3193"
                ],
                "LKHHGAGNMKM": "",
                "AIMKGPFAAAD": "Cs_Emo_NPC_Common/Cs_Emo_NPC_Normal01",
                "IPEKOEDCGGF": "Cs_Emo_NPC_Common/Cs_Emo_NPC_Doubt01_B",
                "EJNFMNJKDAH": "",
                "LOOOCOLIHFA": "",
                "KJDLMAPPPMG": "",
                "IMIEGJDNPNN": [
                    12803840960998583578,
                    3437050431160283015,
                    6548526936325855136,
                    1274732080047098512
                ],
                "KIJHIMADJGM": [
                    15369943862977843558,
                    15718659102951044843,
                    10298298771658282219,
                    7902458052996455432
                ]
            },
            {
                "$type": "CENEPJCONAG",
                "type": "BODY_LANG",
                "aliasList": [
                    "1005"
                ],
                "NNKEOHJCPOF": true,
                "MHDCNDAINCK": true,
                "LHIAJOBFNAK": false,
                "FOEKGLEJBIJ": ""
            },
            {
                "$type": "FNPNDPFBBDD",
                "type": "LOOK_AT",
                "aliasList": [
                    "3193"
                ],
                "NKGFDJDHOBD": true,
                "MNOPLOBEFLB": 0.5,
                "JBODIEHINII": "",
                "CFPBIOLLOCO": "CAMERA",
                "LPCACGGCDLI": "",
                "NNFPFPOJJOJ": ""
            },
            {
                "$type": "PBIGHFCHGCA",
                "type": "CAMERA_MOVE",
                "duration": 1.0,
                "KCFKJMMEECM": {
                    "x": -3809.0380859375,
                    "y": 165.27000427246094,
                    "z": -766.1170043945312
                },
                "DLGJEHNPMFN": {
                    "x": -3809.928955078125,
                    "y": 165.25100708007812,
                    "z": -766.5700073242188
                },
                "NJCBGNHGINI": 25.0,
                "FNMFGIOLKBE": 6,
                "NECGMADJICG": "EaseInOutCubic",
                "BMHIHPIKAHM": {},
                "HGGPLEMCNNG": false,
                "JBODIEHINII": "",
                "PHDIKPKLFIA": true,
                "EJCHLMIMLBO": "",
                "BIMPIKMCIHB": "",
                "MCAOJPLIJGI": ""
            },
            {
                "$type": "KAGAFALAIGP",
                "type": "DIALOG",
                "aliasList": [
                    "3193"
                ],
                "JHEPJOMJJHH": 722330303,
                "OCILKFCPBNC": 0.5
            }
        ],
        [
            {
                "$type": "KAGAFALAIGP",
                "type": "DIALOG",
                "aliasList": [
                    "1005"
                ],
                "JHEPJOMJJHH": 722330304,
                "OCILKFCPBNC": 0.5
            },
            {
                "$type": "CENEPJCONAG",
                "type": "BODY_LANG",
                "aliasList": [
                    "1005"
                ],
                "OGFPAIKLDGB": 1090,
                "MHDCNDAINCK": true,
                "LHIAJOBFNAK": false,
                "FOEKGLEJBIJ": ""
            },
            {
                "$type": "PBIGHFCHGCA",
                "type": "CAMERA_MOVE",
                "duration": 1.0,
                "KCFKJMMEECM": {
                    "x": -3809.534912109375,
                    "y": 165.4010009765625,
                    "z": -766.4990234375
                },
                "DLGJEHNPMFN": {
                    "x": -3808.739990234375,
                    "y": 165.2100067138672,
                    "z": -765.9229736328125
                },
                "NJCBGNHGINI": 25.0,
                "FNMFGIOLKBE": 6,
                "NECGMADJICG": "EaseInOutCubic",
                "BMHIHPIKAHM": {},
                "HGGPLEMCNNG": false,
                "JBODIEHINII": "",
                "PHDIKPKLFIA": true,
                "EJCHLMIMLBO": "",
                "BIMPIKMCIHB": "",
                "MCAOJPLIJGI": ""
            },
            {
                "$type": "FNPNDPFBBDD",
                "type": "LOOK_AT",
                "aliasList": [
                    "3193"
                ],
                "NKGFDJDHOBD": true,
                "MNOPLOBEFLB": 0.5,
                "JBODIEHINII": "1005",
                "LPCACGGCDLI": "",
                "NNFPFPOJJOJ": ""
            },
            {
                "$type": "LNLLGCOBDFC",
                "type": "EMO_SYNC",
                "delayTime": 0.32899999618530273,
                "aliasList": [
                    "1005"
                ],
                "LKHHGAGNMKM": "",
                "AIMKGPFAAAD": "Cs_Emo_Pet_Common/Cs_Emo_Paimon_None",
                "IPEKOEDCGGF": "Cs_Emo_Pet_Common/Cs_Emo_Paimon_Normal03_B",
                "EJNFMNJKDAH": "",
                "LOOOCOLIHFA": "",
                "KJDLMAPPPMG": "",
                "IMIEGJDNPNN": [
                    1796869206626684908,
                    2049648015653630001,
                    14015965774222061559,
                    873259039409222856
                ],
                "KIJHIMADJGM": [
                    14912093781062014899,
                    15194069477213898188,
                    8302863847694511414,
                    1263332498188810234
                ]
            }
        ],
        [
            {
                "$type": "KAGAFALAIGP",
                "type": "DIALOG",
                "aliasList": [
                    "3193"
                ],
                "JHEPJOMJJHH": 722330305,
                "OCILKFCPBNC": 0.5
            },
            {
                "$type": "FNPNDPFBBDD",
                "type": "LOOK_AT",
                "aliasList": [
                    "3193"
                ],
                "NKGFDJDHOBD": true,
                "MNOPLOBEFLB": 0.5,
                "JBODIEHINII": "1005",
                "LPCACGGCDLI": "",
                "NNFPFPOJJOJ": ""
            },
            {
                "$type": "LNLLGCOBDFC",
                "type": "EMO_SYNC",
                "aliasList": [
                    "3193"
                ],
                "LKHHGAGNMKM": "",
                "AIMKGPFAAAD": "Cs_Emo_NPC_Common/Cs_Emo_NPC_Normal01",
                "IPEKOEDCGGF": "Cs_Emo_NPC_Common/Cs_Emo_NPC_Normal01",
                "EJNFMNJKDAH": "",
                "LOOOCOLIHFA": "",
                "KJDLMAPPPMG": "",
                "IMIEGJDNPNN": [
                    12803840960998583578,
                    3437050431160283015,
                    6548526936325855136,
                    1274732080047098512
                ],
                "KIJHIMADJGM": [
                    10638823098752766568,
                    16550434959365186937,
                    16779490980036678760,
                    2038118027140397243
                ]
            },
            {
                "$type": "PBIGHFCHGCA",
                "type": "CAMERA_MOVE",
                "duration": 1.0,
                "KCFKJMMEECM": {
                    "x": -3803.47705078125,
                    "y": 165.6280059814453,
                    "z": -771.64697265625
                },
                "DLGJEHNPMFN": {
                    "x": -3804.27197265625,
                    "y": 165.51100158691406,
                    "z": -771.052001953125
                },
                "NJCBGNHGINI": 35.0,
                "FNMFGIOLKBE": 6,
                "NECGMADJICG": "EaseInOutCubic",
                "BMHIHPIKAHM": {},
                "HGGPLEMCNNG": false,
                "JBODIEHINII": "",
                "PHDIKPKLFIA": true,
                "EJCHLMIMLBO": "",
                "BIMPIKMCIHB": "",
                "MCAOJPLIJGI": ""
            },
            {
                "$type": "FNPNDPFBBDD",
                "type": "LOOK_AT",
                "aliasList": [
                    "Avatar"
                ],
                "NKGFDJDHOBD": true,
                "MNOPLOBEFLB": 0.5,
                "JBODIEHINII": "3193",
                "LPCACGGCDLI": "",
                "NNFPFPOJJOJ": ""
            },
            {
                "$type": "PBIGHFCHGCA",
                "type": "CAMERA_MOVE",
                "delayTime": 0.10000000149011612,
                "duration": 13.119000434875488,
                "KCFKJMMEECM": {
                    "x": -3803.5849609375,
                    "y": 165.63499450683594,
                    "z": -771.791015625
                },
                "DLGJEHNPMFN": {
                    "x": -3804.3798828125,
                    "y": 165.51800537109375,
                    "z": -771.1959838867188
                },
                "NJCBGNHGINI": 35.0,
                "NECGMADJICG": "EaseOutQuad",
                "BMHIHPIKAHM": {},
                "HGGPLEMCNNG": false,
                "JBODIEHINII": "",
                "PHDIKPKLFIA": true,
                "EJCHLMIMLBO": "",
                "BIMPIKMCIHB": "",
                "MCAOJPLIJGI": ""
            },
            {
                "$type": "CENEPJCONAG",
                "type": "BODY_LANG",
                "delayTime": 1.125,
                "aliasList": [
                    "1005"
                ],
                "NNKEOHJCPOF": true,
                "MHDCNDAINCK": true,
                "LHIAJOBFNAK": false,
                "FOEKGLEJBIJ": ""
            },
            {
                "$type": "CENEPJCONAG",
                "type": "BODY_LANG",
                "delayTime": 1.7730000019073486,
                "aliasList": [
                    "3193"
                ],
                "OGFPAIKLDGB": 4040,
                "MHDCNDAINCK": true,
                "LHIAJOBFNAK": false,
                "FOEKGLEJBIJ": ""
            },
            {
                "$type": "LNLLGCOBDFC",
                "type": "EMO_SYNC",
                "delayTime": 1.8559999465942383,
                "aliasList": [
                    "3193"
                ],
                "LKHHGAGNMKM": "",
                "AIMKGPFAAAD": "Cs_Emo_NPC_Common/Cs_Emo_NPC_Normal01",
                "IPEKOEDCGGF": "Cs_Emo_NPC_Common/Cs_Emo_NPC_WinkA01",
                "EJNFMNJKDAH": "",
                "LOOOCOLIHFA": "",
                "KJDLMAPPPMG": "",
                "HCOIDDGKHJC": false,
                "IMIEGJDNPNN": [
                    12803840960998583578,
                    3437050431160283015,
                    6548526936325855136,
                    1274732080047098512
                ],
                "KIJHIMADJGM": [
                    3765270258116979292,
                    5819579798871825639,
                    6466964524325215505,
                    5921498707822553356
                ]
            },
            {
                "$type": "LNLLGCOBDFC",
                "type": "EMO_SYNC",
                "delayTime": 3.5490000247955322,
                "aliasList": [
                    "3193"
                ],
                "LKHHGAGNMKM": "",
                "AIMKGPFAAAD": "Cs_Emo_NPC_Common/Cs_Emo_NPC_Normal01",
                "IPEKOEDCGGF": "Cs_Emo_NPC_Common/Cs_Emo_NPC_Normal01",
                "EJNFMNJKDAH": "",
                "LOOOCOLIHFA": "",
                "KJDLMAPPPMG": "",
                "IMIEGJDNPNN": [
                    12803840960998583578,
                    3437050431160283015,
                    6548526936325855136,
                    1274732080047098512
                ],
                "KIJHIMADJGM": [
                    10638823098752766568,
                    16550434959365186937,
                    16779490980036678760,
                    2038118027140397243
                ]
            }
        ],
        [
            {
                "$type": "FNPNDPFBBDD",
                "type": "LOOK_AT",
                "aliasList": [
                    "3193"
                ],
                "NKGFDJDHOBD": true,
                "MNOPLOBEFLB": 0.5,
                "JBODIEHINII": "1005",
                "LPCACGGCDLI": "",
                "NNFPFPOJJOJ": ""
            },
            {
                "$type": "KAGAFALAIGP",
                "type": "DIALOG",
                "aliasList": [
                    "1005"
                ],
                "JHEPJOMJJHH": 722330306,
                "OCILKFCPBNC": 0.5
            },
            {
                "$type": "CENEPJCONAG",
                "type": "BODY_LANG",
                "aliasList": [
                    "1005"
                ],
                "OGFPAIKLDGB": 1300,
                "MHDCNDAINCK": true,
                "LHIAJOBFNAK": false,
                "FOEKGLEJBIJ": ""
            },
            {
                "$type": "LNLLGCOBDFC",
                "type": "EMO_SYNC",
                "aliasList": [
                    "3193"
                ],
                "LKHHGAGNMKM": "",
                "AIMKGPFAAAD": "Cs_Emo_NPC_Common/Cs_Emo_NPC_Normal01",
                "IPEKOEDCGGF": "Cs_Emo_NPC_Common/Cs_Emo_NPC_Normal01",
                "EJNFMNJKDAH": "",
                "LOOOCOLIHFA": "",
                "KJDLMAPPPMG": "",
                "IMIEGJDNPNN": [
                    12803840960998583578,
                    3437050431160283015,
                    6548526936325855136,
                    1274732080047098512
                ],
                "KIJHIMADJGM": [
                    10638823098752766568,
                    16550434959365186937,
                    16779490980036678760,
                    2038118027140397243
                ]
            },
            {
                "$type": "PBIGHFCHGCA",
                "type": "CAMERA_MOVE",
                "duration": 1.0,
                "KCFKJMMEECM": {
                    "x": -3810.785888671875,
                    "y": 165.01699829101562,
                    "z": -768.4400024414062
                },
                "DLGJEHNPMFN": {
                    "x": -3810.10107421875,
                    "y": 164.9770050048828,
                    "z": -767.7119750976562
                },
                "NJCBGNHGINI": 35.0,
                "FNMFGIOLKBE": 6,
                "NECGMADJICG": "EaseInOutCubic",
                "BMHIHPIKAHM": {},
                "HGGPLEMCNNG": false,
                "JBODIEHINII": "",
                "PHDIKPKLFIA": true,
                "EJCHLMIMLBO": "",
                "BIMPIKMCIHB": "",
                "MCAOJPLIJGI": ""
            },
            {
                "$type": "CENEPJCONAG",
                "type": "BODY_LANG",
                "aliasList": [
                    "3193"
                ],
                "NNKEOHJCPOF": true,
                "MHDCNDAINCK": true,
                "LHIAJOBFNAK": false,
                "FOEKGLEJBIJ": ""
            },
            {
                "$type": "PBIGHFCHGCA",
                "type": "CAMERA_MOVE",
                "delayTime": 0.10000000149011612,
                "duration": 8.0,
                "KCFKJMMEECM": {
                    "x": -3810.75,
                    "y": 165.01400756835938,
                    "z": -768.4010009765625
                },
                "DLGJEHNPMFN": {
                    "x": -3810.06494140625,
                    "y": 164.9739990234375,
                    "z": -767.6729736328125
                },
                "NJCBGNHGINI": 35.0,
                "NECGMADJICG": "EaseOutQuad",
                "BMHIHPIKAHM": {},
                "HGGPLEMCNNG": false,
                "JBODIEHINII": "",
                "PHDIKPKLFIA": true,
                "EJCHLMIMLBO": "",
                "BIMPIKMCIHB": "",
                "MCAOJPLIJGI": ""
            },
            {
                "$type": "LNLLGCOBDFC",
                "type": "EMO_SYNC",
                "delayTime": 0.8410000205039978,
                "aliasList": [
                    "1005"
                ],
                "LKHHGAGNMKM": "",
                "AIMKGPFAAAD": "Cs_Emo_Pet_Common/Cs_Emo_Paimon_None",
                "IPEKOEDCGGF": "Cs_Emo_Pet_Common/Cs_Emo_Paimon_Sad01_B",
                "EJNFMNJKDAH": "",
                "LOOOCOLIHFA": "",
                "KJDLMAPPPMG": "",
                "IMIEGJDNPNN": [
                    1796869206626684908,
                    2049648015653630001,
                    14015965774222061559,
                    873259039409222856
                ],
                "KIJHIMADJGM": [
                    10940866982183166715,
                    8554459969586240451,
                    6180460083106472584,
                    10095477716235604445
                ]
            },
            {
                "$type": "CENEPJCONAG",
                "type": "BODY_LANG",
                "delayTime": 2.8570001125335693,
                "aliasList": [
                    "1005"
                ],
                "NNKEOHJCPOF": true,
                "MHDCNDAINCK": true,
                "LHIAJOBFNAK": false,
                "FOEKGLEJBIJ": ""
            }
        ],
        [
            {
                "$type": "LNLLGCOBDFC",
                "type": "EMO_SYNC",
                "aliasList": [
                    "1005"
                ],
                "LKHHGAGNMKM": "",
                "AIMKGPFAAAD": "Cs_Emo_Pet_Common/Cs_Emo_Paimon_None",
                "IPEKOEDCGGF": "Cs_Emo_Pet_Common/Cs_Emo_Paimon_Normal01",
                "EJNFMNJKDAH": "",
                "LOOOCOLIHFA": "",
                "KJDLMAPPPMG": "",
                "IMIEGJDNPNN": [
                    1796869206626684908,
                    2049648015653630001,
                    14015965774222061559,
                    873259039409222856
                ],
                "KIJHIMADJGM": [
                    312453201720762420,
                    9562322946389574798,
                    18422542724361145117,
                    17949024460815132449
                ]
            },
            {
                "$type": "CENEPJCONAG",
                "type": "BODY_LANG",
                "aliasList": [
                    "1005"
                ],
                "NNKEOHJCPOF": true,
                "MHDCNDAINCK": true,
                "LHIAJOBFNAK": false,
                "FOEKGLEJBIJ": ""
            },
            {
                "$type": "KAGAFALAIGP",
                "type": "DIALOG",
                "aliasList": [
                    "3193"
                ],
                "JHEPJOMJJHH": 722330307,
                "OCILKFCPBNC": 0.5
            },
            {
                "$type": "PBIGHFCHGCA",
                "type": "CAMERA_MOVE",
                "duration": 1.0,
                "KCFKJMMEECM": {
                    "x": -3806.884033203125,
                    "y": 165.36199951171875,
                    "z": -766.2860107421875
                },
                "DLGJEHNPMFN": {
                    "x": -3807.87109375,
                    "y": 165.2570037841797,
                    "z": -766.4099731445312
                },
                "NJCBGNHGINI": 25.0,
                "FNMFGIOLKBE": 6,
                "NECGMADJICG": "EaseInOutCubic",
                "BMHIHPIKAHM": {},
                "HGGPLEMCNNG": false,
                "JBODIEHINII": "",
                "PHDIKPKLFIA": true,
                "EJCHLMIMLBO": "",
                "BIMPIKMCIHB": "",
                "MCAOJPLIJGI": ""
            },
            {
                "$type": "PBIGHFCHGCA",
                "type": "CAMERA_MOVE",
                "delayTime": 0.10000000149011612,
                "duration": 10.878999710083008,
                "KCFKJMMEECM": {
                    "x": -3806.9169921875,
                    "y": 165.35899353027344,
                    "z": -766.2899780273438
                },
                "DLGJEHNPMFN": {
                    "x": -3807.904052734375,
                    "y": 165.25399780273438,
                    "z": -766.4140014648438
                },
                "NJCBGNHGINI": 25.0,
                "NECGMADJICG": "EaseOutQuad",
                "BMHIHPIKAHM": {},
                "HGGPLEMCNNG": false,
                "JBODIEHINII": "",
                "PHDIKPKLFIA": true,
                "EJCHLMIMLBO": "",
                "BIMPIKMCIHB": "",
                "MCAOJPLIJGI": ""
            },
            {
                "$type": "LNLLGCOBDFC",
                "type": "EMO_SYNC",
                "delayTime": 0.5210000276565552,
                "aliasList": [
                    "3193"
                ],
                "LKHHGAGNMKM": "",
                "AIMKGPFAAAD": "Cs_Emo_NPC_Common/Cs_Emo_NPC_Normal01",
                "IPEKOEDCGGF": "Cs_Emo_NPC_Common/Cs_Emo_NPC_Normal01_B",
                "EJNFMNJKDAH": "",
                "LOOOCOLIHFA": "",
                "KJDLMAPPPMG": "",
                "IMIEGJDNPNN": [
                    12803840960998583578,
                    3437050431160283015,
                    6548526936325855136,
                    1274732080047098512
                ],
                "KIJHIMADJGM": [
                    15191155715402440098,
                    420038106395935518,
                    2651432695756251320,
                    4209314551981667660
                ]
            },
            {
                "$type": "FNPNDPFBBDD",
                "type": "LOOK_AT",
                "delayTime": 0.5479999780654907,
                "aliasList": [
                    "3193"
                ],
                "NKGFDJDHOBD": true,
                "MNOPLOBEFLB": 0.5,
                "JBODIEHINII": "Avatar",
                "LPCACGGCDLI": "",
                "NNFPFPOJJOJ": ""
            }
        ],
        [
            {
                "$type": "NFDDGDIKEAG",
                "type": "STEER_TO",
                "duration": 1.2000000476837158,
                "aliasList": [
                    "3193"
                ],
                "GGJHILELIMO": "ABSOLUTE",
                "GPODKINFLFH": {
                    "x": -3810.595947265625,
                    "y": 163.6739959716797,
                    "z": -767.1610107421875
                },
                "PKKKHNGDEEE": true,
                "JBODIEHINII": "",
                "NNFPFPOJJOJ": ""
            },
            {
                "$type": "FNPNDPFBBDD",
                "type": "LOOK_AT",
                "aliasList": [
                    "3193"
                ],
                "NKGFDJDHOBD": true,
                "useTargetPos": true,
                "LBJHJADMNBD": true,
                "EKIONHAEIBG": {
                    "x": -3810.948974609375,
                    "y": 165.41700744628906,
                    "z": -767.3920288085938
                },
                "MNOPLOBEFLB": 0.5,
                "JBODIEHINII": "",
                "CFPBIOLLOCO": "NONE",
                "LPCACGGCDLI": "",
                "NNFPFPOJJOJ": ""
            },
            {
                "$type": "PBIGHFCHGCA",
                "type": "CAMERA_MOVE",
                "duration": 1.0,
                "KCFKJMMEECM": {
                    "x": -3808.39111328125,
                    "y": 165.13400268554688,
                    "z": -767.1389770507812
                },
                "DLGJEHNPMFN": {
                    "x": -3809.365966796875,
                    "y": 165.11500549316406,
                    "z": -766.9180297851562
                },
                "NJCBGNHGINI": 30.0,
                "FNMFGIOLKBE": 6,
                "NECGMADJICG": "EaseInOutCubic",
                "BMHIHPIKAHM": {},
                "HGGPLEMCNNG": false,
                "JBODIEHINII": "",
                "PHDIKPKLFIA": true,
                "EJCHLMIMLBO": "",
                "BIMPIKMCIHB": "",
                "MCAOJPLIJGI": ""
            },
            {
                "$type": "MoleMole.Config.ConfigTimeProtectAction",
                "type": "TIME_PROTECT",
                "duration": 1.0440000295639038
            },
            {
                "$type": "LNLLGCOBDFC",
                "type": "EMO_SYNC",
                "delayTime": 0.14100000262260437,
                "aliasList": [
                    "3193"
                ],
                "LKHHGAGNMKM": "",
                "AIMKGPFAAAD": "Cs_Emo_NPC_Common/Cs_Emo_NPC_Normal01",
                "IPEKOEDCGGF": "Cs_Emo_NPC_Common/Cs_Emo_NPC_WinkA01",
                "EJNFMNJKDAH": "",
                "LOOOCOLIHFA": "",
                "KJDLMAPPPMG": "",
                "HCOIDDGKHJC": false,
                "IMIEGJDNPNN": [
                    12803840960998583578,
                    3437050431160283015,
                    6548526936325855136,
                    1274732080047098512
                ],
                "KIJHIMADJGM": [
                    3765270258116979292,
                    5819579798871825639,
                    6466964524325215505,
                    5921498707822553356
                ]
            },
            {
                "$type": "KAGAFALAIGP",
                "type": "DIALOG",
                "delayTime": 0.9679999947547913,
                "aliasList": [
                    "3193"
                ],
                "JHEPJOMJJHH": 722330308,
                "OCILKFCPBNC": 0.5
            },
            {
                "$type": "FNPNDPFBBDD",
                "type": "LOOK_AT",
                "delayTime": 1.3009999990463257,
                "aliasList": [
                    "3193"
                ],
                "NKGFDJDHOBD": true,
                "useTargetPos": true,
                "LBJHJADMNBD": true,
                "EKIONHAEIBG": {
                    "x": -3811.174072265625,
                    "y": 165.52099609375,
                    "z": -767.3720092773438
                },
                "MNOPLOBEFLB": 0.5,
                "JBODIEHINII": "",
                "CFPBIOLLOCO": "NONE",
                "LPCACGGCDLI": "",
                "NNFPFPOJJOJ": ""
            },
            {
                "$type": "LNLLGCOBDFC",
                "type": "EMO_SYNC",
                "delayTime": 1.4220000505447388,
                "aliasList": [
                    "3193"
                ],
                "LKHHGAGNMKM": "",
                "AIMKGPFAAAD": "Cs_Emo_NPC_Common/Cs_Emo_NPC_Normal01",
                "IPEKOEDCGGF": "Cs_Emo_NPC_Common/Cs_Emo_NPC_Normal01",
                "EJNFMNJKDAH": "",
                "LOOOCOLIHFA": "",
                "KJDLMAPPPMG": "",
                "IMIEGJDNPNN": [
                    12803840960998583578,
                    3437050431160283015,
                    6548526936325855136,
                    1274732080047098512
                ],
                "KIJHIMADJGM": [
                    10638823098752766568,
                    16550434959365186937,
                    16779490980036678760,
                    2038118027140397243
                ]
            }
        ],
        [
            {
                "$type": "DKLMLAFNEFF",
                "type": "CUTSCENE",
                "DOAJDIBEEBD": {
                    "$type": "LKIMJCPPNNB",
                    "preTaskCfg": {
                        "BOHJKFPDNME": ""
                    },
                    "luaDataPath": "",
                    "resPath": "",
                    "castListPath": "",
                    "entityBan": ""
                },
                "FKIDEMAJMNK": 7223316
            },
            {
                "$type": "MoleMole.Config.ConfigBlackScreenAction",
                "type": "BLACK_SCREEN",
                "delayTime": 22.5,
                "duration": 1.0,
                "blackScreenType": "KEEP_BLACK",
                "durationKeepBlack": 1.0,
                "inteePos": "",
                "textMapID": "",
                "useTextFade": true
            }
        ],
        [
            {
                "$type": "MoleMole.Config.ConfigTeleportToAction",
                "type": "TELEPORT_TO",
                "aliasList": [
                    "3193"
                ],
                "position": {
                    "x": -3809.787109375,
                    "y": 163.81500244140625,
                    "z": -766.9769897460938
                },
                "forward": {
                    "x": -0.9210000038146973,
                    "y": -0.07500000298023224,
                    "z": -0.41999998688697815
                },
                "openLongDisTeleport": true,
                "posBindMovingTargetKey": "",
                "forwardBindMovingTargetKey": ""
            },
            {
                "$type": "KAGAFALAIGP",
                "type": "DIALOG",
                "aliasList": [
                    "3193"
                ],
                "JHEPJOMJJHH": 722330309,
                "OCILKFCPBNC": 1.5
            },
            {
                "$type": "MoleMole.Config.ConfigTeleportToAction",
                "type": "TELEPORT_TO",
                "aliasList": [
                    "1005"
                ],
                "position": {
                    "x": -3808.681884765625,
                    "y": 163.88400268554688,
                    "z": -765.9429931640625
                },
                "forward": {
                    "x": -0.8330000042915344,
                    "z": -0.5529999732971191
                },
                "openLongDisTeleport": true,
                "posBindMovingTargetKey": "",
                "forwardBindMovingTargetKey": ""
            },
            {
                "$type": "LNLLGCOBDFC",
                "type": "EMO_SYNC",
                "aliasList": [
                    "3193"
                ],
                "LKHHGAGNMKM": "",
                "AIMKGPFAAAD": "Cs_Emo_NPC_Common/Cs_Emo_NPC_Normal01",
                "IPEKOEDCGGF": "Cs_Emo_NPC_Common/Cs_Emo_NPC_Normal01",
                "EJNFMNJKDAH": "",
                "LOOOCOLIHFA": "",
                "KJDLMAPPPMG": "",
                "IMIEGJDNPNN": [
                    12803840960998583578,
                    3437050431160283015,
                    6548526936325855136,
                    1274732080047098512
                ],
                "KIJHIMADJGM": [
                    10638823098752766568,
                    16550434959365186937,
                    16779490980036678760,
                    2038118027140397243
                ]
            },
            {
                "$type": "MoleMole.Config.ConfigTeleportToAction",
                "type": "TELEPORT_TO",
                "aliasList": [
                    "Avatar"
                ],
                "position": {
                    "x": -3808.387939453125,
                    "y": 163.87899780273438,
                    "z": -766.9569702148438
                },
                "forward": {
                    "x": -0.597000002861023,
                    "y": 0.03999999910593033,
                    "z": 0.08299999684095383
                },
                "openLongDisTeleport": true,
                "posBindMovingTargetKey": "",
                "forwardBindMovingTargetKey": ""
            },
            {
                "$type": "PBIGHFCHGCA",
                "type": "CAMERA_MOVE",
                "duration": 1.0,
                "KCFKJMMEECM": {
                    "x": -3821.10302734375,
                    "y": 171.46099853515625,
                    "z": -770.739990234375
                },
                "DLGJEHNPMFN": {
                    "x": -3820.251953125,
                    "y": 171.01699829101562,
                    "z": -770.4600219726562
                },
                "NJCBGNHGINI": 35.0,
                "FNMFGIOLKBE": 6,
                "NECGMADJICG": "EaseInOutCubic",
                "BMHIHPIKAHM": {},
                "HGGPLEMCNNG": false,
                "JBODIEHINII": "",
                "PHDIKPKLFIA": true,
                "EJCHLMIMLBO": "",
                "BIMPIKMCIHB": "",
                "MCAOJPLIJGI": ""
            },
            {
                "$type": "MoleMole.Config.ConfigBlackScreenAction",
                "type": "BLACK_SCREEN",
                "duration": 0.30000001192092896,
                "blackScreenType": "KEEP_BLACK",
                "durationKeepBlack": 0.30000001192092896,
                "inteePos": "",
                "textMapID": "",
                "useTextFade": true
            },
            {
                "$type": "PBIGHFCHGCA",
                "type": "CAMERA_MOVE",
                "delayTime": 0.10000000149011612,
                "duration": 16.201000213623047,
                "KCFKJMMEECM": {
                    "x": -3820.218994140625,
                    "y": 171.802001953125,
                    "z": -772.4180297851562
                },
                "DLGJEHNPMFN": {
                    "x": -3819.429931640625,
                    "y": 171.33399963378906,
                    "z": -772.0189819335938
                },
                "NJCBGNHGINI": 35.0,
                "NECGMADJICG": "EaseOutQuad",
                "BMHIHPIKAHM": {},
                "HGGPLEMCNNG": false,
                "JBODIEHINII": "",
                "PHDIKPKLFIA": true,
                "EJCHLMIMLBO": "",
                "BIMPIKMCIHB": "",
                "MCAOJPLIJGI": ""
            },
            {
                "$type": "MoleMole.Config.ConfigBlackScreenAction",
                "type": "BLACK_SCREEN",
                "delayTime": 0.30000001192092896,
                "duration": 0.5,
                "blackScreenType": "FROM_BLACK",
                "durationFromBlack": 0.5,
                "inteePos": "",
                "textMapID": "",
                "useTextFade": true
            }
        ],
        [
            {
                "$type": "FNPNDPFBBDD",
                "type": "LOOK_AT",
                "aliasList": [
                    "3193"
                ],
                "NKGFDJDHOBD": true,
                "useTargetPos": true,
                "LBJHJADMNBD": true,
                "EKIONHAEIBG": {
                    "x": -3810.196044921875,
                    "y": 165.427001953125,
                    "z": -767.9459838867188
                },
                "MNOPLOBEFLB": 0.5,
                "JBODIEHINII": "",
                "CFPBIOLLOCO": "NONE",
                "LPCACGGCDLI": "",
                "NNFPFPOJJOJ": ""
            },
            {
                "$type": "PCKGCMJKAFG",
                "type": "LOOK_AT_EYECTRL",
                "aliasList": [
                    "3193"
                ],
                "useTargetPos": false,
                "KIIEOLGDJKJ": {
                    "x": -5.0,
                    "z": 3.0
                },
                "JMJDEGALFIP": {
                    "x": -5.0,
                    "z": 3.0
                },
                "OEJLBIFJKEL": 1.0,
                "JBODIEHINII": "",
                "FEHKBOLJIOO": "Face"
            },
            {
                "$type": "KAGAFALAIGP",
                "type": "DIALOG",
                "aliasList": [
                    "3193"
                ],
                "JHEPJOMJJHH": 722330310,
                "OCILKFCPBNC": 0.5
            },
            {
                "$type": "PBIGHFCHGCA",
                "type": "CAMERA_MOVE",
                "duration": 1.0,
                "KCFKJMMEECM": {
                    "x": -3810.376953125,
                    "y": 165.7449951171875,
                    "z": -768.2249755859375
                },
                "DLGJEHNPMFN": {
                    "x": -3809.784912109375,
                    "y": 165.4199981689453,
                    "z": -767.4879760742188
                },
                "NJCBGNHGINI": 30.0,
                "FNMFGIOLKBE": 6,
                "NECGMADJICG": "EaseInOutCubic",
                "BMHIHPIKAHM": {},
                "HGGPLEMCNNG": false,
                "JBODIEHINII": "",
                "PHDIKPKLFIA": true,
                "EJCHLMIMLBO": "",
                "BIMPIKMCIHB": "",
                "MCAOJPLIJGI": ""
            },
            {
                "$type": "PBIGHFCHGCA",
                "type": "CAMERA_MOVE",
                "delayTime": 0.10000000149011612,
                "duration": 9.246000289916992,
                "KCFKJMMEECM": {
                    "x": -3810.3359375,
                    "y": 165.7429962158203,
                    "z": -768.2589721679688
                },
                "DLGJEHNPMFN": {
                    "x": -3809.743896484375,
                    "y": 165.41799926757812,
                    "z": -767.52197265625
                },
                "NJCBGNHGINI": 30.0,
                "NECGMADJICG": "EaseOutQuad",
                "BMHIHPIKAHM": {},
                "HGGPLEMCNNG": false,
                "JBODIEHINII": "",
                "PHDIKPKLFIA": true,
                "EJCHLMIMLBO": "",
                "BIMPIKMCIHB": "",
                "MCAOJPLIJGI": ""
            }
        ],
        [
            {
                "$type": "FNPNDPFBBDD",
                "type": "LOOK_AT",
                "aliasList": [
                    "3193"
                ],
                "NKGFDJDHOBD": true,
                "MNOPLOBEFLB": 0.5,
                "JBODIEHINII": "Avatar",
                "LPCACGGCDLI": "",
                "NNFPFPOJJOJ": ""
            },
            {
                "$type": "LNLLGCOBDFC",
                "type": "EMO_SYNC",
                "aliasList": [
                    "3193"
                ],
                "LKHHGAGNMKM": "",
                "AIMKGPFAAAD": "Cs_Emo_NPC_Common/Cs_Emo_NPC_Normal01",
                "IPEKOEDCGGF": "Cs_Emo_NPC_Common/Cs_Emo_NPC_Sad01_B",
                "EJNFMNJKDAH": "",
                "LOOOCOLIHFA": "",
                "KJDLMAPPPMG": "",
                "IMIEGJDNPNN": [
                    12803840960998583578,
                    3437050431160283015,
                    6548526936325855136,
                    1274732080047098512
                ],
                "KIJHIMADJGM": [
                    13608203086706346087,
                    8983880955149441812,
                    6168896623321060702,
                    13508183777270633601
                ]
            },
            {
                "$type": "NFDDGDIKEAG",
                "type": "STEER_TO",
                "duration": 1.0,
                "aliasList": [
                    "3193"
                ],
                "GGJHILELIMO": "ABSOLUTE",
                "GPODKINFLFH": {
                    "x": -3809.681884765625,
                    "y": 163.74200439453125,
                    "z": -767.5250244140625
                },
                "PKKKHNGDEEE": true,
                "JBODIEHINII": "",
                "NNFPFPOJJOJ": ""
            },
            {
                "$type": "PBIGHFCHGCA",
                "type": "CAMERA_MOVE",
                "duration": 1.0,
                "KCFKJMMEECM": {
                    "x": -3807.7490234375,
                    "y": 165.2969970703125,
                    "z": -767.4329833984375
                },
                "DLGJEHNPMFN": {
                    "x": -3808.65087890625,
                    "y": 165.21299743652344,
                    "z": -767.010009765625
                },
                "NJCBGNHGINI": 30.0,
                "FNMFGIOLKBE": 6,
                "NECGMADJICG": "EaseInOutCubic",
                "BMHIHPIKAHM": {},
                "HGGPLEMCNNG": false,
                "JBODIEHINII": "",
                "PHDIKPKLFIA": true,
                "EJCHLMIMLBO": "",
                "BIMPIKMCIHB": "",
                "MCAOJPLIJGI": ""
            },
            {
                "$type": "KAGAFALAIGP",
                "type": "DIALOG",
                "aliasList": [
                    "3193"
                ],
                "JHEPJOMJJHH": 722330311,
                "OCILKFCPBNC": 0.5
            }
        ],
        [
            {
                "$type": "KAGAFALAIGP",
                "type": "DIALOG_CLEAR",
                "JHEPJOMJJHH": 722330311
            },
            {
                "$type": "MoleMole.Config.ConfigSimpleBlackScreenAction",
                "type": "SIMPLE_BLACK_SCREEN",
                "durationToBlack": 0.5,
                "durationKeepBlack": 2.0,
                "durationFromBlack": 0.5,
                "textMapID": "",
                "useTextFade": true
            },
            {
                "$type": "MoleMole.Config.ConfigTimeProtectAction",
                "type": "TIME_PROTECT",
                "duration": 0.6000000238418579
            },
            {
                "$type": "FNPNDPFBBDD",
                "type": "LOOK_AT",
                "delayTime": 0.6000000238418579,
                "aliasList": [
                    "3193"
                ],
                "NKGFDJDHOBD": true,
                "useTargetPos": true,
                "LBJHJADMNBD": true,
                "EKIONHAEIBG": {
                    "x": -3810.610107421875,
                    "y": 165.54299926757812,
                    "z": -767.406005859375
                },
                "MNOPLOBEFLB": 0.5,
                "JBODIEHINII": "",
                "CFPBIOLLOCO": "NONE",
                "LPCACGGCDLI": "",
                "NNFPFPOJJOJ": ""
            },
            {
                "$type": "LNLLGCOBDFC",
                "type": "EMO_SYNC",
                "delayTime": 0.6000000238418579,
                "aliasList": [
                    "3193"
                ],
                "LKHHGAGNMKM": "",
                "AIMKGPFAAAD": "Cs_Emo_NPC_Common/Cs_Emo_NPC_Normal01",
                "IPEKOEDCGGF": "Cs_Emo_NPC_Common/Cs_Emo_NPC_Normal01",
                "EJNFMNJKDAH": "",
                "LOOOCOLIHFA": "",
                "KJDLMAPPPMG": "",
                "IMIEGJDNPNN": [
                    12803840960998583578,
                    3437050431160283015,
                    6548526936325855136,
                    1274732080047098512
                ],
                "KIJHIMADJGM": [
                    10638823098752766568,
                    16550434959365186937,
                    16779490980036678760,
                    2038118027140397243
                ]
            },
            {
                "$type": "PBIGHFCHGCA",
                "type": "CAMERA_MOVE",
                "delayTime": 0.6000000238418579,
                "duration": 0.10000000149011612,
                "KCFKJMMEECM": {
                    "x": -3805.39404296875,
                    "y": 165.46200561523438,
                    "z": -767.0089721679688
                },
                "DLGJEHNPMFN": {
                    "x": -3806.366943359375,
                    "y": 165.23300170898438,
                    "z": -766.9970092773438
                },
                "FNMFGIOLKBE": 6,
                "NECGMADJICG": "EaseInOutCubic",
                "BMHIHPIKAHM": {},
                "HGGPLEMCNNG": false,
                "JBODIEHINII": "",
                "PHDIKPKLFIA": true,
                "EJCHLMIMLBO": "",
                "BIMPIKMCIHB": "",
                "MCAOJPLIJGI": ""
            },
            {
                "$type": "NFDDGDIKEAG",
                "type": "STEER_TO",
                "delayTime": 0.6000000238418579,
                "duration": 0.4000000059604645,
                "aliasList": [
                    "3193"
                ],
                "GGJHILELIMO": "ABSOLUTE",
                "GPODKINFLFH": {
                    "x": -3810.77197265625,
                    "y": 163.66000366210938,
                    "z": -767.3359985351562
                },
                "JBODIEHINII": "",
                "NNFPFPOJJOJ": ""
            }
        ]
    ],
    "groupId": [
        {
            "grpId": 1936334581,
            "nextGrpId": 1936334582
        },
        {
            "index": 1,
            "grpId": 1936334582,
            "nextGrpId": 1936334583
        },
        {
            "index": 2,
            "grpId": 1936334583,
            "nextGrpId": 1936334584
        },
        {
            "index": 3,
            "grpId": 1936334584,
            "nextGrpId": 1936334585
        },
        {
            "index": 4,
            "grpId": 1936334585,
            "nextGrpId": 1936334586
        },
        {
            "index": 5,
            "grpId": 1936334586,
            "nextGrpId": 1936334587
        },
        {
            "index": 6,
            "grpId": 1936334587,
            "nextGrpId": 1936334588
        },
        {
            "index": 7,
            "grpId": 1936334588,
            "nextGrpId": 1936334589
        },
        {
            "index": 8,
            "grpId": 1936334589,
            "nextGrpId": 4191797211
        },
        {
            "index": 9,
            "grpId": 4191797211,
            "nextGrpId": 4191797212
        },
        {
            "index": 10,
            "grpId": 4191797212,
            "nextGrpId": 4191797213
        },
        {
            "index": 11,
            "grpId": 4191797213,
            "nextGrpId": 4191797214
        },
        {
            "index": 12,
            "grpId": 4191797214,
            "nextGrpId": 4191797215
        },
        {
            "index": 13,
            "grpId": 4191797215,
            "nextGrpId": 4191797216
        }
    ],
    "freeStyleDic": {
        "3193": [
            4040
        ]
    }
}