{
    "luaDataPath": "",
    "dontUseDefaultFinish": true,
    "startBlackKeepTime": 0.20000000298023224,
    "entityBan": "",
    "startFade": {
        "startFadeInDuration": 0.4000000059604645,
        "startFadeOutDuration": 0.4000000059604645
    },
    "endFade": {
        "startFadeOutDuration": 0.0
    },
    "actors": [
        {
            "alias": "Avatar",
            "visible": true,
            "bornPointName": "Q2100707_Target",
            "relativePosNpcAlias": "",
            "bindMovingTargetKey": ""
        },
        {
            "configID": 1005,
            "alias": "1005",
            "visible": true,
            "bornPointName": "Q21007_Finish",
            "relativePos": {
                "x": 0.5
            },
            "relativePosNpcAlias": "",
            "bindMovingTargetKey": ""
        },
        {
            "configID": 20070,
            "alias": "20070",
            "visible": true,
            "bornPointName": "Q2100717_Target",
            "relativePosNpcAlias": "",
            "bindMovingTargetKey": ""
        },
        {
            "configID": 20072,
            "alias": "20072",
            "visible": true,
            "bornPointName": "Q2100718_Target",
            "relativePosNpcAlias": "",
            "bindMovingTargetKey": ""
        },
        {
            "configID": 20071,
            "alias": "20071",
            "visible": true,
            "bornPointName": "Q2100719_Target",
            "relativePosNpcAlias": "",
            "bindMovingTargetKey": ""
        },
        {
            "configID": 20069,
            "alias": "20069",
            "visible": true,
            "bornPointName": "Q2100720_Target",
            "relativePosNpcAlias": "",
            "bindMovingTargetKey": ""
        }
    ],
    "group": [
        [
            {
                "$type": "PBIGHFCHGCA",
                "type": "CAMERA_MOVE",
                "duration": 0.5,
                "KCFKJMMEECM": {
                    "x": 810.0851440429688,
                    "y": 264.9587707519531,
                    "z": -147.7611541748047
                },
                "DLGJEHNPMFN": {
                    "x": 811.0617065429688,
                    "y": 264.8265380859375,
                    "z": -147.59133911132812
                },
                "NJCBGNHGINI": 20.0,
                "FNMFGIOLKBE": 6,
                "NECGMADJICG": "EaseInOutCubic",
                "BMHIHPIKAHM": {},
                "JBODIEHINII": "",
                "EJCHLMIMLBO": "",
                "BIMPIKMCIHB": "",
                "MCAOJPLIJGI": ""
            },
            {
                "$type": "PBIGHFCHGCA",
                "type": "CAMERA_MOVE",
                "delayTime": 0.10000000149011612,
                "duration": 3.0,
                "KCFKJMMEECM": {
                    "x": 810.0787353515625,
                    "y": 264.84002685546875,
                    "z": -147.81871032714844
                },
                "DLGJEHNPMFN": {
                    "x": 811.0552978515625,
                    "y": 264.7077941894531,
                    "z": -147.64889526367188
                },
                "NJCBGNHGINI": 20.0,
                "NECGMADJICG": "EaseInOutQuad",
                "BMHIHPIKAHM": {},
                "JBODIEHINII": "",
                "EJCHLMIMLBO": "",
                "BIMPIKMCIHB": "",
                "MCAOJPLIJGI": ""
            },
            {
                "$type": "PBIGHFCHGCA",
                "type": "CAMERA_MOVE",
                "delayTime": 2.9000000953674316,
                "duration": 0.5,
                "KCFKJMMEECM": {
                    "x": 813.0928955078125,
                    "y": 264.42767333984375,
                    "z": -145.62208557128906
                },
                "DLGJEHNPMFN": {
                    "x": 814.0320434570312,
                    "y": 264.4510498046875,
                    "z": -145.9647216796875
                },
                "NJCBGNHGINI": 22.0,
                "FNMFGIOLKBE": 6,
                "NECGMADJICG": "EaseInOutCubic",
                "BMHIHPIKAHM": {},
                "JBODIEHINII": "",
                "EJCHLMIMLBO": "",
                "BIMPIKMCIHB": "",
                "MCAOJPLIJGI": ""
            },
            {
                "$type": "PBIGHFCHGCA",
                "type": "CAMERA_MOVE",
                "delayTime": 3.0,
                "duration": 1.0,
                "KCFKJMMEECM": {
                    "x": 813.0928955078125,
                    "y": 264.42767333984375,
                    "z": -145.62208557128906
                },
                "DLGJEHNPMFN": {
                    "x": 814.0369262695312,
                    "y": 264.4570617675781,
                    "z": -145.95054626464844
                },
                "NJCBGNHGINI": 20.0,
                "NECGMADJICG": "EaseInOutCubic",
                "BMHIHPIKAHM": {},
                "JBODIEHINII": "",
                "EJCHLMIMLBO": "",
                "BIMPIKMCIHB": "",
                "MCAOJPLIJGI": ""
            },
            {
                "$type": "MoleMole.Config.ConfigTimeProtectAction",
                "type": "TIME_PROTECT",
                "duration": 3.5
            },
            {
                "$type": "MoleMole.Config.ConfigCameraDOFAction",
                "type": "CAMERA_DOF",
                "enabled": true,
                "focusDistance": 20.0,
                "focusRange": 20.0,
                "quality": 3
            },
            {
                "$type": "MoleMole.Config.ConfigMoveToAction",
                "type": "MOVE_TO",
                "aliasList": [
                    "Avatar"
                ],
                "routeList": [
                    {
                        "x": 815.1539306640625,
                        "y": 263.5542907714844,
                        "z": -145.97003173828125
                    }
                ]
            },
            {
                "$type": "NFDDGDIKEAG",
                "type": "STEER_TO",
                "delayTime": 0.10000000149011612,
                "aliasList": [
                    "Avatar"
                ],
                "GPODKINFLFH": {
                    "x": -0.40024223923683167,
                    "z": -0.916409432888031
                },
                "JBODIEHINII": "",
                "NNFPFPOJJOJ": ""
            },
            {
                "$type": "FNPNDPFBBDD",
                "type": "LOOK_AT",
                "delayTime": 3.299999952316284,
                "aliasList": [
                    "Avatar"
                ],
                "NKGFDJDHOBD": true,
                "MNOPLOBEFLB": 0.4000000059604645,
                "JBODIEHINII": "20071",
                "LPCACGGCDLI": "",
                "NNFPFPOJJOJ": ""
            },
            {
                "$type": "FNPNDPFBBDD",
                "type": "LOOK_AT",
                "aliasList": [
                    "Avatar"
                ],
                "NKGFDJDHOBD": true,
                "useTargetPos": true,
                "LBJHJADMNBD": true,
                "EKIONHAEIBG": {
                    "x": 814.3729858398438,
                    "y": 264.3365478515625,
                    "z": -147.0609130859375
                },
                "MNOPLOBEFLB": 0.4000000059604645,
                "JBODIEHINII": "",
                "LPCACGGCDLI": "",
                "NNFPFPOJJOJ": ""
            },
            {
                "$type": "KAGAFALAIGP",
                "type": "DIALOG",
                "delayTime": 2.9000000953674316,
                "aliasList": [
                    "1005"
                ],
                "JHEPJOMJJHH": 210070601,
                "OCILKFCPBNC": 0.5
            },
            {
                "$type": "MoleMole.Config.ConfigMoveToAction",
                "type": "MOVE_TO",
                "aliasList": [
                    "1005"
                ],
                "routeList": [
                    {
                        "x": 815.7708740234375,
                        "y": 263.3348693847656,
                        "z": -146.6803741455078
                    }
                ]
            },
            {
                "$type": "NFDDGDIKEAG",
                "type": "STEER_TO",
                "delayTime": 0.10000000149011612,
                "aliasList": [
                    "1005"
                ],
                "GPODKINFLFH": {
                    "x": -0.6319069862365723,
                    "z": -0.7750442624092102
                },
                "JBODIEHINII": "",
                "NNFPFPOJJOJ": ""
            },
            {
                "$type": "NFDDGDIKEAG",
                "type": "STEER_TO",
                "delayTime": 2.0,
                "duration": 2.0,
                "aliasList": [
                    "1005"
                ],
                "GPODKINFLFH": {
                    "x": -0.9968711137771606,
                    "z": 0.07904396951198578
                },
                "JBODIEHINII": "",
                "NNFPFPOJJOJ": ""
            },
            {
                "$type": "FNPNDPFBBDD",
                "type": "LOOK_AT",
                "delayTime": 2.0,
                "aliasList": [
                    "1005"
                ],
                "NKGFDJDHOBD": true,
                "MNOPLOBEFLB": 0.4000000059604645,
                "JBODIEHINII": "20071",
                "LPCACGGCDLI": "",
                "NNFPFPOJJOJ": ""
            },
            {
                "$type": "CENEPJCONAG",
                "type": "BODY_LANG",
                "delayTime": 2.9000000953674316,
                "aliasList": [
                    "1005"
                ],
                "OGFPAIKLDGB": 1040,
                "FOEKGLEJBIJ": ""
            },
            {
                "$type": "FNPNDPFBBDD",
                "type": "LOOK_AT",
                "aliasList": [
                    "1005"
                ],
                "NKGFDJDHOBD": true,
                "useTargetPos": true,
                "LBJHJADMNBD": true,
                "EKIONHAEIBG": {
                    "x": 814.5119018554688,
                    "y": 263.8003845214844,
                    "z": -147.19419860839844
                },
                "MNOPLOBEFLB": 0.4000000059604645,
                "JBODIEHINII": "",
                "LPCACGGCDLI": "",
                "NNFPFPOJJOJ": ""
            },
            {
                "$type": "MoleMole.Config.ConfigMoveToAction",
                "type": "MOVE_TO",
                "aliasList": [
                    "20070"
                ],
                "routeList": [
                    {
                        "x": 811.578125,
                        "y": 262.8515319824219,
                        "z": -145.3063201904297
                    }
                ]
            },
            {
                "$type": "NFDDGDIKEAG",
                "type": "STEER_TO",
                "delayTime": 0.10000000149011612,
                "aliasList": [
                    "20070"
                ],
                "GPODKINFLFH": {
                    "x": 0.32058078050613403,
                    "z": -0.9472211599349976
                },
                "JBODIEHINII": "",
                "NNFPFPOJJOJ": ""
            },
            {
                "$type": "MoleMole.Config.ConfigMoveToAction",
                "type": "MOVE_TO",
                "aliasList": [
                    "20072"
                ],
                "routeList": [
                    {
                        "x": 809.9674682617188,
                        "y": 262.270263671875,
                        "z": -145.45401000976562
                    }
                ]
            },
            {
                "$type": "NFDDGDIKEAG",
                "type": "STEER_TO",
                "delayTime": 0.10000000149011612,
                "aliasList": [
                    "20072"
                ],
                "GPODKINFLFH": {
                    "x": 0.6789201498031616,
                    "y": 0.339400053024292,
                    "z": -0.6510568857192993
                },
                "JBODIEHINII": "",
                "NNFPFPOJJOJ": ""
            },
            {
                "$type": "MoleMole.Config.ConfigMoveToAction",
                "type": "MOVE_TO",
                "aliasList": [
                    "20071"
                ],
                "routeList": [
                    {
                        "x": 809.8765869140625,
                        "y": 262.49102783203125,
                        "z": -146.30555725097656
                    }
                ]
            },
            {
                "$type": "NFDDGDIKEAG",
                "type": "STEER_TO",
                "delayTime": 0.10000000149011612,
                "aliasList": [
                    "20071"
                ],
                "GPODKINFLFH": {
                    "x": 0.7553425431251526,
                    "y": 0.31915518641471863,
                    "z": -0.572361409664154
                },
                "JBODIEHINII": "",
                "NNFPFPOJJOJ": ""
            },
            {
                "$type": "NFDDGDIKEAG",
                "type": "STEER_TO",
                "aliasList": [
                    "20069"
                ],
                "GPODKINFLFH": {
                    "x": 0.7536540031433105,
                    "z": -0.6572714447975159
                },
                "JBODIEHINII": "",
                "NNFPFPOJJOJ": ""
            },
            {
                "$type": "FNPNDPFBBDD",
                "type": "LOOK_AT",
                "aliasList": [
                    "20069"
                ],
                "NKGFDJDHOBD": true,
                "MNOPLOBEFLB": 0.4000000059604645,
                "JBODIEHINII": "",
                "LPCACGGCDLI": "",
                "NNFPFPOJJOJ": ""
            }
        ],
        [
            {
                "$type": "PBIGHFCHGCA",
                "type": "CAMERA_MOVE",
                "duration": 1.0,
                "KCFKJMMEECM": {
                    "x": 824.833984375,
                    "y": 271.775634765625,
                    "z": -148.27818298339844
                },
                "DLGJEHNPMFN": {
                    "x": 824.0103149414062,
                    "y": 271.2204284667969,
                    "z": -148.1627655029297
                },
                "NJCBGNHGINI": 20.0,
                "FNMFGIOLKBE": 6,
                "NECGMADJICG": "EaseInOutCubic",
                "BMHIHPIKAHM": {},
                "JBODIEHINII": "",
                "EJCHLMIMLBO": "",
                "BIMPIKMCIHB": "",
                "MCAOJPLIJGI": ""
            },
            {
                "$type": "PBIGHFCHGCA",
                "type": "CAMERA_MOVE",
                "delayTime": 0.10000000149011612,
                "duration": 8.0,
                "KCFKJMMEECM": {
                    "x": 825.0396118164062,
                    "y": 271.5345764160156,
                    "z": -147.97137451171875
                },
                "DLGJEHNPMFN": {
                    "x": 824.2159423828125,
                    "y": 270.9793701171875,
                    "z": -147.85595703125
                },
                "NJCBGNHGINI": 20.0,
                "NECGMADJICG": "EaseInOutQuad",
                "BMHIHPIKAHM": {},
                "JBODIEHINII": "",
                "EJCHLMIMLBO": "",
                "BIMPIKMCIHB": "",
                "MCAOJPLIJGI": ""
            },
            {
                "$type": "FNPNDPFBBDD",
                "type": "LOOK_AT",
                "delayTime": 0.20000000298023224,
                "aliasList": [
                    "Avatar"
                ],
                "NKGFDJDHOBD": true,
                "MNOPLOBEFLB": 0.4000000059604645,
                "JBODIEHINII": "20070",
                "LPCACGGCDLI": "",
                "NNFPFPOJJOJ": ""
            },
            {
                "$type": "CENEPJCONAG",
                "type": "BODY_LANG",
                "aliasList": [
                    "1005"
                ],
                "NNKEOHJCPOF": true,
                "FOEKGLEJBIJ": ""
            },
            {
                "$type": "FNPNDPFBBDD",
                "type": "LOOK_AT",
                "delayTime": 0.4000000059604645,
                "aliasList": [
                    "1005"
                ],
                "NKGFDJDHOBD": true,
                "MNOPLOBEFLB": 0.4000000059604645,
                "JBODIEHINII": "20070",
                "LPCACGGCDLI": "",
                "NNFPFPOJJOJ": ""
            },
            {
                "$type": "KAGAFALAIGP",
                "type": "DIALOG",
                "aliasList": [
                    "20070"
                ],
                "JHEPJOMJJHH": 210070602,
                "OCILKFCPBNC": 1.0
            },
            {
                "$type": "CENEPJCONAG",
                "type": "BODY_LANG",
                "delayTime": 0.8999999761581421,
                "aliasList": [
                    "20070"
                ],
                "OGFPAIKLDGB": 1173,
                "FOEKGLEJBIJ": ""
            }
        ],
        [
            {
                "$type": "PBIGHFCHGCA",
                "type": "CAMERA_MOVE",
                "duration": 1.0,
                "KCFKJMMEECM": {
                    "x": 812.64794921875,
                    "y": 263.5563659667969,
                    "z": -146.72901916503906
                },
                "DLGJEHNPMFN": {
                    "x": 811.7191162109375,
                    "y": 263.57073974609375,
                    "z": -146.35885620117188
                },
                "NJCBGNHGINI": 25.0,
                "FNMFGIOLKBE": 6,
                "NECGMADJICG": "EaseInOutCubic",
                "BMHIHPIKAHM": {},
                "JBODIEHINII": "",
                "EJCHLMIMLBO": "",
                "BIMPIKMCIHB": "",
                "MCAOJPLIJGI": ""
            },
            {
                "$type": "PBIGHFCHGCA",
                "type": "CAMERA_MOVE",
                "delayTime": 0.10000000149011612,
                "duration": 5.0,
                "KCFKJMMEECM": {
                    "x": 812.585693359375,
                    "y": 263.55145263671875,
                    "z": -146.73519897460938
                },
                "DLGJEHNPMFN": {
                    "x": 811.6568603515625,
                    "y": 263.5658264160156,
                    "z": -146.3650360107422
                },
                "NJCBGNHGINI": 25.0,
                "NECGMADJICG": "EaseInOutCubic",
                "BMHIHPIKAHM": {},
                "JBODIEHINII": "",
                "EJCHLMIMLBO": "",
                "BIMPIKMCIHB": "",
                "MCAOJPLIJGI": ""
            },
            {
                "$type": "FNPNDPFBBDD",
                "type": "LOOK_AT",
                "delayTime": 0.20000000298023224,
                "aliasList": [
                    "Avatar"
                ],
                "NKGFDJDHOBD": true,
                "MNOPLOBEFLB": 0.4000000059604645,
                "JBODIEHINII": "20072",
                "LPCACGGCDLI": "",
                "NNFPFPOJJOJ": ""
            },
            {
                "$type": "FNPNDPFBBDD",
                "type": "LOOK_AT",
                "delayTime": 0.4000000059604645,
                "aliasList": [
                    "1005"
                ],
                "NKGFDJDHOBD": true,
                "MNOPLOBEFLB": 0.4000000059604645,
                "JBODIEHINII": "20072",
                "LPCACGGCDLI": "",
                "NNFPFPOJJOJ": ""
            },
            {
                "$type": "KAGAFALAIGP",
                "type": "DIALOG",
                "aliasList": [
                    "20072"
                ],
                "JHEPJOMJJHH": 210070603,
                "OCILKFCPBNC": 1.0
            },
            {
                "$type": "CENEPJCONAG",
                "type": "BODY_LANG",
                "delayTime": 0.8999999761581421,
                "aliasList": [
                    "20072"
                ],
                "OGFPAIKLDGB": 1120,
                "FOEKGLEJBIJ": ""
            }
        ],
        [
            {
                "$type": "PBIGHFCHGCA",
                "type": "CAMERA_MOVE",
                "duration": 3.0,
                "KCFKJMMEECM": {
                    "x": 812.585693359375,
                    "y": 263.55145263671875,
                    "z": -146.73519897460938
                },
                "DLGJEHNPMFN": {
                    "x": 811.6209106445312,
                    "y": 263.5748291015625,
                    "z": -146.47314453125
                },
                "NJCBGNHGINI": 25.0,
                "NECGMADJICG": "EaseInOutCubic",
                "BMHIHPIKAHM": {},
                "JBODIEHINII": "",
                "EJCHLMIMLBO": "",
                "BIMPIKMCIHB": "",
                "MCAOJPLIJGI": ""
            },
            {
                "$type": "FNPNDPFBBDD",
                "type": "LOOK_AT",
                "delayTime": 0.20000000298023224,
                "aliasList": [
                    "Avatar"
                ],
                "NKGFDJDHOBD": true,
                "MNOPLOBEFLB": 0.4000000059604645,
                "JBODIEHINII": "20071",
                "LPCACGGCDLI": "",
                "NNFPFPOJJOJ": ""
            },
            {
                "$type": "FNPNDPFBBDD",
                "type": "LOOK_AT",
                "delayTime": 0.4000000059604645,
                "aliasList": [
                    "1005"
                ],
                "NKGFDJDHOBD": true,
                "MNOPLOBEFLB": 0.4000000059604645,
                "JBODIEHINII": "20071",
                "LPCACGGCDLI": "",
                "NNFPFPOJJOJ": ""
            },
            {
                "$type": "KAGAFALAIGP",
                "type": "DIALOG",
                "aliasList": [
                    "20071"
                ],
                "JHEPJOMJJHH": 210070604,
                "OCILKFCPBNC": 1.0
            },
            {
                "$type": "CENEPJCONAG",
                "type": "BODY_LANG",
                "delayTime": 0.8999999761581421,
                "aliasList": [
                    "20071"
                ],
                "OGFPAIKLDGB": 1171,
                "FOEKGLEJBIJ": ""
            }
        ],
        [
            {
                "$type": "PBIGHFCHGCA",
                "type": "CAMERA_MOVE",
                "duration": 1.0,
                "KCFKJMMEECM": {
                    "x": 806.0979614257812,
                    "y": 263.2947998046875,
                    "z": -147.1784210205078
                },
                "DLGJEHNPMFN": {
                    "x": 807.0951538085938,
                    "y": 263.3001708984375,
                    "z": -147.10350036621094
                },
                "NJCBGNHGINI": 30.0,
                "FNMFGIOLKBE": 6,
                "NECGMADJICG": "EaseInOutCubic",
                "BMHIHPIKAHM": {},
                "JBODIEHINII": "",
                "EJCHLMIMLBO": "",
                "BIMPIKMCIHB": "",
                "MCAOJPLIJGI": ""
            },
            {
                "$type": "PBIGHFCHGCA",
                "type": "CAMERA_MOVE",
                "delayTime": 0.10000000149011612,
                "duration": 8.0,
                "KCFKJMMEECM": {
                    "x": 806.093505859375,
                    "y": 263.2928771972656,
                    "z": -147.103759765625
                },
                "DLGJEHNPMFN": {
                    "x": 807.0866088867188,
                    "y": 263.30126953125,
                    "z": -146.98704528808594
                },
                "NJCBGNHGINI": 30.0,
                "NECGMADJICG": "EaseInOutQuad",
                "BMHIHPIKAHM": {},
                "JBODIEHINII": "",
                "EJCHLMIMLBO": "",
                "BIMPIKMCIHB": "",
                "MCAOJPLIJGI": ""
            },
            {
                "$type": "FNPNDPFBBDD",
                "type": "LOOK_AT",
                "delayTime": 0.20000000298023224,
                "aliasList": [
                    "Avatar"
                ],
                "NKGFDJDHOBD": true,
                "MNOPLOBEFLB": 0.4000000059604645,
                "JBODIEHINII": "20069",
                "LPCACGGCDLI": "",
                "NNFPFPOJJOJ": ""
            },
            {
                "$type": "FNPNDPFBBDD",
                "type": "LOOK_AT",
                "delayTime": 0.4000000059604645,
                "aliasList": [
                    "1005"
                ],
                "NKGFDJDHOBD": true,
                "MNOPLOBEFLB": 0.4000000059604645,
                "JBODIEHINII": "20069",
                "LPCACGGCDLI": "",
                "NNFPFPOJJOJ": ""
            },
            {
                "$type": "KAGAFALAIGP",
                "type": "DIALOG",
                "aliasList": [
                    "20069"
                ],
                "JHEPJOMJJHH": 210070605,
                "OCILKFCPBNC": 0.5
            }
        ],
        [
            {
                "$type": "PBIGHFCHGCA",
                "type": "CAMERA_MOVE",
                "duration": 1.0,
                "KCFKJMMEECM": {
                    "x": 812.8909912109375,
                    "y": 263.84527587890625,
                    "z": -149.8316650390625
                },
                "DLGJEHNPMFN": {
                    "x": 812.4307250976562,
                    "y": 263.7398376464844,
                    "z": -148.95016479492188
                },
                "NJCBGNHGINI": 25.0,
                "FNMFGIOLKBE": 6,
                "NECGMADJICG": "EaseInOutCubic",
                "BMHIHPIKAHM": {},
                "JBODIEHINII": "",
                "EJCHLMIMLBO": "",
                "BIMPIKMCIHB": "",
                "MCAOJPLIJGI": ""
            },
            {
                "$type": "PBIGHFCHGCA",
                "type": "CAMERA_MOVE",
                "delayTime": 0.10000000149011612,
                "duration": 8.0,
                "KCFKJMMEECM": {
                    "x": 812.934326171875,
                    "y": 263.8323059082031,
                    "z": -149.81063842773438
                },
                "DLGJEHNPMFN": {
                    "x": 812.4740600585938,
                    "y": 263.72686767578125,
                    "z": -148.92913818359375
                },
                "NJCBGNHGINI": 25.0,
                "NECGMADJICG": "EaseInOutQuad",
                "BMHIHPIKAHM": {},
                "JBODIEHINII": "",
                "EJCHLMIMLBO": "",
                "BIMPIKMCIHB": "",
                "MCAOJPLIJGI": ""
            },
            {
                "$type": "FNPNDPFBBDD",
                "type": "LOOK_AT",
                "delayTime": 0.2690989375114441,
                "aliasList": [
                    "20070"
                ],
                "NKGFDJDHOBD": true,
                "MNOPLOBEFLB": 0.4000000059604645,
                "JBODIEHINII": "20069",
                "LPCACGGCDLI": "",
                "NNFPFPOJJOJ": ""
            },
            {
                "$type": "FNPNDPFBBDD",
                "type": "LOOK_AT",
                "delayTime": 0.4000000059604645,
                "aliasList": [
                    "20072"
                ],
                "NKGFDJDHOBD": true,
                "MNOPLOBEFLB": 0.4000000059604645,
                "JBODIEHINII": "20069",
                "LPCACGGCDLI": "",
                "NNFPFPOJJOJ": ""
            },
            {
                "$type": "FNPNDPFBBDD",
                "type": "LOOK_AT",
                "delayTime": 0.2690989375114441,
                "aliasList": [
                    "20071"
                ],
                "NKGFDJDHOBD": true,
                "MNOPLOBEFLB": 0.4000000059604645,
                "JBODIEHINII": "20069",
                "LPCACGGCDLI": "",
                "NNFPFPOJJOJ": ""
            },
            {
                "$type": "KAGAFALAIGP",
                "type": "DIALOG",
                "aliasList": [
                    "20069"
                ],
                "JHEPJOMJJHH": 210070606,
                "OCILKFCPBNC": 0.5
            },
            {
                "$type": "FNPNDPFBBDD",
                "type": "LOOK_AT",
                "aliasList": [
                    "20069"
                ],
                "NKGFDJDHOBD": true,
                "OCIADBJCDPC": {
                    "y": 10.0
                },
                "MNOPLOBEFLB": 0.5,
                "JBODIEHINII": "",
                "LPCACGGCDLI": "",
                "NNFPFPOJJOJ": ""
            }
        ],
        [
            {
                "$type": "PBIGHFCHGCA",
                "type": "CAMERA_MOVE",
                "delayTime": 1.2999999523162842,
                "duration": 1.0,
                "KCFKJMMEECM": {
                    "x": 807.0946655273438,
                    "y": 264.6827087402344,
                    "z": -143.3197021484375
                },
                "DLGJEHNPMFN": {
                    "x": 807.8689575195312,
                    "y": 264.44439697265625,
                    "z": -143.90591430664062
                },
                "NJCBGNHGINI": 20.0,
                "FNMFGIOLKBE": 6,
                "NECGMADJICG": "EaseInOutCubic",
                "BMHIHPIKAHM": {},
                "JBODIEHINII": "",
                "EJCHLMIMLBO": "",
                "BIMPIKMCIHB": "",
                "MCAOJPLIJGI": ""
            },
            {
                "$type": "PBIGHFCHGCA",
                "type": "CAMERA_MOVE",
                "delayTime": 1.399999976158142,
                "duration": 5.0,
                "KCFKJMMEECM": {
                    "x": 807.0460205078125,
                    "y": 264.8908386230469,
                    "z": -143.226806640625
                },
                "DLGJEHNPMFN": {
                    "x": 807.8155517578125,
                    "y": 264.6293029785156,
                    "z": -143.80938720703125
                },
                "NJCBGNHGINI": 20.0,
                "NECGMADJICG": "EaseInOutQuad",
                "BMHIHPIKAHM": {},
                "JBODIEHINII": "",
                "EJCHLMIMLBO": "",
                "BIMPIKMCIHB": "",
                "MCAOJPLIJGI": ""
            },
            {
                "$type": "KAGAFALAIGP",
                "type": "DIALOG",
                "aliasList": [
                    "20069"
                ],
                "JHEPJOMJJHH": 210070607,
                "OCILKFCPBNC": 1.5
            },
            {
                "$type": "NFDDGDIKEAG",
                "type": "STEER_TO",
                "duration": 1.0,
                "aliasList": [
                    "20069"
                ],
                "GPODKINFLFH": {
                    "x": -0.018301019445061684,
                    "y": 0.26522406935691833,
                    "z": 0.9640130400657654
                },
                "PKKKHNGDEEE": true,
                "JBODIEHINII": "",
                "NNFPFPOJJOJ": ""
            },
            {
                "$type": "FNPNDPFBBDD",
                "type": "LOOK_AT",
                "aliasList": [
                    "20069"
                ],
                "NKGFDJDHOBD": true,
                "MNOPLOBEFLB": 0.5,
                "JBODIEHINII": "20072",
                "LPCACGGCDLI": "",
                "NNFPFPOJJOJ": ""
            }
        ],
        [
            {
                "$type": "PBIGHFCHGCA",
                "type": "CAMERA_MOVE",
                "duration": 1.0,
                "KCFKJMMEECM": {
                    "x": 785.4318237304688,
                    "y": 262.9609680175781,
                    "z": -166.46533203125
                },
                "DLGJEHNPMFN": {
                    "x": 786.2218017578125,
                    "y": 263.029296875,
                    "z": -165.85601806640625
                },
                "NJCBGNHGINI": 20.0,
                "FNMFGIOLKBE": 6,
                "NECGMADJICG": "EaseInOutCubic",
                "BMHIHPIKAHM": {},
                "JBODIEHINII": "",
                "EJCHLMIMLBO": "",
                "BIMPIKMCIHB": "",
                "MCAOJPLIJGI": ""
            },
            {
                "$type": "PBIGHFCHGCA",
                "type": "CAMERA_MOVE",
                "delayTime": 0.10000000149011612,
                "duration": 8.0,
                "KCFKJMMEECM": {
                    "x": 785.6040649414062,
                    "y": 262.91790771484375,
                    "z": -166.68365478515625
                },
                "DLGJEHNPMFN": {
                    "x": 786.39404296875,
                    "y": 262.9862365722656,
                    "z": -166.0743408203125
                },
                "NJCBGNHGINI": 20.0,
                "NECGMADJICG": "EaseInOutQuad",
                "BMHIHPIKAHM": {},
                "JBODIEHINII": "",
                "EJCHLMIMLBO": "",
                "BIMPIKMCIHB": "",
                "MCAOJPLIJGI": ""
            },
            {
                "$type": "MoleMole.Config.ConfigCameraDOFAction",
                "type": "CAMERA_DOF",
                "enabled": true,
                "focusDistance": 50.0,
                "focusRange": 50.0,
                "quality": 3
            },
            {
                "$type": "KAGAFALAIGP",
                "type": "DIALOG",
                "aliasList": [
                    "20069"
                ],
                "JHEPJOMJJHH": 210070608
            }
        ],
        [
            {
                "$type": "PBIGHFCHGCA",
                "type": "CAMERA_MOVE",
                "duration": 1.0,
                "KCFKJMMEECM": {
                    "x": 809.9749145507812,
                    "y": 264.76806640625,
                    "z": -145.8944549560547
                },
                "DLGJEHNPMFN": {
                    "x": 810.5751342773438,
                    "y": 264.324462890625,
                    "z": -146.56002807617188
                },
                "NJCBGNHGINI": 20.0,
                "FNMFGIOLKBE": 6,
                "NECGMADJICG": "EaseInOutCubic",
                "BMHIHPIKAHM": {},
                "JBODIEHINII": "",
                "EJCHLMIMLBO": "",
                "BIMPIKMCIHB": "",
                "MCAOJPLIJGI": ""
            },
            {
                "$type": "PBIGHFCHGCA",
                "type": "CAMERA_MOVE",
                "delayTime": 0.10000000149011612,
                "duration": 8.0,
                "KCFKJMMEECM": {
                    "x": 810.0135498046875,
                    "y": 264.7793884277344,
                    "z": -145.86709594726562
                },
                "DLGJEHNPMFN": {
                    "x": 810.61376953125,
                    "y": 264.3357849121094,
                    "z": -146.5326690673828
                },
                "NJCBGNHGINI": 20.0,
                "NECGMADJICG": "EaseInOutQuad",
                "BMHIHPIKAHM": {},
                "JBODIEHINII": "",
                "EJCHLMIMLBO": "",
                "BIMPIKMCIHB": "",
                "MCAOJPLIJGI": ""
            },
            {
                "$type": "KAGAFALAIGP",
                "type": "DIALOG",
                "aliasList": [
                    "20069"
                ],
                "JHEPJOMJJHH": 210070609
            },
            {
                "$type": "FNPNDPFBBDD",
                "type": "LOOK_AT",
                "aliasList": [
                    "20069"
                ],
                "NKGFDJDHOBD": true,
                "OCIADBJCDPC": {
                    "y": 15.0
                },
                "MNOPLOBEFLB": 0.4000000059604645,
                "JBODIEHINII": "",
                "LPCACGGCDLI": "",
                "NNFPFPOJJOJ": ""
            }
        ],
        [
            {
                "$type": "PBIGHFCHGCA",
                "type": "CAMERA_MOVE",
                "delayTime": 0.30000001192092896,
                "duration": 1.0,
                "KCFKJMMEECM": {
                    "x": 800.96875,
                    "y": 264.71826171875,
                    "z": -146.81785583496094
                },
                "DLGJEHNPMFN": {
                    "x": 801.9598999023438,
                    "y": 264.5860290527344,
                    "z": -146.80596923828125
                },
                "NJCBGNHGINI": 20.0,
                "FNMFGIOLKBE": 6,
                "NECGMADJICG": "EaseInOutCubic",
                "BMHIHPIKAHM": {},
                "JBODIEHINII": "",
                "EJCHLMIMLBO": "",
                "BIMPIKMCIHB": "",
                "MCAOJPLIJGI": ""
            },
            {
                "$type": "PBIGHFCHGCA",
                "type": "CAMERA_MOVE",
                "delayTime": 0.4000000059604645,
                "duration": 10.0,
                "KCFKJMMEECM": {
                    "x": 800.4862670898438,
                    "y": 265.0435791015625,
                    "z": -146.76486206054688
                },
                "DLGJEHNPMFN": {
                    "x": 801.4774169921875,
                    "y": 264.9113464355469,
                    "z": -146.7529754638672
                },
                "NJCBGNHGINI": 20.0,
                "NECGMADJICG": "EaseInOutQuad",
                "BMHIHPIKAHM": {},
                "JBODIEHINII": "",
                "EJCHLMIMLBO": "",
                "BIMPIKMCIHB": "",
                "MCAOJPLIJGI": ""
            },
            {
                "$type": "KAGAFALAIGP",
                "type": "DIALOG",
                "aliasList": [
                    "20069"
                ],
                "JHEPJOMJJHH": 210070610,
                "OCILKFCPBNC": 0.5
            },
            {
                "$type": "FNPNDPFBBDD",
                "type": "LOOK_AT",
                "delayTime": 0.30000001192092896,
                "aliasList": [
                    "20069"
                ],
                "NKGFDJDHOBD": true,
                "MNOPLOBEFLB": 0.5,
                "JBODIEHINII": "20072",
                "LPCACGGCDLI": "",
                "NNFPFPOJJOJ": ""
            }
        ],
        [
            {
                "$type": "PBIGHFCHGCA",
                "type": "CAMERA_MOVE",
                "delayTime": 0.5,
                "duration": 0.5,
                "CGCNCKNJOFB": "EXIT",
                "DLGJEHNPMFN": {
                    "z": 1.0
                },
                "FNMFGIOLKBE": 6,
                "NECGMADJICG": "EaseInOutCubic",
                "BMHIHPIKAHM": {},
                "JBODIEHINII": "",
                "EJCHLMIMLBO": "",
                "BIMPIKMCIHB": "",
                "MCAOJPLIJGI": ""
            },
            {
                "$type": "MoleMole.Config.ConfigTimeProtectAction",
                "type": "TIME_PROTECT",
                "duration": 1.0
            },
            {
                "$type": "KAGAFALAIGP",
                "type": "DIALOG_CLEAR",
                "delayTime": 0.30000001192092896
            },
            {
                "$type": "MoleMole.Config.ConfigCameraDOFAction",
                "type": "CAMERA_DOF",
                "delayTime": 0.5
            },
            {
                "$type": "MoleMole.Config.ConfigSimpleBlackScreenAction",
                "type": "SIMPLE_BLACK_SCREEN",
                "durationToBlack": 0.4000000059604645,
                "durationKeepBlack": 1.0,
                "durationFromBlack": 0.4000000059604645,
                "textMapID": ""
            },
            {
                "$type": "MoleMole.Config.ConfigVisibleInterAction",
                "type": "VISIBLE",
                "delayTime": 0.5,
                "aliasList": [
                    "1005"
                ],
                "extraParam": ""
            },
            {
                "$type": "MoleMole.Config.ConfigVisibleInterAction",
                "type": "VISIBLE",
                "delayTime": 0.5,
                "aliasList": [
                    "20070"
                ],
                "extraParam": ""
            },
            {
                "$type": "MoleMole.Config.ConfigVisibleInterAction",
                "type": "VISIBLE",
                "delayTime": 0.5,
                "aliasList": [
                    "20072"
                ],
                "extraParam": ""
            },
            {
                "$type": "MoleMole.Config.ConfigVisibleInterAction",
                "type": "VISIBLE",
                "delayTime": 0.5,
                "aliasList": [
                    "20071"
                ],
                "extraParam": ""
            },
            {
                "$type": "MoleMole.Config.ConfigVisibleInterAction",
                "type": "VISIBLE",
                "delayTime": 0.5,
                "aliasList": [
                    "20069"
                ],
                "extraParam": ""
            }
        ],
        [
            {
                "$type": "FNPNDPFBBDD",
                "type": "LOOK_AT",
                "aliasList": [
                    "Avatar"
                ],
                "JBODIEHINII": "",
                "LPCACGGCDLI": "",
                "NNFPFPOJJOJ": ""
            },
            {
                "$type": "FNPNDPFBBDD",
                "type": "LOOK_AT",
                "aliasList": [
                    "1005"
                ],
                "JBODIEHINII": "",
                "LPCACGGCDLI": "",
                "NNFPFPOJJOJ": ""
            },
            {
                "$type": "FNPNDPFBBDD",
                "type": "LOOK_AT",
                "aliasList": [
                    "20070"
                ],
                "JBODIEHINII": "",
                "LPCACGGCDLI": "",
                "NNFPFPOJJOJ": ""
            },
            {
                "$type": "FNPNDPFBBDD",
                "type": "LOOK_AT",
                "aliasList": [
                    "20072"
                ],
                "JBODIEHINII": "",
                "LPCACGGCDLI": "",
                "NNFPFPOJJOJ": ""
            },
            {
                "$type": "FNPNDPFBBDD",
                "type": "LOOK_AT",
                "aliasList": [
                    "20071"
                ],
                "JBODIEHINII": "",
                "LPCACGGCDLI": "",
                "NNFPFPOJJOJ": ""
            },
            {
                "$type": "FNPNDPFBBDD",
                "type": "LOOK_AT",
                "aliasList": [
                    "20069"
                ],
                "JBODIEHINII": "",
                "LPCACGGCDLI": "",
                "NNFPFPOJJOJ": ""
            }
        ]
    ],
    "groupId": [
        {
            "grpId": 1324826198,
            "nextGrpId": 1324826199
        },
        {
            "index": 1,
            "grpId": 1324826199,
            "nextGrpId": 1324826200
        },
        {
            "index": 2,
            "grpId": 1324826200,
            "nextGrpId": 1324826201
        },
        {
            "index": 3,
            "grpId": 1324826201,
            "nextGrpId": 1324826202
        },
        {
            "index": 4,
            "grpId": 1324826202,
            "nextGrpId": 1324826203
        },
        {
            "index": 5,
            "grpId": 1324826203,
            "nextGrpId": 1324826204
        },
        {
            "index": 6,
            "grpId": 1324826204,
            "nextGrpId": 1324826205
        },
        {
            "index": 7,
            "grpId": 1324826205,
            "nextGrpId": 1324826206
        },
        {
            "index": 8,
            "grpId": 1324826206,
            "nextGrpId": 2414906522
        },
        {
            "index": 9,
            "grpId": 2414906522,
            "nextGrpId": 2414906523
        },
        {
            "index": 10,
            "grpId": 2414906523,
            "nextGrpId": 2414906524
        },
        {
            "index": 11,
            "grpId": 2414906524,
            "nextGrpId": 2414906525
        }
    ],
    "freeStyleDic": {
        "20070": [
            1173
        ],
        "20072": [
            1120
        ],
        "20071": [
            1171
        ],
        "20069": []
    }
}