{
    "luaDataPath": "",
    "entityBan": "",
    "disableNpcLod": true,
    "JJFIGGKCCCF": true,
    "EKDGNGHMECG": true,
    "startFade": {
        "startFadeInDuration": 0.5,
        "startFadeOutDuration": 0.0
    },
    "endFade": {
        "startFadeOutDuration": 0.5
    },
    "actors": [
        {
            "alias": "Avatar",
            "visible": true,
            "bornPointName": "",
            "relativePosType": "AVATAR_NEW",
            "relativePosNpcAlias": "",
            "bindMovingTargetKey": ""
        },
        {
            "configID": 4233,
            "alias": "4233",
            "visible": true,
            "bornPointName": "",
            "forceCreateDaily": true,
            "relativePosType": "AVATAR_NEW",
            "relativePosNpcAlias": "",
            "bindMovingTargetKey": ""
        },
        {
            "configID": 4232,
            "alias": "4232",
            "visible": true,
            "bornPointName": "",
            "forceCreateDaily": true,
            "relativePosType": "AVATAR_NEW",
            "relativePosNpcAlias": "",
            "bindMovingTargetKey": ""
        },
        {
            "configID": 1005,
            "alias": "1005",
            "visible": true,
            "bornPointName": "",
            "useRelativePos": true,
            "relativePos": {
                "x": -0.5,
                "z": 0.5
            },
            "removeActorType": "REMOVE_WITH_DISAPPEAR",
            "relativePosType": "AVATAR_NEW",
            "relativePosNpcAlias": "",
            "bindMovingTargetKey": ""
        }
    ],
    "group": [
        [
            {
                "$type": "MoleMole.Config.ConfigTimeProtectAction",
                "type": "TIME_PROTECT",
                "duration": 1.0,
                "actionId": 104
            },
            {
                "$type": "MoleMole.Config.ConfigBlackScreenAction",
                "type": "BLACK_SCREEN",
                "actionId": 182,
                "blackScreenType": "KEEP_BLACK",
                "durationKeepBlack": 0.5,
                "inteePos": "",
                "textMapID": "",
                "useTextFade": true
            },
            {
                "$type": "PBIGHFCHGCA",
                "type": "CAMERA_MOVE",
                "duration": 0.10000000149011612,
                "actionId": 183,
                "KCFKJMMEECM": {
                    "x": -1796.0150146484375,
                    "y": 327.9840087890625,
                    "z": 4107.6611328125
                },
                "DLGJEHNPMFN": {
                    "x": -1796.7939453125,
                    "y": 327.84698486328125,
                    "z": 4108.27294921875
                },
                "NJCBGNHGINI": 35.0,
                "FNMFGIOLKBE": 6,
                "NECGMADJICG": "EaseInOutCubic",
                "BMHIHPIKAHM": {},
                "MMJMMAEAJOA": true,
                "HGGPLEMCNNG": false,
                "JBODIEHINII": "",
                "PHDIKPKLFIA": true,
                "EJCHLMIMLBO": "",
                "BIMPIKMCIHB": "",
                "MCAOJPLIJGI": ""
            },
            {
                "$type": "MoleMole.Config.ConfigTeleportToAction",
                "type": "TELEPORT_TO",
                "aliasList": [
                    "Avatar"
                ],
                "actionId": 151,
                "position": {
                    "x": -1804.761962890625,
                    "y": 326.4679870605469,
                    "z": 4115.9619140625
                },
                "forward": {
                    "x": 2.1670000553131104,
                    "y": -0.035999998450279236,
                    "z": -2.056999921798706
                },
                "openLongDisTeleport": true,
                "posBindMovingTargetKey": "",
                "forwardBindMovingTargetKey": ""
            },
            {
                "$type": "FNPNDPFBBDD",
                "type": "LOOK_AT",
                "aliasList": [
                    "Avatar"
                ],
                "actionId": 162,
                "MNOPLOBEFLB": 0.5,
                "JBODIEHINII": "",
                "MDNPCOHCCLM": true,
                "LPCACGGCDLI": "",
                "NNFPFPOJJOJ": ""
            },
            {
                "$type": "MoleMole.Config.ConfigTeleportToAction",
                "type": "TELEPORT_TO",
                "aliasList": [
                    "4233"
                ],
                "actionId": 149,
                "position": {
                    "x": -1806.4300537109375,
                    "y": 326.4309997558594,
                    "z": 4114.490234375
                },
                "forward": {
                    "x": 0.7770000100135803,
                    "z": -0.6299999952316284
                },
                "openLongDisTeleport": true,
                "posBindMovingTargetKey": "",
                "forwardBindMovingTargetKey": ""
            },
            {
                "$type": "FNPNDPFBBDD",
                "type": "LOOK_AT",
                "aliasList": [
                    "4233"
                ],
                "actionId": 161,
                "MNOPLOBEFLB": 0.5,
                "JBODIEHINII": "",
                "MDNPCOHCCLM": true,
                "LPCACGGCDLI": "",
                "NNFPFPOJJOJ": ""
            },
            {
                "$type": "MoleMole.Config.ConfigTeleportToAction",
                "type": "TELEPORT_TO",
                "aliasList": [
                    "4232"
                ],
                "actionId": 150,
                "position": {
                    "x": -1805.89794921875,
                    "y": 326.4590148925781,
                    "z": 4115.41015625
                },
                "forward": {
                    "x": 0.6949999928474426,
                    "z": -0.718999981880188
                },
                "openLongDisTeleport": true,
                "posBindMovingTargetKey": "",
                "forwardBindMovingTargetKey": ""
            },
            {
                "$type": "FNPNDPFBBDD",
                "type": "LOOK_AT",
                "aliasList": [
                    "4232"
                ],
                "actionId": 159,
                "MNOPLOBEFLB": 0.5,
                "JBODIEHINII": "",
                "MDNPCOHCCLM": true,
                "LPCACGGCDLI": "",
                "NNFPFPOJJOJ": ""
            },
            {
                "$type": "PCKGCMJKAFG",
                "type": "LOOK_AT_EYECTRL",
                "aliasList": [
                    "4232"
                ],
                "actionId": 189,
                "useTargetPos": false,
                "KIIEOLGDJKJ": {
                    "z": 3.0
                },
                "JMJDEGALFIP": {
                    "z": 3.0
                },
                "OEJLBIFJKEL": 0.20000000298023224,
                "JBODIEHINII": "",
                "FEHKBOLJIOO": "Face"
            },
            {
                "$type": "MoleMole.Config.ConfigTeleportToAction",
                "type": "TELEPORT_TO",
                "aliasList": [
                    "1005"
                ],
                "actionId": 152,
                "position": {
                    "x": -1803.4000244140625,
                    "y": 326.46600341796875,
                    "z": 4115.96923828125
                },
                "forward": {
                    "x": 0.4790000021457672,
                    "z": -0.878000020980835
                },
                "openLongDisTeleport": true,
                "posBindMovingTargetKey": "",
                "forwardBindMovingTargetKey": ""
            },
            {
                "$type": "FNPNDPFBBDD",
                "type": "LOOK_AT",
                "aliasList": [
                    "1005"
                ],
                "actionId": 160,
                "MNOPLOBEFLB": 0.5,
                "JBODIEHINII": "",
                "MDNPCOHCCLM": true,
                "LPCACGGCDLI": "",
                "NNFPFPOJJOJ": ""
            }
        ],
        [
            {
                "$type": "MoleMole.Config.ConfigBlackScreenAction",
                "type": "BLACK_SCREEN",
                "actionId": 267,
                "blackScreenType": "KEEP_BLACK",
                "durationKeepBlack": 3.0,
                "inteePos": "",
                "textMapID": "",
                "useTextFade": true,
                "dialogID": 732090426
            },
            {
                "$type": "MoleMole.Config.ConfigTimeProtectAction",
                "type": "TIME_PROTECT",
                "duration": 1.0,
                "actionId": 268
            }
        ],
        [
            {
                "$type": "MoleMole.Config.ConfigBlackScreenAction",
                "type": "BLACK_SCREEN",
                "actionId": 265,
                "blackScreenType": "KEEP_BLACK",
                "durationKeepBlack": 3.0,
                "inteePos": "",
                "textMapID": "",
                "useTextFade": true,
                "dialogID": 732090427
            },
            {
                "$type": "MoleMole.Config.ConfigTimeProtectAction",
                "type": "TIME_PROTECT",
                "duration": 1.0,
                "actionId": 269
            }
        ],
        [
            {
                "$type": "MoleMole.Config.ConfigLuaAction",
                "type": "LUA_ACTION",
                "duration": 0.5,
                "actionId": 275,
                "invoke": true,
                "invokeAlias": "73209",
                "invokeParam": 1
            },
            {
                "$type": "MoleMole.Config.ConfigLuaAction",
                "type": "LUA_ACTION",
                "duration": 1.0,
                "actionId": 280,
                "invoke": true,
                "invokeAlias": "73209",
                "invokeParam": 2
            },
            {
                "$type": "DKLMLAFNEFF",
                "type": "CUTSCENE",
                "actionId": 279,
                "DOAJDIBEEBD": {
                    "$type": "LKIMJCPPNNB",
                    "preTaskCfg": {
                        "BOHJKFPDNME": ""
                    },
                    "luaDataPath": "",
                    "resPath": "",
                    "castListPath": "",
                    "entityBan": ""
                },
                "FKIDEMAJMNK": 7320904
            },
            {
                "$type": "MoleMole.Config.ConfigTimeProtectAction",
                "type": "TIME_PROTECT",
                "duration": 1.7130000591278076,
                "actionId": 281
            },
            {
                "$type": "MoleMole.Config.ConfigBlackScreenAction",
                "type": "BLACK_SCREEN",
                "actionId": 284,
                "blackScreenType": "KEEP_BLACK",
                "durationKeepBlack": 0.5,
                "inteePos": "",
                "textMapID": "",
                "useTextFade": true
            },
            {
                "$type": "MoleMole.Config.ConfigBlackScreenAction",
                "type": "BLACK_SCREEN",
                "delayTime": 0.5,
                "actionId": 266,
                "blackScreenType": "FROM_BLACK",
                "durationFromBlack": 0.5,
                "inteePos": "",
                "textMapID": "",
                "useTextFade": true
            },
            {
                "$type": "PBIGHFCHGCA",
                "type": "CAMERA_MOVE",
                "delayTime": 0.9440000057220459,
                "duration": 0.5,
                "actionId": 285,
                "KCFKJMMEECM": {
                    "x": -1800.6669921875,
                    "y": 329.58099365234375,
                    "z": 4111.31787109375
                },
                "DLGJEHNPMFN": {
                    "x": -1800.0009765625,
                    "y": 328.9309997558594,
                    "z": 4110.9521484375
                },
                "NJCBGNHGINI": 35.0,
                "FNMFGIOLKBE": 6,
                "NECGMADJICG": "EaseInOutCubic",
                "BMHIHPIKAHM": {},
                "MMJMMAEAJOA": true,
                "HGGPLEMCNNG": false,
                "JBODIEHINII": "",
                "PHDIKPKLFIA": true,
                "EJCHLMIMLBO": "",
                "BIMPIKMCIHB": "",
                "MCAOJPLIJGI": ""
            }
        ],
        [
            {
                "$type": "PBIGHFCHGCA",
                "type": "CAMERA_MOVE",
                "duration": 0.5,
                "actionId": 153,
                "KCFKJMMEECM": {
                    "x": -1800.6669921875,
                    "y": 329.58099365234375,
                    "z": 4111.31787109375
                },
                "DLGJEHNPMFN": {
                    "x": -1800.0009765625,
                    "y": 328.9309997558594,
                    "z": 4110.9521484375
                },
                "NJCBGNHGINI": 35.0,
                "FNMFGIOLKBE": 6,
                "NECGMADJICG": "EaseInOutCubic",
                "BMHIHPIKAHM": {},
                "MMJMMAEAJOA": true,
                "HGGPLEMCNNG": false,
                "JBODIEHINII": "",
                "PHDIKPKLFIA": true,
                "EJCHLMIMLBO": "",
                "BIMPIKMCIHB": "",
                "MCAOJPLIJGI": ""
            },
            {
                "$type": "KAGAFALAIGP",
                "type": "DIALOG",
                "aliasList": [
                    "1005"
                ],
                "actionId": 107,
                "JHEPJOMJJHH": 732090401,
                "OCILKFCPBNC": 0.5
            },
            {
                "$type": "CENEPJCONAG",
                "type": "BODY_LANG",
                "aliasList": [
                    "1005"
                ],
                "actionId": 156,
                "OGFPAIKLDGB": 1260,
                "MHDCNDAINCK": true,
                "LHIAJOBFNAK": false,
                "GJGPNLJEIFP": true,
                "FOEKGLEJBIJ": ""
            },
            {
                "$type": "PBIGHFCHGCA",
                "type": "CAMERA_MOVE",
                "delayTime": 0.10000000149011612,
                "duration": 16.649999618530273,
                "actionId": 155,
                "KCFKJMMEECM": {
                    "x": -1800.4300537109375,
                    "y": 329.3489990234375,
                    "z": 4111.18798828125
                },
                "DLGJEHNPMFN": {
                    "x": -1799.7640380859375,
                    "y": 328.6990051269531,
                    "z": 4110.82177734375
                },
                "NJCBGNHGINI": 35.0,
                "NECGMADJICG": "EaseOutQuad",
                "BMHIHPIKAHM": {},
                "MMJMMAEAJOA": true,
                "HGGPLEMCNNG": false,
                "JBODIEHINII": "",
                "PHDIKPKLFIA": true,
                "EJCHLMIMLBO": "",
                "BIMPIKMCIHB": "",
                "MCAOJPLIJGI": ""
            },
            {
                "$type": "CENEPJCONAG",
                "type": "BODY_LANG",
                "delayTime": 0.34200000762939453,
                "aliasList": [
                    "4233"
                ],
                "actionId": 157,
                "OGFPAIKLDGB": 5010,
                "MHDCNDAINCK": true,
                "LHIAJOBFNAK": false,
                "GJGPNLJEIFP": true,
                "FOEKGLEJBIJ": ""
            },
            {
                "$type": "CENEPJCONAG",
                "type": "BODY_LANG",
                "delayTime": 0.44999998807907104,
                "aliasList": [
                    "4232"
                ],
                "actionId": 158,
                "OGFPAIKLDGB": 1230,
                "MHDCNDAINCK": true,
                "LHIAJOBFNAK": false,
                "GJGPNLJEIFP": true,
                "FOEKGLEJBIJ": ""
            }
        ],
        [
            {
                "$type": "PBIGHFCHGCA",
                "type": "CAMERA_MOVE",
                "duration": 0.5,
                "actionId": 164,
                "KCFKJMMEECM": {
                    "x": -1806.8189697265625,
                    "y": 327.6929931640625,
                    "z": 4112.72021484375
                },
                "DLGJEHNPMFN": {
                    "x": -1806.35595703125,
                    "y": 327.6610107421875,
                    "z": 4113.60595703125
                },
                "NJCBGNHGINI": 25.0,
                "FNMFGIOLKBE": 6,
                "NECGMADJICG": "EaseInOutCubic",
                "BMHIHPIKAHM": {},
                "HGGPLEMCNNG": false,
                "JBODIEHINII": "",
                "PHDIKPKLFIA": true,
                "EJCHLMIMLBO": "",
                "BIMPIKMCIHB": "",
                "MCAOJPLIJGI": ""
            },
            {
                "$type": "MoleMole.Config.ConfigTeleportToAction",
                "type": "TELEPORT_TO",
                "aliasList": [
                    "Avatar"
                ],
                "actionId": 166,
                "position": {
                    "x": -1804.7259521484375,
                    "y": 326.4639892578125,
                    "z": 4115.90576171875
                },
                "forward": {
                    "x": 0.7250000238418579,
                    "z": -0.6880000233650208
                },
                "openLongDisTeleport": true,
                "posBindMovingTargetKey": "",
                "forwardBindMovingTargetKey": ""
            },
            {
                "$type": "CENEPJCONAG",
                "type": "BODY_LANG",
                "aliasList": [
                    "Avatar"
                ],
                "actionId": 176,
                "NNKEOHJCPOF": true,
                "MHDCNDAINCK": true,
                "LHIAJOBFNAK": false,
                "GJGPNLJEIFP": true,
                "FOEKGLEJBIJ": ""
            },
            {
                "$type": "MoleMole.Config.ConfigTeleportToAction",
                "type": "TELEPORT_TO",
                "aliasList": [
                    "4232"
                ],
                "actionId": 167,
                "position": {
                    "x": -1805.6090087890625,
                    "y": 326.44500732421875,
                    "z": 4115.19677734375
                },
                "forward": {
                    "x": 0.6949999928474426,
                    "z": -0.718999981880188
                },
                "openLongDisTeleport": true,
                "posBindMovingTargetKey": "",
                "forwardBindMovingTargetKey": ""
            },
            {
                "$type": "KAGAFALAIGP",
                "type": "DIALOG",
                "aliasList": [
                    "1005"
                ],
                "actionId": 109,
                "JHEPJOMJJHH": 732090402,
                "OCILKFCPBNC": 0.5,
                "OPIFBGJFAFJ": 0.00800000037997961
            },
            {
                "$type": "MoleMole.Config.ConfigTeleportToAction",
                "type": "TELEPORT_TO",
                "aliasList": [
                    "1005"
                ],
                "actionId": 165,
                "position": {
                    "x": -1804.176025390625,
                    "y": 326.4530029296875,
                    "z": 4115.84423828125
                },
                "forward": {
                    "x": 0.4790000021457672,
                    "z": -0.878000020980835
                },
                "openLongDisTeleport": true,
                "posBindMovingTargetKey": "",
                "forwardBindMovingTargetKey": ""
            },
            {
                "$type": "NFDDGDIKEAG",
                "type": "STEER_TO",
                "duration": 1.0,
                "aliasList": [
                    "1005"
                ],
                "actionId": 168,
                "GGJHILELIMO": "ABSOLUTE",
                "GPODKINFLFH": {
                    "x": -1804.95703125,
                    "y": 326.4330139160156,
                    "z": 4115.15576171875
                },
                "PKKKHNGDEEE": true,
                "LGDIOPOBMPH": true,
                "NBNJEKMFIDE": true,
                "JBODIEHINII": "",
                "NNFPFPOJJOJ": ""
            },
            {
                "$type": "FNPNDPFBBDD",
                "type": "LOOK_AT",
                "delayTime": 0.2160000056028366,
                "aliasList": [
                    "1005"
                ],
                "actionId": 169,
                "NKGFDJDHOBD": true,
                "useTargetPos": true,
                "LBJHJADMNBD": true,
                "EKIONHAEIBG": {
                    "x": -1806.2080078125,
                    "y": 327.74200439453125,
                    "z": 4114.30908203125
                },
                "MNOPLOBEFLB": 0.5,
                "JBODIEHINII": "",
                "CFPBIOLLOCO": "NONE",
                "MDNPCOHCCLM": true,
                "LPCACGGCDLI": "",
                "NNFPFPOJJOJ": ""
            },
            {
                "$type": "NFDDGDIKEAG",
                "type": "STEER_TO",
                "delayTime": 0.2630000114440918,
                "duration": 1.0,
                "aliasList": [
                    "Avatar"
                ],
                "actionId": 177,
                "GGJHILELIMO": "ABSOLUTE",
                "GPODKINFLFH": {
                    "x": -1805.2769775390625,
                    "y": 326.4309997558594,
                    "z": 4115.01904296875
                },
                "PKKKHNGDEEE": true,
                "LGDIOPOBMPH": true,
                "NBNJEKMFIDE": true,
                "JBODIEHINII": "",
                "NNFPFPOJJOJ": ""
            },
            {
                "$type": "FNPNDPFBBDD",
                "type": "LOOK_AT",
                "delayTime": 0.2720000147819519,
                "aliasList": [
                    "Avatar"
                ],
                "actionId": 172,
                "NKGFDJDHOBD": true,
                "useTargetPos": true,
                "LBJHJADMNBD": true,
                "EKIONHAEIBG": {
                    "x": -1806.2080078125,
                    "y": 327.74200439453125,
                    "z": 4114.30908203125
                },
                "MNOPLOBEFLB": 0.5,
                "JBODIEHINII": "",
                "CFPBIOLLOCO": "NONE",
                "MDNPCOHCCLM": true,
                "LPCACGGCDLI": "",
                "NNFPFPOJJOJ": ""
            },
            {
                "$type": "AAFOOOPNJLB",
                "type": "DIALOG_SELECT",
                "delayTime": 0.4000000059604645,
                "aliasList": [
                    "Avatar"
                ],
                "actionId": 110,
                "KFAEOBDAAME": [
                    732090403,
                    732090404
                ],
                "ELPFMMBHOLF": [
                    411134799,
                    411134799
                ],
                "OEAAKJDIEFD": true
            },
            {
                "$type": "CENEPJCONAG",
                "type": "BODY_LANG",
                "delayTime": 1.1410000324249268,
                "aliasList": [
                    "1005"
                ],
                "actionId": 170,
                "OGFPAIKLDGB": 1250,
                "MHDCNDAINCK": true,
                "GJGPNLJEIFP": true,
                "FOEKGLEJBIJ": ""
            },
            {
                "$type": "PCKGCMJKAFG",
                "type": "LOOK_AT_EYECTRL",
                "delayTime": 3.2070000171661377,
                "aliasList": [
                    "4233"
                ],
                "actionId": 190,
                "useTargetPos": false,
                "OEJLBIFJKEL": 0.20000000298023224,
                "JBODIEHINII": "",
                "FEHKBOLJIOO": "Face"
            }
        ],
        [
            {
                "$type": "PBIGHFCHGCA",
                "type": "CAMERA_MOVE",
                "duration": 3.7249999046325684,
                "actionId": 175,
                "KCFKJMMEECM": {
                    "x": -1806.9310302734375,
                    "y": 327.6730041503906,
                    "z": 4112.77587890625
                },
                "DLGJEHNPMFN": {
                    "x": -1806.468017578125,
                    "y": 327.6409912109375,
                    "z": 4113.662109375
                },
                "NJCBGNHGINI": 25.0,
                "NECGMADJICG": "EaseInOutCubic",
                "BMHIHPIKAHM": {},
                "MMJMMAEAJOA": true,
                "HGGPLEMCNNG": false,
                "JBODIEHINII": "",
                "PHDIKPKLFIA": true,
                "EJCHLMIMLBO": "",
                "BIMPIKMCIHB": "",
                "MCAOJPLIJGI": ""
            },
            {
                "$type": "KAGAFALAIGP",
                "type": "DIALOG",
                "aliasList": [
                    "4233"
                ],
                "actionId": 112,
                "JHEPJOMJJHH": 732090405,
                "OCILKFCPBNC": 1.2999999523162842
            },
            {
                "$type": "CENEPJCONAG",
                "type": "BODY_LANG",
                "aliasList": [
                    "4233"
                ],
                "actionId": 179,
                "OGFPAIKLDGB": 5010,
                "MHDCNDAINCK": true,
                "LHIAJOBFNAK": false,
                "GJGPNLJEIFP": true,
                "FOEKGLEJBIJ": ""
            },
            {
                "$type": "CENEPJCONAG",
                "type": "BODY_LANG",
                "aliasList": [
                    "4232"
                ],
                "actionId": 180,
                "NNKEOHJCPOF": true,
                "MHDCNDAINCK": true,
                "LHIAJOBFNAK": false,
                "GJGPNLJEIFP": true,
                "FOEKGLEJBIJ": ""
            },
            {
                "$type": "MoleMole.Config.ConfigTeleportToAction",
                "type": "TELEPORT_TO",
                "aliasList": [
                    "1005"
                ],
                "actionId": 232,
                "position": {
                    "x": -1804.176025390625,
                    "y": 326.4530029296875,
                    "z": 4115.84423828125
                },
                "forward": {
                    "x": -0.8859999775886536,
                    "z": -0.46299999952316284
                },
                "openLongDisTeleport": true,
                "posBindMovingTargetKey": "",
                "forwardBindMovingTargetKey": ""
            },
            {
                "$type": "NFDDGDIKEAG",
                "type": "STEER_TO",
                "delayTime": 0.20000000298023224,
                "duration": 1.0,
                "aliasList": [
                    "4232"
                ],
                "actionId": 181,
                "GGJHILELIMO": "ABSOLUTE",
                "GPODKINFLFH": {
                    "x": -1805.8900146484375,
                    "y": 326.42401123046875,
                    "z": 4114.64990234375
                },
                "PKKKHNGDEEE": true,
                "LGDIOPOBMPH": true,
                "NBNJEKMFIDE": true,
                "JBODIEHINII": "",
                "NNFPFPOJJOJ": ""
            },
            {
                "$type": "FNPNDPFBBDD",
                "type": "LOOK_AT",
                "delayTime": 0.21199999749660492,
                "aliasList": [
                    "4232"
                ],
                "actionId": 188,
                "MNOPLOBEFLB": 0.5,
                "JBODIEHINII": "",
                "MDNPCOHCCLM": true,
                "LPCACGGCDLI": "",
                "NNFPFPOJJOJ": ""
            },
            {
                "$type": "FNPNDPFBBDD",
                "type": "LOOK_AT",
                "delayTime": 0.4830000102519989,
                "aliasList": [
                    "4232"
                ],
                "actionId": 174,
                "NKGFDJDHOBD": true,
                "useTargetPos": true,
                "LBJHJADMNBD": true,
                "EKIONHAEIBG": {
                    "x": -1806.20703125,
                    "y": 327.7409973144531,
                    "z": 4114.30908203125
                },
                "MNOPLOBEFLB": 0.5,
                "JBODIEHINII": "",
                "CFPBIOLLOCO": "NONE",
                "MDNPCOHCCLM": true,
                "LPCACGGCDLI": "",
                "NNFPFPOJJOJ": ""
            }
        ],
        [
            {
                "$type": "PBIGHFCHGCA",
                "type": "CAMERA_MOVE",
                "duration": 0.5,
                "actionId": 185,
                "KCFKJMMEECM": {
                    "x": -1806.0849609375,
                    "y": 327.9729919433594,
                    "z": 4114.291015625
                },
                "DLGJEHNPMFN": {
                    "x": -1805.6219482421875,
                    "y": 327.9410095214844,
                    "z": 4115.1767578125
                },
                "NJCBGNHGINI": 20.0,
                "FNMFGIOLKBE": 6,
                "NECGMADJICG": "EaseInOutCubic",
                "BMHIHPIKAHM": {},
                "MMJMMAEAJOA": true,
                "HGGPLEMCNNG": false,
                "JBODIEHINII": "",
                "PHDIKPKLFIA": true,
                "EJCHLMIMLBO": "",
                "BIMPIKMCIHB": "",
                "MCAOJPLIJGI": ""
            },
            {
                "$type": "KAGAFALAIGP",
                "type": "DIALOG",
                "aliasList": [
                    "4232"
                ],
                "actionId": 114,
                "JHEPJOMJJHH": 732090406,
                "OCILKFCPBNC": 0.5
            },
            {
                "$type": "CENEPJCONAG",
                "type": "BODY_LANG",
                "aliasList": [
                    "4232"
                ],
                "actionId": 186,
                "OGFPAIKLDGB": 1130,
                "MHDCNDAINCK": true,
                "LHIAJOBFNAK": false,
                "GJGPNLJEIFP": true,
                "FOEKGLEJBIJ": ""
            },
            {
                "$type": "FNPNDPFBBDD",
                "type": "LOOK_AT",
                "aliasList": [
                    "4232"
                ],
                "actionId": 187,
                "NKGFDJDHOBD": true,
                "useTargetPos": true,
                "LBJHJADMNBD": true,
                "EKIONHAEIBG": {
                    "x": -1805.97998046875,
                    "y": 327.4800109863281,
                    "z": 4114.55908203125
                },
                "MNOPLOBEFLB": 0.5,
                "JBODIEHINII": "",
                "CFPBIOLLOCO": "NONE",
                "MDNPCOHCCLM": true,
                "LPCACGGCDLI": "",
                "NNFPFPOJJOJ": ""
            },
            {
                "$type": "PCKGCMJKAFG",
                "type": "LOOK_AT_EYECTRL",
                "aliasList": [
                    "4232"
                ],
                "actionId": 191,
                "useTargetPos": false,
                "KIIEOLGDJKJ": {
                    "z": 6.0
                },
                "JMJDEGALFIP": {
                    "z": 6.0
                },
                "OEJLBIFJKEL": 0.20000000298023224,
                "JBODIEHINII": "",
                "FEHKBOLJIOO": "Face"
            },
            {
                "$type": "MoleMole.Config.ConfigTeleportToAction",
                "type": "TELEPORT_TO",
                "aliasList": [
                    "4232"
                ],
                "actionId": 233,
                "position": {
                    "x": -1805.6090087890625,
                    "y": 326.44500732421875,
                    "z": 4115.19677734375
                },
                "forward": {
                    "x": -0.4569999873638153,
                    "z": -0.8889999985694885
                },
                "openLongDisTeleport": true,
                "posBindMovingTargetKey": "",
                "forwardBindMovingTargetKey": ""
            }
        ],
        [
            {
                "$type": "PBIGHFCHGCA",
                "type": "CAMERA_MOVE",
                "duration": 0.5,
                "actionId": 193,
                "KCFKJMMEECM": {
                    "x": -1804.4949951171875,
                    "y": 328.1600036621094,
                    "z": 4115.244140625
                },
                "DLGJEHNPMFN": {
                    "x": -1805.4119873046875,
                    "y": 327.8909912109375,
                    "z": 4114.94921875
                },
                "NJCBGNHGINI": 25.0,
                "FNMFGIOLKBE": 6,
                "NECGMADJICG": "EaseInOutCubic",
                "BMHIHPIKAHM": {},
                "MMJMMAEAJOA": true,
                "HGGPLEMCNNG": false,
                "JBODIEHINII": "",
                "PHDIKPKLFIA": true,
                "EJCHLMIMLBO": "",
                "BIMPIKMCIHB": "",
                "MCAOJPLIJGI": ""
            },
            {
                "$type": "KAGAFALAIGP",
                "type": "DIALOG",
                "aliasList": [
                    "4233"
                ],
                "actionId": 116,
                "JHEPJOMJJHH": 732090407,
                "OCILKFCPBNC": 0.5
            },
            {
                "$type": "CENEPJCONAG",
                "type": "BODY_LANG",
                "aliasList": [
                    "4233"
                ],
                "actionId": 196,
                "OGFPAIKLDGB": 4040,
                "MHDCNDAINCK": true,
                "LHIAJOBFNAK": false,
                "GJGPNLJEIFP": true,
                "FOEKGLEJBIJ": ""
            },
            {
                "$type": "PCKGCMJKAFG",
                "type": "LOOK_AT_EYECTRL",
                "aliasList": [
                    "4232"
                ],
                "actionId": 192,
                "useTargetPos": false,
                "KIIEOLGDJKJ": {
                    "z": 2.0
                },
                "JMJDEGALFIP": {
                    "z": 2.0
                },
                "OEJLBIFJKEL": 0.20000000298023224,
                "JBODIEHINII": "",
                "FEHKBOLJIOO": "Face"
            },
            {
                "$type": "FNPNDPFBBDD",
                "type": "LOOK_AT",
                "aliasList": [
                    "4232"
                ],
                "actionId": 194,
                "NKGFDJDHOBD": true,
                "useTargetPos": true,
                "LBJHJADMNBD": true,
                "EKIONHAEIBG": {
                    "x": -1806.20703125,
                    "y": 327.7409973144531,
                    "z": 4114.30908203125
                },
                "MNOPLOBEFLB": 0.5,
                "JBODIEHINII": "",
                "CFPBIOLLOCO": "NONE",
                "MDNPCOHCCLM": true,
                "LPCACGGCDLI": "",
                "NNFPFPOJJOJ": ""
            },
            {
                "$type": "CENEPJCONAG",
                "type": "BODY_LANG",
                "aliasList": [
                    "4232"
                ],
                "actionId": 195,
                "NNKEOHJCPOF": true,
                "MHDCNDAINCK": true,
                "LHIAJOBFNAK": false,
                "GJGPNLJEIFP": true,
                "FOEKGLEJBIJ": ""
            }
        ],
        [
            {
                "$type": "PBIGHFCHGCA",
                "type": "CAMERA_MOVE",
                "duration": 0.5,
                "actionId": 205,
                "KCFKJMMEECM": {
                    "x": -1805.615966796875,
                    "y": 327.875,
                    "z": 4114.591796875
                },
                "DLGJEHNPMFN": {
                    "x": -1806.532958984375,
                    "y": 327.6059875488281,
                    "z": 4114.2958984375
                },
                "NJCBGNHGINI": 25.0,
                "FNMFGIOLKBE": 6,
                "NECGMADJICG": "EaseInOutCubic",
                "BMHIHPIKAHM": {},
                "MMJMMAEAJOA": true,
                "HGGPLEMCNNG": false,
                "JBODIEHINII": "",
                "PHDIKPKLFIA": true,
                "EJCHLMIMLBO": "",
                "BIMPIKMCIHB": "",
                "MCAOJPLIJGI": ""
            },
            {
                "$type": "KAGAFALAIGP",
                "type": "DIALOG",
                "aliasList": [
                    "4233"
                ],
                "actionId": 118,
                "JHEPJOMJJHH": 732090408,
                "OCILKFCPBNC": 0.5
            },
            {
                "$type": "CENEPJCONAG",
                "type": "BODY_LANG",
                "aliasList": [
                    "4233"
                ],
                "actionId": 199,
                "OGFPAIKLDGB": 5010,
                "MHDCNDAINCK": true,
                "LHIAJOBFNAK": false,
                "GJGPNLJEIFP": true,
                "FOEKGLEJBIJ": ""
            },
            {
                "$type": "MoleMole.Config.ConfigSetAnimatorSpeedAction",
                "type": "SET_ANIMATOR_SPEED",
                "aliasList": [
                    "4233"
                ],
                "actionId": 200,
                "speedRatio": 0.5,
                "blendType": "EaseInOutQuad"
            },
            {
                "$type": "PBIGHFCHGCA",
                "type": "CAMERA_MOVE",
                "delayTime": 0.10000000149011612,
                "duration": 18.466999053955078,
                "actionId": 207,
                "KCFKJMMEECM": {
                    "x": -1805.5469970703125,
                    "y": 327.8710021972656,
                    "z": 4114.3671875
                },
                "DLGJEHNPMFN": {
                    "x": -1806.5140380859375,
                    "y": 327.6159973144531,
                    "z": 4114.365234375
                },
                "NJCBGNHGINI": 25.0,
                "NECGMADJICG": "EaseOutQuad",
                "BMHIHPIKAHM": {},
                "MMJMMAEAJOA": true,
                "HGGPLEMCNNG": false,
                "JBODIEHINII": "",
                "PHDIKPKLFIA": true,
                "EJCHLMIMLBO": "",
                "BIMPIKMCIHB": "",
                "MCAOJPLIJGI": ""
            }
        ],
        [
            {
                "$type": "PBIGHFCHGCA",
                "type": "CAMERA_MOVE",
                "duration": 0.5,
                "actionId": 208,
                "KCFKJMMEECM": {
                    "x": -1813.573974609375,
                    "y": 332.2460021972656,
                    "z": 4126.81298828125
                },
                "DLGJEHNPMFN": {
                    "x": -1812.9749755859375,
                    "y": 331.9800109863281,
                    "z": 4126.05810546875
                },
                "NJCBGNHGINI": 25.0,
                "FNMFGIOLKBE": 6,
                "NECGMADJICG": "EaseInOutCubic",
                "BMHIHPIKAHM": {},
                "MMJMMAEAJOA": true,
                "HGGPLEMCNNG": false,
                "JBODIEHINII": "",
                "PHDIKPKLFIA": true,
                "EJCHLMIMLBO": "",
                "BIMPIKMCIHB": "",
                "MCAOJPLIJGI": ""
            },
            {
                "$type": "KAGAFALAIGP",
                "type": "DIALOG",
                "aliasList": [
                    "4233"
                ],
                "actionId": 120,
                "JHEPJOMJJHH": 732090409,
                "OCILKFCPBNC": 0.5
            },
            {
                "$type": "CENEPJCONAG",
                "type": "BODY_LANG",
                "aliasList": [
                    "4233"
                ],
                "actionId": 201,
                "OGFPAIKLDGB": 5010,
                "MHDCNDAINCK": true,
                "GJGPNLJEIFP": true,
                "FOEKGLEJBIJ": ""
            },
            {
                "$type": "MoleMole.Config.ConfigSetAnimatorSpeedAction",
                "type": "SET_ANIMATOR_SPEED",
                "aliasList": [
                    "4233"
                ],
                "actionId": 202,
                "speedRatio": 0.5,
                "blendType": "EaseInOutQuad"
            },
            {
                "$type": "PBIGHFCHGCA",
                "type": "CAMERA_MOVE",
                "delayTime": 0.10000000149011612,
                "duration": 25.0,
                "actionId": 209,
                "KCFKJMMEECM": {
                    "x": -1813.614013671875,
                    "y": 332.9020080566406,
                    "z": 4126.54296875
                },
                "DLGJEHNPMFN": {
                    "x": -1813.0069580078125,
                    "y": 332.60699462890625,
                    "z": 4125.80517578125
                },
                "NJCBGNHGINI": 25.0,
                "NECGMADJICG": "EaseOutQuad",
                "BMHIHPIKAHM": {},
                "MMJMMAEAJOA": true,
                "HGGPLEMCNNG": false,
                "JBODIEHINII": "",
                "PHDIKPKLFIA": true,
                "EJCHLMIMLBO": "",
                "BIMPIKMCIHB": "",
                "MCAOJPLIJGI": ""
            }
        ],
        [
            {
                "$type": "KAGAFALAIGP",
                "type": "DIALOG",
                "aliasList": [
                    "4233"
                ],
                "actionId": 122,
                "JHEPJOMJJHH": 732090410,
                "OCILKFCPBNC": 0.5
            },
            {
                "$type": "CENEPJCONAG",
                "type": "BODY_LANG",
                "aliasList": [
                    "4233"
                ],
                "actionId": 203,
                "OGFPAIKLDGB": 5010,
                "MHDCNDAINCK": true,
                "GJGPNLJEIFP": true,
                "FOEKGLEJBIJ": ""
            },
            {
                "$type": "MoleMole.Config.ConfigSetAnimatorSpeedAction",
                "type": "SET_ANIMATOR_SPEED",
                "aliasList": [
                    "4233"
                ],
                "actionId": 204,
                "speedRatio": 0.5,
                "blendType": "EaseInOutQuad"
            }
        ],
        [
            {
                "$type": "PBIGHFCHGCA",
                "type": "CAMERA_MOVE",
                "duration": 0.5,
                "actionId": 214,
                "KCFKJMMEECM": {
                    "x": -1804.4949951171875,
                    "y": 328.1600036621094,
                    "z": 4115.244140625
                },
                "DLGJEHNPMFN": {
                    "x": -1805.4119873046875,
                    "y": 327.8909912109375,
                    "z": 4114.94921875
                },
                "NJCBGNHGINI": 25.0,
                "FNMFGIOLKBE": 6,
                "NECGMADJICG": "EaseInOutCubic",
                "BMHIHPIKAHM": {},
                "MMJMMAEAJOA": true,
                "HGGPLEMCNNG": false,
                "JBODIEHINII": "",
                "PHDIKPKLFIA": true,
                "EJCHLMIMLBO": "",
                "BIMPIKMCIHB": "",
                "MCAOJPLIJGI": ""
            },
            {
                "$type": "KAGAFALAIGP",
                "type": "DIALOG",
                "aliasList": [
                    "4233"
                ],
                "actionId": 124,
                "JHEPJOMJJHH": 732090411,
                "OCILKFCPBNC": 1.5
            },
            {
                "$type": "NFDDGDIKEAG",
                "type": "STEER_TO",
                "duration": 1.0,
                "aliasList": [
                    "4233"
                ],
                "actionId": 213,
                "GGJHILELIMO": "ABSOLUTE",
                "GPODKINFLFH": {
                    "x": -1805.7650146484375,
                    "y": 326.4360046386719,
                    "z": 4114.94580078125
                },
                "PKKKHNGDEEE": true,
                "LGDIOPOBMPH": true,
                "NBNJEKMFIDE": true,
                "JBODIEHINII": "",
                "NNFPFPOJJOJ": ""
            },
            {
                "$type": "MoleMole.Config.ConfigSetAnimatorSpeedAction",
                "type": "SET_ANIMATOR_SPEED",
                "aliasList": [
                    "4233"
                ],
                "actionId": 230,
                "speedRatio": 1.0,
                "blendType": "EaseInOutQuad"
            },
            {
                "$type": "FNPNDPFBBDD",
                "type": "LOOK_AT",
                "delayTime": 0.4090000092983246,
                "aliasList": [
                    "4233"
                ],
                "actionId": 215,
                "NKGFDJDHOBD": true,
                "useTargetPos": true,
                "LBJHJADMNBD": true,
                "EKIONHAEIBG": {
                    "x": -1805.656005859375,
                    "y": 327.8500061035156,
                    "z": 4115.0927734375
                },
                "MNOPLOBEFLB": 0.5,
                "JBODIEHINII": "",
                "CFPBIOLLOCO": "NONE",
                "MDNPCOHCCLM": true,
                "LPCACGGCDLI": "",
                "NNFPFPOJJOJ": ""
            },
            {
                "$type": "CENEPJCONAG",
                "type": "BODY_LANG",
                "delayTime": 1.152999997138977,
                "aliasList": [
                    "4233"
                ],
                "actionId": 212,
                "OGFPAIKLDGB": 1171,
                "MHDCNDAINCK": true,
                "LHIAJOBFNAK": false,
                "GJGPNLJEIFP": true,
                "FOEKGLEJBIJ": ""
            }
        ],
        [
            {
                "$type": "PBIGHFCHGCA",
                "type": "CAMERA_MOVE",
                "duration": 0.5,
                "actionId": 216,
                "KCFKJMMEECM": {
                    "x": -1805.791015625,
                    "y": 327.8330078125,
                    "z": 4114.18505859375
                },
                "DLGJEHNPMFN": {
                    "x": -1805.72998046875,
                    "y": 327.9410095214844,
                    "z": 4115.1767578125
                },
                "NJCBGNHGINI": 20.0,
                "FNMFGIOLKBE": 6,
                "NECGMADJICG": "EaseInOutCubic",
                "BMHIHPIKAHM": {},
                "MMJMMAEAJOA": true,
                "HGGPLEMCNNG": false,
                "JBODIEHINII": "",
                "PHDIKPKLFIA": true,
                "EJCHLMIMLBO": "",
                "BIMPIKMCIHB": "",
                "MCAOJPLIJGI": ""
            },
            {
                "$type": "MoleMole.Config.ConfigTeleportToAction",
                "type": "TELEPORT_TO",
                "aliasList": [
                    "4233"
                ],
                "actionId": 236,
                "position": {
                    "x": -1806.4300537109375,
                    "y": 326.4309997558594,
                    "z": 4114.490234375
                },
                "forward": {
                    "x": 0.824999988079071,
                    "z": 0.5649999976158142
                },
                "openLongDisTeleport": true,
                "posBindMovingTargetKey": "",
                "forwardBindMovingTargetKey": ""
            },
            {
                "$type": "KAGAFALAIGP",
                "type": "DIALOG",
                "aliasList": [
                    "4232"
                ],
                "actionId": 126,
                "JHEPJOMJJHH": 732090412,
                "OCILKFCPBNC": 0.5
            },
            {
                "$type": "CENEPJCONAG",
                "type": "BODY_LANG",
                "aliasList": [
                    "4232"
                ],
                "actionId": 217,
                "OGFPAIKLDGB": 4030,
                "MHDCNDAINCK": true,
                "LHIAJOBFNAK": false,
                "GJGPNLJEIFP": true,
                "FOEKGLEJBIJ": ""
            },
            {
                "$type": "CENEPJCONAG",
                "type": "BODY_LANG",
                "delayTime": 0.2939999997615814,
                "aliasList": [
                    "4232"
                ],
                "actionId": 218,
                "OGFPAIKLDGB": 1130,
                "MHDCNDAINCK": true,
                "LHIAJOBFNAK": false,
                "GJGPNLJEIFP": true,
                "FOEKGLEJBIJ": ""
            },
            {
                "$type": "CENEPJCONAG",
                "type": "BODY_LANG",
                "delayTime": 2.6570000648498535,
                "aliasList": [
                    "4232"
                ],
                "actionId": 219,
                "NNKEOHJCPOF": true,
                "MHDCNDAINCK": true,
                "LHIAJOBFNAK": false,
                "GJGPNLJEIFP": true,
                "FOEKGLEJBIJ": ""
            }
        ],
        [
            {
                "$type": "PBIGHFCHGCA",
                "type": "CAMERA_MOVE",
                "duration": 0.5,
                "actionId": 224,
                "KCFKJMMEECM": {
                    "x": -1793.8480224609375,
                    "y": 328.2300109863281,
                    "z": 4115.52001953125
                },
                "DLGJEHNPMFN": {
                    "x": -1794.843017578125,
                    "y": 328.1289978027344,
                    "z": 4115.5380859375
                },
                "NJCBGNHGINI": 20.0,
                "FNMFGIOLKBE": 6,
                "NECGMADJICG": "EaseInOutCubic",
                "BMHIHPIKAHM": {},
                "MMJMMAEAJOA": true,
                "HGGPLEMCNNG": false,
                "JBODIEHINII": "",
                "PHDIKPKLFIA": true,
                "EJCHLMIMLBO": "",
                "BIMPIKMCIHB": "",
                "MCAOJPLIJGI": ""
            },
            {
                "$type": "MoleMole.Config.ConfigTeleportToAction",
                "type": "TELEPORT_TO",
                "aliasList": [
                    "Avatar"
                ],
                "actionId": 228,
                "position": {
                    "x": -1804.9239501953125,
                    "y": 326.47601318359375,
                    "z": 4116.083984375
                },
                "forward": {
                    "x": -0.527999997138977,
                    "z": -0.8489999771118164
                },
                "openLongDisTeleport": true,
                "posBindMovingTargetKey": "",
                "forwardBindMovingTargetKey": ""
            },
            {
                "$type": "KAGAFALAIGP",
                "type": "DIALOG",
                "aliasList": [
                    "4232"
                ],
                "actionId": 128,
                "JHEPJOMJJHH": 732090413,
                "OCILKFCPBNC": 0.5
            },
            {
                "$type": "CENEPJCONAG",
                "type": "BODY_LANG",
                "aliasList": [
                    "4232"
                ],
                "actionId": 220,
                "NNKEOHJCPOF": true,
                "MHDCNDAINCK": true,
                "LHIAJOBFNAK": false,
                "GJGPNLJEIFP": true,
                "FOEKGLEJBIJ": ""
            },
            {
                "$type": "MoleMole.Config.ConfigTeleportToAction",
                "type": "TELEPORT_TO",
                "aliasList": [
                    "1005"
                ],
                "actionId": 234,
                "position": {
                    "x": -1804.14697265625,
                    "y": 326.4490051269531,
                    "z": 4115.73876953125
                },
                "forward": {
                    "x": -0.9150000214576721,
                    "y": 0.004000000189989805,
                    "z": -0.3569999933242798
                },
                "openLongDisTeleport": true,
                "posBindMovingTargetKey": "",
                "forwardBindMovingTargetKey": ""
            },
            {
                "$type": "PBIGHFCHGCA",
                "type": "CAMERA_MOVE",
                "delayTime": 0.10000000149011612,
                "duration": 10.0,
                "actionId": 227,
                "KCFKJMMEECM": {
                    "x": -1793.8680419921875,
                    "y": 328.2300109863281,
                    "z": 4115.0419921875
                },
                "DLGJEHNPMFN": {
                    "x": -1794.8609619140625,
                    "y": 328.1289978027344,
                    "z": 4115.10791015625
                },
                "NJCBGNHGINI": 20.0,
                "NECGMADJICG": "EaseOutQuad",
                "BMHIHPIKAHM": {},
                "MMJMMAEAJOA": true,
                "HGGPLEMCNNG": false,
                "JBODIEHINII": "",
                "PHDIKPKLFIA": true,
                "EJCHLMIMLBO": "",
                "BIMPIKMCIHB": "",
                "MCAOJPLIJGI": ""
            },
            {
                "$type": "NFDDGDIKEAG",
                "type": "STEER_TO",
                "delayTime": 0.26499998569488525,
                "duration": 1.0,
                "aliasList": [
                    "4232"
                ],
                "actionId": 222,
                "GGJHILELIMO": "ABSOLUTE",
                "GPODKINFLFH": {
                    "x": -1804.593017578125,
                    "y": 326.447998046875,
                    "z": 4115.60791015625
                },
                "PKKKHNGDEEE": true,
                "LGDIOPOBMPH": true,
                "NBNJEKMFIDE": true,
                "JBODIEHINII": "",
                "NNFPFPOJJOJ": ""
            },
            {
                "$type": "FNPNDPFBBDD",
                "type": "LOOK_AT",
                "delayTime": 0.47600001096725464,
                "aliasList": [
                    "4232"
                ],
                "actionId": 223,
                "NKGFDJDHOBD": true,
                "useTargetPos": true,
                "LBJHJADMNBD": true,
                "EKIONHAEIBG": {
                    "x": -1804.7559814453125,
                    "y": 327.9230041503906,
                    "z": 4115.9072265625
                },
                "MNOPLOBEFLB": 0.5,
                "JBODIEHINII": "",
                "CFPBIOLLOCO": "NONE",
                "MDNPCOHCCLM": true,
                "LPCACGGCDLI": "",
                "NNFPFPOJJOJ": ""
            }
        ],
        [
            {
                "$type": "KAGAFALAIGP",
                "type": "DIALOG",
                "aliasList": [
                    "4232"
                ],
                "actionId": 130,
                "JHEPJOMJJHH": 732090414,
                "OCILKFCPBNC": 0.5
            },
            {
                "$type": "CENEPJCONAG",
                "type": "BODY_LANG",
                "delayTime": 0.01899999938905239,
                "aliasList": [
                    "4232"
                ],
                "actionId": 225,
                "OGFPAIKLDGB": 1171,
                "MHDCNDAINCK": true,
                "LHIAJOBFNAK": false,
                "GJGPNLJEIFP": true,
                "FOEKGLEJBIJ": ""
            }
        ],
        [
            {
                "$type": "PBIGHFCHGCA",
                "type": "CAMERA_MOVE",
                "duration": 0.5,
                "actionId": 237,
                "KCFKJMMEECM": {
                    "x": -1802.572021484375,
                    "y": 327.8039855957031,
                    "z": 4115.55322265625
                },
                "DLGJEHNPMFN": {
                    "x": -1803.572021484375,
                    "y": 327.80499267578125,
                    "z": 4115.52099609375
                },
                "NJCBGNHGINI": 20.0,
                "FNMFGIOLKBE": 6,
                "NECGMADJICG": "EaseInOutCubic",
                "BMHIHPIKAHM": {},
                "MMJMMAEAJOA": true,
                "HGGPLEMCNNG": false,
                "JBODIEHINII": "",
                "PHDIKPKLFIA": true,
                "EJCHLMIMLBO": "",
                "BIMPIKMCIHB": "",
                "MCAOJPLIJGI": ""
            },
            {
                "$type": "KAGAFALAIGP",
                "type": "DIALOG",
                "aliasList": [
                    "4232"
                ],
                "actionId": 132,
                "JHEPJOMJJHH": 732090415,
                "OCILKFCPBNC": 0.5
            },
            {
                "$type": "CENEPJCONAG",
                "type": "BODY_LANG",
                "aliasList": [
                    "4232"
                ],
                "actionId": 238,
                "OGFPAIKLDGB": 1172,
                "MHDCNDAINCK": true,
                "LHIAJOBFNAK": false,
                "GJGPNLJEIFP": true,
                "FOEKGLEJBIJ": ""
            }
        ],
        [
            {
                "$type": "KAGAFALAIGP",
                "type": "DIALOG",
                "aliasList": [
                    "4232"
                ],
                "actionId": 134,
                "JHEPJOMJJHH": 732090416,
                "OCILKFCPBNC": 0.5
            },
            {
                "$type": "CENEPJCONAG",
                "type": "BODY_LANG",
                "aliasList": [
                    "4232"
                ],
                "actionId": 241,
                "OGFPAIKLDGB": 1130,
                "MHDCNDAINCK": true,
                "LHIAJOBFNAK": false,
                "GJGPNLJEIFP": true,
                "FOEKGLEJBIJ": ""
            },
            {
                "$type": "CENEPJCONAG",
                "type": "BODY_LANG",
                "delayTime": 2.1600000858306885,
                "aliasList": [
                    "4232"
                ],
                "actionId": 242,
                "NNKEOHJCPOF": true,
                "MHDCNDAINCK": true,
                "LHIAJOBFNAK": false,
                "GJGPNLJEIFP": true,
                "FOEKGLEJBIJ": ""
            }
        ],
        [
            {
                "$type": "PBIGHFCHGCA",
                "type": "CAMERA_MOVE",
                "duration": 0.5,
                "actionId": 243,
                "KCFKJMMEECM": {
                    "x": -1804.56298828125,
                    "y": 327.97100830078125,
                    "z": 4115.31494140625
                },
                "DLGJEHNPMFN": {
                    "x": -1805.56298828125,
                    "y": 327.97198486328125,
                    "z": 4115.2822265625
                },
                "NJCBGNHGINI": 20.0,
                "FNMFGIOLKBE": 6,
                "NECGMADJICG": "EaseInOutCubic",
                "BMHIHPIKAHM": {},
                "MMJMMAEAJOA": true,
                "HGGPLEMCNNG": false,
                "JBODIEHINII": "",
                "PHDIKPKLFIA": true,
                "EJCHLMIMLBO": "",
                "BIMPIKMCIHB": "",
                "MCAOJPLIJGI": ""
            },
            {
                "$type": "KAGAFALAIGP",
                "type": "DIALOG",
                "aliasList": [
                    "4232"
                ],
                "actionId": 136,
                "JHEPJOMJJHH": 732090417,
                "OCILKFCPBNC": 0.5
            },
            {
                "$type": "CENEPJCONAG",
                "type": "BODY_LANG",
                "aliasList": [
                    "4232"
                ],
                "actionId": 244,
                "OGFPAIKLDGB": 4030,
                "MHDCNDAINCK": true,
                "LHIAJOBFNAK": false,
                "GJGPNLJEIFP": true,
                "FOEKGLEJBIJ": ""
            },
            {
                "$type": "AAFOOOPNJLB",
                "type": "DIALOG_SELECT",
                "delayTime": 0.4000000059604645,
                "aliasList": [
                    "Avatar"
                ],
                "actionId": 137,
                "KFAEOBDAAME": [
                    732090418,
                    732090419
                ],
                "ELPFMMBHOLF": [
                    4155244070,
                    4155244070
                ],
                "OEAAKJDIEFD": true
            }
        ],
        [
            {
                "$type": "PBIGHFCHGCA",
                "type": "CAMERA_MOVE",
                "duration": 0.5,
                "actionId": 245,
                "KCFKJMMEECM": {
                    "x": -1802.1820068359375,
                    "y": 327.8739929199219,
                    "z": 4115.5732421875
                },
                "DLGJEHNPMFN": {
                    "x": -1803.1800537109375,
                    "y": 327.83599853515625,
                    "z": 4115.5322265625
                },
                "NJCBGNHGINI": 20.0,
                "FNMFGIOLKBE": 6,
                "NECGMADJICG": "EaseInOutCubic",
                "BMHIHPIKAHM": {},
                "MMJMMAEAJOA": true,
                "HGGPLEMCNNG": false,
                "JBODIEHINII": "",
                "PHDIKPKLFIA": true,
                "EJCHLMIMLBO": "",
                "BIMPIKMCIHB": "",
                "MCAOJPLIJGI": ""
            },
            {
                "$type": "KAGAFALAIGP",
                "type": "DIALOG",
                "aliasList": [
                    "4232"
                ],
                "actionId": 139,
                "JHEPJOMJJHH": 732090420,
                "OCILKFCPBNC": 0.5
            },
            {
                "$type": "CENEPJCONAG",
                "type": "BODY_LANG",
                "aliasList": [
                    "4232"
                ],
                "actionId": 246,
                "OGFPAIKLDGB": 1110,
                "MHDCNDAINCK": true,
                "LHIAJOBFNAK": false,
                "GJGPNLJEIFP": true,
                "FOEKGLEJBIJ": ""
            },
            {
                "$type": "CENEPJCONAG",
                "type": "BODY_LANG",
                "delayTime": 2.2219998836517334,
                "aliasList": [
                    "4232"
                ],
                "actionId": 259,
                "NNKEOHJCPOF": true,
                "MHDCNDAINCK": true,
                "LHIAJOBFNAK": false,
                "GJGPNLJEIFP": true,
                "FOEKGLEJBIJ": ""
            }
        ],
        [
            {
                "$type": "PBIGHFCHGCA",
                "type": "CAMERA_MOVE",
                "duration": 0.5,
                "actionId": 247,
                "KCFKJMMEECM": {
                    "x": -1805.9630126953125,
                    "y": 327.4289855957031,
                    "z": 4104.71923828125
                },
                "DLGJEHNPMFN": {
                    "x": -1805.9019775390625,
                    "y": 327.42999267578125,
                    "z": 4105.716796875
                },
                "NJCBGNHGINI": 20.0,
                "FNMFGIOLKBE": 6,
                "NECGMADJICG": "EaseInOutCubic",
                "BMHIHPIKAHM": {},
                "MMJMMAEAJOA": true,
                "HGGPLEMCNNG": false,
                "JBODIEHINII": "",
                "PHDIKPKLFIA": true,
                "EJCHLMIMLBO": "",
                "BIMPIKMCIHB": "",
                "MCAOJPLIJGI": ""
            },
            {
                "$type": "KAGAFALAIGP",
                "type": "DIALOG",
                "aliasList": [
                    "4232"
                ],
                "actionId": 141,
                "JHEPJOMJJHH": 732090421,
                "OCILKFCPBNC": 0.5
            },
            {
                "$type": "CENEPJCONAG",
                "type": "BODY_LANG",
                "aliasList": [
                    "4232"
                ],
                "actionId": 249,
                "NNKEOHJCPOF": true,
                "MHDCNDAINCK": true,
                "LHIAJOBFNAK": false,
                "GJGPNLJEIFP": true,
                "FOEKGLEJBIJ": ""
            },
            {
                "$type": "PBIGHFCHGCA",
                "type": "CAMERA_MOVE",
                "delayTime": 0.10000000149011612,
                "duration": 5.0,
                "actionId": 252,
                "KCFKJMMEECM": {
                    "x": -1805.4830322265625,
                    "y": 327.4590148925781,
                    "z": 4104.701171875
                },
                "DLGJEHNPMFN": {
                    "x": -1805.468994140625,
                    "y": 327.4570007324219,
                    "z": 4105.701171875
                },
                "NJCBGNHGINI": 20.0,
                "NECGMADJICG": "EaseOutQuad",
                "BMHIHPIKAHM": {},
                "MMJMMAEAJOA": true,
                "HGGPLEMCNNG": false,
                "JBODIEHINII": "",
                "PHDIKPKLFIA": true,
                "EJCHLMIMLBO": "",
                "BIMPIKMCIHB": "",
                "MCAOJPLIJGI": ""
            },
            {
                "$type": "NFDDGDIKEAG",
                "type": "STEER_TO",
                "delayTime": 0.42800000309944153,
                "duration": 1.0,
                "aliasList": [
                    "4232"
                ],
                "actionId": 248,
                "GGJHILELIMO": "ABSOLUTE",
                "GPODKINFLFH": {
                    "x": -1806.2030029296875,
                    "y": 326.4330139160156,
                    "z": 4114.6669921875
                },
                "PKKKHNGDEEE": true,
                "LGDIOPOBMPH": true,
                "NBNJEKMFIDE": true,
                "JBODIEHINII": "",
                "NNFPFPOJJOJ": ""
            },
            {
                "$type": "FNPNDPFBBDD",
                "type": "LOOK_AT",
                "delayTime": 0.6990000009536743,
                "aliasList": [
                    "4232"
                ],
                "actionId": 257,
                "NKGFDJDHOBD": true,
                "useTargetPos": true,
                "LBJHJADMNBD": true,
                "EKIONHAEIBG": {
                    "x": -1806.2120361328125,
                    "y": 327.77801513671875,
                    "z": 4114.64892578125
                },
                "MNOPLOBEFLB": 0.5,
                "JBODIEHINII": "",
                "CFPBIOLLOCO": "NONE",
                "MDNPCOHCCLM": true,
                "LPCACGGCDLI": "",
                "NNFPFPOJJOJ": ""
            },
            {
                "$type": "CENEPJCONAG",
                "type": "BODY_LANG",
                "delayTime": 1.6030000448226929,
                "aliasList": [
                    "4232"
                ],
                "actionId": 250,
                "OGFPAIKLDGB": 1130,
                "MHDCNDAINCK": true,
                "LHIAJOBFNAK": false,
                "GJGPNLJEIFP": true,
                "FOEKGLEJBIJ": ""
            }
        ],
        [
            {
                "$type": "PBIGHFCHGCA",
                "type": "CAMERA_MOVE",
                "duration": 0.5,
                "actionId": 253,
                "KCFKJMMEECM": {
                    "x": -1803.8299560546875,
                    "y": 328.37799072265625,
                    "z": 4115.123046875
                },
                "DLGJEHNPMFN": {
                    "x": -1804.7860107421875,
                    "y": 328.1000061035156,
                    "z": 4115.02490234375
                },
                "NJCBGNHGINI": 20.0,
                "FNMFGIOLKBE": 6,
                "NECGMADJICG": "EaseInOutCubic",
                "BMHIHPIKAHM": {},
                "MMJMMAEAJOA": true,
                "HGGPLEMCNNG": false,
                "JBODIEHINII": "",
                "PHDIKPKLFIA": true,
                "EJCHLMIMLBO": "",
                "BIMPIKMCIHB": "",
                "MCAOJPLIJGI": ""
            },
            {
                "$type": "KAGAFALAIGP",
                "type": "DIALOG",
                "aliasList": [
                    "4233"
                ],
                "actionId": 143,
                "JHEPJOMJJHH": 732090422,
                "OCILKFCPBNC": 0.5
            },
            {
                "$type": "CENEPJCONAG",
                "type": "BODY_LANG",
                "aliasList": [
                    "4232"
                ],
                "actionId": 251,
                "NNKEOHJCPOF": true,
                "MHDCNDAINCK": true,
                "LHIAJOBFNAK": false,
                "GJGPNLJEIFP": true,
                "FOEKGLEJBIJ": ""
            },
            {
                "$type": "FNPNDPFBBDD",
                "type": "LOOK_AT",
                "aliasList": [
                    "4232"
                ],
                "actionId": 258,
                "NKGFDJDHOBD": true,
                "useTargetPos": true,
                "LBJHJADMNBD": true,
                "EKIONHAEIBG": {
                    "x": -1806.2120361328125,
                    "y": 327.77801513671875,
                    "z": 4114.64892578125
                },
                "MNOPLOBEFLB": 0.5,
                "JBODIEHINII": "",
                "CFPBIOLLOCO": "NONE",
                "MDNPCOHCCLM": true,
                "LPCACGGCDLI": "",
                "NNFPFPOJJOJ": ""
            }
        ],
        [
            {
                "$type": "PBIGHFCHGCA",
                "type": "CAMERA_MOVE",
                "duration": 0.5,
                "actionId": 254,
                "KCFKJMMEECM": {
                    "x": -1806.3759765625,
                    "y": 327.5369873046875,
                    "z": 4112.35791015625
                },
                "DLGJEHNPMFN": {
                    "x": -1806.2110595703125,
                    "y": 327.6189880371094,
                    "z": 4113.3408203125
                },
                "NJCBGNHGINI": 20.0,
                "FNMFGIOLKBE": 6,
                "NECGMADJICG": "EaseInOutCubic",
                "BMHIHPIKAHM": {},
                "MMJMMAEAJOA": true,
                "HGGPLEMCNNG": false,
                "JBODIEHINII": "",
                "PHDIKPKLFIA": true,
                "EJCHLMIMLBO": "",
                "BIMPIKMCIHB": "",
                "MCAOJPLIJGI": ""
            },
            {
                "$type": "KAGAFALAIGP",
                "type": "DIALOG",
                "aliasList": [
                    "4232"
                ],
                "actionId": 145,
                "JHEPJOMJJHH": 732090423,
                "OCILKFCPBNC": 0.5
            },
            {
                "$type": "CENEPJCONAG",
                "type": "BODY_LANG",
                "aliasList": [
                    "4232"
                ],
                "actionId": 256,
                "OGFPAIKLDGB": 4030,
                "MHDCNDAINCK": true,
                "LHIAJOBFNAK": false,
                "GJGPNLJEIFP": true,
                "FOEKGLEJBIJ": ""
            },
            {
                "$type": "CENEPJCONAG",
                "type": "BODY_LANG",
                "delayTime": 0.1860000044107437,
                "aliasList": [
                    "4232"
                ],
                "actionId": 255,
                "OGFPAIKLDGB": 1230,
                "MHDCNDAINCK": true,
                "LHIAJOBFNAK": false,
                "GJGPNLJEIFP": true,
                "FOEKGLEJBIJ": ""
            }
        ],
        [
            {
                "$type": "MoleMole.Config.ConfigTimeProtectAction",
                "type": "TIME_PROTECT",
                "duration": 0.699999988079071,
                "actionId": 105
            },
            {
                "$type": "MoleMole.Config.ConfigSimpleBlackScreenAction",
                "type": "SIMPLE_BLACK_SCREEN",
                "actionId": 260,
                "durationToBlack": 0.5,
                "durationKeepBlack": 1.0,
                "durationFromBlack": 0.5,
                "textMapID": "",
                "useTextFade": true
            },
            {
                "$type": "PBIGHFCHGCA",
                "type": "CAMERA_MOVE",
                "delayTime": 0.6000000238418579,
                "duration": 0.10000000149011612,
                "actionId": 261,
                "KCFKJMMEECM": {
                    "x": -1803.1629638671875,
                    "y": 327.5589904785156,
                    "z": 4118.009765625
                },
                "DLGJEHNPMFN": {
                    "x": -1803.8409423828125,
                    "y": 327.52398681640625,
                    "z": 4117.27587890625
                },
                "FNMFGIOLKBE": 6,
                "NECGMADJICG": "EaseInOutCubic",
                "BMHIHPIKAHM": {},
                "MMJMMAEAJOA": true,
                "HGGPLEMCNNG": false,
                "JBODIEHINII": "",
                "PHDIKPKLFIA": true,
                "EJCHLMIMLBO": "",
                "BIMPIKMCIHB": "",
                "MCAOJPLIJGI": ""
            }
        ]
    ],
    "groupId": [
        {
            "grpId": 411134793,
            "nextGrpId": 411134794
        },
        {
            "index": 1,
            "grpId": 411134794,
            "nextGrpId": 411134795
        },
        {
            "index": 2,
            "grpId": 411134795,
            "nextGrpId": 411134796
        },
        {
            "index": 3,
            "grpId": 411134796,
            "nextGrpId": 411134797
        },
        {
            "index": 4,
            "grpId": 411134797,
            "nextGrpId": 411134798
        },
        {
            "index": 5,
            "grpId": 411134798,
            "nextGrpId": 411134799
        },
        {
            "index": 6,
            "grpId": 411134799,
            "nextGrpId": 411134800
        },
        {
            "index": 7,
            "grpId": 411134800,
            "nextGrpId": 411134801
        },
        {
            "index": 8,
            "grpId": 411134801,
            "nextGrpId": 4155244039
        },
        {
            "index": 9,
            "grpId": 4155244039,
            "nextGrpId": 4155244040
        },
        {
            "index": 10,
            "grpId": 4155244040,
            "nextGrpId": 4155244041
        },
        {
            "index": 11,
            "grpId": 4155244041,
            "nextGrpId": 4155244042
        },
        {
            "index": 12,
            "grpId": 4155244042,
            "nextGrpId": 4155244043
        },
        {
            "index": 13,
            "grpId": 4155244043,
            "nextGrpId": 4155244044
        },
        {
            "index": 14,
            "grpId": 4155244044,
            "nextGrpId": 4155244045
        },
        {
            "index": 15,
            "grpId": 4155244045,
            "nextGrpId": 4155244046
        },
        {
            "index": 16,
            "grpId": 4155244046,
            "nextGrpId": 4155244047
        },
        {
            "index": 17,
            "grpId": 4155244047,
            "nextGrpId": 4155244048
        },
        {
            "index": 18,
            "grpId": 4155244048,
            "nextGrpId": 4155244070
        },
        {
            "index": 19,
            "grpId": 4155244070,
            "nextGrpId": 4155244071
        },
        {
            "index": 20,
            "grpId": 4155244071,
            "nextGrpId": 4155244072
        },
        {
            "index": 21,
            "grpId": 4155244072,
            "nextGrpId": 4155244073
        },
        {
            "index": 22,
            "grpId": 4155244073,
            "nextGrpId": 4155244074
        },
        {
            "index": 23,
            "grpId": 4155244074,
            "nextGrpId": 4155244075
        }
    ],
    "freeStyleDic": {
        "4233": [
            5010,
            4040,
            1171
        ],
        "4232": [
            1230,
            1130,
            4030,
            1171,
            1172,
            1110
        ]
    }
}