{
    "luaDataPath": "",
    "isSimpleTalk": true,
    "entityBan": "",
    "disableNpcLod": true,
    "EKDGNGHMECG": true,
    "startFade": {
        "startFadeOutDuration": 0.0
    },
    "endFade": {
        "startFadeOutDuration": 0.0
    },
    "actors": [
        {
            "alias": "Avatar",
            "visible": true,
            "bornPointName": "",
            "relativePosType": "AVATAR_NEW",
            "relativePosNpcAlias": "",
            "bindMovingTargetKey": ""
        },
        {
            "configID": 4412,
            "alias": "4412",
            "visible": true,
            "bornPointName": "",
            "forceCreateDaily": true,
            "relativePosType": "AVATAR_NEW",
            "relativePosNpcAlias": "",
            "bindMovingTargetKey": ""
        }
    ],
    "group": [
        [
            {
                "$type": "PBIGHFCHGCA",
                "type": "CAMERA_FOCUS",
                "duration": 0.10000000149011612,
                "actionId": 103,
                "JBODIEHINII": "",
                "EJCHLMIMLBO": "",
                "BIMPIKMCIHB": "",
                "MCAOJPLIJGI": ""
            },
            {
                "$type": "MoleMole.Config.ConfigTimeProtectAction",
                "type": "TIME_PROTECT",
                "duration": 0.10000000149011612,
                "actionId": 104
            },
            {
                "$type": "NFDDGDIKEAG",
                "type": "STEER_TO",
                "delayTime": 0.30000001192092896,
                "duration": 0.800000011920929,
                "aliasList": [
                    "Avatar"
                ],
                "actionId": 138,
                "GGJHILELIMO": "TO_TARGET_ADVANCED",
                "PKKKHNGDEEE": true,
                "LGDIOPOBMPH": true,
                "NBNJEKMFIDE": true,
                "JBODIEHINII": "4412",
                "NNFPFPOJJOJ": ""
            }
        ],
        [
            {
                "$type": "KAGAFALAIGP",
                "type": "DIALOG",
                "aliasList": [
                    "4412"
                ],
                "actionId": 107,
                "JHEPJOMJJHH": 230381101,
                "OCILKFCPBNC": 0.5
            }
        ],
        [
            {
                "$type": "KAGAFALAIGP",
                "type": "DIALOG",
                "aliasList": [
                    "4412"
                ],
                "actionId": 109,
                "JHEPJOMJJHH": 230381102,
                "OCILKFCPBNC": 0.5
            },
            {
                "$type": "AAFOOOPNJLB",
                "type": "DIALOG_SELECT",
                "delayTime": 0.4000000059604645,
                "aliasList": [
                    "Avatar"
                ],
                "actionId": 110,
                "KFAEOBDAAME": [
                    230381103
                ],
                "ELPFMMBHOLF": [
                    1288675094
                ],
                "OEAAKJDIEFD": true
            }
        ],
        [
            {
                "$type": "KAGAFALAIGP",
                "type": "DIALOG",
                "aliasList": [
                    "4412"
                ],
                "actionId": 112,
                "JHEPJOMJJHH": 230381104,
                "OCILKFCPBNC": 0.5
            },
            {
                "$type": "AAFOOOPNJLB",
                "type": "DIALOG_SELECT",
                "delayTime": 0.4000000059604645,
                "aliasList": [
                    "Avatar"
                ],
                "actionId": 113,
                "KFAEOBDAAME": [
                    230381105
                ],
                "ELPFMMBHOLF": [
                    1288675095
                ],
                "OEAAKJDIEFD": true
            }
        ],
        [
            {
                "$type": "KAGAFALAIGP",
                "type": "DIALOG",
                "aliasList": [
                    "4412"
                ],
                "actionId": 115,
                "JHEPJOMJJHH": 230381106,
                "OCILKFCPBNC": 0.5
            }
        ],
        [
            {
                "$type": "MoleMole.Config.ConfigSimpleBlackScreenAction",
                "type": "SIMPLE_BLACK_SCREEN",
                "actionId": 117,
                "durationToBlack": 0.5,
                "durationKeepBlack": 3.0,
                "durationFromBlack": 0.5,
                "textMapID": "",
                "useTextFade": true,
                "dialogID": 230381107
            },
            {
                "$type": "KAGAFALAIGP",
                "type": "DIALOG_CLEAR",
                "actionId": 118,
                "OCILKFCPBNC": 3.0
            },
            {
                "$type": "CENEPJCONAG",
                "type": "BODY_LANG",
                "delayTime": 1.0,
                "aliasList": [
                    "4412"
                ],
                "actionId": 140,
                "MHDCNDAINCK": true,
                "LHIAJOBFNAK": false,
                "GJGPNLJEIFP": true,
                "FOEKGLEJBIJ": ""
            },
            {
                "$type": "NFDDGDIKEAG",
                "type": "STEER_TO",
                "delayTime": 1.5,
                "duration": 1.0,
                "aliasList": [
                    "4412"
                ],
                "actionId": 149,
                "GGJHILELIMO": "TO_TARGET",
                "PKKKHNGDEEE": true,
                "LGDIOPOBMPH": true,
                "NBNJEKMFIDE": true,
                "JBODIEHINII": "Avatar",
                "NNFPFPOJJOJ": ""
            }
        ],
        [
            {
                "$type": "KAGAFALAIGP",
                "type": "DIALOG",
                "aliasList": [
                    "4412"
                ],
                "actionId": 120,
                "JHEPJOMJJHH": 230381108,
                "OCILKFCPBNC": 0.5
            },
            {
                "$type": "CENEPJCONAG",
                "type": "BODY_LANG",
                "aliasList": [
                    "4412"
                ],
                "actionId": 141,
                "OGFPAIKLDGB": 1240,
                "MHDCNDAINCK": true,
                "LHIAJOBFNAK": false,
                "GJGPNLJEIFP": true,
                "FOEKGLEJBIJ": ""
            },
            {
                "$type": "AAFOOOPNJLB",
                "type": "DIALOG_SELECT",
                "delayTime": 0.4000000059604645,
                "aliasList": [
                    "Avatar"
                ],
                "actionId": 121,
                "KFAEOBDAAME": [
                    230381109
                ],
                "ELPFMMBHOLF": [
                    1288675098
                ],
                "OEAAKJDIEFD": true
            }
        ],
        [
            {
                "$type": "KAGAFALAIGP",
                "type": "DIALOG",
                "aliasList": [
                    "4412"
                ],
                "actionId": 123,
                "JHEPJOMJJHH": 230381110,
                "OCILKFCPBNC": 0.5
            }
        ],
        [
            {
                "$type": "KAGAFALAIGP",
                "type": "DIALOG",
                "aliasList": [
                    "4412"
                ],
                "actionId": 125,
                "JHEPJOMJJHH": 230381111,
                "OCILKFCPBNC": 0.5
            },
            {
                "$type": "CENEPJCONAG",
                "type": "BODY_LANG",
                "aliasList": [
                    "4412"
                ],
                "actionId": 142,
                "OGFPAIKLDGB": 1171,
                "MHDCNDAINCK": true,
                "LHIAJOBFNAK": false,
                "GJGPNLJEIFP": true,
                "FOEKGLEJBIJ": ""
            }
        ],
        [
            {
                "$type": "KAGAFALAIGP",
                "type": "DIALOG",
                "aliasList": [
                    "4412"
                ],
                "actionId": 127,
                "JHEPJOMJJHH": 230381112,
                "OCILKFCPBNC": 0.5
            },
            {
                "$type": "CENEPJCONAG",
                "type": "BODY_LANG",
                "aliasList": [
                    "4412"
                ],
                "actionId": 143,
                "OGFPAIKLDGB": 1172,
                "MHDCNDAINCK": true,
                "LHIAJOBFNAK": false,
                "GJGPNLJEIFP": true,
                "FOEKGLEJBIJ": ""
            }
        ],
        [
            {
                "$type": "KAGAFALAIGP",
                "type": "DIALOG",
                "aliasList": [
                    "4412"
                ],
                "actionId": 129,
                "JHEPJOMJJHH": 230381113,
                "OCILKFCPBNC": 0.5
            },
            {
                "$type": "CENEPJCONAG",
                "type": "BODY_LANG",
                "delayTime": 0.10000000149011612,
                "aliasList": [
                    "4412"
                ],
                "actionId": 144,
                "OGFPAIKLDGB": 1240,
                "MHDCNDAINCK": true,
                "LHIAJOBFNAK": false,
                "GJGPNLJEIFP": true,
                "FOEKGLEJBIJ": ""
            }
        ],
        [
            {
                "$type": "KAGAFALAIGP",
                "type": "DIALOG",
                "aliasList": [
                    "4412"
                ],
                "actionId": 131,
                "JHEPJOMJJHH": 230381114,
                "OCILKFCPBNC": 0.5
            }
        ],
        [
            {
                "$type": "KAGAFALAIGP",
                "type": "DIALOG",
                "aliasList": [
                    "4412"
                ],
                "actionId": 133,
                "JHEPJOMJJHH": 230381115,
                "OCILKFCPBNC": 0.5
            },
            {
                "$type": "CENEPJCONAG",
                "type": "BODY_LANG",
                "delayTime": 0.10000000149011612,
                "aliasList": [
                    "4412"
                ],
                "actionId": 145,
                "OGFPAIKLDGB": 1130,
                "MHDCNDAINCK": true,
                "LHIAJOBFNAK": false,
                "GJGPNLJEIFP": true,
                "FOEKGLEJBIJ": ""
            }
        ],
        [
            {
                "$type": "KAGAFALAIGP",
                "type": "DIALOG",
                "aliasList": [
                    "4412"
                ],
                "actionId": 135,
                "JHEPJOMJJHH": 230381116,
                "OCILKFCPBNC": 0.5
            },
            {
                "$type": "CENEPJCONAG",
                "type": "BODY_LANG",
                "aliasList": [
                    "4412"
                ],
                "actionId": 146,
                "OGFPAIKLDGB": 1171,
                "MHDCNDAINCK": true,
                "LHIAJOBFNAK": false,
                "GJGPNLJEIFP": true,
                "FOEKGLEJBIJ": ""
            }
        ],
        [
            {
                "$type": "KAGAFALAIGP",
                "type": "DIALOG",
                "aliasList": [
                    "4412"
                ],
                "actionId": 137,
                "JHEPJOMJJHH": 230381117,
                "OCILKFCPBNC": 0.5
            },
            {
                "$type": "CENEPJCONAG",
                "type": "BODY_LANG",
                "delayTime": 0.10000000149011612,
                "aliasList": [
                    "4412"
                ],
                "actionId": 147,
                "OGFPAIKLDGB": 1240,
                "MHDCNDAINCK": true,
                "LHIAJOBFNAK": false,
                "GJGPNLJEIFP": true,
                "FOEKGLEJBIJ": ""
            }
        ],
        [
            {
                "$type": "MoleMole.Config.ConfigTimeProtectAction",
                "type": "TIME_PROTECT",
                "duration": 0.10000000149011612,
                "actionId": 105
            }
        ]
    ],
    "groupId": [
        {
            "grpId": 1288675091,
            "nextGrpId": 1288675092
        },
        {
            "index": 1,
            "grpId": 1288675092,
            "nextGrpId": 1288675093
        },
        {
            "index": 2,
            "grpId": 1288675093,
            "nextGrpId": 1288675094
        },
        {
            "index": 3,
            "grpId": 1288675094,
            "nextGrpId": 1288675095
        },
        {
            "index": 4,
            "grpId": 1288675095,
            "nextGrpId": 1288675096
        },
        {
            "index": 5,
            "grpId": 1288675096,
            "nextGrpId": 1288675097
        },
        {
            "index": 6,
            "grpId": 1288675097,
            "nextGrpId": 1288675098
        },
        {
            "index": 7,
            "grpId": 1288675098,
            "nextGrpId": 1288675099
        },
        {
            "index": 8,
            "grpId": 1288675099,
            "nextGrpId": 1294222205
        },
        {
            "index": 9,
            "grpId": 1294222205,
            "nextGrpId": 1294222206
        },
        {
            "index": 10,
            "grpId": 1294222206,
            "nextGrpId": 1294222207
        },
        {
            "index": 11,
            "grpId": 1294222207,
            "nextGrpId": 1294222208
        },
        {
            "index": 12,
            "grpId": 1294222208,
            "nextGrpId": 1294222209
        },
        {
            "index": 13,
            "grpId": 1294222209,
            "nextGrpId": 1294222210
        },
        {
            "index": 14,
            "grpId": 1294222210,
            "nextGrpId": 1294222211
        },
        {
            "index": 15,
            "grpId": 1294222211,
            "nextGrpId": 1294222212
        }
    ],
    "freeStyleDic": {
        "4412": [
            1240,
            1171,
            1172,
            1130
        ]
    }
}