{
    "KCHJLAHIGAD": {
        "1": {
            "$type": "FPKKHCHCHPP",
            "gadgetId": 70360001,
            "pos": {
                "x": 58.8371696472168,
                "y": -0.6270142197608948,
                "z": -50.881771087646484
            },
            "unlocked": true,
            "alias": "",
            "size": {
                "x": 1.0,
                "y": 1.0,
                "z": 1.0
            }
        }
    },
    "APCJABIOJLB": {}
}