{
    "KCHJLAHIGAD": {
        "1": {
            "$type": "FPKKHCHCHPP",
            "gadgetId": 70120004,
            "pos": {
                "x": -2.2304580211639404,
                "y": 14.620829582214355,
                "z": -76.49252319335938
            },
            "unlocked": true,
            "alias": "",
            "size": {
                "x": 5.0,
                "y": 5.0,
                "z": 5.0
            }
        },
        "2": {
            "$type": "IPAJOHIMGBE",
            "gadgetId": 70120003,
            "pos": {
                "x": -9.301132202148438,
                "y": -12.315979957580566,
                "z": 63.15956115722656
            },
            "rot": {
                "y": 90.0
            },
            "unlocked": true,
            "alias": "",
            "size": {
                "x": 8.0,
                "y": 8.0,
                "z": 25.0
            }
        },
        "3": {
            "$type": "IHGOEAMDFHH",
            "gadgetId": 70010006,
            "pos": {
                "x": 49.856719970703125,
                "y": -1.724181056022644,
                "z": 68.92520904541016
            },
            "unlocked": true,
            "alias": "",
            "size": {
                "x": 10.0,
                "y": 5.0,
                "z": 5.0
            }
        },
        "5": {
            "$type": "IHGOEAMDFHH",
            "gadgetId": 70010006,
            "pos": {
                "x": -49.0405387878418,
                "y": -0.055124398320913315,
                "z": 36.93267059326172
            },
            "rot": {
                "y": 90.98200225830078
            },
            "unlocked": true,
            "alias": "",
            "size": {
                "x": 10.0,
                "y": 10.0,
                "z": 5.0
            }
        },
        "6": {
            "$type": "IPAJOHIMGBE",
            "gadgetId": 70010006,
            "pos": {
                "x": 6.070069789886475,
                "y": 3.4699039459228516,
                "z": 96.56070709228516
            },
            "unlocked": true,
            "alias": "",
            "size": {
                "x": 5.0,
                "y": 10.0,
                "z": 10.0
            }
        }
    },
    "entities": {
        "1": {
            "$type": "KOOMHBCJGNI",
            "gadgetId": 70010006,
            "pos": {
                "x": 70.32655334472656,
                "y": -1.1518330574035645,
                "z": 17.449859619140625
            },
            "unlocked": true,
            "alias": "",
            "triggerFlag": "DeadRegion",
            "shape": {
                "$type": "NENJBOLIMHI",
                "DDJAPBKMFHK": true,
                "height": 50.0,
                "CEJBIGAKPDG": "Center",
                "width": 50.0,
                "length": 50.0
            },
            "JLBDFMALMOA": ""
        },
        "11": {
            "$type": "KOOMHBCJGNI",
            "gadgetId": 70010006,
            "pos": {
                "x": -91.51138305664062,
                "y": 1.7229670286178589,
                "z": 67.05213165283203
            },
            "unlocked": true,
            "alias": "",
            "triggerFlag": "DeadRegion",
            "shape": {
                "$type": "NENJBOLIMHI",
                "DDJAPBKMFHK": true,
                "height": 50.0,
                "CEJBIGAKPDG": "Center",
                "width": 50.0,
                "length": 150.0
            },
            "JLBDFMALMOA": ""
        },
        "12": {
            "$type": "KOOMHBCJGNI",
            "gadgetId": 70010006,
            "pos": {
                "x": 3.2859060764312744,
                "y": 3.1140689849853516,
                "z": 135.5509033203125
            },
            "unlocked": true,
            "alias": "",
            "triggerFlag": "DeadRegion",
            "shape": {
                "$type": "NENJBOLIMHI",
                "DDJAPBKMFHK": true,
                "height": 50.0,
                "CEJBIGAKPDG": "Center",
                "width": 150.0,
                "length": 50.0
            },
            "JLBDFMALMOA": ""
        },
        "13": {
            "$type": "KOOMHBCJGNI",
            "gadgetId": 70010006,
            "pos": {
                "x": 81.88641357421875,
                "y": -5.4570770263671875,
                "z": 71.00496673583984
            },
            "unlocked": true,
            "alias": "",
            "triggerFlag": "DeadRegion",
            "shape": {
                "$type": "NENJBOLIMHI",
                "DDJAPBKMFHK": true,
                "height": 50.0,
                "CEJBIGAKPDG": "Center",
                "width": 40.0,
                "length": 100.0
            },
            "JLBDFMALMOA": ""
        },
        "14": {
            "$type": "KOOMHBCJGNI",
            "gadgetId": 70010006,
            "pos": {
                "x": -7.368052959442139,
                "y": -2.049988031387329,
                "z": 40.83488082885742
            },
            "unlocked": true,
            "alias": "",
            "triggerFlag": "DeadRegion",
            "shape": {
                "$type": "NENJBOLIMHI",
                "DDJAPBKMFHK": true,
                "height": 60.0,
                "CEJBIGAKPDG": "Center",
                "width": 40.0,
                "length": 5.0
            },
            "JLBDFMALMOA": ""
        },
        "15": {
            "$type": "KOOMHBCJGNI",
            "gadgetId": 70010006,
            "pos": {
                "x": -15.236760139465332,
                "y": -35.943851470947266,
                "z": -1.0476969480514526
            },
            "unlocked": true,
            "alias": "",
            "triggerFlag": "DeadRegion",
            "shape": {
                "$type": "NENJBOLIMHI",
                "DDJAPBKMFHK": true,
                "height": 50.0,
                "CEJBIGAKPDG": "Center",
                "width": 60.0,
                "length": 80.0
            },
            "JLBDFMALMOA": ""
        },
        "16": {
            "$type": "KOOMHBCJGNI",
            "gadgetId": 70010006,
            "pos": {
                "x": 16.424129486083984,
                "y": -1.9874229431152344,
                "z": 20.773990631103516
            },
            "unlocked": true,
            "alias": "",
            "triggerFlag": "DeadRegion",
            "shape": {
                "$type": "NENJBOLIMHI",
                "DDJAPBKMFHK": true,
                "height": 60.0,
                "CEJBIGAKPDG": "Center",
                "width": 10.0,
                "length": 45.0
            },
            "JLBDFMALMOA": ""
        },
        "17": {
            "$type": "KOOMHBCJGNI",
            "gadgetId": 70010006,
            "pos": {
                "x": -30.07893943786621,
                "y": 3.566394090652466,
                "z": 47.00891876220703
            },
            "unlocked": true,
            "alias": "",
            "triggerFlag": "DeadRegion",
            "shape": {
                "$type": "NENJBOLIMHI",
                "DDJAPBKMFHK": true,
                "height": 60.0,
                "CEJBIGAKPDG": "Center",
                "width": 10.0,
                "length": 11.0
            },
            "JLBDFMALMOA": ""
        },
        "18": {
            "$type": "KOOMHBCJGNI",
            "gadgetId": 70010006,
            "pos": {
                "x": -1.9089529514312744,
                "y": 7.152615070343018,
                "z": 71.99891662597656
            },
            "unlocked": true,
            "alias": "",
            "triggerFlag": "DeadRegion",
            "shape": {
                "$type": "NENJBOLIMHI",
                "DDJAPBKMFHK": true,
                "height": 20.0,
                "CEJBIGAKPDG": "Center",
                "width": 35.0,
                "length": 15.0
            },
            "JLBDFMALMOA": ""
        },
        "19": {
            "$type": "KOOMHBCJGNI",
            "gadgetId": 70010006,
            "pos": {
                "x": 13.592599868774414,
                "y": 13.965350151062012,
                "z": 81.92314147949219
            },
            "unlocked": true,
            "alias": "",
            "triggerFlag": "DeadRegion",
            "shape": {
                "$type": "NENJBOLIMHI",
                "DDJAPBKMFHK": true,
                "height": 10.0,
                "CEJBIGAKPDG": "Center",
                "width": 6.0,
                "length": 5.0
            },
            "JLBDFMALMOA": ""
        },
        "2": {
            "$type": "KOOMHBCJGNI",
            "gadgetId": 70010006,
            "pos": {
                "x": -0.9894208908081055,
                "y": -35.842811584472656,
                "z": 16.411739349365234
            },
            "unlocked": true,
            "alias": "",
            "triggerFlag": "NoReviveRegion",
            "shape": {
                "$type": "NENJBOLIMHI",
                "DDJAPBKMFHK": true,
                "height": 30.0,
                "CEJBIGAKPDG": "Center",
                "width": 240.0,
                "length": 240.0
            },
            "JLBDFMALMOA": ""
        },
        "20": {
            "$type": "KOOMHBCJGNI",
            "gadgetId": 70010006,
            "pos": {
                "x": 11.544489860534668,
                "y": 4.71290922164917,
                "z": 78.53035736083984
            },
            "unlocked": true,
            "alias": "",
            "triggerFlag": "DeadRegion",
            "shape": {
                "$type": "NENJBOLIMHI",
                "DDJAPBKMFHK": true,
                "height": 10.0,
                "CEJBIGAKPDG": "Center",
                "width": 10.0,
                "length": 5.0
            },
            "JLBDFMALMOA": ""
        },
        "22": {
            "$type": "KOOMHBCJGNI",
            "gadgetId": 70010006,
            "pos": {
                "x": 28.676029205322266,
                "y": 0.9128571152687073,
                "z": 76.70558166503906
            },
            "unlocked": true,
            "alias": "",
            "triggerFlag": "DeadRegion",
            "shape": {
                "$type": "NENJBOLIMHI",
                "DDJAPBKMFHK": true,
                "height": 60.0,
                "CEJBIGAKPDG": "Center",
                "width": 25.0,
                "length": 15.0
            },
            "JLBDFMALMOA": ""
        },
        "23": {
            "$type": "KOOMHBCJGNI",
            "gadgetId": 70010006,
            "pos": {
                "x": 39.59294891357422,
                "y": 11.77571964263916,
                "z": 69.18036651611328
            },
            "unlocked": true,
            "alias": "",
            "triggerFlag": "DeadRegion",
            "shape": {
                "$type": "NENJBOLIMHI",
                "DDJAPBKMFHK": true,
                "height": 20.0,
                "CEJBIGAKPDG": "Center",
                "width": 3.0,
                "length": 5.0
            },
            "JLBDFMALMOA": ""
        },
        "24": {
            "$type": "KOOMHBCJGNI",
            "gadgetId": 70010006,
            "pos": {
                "x": -24.071020126342773,
                "y": -11.87183952331543,
                "z": 67.37378692626953
            },
            "unlocked": true,
            "alias": "",
            "triggerFlag": "DeadRegion",
            "shape": {
                "$type": "NENJBOLIMHI",
                "DDJAPBKMFHK": true,
                "height": 20.0,
                "CEJBIGAKPDG": "Center",
                "width": 10.0,
                "length": 50.0
            },
            "JLBDFMALMOA": ""
        },
        "25": {
            "$type": "KOOMHBCJGNI",
            "gadgetId": 70010006,
            "pos": {
                "x": -23.827489852905273,
                "y": 2.4276559352874756,
                "z": 3.995650053024292
            },
            "unlocked": true,
            "alias": "",
            "triggerFlag": "DeadRegion",
            "shape": {
                "$type": "NENJBOLIMHI",
                "DDJAPBKMFHK": true,
                "height": 20.0,
                "CEJBIGAKPDG": "Center",
                "width": 10.0,
                "length": 5.0
            },
            "JLBDFMALMOA": ""
        },
        "3": {
            "$type": "KOOMHBCJGNI",
            "gadgetId": 70010006,
            "pos": {
                "x": -0.9894208908081055,
                "y": -32.0803108215332,
                "z": 16.411739349365234
            },
            "unlocked": true,
            "alias": "",
            "triggerFlag": "DeadRegion",
            "shape": {
                "$type": "NENJBOLIMHI",
                "DDJAPBKMFHK": true,
                "height": 20.0,
                "CEJBIGAKPDG": "Center",
                "width": 250.0,
                "length": 250.0
            },
            "JLBDFMALMOA": ""
        },
        "5": {
            "$type": "KOOMHBCJGNI",
            "gadgetId": 70010006,
            "pos": {
                "x": 39.402801513671875,
                "y": 0.7026863098144531,
                "z": -67.86933898925781
            },
            "unlocked": true,
            "alias": "",
            "triggerFlag": "DeadRegion",
            "shape": {
                "$type": "NENJBOLIMHI",
                "DDJAPBKMFHK": true,
                "height": 60.0,
                "CEJBIGAKPDG": "Center",
                "width": 50.0,
                "length": 50.0
            },
            "JLBDFMALMOA": ""
        },
        "6": {
            "$type": "KOOMHBCJGNI",
            "gadgetId": 70010006,
            "pos": {
                "x": 42.447608947753906,
                "y": 0.3260231018066406,
                "z": -25.84280014038086
            },
            "unlocked": true,
            "alias": "",
            "triggerFlag": "DeadRegion",
            "shape": {
                "$type": "NENJBOLIMHI",
                "DDJAPBKMFHK": true,
                "height": 60.0,
                "CEJBIGAKPDG": "Center",
                "width": 50.0,
                "length": 50.0
            },
            "JLBDFMALMOA": ""
        },
        "7": {
            "$type": "KOOMHBCJGNI",
            "gadgetId": 70010006,
            "pos": {
                "x": -50.86568832397461,
                "y": -2.480815887451172,
                "z": -18.013750076293945
            },
            "unlocked": true,
            "alias": "",
            "triggerFlag": "DeadRegion",
            "shape": {
                "$type": "NENJBOLIMHI",
                "DDJAPBKMFHK": true,
                "height": 60.0,
                "CEJBIGAKPDG": "Center",
                "width": 50.0,
                "length": 50.0
            },
            "JLBDFMALMOA": ""
        },
        "8": {
            "$type": "KOOMHBCJGNI",
            "gadgetId": 70010006,
            "pos": {
                "x": -42.87480163574219,
                "y": 11.754449844360352,
                "z": -67.02223205566406
            },
            "unlocked": true,
            "alias": "",
            "triggerFlag": "DeadRegion",
            "shape": {
                "$type": "NENJBOLIMHI",
                "DDJAPBKMFHK": true,
                "height": 60.0,
                "CEJBIGAKPDG": "Center",
                "width": 50.0,
                "length": 50.0
            },
            "JLBDFMALMOA": ""
        },
        "9": {
            "$type": "KOOMHBCJGNI",
            "gadgetId": 70010006,
            "pos": {
                "x": 40.83462905883789,
                "y": -16.472259521484375,
                "z": 99.12232971191406
            },
            "unlocked": true,
            "alias": "",
            "triggerFlag": "DeadRegion",
            "shape": {
                "$type": "NENJBOLIMHI",
                "DDJAPBKMFHK": true,
                "height": 20.0,
                "CEJBIGAKPDG": "Center",
                "width": 50.0,
                "length": 60.0
            },
            "JLBDFMALMOA": ""
        }
    },
    "APCJABIOJLB": {}
}