{
    "entities": {
        "1": {
            "$type": "KOOMHBCJGNI",
            "gadgetId": 70010006,
            "pos": {
                "x": 719.9166870117188,
                "y": 84.03388214111328,
                "z": 782.0891723632812
            },
            "tranPos": {
                "x": 719.9166870117188,
                "y": 90.18095397949219,
                "z": 782.0892333984375
            },
            "unlocked": true,
            "alias": "",
            "GNOIKNKNBEI": 150.0,
            "triggerFlag": "DeadRegion",
            "shape": {
                "$type": "NENJBOLIMHI",
                "DDJAPBKMFHK": true,
                "height": 3.0,
                "CEJBIGAKPDG": "Center",
                "width": 150.0,
                "length": 150.0
            },
            "JLBDFMALMOA": ""
        }
    },
    "APCJABIOJLB": {}
}