{
    "KCHJLAHIGAD": {
        "1": {
            "$type": "GDFHEDJKPEE",
            "gadgetId": 70110002,
            "areaId": 300,
            "pos": {
                "x": 1018.260009765625,
                "y": 1086.43994140625,
                "z": 900.3800048828125
            },
            "rot": {
                "y": 1.7619999647140503
            },
            "tranPos": {
                "x": 1021.4306030273438,
                "y": 1086.553955078125,
                "z": 895.8396606445312
            },
            "tranRot": {
                "y": 248.34512329101562
            },
            "alias": "",
            "COKMEFOHAEL": ""
        },
        "10": {
            "$type": "GDFHEDJKPEE",
            "gadgetId": 70110002,
            "areaId": 300,
            "pos": {
                "x": 212.56199645996094,
                "y": 457.4020080566406,
                "z": 592.655029296875
            },
            "rot": {
                "y": 32.262001037597656
            },
            "tranPos": {
                "x": 212.2812042236328,
                "y": 456.8197021484375,
                "z": 596.971923828125
            },
            "tranRot": {
                "y": -60.645999908447266
            },
            "alias": "",
            "COKMEFOHAEL": ""
        },
        "11": {
            "$type": "GDFHEDJKPEE",
            "gadgetId": 70110002,
            "areaId": 300,
            "pos": {
                "x": 398.02801513671875,
                "y": 418.4259948730469,
                "z": 393.46099853515625
            },
            "rot": {
                "y": 30.0
            },
            "tranPos": {
                "x": 402.1695861816406,
                "y": 418.8612976074219,
                "z": 396.2333068847656
            },
            "tranRot": {
                "y": 28.454999923706055
            },
            "alias": "",
            "COKMEFOHAEL": ""
        },
        "12": {
            "$type": "GDFHEDJKPEE",
            "gadgetId": 70110002,
            "areaId": 300,
            "pos": {
                "x": 339.39599609375,
                "y": 179.26019287109375,
                "z": 807.4559936523438
            },
            "rot": {
                "y": 145.13690185546875
            },
            "tranPos": {
                "x": 340.0264587402344,
                "y": 180.46031188964844,
                "z": 812.7549438476562
            },
            "tranRot": {
                "y": 8.051839828491211
            },
            "alias": "",
            "COKMEFOHAEL": ""
        },
        "13": {
            "$type": "GDFHEDJKPEE",
            "gadgetId": 70110002,
            "areaId": 300,
            "pos": {
                "x": 508.7619934082031,
                "y": 97.2030029296875,
                "z": 1206.7879638671875
            },
            "rot": {
                "y": 244.76300048828125
            },
            "tranPos": {
                "x": 507.77191162109375,
                "y": 96.78900146484375,
                "z": 1213.1109619140625
            },
            "tranRot": {
                "y": -44.595001220703125
            },
            "alias": "",
            "COKMEFOHAEL": ""
        },
        "14": {
            "$type": "GDFHEDJKPEE",
            "gadgetId": 70110008,
            "areaId": 300,
            "pos": {
                "x": 531.7420043945312,
                "y": 479.57049560546875,
                "z": 521.9630126953125
            },
            "rot": {
                "y": 85.0
            },
            "tranPos": {
                "x": 525.9821166992188,
                "y": 475.4704284667969,
                "z": 524.8372802734375
            },
            "tranRot": {
                "y": 280.94000244140625
            },
            "alias": "",
            "HBFMGNFCOFL": "OnUnlocked",
            "COKMEFOHAEL": ""
        },
        "15": {
            "$type": "IHBDFKHFLBI",
            "gadgetId": 70010001,
            "areaId": 300,
            "pos": {
                "x": 206.23550415039062,
                "y": 461.093505859375,
                "z": 615.0048217773438
            },
            "tranPos": {
                "x": 204.0802001953125,
                "y": 461.0723876953125,
                "z": 614.4863891601562
            },
            "alias": "",
            "EOLIBHGNIEO": "LuminanceStoneNPC"
        },
        "16": {
            "$type": "IHBDFKHFLBI",
            "gadgetId": 70010001,
            "areaId": 300,
            "pos": {
                "x": 1074.68505859375,
                "y": 961.40771484375,
                "z": 684.5313110351562
            },
            "tranPos": {
                "x": 1076.43505859375,
                "y": 961.3753051757812,
                "z": 681.453125
            },
            "alias": "",
            "EOLIBHGNIEO": "LuminanceStoneNPC"
        },
        "17": {
            "$type": "GDFHEDJKPEE",
            "gadgetId": 70110002,
            "areaId": 300,
            "pos": {
                "x": 303.6719970703125,
                "y": 155.093994140625,
                "z": 1321.1820068359375
            },
            "rot": {
                "y": 349.0
            },
            "tranPos": {
                "x": 306.040771484375,
                "y": 155.07269287109375,
                "z": 1325.0572509765625
            },
            "tranRot": {
                "y": 55.23459243774414
            },
            "alias": "",
            "COKMEFOHAEL": ""
        },
        "18": {
            "$type": "ADFHFFJICGO",
            "gadgetId": 70360001,
            "areaId": 300,
            "pos": {
                "x": 466.90399169921875,
                "y": 94.81800079345703,
                "z": 1231.2220458984375
            },
            "tranPos": {
                "x": 466.39727783203125,
                "y": 94.999267578125,
                "z": 1233.26171875
            },
            "tranRot": {
                "y": 9.73388671875
            },
            "alias": "",
            "HBFMGNFCOFL": "OnUnlocked",
            "COKMEFOHAEL": "",
            "GANDAAICMHF": {},
            "size": {
                "x": 3.0,
                "y": 3.0,
                "z": 3.0
            },
            "EMEEPJJFFKJ": "UI_ACTIVITY_ROGUEDIARY_DUNGEONENTRY",
            "PBJMEHONEEL": "UI_Icon_Intee_Talk",
            "KLOHCKPOJIH": "RogueDiary",
            "EIDKPDKNJEM": true
        },
        "19": {
            "$type": "IHBDFKHFLBI",
            "gadgetId": 70800216,
            "areaId": 300,
            "pos": {
                "x": 360.22589111328125,
                "y": 48.257381439208984,
                "z": 1355.5770263671875
            },
            "rot": {
                "y": 166.10650634765625
            },
            "tranPos": {
                "x": 360.22589111328125,
                "y": 48.257381439208984,
                "z": 1355.5770263671875
            },
            "alias": "",
            "EOLIBHGNIEO": "CocoonSpace"
        },
        "2": {
            "$type": "GDFHEDJKPEE",
            "gadgetId": 70110002,
            "areaId": 300,
            "pos": {
                "x": 1056.116943359375,
                "y": 960.656005859375,
                "z": 661.6680297851562
            },
            "rot": {
                "y": 1.7619999647140503
            },
            "tranPos": {
                "x": 1059.3199462890625,
                "y": 960.7017822265625,
                "z": 664.0587768554688
            },
            "tranRot": {
                "y": 51.257999420166016
            },
            "alias": "",
            "COKMEFOHAEL": ""
        },
        "20": {
            "$type": "EEGIFCGOFEC",
            "gadgetId": 70010002,
            "areaId": 300,
            "pos": {
                "x": 360.22589111328125,
                "y": 48.257381439208984,
                "z": 1355.5770263671875
            },
            "rot": {
                "y": 166.10650634765625
            },
            "tranPos": {
                "x": -1.600000023841858,
                "y": 5.760000228881836,
                "z": -54.0
            },
            "alias": "",
            "MGEGIEDACCL": 20130,
            "EMEEPJJFFKJ": "UI_MAPMARK_CocoonSpace_TITLE",
            "CFPJBCFOLMD": {
                "x": 20.0,
                "y": 20.0,
                "z": 20.0
            },
            "GNIIGNOJLGE": 24.0
        },
        "3": {
            "$type": "GDFHEDJKPEE",
            "gadgetId": 70110002,
            "areaId": 300,
            "pos": {
                "x": 766.2150268554688,
                "y": 962.5009765625,
                "z": 893.6959838867188
            },
            "tranPos": {
                "x": 763.0684814453125,
                "y": 963.7484741210938,
                "z": 887.7244262695312
            },
            "tranRot": {
                "y": 343.9094543457031
            },
            "alias": "",
            "COKMEFOHAEL": ""
        },
        "4": {
            "$type": "GDFHEDJKPEE",
            "gadgetId": 70110002,
            "areaId": 300,
            "pos": {
                "x": 976.8386840820312,
                "y": 796.0706176757812,
                "z": 331.2786865234375
            },
            "rot": {
                "y": 1.7619999647140503,
                "z": 358.4728088378906
            },
            "tranPos": {
                "x": 975.558837890625,
                "y": 796.2444458007812,
                "z": 338.8951110839844
            },
            "tranRot": {
                "x": 359.0036315917969,
                "y": 222.47879028320312,
                "z": 1.1574667692184448
            },
            "alias": "",
            "COKMEFOHAEL": ""
        },
        "5": {
            "$type": "GDFHEDJKPEE",
            "gadgetId": 70110002,
            "areaId": 300,
            "pos": {
                "x": 759.1729736328125,
                "y": 759.9376831054688,
                "z": 278.243896484375
            },
            "tranPos": {
                "x": 767.8156127929688,
                "y": 759.2573852539062,
                "z": 278.5710144042969
            },
            "tranRot": {
                "y": 86.46499633789062
            },
            "alias": "",
            "COKMEFOHAEL": ""
        },
        "6": {
            "$type": "GDFHEDJKPEE",
            "gadgetId": 70110002,
            "areaId": 300,
            "pos": {
                "x": 952.438720703125,
                "y": 950.4683837890625,
                "z": 543.99560546875
            },
            "tranPos": {
                "x": 951.3311767578125,
                "y": 950.4169921875,
                "z": 551.2144165039062
            },
            "tranRot": {
                "y": 64.5739974975586
            },
            "alias": "",
            "COKMEFOHAEL": ""
        },
        "7": {
            "$type": "GDFHEDJKPEE",
            "gadgetId": 70110002,
            "areaId": 300,
            "pos": {
                "x": 501.3310852050781,
                "y": 706.9879150390625,
                "z": 301.7886047363281
            },
            "rot": {
                "y": 273.5461120605469
            },
            "tranPos": {
                "x": 506.9901123046875,
                "y": 707.2574462890625,
                "z": 304.4337158203125
            },
            "tranRot": {
                "x": -1.0016602573159616e-05,
                "y": 302.28594970703125,
                "z": 2.638952082634205e-06
            },
            "alias": "",
            "COKMEFOHAEL": ""
        },
        "8": {
            "$type": "GDFHEDJKPEE",
            "gadgetId": 70110002,
            "areaId": 300,
            "pos": {
                "x": 179.24200439453125,
                "y": 306.9150085449219,
                "z": 354.8080139160156
            },
            "tranPos": {
                "x": 177.21253967285156,
                "y": 306.8766174316406,
                "z": 358.046142578125
            },
            "tranRot": {
                "y": -71.1719970703125
            },
            "alias": "",
            "COKMEFOHAEL": ""
        },
        "9": {
            "$type": "GDFHEDJKPEE",
            "gadgetId": 70110002,
            "areaId": 300,
            "pos": {
                "x": 704.27001953125,
                "y": 395.27069091796875,
                "z": 659.0900268554688
            },
            "rot": {
                "y": 32.262001037597656
            },
            "tranPos": {
                "x": 710.7691040039062,
                "y": 395.43609619140625,
                "z": 663.9815063476562
            },
            "tranRot": {
                "y": -13.217000007629395
            },
            "alias": "",
            "COKMEFOHAEL": ""
        }
    },
    "APCJABIOJLB": {}
}