{
    "KCHJLAHIGAD": {
        "1": {
            "$type": "FPKKHCHCHPP",
            "gadgetId": 70120004,
            "pos": {
                "x": -0.11199399828910828,
                "y": 2.5093650817871094,
                "z": -56.65544891357422
            },
            "unlocked": true,
            "alias": "",
            "size": {
                "x": 2.0,
                "y": 2.0,
                "z": 2.0
            }
        }
    },
    "entities": {
        "1": {
            "$type": "KOOMHBCJGNI",
            "gadgetId": 70010006,
            "pos": {
                "x": -3.1175529956817627,
                "y": -16.13861083984375,
                "z": -85.54316711425781
            },
            "tranPos": {
                "x": -3.117553234100342,
                "y": 0.0017449641600251198,
                "z": -12.171515464782715
            },
            "unlocked": true,
            "alias": "",
            "triggerFlag": "NoReviveRegion",
            "shape": {
                "$type": "NENJBOLIMHI",
                "DDJAPBKMFHK": true,
                "height": 30.0,
                "width": 200.0,
                "length": 123.0
            },
            "JLBDFMALMOA": ""
        }
    },
    "APCJABIOJLB": {}
}