{
    "KCHJLAHIGAD": {
        "1": {
            "$type": "FPKKHCHCHPP",
            "gadgetId": 70120004,
            "pos": {
                "x": -0.0281243696808815,
                "y": 2.849364995956421,
                "z": -50.309749603271484
            },
            "alias": "",
            "size": {
                "x": 5.0,
                "y": 5.0,
                "z": 5.0
            }
        }
    },
    "entities": {
        "1": {
            "$type": "KOOMHBCJGNI",
            "gadgetId": 70010006,
            "pos": {
                "x": 0.13550299406051636,
                "y": -27.235300064086914,
                "z": 21.86665916442871
            },
            "alias": "",
            "GNOIKNKNBEI": 300.0,
            "triggerFlag": "DeadRegion",
            "shape": {
                "$type": "NENJBOLIMHI",
                "DDJAPBKMFHK": true,
                "height": 40.0,
                "CEJBIGAKPDG": "Center",
                "width": 300.0,
                "length": 300.0
            },
            "JLBDFMALMOA": ""
        },
        "2": {
            "$type": "KOOMHBCJGNI",
            "gadgetId": 70010006,
            "pos": {
                "x": 64.62786102294922,
                "y": 33.095970153808594,
                "z": 21.86665916442871
            },
            "alias": "",
            "GNOIKNKNBEI": 200.0,
            "triggerFlag": "DeadRegion",
            "shape": {
                "$type": "NENJBOLIMHI",
                "DDJAPBKMFHK": true,
                "height": 100.0,
                "CEJBIGAKPDG": "Center",
                "width": 50.0,
                "length": 250.0
            },
            "JLBDFMALMOA": ""
        },
        "3": {
            "$type": "KOOMHBCJGNI",
            "gadgetId": 70010006,
            "pos": {
                "x": -76.83979034423828,
                "y": 33.095970153808594,
                "z": 21.86665916442871
            },
            "alias": "",
            "GNOIKNKNBEI": 200.0,
            "triggerFlag": "DeadRegion",
            "shape": {
                "$type": "NENJBOLIMHI",
                "DDJAPBKMFHK": true,
                "height": 100.0,
                "CEJBIGAKPDG": "Center",
                "width": 50.0,
                "length": 250.0
            },
            "JLBDFMALMOA": ""
        },
        "4": {
            "$type": "KOOMHBCJGNI",
            "gadgetId": 70010006,
            "pos": {
                "x": 0.37000471353530884,
                "y": 33.095970153808594,
                "z": -95.69053649902344
            },
            "alias": "",
            "GNOIKNKNBEI": 200.0,
            "triggerFlag": "DeadRegion",
            "shape": {
                "$type": "NENJBOLIMHI",
                "DDJAPBKMFHK": true,
                "height": 100.0,
                "CEJBIGAKPDG": "Center",
                "width": 200.0,
                "length": 50.0
            },
            "JLBDFMALMOA": ""
        },
        "5": {
            "$type": "KOOMHBCJGNI",
            "gadgetId": 70010006,
            "pos": {
                "x": 0.37000471353530884,
                "y": 33.095970153808594,
                "z": 145.0399932861328
            },
            "alias": "",
            "GNOIKNKNBEI": 200.0,
            "triggerFlag": "DeadRegion",
            "shape": {
                "$type": "NENJBOLIMHI",
                "DDJAPBKMFHK": true,
                "height": 100.0,
                "CEJBIGAKPDG": "Center",
                "width": 200.0,
                "length": 50.0
            },
            "JLBDFMALMOA": ""
        },
        "6": {
            "$type": "KOOMHBCJGNI",
            "gadgetId": 70010006,
            "pos": {
                "x": 0.13550299406051636,
                "y": -22.921520233154297,
                "z": 21.86665916442871
            },
            "alias": "",
            "GNOIKNKNBEI": 300.0,
            "triggerFlag": "NoReviveRegion",
            "shape": {
                "$type": "NENJBOLIMHI",
                "DDJAPBKMFHK": true,
                "height": 40.0,
                "CEJBIGAKPDG": "Center",
                "width": 300.0,
                "length": 300.0
            },
            "JLBDFMALMOA": ""
        },
        "7": {
            "$type": "KOOMHBCJGNI",
            "gadgetId": 70010006,
            "pos": {
                "x": 0.13550299406051636,
                "y": -18.211570739746094,
                "z": 84.17622375488281
            },
            "alias": "",
            "GNOIKNKNBEI": 300.0,
            "triggerFlag": "NoReviveRegion",
            "shape": {
                "$type": "NENJBOLIMHI",
                "DDJAPBKMFHK": true,
                "height": 40.0,
                "CEJBIGAKPDG": "Center",
                "width": 60.0,
                "length": 60.0
            },
            "JLBDFMALMOA": ""
        }
    },
    "APCJABIOJLB": {}
}