{
    "KCHJLAHIGAD": {
        "1": {
            "$type": "FPKKHCHCHPP",
            "gadgetId": 70120004,
            "pos": {
                "x": 11.23822021484375,
                "y": 6.837432861328125,
                "z": -63.628238677978516
            },
            "unlocked": true,
            "alias": "",
            "size": {
                "x": 5.0,
                "y": 5.0,
                "z": 5.0
            }
        }
    },
    "entities": {
        "1": {
            "$type": "KOOMHBCJGNI",
            "gadgetId": 70010006,
            "pos": {
                "x": -29.37812042236328,
                "y": 0.12126480042934418,
                "z": -9.006510734558105
            },
            "rot": {
                "y": 342.7026062011719
            },
            "unlocked": true,
            "alias": "",
            "GNOIKNKNBEI": 500.0,
            "PMBHPOONBJD": true,
            "triggerFlag": "DeadRegion",
            "shape": {
                "$type": "NENJBOLIMHI",
                "DDJAPBKMFHK": true,
                "height": 200.0,
                "CEJBIGAKPDG": "Center",
                "width": 10.0,
                "length": 10.0
            },
            "JLBDFMALMOA": ""
        },
        "10": {
            "$type": "KOOMHBCJGNI",
            "gadgetId": 70010006,
            "pos": {
                "x": -27.042749404907227,
                "y": 0.034032851457595825,
                "z": 8.857216835021973
            },
            "rot": {
                "y": 286.8501892089844
            },
            "unlocked": true,
            "alias": "",
            "GNOIKNKNBEI": 500.0,
            "PMBHPOONBJD": true,
            "triggerFlag": "NoReviveRegion",
            "shape": {
                "$type": "NENJBOLIMHI",
                "DDJAPBKMFHK": true,
                "height": 200.0,
                "CEJBIGAKPDG": "Center",
                "width": 10.0,
                "length": 10.0
            },
            "JLBDFMALMOA": ""
        },
        "11": {
            "$type": "KOOMHBCJGNI",
            "gadgetId": 70010006,
            "pos": {
                "x": 26.7880802154541,
                "y": 0.03241651877760887,
                "z": 9.015111923217773
            },
            "rot": {
                "y": 252.06739807128906
            },
            "unlocked": true,
            "alias": "",
            "GNOIKNKNBEI": 500.0,
            "PMBHPOONBJD": true,
            "triggerFlag": "NoReviveRegion",
            "shape": {
                "$type": "NENJBOLIMHI",
                "DDJAPBKMFHK": true,
                "height": 200.0,
                "CEJBIGAKPDG": "Center",
                "width": 10.0,
                "length": 10.0
            },
            "JLBDFMALMOA": ""
        },
        "12": {
            "$type": "KOOMHBCJGNI",
            "gadgetId": 70010006,
            "pos": {
                "x": -17.74040985107422,
                "y": -0.034904658794403076,
                "z": 22.241249084472656
            },
            "rot": {
                "x": 355.87451171875,
                "y": 54.36050033569336,
                "z": 0.061500001698732376
            },
            "unlocked": true,
            "alias": "",
            "GNOIKNKNBEI": 500.0,
            "PMBHPOONBJD": true,
            "triggerFlag": "NoReviveRegion",
            "shape": {
                "$type": "NENJBOLIMHI",
                "DDJAPBKMFHK": true,
                "height": 200.0,
                "CEJBIGAKPDG": "Center",
                "width": 10.0,
                "length": 20.0
            },
            "JLBDFMALMOA": ""
        },
        "13": {
            "$type": "KOOMHBCJGNI",
            "gadgetId": 70010006,
            "pos": {
                "x": 20.279329299926758,
                "y": 0.03412118926644325,
                "z": 23.504499435424805
            },
            "rot": {
                "y": 307.99749755859375
            },
            "unlocked": true,
            "alias": "",
            "GNOIKNKNBEI": 500.0,
            "PMBHPOONBJD": true,
            "triggerFlag": "DeadRegion",
            "shape": {
                "$type": "NENJBOLIMHI",
                "DDJAPBKMFHK": true,
                "height": 200.0,
                "CEJBIGAKPDG": "Center",
                "width": 10.0,
                "length": 20.0
            },
            "JLBDFMALMOA": ""
        },
        "14": {
            "$type": "KOOMHBCJGNI",
            "gadgetId": 70010006,
            "pos": {
                "x": 18.82324981689453,
                "y": 0.38345780968666077,
                "z": -24.626880645751953
            },
            "rot": {
                "y": 325.3951110839844
            },
            "unlocked": true,
            "alias": "",
            "GNOIKNKNBEI": 500.0,
            "PMBHPOONBJD": true,
            "triggerFlag": "DeadRegion",
            "shape": {
                "$type": "NENJBOLIMHI",
                "DDJAPBKMFHK": true,
                "height": 200.0,
                "CEJBIGAKPDG": "Center",
                "width": 10.0,
                "length": 10.0
            },
            "JLBDFMALMOA": ""
        },
        "15": {
            "$type": "KOOMHBCJGNI",
            "gadgetId": 70010006,
            "pos": {
                "x": -19.07008934020996,
                "y": 0.3834831118583679,
                "z": -23.635499954223633
            },
            "rot": {
                "y": 215.51409912109375
            },
            "unlocked": true,
            "alias": "",
            "GNOIKNKNBEI": 500.0,
            "PMBHPOONBJD": true,
            "triggerFlag": "DeadRegion",
            "shape": {
                "$type": "NENJBOLIMHI",
                "DDJAPBKMFHK": true,
                "height": 200.0,
                "CEJBIGAKPDG": "Center",
                "width": 10.0,
                "length": 10.0
            },
            "JLBDFMALMOA": ""
        },
        "16": {
            "$type": "KOOMHBCJGNI",
            "gadgetId": 70010006,
            "pos": {
                "x": 28.26789093017578,
                "y": 0.38344770669937134,
                "z": -9.755863189697266
            },
            "rot": {
                "y": 288.1326904296875
            },
            "unlocked": true,
            "alias": "",
            "GNOIKNKNBEI": 500.0,
            "PMBHPOONBJD": true,
            "triggerFlag": "DeadRegion",
            "shape": {
                "$type": "NENJBOLIMHI",
                "DDJAPBKMFHK": true,
                "height": 200.0,
                "CEJBIGAKPDG": "Center",
                "width": 15.0,
                "length": 10.0
            },
            "JLBDFMALMOA": ""
        },
        "17": {
            "$type": "KOOMHBCJGNI",
            "gadgetId": 70010006,
            "pos": {
                "x": -23.320459365844727,
                "y": 0.3834981918334961,
                "z": 17.273479461669922
            },
            "rot": {
                "y": 304.8414001464844
            },
            "unlocked": true,
            "alias": "",
            "GNOIKNKNBEI": 500.0,
            "PMBHPOONBJD": true,
            "triggerFlag": "DeadRegion",
            "shape": {
                "$type": "NENJBOLIMHI",
                "DDJAPBKMFHK": true,
                "height": 200.0,
                "CEJBIGAKPDG": "Center",
                "width": 10.0,
                "length": 10.0
            },
            "JLBDFMALMOA": ""
        },
        "18": {
            "$type": "KOOMHBCJGNI",
            "gadgetId": 70010006,
            "pos": {
                "x": -29.084369659423828,
                "y": 0.03524878993630409,
                "z": 0.6327435970306396
            },
            "rot": {
                "y": 269.168701171875
            },
            "unlocked": true,
            "alias": "",
            "GNOIKNKNBEI": 500.0,
            "PMBHPOONBJD": true,
            "triggerFlag": "DeadRegion",
            "shape": {
                "$type": "NENJBOLIMHI",
                "DDJAPBKMFHK": true,
                "height": 200.0,
                "CEJBIGAKPDG": "Center",
                "width": 10.0,
                "length": 10.0
            },
            "JLBDFMALMOA": ""
        },
        "19": {
            "$type": "KOOMHBCJGNI",
            "gadgetId": 70010006,
            "pos": {
                "x": -23.883380889892578,
                "y": 0.3834281861782074,
                "z": -16.51634979248047
            },
            "rot": {
                "y": 233.527099609375
            },
            "unlocked": true,
            "alias": "",
            "GNOIKNKNBEI": 500.0,
            "PMBHPOONBJD": true,
            "triggerFlag": "DeadRegion",
            "shape": {
                "$type": "NENJBOLIMHI",
                "DDJAPBKMFHK": true,
                "height": 200.0,
                "CEJBIGAKPDG": "Center",
                "width": 10.0,
                "length": 10.0
            },
            "JLBDFMALMOA": ""
        },
        "2": {
            "$type": "KOOMHBCJGNI",
            "gadgetId": 70010006,
            "pos": {
                "x": 27.97602081298828,
                "y": 0.12131170183420181,
                "z": 9.496031761169434
            },
            "rot": {
                "y": 342.4884033203125
            },
            "unlocked": true,
            "alias": "",
            "GNOIKNKNBEI": 500.0,
            "PMBHPOONBJD": true,
            "triggerFlag": "DeadRegion",
            "shape": {
                "$type": "NENJBOLIMHI",
                "DDJAPBKMFHK": true,
                "height": 200.0,
                "CEJBIGAKPDG": "Center",
                "width": 10.0,
                "length": 10.0
            },
            "JLBDFMALMOA": ""
        },
        "20": {
            "$type": "KOOMHBCJGNI",
            "gadgetId": 70010006,
            "pos": {
                "x": 23.253469467163086,
                "y": 0.03472137078642845,
                "z": -17.29585075378418
            },
            "rot": {
                "y": 215.685302734375
            },
            "unlocked": true,
            "alias": "",
            "GNOIKNKNBEI": 500.0,
            "PMBHPOONBJD": true,
            "triggerFlag": "DeadRegion",
            "shape": {
                "$type": "NENJBOLIMHI",
                "DDJAPBKMFHK": true,
                "height": 200.0,
                "CEJBIGAKPDG": "Center",
                "width": 10.0,
                "length": 10.0
            },
            "JLBDFMALMOA": ""
        },
        "21": {
            "$type": "KOOMHBCJGNI",
            "gadgetId": 70010006,
            "pos": {
                "x": 28.907310485839844,
                "y": 0.38350749015808105,
                "z": -0.09232530742883682
            },
            "rot": {
                "y": 180.956298828125
            },
            "unlocked": true,
            "alias": "",
            "GNOIKNKNBEI": 500.0,
            "PMBHPOONBJD": true,
            "triggerFlag": "DeadRegion",
            "shape": {
                "$type": "NENJBOLIMHI",
                "DDJAPBKMFHK": true,
                "height": 200.0,
                "CEJBIGAKPDG": "Center",
                "width": 10.0,
                "length": 10.0
            },
            "JLBDFMALMOA": ""
        },
        "22": {
            "$type": "KOOMHBCJGNI",
            "gadgetId": 70010006,
            "pos": {
                "x": 23.445720672607422,
                "y": 0.3834989070892334,
                "z": 16.97092056274414
            },
            "rot": {
                "y": 147.660400390625
            },
            "unlocked": true,
            "alias": "",
            "GNOIKNKNBEI": 500.0,
            "PMBHPOONBJD": true,
            "triggerFlag": "DeadRegion",
            "shape": {
                "$type": "NENJBOLIMHI",
                "DDJAPBKMFHK": true,
                "height": 200.0,
                "CEJBIGAKPDG": "Center",
                "width": 10.0,
                "length": 10.0
            },
            "JLBDFMALMOA": ""
        },
        "23": {
            "$type": "KOOMHBCJGNI",
            "gadgetId": 70010006,
            "pos": {
                "x": -23.081619262695312,
                "y": 0.3834986090660095,
                "z": 17.412860870361328
            },
            "rot": {
                "y": 125.10579681396484
            },
            "unlocked": true,
            "alias": "",
            "GNOIKNKNBEI": 500.0,
            "PMBHPOONBJD": true,
            "triggerFlag": "DeadRegion",
            "shape": {
                "$type": "NENJBOLIMHI",
                "DDJAPBKMFHK": true,
                "height": 200.0,
                "CEJBIGAKPDG": "Center",
                "width": 10.0,
                "length": 10.0
            },
            "JLBDFMALMOA": ""
        },
        "3": {
            "$type": "KOOMHBCJGNI",
            "gadgetId": 70010006,
            "pos": {
                "x": -29.243440628051758,
                "y": -0.34133151173591614,
                "z": 9.562384605407715
            },
            "rot": {
                "y": 17.576799392700195
            },
            "unlocked": true,
            "alias": "",
            "GNOIKNKNBEI": 500.0,
            "PMBHPOONBJD": true,
            "triggerFlag": "DeadRegion",
            "shape": {
                "$type": "NENJBOLIMHI",
                "DDJAPBKMFHK": true,
                "height": 200.0,
                "CEJBIGAKPDG": "Center",
                "width": 10.0,
                "length": 10.0
            },
            "JLBDFMALMOA": ""
        },
        "4": {
            "$type": "KOOMHBCJGNI",
            "gadgetId": 70010006,
            "pos": {
                "x": -17.369380950927734,
                "y": 0.21317529678344727,
                "z": 22.469030380249023
            },
            "rot": {
                "x": 355.8758850097656,
                "y": 53.514198303222656,
                "z": 0.12240000069141388
            },
            "unlocked": true,
            "alias": "",
            "GNOIKNKNBEI": 500.0,
            "PMBHPOONBJD": true,
            "triggerFlag": "DeadRegion",
            "shape": {
                "$type": "NENJBOLIMHI",
                "DDJAPBKMFHK": true,
                "height": 200.0,
                "CEJBIGAKPDG": "Center",
                "width": 10.0,
                "length": 20.0
            },
            "JLBDFMALMOA": ""
        },
        "5": {
            "$type": "KOOMHBCJGNI",
            "gadgetId": 70010006,
            "pos": {
                "x": 18.300249099731445,
                "y": 1.3112510442733765,
                "z": 21.770639419555664
            },
            "rot": {
                "y": 305.6156921386719
            },
            "unlocked": true,
            "alias": "",
            "GNOIKNKNBEI": 500.0,
            "PMBHPOONBJD": true,
            "triggerFlag": "DeadRegion",
            "shape": {
                "$type": "NENJBOLIMHI",
                "DDJAPBKMFHK": true,
                "height": 200.0,
                "CEJBIGAKPDG": "Center",
                "width": 10.0,
                "length": 20.0
            },
            "JLBDFMALMOA": ""
        },
        "6": {
            "$type": "KOOMHBCJGNI",
            "gadgetId": 70010006,
            "pos": {
                "x": 17.205970764160156,
                "y": 0.03277122974395752,
                "z": -22.593059539794922
            },
            "rot": {
                "y": 325.3951110839844
            },
            "unlocked": true,
            "alias": "",
            "GNOIKNKNBEI": 500.0,
            "PMBHPOONBJD": true,
            "triggerFlag": "NoReviveRegion",
            "shape": {
                "$type": "NENJBOLIMHI",
                "DDJAPBKMFHK": true,
                "height": 200.0,
                "CEJBIGAKPDG": "Center",
                "width": 10.0,
                "length": 10.0
            },
            "JLBDFMALMOA": ""
        },
        "7": {
            "$type": "KOOMHBCJGNI",
            "gadgetId": 70010006,
            "pos": {
                "x": 26.85934066772461,
                "y": 0.03433975949883461,
                "z": -8.770126342773438
            },
            "rot": {
                "y": 288.1326904296875
            },
            "unlocked": true,
            "alias": "",
            "GNOIKNKNBEI": 500.0,
            "PMBHPOONBJD": true,
            "triggerFlag": "NoReviveRegion",
            "shape": {
                "$type": "NENJBOLIMHI",
                "DDJAPBKMFHK": true,
                "height": 200.0,
                "CEJBIGAKPDG": "Center",
                "width": 15.0,
                "length": 10.0
            },
            "JLBDFMALMOA": ""
        },
        "8": {
            "$type": "KOOMHBCJGNI",
            "gadgetId": 70010006,
            "pos": {
                "x": -16.89409065246582,
                "y": 0.034534040838479996,
                "z": -22.68548011779785
            },
            "rot": {
                "y": 215.51409912109375
            },
            "unlocked": true,
            "alias": "",
            "GNOIKNKNBEI": 500.0,
            "PMBHPOONBJD": true,
            "triggerFlag": "NoReviveRegion",
            "shape": {
                "$type": "NENJBOLIMHI",
                "DDJAPBKMFHK": true,
                "height": 200.0,
                "CEJBIGAKPDG": "Center",
                "width": 10.0,
                "length": 10.0
            },
            "JLBDFMALMOA": ""
        },
        "9": {
            "$type": "KOOMHBCJGNI",
            "gadgetId": 70010006,
            "pos": {
                "x": -26.895309448242188,
                "y": 0.03491247072815895,
                "z": -9.144379615783691
            },
            "rot": {
                "y": 253.32009887695312
            },
            "unlocked": true,
            "alias": "",
            "GNOIKNKNBEI": 500.0,
            "PMBHPOONBJD": true,
            "triggerFlag": "NoReviveRegion",
            "shape": {
                "$type": "NENJBOLIMHI",
                "DDJAPBKMFHK": true,
                "height": 200.0,
                "CEJBIGAKPDG": "Center",
                "width": 10.0,
                "length": 10.0
            },
            "JLBDFMALMOA": ""
        }
    },
    "APCJABIOJLB": {}
}