{
    "KCHJLAHIGAD": {
        "1": {
            "$type": "IPAJOHIMGBE",
            "gadgetId": 70120003,
            "pos": {
                "x": -151.91090393066406,
                "y": 14.26056957244873,
                "z": 67.59293365478516
            },
            "rot": {
                "y": 92.12650299072266
            },
            "unlocked": true,
            "alias": "",
            "size": {
                "x": 30.0,
                "y": 10.0,
                "z": 30.0
            }
        },
        "2": {
            "$type": "FPKKHCHCHPP",
            "gadgetId": 70120004,
            "pos": {
                "x": -147.17799377441406,
                "y": 19.0164794921875,
                "z": 35.73881149291992
            },
            "unlocked": true,
            "alias": "",
            "size": {
                "x": 3.0,
                "y": 3.0,
                "z": 3.0
            }
        },
        "3": {
            "$type": "IPAJOHIMGBE",
            "gadgetId": 70120003,
            "pos": {
                "x": -110.10859680175781,
                "y": -12.6283597946167,
                "z": 116.95179748535156
            },
            "rot": {
                "y": 92.12650299072266
            },
            "unlocked": true,
            "alias": "",
            "size": {
                "x": 30.0,
                "y": 10.0,
                "z": 30.0
            }
        }
    },
    "entities": {
        "1": {
            "$type": "KOOMHBCJGNI",
            "gadgetId": 70010006,
            "pos": {
                "x": -116.6155014038086,
                "y": -30.01375961303711,
                "z": 90.33643341064453
            },
            "unlocked": true,
            "alias": "",
            "GNOIKNKNBEI": 500.0,
            "PMBHPOONBJD": true,
            "triggerFlag": "DeadRegion",
            "shape": {
                "$type": "NENJBOLIMHI",
                "DDJAPBKMFHK": true,
                "height": 10.0,
                "CEJBIGAKPDG": "Center",
                "width": 300.0,
                "length": 300.0
            },
            "JLBDFMALMOA": ""
        },
        "2": {
            "$type": "KOOMHBCJGNI",
            "gadgetId": 70010006,
            "pos": {
                "x": -139.2548065185547,
                "y": 6.829312801361084,
                "z": 65.1612777709961
            },
            "unlocked": true,
            "alias": "",
            "GNOIKNKNBEI": 500.0,
            "PMBHPOONBJD": true,
            "triggerFlag": "NoReviveRegion",
            "shape": {
                "$type": "NENJBOLIMHI",
                "DDJAPBKMFHK": true,
                "height": 10.0,
                "CEJBIGAKPDG": "Center",
                "width": 300.0,
                "length": 300.0
            },
            "JLBDFMALMOA": ""
        }
    },
    "APCJABIOJLB": {}
}