{
    "KCHJLAHIGAD": {
        "1": {
            "$type": "FPKKHCHCHPP",
            "gadgetId": 70120004,
            "pos": {
                "y": 11.585639953613281,
                "z": -57.0
            },
            "unlocked": true,
            "alias": "",
            "size": {
                "x": 2.0,
                "y": 2.0,
                "z": 2.0
            }
        }
    },
    "entities": {
        "1": {
            "$type": "KOOMHBCJGNI",
            "gadgetId": 70010006,
            "pos": {
                "x": -9.928483963012695,
                "y": -18.975419998168945,
                "z": 6.031209945678711
            },
            "unlocked": true,
            "alias": "",
            "GNOIKNKNBEI": 500.0,
            "PMBHPOONBJD": true,
            "triggerFlag": "NoReviveRegion",
            "shape": {
                "$type": "NENJBOLIMHI",
                "DDJAPBKMFHK": true,
                "height": 50.0,
                "CEJBIGAKPDG": "Center",
                "width": 500.0,
                "length": 500.0
            },
            "JLBDFMALMOA": ""
        },
        "10": {
            "$type": "KOOMHBCJGNI",
            "gadgetId": 70010006,
            "pos": {
                "x": -2.8229310512542725,
                "y": -55.58060073852539,
                "z": -2.09028697013855
            },
            "unlocked": true,
            "alias": "",
            "GNOIKNKNBEI": 500.0,
            "PMBHPOONBJD": true,
            "triggerFlag": "DeadRegion",
            "shape": {
                "$type": "NENJBOLIMHI",
                "DDJAPBKMFHK": true,
                "height": 100.0,
                "CEJBIGAKPDG": "Center",
                "width": 70.0,
                "length": 70.0
            },
            "JLBDFMALMOA": ""
        },
        "11": {
            "$type": "KOOMHBCJGNI",
            "gadgetId": 70010006,
            "pos": {
                "x": -10.0,
                "y": 25.0,
                "z": -100.0
            },
            "unlocked": true,
            "alias": "",
            "GNOIKNKNBEI": 500.0,
            "PMBHPOONBJD": true,
            "triggerFlag": "DeadRegion",
            "shape": {
                "$type": "NENJBOLIMHI",
                "DDJAPBKMFHK": true,
                "height": 100.0,
                "CEJBIGAKPDG": "Center",
                "width": 500.0,
                "length": 50.0
            },
            "JLBDFMALMOA": ""
        },
        "12": {
            "$type": "KOOMHBCJGNI",
            "gadgetId": 70010006,
            "pos": {
                "x": -120.0,
                "y": 25.0,
                "z": 145.0
            },
            "unlocked": true,
            "alias": "",
            "GNOIKNKNBEI": 500.0,
            "PMBHPOONBJD": true,
            "triggerFlag": "DeadRegion",
            "shape": {
                "$type": "NENJBOLIMHI",
                "DDJAPBKMFHK": true,
                "height": 100.0,
                "CEJBIGAKPDG": "Center",
                "width": 100.0,
                "length": 100.0
            },
            "JLBDFMALMOA": ""
        },
        "2": {
            "$type": "KOOMHBCJGNI",
            "gadgetId": 70010006,
            "pos": {
                "x": 15.576299667358398,
                "y": 0.0017462220275774598,
                "z": -26.548940658569336
            },
            "rot": {
                "y": 334.3033142089844
            },
            "unlocked": true,
            "alias": "",
            "GNOIKNKNBEI": 500.0,
            "PMBHPOONBJD": true,
            "triggerFlag": "NoReviveRegion",
            "shape": {
                "$type": "NENJBOLIMHI",
                "DDJAPBKMFHK": true,
                "height": 100.0,
                "CEJBIGAKPDG": "Center",
                "width": 10.0,
                "length": 10.0
            },
            "JLBDFMALMOA": ""
        },
        "3": {
            "$type": "KOOMHBCJGNI",
            "gadgetId": 70010006,
            "pos": {
                "x": 30.106630325317383,
                "y": 4.174105167388916,
                "z": -18.340160369873047
            },
            "rot": {
                "y": 302.4831848144531
            },
            "unlocked": true,
            "alias": "",
            "GNOIKNKNBEI": 500.0,
            "PMBHPOONBJD": true,
            "triggerFlag": "NoReviveRegion",
            "shape": {
                "$type": "NENJBOLIMHI",
                "DDJAPBKMFHK": true,
                "height": 100.0,
                "CEJBIGAKPDG": "Center",
                "width": 20.0,
                "length": 20.0
            },
            "JLBDFMALMOA": ""
        },
        "4": {
            "$type": "KOOMHBCJGNI",
            "gadgetId": 70010006,
            "pos": {
                "x": 34.214820861816406,
                "y": 0.7848033905029297,
                "z": 7.123723030090332
            },
            "rot": {
                "y": 254.41859436035156
            },
            "unlocked": true,
            "alias": "",
            "GNOIKNKNBEI": 500.0,
            "PMBHPOONBJD": true,
            "triggerFlag": "NoReviveRegion",
            "shape": {
                "$type": "NENJBOLIMHI",
                "DDJAPBKMFHK": true,
                "height": 100.0,
                "CEJBIGAKPDG": "Center",
                "width": 20.0,
                "length": 20.0
            },
            "JLBDFMALMOA": ""
        },
        "5": {
            "$type": "KOOMHBCJGNI",
            "gadgetId": 70010006,
            "pos": {
                "x": 22.096210479736328,
                "y": 0.08817928284406662,
                "z": 27.03704071044922
            },
            "rot": {
                "y": 216.83590698242188
            },
            "unlocked": true,
            "alias": "",
            "GNOIKNKNBEI": 500.0,
            "PMBHPOONBJD": true,
            "triggerFlag": "NoReviveRegion",
            "shape": {
                "$type": "NENJBOLIMHI",
                "DDJAPBKMFHK": true,
                "height": 100.0,
                "CEJBIGAKPDG": "Center",
                "width": 20.0,
                "length": 20.0
            },
            "JLBDFMALMOA": ""
        },
        "6": {
            "$type": "KOOMHBCJGNI",
            "gadgetId": 70010006,
            "pos": {
                "x": -22.938709259033203,
                "y": 2.331731081008911,
                "z": -26.95758056640625
            },
            "rot": {
                "y": 223.32249450683594
            },
            "unlocked": true,
            "alias": "",
            "GNOIKNKNBEI": 500.0,
            "PMBHPOONBJD": true,
            "triggerFlag": "NoReviveRegion",
            "shape": {
                "$type": "NENJBOLIMHI",
                "DDJAPBKMFHK": true,
                "height": 100.0,
                "CEJBIGAKPDG": "Center",
                "width": 20.0,
                "length": 20.0
            },
            "JLBDFMALMOA": ""
        },
        "7": {
            "$type": "KOOMHBCJGNI",
            "gadgetId": 70010006,
            "pos": {
                "x": -34.50804901123047,
                "y": 6.307096004486084,
                "z": -6.8654022216796875
            },
            "rot": {
                "y": 254.42340087890625
            },
            "unlocked": true,
            "alias": "",
            "GNOIKNKNBEI": 500.0,
            "PMBHPOONBJD": true,
            "triggerFlag": "NoReviveRegion",
            "shape": {
                "$type": "NENJBOLIMHI",
                "DDJAPBKMFHK": true,
                "height": 100.0,
                "CEJBIGAKPDG": "Center",
                "width": 20.0,
                "length": 20.0
            },
            "JLBDFMALMOA": ""
        },
        "8": {
            "$type": "KOOMHBCJGNI",
            "gadgetId": 70010006,
            "pos": {
                "x": -30.810409545898438,
                "y": 9.070406913757324,
                "z": 16.30406951904297
            },
            "rot": {
                "y": 303.00469970703125
            },
            "unlocked": true,
            "alias": "",
            "GNOIKNKNBEI": 500.0,
            "PMBHPOONBJD": true,
            "triggerFlag": "NoReviveRegion",
            "shape": {
                "$type": "NENJBOLIMHI",
                "DDJAPBKMFHK": true,
                "height": 100.0,
                "CEJBIGAKPDG": "Center",
                "width": 20.0,
                "length": 20.0
            },
            "JLBDFMALMOA": ""
        },
        "9": {
            "$type": "KOOMHBCJGNI",
            "gadgetId": 70010006,
            "pos": {
                "x": -20.569480895996094,
                "y": 6.985960960388184,
                "z": 28.325040817260742
            },
            "rot": {
                "y": 329.4945983886719
            },
            "unlocked": true,
            "alias": "",
            "GNOIKNKNBEI": 500.0,
            "PMBHPOONBJD": true,
            "triggerFlag": "NoReviveRegion",
            "shape": {
                "$type": "NENJBOLIMHI",
                "DDJAPBKMFHK": true,
                "height": 100.0,
                "CEJBIGAKPDG": "Center",
                "width": 20.0,
                "length": 20.0
            },
            "JLBDFMALMOA": ""
        }
    },
    "APCJABIOJLB": {}
}