{
    "KCHJLAHIGAD": {
        "1": {
            "$type": "FPKKHCHCHPP",
            "gadgetId": 70120004,
            "pos": {
                "x": 12.881070137023926,
                "y": 7.322549819946289,
                "z": -62.511741638183594
            },
            "unlocked": true,
            "alias": "",
            "size": {
                "x": 5.0,
                "y": 5.0,
                "z": 5.0
            }
        }
    },
    "entities": {
        "1": {
            "$type": "KOOMHBCJGNI",
            "gadgetId": 70010006,
            "pos": {
                "x": -0.9124125838279724,
                "y": -5.037683010101318,
                "z": 107.78610229492188
            },
            "unlocked": true,
            "alias": "",
            "GNOIKNKNBEI": 500.0,
            "PMBHPOONBJD": true,
            "triggerFlag": "NoReviveRegion",
            "shape": {
                "$type": "NENJBOLIMHI",
                "DDJAPBKMFHK": true,
                "height": 200.0,
                "CEJBIGAKPDG": "Center",
                "width": 300.0,
                "length": 150.0
            },
            "JLBDFMALMOA": ""
        }
    },
    "APCJABIOJLB": {}
}