{
    "talkId": 273,
    "type": "COOP",
    "dialogList": [
        {
            "id": 190800901,
            "nextDialogs": [
                190800999
            ],
            "talkRole": {
                "type": "TALK_ROLE_NPC",
                "id": "516"
            },
            "talkContentTextMapHash": 3456001618,
            "talkAssetPath": "",
            "talkAssetPathAlter": "",
            "talkAudioName": "",
            "actionBefore": "",
            "actionWhile": "",
            "actionAfter": "",
            "optionIcon": ""
        },
        {
            "id": 190800902,
            "nextDialogs": [
                190800903
            ],
            "talkRole": {
                "type": "TALK_ROLE_NPC",
                "id": "516"
            },
            "talkContentTextMapHash": 995507634,
            "talkAssetPath": "",
            "talkAssetPathAlter": "",
            "talkAudioName": "",
            "actionBefore": "",
            "actionWhile": "",
            "actionAfter": "",
            "optionIcon": ""
        },
        {
            "id": 190800903,
            "nextDialogs": [
                190800998
            ],
            "talkRole": {
                "type": "TALK_ROLE_NPC",
                "id": "516"
            },
            "talkContentTextMapHash": 4120007698,
            "talkAssetPath": "",
            "talkAssetPathAlter": "",
            "talkAudioName": "",
            "actionBefore": "",
            "actionWhile": "",
            "actionAfter": "",
            "optionIcon": ""
        },
        {
            "id": 190800904,
            "nextDialogs": [
                190800905
            ],
            "talkRole": {
                "type": "TALK_ROLE_NPC",
                "id": "516"
            },
            "talkContentTextMapHash": 565094394,
            "talkAssetPath": "",
            "talkAssetPathAlter": "",
            "talkAudioName": "",
            "actionBefore": "",
            "actionWhile": "",
            "actionAfter": "",
            "optionIcon": ""
        },
        {
            "id": 190800905,
            "nextDialogs": [
                190800906
            ],
            "talkRole": {
                "type": "TALK_ROLE_NPC",
                "id": "516"
            },
            "talkContentTextMapHash": 444111042,
            "talkAssetPath": "",
            "talkAssetPathAlter": "",
            "talkAudioName": "",
            "actionBefore": "",
            "actionWhile": "",
            "actionAfter": "",
            "optionIcon": ""
        },
        {
            "id": 190800906,
            "nextDialogs": [
                190800997
            ],
            "talkRole": {
                "type": "TALK_ROLE_NPC",
                "id": "516"
            },
            "talkContentTextMapHash": 2350372210,
            "talkAssetPath": "",
            "talkAssetPathAlter": "",
            "talkAudioName": "",
            "actionBefore": "",
            "actionWhile": "",
            "actionAfter": "",
            "optionIcon": ""
        },
        {
            "id": 190800907,
            "nextDialogs": [
                190800908
            ],
            "talkRole": {
                "type": "TALK_ROLE_NPC",
                "id": "516"
            },
            "talkContentTextMapHash": 1659325322,
            "talkAssetPath": "",
            "talkAssetPathAlter": "",
            "talkAudioName": "",
            "actionBefore": "",
            "actionWhile": "",
            "actionAfter": "",
            "optionIcon": ""
        },
        {
            "id": 190800908,
            "nextDialogs": [
                190800909
            ],
            "talkRole": {
                "type": "TALK_ROLE_NPC",
                "id": "516"
            },
            "talkContentTextMapHash": 2870592274,
            "talkAssetPath": "",
            "talkAssetPathAlter": "",
            "talkAudioName": "",
            "actionBefore": "",
            "actionWhile": "",
            "actionAfter": "",
            "optionIcon": ""
        },
        {
            "id": 190800909,
            "nextDialogs": [
                190800910
            ],
            "talkRole": {
                "type": "TALK_ROLE_NPC",
                "id": "516"
            },
            "talkContentTextMapHash": 2846303586,
            "talkAssetPath": "",
            "talkAssetPathAlter": "",
            "talkAudioName": "",
            "actionBefore": "",
            "actionWhile": "",
            "actionAfter": "",
            "optionIcon": ""
        },
        {
            "id": 190800910,
            "nextDialogs": [
                190800911
            ],
            "talkRole": {
                "type": "TALK_ROLE_NPC",
                "id": "516"
            },
            "talkContentTextMapHash": 2747405538,
            "talkAssetPath": "",
            "talkAssetPathAlter": "",
            "talkAudioName": "",
            "actionBefore": "",
            "actionWhile": "",
            "actionAfter": "",
            "optionIcon": ""
        },
        {
            "id": 190800911,
            "nextDialogs": [
                190800912
            ],
            "talkRole": {
                "type": "TALK_ROLE_NPC",
                "id": "516"
            },
            "talkContentTextMapHash": 3479759106,
            "talkAssetPath": "",
            "talkAssetPathAlter": "",
            "talkAudioName": "",
            "actionBefore": "",
            "actionWhile": "",
            "actionAfter": "",
            "optionIcon": ""
        },
        {
            "id": 190800912,
            "nextDialogs": [
                190800913
            ],
            "talkRole": {
                "type": "TALK_ROLE_NPC",
                "id": "516"
            },
            "talkContentTextMapHash": 1869874082,
            "talkAssetPath": "",
            "talkAssetPathAlter": "",
            "talkAudioName": "",
            "actionBefore": "",
            "actionWhile": "",
            "actionAfter": "",
            "optionIcon": ""
        },
        {
            "id": 190800913,
            "nextDialogs": [
                190800914
            ],
            "talkRole": {
                "type": "TALK_ROLE_NPC",
                "id": "516"
            },
            "talkContentTextMapHash": 955488698,
            "talkAssetPath": "",
            "talkAssetPathAlter": "",
            "talkAudioName": "",
            "actionBefore": "",
            "actionWhile": "",
            "actionAfter": "",
            "optionIcon": ""
        },
        {
            "id": 190800914,
            "nextDialogs": [
                190800915
            ],
            "talkRole": {
                "type": "TALK_ROLE_NPC",
                "id": "516"
            },
            "talkContentTextMapHash": 2275320418,
            "talkAssetPath": "",
            "talkAssetPathAlter": "",
            "talkAudioName": "",
            "actionBefore": "",
            "actionWhile": "",
            "actionAfter": "",
            "optionIcon": ""
        },
        {
            "id": 190800915,
            "nextDialogs": [
                190800996,
                190800995
            ],
            "talkRole": {
                "type": "TALK_ROLE_NPC",
                "id": "2041"
            },
            "talkContentTextMapHash": 222696954,
            "talkAssetPath": "",
            "talkAssetPathAlter": "",
            "talkAudioName": "",
            "actionBefore": "",
            "actionWhile": "",
            "actionAfter": "",
            "optionIcon": ""
        },
        {
            "id": 190800916,
            "nextDialogs": [
                190800917
            ],
            "talkRole": {
                "type": "TALK_ROLE_NPC",
                "id": "2041"
            },
            "talkContentTextMapHash": 3492183370,
            "talkAssetPath": "",
            "talkAssetPathAlter": "",
            "talkAudioName": "",
            "actionBefore": "",
            "actionWhile": "",
            "actionAfter": "",
            "optionIcon": ""
        },
        {
            "id": 190800917,
            "nextDialogs": [
                190800918
            ],
            "talkRole": {
                "type": "TALK_ROLE_NPC",
                "id": "2041"
            },
            "talkContentTextMapHash": 2018078658,
            "talkAssetPath": "",
            "talkAssetPathAlter": "",
            "talkAudioName": "",
            "actionBefore": "",
            "actionWhile": "",
            "actionAfter": "",
            "optionIcon": ""
        },
        {
            "id": 190800918,
            "nextDialogs": [
                190800919
            ],
            "talkRole": {
                "type": "TALK_ROLE_NPC",
                "id": "2041"
            },
            "talkContentTextMapHash": 1885208946,
            "talkAssetPath": "",
            "talkAssetPathAlter": "",
            "talkAudioName": "",
            "actionBefore": "",
            "actionWhile": "",
            "actionAfter": "",
            "optionIcon": ""
        },
        {
            "id": 190800919,
            "nextDialogs": [
                190800920
            ],
            "talkRole": {
                "type": "TALK_ROLE_NPC",
                "id": "516"
            },
            "talkContentTextMapHash": 4268928098,
            "talkAssetPath": "",
            "talkAssetPathAlter": "",
            "talkAudioName": "",
            "actionBefore": "",
            "actionWhile": "",
            "actionAfter": "",
            "optionIcon": ""
        },
        {
            "id": 190800920,
            "nextDialogs": [
                190800921
            ],
            "talkRole": {
                "type": "TALK_ROLE_NPC",
                "id": "516"
            },
            "talkContentTextMapHash": 3119561170,
            "talkAssetPath": "",
            "talkAssetPathAlter": "",
            "talkAudioName": "",
            "actionBefore": "",
            "actionWhile": "",
            "actionAfter": "",
            "optionIcon": ""
        },
        {
            "id": 190800921,
            "nextDialogs": [
                190800922
            ],
            "talkRole": {
                "type": "TALK_ROLE_NPC",
                "id": "516"
            },
            "talkContentTextMapHash": 3339565666,
            "talkAssetPath": "",
            "talkAssetPathAlter": "",
            "talkAudioName": "",
            "actionBefore": "",
            "actionWhile": "",
            "actionAfter": "",
            "optionIcon": ""
        },
        {
            "id": 190800922,
            "nextDialogs": [
                190800923
            ],
            "talkRole": {
                "type": "TALK_ROLE_NPC",
                "id": "2041"
            },
            "talkContentTextMapHash": 2376373618,
            "talkAssetPath": "",
            "talkAssetPathAlter": "",
            "talkAudioName": "",
            "actionBefore": "",
            "actionWhile": "",
            "actionAfter": "",
            "optionIcon": ""
        },
        {
            "id": 190800923,
            "nextDialogs": [
                190800924
            ],
            "talkRole": {
                "type": "TALK_ROLE_NPC",
                "id": "516"
            },
            "talkContentTextMapHash": 2814514938,
            "talkAssetPath": "",
            "talkAssetPathAlter": "",
            "talkAudioName": "",
            "actionBefore": "",
            "actionWhile": "",
            "actionAfter": "",
            "optionIcon": ""
        },
        {
            "id": 190800924,
            "nextDialogs": [
                190800925
            ],
            "talkRole": {
                "type": "TALK_ROLE_NPC",
                "id": "516"
            },
            "talkContentTextMapHash": 3551978522,
            "talkAssetPath": "",
            "talkAssetPathAlter": "",
            "talkAudioName": "",
            "actionBefore": "",
            "actionWhile": "",
            "actionAfter": "",
            "optionIcon": ""
        },
        {
            "id": 190800925,
            "nextDialogs": [
                190800926
            ],
            "talkRole": {
                "type": "TALK_ROLE_NPC",
                "id": "516"
            },
            "talkContentTextMapHash": 2123509794,
            "talkAssetPath": "",
            "talkAssetPathAlter": "",
            "talkAudioName": "",
            "actionBefore": "",
            "actionWhile": "",
            "actionAfter": "",
            "optionIcon": ""
        },
        {
            "id": 190800926,
            "nextDialogs": [
                190800927
            ],
            "talkRole": {
                "type": "TALK_ROLE_NPC",
                "id": "516"
            },
            "talkContentTextMapHash": 812199386,
            "talkAssetPath": "",
            "talkAssetPathAlter": "",
            "talkAudioName": "",
            "actionBefore": "",
            "actionWhile": "",
            "actionAfter": "",
            "optionIcon": ""
        },
        {
            "id": 190800927,
            "nextDialogs": [
                190800928
            ],
            "talkRole": {
                "type": "TALK_ROLE_NPC",
                "id": "2041"
            },
            "talkContentTextMapHash": 110085818,
            "talkAssetPath": "",
            "talkAssetPathAlter": "",
            "talkAudioName": "",
            "actionBefore": "",
            "actionWhile": "",
            "actionAfter": "",
            "optionIcon": ""
        },
        {
            "id": 190800928,
            "nextDialogs": [
                190800994
            ],
            "talkRole": {
                "type": "TALK_ROLE_NPC",
                "id": "516"
            },
            "talkContentTextMapHash": 3494551002,
            "talkAssetPath": "",
            "talkAssetPathAlter": "",
            "talkAudioName": "",
            "actionBefore": "",
            "actionWhile": "",
            "actionAfter": "",
            "optionIcon": ""
        },
        {
            "id": 190800929,
            "talkRole": {
                "type": "TALK_ROLE_NPC",
                "id": "2041"
            },
            "talkContentTextMapHash": 1843458642,
            "talkAssetPath": "",
            "talkAssetPathAlter": "",
            "talkAudioName": "",
            "actionBefore": "",
            "actionWhile": "",
            "actionAfter": "",
            "optionIcon": ""
        },
        {
            "id": 190800994,
            "nextDialogs": [
                190800929
            ],
            "talkShowType": "TALK_SHOW_FORCE_SELECT",
            "talkRole": {
                "type": "TALK_ROLE_PLAYER",
                "id": ""
            },
            "talkContentTextMapHash": 2888025826,
            "talkAssetPath": "",
            "talkAssetPathAlter": "",
            "talkAudioName": "",
            "actionBefore": "",
            "actionWhile": "",
            "actionAfter": "",
            "optionIcon": ""
        },
        {
            "id": 190800995,
            "nextDialogs": [
                190800916
            ],
            "talkRole": {
                "type": "TALK_ROLE_PLAYER",
                "id": ""
            },
            "talkContentTextMapHash": 2788138130,
            "talkAssetPath": "",
            "talkAssetPathAlter": "",
            "talkAudioName": "",
            "actionBefore": "",
            "actionWhile": "",
            "actionAfter": "",
            "optionIcon": ""
        },
        {
            "id": 190800996,
            "nextDialogs": [
                190800916
            ],
            "talkRole": {
                "type": "TALK_ROLE_PLAYER",
                "id": ""
            },
            "talkContentTextMapHash": 4050855154,
            "talkAssetPath": "",
            "talkAssetPathAlter": "",
            "talkAudioName": "",
            "actionBefore": "",
            "actionWhile": "",
            "actionAfter": "",
            "optionIcon": ""
        },
        {
            "id": 190800997,
            "nextDialogs": [
                190800907
            ],
            "talkShowType": "TALK_SHOW_FORCE_SELECT",
            "talkRole": {
                "type": "TALK_ROLE_PLAYER",
                "id": ""
            },
            "talkContentTextMapHash": 754999970,
            "talkAssetPath": "",
            "talkAssetPathAlter": "",
            "talkAudioName": "",
            "actionBefore": "",
            "actionWhile": "",
            "actionAfter": "",
            "optionIcon": ""
        },
        {
            "id": 190800998,
            "nextDialogs": [
                190800904
            ],
            "talkShowType": "TALK_SHOW_FORCE_SELECT",
            "talkRole": {
                "type": "TALK_ROLE_PLAYER",
                "id": ""
            },
            "talkContentTextMapHash": 909064058,
            "talkAssetPath": "",
            "talkAssetPathAlter": "",
            "talkAudioName": "",
            "actionBefore": "",
            "actionWhile": "",
            "actionAfter": "",
            "optionIcon": ""
        },
        {
            "id": 190800999,
            "nextDialogs": [
                190800902
            ],
            "talkShowType": "TALK_SHOW_FORCE_SELECT",
            "talkRole": {
                "type": "TALK_ROLE_PLAYER",
                "id": ""
            },
            "talkContentTextMapHash": 2103970650,
            "talkAssetPath": "",
            "talkAssetPathAlter": "",
            "talkAudioName": "",
            "actionBefore": "",
            "actionWhile": "",
            "actionAfter": "",
            "optionIcon": ""
        }
    ],
    "JPAECIANEML": [
        "[3_4215:-685.116,205.960,47.522,0.000,68.028,0.000]",
        "[3_4216:-682.786,205.960,48.669,0.000,237.498,0.000]"
    ]
}