{
    "EBEOAACMOBJ": 193001,
    "groupId": 199002193,
    "talks": [
        {
            "id": 6800379,
            "beginWay": "TALK_BEGIN_MANUAL",
            "activeMode": "PLAY_MODE_ALL",
            "beginCond": [
                {
                    "type": "QUEST_COND_GADGET_TALK_STATE_EQUAL",
                    "param": [
                        "193001",
                        "199002193",
                        "0"
                    ]
                }
            ],
            "initDialog": 680037901,
            "performCfg": "",
            "loadType": "TALK_GADGET",
            "assetIndex": 18027061994162708190,
            "prePerformCfg": "",
            "finishExec": [
                {
                    "type": "TALK_EXEC_SET_GADGET_STATE",
                    "param": [
                        "0"
                    ]
                }
            ]
        }
    ]
}