{
    "EBEOAACMOBJ": 259003,
    "groupId": 133307259,
    "talks": [
        {
            "id": 6834200,
            "beginWay": "TALK_BEGIN_MANUAL",
            "activeMode": "PLAY_MODE_HOST",
            "beginCond": [
                {
                    "type": "QUEST_COND_GADGET_TALK_STATE_EQUAL",
                    "param": [
                        "259003",
                        "133307259",
                        "0"
                    ]
                }
            ],
            "initDialog": 683420001,
            "performCfg": "",
            "loadType": "TALK_GADGET",
            "assetIndex": 9560134371711692874,
            "prePerformCfg": ""
        },
        {
            "id": 6834300,
            "beginWay": "TALK_BEGIN_MANUAL",
            "activeMode": "PLAY_MODE_HOST",
            "beginCond": [
                {
                    "type": "QUEST_COND_GADGET_TALK_STATE_EQUAL",
                    "param": [
                        "259003",
                        "133307259",
                        "1"
                    ]
                }
            ],
            "initDialog": 683430001,
            "performCfg": "",
            "loadType": "TALK_GADGET",
            "assetIndex": 15151470823244204425,
            "prePerformCfg": ""
        }
    ]
}