{
    "EBEOAACMOBJ": 77001,
    "groupId": 199001077,
    "talks": [
        {
            "id": 6800264,
            "beginWay": "TALK_BEGIN_MANUAL",
            "activeMode": "PLAY_MODE_ALL",
            "beginCond": [
                {
                    "type": "QUEST_COND_GADGET_TALK_STATE_EQUAL",
                    "param": [
                        "77001",
                        "199001077",
                        "0"
                    ]
                }
            ],
            "initDialog": 680026401,
            "performCfg": "",
            "loadType": "TALK_GADGET",
            "assetIndex": 15526912555688439997,
            "prePerformCfg": "",
            "finishExec": [
                {
                    "type": "TALK_EXEC_SET_GADGET_STATE",
                    "param": [
                        "0"
                    ]
                }
            ]
        }
    ]
}