{
    "EBEOAACMOBJ": 78004,
    "groupId": 133221078,
    "talks": [
        {
            "id": 6801407,
            "beginWay": "TALK_BEGIN_MANUAL",
            "initDialog": 680140701,
            "performCfg": "",
            "loadType": "TALK_GADGET",
            "assetIndex": 11327261437267956272,
            "prePerformCfg": ""
        }
    ]
}