{
    "EBEOAACMOBJ": 87001,
    "groupId": 144001087,
    "talks": [
        {
            "id": 6800221,
            "beginWay": "TALK_BEGIN_MANUAL",
            "activeMode": "PLAY_MODE_ALL",
            "beginCond": [
                {
                    "type": "QUEST_COND_GADGET_TALK_STATE_EQUAL",
                    "param": [
                        "87001",
                        "144001087",
                        "6800221"
                    ]
                }
            ],
            "priority": 5,
            "initDialog": 680022101,
            "performCfg": "",
            "loadType": "TALK_GADGET",
            "assetIndex": 4886952517396314813,
            "prePerformCfg": "",
            "finishExec": [
                {
                    "type": "TALK_EXEC_SET_GADGET_STATE",
                    "param": [
                        "6800221"
                    ]
                }
            ]
        }
    ]
}