{
    "EBEOAACMOBJ": 93001,
    "groupId": 144001093,
    "talks": [
        {
            "id": 6800227,
            "beginWay": "TALK_BEGIN_MANUAL",
            "activeMode": "PLAY_MODE_ALL",
            "beginCond": [
                {
                    "type": "QUEST_COND_GADGET_TALK_STATE_EQUAL",
                    "param": [
                        "93001",
                        "144001093",
                        "6800227"
                    ]
                }
            ],
            "priority": 5,
            "initDialog": 680022701,
            "performCfg": "",
            "loadType": "TALK_GADGET",
            "assetIndex": 9021341099588581253,
            "prePerformCfg": "",
            "finishExec": [
                {
                    "type": "TALK_EXEC_SET_GADGET_STATE",
                    "param": [
                        "6800227"
                    ]
                }
            ]
        }
    ]
}